{
  "File": "math-addition_74.webm",
  "ID": "rAvOeG9OW8s",
  "AudioLang": "",
  "DefaultLang": "zu",
  "Title": "Iba master izibalo! 💯 Ibanga Lokuqala Izibalo | Ukwengezwa 74 ➕",
  "Description": "Sicela baphendula bathini ngokuzwakalayo! 🗣\n\nKothisha nasezikoleni:\nLe vidiyo ishicilelwe ngaphansi kwelayisensi yeCreative Commons.\n  CC BY 3.0 https://creativecommons.org/licenses/by/3.0/ \nZizwe ukhululekile ukusebenzisa le vidiyo emakilasini akho!\n\nSisebenzisa insiza ye-Google Humusha ukwenza okwasendaweni. Uma uthola amanye amaphutha, sicela usazise.\n",
  "VideoTags": "math,Ibanga Lokuqala,isikole samabanga aphansi,izibalo",
  "YoutubeSynced": true,
  "ThumbnailUploaded": false,
  "Localizations": [
    {
      "Lang": "af",
      "Title": "'N wiskunde meester! 💯 Graad 1 Wiskunde | Optelling 74 ➕",
      "Description": "Asseblief sê die antwoord hardop! 🗣\n\nAan onderwysers en skole:\nHierdie video word onder Creative Commons-lisensie gepubliseer.\n  CC BY 3.0 https://creativecommons.org/licenses/by/3.0/ \nGebruik gerus hierdie video in u klasse!\n\nOns gebruik Google Translate-diens vir lokalisering. Laat weet ons as u foute ervaar.\n",
      "TwitterStatusID": 1261941640819691520
    },
    {
      "Lang": "am",
      "Title": "አንድ የሒሳብ ማስተር ይሁኑ! 💯 1 ኛ ክፍል ሒሳብ | በተጨማሪ 74 ➕",
      "Description": "ጮክ መልሱን ውጭ ይላሉ እባክህ! 🗣\n\nለመምህራን እና ለት / ቤቶች\nይህ ቪዲዮ በ Creative Commons ፈቃድ ስር ታትሟል ፡፡\n  CC BY 3.0 https://creativecommons.org/licenses/by/3.0/ \nይህንን ቪዲዮ በትምህርቶችዎ ውስጥ ለመጠቀም ነፃ ይሁኑ!\n\nለትርጉም የ Google ትርጉም አገልግሎትን እንጠቀማለን። አንዳንድ ስህተቶች ካገኙ እባክዎ ያሳውቁን።\n",
      "TwitterStatusID": 1261942060224884736
    },
    {
      "Lang": "ar",
      "Title": "تصبح على درجة الماجستير في الرياضيات! 💯 1st الصف الرياضيات | جمع 74 ➕",
      "Description": "الرجاء يقول الجواب بصوت عال! 🗣\n\nللمعلمين والمدارس:\nتم نشر هذا الفيديو تحت رخصة المشاع الإبداعي.\n  CC BY 3.0 https://creativecommons.org/licenses/by/3.0/ \nلا تتردد في استخدام هذا الفيديو في الفصول الدراسية!\n\nنستخدم خدمة الترجمة من Google للترجمة. إذا وجدت بعض الأخطاء ، يرجى إعلامنا.\n",
      "TwitterStatusID": 1261942479709847552
    },
    {
      "Lang": "az",
      "Title": "bir riyaziyyat master ol! 💯 1-ci sinif Math | Toplama 74 ➕",
      "Description": "yüksək cavab demək edin! 🗣\n\nMüəllimlərə və məktəblərə:\nBu video Creative Commons lisenziyası altında yayımlanıb.\n  CC BY 3.0 https://creativecommons.org/licenses/by/3.0/ \nBu videonu dərslərinizdə istifadə etməkdən çekinmeyin!\n\nLokallaşdırma üçün Google Translate xidmətindən istifadə edirik. Bəzi səhvlər taparsanız, bizə bildirin.\n",
      "TwitterStatusID": 1261942899106738176
    },
    {
      "Lang": "be",
      "Title": "Стаць матэматыкам майстар! 💯 першы клас Матэматычны | Складанне 74 ➕",
      "Description": "Скажыце, калі ласка, адказ гучна! 🗣\n\nДля настаўнікаў і школ:\nГэта відэа публікуецца пад ліцэнзіяй Creative Commons.\n  CC BY 3.0 https://creativecommons.org/licenses/by/3.0/ \nНе саромейцеся выкарыстоўваць гэта відэа ў сваіх класах!\n\nМы выкарыстоўваем паслугу Google Translate для лакалізацыі. Калі вы выявілі некаторыя памылкі, калі ласка, паведаміце нам пра гэта.\n",
      "TwitterStatusID": 1261943318524518400
    },
    {
      "Lang": "bg",
      "Title": "Станете майстор математика! 💯 1-ви клас Математика | Събиране 74 ➕",
      "Description": "Моля те, кажи отговора на глас! 🗣\n\nЗа учители и училища:\nТози видеоклип е публикуван под Creative Commons License.\n  CC BY 3.0 https://creativecommons.org/licenses/by/3.0/ \nЧувствайте се свободни да използвате това видео в класовете си!\n\nНие използваме услугата Google Translate за локализация. Ако откриете някои грешки, моля, уведомете ни.\n",
      "TwitterStatusID": 1261943738030407682
    },
    {
      "Lang": "bn",
      "Title": "একটি গণিত মাস্টার হয়ে যান! 💯 1 ম মান গণিত | যোগফল 74 ➕",
      "Description": "দয়া করে অট্ট উত্তর আউট বলে! 🗣\n\nশিক্ষক এবং বিদ্যালয়ের কাছে:\nএই ভিডিওটি ক্রিয়েটিভ কমন্স লাইসেন্সের আওতায় প্রকাশিত হয়েছে।\n  CC BY 3.0 https://creativecommons.org/licenses/by/3.0/ \nআপনার ক্লাসে এই ভিডিওটি নির্দ্বিধায় ব্যবহার করুন!\n\nআমরা স্থানীয়করণের জন্য গুগল অনুবাদ পরিষেবা ব্যবহার করি। আপনি যদি কিছু ভুল খুঁজে পান তবে দয়া করে আমাদের জানান।\n",
      "TwitterStatusID": 1261944157628559361
    },
    {
      "Lang": "bs",
      "Title": "Postanite matematike majstor! 💯 1. razred Matematika | Sabiranje 74 ➕",
      "Description": "Molim te, reci odgovor glasno! 🗣\n\nNastavnicima i školama:\nOvaj video je objavljen pod Creative Commons licencom.\n  CC BY 3.0 https://creativecommons.org/licenses/by/3.0/ \nSlobodno koristite ovaj videozapis u svojim predavanjima!\n\nZa lokalizaciju koristimo uslugu Google Translate. Ako pronađete neke greške, javite nam se.\n",
      "TwitterStatusID": 1261944577021239296
    },
    {
      "Lang": "ca",
      "Title": "Convertir-se en un mestre de matemàtiques! 💯 1º Primaria Matemàtiques | Suma 74 ➕",
      "Description": "Si us plau, dir que la resposta en veu alta! 🗣\n\nA professors i escoles:\nAquest vídeo es publica sota llicència Creative Commons.\n  CC BY 3.0 https://creativecommons.org/licenses/by/3.0/ \nNo dubteu a utilitzar aquest vídeo a les vostres classes.\n\nUtilitzem el servei de Google Translate per a la localització. Si trobeu alguns errors, feu-nos-ho saber.\n",
      "TwitterStatusID": 1261944996481007618
    },
    {
      "Lang": "co",
      "Title": "Divintatu un signore maths! 💯 1st scelta Maths | Campu Tondu 74 ➕",
      "Description": "Pè dì la risposta fora voce! 🗣\n\nÀ i prufessori è à e scole:\nStu video hè publicatu sottu licenza Creative Commons.\n  CC BY 3.0 https://creativecommons.org/licenses/by/3.0/ \nSentitevi liberi d'utilizà stu video in i vostri classi!\n\nUsu u serviziu di Google Translate per a localizazione. Se truvate qualchì sbagli, per piaceci di sapè.\n",
      "TwitterStatusID": 1261945415936536578
    },
    {
      "Lang": "cs",
      "Title": "Staňte se matematický pán! 💯 První Třídy Matematika | Sčítání 74 ➕",
      "Description": "Prosím, řekněte odpověď nahlas! 🗣\n\nUčitelům a školám:\nToto video je publikováno pod licencí Creative Commons License.\n  CC BY 3.0 https://creativecommons.org/licenses/by/3.0/ \nNeváhejte použít toto video ve svých třídách!\n\nK lokalizaci používáme službu Google Translate. Pokud narazíte na nějaké chyby, dejte nám prosím vědět.\n",
      "TwitterStatusID": 1261945835274657792
    },
    {
      "Lang": "cy",
      "Title": "Dod yn feistr mathemateg! 💯 gradd 1af Mathemateg | Ychwanegu 74 ➕",
      "Description": "Dywedwch yr ateb yn uchel! 🗣\n\nI athrawon ac ysgolion:\nCyhoeddir y fideo hon o dan Creative Commons License.\n  CC BY 3.0 https://creativecommons.org/licenses/by/3.0/ \nMae croeso i chi ddefnyddio'r fideo hon yn eich dosbarthiadau!\n\nRydym yn defnyddio gwasanaeth Google Translate ar gyfer lleoleiddio. Os dewch chi o hyd i rai camgymeriadau, rhowch wybod i ni.\n",
      "TwitterStatusID": 1261946254793138179
    },
    {
      "Lang": "da",
      "Title": "Bliv matematik mester! 💯 1 Klasse Matematik | Addition 74 ➕",
      "Description": "Venligst sige svaret højt! 🗣\n\nTil lærere og skoler:\nDenne video er offentliggjort under Creative Commons License.\n  CC BY 3.0 https://creativecommons.org/licenses/by/3.0/ \nBrug gjerne denne video i dine klasser!\n\nVi bruger Google Translate-tjenesten til lokalisering. Hvis du finder nogle fejl, så lad os vide det.\n",
      "TwitterStatusID": 1261946674080956416
    },
    {
      "Lang": "de",
      "Title": "Werden Sie ein Mathe-Meister! 💯 1 Klasse Mathematik | Addition 74 ➕",
      "Description": "Bitte sagen die Antwort laut! 🗣\n\nAn Lehrer und Schulen:\nDieses Video wird unter der Creative Commons License veröffentlicht.\n  CC BY 3.0 https://creativecommons.org/licenses/by/3.0/ \nFühlen Sie sich frei, dieses Video in Ihren Klassen zu verwenden!\n\nWir verwenden den Google Translate-Dienst zur Lokalisierung. Wenn Sie Fehler finden, teilen Sie uns dies bitte mit.\n",
      "TwitterStatusID": 1261947093616189440
    },
    {
      "Lang": "el",
      "Title": "Γίνετε πλοίαρχος μαθηματικά! 💯 1η τάξη Μαθηματικά | Πρόσθεση 74 ➕",
      "Description": "Παρακαλείστε να πω την απάντηση δυνατά! 🗣\n\nΣτους εκπαιδευτικούς και τα σχολεία:\nΑυτό το βίντεο δημοσιεύεται υπό Creative Commons License.\n  CC BY 3.0 https://creativecommons.org/licenses/by/3.0/ \nΜπορείτε να χρησιμοποιήσετε αυτό το βίντεο στις τάξεις σας!\n\nΧρησιμοποιούμε την υπηρεσία Google Translate για εντοπισμό. Αν βρείτε κάποια λάθη, ενημερώστε μας.\n",
      "TwitterStatusID": 1261947513038233601
    },
    {
      "Lang": "en",
      "Title": "Be a math master! 💯 1st Grade Math | Addition 74 ➕",
      "Description": "Please say the answer out loud! 🗣\n\nTo teachers and schools:\nThis video is published under Creative Commons License.\n  CC BY 3.0 https://creativecommons.org/licenses/by/3.0/ \nFeel free to use this video in your classes!\n\nWe use Google Translate service for localization. If you find some mistakes, please let us know.\n",
      "TwitterStatusID": 1261947932468600839
    },
    {
      "Lang": "es",
      "Title": "Convertirse en un maestro de matemáticas! 💯 1er Grado Matemáticas | Adición 74 ➕",
      "Description": "Por favor, decir que la respuesta en voz alta! 🗣\n\nA profesores y escuelas:\nEste video se publica bajo licencia Creative Commons.\n  CC BY 3.0 https://creativecommons.org/licenses/by/3.0/ \n¡Siéntete libre de usar este video en tus clases!\n\nUtilizamos el servicio Google Translate para la localización. Si encuentra algunos errores, háganoslo saber.\n",
      "TwitterStatusID": 1261948351940923392
    },
    {
      "Lang": "et",
      "Title": "Hakka matemaatika kapten! 💯 1. Klass Matemaatika | Liitmise 74 ➕",
      "Description": "Palun öelge vastus valjusti! 🗣\n\nÕpetajatele ja koolidele:\nSee video on avaldatud Creative Commonsi litsentsi all.\n  CC BY 3.0 https://creativecommons.org/licenses/by/3.0/ \nKasutage seda videot julgelt oma tundides!\n\nLokaliseerimiseks kasutame Google'i tõlke teenust. Kui leiate vigu, palun andke meile sellest teada.\n",
      "TwitterStatusID": 1261961222544449536
    },
    {
      "Lang": "eu",
      "Title": "matematika maisu bihurtu! 💯 1. Maila Matematika | Batuketa 74 ➕",
      "Description": "Mesedez, esan erantzuna ozen! 🗣\n\nIrakasleei eta ikastetxeei:\nBideo hau Creative Commons lizentziapean argitaratzen da.\n  CC BY 3.0 https://creativecommons.org/licenses/by/3.0/ \nEz ahaztu bideo hau zure klaseetan erabiltzeko!\n\nGoogle Translate zerbitzua erabiltzen dugu lokalizaziorako. Akats batzuk aurkitzen badituzu, adierazi iezaguzu\n",
      "TwitterStatusID": 1261961641987457025
    },
    {
      "Lang": "fa",
      "Title": "تبدیل به یک استاد ریاضی! 💯 درجه 1 ریاضی | جمع 74 ➕",
      "Description": "لطفا جواب می گویند با صدای بلند! 🗣\n\nبه معلمان و مدارس:\nاین ویدیو تحت مجوز Creative Commons منتشر شده است.\n  CC BY 3.0 https://creativecommons.org/licenses/by/3.0/ \nدر استفاده از این فیلم در کلاس های خود احساس راحتی کنید!\n\nما از خدمات Google Translate برای محلی سازی استفاده می کنیم. اگر شما برخی از اشتباهات ، لطفا به ما اطلاع دهید.\n",
      "TwitterStatusID": 1261962061430394880
    },
    {
      "Lang": "fi",
      "Title": "Ryhdy matematiikka mestari! 💯 1. luokka Matematiikka | Yhteen-ja 74 ➕",
      "Description": "Voisitteko kertoa vastauksen ääneen! 🗣\n\nOpettajille ja kouluille:\nTämä video on julkaistu Creative Commons -lisenssillä.\n  CC BY 3.0 https://creativecommons.org/licenses/by/3.0/ \nVoit vapaasti käyttää tätä videota luokissa!\n\nKäytämme lokalisointiin Google Translate -palvelua. Jos löydät virheitä, ota meihin yhteyttä.\n",
      "TwitterStatusID": 1261962480852451328
    },
    {
      "Lang": "fil",
      "Title": "Maging isang matematika master! 💯 Unang Baitang Math | Addition 74 ➕",
      "Description": "Sumagot nang malakas! 🗣\n\nSa mga guro at paaralan:\nAng video na ito ay nai-publish sa ilalim ng Lisensya ng Creative Commons.\n  CC BY 3.0 https://creativecommons.org/licenses/by/3.0/ \nHuwag mag-atubiling gamitin ang video na ito sa iyong mga klase!\n\nWe use Google Translate service for localization. If you find some mistakes, please let us know.\n",
      "TwitterStatusID": 1261962900370911234
    },
    {
      "Lang": "fr",
      "Title": "Devenez un maître de mathématiques! 💯 1ère Année Math | Addition 74 ➕",
      "Description": "S'il vous plaît dire la réponse à haute voix! 🗣\n\nAux enseignants et aux écoles:\nCette vidéo est publiée sous licence Creative Commons.\n  CC BY 3.0 https://creativecommons.org/licenses/by/3.0/ \nN'hésitez pas à utiliser cette vidéo dans vos cours!\n\nNous utilisons le service Google Translate pour la localisation. Si vous trouvez des erreurs, veuillez nous en informer.\n",
      "TwitterStatusID": 1261963319876833280
    },
    {
      "Lang": "fy",
      "Title": "Wurd in math master! 💯 1st grade Math | Wierren 74 ➕",
      "Description": "Nim dan sizze it antwurd out loud! 🗣\n\nOan dosinten en skoallen:\nDizze fideo wurdt publisearre ûnder Creative Commons License.\n  CC BY 3.0 https://creativecommons.org/licenses/by/3.0/ \nFiel jo frij om dizze fideo te brûken yn jo klassen!\n\nWy brûke Google Translate tsjinst foar lokalisaasje. As jo wat flaters fine, lit it ús dan witte.\n",
      "TwitterStatusID": 1261963739164635136
    },
    {
      "Lang": "gd",
      "Title": "A bhith na mhaighstir math! 💯 1mh ìre Math | Addition 74 ➕",
      "Description": "Chan their an fhreagairt a-mach! 🗣\n\nDo thidsearan agus sgoiltean:\nTha a ’bhidio seo air fhoillseachadh fo Creative Commons License.\n  CC BY 3.0 https://creativecommons.org/licenses/by/3.0/ \nFaodaidh tu am bhidio seo a chleachdadh anns na clasaichean agad!\n\nBidh sinn a ’cleachdadh seirbheis Google Translate airson sgìreachadh. Ma lorgas tu cuid de mhearachdan, feuch an innis thu dhuinn.\n",
      "TwitterStatusID": 1261964158720864259
    },
    {
      "Lang": "gl",
      "Title": "Tornouse un mestre de matemáticas! 💯 1º de Primaria Matemáticas | Suma 74 ➕",
      "Description": "Por favor, diga a resposta en voz alta! 🗣\n\nPara profesores e colexios:\nEste vídeo está publicado baixo a licenza Creative Commons.\n  CC BY 3.0 https://creativecommons.org/licenses/by/3.0/ \nNon dubides en usar este vídeo nas túas clases.\n\nUsamos o servizo Google Translate para a súa localización. Se atopas algún erro, comunícanos.\n",
      "TwitterStatusID": 1261964578088292353
    },
    {
      "Lang": "gu",
      "Title": "એક ગણિત માસ્ટર બનો! 💯 1 લી ગ્રેડ ગણિત | સરવાળો 74 ➕",
      "Description": "કૃપા કરીને અવાજે જવાબ બહાર કહેવું! 🗣\n\nશિક્ષકો અને શાળાઓને:\nઆ વિડિઓ ક્રિએટિવ કonsમન્સ લાઇસન્સ હેઠળ પ્રકાશિત છે.\n  CC BY 3.0 https://creativecommons.org/licenses/by/3.0/ \nતમારા વર્ગોમાં આ વિડિઓનો ઉપયોગ કરવા માટે મફત લાગે!\n\nઅમે સ્થાનિકીકરણ માટે Google ભાષાંતર સેવાનો ઉપયોગ કરીએ છીએ. જો તમને કેટલીક ભૂલો લાગે છે, તો કૃપા કરીને અમને જણાવો.\n",
      "TwitterStatusID": 1261964997573308416
    },
    {
      "Lang": "ha",
      "Title": "Zama ilimin lissafi maigidana! 💯 1st sa Ilimin lissafi | Bugu da kari 74 ➕",
      "Description": "Don Allah ce amsar da karfi! 🗣\n\nGa malamai da makarantu:\nWannan bidiyon an buga shi a ƙarƙashin lasisin Creative Commons.\n  CC BY 3.0 https://creativecommons.org/licenses/by/3.0/ \nJin kyauta don amfani da wannan bidiyon a cikin azuzuwanku!\n\nMuna amfani da sabis na Google Fassara don fassarar. Idan ka sami wasu kurakurai, da fatan za a sanar da mu.\n",
      "TwitterStatusID": 1261965417041428480
    },
    {
      "Lang": "hi",
      "Title": "एक गणित मास्टर बनें! 💯 1st ग्रेड गणित | जोड़ 74 ➕",
      "Description": "कृपया जोर से जवाब बाहर का कहना है! 🗣\n\nशिक्षकों और स्कूलों के लिए:\nयह वीडियो क्रिएटिव कॉमन्स लाइसेंस के तहत प्रकाशित हुआ है।\n  CC BY 3.0 https://creativecommons.org/licenses/by/3.0/ \nअपनी कक्षाओं में इस वीडियो का उपयोग करने के लिए स्वतंत्र महसूस करें!\n\nहम स्थानीयकरण के लिए Google अनुवाद सेवा का उपयोग करते हैं। यदि आप कुछ गलतियाँ पाते हैं, तो कृपया हमें बताएँ।\n",
      "TwitterStatusID": 1261965836543160321
    },
    {
      "Lang": "hr",
      "Title": "Postanite matematike majstor! 💯 1. Razred Matematika | Zbrajanje 74 ➕",
      "Description": "Molim te, reci odgovor glasno! 🗣\n\nNastavnicima i školama:\nOvaj videozapis objavljen je pod licencom Creative Commons.\n  CC BY 3.0 https://creativecommons.org/licenses/by/3.0/ \nSlobodno upotrijebite ovaj videozapis u svojim predavanjima!\n\nZa lokalizaciju koristimo uslugu Google Translate. Ako pronađete neke pogreške, javite nam se.\n",
      "TwitterStatusID": 1261966255914795008
    },
    {
      "Lang": "hu",
      "Title": "Legyen egy matematikai mester! 💯 1. Osztálya Matematikai | Összeadás 74 ➕",
      "Description": "Kérjük, mondjuk a válasz hangosan! 🗣\n\nTanároknak és iskoláknak:\nEz a videó a Creative Commons License alatt jelenik meg.\n  CC BY 3.0 https://creativecommons.org/licenses/by/3.0/ \nNyugodtan használja ezt a videót az osztályokban!\n\nA lokalizációhoz a Google Translate szolgáltatást használjuk. Ha hibát talál, kérjük, ossza meg velünk.\n",
      "TwitterStatusID": 1261966675345211393
    },
    {
      "Lang": "hy",
      "Title": "Դարձեք մաթեմատիկական վարպետ! 💯 1-ին դասարան Մաթեմատիկա | Գումարում 74 ➕",
      "Description": "Խնդրում ենք ասել, որ պատասխան բարձրաձայն! 🗣\n\nՈւսուցիչներին և դպրոցներին.\nԱյս տեսանյութը հրապարակված է Creative Commons արտոնագրի ներքո:\n  CC BY 3.0 https://creativecommons.org/licenses/by/3.0/ \nԱզատորեն օգտվեք այս տեսանյութից ձեր դասերից:\n\nՄենք օգտագործում ենք Google Translate ծառայությունը տեղայնացման համար: Եթե որոշ սխալներ եք գտնում, խնդրում ենք տեղեկացնել մեզ:\n",
      "TwitterStatusID": 1261967094817513472
    },
    {
      "Lang": "id",
      "Title": "Menjadi master matematika! 💯 Kelas 1 Matematika | Penambahan 74 ➕",
      "Description": "Tolong katakan jawabannya keras! 🗣\n\nKepada guru dan sekolah:\nVideo ini diterbitkan di bawah Lisensi Creative Commons.\n  CC BY 3.0 https://creativecommons.org/licenses/by/3.0/ \nJangan ragu untuk menggunakan video ini di kelas Anda!\n\nKami menggunakan layanan Google Terjemahan untuk pelokalan. Jika Anda menemukan beberapa kesalahan, beri tahu kami.\n",
      "TwitterStatusID": 1261967514260520961
    },
    {
      "Lang": "ig",
      "Title": "Bụrụnụ ndị na-a mgbakọ na mwepụ ukwu! 💯 1st ọkwa Ná mgbakọ na mwepụ | Mgbakwunye 74 ➕",
      "Description": "Biko na-ekwu n'olu dara ụda! 🗣\n\nMaka ndị nkuzi na ụlọ akwụkwọ:\nEdere vidiyo a n'okpuru ikikere Creative Commons.\n  CC BY 3.0 https://creativecommons.org/licenses/by/3.0/ \nNwere onwe gị iji vidiyo a na klaasị gị!\n\nAnyị na-eji ọrụ ntụgharị Google emegharị. Ọ bụrụ n’ịhụ ụfọdụ mmejọ, biko mee ka anyị mara.\n",
      "TwitterStatusID": 1261967933716103169
    },
    {
      "Lang": "is",
      "Title": "Gerast stærðfræði snillingur! 💯 1. Bekkjar Stærðfræði | Samlagning 74 ➕",
      "Description": "Vinsamlegast segja svarið upphátt! 🗣\n\nTil kennara og skóla:\nÞetta myndband er birt undir Creative Commons leyfi.\n  CC BY 3.0 https://creativecommons.org/licenses/by/3.0/ \nEkki hika við að nota þetta myndband í bekkjum þínum!\n\nVið notum Google Translate þjónustu til að staðsetja. Láttu okkur vita ef þú finnur fyrir einhverjum mistökum.\n",
      "TwitterStatusID": 1261968353159073792
    },
    {
      "Lang": "it",
      "Title": "Diventa un maestro di matematica! 💯 1° Grado Matematica | Addizione 74 ➕",
      "Description": "Si prega di dire che la risposta ad alta voce! 🗣\n\nPer insegnanti e scuole:\nQuesto video è pubblicato sotto la licenza Creative Commons.\n  CC BY 3.0 https://creativecommons.org/licenses/by/3.0/ \nSentiti libero di usare questo video nelle tue lezioni!\n\nUtilizziamo il servizio Google Translate per la localizzazione. Se trovi qualche errore, faccelo sapere.\n",
      "TwitterStatusID": 1261968772585283585
    },
    {
      "Lang": "iw",
      "Title": "להיות הורים מתמטיקה! 💯 כיתה ה -1 מתמטיקה | חיבור 74 ➕",
      "Description": "נא לומר את התשובה רמה! 🗣\n\nלמורים ובתי ספר:\nסרטון זה מתפרסם תחת רישיון Creative Commons.\n  CC BY 3.0 https://creativecommons.org/licenses/by/3.0/ \nאל תהסס להשתמש בסרטון זה בשיעורים שלך!\n\nאנו משתמשים בשירות Google Translate לצורך לוקליזציה. אם אתה מוצא טעויות, אנא הודע לנו על כך.\n",
      "TwitterStatusID": 1261969192120487942
    },
    {
      "Lang": "ja",
      "Title": "さんすうマスターになろう！ 💯 小1 数学 | たしざん 74 ➕",
      "Description": "おおきなこえでこたえをいおう！ 🗣\n\n先生と学校へ：\nこのビデオは、クリエイティブコモンズライセンスの下で公開されています。\n  CC BY 3.0 https://creativecommons.org/licenses/by/3.0/ \nこのビデオをクラスで自由に使用してください！\n\nローカライズにはGoogle翻訳サービスを使用しています。間違いを見つけた場合はお知らせください。\n",
      "TwitterStatusID": 1261969611588661249
    },
    {
      "Lang": "jv",
      "Title": "Dadi master math! 💯 1st bahan Math | Saliyane 74 ➕",
      "Description": "Mangga ngomong jawaban metu seru! 🗣\n\nTumrap guru lan sekolah:\nVideo iki diterbitake ing lisensi Creative Commons.\n  CC BY 3.0 https://creativecommons.org/licenses/by/3.0/ \nOjo nggunakake video iki ing kelas sampeyan!\n\nKita nggunakake layanan Google Translate kanggo lokalisasi. Yen sampeyan nemokake sawetara kesalahan, kabari.\n",
      "TwitterStatusID": 1261970030905810945
    },
    {
      "Lang": "ka",
      "Title": "გახდი მათემატიკის სამაგისტრო! 💯 1 კლასის მათემატიკა | მიმატება 74 ➕",
      "Description": "გთხოვთ, ამბობენ, რომ პასუხი ხმამაღლა! 🗣\n\nმასწავლებლებსა და სკოლებს:\nეს ვიდეო გამოქვეყნებულია Creative Commons- ის ლიცენზიით.\n  CC BY 3.0 https://creativecommons.org/licenses/by/3.0/ \nშეგიძლიათ გამოიყენოთ ეს ვიდეო თქვენს კლასებში!\n\nჩვენ ვიყენებთ Google Translate სერვისს ლოკალიზაციისთვის. თუ შეცდომებს იპოვნით, გთხოვთ, შეგვატყობინოთ.\n",
      "TwitterStatusID": 1261970450407550979
    },
    {
      "Lang": "kk",
      "Title": "математика шебері бол! 💯 1-ші сынып Математика | Қосу 74 ➕",
      "Description": "қатты жауап жүзеге айта сұраймыз! 🗣\n\nОқытушылар мен мектептерге:\nБұл бейне Creative Commons лицензиясы бойынша жарияланған.\n  CC BY 3.0 https://creativecommons.org/licenses/by/3.0/ \nБұл бейнені өз сабақтарыңызда қолдануға болады!\n\nGoogle Translate қызметін локализациялау үшін қолданамыз. Егер сіз қате тапсаңыз, бізге хабарлаңыз.\n",
      "TwitterStatusID": 1261970869800189952
    },
    {
      "Lang": "km",
      "Title": "ក្លាយជាមេគណិតវិទ្យាមួយ! 💯 ថ្នាក់ទី 1 គណិតវិទ្យា | ប្រមាណវិធីបូក 74 ➕",
      "Description": "សូមនិយាយថាចម្លើយចេញខ្លាំង! 🗣\n\nជូនដល់គ្រូនិងសាលា៖\nវីដេអូនេះត្រូវបានផ្សព្វផ្សាយក្រោមអាជ្ញាប័ណ្ណច្នៃប្រឌិត។\n  CC BY 3.0 https://creativecommons.org/licenses/by/3.0/ \nសូមប្រើវីដេអូនេះនៅក្នុងថ្នាក់របស់អ្នកដោយឥតគិតថ្លៃ!\n\nយើងប្រើសេវាកម្មបកប្រែហ្គូហ្គលសម្រាប់ការធ្វើមូលដ្ឋានីយកម្ម។ ប្រសិនបើអ្នករកឃើញកំហុសខ្លះសូមប្រាប់ឱ្យយើងដឹង។\n",
      "TwitterStatusID": 1261971289394167808
    },
    {
      "Lang": "kn",
      "Title": "ಒಂದು ಗಣಿತ ಮಾಸ್ಟರ್ ಆಗಿ! 💯 1 ನೇ ಗ್ರೇಡ್ ಗಣಿತ | ಸಂಕಲನ 74 ➕",
      "Description": "ದಯವಿಟ್ಟು ಜೋರಾಗಿ ಉತ್ತರವನ್ನು ಹೇಳಿ! 🗣\n\nಶಿಕ್ಷಕರು ಮತ್ತು ಶಾಲೆಗಳಿಗೆ:\nಈ ವೀಡಿಯೊವನ್ನು ಕ್ರಿಯೇಟಿವ್ ಕಾಮನ್ಸ್ ಪರವಾನಗಿ ಅಡಿಯಲ್ಲಿ ಪ್ರಕಟಿಸಲಾಗಿದೆ.\n  CC BY 3.0 https://creativecommons.org/licenses/by/3.0/ \nನಿಮ್ಮ ತರಗತಿಗಳಲ್ಲಿ ಈ ವೀಡಿಯೊವನ್ನು ಬಳಸಲು ಹಿಂಜರಿಯಬೇಡಿ!\n\nಸ್ಥಳೀಕರಣಕ್ಕಾಗಿ ನಾವು Google ಅನುವಾದ ಸೇವೆಯನ್ನು ಬಳಸುತ್ತೇವೆ. ನೀವು ಕೆಲವು ತಪ್ಪುಗಳನ್ನು ಕಂಡುಕೊಂಡರೆ, ದಯವಿಟ್ಟು ನಮಗೆ ತಿಳಿಸಿ.\n",
      "TwitterStatusID": 1261971708711325698
    },
    {
      "Lang": "ko",
      "Title": "수학 마스터가 되세요! 💯 1 등급 수학 | 덧셈 74 ➕",
      "Description": "큰 소리로 대답을 말 해주세요! 🗣\n\n교사와 학교 :\n이 비디오는 Creative Commons License에 따라 게시됩니다.\n  CC BY 3.0 https://creativecommons.org/licenses/by/3.0/ \n이 비디오를 수업에 자유롭게 사용하십시오!\n\n현지화를 위해 Google 번역 서비스를 사용합니다. 실수가 있으면 알려주세요.\n",
      "TwitterStatusID": 1261972128145928192
    },
    {
      "Lang": "ku",
      "Title": "Bibe master math! 💯 pola 1'emîn Math | Ji bilî 74 ➕",
      "Description": "Ji kerema xwe re bersiva dibêjin, bi dengekî bilind! 🗣\n\nJi mamoste û dibistanan re:\nEv vîdyoyê di bin lîsansa Creative Commons-ê de hatî weşandin.\n  CC BY 3.0 https://creativecommons.org/licenses/by/3.0/ \nHêsan e ku hûn vê vîdyoyê di sinifên xwe de bikar bînin!\n\nEm ji bo herêmbûnê karûbarê Google Translate kar dikin. Heke hûn hin xeletiyan bibînin, ji kerema xwe ji me re agahdar bikin.\n",
      "TwitterStatusID": 1261972547567906816
    },
    {
      "Lang": "ky",
      "Title": "математика мырзасы бол! 💯 1-класс Математика | Кошуу 74 ➕",
      "Description": "Сураныч жооп катуу чыгып, деп! 🗣\n\nмугалимдер жана мектептер үчүн:\nБул көргөзмө Creative Commons лиссиэнсийэ усулуобуйатынан жарыяланат.\n  CC BY 3.0 https://creativecommons.org/licenses/by/3.0/ \nСиздин класстары колдонсо болот!\n\nБиз Google локалдаштыруу үчүн Котормо кызматын пайдаланышат. Эгер кээ бир ката болсо, бизге айтып койуу.\n",
      "TwitterStatusID": 1261982766721204224
    },
    {
      "Lang": "lb",
      "Title": "Ginn eng temporäre Meeschtesch! 💯 1. Schouljoer Temporäre | Zousätzlech 74 ➕",
      "Description": "Weg soen, d'Äntwert haart eraus! 🗣\n\nUn de Schoulmeeschteren an d'Schoulen:\nDëse Video ass ënner der Creative Commons Lizenz verëffentlecht.\n  CC BY 3.0 https://creativecommons.org/licenses/by/3.0/ \nFillt gratis dësen Video zu Ären Klassen ze benotzen!\n\nMir benotzen den Google Translate Service fir d'Lokalisatioun. Wann Dir e puer Feeler fannt, da sot eis w.e.g.\n",
      "TwitterStatusID": 1261983186285780992
    },
    {
      "Lang": "lo",
      "Title": "ກາຍເປັນແມ່ບົດຄະນິດສາດ! 💯 1 ຊັ້ນ ຄະນິດສາດ | ນອກຈາກນັ້ນ 74 ➕",
      "Description": "ກະລຸນາເວົ້າວ່າຄໍາຕອບອອກ loud! 🗣\n\nເຖິງຄູອາຈານແລະໂຮງຮຽນ:\nວິດີໂອນີ້ລົງພາຍໃຕ້ໃບອະນຸຍາດສ້າງສັນ.\n  CC BY 3.0 https://creativecommons.org/licenses/by/3.0/ \nຮູ້ສຶກວ່າບໍ່ເສຍຄ່າທີ່ຈະໃຊ້ວິດີໂອນີ້ໃນຫ້ອງຮຽນຂອງທ່ານ!\n\nພວກເຮົາໃຊ້ບໍລິການ Google Translate ສຳ ລັບການແປພາສາທ້ອງຖິ່ນ. ຖ້າທ່ານພົບຂໍ້ຜິດພາດບາງຢ່າງ, ກະລຸນາແຈ້ງພວກເຮົາ.\n",
      "TwitterStatusID": 1261983605665849344
    },
    {
      "Lang": "lt",
      "Title": "Tapkite matematikos meistras! 💯 1 Klasė Matematikos | Sudėties 74 ➕",
      "Description": "Sakykite atsakymą garsiai! 🗣\n\nMokytojams ir mokykloms:\nŠis vaizdo įrašas paskelbtas naudojant „Creative Commons“ licenciją.\n  CC BY 3.0 https://creativecommons.org/licenses/by/3.0/ \nNesivaržykite naudotis šiuo vaizdo įrašu savo klasėse!\n\nLokalizavimui naudojame „Google Translate“ paslaugą. Jei radote klaidų, praneškite mums.\n",
      "TwitterStatusID": 1261984025574387713
    },
    {
      "Lang": "lv",
      "Title": "Kļūsti par math meistars! 💯 1. Klase Matemātika | Saskaitīšana 74 ➕",
      "Description": "Lūdzu teikt atbildi skaļi! 🗣\n\nSkolotājiem un skolām:\nŠis video ir publicēts saskaņā ar Creative Commons licenci.\n  CC BY 3.0 https://creativecommons.org/licenses/by/3.0/ \nJūtieties brīvi izmantot šo video savās nodarbībās!\n\nLokalizācijai mēs izmantojam Google Translate pakalpojumu. Ja atrodat dažas kļūdas, lūdzu, paziņojiet mums.\n",
      "TwitterStatusID": 1261984444690251781
    },
    {
      "Lang": "mg",
      "Title": "Lasa mpampianatra matematika! 💯 1 kilasy Matematika | Ankoatra 74 ➕",
      "Description": "Masìna ianao, lazao mafy ny valiny! 🗣\n\nHo an'ireo mpampianatra sy sekoly:\nIty horonantsary ity dia navoaka eo ambanin'ny lisansa Creative Commons.\n  CC BY 3.0 https://creativecommons.org/licenses/by/3.0/ \nAza misalasala mampiasa an'io horonantsary io amin'ny kilasinao!\n\nMampiasa ny serivisy Google Translate izahay amin'ny fananganana toerana. Raha mahita hadisoana vitsivitsy ianao dia mba ampahafantaro anay.\n",
      "TwitterStatusID": 1261984864103854082
    },
    {
      "Lang": "mi",
      "Title": "Hoko he ariki pāngarau! 💯 1 kōeke Pāngarau | Addition 74 ➕",
      "Description": "mea koa te whakahoki i roto i nui! 🗣\n\nKi nga kaiako me nga kura:\nKei te whakaputaina tenei ataata i raro i te Raihana Hoahoatanga.\n  CC BY 3.0 https://creativecommons.org/licenses/by/3.0/ \nKia kore e pai ki te whakamahi i tenei ataata i roto i o akomanga!\n\nKa whakamahia e matou he whakamaoritanga a Google mo te whakangao. Mena ka kitea e koe etahi he, tena koa kia mohio.\n",
      "TwitterStatusID": 1261985283446157314
    },
    {
      "Lang": "mk",
      "Title": "Да стане господар математика! 💯 1-во одделение Математика | Собирање 74 ➕",
      "Description": "Ве молиме да се каже одговорот на глас! 🗣\n\nДо наставниците и училиштата:\nОва видео е објавено под лиценца Криејтив комонс.\n  CC BY 3.0 https://creativecommons.org/licenses/by/3.0/ \nСлободно можете да го користите ова видео во вашите часови!\n\nНие користиме услуга Google Translate за локализација. Ако најдете некои грешки, ве молиме кажете ни.\n",
      "TwitterStatusID": 1261985703224676352
    },
    {
      "Lang": "ml",
      "Title": "ഒരു ഗണിത മാസ്റ്റർ ആകുക! 💯 1st ഗ്രേഡ് മാത്ത് | സങ്കലനം 74 ➕",
      "Description": "ഉറക്കെ ഉത്തരം പുറത്തു പറയുന്നു ദയവായി! 🗣\n\nഅധ്യാപകർക്കും സ്കൂളുകൾക്കും:\nക്രിയേറ്റീവ് കോമൺസ് ലൈസൻസിന് കീഴിൽ ഈ വീഡിയോ പ്രസിദ്ധീകരിച്ചു.\n  CC BY 3.0 https://creativecommons.org/licenses/by/3.0/ \nനിങ്ങളുടെ ക്ലാസുകളിൽ ഈ വീഡിയോ ഉപയോഗിക്കാൻ മടിക്കേണ്ടതില്ല!\n\nപ്രാദേശികവൽക്കരണത്തിനായി ഞങ്ങൾ Google വിവർത്തന സേവനം ഉപയോഗിക്കുന്നു. നിങ്ങൾ ചില തെറ്റുകൾ കണ്ടെത്തുകയാണെങ്കിൽ, ഞങ്ങളെ അറിയിക്കുക.\n",
      "TwitterStatusID": 1261986122382491649
    },
    {
      "Lang": "mn",
      "Title": "математикийн мастер болох! 💯 1-р ангийн Математикийн | Нэмэх 74 ➕",
      "Description": "чанга хариу гарч хэлж уу! 🗣\n\nБагш, сургуулиудад:\nЭнэ видео нь Creative Commons License лиценз дээр нийтлэгдсэн.\n  CC BY 3.0 https://creativecommons.org/licenses/by/3.0/ \nЭнэ видеог өөрийн ангиудад ашиглах боломжтой шүү!\n\nБид Google Translate үйлчилгээг нутагшуулах зорилгоор ашигладаг. Хэрэв та алдаа олвол бидэнд мэдэгдээрэй.\n",
      "TwitterStatusID": 1261986541804507138
    },
    {
      "Lang": "mr",
      "Title": "एक गणित मास्टर व्हा! 💯 1 ग्रेड गणित | बेरीज 74 ➕",
      "Description": "मोठ्याने उत्तर बाहेर म्हणू करा! 🗣\n\nशिक्षक आणि शाळा यांना:\nहा व्हिडिओ क्रिएटिव्ह कॉमन्स परवान्या अंतर्गत प्रकाशित झाला आहे.\n  CC BY 3.0 https://creativecommons.org/licenses/by/3.0/ \nआपल्या वर्गांमध्ये हा व्हिडिओ वापरण्यास मोकळ्या मनाने!\n\nआम्ही स्थानिकीकरणासाठी Google भाषांतर सेवा वापरतो. आपल्याला काही चुका आढळल्यास कृपया आम्हाला कळवा.\n",
      "TwitterStatusID": 1261986961335566338
    },
    {
      "Lang": "ms",
      "Title": "Menjadi tuan matematik! 💯 Gred 1 Matematik | Penambahan 74 ➕",
      "Description": "Katakanlah jawapan dengan kuat! 🗣\n\nKepada guru dan sekolah:\nVideo ini diterbitkan di bawah Lesen Creative Commons.\n  CC BY 3.0 https://creativecommons.org/licenses/by/3.0/ \nJangan ragu untuk menggunakan video ini dalam kelas anda!\n\nKami menggunakan perkhidmatan Terjemahan Google untuk penyetempatan. Jika anda mendapati beberapa kesilapan, sila beritahu kami.\n",
      "TwitterStatusID": 1261987380786941952
    },
    {
      "Lang": "mt",
      "Title": "Ssir kaptan matematika! 💯 grad 1 Matematika | Barra minn hekk 74 ➕",
      "Description": "Jekk jogħġbok jgħidu ir-risposta out loud! 🗣\n\nGħalliema u skejjel:\nDan il-video huwa ppublikat taħt il-Liċenzja Creative Commons.\n  CC BY 3.0 https://creativecommons.org/licenses/by/3.0/ \nĦossok liberu li tuża dan il-video fil-klassijiet tiegħek!\n\nAħna nużaw servizz Google Translate għall-lokalizzazzjoni. Jekk issib xi żbalji, jekk jogħġbok għarrafna.\n",
      "TwitterStatusID": 1261987800095666176
    },
    {
      "Lang": "my",
      "Title": "တစ်သင်္ချာမာစတာဖြစ်လာ! 💯 1st တန်း သင်္ချာ | အပေါင်း 74 ➕",
      "Description": "အသံကျယ်အဖြေထုတ်လို့ပြောပါ 🗣\n\nဆရာများနှင့်ကျောင်းများသို့\nဒီဗီဒီယိုကို Creative Commons လိုင်စင်အောက်မှာထုတ်ဝေထားတယ်။\n  CC BY 3.0 https://creativecommons.org/licenses/by/3.0/ \nဤဗီဒီယိုကိုသင်၏အတန်းများ၌အခမဲ့အသုံးပြုပါ။\n\nကျွန်ုပ်တို့သည်ဒေသခံဘာသာပြန်အတွက် Google Translate ဝန်ဆောင်မှုကိုအသုံးပြုသည်။ သင်အမှားအယွင်းများအချို့ရှိပါကကျွန်ုပ်တို့အားအသိပေးပါ။\n",
      "TwitterStatusID": 1261988219630923777
    },
    {
      "Lang": "ne",
      "Title": "एक गणित मास्टर बन्न! 💯 1st ग्रेड गणित | जोड 74 ➕",
      "Description": "कृपया चर्को जवाफ बाहिर भन्न! 🗣\n\nशिक्षक र विद्यालयहरुलाई:\nयो भिडियो क्रिएटिभ कमन्स लाइसेन्स अन्तर्गत प्रकाशित गरिएको छ।\n  CC BY 3.0 https://creativecommons.org/licenses/by/3.0/ \nतपाईंको कक्षामा यो भिडियो प्रयोग गर्न स्वतन्त्र महसुस गर्नुहोस्!\n\nहामी स्थानीयकरणको लागि गुगल अनुवाद सेवा प्रयोग गर्दछौं। यदि तपाईंले केहि गल्तीहरू फेला पार्नुभयो भने, कृपया हामीलाई खबर गर्नुहोस्।\n",
      "TwitterStatusID": 1261988639262691330
    },
    {
      "Lang": "nl",
      "Title": "Word math meester! 💯 1e Leerjaar Wiskunde | Optellen 74 ➕",
      "Description": "Gelieve zeggen dat het antwoord hardop! 🗣\n\nAan leraren en scholen:\nDeze video is gepubliceerd onder Creative Commons License.\n  CC BY 3.0 https://creativecommons.org/licenses/by/3.0/ \nVoel je vrij om deze video in je lessen te gebruiken!\n\nWe gebruiken de Google Translate-service voor lokalisatie. Laat het ons weten als u fouten ontdekt.\n",
      "TwitterStatusID": 1261989058575654913
    },
    {
      "Lang": "no",
      "Title": "Bli en matte mester! 💯 1. Klasse Matte | Addisjon 74 ➕",
      "Description": "Vennligst si svaret høyt! 🗣\n\nTil lærere og skoler:\nDenne videoen er publisert under Creative Commons License.\n  CC BY 3.0 https://creativecommons.org/licenses/by/3.0/ \nBruk gjerne denne videoen i klassene dine!\n\nVi bruker Google Translate-tjenesten for lokalisering. Gi beskjed hvis du finner noen feil.\n",
      "TwitterStatusID": 1261989477876035585
    },
    {
      "Lang": "pa",
      "Title": "ਨੂੰ ਇੱਕ ਗਣਿਤ ਮਾਸਟਰ ਬਣੋ! 💯 1 ਦਾ ਗ੍ਰੇਡ ਗਣਿਤ | ਜੋੜ 74 ➕",
      "Description": "ਕਿਰਪਾ ਕਰਕੇ ਉੱਚੀ ਦਾ ਜਵਾਬ ਬਾਹਰ ਦਾ ਕਹਿਣਾ ਹੈ! 🗣\n\nਅਧਿਆਪਕਾਂ ਅਤੇ ਸਕੂਲਾਂ ਨੂੰ:\nਇਹ ਵੀਡੀਓ ਕਰੀਏਟਿਵ ਕਾਮਨਜ਼ ਲਾਇਸੈਂਸ ਅਧੀਨ ਪ੍ਰਕਾਸ਼ਤ ਕੀਤਾ ਗਿਆ ਹੈ.\n  CC BY 3.0 https://creativecommons.org/licenses/by/3.0/ \nਇਸ ਕਲਾਸ ਨੂੰ ਆਪਣੀਆਂ ਕਲਾਸਾਂ ਵਿਚ ਵਰਤਣ ਲਈ ਮੁਫ਼ਤ ਮਹਿਸੂਸ ਕਰੋ!\n\nਅਸੀਂ ਸਥਾਨਕਕਰਨ ਲਈ ਗੂਗਲ ਅਨੁਵਾਦ ਸੇਵਾ ਦੀ ਵਰਤੋਂ ਕਰਦੇ ਹਾਂ. ਜੇ ਤੁਹਾਨੂੰ ਕੁਝ ਗਲਤੀਆਂ ਮਿਲਦੀਆਂ ਹਨ, ਤਾਂ ਕਿਰਪਾ ਕਰਕੇ ਸਾਨੂੰ ਦੱਸੋ.\n",
      "TwitterStatusID": 1261989897390264320
    },
    {
      "Lang": "pl",
      "Title": "Zostań mistrzem matematyki! 💯 Klasa 1 Matematyka | Dodawanie 74 ➕",
      "Description": "Proszę powiedzieć odpowiedź głośno! 🗣\n\nDo nauczycieli i szkół:\nTen film jest opublikowany na licencji Creative Commons.\n  CC BY 3.0 https://creativecommons.org/licenses/by/3.0/ \nZachęcamy do korzystania z tego filmu na zajęciach!\n\nDo lokalizacji używamy usługi Tłumacz Google. Jeśli znajdziesz jakieś błędy, daj nam znać.\n",
      "TwitterStatusID": 1261990316875235329
    },
    {
      "Lang": "ps",
      "Title": "شي یو ریاضی بادار! 💯 1st ټولګي ریاضی | سربېره 74 ➕",
      "Description": "لطفا بهر وايي، د ځواب لوړ! 🗣\n\nښوونکو او ښوونځیو ته:\nدا ویډیو د کریټیو کامنز لایسنس لاندې خپره شوې ده.\n  CC BY 3.0 https://creativecommons.org/licenses/by/3.0/ \nپه خپلو ټولګیو کې د دې ویډیو کارولو لپاره وړیا احساس وکړئ!\n\nموږ د ځایی کولو لپاره د ګوګل ژباړن خدمت کاروو. که تاسو ځینې غلطۍ ومومئ ، مهرباني وکړئ موږ ته خبر راکړئ.\n",
      "TwitterStatusID": 1261990737110958080
    },
    {
      "Lang": "pt",
      "Title": "Torne-se um mestre de matemática! 💯 1ª Série Matemática | Adição 74 ➕",
      "Description": "Por favor, diga a resposta em voz alta! 🗣\n\nPara professores e escolas:\nEste vídeo é publicado sob licença Creative Commons.\n  CC BY 3.0 https://creativecommons.org/licenses/by/3.0/ \nSinta-se livre para usar este vídeo em suas aulas!\n\nUsamos o serviço Google Translate para localização. Se você encontrar algum erro, informe-nos.\n",
      "TwitterStatusID": 1261991155664695296
    },
    {
      "Lang": "ro",
      "Title": "Deveni un maestru de matematică! 💯 Clasa I Matematica | Adunare 74 ➕",
      "Description": "Vă rugăm să spun că răspunsul cu voce tare! 🗣\n\nPentru profesori și școli:\nAcest videoclip este publicat sub licență Creative Commons.\n  CC BY 3.0 https://creativecommons.org/licenses/by/3.0/ \nSimte-te liber să folosești acest videoclip în orele tale!\n\nFolosim serviciul Google Translate pentru localizare. Dacă găsiți unele greșeli, vă rugăm să ne informați.\n",
      "TwitterStatusID": 1261991575267115008
    },
    {
      "Lang": "ru",
      "Title": "Стать математиком мастер! 💯 первый класс Математический | Сложение 74 ➕",
      "Description": "Скажите, пожалуйста, ответ громко! 🗣\n\nУчителям и школам:\nЭто видео опубликовано под лицензией Creative Commons.\n  CC BY 3.0 https://creativecommons.org/licenses/by/3.0/ \nНе стесняйтесь использовать это видео в своих классах!\n\nМы используем сервис Google Translate для локализации. Если вы обнаружите ошибки, сообщите нам.\n",
      "TwitterStatusID": 1261991994626195463
    },
    {
      "Lang": "sd",
      "Title": "هڪ رياضي رکن ٿا بڻجي! 💯 1st گريڊ رياضي | ان کان سواء 74 ➕",
      "Description": "مهرباني ڪري تعالي جي جواب ٻاهر جو چوڻ آهي! 🗣\n\nاستاد ۽ اسڪولن ڏانهن:\nهيء وڊيو تخليقي العام لائسنس هيٺ شايع ٿيل آهي.\n  CC BY 3.0 https://creativecommons.org/licenses/by/3.0/ \nپنهنجي وڊيوز ۾ هن وڊيو کي استعمال ڪرڻ لاء آزاد ٿيو!\n\nاسان مقامي ڪرڻ لاء گوگل ترجمو سروس استعمال ڪندا آهيون. جيڪڏهن توهان ڪجهه غلطي ڳوليندا آهيو، مهرباني ڪري اسان کي ڄاڻ ڏيو.\n",
      "TwitterStatusID": 1261992414224347136
    },
    {
      "Lang": "si",
      "Title": "එය ගණිත ස්වාමියා බවට පත් වෙනවා! 💯 1 වන ශ්රේණියේ ගණිත | එකතු කිරීම 74 ➕",
      "Description": "මහ හඬින් පිළිතුරු පිටතට කියන්න කරුණාකරලා! 🗣\n\nගුරුවරුන්ට සහ පාසල්වලට:\nමෙම වීඩියෝව නිර්මාණාත්මක පොදු බලපත්‍රය යටතේ ප්‍රකාශයට පත් කෙරේ.\n  CC BY 3.0 https://creativecommons.org/licenses/by/3.0/ \nඔබේ පංතිවල මෙම වීඩියෝව භාවිතා කිරීමට නිදහස් වන්න!\n\nප්‍රාදේශීයකරණය සඳහා අපි ගූගල් පරිවර්තන සේවාව භාවිතා කරමු. ඔබ යම් වැරැද්දක් සොයා ගන්නේ නම්, කරුණාකර අපට දන්වන්න.\n",
      "TwitterStatusID": 1261992833554079744
    },
    {
      "Lang": "sk",
      "Title": "Staňte sa matematický pán! 💯 1. Ročník Matematika | Sčítanie 74 ➕",
      "Description": "Prosím, povedzte odpoveď nahlas! 🗣\n\nPre učiteľov a školy:\nToto video je publikované pod licenciou Creative Commons License.\n  CC BY 3.0 https://creativecommons.org/licenses/by/3.0/ \nNeváhajte použiť toto video vo svojich triedach!\n\nNa lokalizáciu používame službu Prekladač Google. Ak nájdete nejaké chyby, dajte nám vedieť.\n",
      "TwitterStatusID": 1261993253005430786
    },
    {
      "Lang": "sl",
      "Title": "Postanite math mojster! 💯 1. razred Math | Seštevanje 74 ➕",
      "Description": "Prosim, povej odgovor na glas! 🗣\n\nUčiteljem in šolam:\nTa videoposnetek je objavljen pod licenco Creative Commons.\n  CC BY 3.0 https://creativecommons.org/licenses/by/3.0/ \nUporabite ta video v svojih razredih!\n\nZa lokalizacijo uporabljamo storitev Google Translate. Če najdete nekaj napak, nas obvestite.\n",
      "TwitterStatusID": 1261993672461086721
    },
    {
      "Lang": "sm",
      "Title": "Avea ma se matai o le numera! 💯 vasega 1 Le numera | Faaopoopoga 74 ➕",
      "Description": "Faamolemole ia fai atu leotele le tali! 🗣\n\nI faiaoga ma aʻoga:\nO lenei vitio ua lomia i lalo o le Creative Commons License.\n  CC BY 3.0 https://creativecommons.org/licenses/by/3.0/ \nLagona le saoloto e faʻaaoga lenei vitio i au vasega!\n\nMatou te faʻaaoga le Google Translate auaunaga mo le faʻasalalauga. Afai e te maua ni mea sese, faʻamolemole ia e iloa.\n",
      "TwitterStatusID": 1261994091807563776
    },
    {
      "Lang": "sn",
      "Title": "Iva tenzi yemasvomhu! 💯 1st giredha Masvomhu | Uyezve 74 ➕",
      "Description": "Tapota vanopindura zvinonzwika! 🗣\n\nKune vadzidzisi uye zvikoro:\nVhidhiyo iyi inoburitswa pasi peCreative Commons License.\n  CC BY 3.0 https://creativecommons.org/licenses/by/3.0/ \nInzwa wakasununguka kushandisa iyi vhidhiyo mumakirasi ako!\n\nIsu tinoshandisa Google Dhumiro sevhisi. Kana iwe ukawana zvimwe zvikanganiso, tapota titiudze.\n",
      "TwitterStatusID": 1261994511292497926
    },
    {
      "Lang": "so",
      "Title": "Noqo sayidkiisa xisaab ah! 💯 fasalka 1aad Xisaabta | Intaa waxaa dheer 74 ➕",
      "Description": "Fadlan sheeg jawaabta soo baxay cod weyn! 🗣\n\nKu socota macallimiinta iyo iskuulada:\nMuuqaalkan fiidiyaha ah waxaa lagu daabacay hoosta hal-abuurnimada Hal-abuurka.\n  CC BY 3.0 https://creativecommons.org/licenses/by/3.0/ \nXor baad u leedahay inaad fiidiyaha u isticmaasho fasalladaaga!\n\nWaxaan u adeegsanaa adeega Google tarjumaha si aan ugu tarjunno. Hadaad khaladaad hesho, fadlan nala socodsii.\n",
      "TwitterStatusID": 1261994930873831424
    },
    {
      "Lang": "sq",
      "Title": "Bëhuni një mjeshtër math! 💯 Klasa e Parë Math | Shtim 74 ➕",
      "Description": "Ju lutemi të thonë përgjigjen me zë të lartë! 🗣\n\nPër mësuesit dhe shkollat:\nKjo video është botuar nën licencën Creative Commons.\n  CC BY 3.0 https://creativecommons.org/licenses/by/3.0/ \nMos ngurroni të përdorni këtë video në klasat tuaja!\n\nNe përdorim shërbimin Google Translate për lokalizimin. Nëse gjeni disa gabime, ju lutemi na tregoni.\n",
      "TwitterStatusID": 1261995350153256960
    },
    {
      "Lang": "sr",
      "Title": "Постаните математика мајстор! 💯 1. разред Математика | Сабирање 74 ➕",
      "Description": "Молимо Вас да одговор наглас! 🗣\n\nНаставницима и школама:\nОвај видео је објављен под Цреативе Цоммонс лиценцом.\n  CC BY 3.0 https://creativecommons.org/licenses/by/3.0/ \nСлободно користите овај видеозапис у својим предавањима!\n\nЗа локализацију користимо услугу Гоогле Транслате. Ако нађете неке грешке, јавите нам се.\n",
      "TwitterStatusID": 1261995769717907457
    },
    {
      "Lang": "st",
      "Title": "Ba lipalo monghali! 💯 1st sehlopheng Lipalo | Ho phaella moo 74 ➕",
      "Description": "Ka kopo, re karabo ka lentsoe le phahameng! 🗣\n\nHo matichere le likolo:\nVideo ena e phatlalalitsoe tlas'a Creative Commons License.\n  CC BY 3.0 https://creativecommons.org/licenses/by/3.0/ \nIkutloe u lokolohile ho sebelisa video ena litlelaseng tsa hau!\n\nRe sebelisa tšebeletso ea Google Tafsiri bakeng sa lehae. Haeba u fumana liphoso, ka kopo re tsebise.\n",
      "TwitterStatusID": 1261996189156700160
    },
    {
      "Lang": "su",
      "Title": "Jadi master math! 💯 1st kelas Math | Tambahan 74 ➕",
      "Description": "Mangga nyebutkeun jawaban kaluar pisan! 🗣\n\nPikeun guru sareng sakola:\nPidéo ieu dikaluarkeun dina Lisensi Lisénsi Creative Commons.\n  CC BY 3.0 https://creativecommons.org/licenses/by/3.0/ \nTong ngosongkeun pidéo ieu di kelas!\n\nKami nganggo jasa Google Translate pikeun lokalisasi. Upami anjeun mendakan sababaraha kasalahan, punten terangkeun ka urang.\n",
      "TwitterStatusID": 1261996608645808129
    },
    {
      "Lang": "sv",
      "Title": "Bli ett matematiskt mästare! 💯 1:a grade Matematik | Addition 74 ➕",
      "Description": "Vänligen säga svaret högt! 🗣\n\nTill lärare och skolor:\nDenna video publiceras under Creative Commons License.\n  CC BY 3.0 https://creativecommons.org/licenses/by/3.0/ \nAnvänd gärna den här videon i dina klasser!\n\nVi använder Google Translate-tjänst för lokalisering. Låt oss veta om du hittar några misstag.\n",
      "TwitterStatusID": 1261997028373958656
    },
    {
      "Lang": "sw",
      "Title": "Kuwa hesabu bwana! 💯 Darasa la 1 Hisabati | Kujumlisha 74 ➕",
      "Description": "Tafadhali sema jibu kwa sauti! 🗣\n\nKwa waalimu na shule:\nVideo hii imechapishwa chini ya Leseni ya Creative Commons.\n  CC BY 3.0 https://creativecommons.org/licenses/by/3.0/ \nJisikie huru kutumia video hii kwenye darasa lako!\n\nTunatumia huduma ya Tafsiri ya Google kwa ujanibishaji. Ikiwa utapata makosa, tafadhali tujulishe.\n",
      "TwitterStatusID": 1261997447556894721
    },
    {
      "Lang": "ta",
      "Title": "ஒரு கணித மாஸ்டர் ஆக! 💯 1st தர கணித | கூட்டல் 74 ➕",
      "Description": "உரத்த பதில் வெளியே சொல்ல கொள்ளவும்! 🗣\n\nஆசிரியர்கள் மற்றும் பள்ளிகளுக்கு:\nஇந்த வீடியோ கிரியேட்டிவ் காமன்ஸ் உரிமத்தின் கீழ் வெளியிடப்பட்டுள்ளது.\n  CC BY 3.0 https://creativecommons.org/licenses/by/3.0/ \nஉங்கள் வகுப்புகளில் இந்த வீடியோவைப் பயன்படுத்த தயங்காதீர்கள்!\n\nஉள்ளூர்மயமாக்க Google மொழிபெயர்ப்பு சேவையைப் பயன்படுத்துகிறோம். நீங்கள் சில தவறுகளைக் கண்டால், எங்களுக்குத் தெரியப்படுத்துங்கள்.\n",
      "TwitterStatusID": 1261997867016863745
    },
    {
      "Lang": "te",
      "Title": "ఒక గణిత మాస్టర్ అవ్వండి! 💯 1 వ గ్రేడ్ గణిత | కూడిక 74 ➕",
      "Description": "దయచేసి బిగ్గరగా సమాధానం చెప్పటానికి! 🗣\n\nఉపాధ్యాయులకు మరియు పాఠశాలలకు:\nఈ వీడియో క్రియేటివ్ కామన్స్ లైసెన్స్ క్రింద ప్రచురించబడింది.\n  CC BY 3.0 https://creativecommons.org/licenses/by/3.0/ \nమీ తరగతుల్లో ఈ వీడియోను ఉపయోగించడానికి సంకోచించకండి!\n\nస్థానికీకరణ కోసం మేము Google అనువాద సేవను ఉపయోగిస్తాము. మీరు కొన్ని తప్పులు కనుగొంటే, దయచేసి మాకు తెలియజేయండి.\n",
      "TwitterStatusID": 1261998286505832448
    },
    {
      "Lang": "tg",
      "Title": "Табдил як устоди фанни математика! 💯 синфи 1 Математика | Ҷамъ 74 ➕",
      "Description": "Лутфан, ҷавоб мегӯянд, баланд! 🗣\n\nБа муаллимон ва мактабҳо:\nИн видео зери иҷозатномаи Creative Commons нашр шудааст.\n  CC BY 3.0 https://creativecommons.org/licenses/by/3.0/ \nИн видеоро дар дарсҳои худ истифода баред!\n\nМо барои локализатсия аз хидмати Google Translate истифода мебарем. Агар шумо ягон хатогӣ дарёфт кунед, лутфан ба мо хабар диҳед.\n",
      "TwitterStatusID": 1261998705894277120
    },
    {
      "Lang": "th",
      "Title": "กลายเป็นหลักคณิตศาสตร์! 💯 1 คะแนน คณิตศาสตร์ | การบวก 74 ➕",
      "Description": "กรุณาบอกคำตอบออกมาดัง ๆ ! 🗣\n\nถึงครูและโรงเรียน:\nวิดีโอนี้เผยแพร่ภายใต้สัญญาอนุญาตครีเอทีฟคอมมอนส์\n  CC BY 3.0 https://creativecommons.org/licenses/by/3.0/ \nอย่าลังเลที่จะใช้วิดีโอนี้ในชั้นเรียนของคุณ!\n\nเราใช้บริการ Google แปลภาษาเพื่อการแปล หากคุณพบข้อผิดพลาดบางอย่างโปรดแจ้งให้เราทราบ\n",
      "TwitterStatusID": 1261999125341466624
    },
    {
      "Lang": "tr",
      "Title": "Bir matematik ustası ol! 💯 1. sınıf Matematik | Toplama 74 ➕",
      "Description": "yüksek sesle cevap dışarı söyle! 🗣\n\nÖğretmenlere ve okullara:\nBu video Creative Commons License. Altında yayınlandı.\n  CC BY 3.0 https://creativecommons.org/licenses/by/3.0/ \nBu videoyu derslerinizde kullanmaktan çekinmeyin!\n\nYerelleştirme için Google Çeviri hizmetini kullanıyoruz. Bazı hatalar bulursanız lütfen bize bildirin.\n",
      "TwitterStatusID": 1261999544767614977
    },
    {
      "Lang": "uk",
      "Title": "Стати математиком майстер! 💯 перший клас Математичний | Додавання 74 ➕",
      "Description": "Скажіть, будь ласка, відповідь голосно! 🗣\n\nДля вчителів та шкіл:\nЦе відео опубліковане під ліцензією Creative Commons.\n  CC BY 3.0 https://creativecommons.org/licenses/by/3.0/ \nСміливо використовуйте це відео у своїх класах!\n\nМи використовуємо послугу Google Translate для локалізації. Якщо ви виявили деякі помилки, повідомте нас про це.\n",
      "TwitterStatusID": 1261999964214812672
    },
    {
      "Lang": "ur",
      "Title": "ایک ریاضی ماسٹر بن! 💯 1st گریڈ ریاضی | جمع 74 ➕",
      "Description": "اونچی آواز میں جواب کہتے ہیں براہ مہربانی! 🗣\n\nاساتذہ اور اسکولوں کے لئے:\nیہ ویڈیو تخلیقی العام لائسنس کے تحت شائع ہوا ہے۔\n  CC BY 3.0 https://creativecommons.org/licenses/by/3.0/ \nاپنی ویڈیو کو اپنی کلاسوں میں آزادانہ طور پر استعمال کریں!\n\nہم لوکلائزیشن کے لئے گوگل ٹرانسلیٹ سروس استعمال کرتے ہیں۔ اگر آپ کو کچھ غلطیاں ملتی ہیں تو ، براہ کرم ہمیں بتائیں۔\n",
      "TwitterStatusID": 1262000383594917890
    },
    {
      "Lang": "uz",
      "Title": "matematika master bo'l! 💯 1-sinf Matematik | Qo'shish 74 ➕",
      "Description": "baland javob chiqib aytish Iltimos! 🗣\n\nO'qituvchilar va maktablarga:\nUshbu video Creative Commons litsenziyasi ostida joylashtirilgan.\n  CC BY 3.0 https://creativecommons.org/licenses/by/3.0/ \nUshbu videoni o'z sinflaringizda ishlatish bepul!\n\nBiz Google Translate xizmatidan lokalizatsiya uchun foydalanamiz. Agar siz biron bir xato topsangiz, iltimos, bizga xabar bering.\n",
      "TwitterStatusID": 1262000803113365505
    },
    {
      "Lang": "vi",
      "Title": "Trở thành chuyên gia toán học! 💯 lớp 1 Môn Toán | Phép cộng 74 ➕",
      "Description": "Hãy nói câu trả lời thật to! 🗣\n\nGửi giáo viên và nhà trường:\nVideo này được xuất bản theo Giấy phép Creative Commons.\n  CC BY 3.0 https://creativecommons.org/licenses/by/3.0/ \nHãy sử dụng video này trong các lớp học của bạn!\n\nChúng tôi sử dụng dịch vụ Google Dịch để bản địa hóa. Nếu bạn tìm thấy một số sai lầm, xin vui lòng cho chúng tôi biết.\n",
      "TwitterStatusID": 1262001222552129538
    },
    {
      "Lang": "xh",
      "Title": "Yiba yinkosi izibalo! 💯 1st grade Izibalo | Ukudibanisa 74 ➕",
      "Description": "Nceda uthi impendulo ukhwaza! 🗣\n\nKootitshala nakwizikolo:\nLe vidiyo ipapashwa phantsi kwelayisensi yeCreative Commons.\n  CC BY 3.0 https://creativecommons.org/licenses/by/3.0/ \nZive ukhululekile ukusebenzisa le vidiyo kwiiklasi zakho!\n\nSisebenzisa inkonzo yokuTolika kaGoogle ukuze sifumane indawo. Ukuba ufumana iimpazamo ezithile, nceda usazise.\n",
      "TwitterStatusID": 1262001641940639745
    },
    {
      "Lang": "yi",
      "Title": "ווערן אַ מאַט בעל! 💯 1 מיינונג מאַט | דערצו 74 ➕",
      "Description": "ביטע זאָגן די ענטפֿערן אויס הויך! 🗣\n\nצו לערערס און שולן:\nדער ווידעא איז ארויס אונטער Creative Commons License.\n  CC BY 3.0 https://creativecommons.org/licenses/by/3.0/ \nפילן פריי צו נוצן דעם ווידעא אין דיין קלאסן!\n\nמיר נוצן Google Translate דינסט פֿאַר לאָוקאַלאַזיישאַן. אויב איר געפֿינען עטלעכע מיסטייקס, ביטע לאָזן אונדז וויסן.\n",
      "TwitterStatusID": 1262002061475905538
    },
    {
      "Lang": "yo",
      "Title": "Di a eko isiro titunto si! 💯 1st ite Isiro | Afikun 74 ➕",
      "Description": "Jọwọ sọ idahun jade ti npariwo wa! 🗣\n\nSi awọn olukọ ati awọn ile-iwe:\nFidio yii ni a tẹjade labẹ Iwe-aṣẹ Creative Commons.\n  CC BY 3.0 https://creativecommons.org/licenses/by/3.0/ \nLero lati lo fidio yii ninu awọn kilasi rẹ!\n\nA lo iṣẹ Google Translate fun agbegbe. Ti o ba rii diẹ ninu awọn aṣiṣe, jọwọ jẹ ki a mọ.\n",
      "TwitterStatusID": 1262002480885293060
    },
    {
      "Lang": "zh-Hans",
      "Title": "成为数学大师！ 💯 一年级 数学 | 加法 74 ➕",
      "Description": "请大声说出答案！ 🗣\n\n致老师和学校：\n该视频是根据知识共享许可发布的。\n  CC BY 3.0 https://creativecommons.org/licenses/by/3.0/ \n随时在您的课程中使用此视频！\n\n我们使用Google翻译服务进行本地化。如果您发现一些错误，请告诉我们。\n",
      "TwitterStatusID": 1262002900361830400
    },
    {
      "Lang": "zh-Hant",
      "Title": "成為數學大師！ 💯 一年級 數學 | 加法 74 ➕",
      "Description": "請大聲說出答案！ 🗣\n\n致老師和學校：\n該視頻是根據知識共享許可發布的。\n  CC BY 3.0 https://creativecommons.org/licenses/by/3.0/ \n隨時在您的課程中使用此視頻！\n\n我們使用Google翻譯服務進行本地化。如果您發現一些錯誤，請告訴我們。\n",
      "TwitterStatusID": 1262003319733538818
    },
    {
      "Lang": "zu",
      "Title": "Iba master izibalo! 💯 Ibanga Lokuqala Izibalo | Ukwengezwa 74 ➕",
      "Description": "Sicela baphendula bathini ngokuzwakalayo! 🗣\n\nKothisha nasezikoleni:\nLe vidiyo ishicilelwe ngaphansi kwelayisensi yeCreative Commons.\n  CC BY 3.0 https://creativecommons.org/licenses/by/3.0/ \nZizwe ukhululekile ukusebenzisa le vidiyo emakilasini akho!\n\nSisebenzisa insiza ye-Google Humusha ukwenza okwasendaweni. Uma uthola amanye amaphutha, sicela usazise.\n",
      "TwitterStatusID": 1262003739252015105
    }
  ],
  "HatenaPermalink": "https://b.hatena.ne.jp/isonschool/20200216#bookmark-4681576439387889058"
}