{
  "Name": "grammar-ja-tk2",
  "ID": "PLfI6UBkxvOTlbd2wivGBH39-MZ7ENjper",
  "DefaultLang": "my",
  "Title": "ဂျပန်စကားပြောပါ မရှိမဖြစ်လိုအပ်သောသဒ္ဒါလေ့ကျင့်ခန်း",
  "Description": "ဂျပန်သဒ္ဒါကိုလေ့လာပါ။ ဝါကျတွင်စကားလုံးတစ်လုံးပြောင်းပါ။",
  "Localizations": null,
  "PlaylistTags": "ဂျပန်သဒ္ဒါ,일본어 문법,Rêzimana Japanese,Kalama Iapani,Grammar Jepang,Japanese grammar,Japanski gramatika,Gramática japonesa,Lolimi Japanese,Japán nyelvtan,Gramatica japoneză,Japanska grammatik,Жапон грамматика,Ιαπωνικά γραμματική,Tae Kim's Guide to Learning Japanese",
  "Updated": true,
  "PlaylistItems": [
    {
      "ID": "UExmSTZVQmt4dk9UbGJkMndpdkdCSDM5LU1aN0VOanBlci41NkI0NEY2RDEwNTU3Q0M2",
      "VideoID": "3649HXquOg0",
      "VideoFile": "grammar-ja-tk2_1_A.mp4"
    },
    {
      "ID": "UExmSTZVQmt4dk9UbGJkMndpdkdCSDM5LU1aN0VOanBlci4yODlGNEE0NkRGMEEzMEQy",
      "VideoID": "FHtOXsaVbPE",
      "VideoFile": "grammar-ja-tk2_2_A.mp4"
    },
    {
      "ID": "UExmSTZVQmt4dk9UbGJkMndpdkdCSDM5LU1aN0VOanBlci4wMTcyMDhGQUE4NTIzM0Y5",
      "VideoID": "1DHk9DFHV_E",
      "VideoFile": "grammar-ja-tk2_3_A.mp4"
    },
    {
      "ID": "UExmSTZVQmt4dk9UbGJkMndpdkdCSDM5LU1aN0VOanBlci41MjE1MkI0OTQ2QzJGNzNG",
      "VideoID": "WFgQRdDyuVg",
      "VideoFile": "grammar-ja-tk2_4_A.mp4"
    },
    {
      "ID": "UExmSTZVQmt4dk9UbGJkMndpdkdCSDM5LU1aN0VOanBlci4wOTA3OTZBNzVEMTUzOTMy",
      "VideoID": "q4_TI7YZg9U",
      "VideoFile": "grammar-ja-tk2_5_A.mp4"
    },
    {
      "ID": "UExmSTZVQmt4dk9UbGJkMndpdkdCSDM5LU1aN0VOanBlci4xMkVGQjNCMUM1N0RFNEUx",
      "VideoID": "6uO8IbIB9rg",
      "VideoFile": "grammar-ja-tk2_6_A.mp4"
    },
    {
      "ID": "UExmSTZVQmt4dk9UbGJkMndpdkdCSDM5LU1aN0VOanBlci41MzJCQjBCNDIyRkJDN0VD",
      "VideoID": "de_av04O1Ec",
      "VideoFile": "grammar-ja-tk2_7_A.mp4"
    },
    {
      "ID": "UExmSTZVQmt4dk9UbGJkMndpdkdCSDM5LU1aN0VOanBlci5DQUNERDQ2NkIzRUQxNTY1",
      "VideoID": "xrxsJ_6uXQY",
      "VideoFile": "grammar-ja-tk2_8_A.mp4"
    },
    {
      "ID": "UExmSTZVQmt4dk9UbGJkMndpdkdCSDM5LU1aN0VOanBlci45NDk1REZENzhEMzU5MDQz",
      "VideoID": "jUtdufptPrQ",
      "VideoFile": "grammar-ja-tk2_9_A.mp4"
    }
  ]
}