{
  "Name": "grammar-ja-tk2",
  "ID": "PLfI6UBkxvOTmYBzRdlD-bqT1YW_aaVQve",
  "DefaultLang": "si",
  "Title": "ජපන් භාෂාව කතා කරන්න! අත්‍යවශ්‍ය ව්‍යාකරණ අභ්‍යාස",
  "Description": "ජපන් ව්‍යාකරණ ඉගෙන ගන්න! වාක්‍යයක වචනයක් වෙනස් කරන්න!",
  "Localizations": null,
  "PlaylistTags": "ජපන් ව්යාකරණ,វេយ្យាករណ៍ជប៉ុន,Japan nahawu,Grammatika Ġappuniż,Girama Japanese,Igrama Japanese,Yapon qrammatika,Japansk grammatik,Grammaire japonaise,Kijapani sarufi,Yaponiya grammatika,Japonski slovnica,Японская граматыка,Японская грамматика,Tae Kim's Guide to Learning Japanese",
  "Updated": true,
  "PlaylistItems": [
    {
      "ID": "UExmSTZVQmt4dk9UbVlCelJkbEQtYnFUMVlXX2FhVlF2ZS41NkI0NEY2RDEwNTU3Q0M2",
      "VideoID": "3649HXquOg0",
      "VideoFile": "grammar-ja-tk2_1_A.mp4"
    },
    {
      "ID": "UExmSTZVQmt4dk9UbVlCelJkbEQtYnFUMVlXX2FhVlF2ZS4yODlGNEE0NkRGMEEzMEQy",
      "VideoID": "FHtOXsaVbPE",
      "VideoFile": "grammar-ja-tk2_2_A.mp4"
    },
    {
      "ID": "UExmSTZVQmt4dk9UbVlCelJkbEQtYnFUMVlXX2FhVlF2ZS4wMTcyMDhGQUE4NTIzM0Y5",
      "VideoID": "1DHk9DFHV_E",
      "VideoFile": "grammar-ja-tk2_3_A.mp4"
    },
    {
      "ID": "UExmSTZVQmt4dk9UbVlCelJkbEQtYnFUMVlXX2FhVlF2ZS41MjE1MkI0OTQ2QzJGNzNG",
      "VideoID": "WFgQRdDyuVg",
      "VideoFile": "grammar-ja-tk2_4_A.mp4"
    },
    {
      "ID": "UExmSTZVQmt4dk9UbVlCelJkbEQtYnFUMVlXX2FhVlF2ZS4wOTA3OTZBNzVEMTUzOTMy",
      "VideoID": "q4_TI7YZg9U",
      "VideoFile": "grammar-ja-tk2_5_A.mp4"
    },
    {
      "ID": "UExmSTZVQmt4dk9UbVlCelJkbEQtYnFUMVlXX2FhVlF2ZS4xMkVGQjNCMUM1N0RFNEUx",
      "VideoID": "6uO8IbIB9rg",
      "VideoFile": "grammar-ja-tk2_6_A.mp4"
    },
    {
      "ID": "UExmSTZVQmt4dk9UbVlCelJkbEQtYnFUMVlXX2FhVlF2ZS41MzJCQjBCNDIyRkJDN0VD",
      "VideoID": "de_av04O1Ec",
      "VideoFile": "grammar-ja-tk2_7_A.mp4"
    },
    {
      "ID": "UExmSTZVQmt4dk9UbVlCelJkbEQtYnFUMVlXX2FhVlF2ZS5DQUNERDQ2NkIzRUQxNTY1",
      "VideoID": "xrxsJ_6uXQY",
      "VideoFile": "grammar-ja-tk2_8_A.mp4"
    },
    {
      "ID": "UExmSTZVQmt4dk9UbVlCelJkbEQtYnFUMVlXX2FhVlF2ZS45NDk1REZENzhEMzU5MDQz",
      "VideoID": "jUtdufptPrQ",
      "VideoFile": "grammar-ja-tk2_9_A.mp4"
    }
  ]
}