{
  "Name": "grammar-ja-tk2",
  "ID": "PLfI6UBkxvOTmYv5WsPANk3xr5wUMbDtCO",
  "DefaultLang": "el",
  "Title": "Μιλήστε Ιαπωνικά! Βασικές ασκήσεις γραμματικής",
  "Description": "Μάθετε ιαπωνική γραμματική! Αλλάξτε μια λέξη σε μια πρόταση!",
  "Localizations": null,
  "PlaylistTags": "Ιαπωνικά γραμματική,जापानी व्याकरण,ஜப்பனீஸ் இலக்கணம்,ໄວຍະກອນພາສາຍີ່ປຸ່ນ,日語語法,Grammar Japanese,د جاپان د ګرامر,Naxwaha Japanese,Japanese ilo,Tatabahasa Jepun,Jaapani grammatika,Japanska gramatika,Japonų kalbos gramatika,Gramática japonesa,Tae Kim's Guide to Learning Japanese",
  "Updated": true,
  "PlaylistItems": [
    {
      "ID": "UExmSTZVQmt4dk9UbVl2NVdzUEFOazN4cjV3VU1iRHRDTy41NkI0NEY2RDEwNTU3Q0M2",
      "VideoID": "3649HXquOg0",
      "VideoFile": "grammar-ja-tk2_1_A.mp4"
    },
    {
      "ID": "UExmSTZVQmt4dk9UbVl2NVdzUEFOazN4cjV3VU1iRHRDTy4yODlGNEE0NkRGMEEzMEQy",
      "VideoID": "FHtOXsaVbPE",
      "VideoFile": "grammar-ja-tk2_2_A.mp4"
    },
    {
      "ID": "UExmSTZVQmt4dk9UbVl2NVdzUEFOazN4cjV3VU1iRHRDTy4wMTcyMDhGQUE4NTIzM0Y5",
      "VideoID": "1DHk9DFHV_E",
      "VideoFile": "grammar-ja-tk2_3_A.mp4"
    },
    {
      "ID": "UExmSTZVQmt4dk9UbVl2NVdzUEFOazN4cjV3VU1iRHRDTy41MjE1MkI0OTQ2QzJGNzNG",
      "VideoID": "WFgQRdDyuVg",
      "VideoFile": "grammar-ja-tk2_4_A.mp4"
    },
    {
      "ID": "UExmSTZVQmt4dk9UbVl2NVdzUEFOazN4cjV3VU1iRHRDTy4wOTA3OTZBNzVEMTUzOTMy",
      "VideoID": "q4_TI7YZg9U",
      "VideoFile": "grammar-ja-tk2_5_A.mp4"
    },
    {
      "ID": "UExmSTZVQmt4dk9UbVl2NVdzUEFOazN4cjV3VU1iRHRDTy4xMkVGQjNCMUM1N0RFNEUx",
      "VideoID": "6uO8IbIB9rg",
      "VideoFile": "grammar-ja-tk2_6_A.mp4"
    },
    {
      "ID": "UExmSTZVQmt4dk9UbVl2NVdzUEFOazN4cjV3VU1iRHRDTy41MzJCQjBCNDIyRkJDN0VD",
      "VideoID": "de_av04O1Ec",
      "VideoFile": "grammar-ja-tk2_7_A.mp4"
    },
    {
      "ID": "UExmSTZVQmt4dk9UbVl2NVdzUEFOazN4cjV3VU1iRHRDTy5DQUNERDQ2NkIzRUQxNTY1",
      "VideoID": "xrxsJ_6uXQY",
      "VideoFile": "grammar-ja-tk2_8_A.mp4"
    },
    {
      "ID": "UExmSTZVQmt4dk9UbVl2NVdzUEFOazN4cjV3VU1iRHRDTy45NDk1REZENzhEMzU5MDQz",
      "VideoID": "jUtdufptPrQ",
      "VideoFile": "grammar-ja-tk2_9_A.mp4"
    }
  ]
}