{
  "Name": "grammar-ja-tk2",
  "ID": "PLfI6UBkxvOTlBBrpWDo3HqHYFnb5wIQTe",
  "DefaultLang": "uk",
  "Title": "Розмовляй японською! Основні вправи з граматики",
  "Description": "Вивчіть японську граматику! Змініть слово у реченні!",
  "Localizations": null,
  "PlaylistTags": "Японська граматика,دستور زبان ژاپنی,જાપાનીઝ વ્યાકરણ,ไวยากรณ์ภาษาญี่ปุ่น,日语语法,Japanese ụtọ asụsụ,Wetereo Japanese,جاپاني گرامر,יאַפּאַניש גראַמאַטיק,Tata bahasa Jepang,Japanische Grammatik,Gramática xaponesa,Japāņu gramatika,Gramatyka japońska,Tae Kim's Guide to Learning Japanese",
  "Updated": true,
  "PlaylistItems": [
    {
      "ID": "UExmSTZVQmt4dk9UbEJCcnBXRG8zSHFIWUZuYjV3SVFUZS41NkI0NEY2RDEwNTU3Q0M2",
      "VideoID": "3649HXquOg0",
      "VideoFile": "grammar-ja-tk2_1_A.mp4"
    },
    {
      "ID": "UExmSTZVQmt4dk9UbEJCcnBXRG8zSHFIWUZuYjV3SVFUZS4yODlGNEE0NkRGMEEzMEQy",
      "VideoID": "FHtOXsaVbPE",
      "VideoFile": "grammar-ja-tk2_2_A.mp4"
    },
    {
      "ID": "UExmSTZVQmt4dk9UbEJCcnBXRG8zSHFIWUZuYjV3SVFUZS4wMTcyMDhGQUE4NTIzM0Y5",
      "VideoID": "1DHk9DFHV_E",
      "VideoFile": "grammar-ja-tk2_3_A.mp4"
    },
    {
      "ID": "UExmSTZVQmt4dk9UbEJCcnBXRG8zSHFIWUZuYjV3SVFUZS41MjE1MkI0OTQ2QzJGNzNG",
      "VideoID": "WFgQRdDyuVg",
      "VideoFile": "grammar-ja-tk2_4_A.mp4"
    },
    {
      "ID": "UExmSTZVQmt4dk9UbEJCcnBXRG8zSHFIWUZuYjV3SVFUZS4wOTA3OTZBNzVEMTUzOTMy",
      "VideoID": "q4_TI7YZg9U",
      "VideoFile": "grammar-ja-tk2_5_A.mp4"
    },
    {
      "ID": "UExmSTZVQmt4dk9UbEJCcnBXRG8zSHFIWUZuYjV3SVFUZS4xMkVGQjNCMUM1N0RFNEUx",
      "VideoID": "6uO8IbIB9rg",
      "VideoFile": "grammar-ja-tk2_6_A.mp4"
    },
    {
      "ID": "UExmSTZVQmt4dk9UbEJCcnBXRG8zSHFIWUZuYjV3SVFUZS41MzJCQjBCNDIyRkJDN0VD",
      "VideoID": "de_av04O1Ec",
      "VideoFile": "grammar-ja-tk2_7_A.mp4"
    },
    {
      "ID": "UExmSTZVQmt4dk9UbEJCcnBXRG8zSHFIWUZuYjV3SVFUZS5DQUNERDQ2NkIzRUQxNTY1",
      "VideoID": "xrxsJ_6uXQY",
      "VideoFile": "grammar-ja-tk2_8_A.mp4"
    },
    {
      "ID": "UExmSTZVQmt4dk9UbEJCcnBXRG8zSHFIWUZuYjV3SVFUZS45NDk1REZENzhEMzU5MDQz",
      "VideoID": "jUtdufptPrQ",
      "VideoFile": "grammar-ja-tk2_9_A.mp4"
    }
  ]
}