{
  "Name": "grammar-ja-tk2",
  "ID": "PLfI6UBkxvOTl_XnRJpWdsgenx7iNwyh4p",
  "DefaultLang": "be",
  "Title": "Размаўляйце па-японску! Асноўныя практыкаванні па граматыцы",
  "Description": "Вывучайце японскую граматыку! Зменіце слова ў сказе!",
  "Localizations": null,
  "PlaylistTags": "Японская граматыка,Японская грамматика,جاپانی گرائمر,জাপানি ব্যাকরণ,ജാപ്പനീസ് വ്യാകരണവും,የጃፓን ሰዋሰው,Japanese grammatika,Anarana fitsipi-pitenenana,Japanese sebōpeho-puo,Gramadeg Siapan,Japanese grammatika,Japonská gramatika,Hapon grammar,Grammatica giapponese,Tae Kim's Guide to Learning Japanese",
  "Updated": true,
  "PlaylistItems": [
    {
      "ID": "UExmSTZVQmt4dk9UbF9YblJKcFdkc2dlbng3aU53eWg0cC41NkI0NEY2RDEwNTU3Q0M2",
      "VideoID": "3649HXquOg0",
      "VideoFile": "grammar-ja-tk2_1_A.mp4"
    },
    {
      "ID": "UExmSTZVQmt4dk9UbF9YblJKcFdkc2dlbng3aU53eWg0cC4yODlGNEE0NkRGMEEzMEQy",
      "VideoID": "FHtOXsaVbPE",
      "VideoFile": "grammar-ja-tk2_2_A.mp4"
    },
    {
      "ID": "UExmSTZVQmt4dk9UbF9YblJKcFdkc2dlbng3aU53eWg0cC4wMTcyMDhGQUE4NTIzM0Y5",
      "VideoID": "1DHk9DFHV_E",
      "VideoFile": "grammar-ja-tk2_3_A.mp4"
    },
    {
      "ID": "UExmSTZVQmt4dk9UbF9YblJKcFdkc2dlbng3aU53eWg0cC41MjE1MkI0OTQ2QzJGNzNG",
      "VideoID": "WFgQRdDyuVg",
      "VideoFile": "grammar-ja-tk2_4_A.mp4"
    },
    {
      "ID": "UExmSTZVQmt4dk9UbF9YblJKcFdkc2dlbng3aU53eWg0cC4wOTA3OTZBNzVEMTUzOTMy",
      "VideoID": "q4_TI7YZg9U",
      "VideoFile": "grammar-ja-tk2_5_A.mp4"
    },
    {
      "ID": "UExmSTZVQmt4dk9UbF9YblJKcFdkc2dlbng3aU53eWg0cC4xMkVGQjNCMUM1N0RFNEUx",
      "VideoID": "6uO8IbIB9rg",
      "VideoFile": "grammar-ja-tk2_6_A.mp4"
    },
    {
      "ID": "UExmSTZVQmt4dk9UbF9YblJKcFdkc2dlbng3aU53eWg0cC41MzJCQjBCNDIyRkJDN0VD",
      "VideoID": "de_av04O1Ec",
      "VideoFile": "grammar-ja-tk2_7_A.mp4"
    },
    {
      "ID": "UExmSTZVQmt4dk9UbF9YblJKcFdkc2dlbng3aU53eWg0cC5DQUNERDQ2NkIzRUQxNTY1",
      "VideoID": "xrxsJ_6uXQY",
      "VideoFile": "grammar-ja-tk2_8_A.mp4"
    },
    {
      "ID": "UExmSTZVQmt4dk9UbF9YblJKcFdkc2dlbng3aU53eWg0cC45NDk1REZENzhEMzU5MDQz",
      "VideoID": "jUtdufptPrQ",
      "VideoFile": "grammar-ja-tk2_9_A.mp4"
    }
  ]
}