{
  "Name": "grammar-ja-tk2",
  "ID": "PLfI6UBkxvOTmHUtB17K_baWFzyR_Ip0Zf",
  "DefaultLang": "hu",
  "Title": "Beszélj japánul! Alapvető nyelvtani gyakorlatok",
  "Description": "Tanulja meg a japán nyelvtant! Változtasson egy szót egy mondatban!",
  "Localizations": null,
  "PlaylistTags": "Japán nyelvtan,Gramatica japoneză,Japanska grammatik,Жапон грамматика,Ιαπωνικά γραμματική,जापानी व्याकरण,ஜப்பனீஸ் இலக்கணம்,ໄວຍະກອນພາສາຍີ່ປຸ່ນ,日語語法,Grammar Japanese,د جاپان د ګرامر,Naxwaha Japanese,Japanese ilo,Tatabahasa Jepun,Tae Kim's Guide to Learning Japanese",
  "Updated": true,
  "PlaylistItems": [
    {
      "ID": "UExmSTZVQmt4dk9UbUhVdEIxN0tfYmFXRnp5Ul9JcDBaZi41NkI0NEY2RDEwNTU3Q0M2",
      "VideoID": "3649HXquOg0",
      "VideoFile": "grammar-ja-tk2_1_A.mp4"
    },
    {
      "ID": "UExmSTZVQmt4dk9UbUhVdEIxN0tfYmFXRnp5Ul9JcDBaZi4yODlGNEE0NkRGMEEzMEQy",
      "VideoID": "FHtOXsaVbPE",
      "VideoFile": "grammar-ja-tk2_2_A.mp4"
    },
    {
      "ID": "UExmSTZVQmt4dk9UbUhVdEIxN0tfYmFXRnp5Ul9JcDBaZi4wMTcyMDhGQUE4NTIzM0Y5",
      "VideoID": "1DHk9DFHV_E",
      "VideoFile": "grammar-ja-tk2_3_A.mp4"
    },
    {
      "ID": "UExmSTZVQmt4dk9UbUhVdEIxN0tfYmFXRnp5Ul9JcDBaZi41MjE1MkI0OTQ2QzJGNzNG",
      "VideoID": "WFgQRdDyuVg",
      "VideoFile": "grammar-ja-tk2_4_A.mp4"
    },
    {
      "ID": "UExmSTZVQmt4dk9UbUhVdEIxN0tfYmFXRnp5Ul9JcDBaZi4wOTA3OTZBNzVEMTUzOTMy",
      "VideoID": "q4_TI7YZg9U",
      "VideoFile": "grammar-ja-tk2_5_A.mp4"
    },
    {
      "ID": "UExmSTZVQmt4dk9UbUhVdEIxN0tfYmFXRnp5Ul9JcDBaZi4xMkVGQjNCMUM1N0RFNEUx",
      "VideoID": "6uO8IbIB9rg",
      "VideoFile": "grammar-ja-tk2_6_A.mp4"
    },
    {
      "ID": "UExmSTZVQmt4dk9UbUhVdEIxN0tfYmFXRnp5Ul9JcDBaZi41MzJCQjBCNDIyRkJDN0VD",
      "VideoID": "de_av04O1Ec",
      "VideoFile": "grammar-ja-tk2_7_A.mp4"
    },
    {
      "ID": "UExmSTZVQmt4dk9UbUhVdEIxN0tfYmFXRnp5Ul9JcDBaZi5DQUNERDQ2NkIzRUQxNTY1",
      "VideoID": "xrxsJ_6uXQY",
      "VideoFile": "grammar-ja-tk2_8_A.mp4"
    },
    {
      "ID": "UExmSTZVQmt4dk9UbUhVdEIxN0tfYmFXRnp5Ul9JcDBaZi45NDk1REZENzhEMzU5MDQz",
      "VideoID": "jUtdufptPrQ",
      "VideoFile": "grammar-ja-tk2_9_A.mp4"
    }
  ]
}