{
  "Name": "grammar-ja-tk2",
  "ID": "PLfI6UBkxvOTlaFDE1wN3-l9UheG-Tm9-V",
  "DefaultLang": "ml",
  "Title": "ജാപ്പനീസ് സംസാരിക്കുക! അവശ്യ വ്യാകരണ വ്യായാമങ്ങൾ",
  "Description": "ജാപ്പനീസ് വ്യാകരണം പഠിക്കൂ! ഒരു വാക്യത്തിൽ ഒരു വാക്ക് മാറ്റുക!",
  "Localizations": null,
  "PlaylistTags": "ജാപ്പനീസ് വ്യാകരണവും,የጃፓን ሰዋሰው,Japanese grammatika,Anarana fitsipi-pitenenana,Japanese sebōpeho-puo,Gramadeg Siapan,Japanese grammatika,Japonská gramatika,Hapon grammar,Grammatica giapponese,Japansk grammatikk,Japonská gramatika,Japon dilbilgisi,Японы дүрмийн,Tae Kim's Guide to Learning Japanese",
  "Updated": true,
  "PlaylistItems": [
    {
      "ID": "UExmSTZVQmt4dk9UbGFGREUxd04zLWw5VWhlRy1UbTktVi41NkI0NEY2RDEwNTU3Q0M2",
      "VideoID": "3649HXquOg0",
      "VideoFile": "grammar-ja-tk2_1_A.mp4"
    },
    {
      "ID": "UExmSTZVQmt4dk9UbGFGREUxd04zLWw5VWhlRy1UbTktVi4yODlGNEE0NkRGMEEzMEQy",
      "VideoID": "FHtOXsaVbPE",
      "VideoFile": "grammar-ja-tk2_2_A.mp4"
    },
    {
      "ID": "UExmSTZVQmt4dk9UbGFGREUxd04zLWw5VWhlRy1UbTktVi4wMTcyMDhGQUE4NTIzM0Y5",
      "VideoID": "1DHk9DFHV_E",
      "VideoFile": "grammar-ja-tk2_3_A.mp4"
    },
    {
      "ID": "UExmSTZVQmt4dk9UbGFGREUxd04zLWw5VWhlRy1UbTktVi41MjE1MkI0OTQ2QzJGNzNG",
      "VideoID": "WFgQRdDyuVg",
      "VideoFile": "grammar-ja-tk2_4_A.mp4"
    },
    {
      "ID": "UExmSTZVQmt4dk9UbGFGREUxd04zLWw5VWhlRy1UbTktVi4wOTA3OTZBNzVEMTUzOTMy",
      "VideoID": "q4_TI7YZg9U",
      "VideoFile": "grammar-ja-tk2_5_A.mp4"
    },
    {
      "ID": "UExmSTZVQmt4dk9UbGFGREUxd04zLWw5VWhlRy1UbTktVi4xMkVGQjNCMUM1N0RFNEUx",
      "VideoID": "6uO8IbIB9rg",
      "VideoFile": "grammar-ja-tk2_6_A.mp4"
    },
    {
      "ID": "UExmSTZVQmt4dk9UbGFGREUxd04zLWw5VWhlRy1UbTktVi41MzJCQjBCNDIyRkJDN0VD",
      "VideoID": "de_av04O1Ec",
      "VideoFile": "grammar-ja-tk2_7_A.mp4"
    },
    {
      "ID": "UExmSTZVQmt4dk9UbGFGREUxd04zLWw5VWhlRy1UbTktVi5DQUNERDQ2NkIzRUQxNTY1",
      "VideoID": "xrxsJ_6uXQY",
      "VideoFile": "grammar-ja-tk2_8_A.mp4"
    },
    {
      "ID": "UExmSTZVQmt4dk9UbGFGREUxd04zLWw5VWhlRy1UbTktVi45NDk1REZENzhEMzU5MDQz",
      "VideoID": "jUtdufptPrQ",
      "VideoFile": "grammar-ja-tk2_9_A.mp4"
    }
  ]
}