{
  "Name": "grammar-ja-tk2",
  "ID": "PLfI6UBkxvOTm5S6flj2TqxALjHzeU21XQ",
  "DefaultLang": "fr",
  "Title": "Parle japonais! Exercices de grammaire essentiels",
  "Description": "Apprenez la grammaire japonaise! Changez un mot dans une phrase!",
  "Localizations": null,
  "PlaylistTags": "Grammaire japonaise,Kijapani sarufi,Yaponiya grammatika,Japonski slovnica,Японская граматыка,Японская грамматика,جاپانی گرائمر,জাপানি ব্যাকরণ,ജാപ്പനീസ് വ്യാകരണവും,የጃፓን ሰዋሰው,Japanese grammatika,Anarana fitsipi-pitenenana,Japanese sebōpeho-puo,Gramadeg Siapan,Tae Kim's Guide to Learning Japanese",
  "Updated": true,
  "PlaylistItems": [
    {
      "ID": "UExmSTZVQmt4dk9UbTVTNmZsajJUcXhBTGpIemVVMjFYUS41NkI0NEY2RDEwNTU3Q0M2",
      "VideoID": "3649HXquOg0",
      "VideoFile": "grammar-ja-tk2_1_A.mp4"
    },
    {
      "ID": "UExmSTZVQmt4dk9UbTVTNmZsajJUcXhBTGpIemVVMjFYUS4yODlGNEE0NkRGMEEzMEQy",
      "VideoID": "FHtOXsaVbPE",
      "VideoFile": "grammar-ja-tk2_2_A.mp4"
    },
    {
      "ID": "UExmSTZVQmt4dk9UbTVTNmZsajJUcXhBTGpIemVVMjFYUS4wMTcyMDhGQUE4NTIzM0Y5",
      "VideoID": "1DHk9DFHV_E",
      "VideoFile": "grammar-ja-tk2_3_A.mp4"
    },
    {
      "ID": "UExmSTZVQmt4dk9UbTVTNmZsajJUcXhBTGpIemVVMjFYUS41MjE1MkI0OTQ2QzJGNzNG",
      "VideoID": "WFgQRdDyuVg",
      "VideoFile": "grammar-ja-tk2_4_A.mp4"
    },
    {
      "ID": "UExmSTZVQmt4dk9UbTVTNmZsajJUcXhBTGpIemVVMjFYUS4wOTA3OTZBNzVEMTUzOTMy",
      "VideoID": "q4_TI7YZg9U",
      "VideoFile": "grammar-ja-tk2_5_A.mp4"
    },
    {
      "ID": "UExmSTZVQmt4dk9UbTVTNmZsajJUcXhBTGpIemVVMjFYUS4xMkVGQjNCMUM1N0RFNEUx",
      "VideoID": "6uO8IbIB9rg",
      "VideoFile": "grammar-ja-tk2_6_A.mp4"
    },
    {
      "ID": "UExmSTZVQmt4dk9UbTVTNmZsajJUcXhBTGpIemVVMjFYUS41MzJCQjBCNDIyRkJDN0VD",
      "VideoID": "de_av04O1Ec",
      "VideoFile": "grammar-ja-tk2_7_A.mp4"
    },
    {
      "ID": "UExmSTZVQmt4dk9UbTVTNmZsajJUcXhBTGpIemVVMjFYUS5DQUNERDQ2NkIzRUQxNTY1",
      "VideoID": "xrxsJ_6uXQY",
      "VideoFile": "grammar-ja-tk2_8_A.mp4"
    },
    {
      "ID": "UExmSTZVQmt4dk9UbTVTNmZsajJUcXhBTGpIemVVMjFYUS45NDk1REZENzhEMzU5MDQz",
      "VideoID": "jUtdufptPrQ",
      "VideoFile": "grammar-ja-tk2_9_A.mp4"
    }
  ]
}