{
  "Name": "grammar-ja-tk2",
  "ID": "PLfI6UBkxvOTkfpuIZGQ3kkpyh2E-V6YI8",
  "DefaultLang": "hr",
  "Title": "Govorite japanski! Osnovne gramatičke vježbe",
  "Description": "Naučite japansku gramatiku! Promijenite riječ u rečenici!",
  "Localizations": null,
  "PlaylistTags": "Japanska gramatika,Japonų kalbos gramatika,Gramática japonesa,Japanin kielioppi,Жапон тилинин грамматикасы,Японська граматика,دستور زبان ژاپنی,જાપાનીઝ વ્યાકરણ,ไวยากรณ์ภาษาญี่ปุ่น,日语语法,Japanese ụtọ asụsụ,Wetereo Japanese,جاپاني گرامر,יאַפּאַניש גראַמאַטיק,Tae Kim's Guide to Learning Japanese",
  "Updated": true,
  "PlaylistItems": [
    {
      "ID": "UExmSTZVQmt4dk9Ua2ZwdUlaR1Eza2tweWgyRS1WNllJOC41NkI0NEY2RDEwNTU3Q0M2",
      "VideoID": "3649HXquOg0",
      "VideoFile": "grammar-ja-tk2_1_A.mp4"
    },
    {
      "ID": "UExmSTZVQmt4dk9Ua2ZwdUlaR1Eza2tweWgyRS1WNllJOC4yODlGNEE0NkRGMEEzMEQy",
      "VideoID": "FHtOXsaVbPE",
      "VideoFile": "grammar-ja-tk2_2_A.mp4"
    },
    {
      "ID": "UExmSTZVQmt4dk9Ua2ZwdUlaR1Eza2tweWgyRS1WNllJOC4wMTcyMDhGQUE4NTIzM0Y5",
      "VideoID": "1DHk9DFHV_E",
      "VideoFile": "grammar-ja-tk2_3_A.mp4"
    },
    {
      "ID": "UExmSTZVQmt4dk9Ua2ZwdUlaR1Eza2tweWgyRS1WNllJOC41MjE1MkI0OTQ2QzJGNzNG",
      "VideoID": "WFgQRdDyuVg",
      "VideoFile": "grammar-ja-tk2_4_A.mp4"
    },
    {
      "ID": "UExmSTZVQmt4dk9Ua2ZwdUlaR1Eza2tweWgyRS1WNllJOC4wOTA3OTZBNzVEMTUzOTMy",
      "VideoID": "q4_TI7YZg9U",
      "VideoFile": "grammar-ja-tk2_5_A.mp4"
    },
    {
      "ID": "UExmSTZVQmt4dk9Ua2ZwdUlaR1Eza2tweWgyRS1WNllJOC4xMkVGQjNCMUM1N0RFNEUx",
      "VideoID": "6uO8IbIB9rg",
      "VideoFile": "grammar-ja-tk2_6_A.mp4"
    },
    {
      "ID": "UExmSTZVQmt4dk9Ua2ZwdUlaR1Eza2tweWgyRS1WNllJOC41MzJCQjBCNDIyRkJDN0VD",
      "VideoID": "de_av04O1Ec",
      "VideoFile": "grammar-ja-tk2_7_A.mp4"
    },
    {
      "ID": "UExmSTZVQmt4dk9Ua2ZwdUlaR1Eza2tweWgyRS1WNllJOC5DQUNERDQ2NkIzRUQxNTY1",
      "VideoID": "xrxsJ_6uXQY",
      "VideoFile": "grammar-ja-tk2_8_A.mp4"
    },
    {
      "ID": "UExmSTZVQmt4dk9Ua2ZwdUlaR1Eza2tweWgyRS1WNllJOC45NDk1REZENzhEMzU5MDQz",
      "VideoID": "jUtdufptPrQ",
      "VideoFile": "grammar-ja-tk2_9_A.mp4"
    }
  ]
}