{
  "Name": "grammar-ja-tk2",
  "ID": "PLfI6UBkxvOTmwJdT5NmU21mDNQZtTAbV3",
  "DefaultLang": "sq",
  "Title": "Flisni Japoneze! Ushtrime thelbësore të gramatikës",
  "Description": "Mësoni gramatikën japoneze! Ndryshoni një fjalë në një fjali!",
  "Localizations": null,
  "PlaylistTags": "Gramatika Japanese,Ngữ pháp tiếng Nhật,Јапонски граматика,Ճապոնական քերականություն,जपानी व्याकरण,జపనీస్ వ్యాకరణం,ဂျပန်သဒ္ဒါ,일본어 문법,Rêzimana Japanese,Kalama Iapani,Grammar Jepang,Japanese grammar,Japanski gramatika,Gramática japonesa,Tae Kim's Guide to Learning Japanese",
  "Updated": true,
  "PlaylistItems": [
    {
      "ID": "UExmSTZVQmt4dk9UbXdKZFQ1Tm1VMjFtRE5RWnRUQWJWMy41NkI0NEY2RDEwNTU3Q0M2",
      "VideoID": "3649HXquOg0",
      "VideoFile": "grammar-ja-tk2_1_A.mp4"
    },
    {
      "ID": "UExmSTZVQmt4dk9UbXdKZFQ1Tm1VMjFtRE5RWnRUQWJWMy4yODlGNEE0NkRGMEEzMEQy",
      "VideoID": "FHtOXsaVbPE",
      "VideoFile": "grammar-ja-tk2_2_A.mp4"
    },
    {
      "ID": "UExmSTZVQmt4dk9UbXdKZFQ1Tm1VMjFtRE5RWnRUQWJWMy4wMTcyMDhGQUE4NTIzM0Y5",
      "VideoID": "1DHk9DFHV_E",
      "VideoFile": "grammar-ja-tk2_3_A.mp4"
    },
    {
      "ID": "UExmSTZVQmt4dk9UbXdKZFQ1Tm1VMjFtRE5RWnRUQWJWMy41MjE1MkI0OTQ2QzJGNzNG",
      "VideoID": "WFgQRdDyuVg",
      "VideoFile": "grammar-ja-tk2_4_A.mp4"
    },
    {
      "ID": "UExmSTZVQmt4dk9UbXdKZFQ1Tm1VMjFtRE5RWnRUQWJWMy4wOTA3OTZBNzVEMTUzOTMy",
      "VideoID": "q4_TI7YZg9U",
      "VideoFile": "grammar-ja-tk2_5_A.mp4"
    },
    {
      "ID": "UExmSTZVQmt4dk9UbXdKZFQ1Tm1VMjFtRE5RWnRUQWJWMy4xMkVGQjNCMUM1N0RFNEUx",
      "VideoID": "6uO8IbIB9rg",
      "VideoFile": "grammar-ja-tk2_6_A.mp4"
    },
    {
      "ID": "UExmSTZVQmt4dk9UbXdKZFQ1Tm1VMjFtRE5RWnRUQWJWMy41MzJCQjBCNDIyRkJDN0VD",
      "VideoID": "de_av04O1Ec",
      "VideoFile": "grammar-ja-tk2_7_A.mp4"
    },
    {
      "ID": "UExmSTZVQmt4dk9UbXdKZFQ1Tm1VMjFtRE5RWnRUQWJWMy5DQUNERDQ2NkIzRUQxNTY1",
      "VideoID": "xrxsJ_6uXQY",
      "VideoFile": "grammar-ja-tk2_8_A.mp4"
    },
    {
      "ID": "UExmSTZVQmt4dk9UbXdKZFQ1Tm1VMjFtRE5RWnRUQWJWMy45NDk1REZENzhEMzU5MDQz",
      "VideoID": "jUtdufptPrQ",
      "VideoFile": "grammar-ja-tk2_9_A.mp4"
    }
  ]
}