{
  "SerieName": "grammar-pl-beginner",
  "ExerciseName": "A",
  "NextPublishAt": "",
  "PublishHours": 6,
  "ProblemNum": 10,
  "AudioLang": "pl",
  "VideoLang": "en",
  "Voices": [
    {
      "PersonName": "x",
      "VoiceKeys": [
        "F1",
        "M1",
        "F3"
      ]
    },
    {
      "PersonName": "y",
      "VoiceKeys": [
        "M1",
        "M2",
        "F3"
      ]
    },
    {
      "PersonName": "z",
      "VoiceKeys": [
        "M2",
        "M1",
        "F2"
      ]
    },
    {
      "PersonName": "v",
      "VoiceKeys": [
        "F2",
        "M2",
        "F1"
      ]
    },
    {
      "PersonName": "w",
      "VoiceKeys": [
        "F3",
        "M2",
        "F1"
      ]
    }
  ],
  "SerieTitle": "Polish grammar exercises",
  "YoutubeTitle": "{Polish grammar exercises} ⭐️ #[1] [:VideoTitle:]",
  "YoutubeDescription": "{Learn Polish grammar!} {Change a word in a sentence.}\n\n[:GrammarDescriptionTranslationWithRuby:]\n\n{To teachers and schools:}\n{This video is published under Creative Commons License.}\n  CC BY 3.0 https://creativecommons.org/licenses/by/3.0/ \n{Feel free to use this video in your classes!}\n\n{We use Google Translate service for localization. If you find some mistakes, please let us know.}\n",
  "YoutubeTags": "{Polish grammar|15|,}",
  "RubyFunc": "",
  "HidesRuby": true,
  "CaptionKeyNames": [
    {
      "CaptionKey": "translation",
      "CaptionName": "{Translation}"
    }
  ],
  "VoiceKeyNames": [
    {
      "VoiceKey": "M1",
      "VoiceName": "pl-PL-Wavenet-B"
    },
    {
      "VoiceKey": "M2",
      "VoiceName": "pl-PL-Wavenet-C"
    },
    {
      "VoiceKey": "F1",
      "VoiceName": "pl-PL-Wavenet-A"
    },
    {
      "VoiceKey": "F2",
      "VoiceName": "pl-PL-Wavenet-D"
    },
    {
      "VoiceKey": "F3",
      "VoiceName": "pl-PL-Wavenet-E"
    }
  ],
  "Palettes": null,
  "TitleFont": "NotoSansDisplay-SemiBold.ttf",
  "SubtitleFont": "NotoSansDisplay-SemiBold.ttf",
  "ProblemFont": "NotoSansDisplay-SemiBold.ttf",
  "RubyFont": "NotoSansDisplay-Condensed.ttf",
  "Langs": [
    "en",
    "ja",
    "af",
    "az",
    "id",
    "ms",
    "bs",
    "ca",
    "cs",
    "da",
    "de",
    "et",
    "es",
    "eu",
    "fil",
    "fr",
    "gl",
    "hr",
    "zu",
    "is",
    "it",
    "sw",
    "lv",
    "lt",
    "hu",
    "nl",
    "no",
    "uz",
    "pl",
    "pt",
    "ro",
    "sq",
    "sk",
    "sl",
    "sr",
    "fi",
    "sv",
    "vi",
    "tr",
    "be",
    "bg",
    "ky",
    "kk",
    "mk",
    "mn",
    "ru",
    "sr",
    "uk",
    "el",
    "hy",
    "iw",
    "ur",
    "ar",
    "fa",
    "ne",
    "mr",
    "hi",
    "bn",
    "pa",
    "gu",
    "ta",
    "te",
    "kn",
    "ml",
    "si",
    "th",
    "lo",
    "my",
    "ka",
    "am",
    "km",
    "zh-Hans",
    "zh-Hant",
    "ko",
    "co",
    "fy",
    "ha",
    "ig",
    "jv",
    "ku",
    "lb",
    "mg",
    "mt",
    "mi",
    "ps",
    "sm",
    "gd",
    "st",
    "sn",
    "sd",
    "so",
    "su",
    "tg",
    "cy",
    "xh",
    "yi",
    "yo"
  ]
}