{
  "VideoFile": "grammar-en-intermediate_2_A.mp4",
  "Captions": [
    {
      "ID": "USvfoL1xem4rLpg4C6PMf12nuSzhAGbdN2mZlwLSonIbeROgp5RAYQ==",
      "Lang": "af",
      "CaptionKey": "translation",
      "CaptionName": "vertaling",
      "YoutubeSynced": true
    },
    {
      "ID": "veVTgYwC_AM8LoV_XGAa9XdgIBaS9wscKCkt8jf-ZVcD5VDdB2O8CA==",
      "Lang": "am",
      "CaptionKey": "translation",
      "CaptionName": "ትርጉም",
      "YoutubeSynced": true
    },
    {
      "ID": "fmQjJtnExIxRhYLeD6h6CaMAA1SjetPjts_OlC0ryzyuu7l_8eZgbw==",
      "Lang": "ar",
      "CaptionKey": "translation",
      "CaptionName": "ترجمة",
      "YoutubeSynced": true
    },
    {
      "ID": "fmQjJtnExIx86aXBUWkRC511oji1bpgNYhMJbTeHELPJcjS-HSBTYg==",
      "Lang": "az",
      "CaptionKey": "translation",
      "CaptionName": "Tərcümə",
      "YoutubeSynced": true
    },
    {
      "ID": "RKwc9mQ4xVcNRtpsdoOLHgOgeIY6trK3M0VPWsop1W2AOk_pJYg_MqeB11D9S-aV",
      "Lang": "be",
      "CaptionKey": "translation",
      "CaptionName": "Пераклад",
      "YoutubeSynced": true
    },
    {
      "ID": "veVTgYwC_AME3rAhWbMsNCbTeT2kdDqP7Fr1FFf4r7OfS8MBPdlwLQ==",
      "Lang": "bg",
      "CaptionKey": "translation",
      "CaptionName": "превод",
      "YoutubeSynced": true
    },
    {
      "ID": "v3VOklApJAnC65AdzzVQAtkIY9iL4UXOvcOJaCr-0Vv31igvfltwRbQfBhyh1Ybi",
      "Lang": "bn",
      "CaptionKey": "translation",
      "CaptionName": "অনুবাদ",
      "YoutubeSynced": true
    },
    {
      "ID": "PMRsUg-pDFn4dTodMkx3MfnjBqq3X06PmAarv6CMP64=",
      "Lang": "bs",
      "CaptionKey": "translation",
      "CaptionName": "Prevod",
      "YoutubeSynced": true
    },
    {
      "ID": "fmQjJtnExIy4D__gZW68pUMTzTVbDpH8Y2xrGfwYAJBI3ADG9fa0KQ==",
      "Lang": "ca",
      "CaptionKey": "translation",
      "CaptionName": "Traducció",
      "YoutubeSynced": true
    },
    {
      "ID": "fmQjJtnExIyU8cdcAHwWDdBefUuSLtLV03t-_snUdDICd9YFwoaQBA==",
      "Lang": "co",
      "CaptionKey": "translation",
      "CaptionName": "Traduzione",
      "YoutubeSynced": true
    },
    {
      "ID": "ykFtjoQk85sxlyOrSczyqGuZgxoxZvfN-kBAYldEet2AfxRnNqCTeA==",
      "Lang": "cs",
      "CaptionKey": "translation",
      "CaptionName": "Překlad",
      "YoutubeSynced": true
    },
    {
      "ID": "X-ELFGNd8MjuV5in-adovf72XxJOKwwp2WUmWxsvOZp1bGZSv0wJtA==",
      "Lang": "cy",
      "CaptionKey": "translation",
      "CaptionName": "Cyfieithiad",
      "YoutubeSynced": true
    },
    {
      "ID": "wsB38vxpsinJoTukEaC4y3W_2RPwvvuqwnEbyekhY9SNP2_tvLmXgg==",
      "Lang": "da",
      "CaptionKey": "translation",
      "CaptionName": "Oversættelse",
      "YoutubeSynced": true
    },
    {
      "ID": "veVTgYwC_AMklMwE1FCo0BejDR9lkiBA2xdAidW4jwP6Nq4Kx9BfMQ==",
      "Lang": "de",
      "CaptionKey": "translation",
      "CaptionName": "Übersetzung",
      "YoutubeSynced": true
    },
    {
      "ID": "v3VOklApJAmOwlcQp-uzY3T8K0CGl4bJ_XVY1Zk8PxzO4o-kURqK_46u7Q1dupWw",
      "Lang": "el",
      "CaptionKey": "translation",
      "CaptionName": "Μετάφραση",
      "YoutubeSynced": true
    },
    {
      "ID": "X-ELFGNd8MhoP0bprtwK_AZEZmkU2eB3986UIJwWWx8XXYO5TVWyOg==",
      "Lang": "en",
      "CaptionKey": "translation",
      "CaptionName": "Translation",
      "YoutubeSynced": true
    },
    {
      "ID": "5AK4WVW_jMo6TLMoIMkvehbFko-0DZOfKqCsSnHzYD7vjYRmHDKZah977UBALofw",
      "Lang": "en",
      "CaptionKey": "ruby",
      "CaptionName": "Pronunciation - IPA",
      "YoutubeSynced": true
    },
    {
      "ID": "X-ELFGNd8Mhp1Glh88BOZh5iYVEZ-seZ82dquQRvSul2B5hDQR0vrQ==",
      "Lang": "es",
      "CaptionKey": "translation",
      "CaptionName": "Traducción",
      "YoutubeSynced": true
    },
    {
      "ID": "PMRsUg-pDFlrC0azkBNd1_d5EDKJVIL4ytzHx8sHKUw=",
      "Lang": "et",
      "CaptionKey": "translation",
      "CaptionName": "Tõlge",
      "YoutubeSynced": true
    },
    {
      "ID": "USvfoL1xem5dimtufk0NH-yWqjs1MfMH6ls82wqPIYPE5sKv4u5CFA==",
      "Lang": "eu",
      "CaptionKey": "translation",
      "CaptionName": "Itzulpena",
      "YoutubeSynced": true
    },
    {
      "ID": "fmQjJtnExIwLnDiO0Z3QlDUgTERWafMOkZ6cLj2d0Dkcx1TIH6EsrQ==",
      "Lang": "fa",
      "CaptionKey": "translation",
      "CaptionName": "ترجمه",
      "YoutubeSynced": true
    },
    {
      "ID": "fmQjJtnExIxKD3zF1Fu-WIDtCEI-jEfLEmR_Z7skth4F4O0XAadP8Q==",
      "Lang": "fi",
      "CaptionKey": "translation",
      "CaptionName": "Käännös",
      "YoutubeSynced": true
    },
    {
      "ID": "X-ELFGNd8MgM2pp5rLcdfTadpiZS4nc1UisFjsmMR6Nzzj744fUHUA==",
      "Lang": "fil",
      "CaptionKey": "translation",
      "CaptionName": "Pagsasalin",
      "YoutubeSynced": true
    },
    {
      "ID": "fmQjJtnExIxNGMrJ2QcpzmEoJrulv4IETn2I99O6eOHl7s5Av78Isg==",
      "Lang": "fr",
      "CaptionKey": "translation",
      "CaptionName": "Traduction",
      "YoutubeSynced": true
    },
    {
      "ID": "fmQjJtnExIxz3VgDHOWFUf7tqu5MUJSfEMgITdblu5wUf__NPBnjYw==",
      "Lang": "fy",
      "CaptionKey": "translation",
      "CaptionName": "Oersetting",
      "YoutubeSynced": true
    },
    {
      "ID": "v3VOklApJAkk5NUbub7_ghf8j5Y1t5OtKo0OHSG3cc_n5dty06sNaruEyPg8Oo8t",
      "Lang": "gd",
      "CaptionKey": "translation",
      "CaptionName": "Eadar-theangachadh",
      "YoutubeSynced": true
    },
    {
      "ID": "fmQjJtnExIwgZKv1VelS99-hsnEbpGB_zNW7V4ZmHM5j3BUwdf60uQ==",
      "Lang": "gl",
      "CaptionKey": "translation",
      "CaptionName": "Tradución",
      "YoutubeSynced": true
    },
    {
      "ID": "v3VOklApJAkCl_vWv8hkUB_4CLb5K2D3Ua12zDVO-10t1KylIiSHrNZO6MetYBZt",
      "Lang": "gu",
      "CaptionKey": "translation",
      "CaptionName": "અનુવાદ",
      "YoutubeSynced": true
    },
    {
      "ID": "q7TZNL-wO1JWDdnJVEXYlzFjQkbp82ha8z2r89aZe-BNEC-r8_hhXg==",
      "Lang": "ha",
      "CaptionKey": "translation",
      "CaptionName": "Fassara",
      "YoutubeSynced": true
    },
    {
      "ID": "v3VOklApJAn6LTB1RLwFyn-Vlh3IXVDgs6mOUtSMdBrZvONm2uLCACfUmQrdW8cP",
      "Lang": "hi",
      "CaptionKey": "translation",
      "CaptionName": "अनुवाद",
      "YoutubeSynced": true
    },
    {
      "ID": "ykFtjoQk85uGoTDZonJqIxI0l5XfinvgW-6yE-k1MUFZKJtIZSpSeQ==",
      "Lang": "hr",
      "CaptionKey": "translation",
      "CaptionName": "Prijevod",
      "YoutubeSynced": true
    },
    {
      "ID": "fmQjJtnExIxtHSQWaV4BFbKPHA28rdBj-9XUy9KriPLVdPnZvQC8vQ==",
      "Lang": "hu",
      "CaptionKey": "translation",
      "CaptionName": "Fordítás",
      "YoutubeSynced": true
    },
    {
      "ID": "66CJdKgKfm5-NsU2rnVvCuYYC3AbDxc2t6FR5wJFbeFk01-4jjQtzTn-DaJPG-K_Xogij2bi-TI=",
      "Lang": "hy",
      "CaptionKey": "translation",
      "CaptionName": "Թարգմանություն",
      "YoutubeSynced": true
    },
    {
      "ID": "fmQjJtnExIyxCOthMtGMnaHSg1nEb1wvMEjPsgT9FIz_UbmPdaV3Cw==",
      "Lang": "id",
      "CaptionKey": "translation",
      "CaptionName": "Terjemahan",
      "YoutubeSynced": true
    },
    {
      "ID": "ykFtjoQk85s5MNxC5qjvMVcYM7xZ6DmqLOFB80vW0VvMqlg-h1GAzw==",
      "Lang": "ig",
      "CaptionKey": "translation",
      "CaptionName": "Ntughari",
      "YoutubeSynced": true
    },
    {
      "ID": "USvfoL1xem6PS8uJOgFDUN9eezKbiC4DtH2SX7GNzCihPG_RVKWuQw==",
      "Lang": "is",
      "CaptionKey": "translation",
      "CaptionName": "Þýðing",
      "YoutubeSynced": true
    },
    {
      "ID": "fmQjJtnExIypuR15vUs1KfYeJzzoNRXx8oo1QSK1gkUb2TfAdLkvLA==",
      "Lang": "it",
      "CaptionKey": "translation",
      "CaptionName": "Traduzione",
      "YoutubeSynced": true
    },
    {
      "ID": "fmQjJtnExIwL5cp-X_vfDeFihvitGAD-l8PCkRnfOlM1ckgd56WHMw==",
      "Lang": "iw",
      "CaptionKey": "translation",
      "CaptionName": "תרגום",
      "YoutubeSynced": true
    },
    {
      "ID": "PMRsUg-pDFnqTi5vSDy3vS-Zu18hA8khI3IdoW8vwLU=",
      "Lang": "ja",
      "CaptionKey": "translation",
      "CaptionName": "翻訳",
      "YoutubeSynced": true
    },
    {
      "ID": "USvfoL1xem6wbKQIGPZE8oKIfnozvYK7cIfdb0kTPCriV2Dt-ivSnQ==",
      "Lang": "jv",
      "CaptionKey": "translation",
      "CaptionName": "Ngartekne",
      "YoutubeSynced": true
    },
    {
      "ID": "cT_SqTXFn5fG6ytEV_E62XokQ2II7pLEhs1H03W1SOjTj0rALxnWiSppTXyL5xec0odmYr5haeM=",
      "Lang": "ka",
      "CaptionKey": "translation",
      "CaptionName": "თარგმანი",
      "YoutubeSynced": true
    },
    {
      "ID": "8zFYp1sbE4bz2SnTzBk0ujLGkIxCV7IdQJm2h_i-VGsg7UtzvcLBSw==",
      "Lang": "kk",
      "CaptionKey": "translation",
      "CaptionName": "Аударма",
      "YoutubeSynced": true
    },
    {
      "ID": "TKriHA57Zd6RKvyAB7XQkCcF5h3BhXos4XTelSQ4IpIYYiwT7TKOzJIT3J5a6aNxm4ypaCHJE7w=",
      "Lang": "km",
      "CaptionKey": "translation",
      "CaptionName": "ការបកប្រែ",
      "YoutubeSynced": true
    },
    {
      "ID": "v3VOklApJAlR90UjiRuhlBZkzRlVWbe-5cQgn5SxkSC7hfM8ow8y945tOEte68ET",
      "Lang": "kn",
      "CaptionKey": "translation",
      "CaptionName": "ಅನುವಾದ",
      "YoutubeSynced": true
    },
    {
      "ID": "PMRsUg-pDFklu4Y3oGr9xDi0zTPM15uArP6Dw1mPNuo=",
      "Lang": "ko",
      "CaptionKey": "translation",
      "CaptionName": "번역",
      "YoutubeSynced": true
    },
    {
      "ID": "PMRsUg-pDFl-m23dn1J6JeOv3fIC4I_KrCQ-MaYsyqQ=",
      "Lang": "ku",
      "CaptionKey": "translation",
      "CaptionName": "Werger",
      "YoutubeSynced": true
    },
    {
      "ID": "8zFYp1sbE4Z0y1xejhZtCFozfZPa7JeBs213sjV-Xjb501iWqI-Org==",
      "Lang": "ky",
      "CaptionKey": "translation",
      "CaptionName": "котормо",
      "YoutubeSynced": true
    },
    {
      "ID": "veVTgYwC_AMl3p0IsmXknny8EfMQ_PTQzZXD-s5Sphk05PzWrhbr1Q==",
      "Lang": "lb",
      "CaptionKey": "translation",
      "CaptionName": "Iwwersetzung",
      "YoutubeSynced": true
    },
    {
      "ID": "TKriHA57Zd4Te4ekNBcHgV4Z_u88s-PZeUG_nEKkuQ2ZRxzmYApbQlGjYzCpYrLUHhwXpizqPZY=",
      "Lang": "lo",
      "CaptionKey": "translation",
      "CaptionName": "ການແປພາສາ",
      "YoutubeSynced": true
    },
    {
      "ID": "ykFtjoQk85vNnKMVX3_HiJv3bvWbhHpLsbqvn7IpTJJrXEuqlPhmNw==",
      "Lang": "lt",
      "CaptionKey": "translation",
      "CaptionName": "Vertimas",
      "YoutubeSynced": true
    },
    {
      "ID": "fmQjJtnExIypaQnZNE9pirvMnT7bMJOpjFNDDQg44s1d-i_RlCLy8w==",
      "Lang": "lv",
      "CaptionKey": "translation",
      "CaptionName": "Tulkošana",
      "YoutubeSynced": true
    },
    {
      "ID": "X-ELFGNd8Mh5LGkkc_teDdC1n0BEy77OS8k94cO0MXIdalceQsGnwA==",
      "Lang": "mg",
      "CaptionKey": "translation",
      "CaptionName": "Translation",
      "YoutubeSynced": true
    },
    {
      "ID": "CyKVX3uw52eOWkFlYU9T_axk0eiTbb6JPKWxkyzRUYBZC2tRUrUzp3B6CaisrCco",
      "Lang": "mi",
      "CaptionKey": "translation",
      "CaptionName": "Whakamaoritanga",
      "YoutubeSynced": true
    },
    {
      "ID": "veVTgYwC_AMZ8rY5EToq0lLeM6q_UG4OZ151s2beDIwRP6U2YU67bw==",
      "Lang": "mk",
      "CaptionKey": "translation",
      "CaptionName": "Превод",
      "YoutubeSynced": true
    },
    {
      "ID": "TKriHA57Zd7v6U0yWdNEnaVCK4YfI7_WJNglGZ4nS3e6dBHK3PugNBGXaB-GhgDKrbh8WCBt8Ww=",
      "Lang": "ml",
      "CaptionKey": "translation",
      "CaptionName": "വിവർത്തനം",
      "YoutubeSynced": true
    },
    {
      "ID": "RKwc9mQ4xVfggC96RSqs05C-XAusPdgABOUf6gjYL44YjhuHXaHDtu8JuN5aUjXW",
      "Lang": "mn",
      "CaptionKey": "translation",
      "CaptionName": "Орчуулга",
      "YoutubeSynced": true
    },
    {
      "ID": "jixU8v8Hy2BlifKFFeehQ7X16McOmHMMq408FZrOOrWONnlTxJV-HllFRamfKCyP",
      "Lang": "mr",
      "CaptionKey": "translation",
      "CaptionName": "भाषांतर",
      "YoutubeSynced": true
    },
    {
      "ID": "fmQjJtnExIwkTrWGW4fF2GGXnK854q-VaTFdD9nfOp0MqtgmgEUQBw==",
      "Lang": "ms",
      "CaptionKey": "translation",
      "CaptionName": "Terjemahan",
      "YoutubeSynced": true
    },
    {
      "ID": "X-ELFGNd8MirAuWSFU3p4pQGeIx0TUu8EbOEEF9_gC7UIEJ8V8eo4A==",
      "Lang": "mt",
      "CaptionKey": "translation",
      "CaptionName": "Traduzzjoni",
      "YoutubeSynced": true
    },
    {
      "ID": "cT_SqTXFn5equoqZF8KBP0_-2bG93E1m2KUk_alYutTxPuVFyvNrtTDmVKNn9DfgLXO6V7A-xD0=",
      "Lang": "my",
      "CaptionKey": "translation",
      "CaptionName": "ဘာသာပြန်",
      "YoutubeSynced": true
    },
    {
      "ID": "v3VOklApJAkr2Kav1ytgT11Q6-aYslYc5GJw_2GoMV2DOP7DbtE7KF3FwVYNJWuj",
      "Lang": "ne",
      "CaptionKey": "translation",
      "CaptionName": "अनुवाद",
      "YoutubeSynced": true
    },
    {
      "ID": "USvfoL1xem6IIzZfaKFHYqOiiqCWNNX5TIm5S41_9ENMqbSytw_zXA==",
      "Lang": "nl",
      "CaptionKey": "translation",
      "CaptionName": "Vertaling",
      "YoutubeSynced": true
    },
    {
      "ID": "veVTgYwC_APEZXPp4soTZYPS5dZKiCS9kZiupDAYleH3JFNZjaulRQ==",
      "Lang": "no",
      "CaptionKey": "translation",
      "CaptionName": "Oversettelse",
      "YoutubeSynced": true
    },
    {
      "ID": "v3VOklApJAnlfnmas7ThTUORkRDrl83t7-7XYJeuZG6gpIiFsNhQLRzVMr2_yPME",
      "Lang": "pa",
      "CaptionKey": "translation",
      "CaptionName": "ਅਨੁਵਾਦ",
      "YoutubeSynced": true
    },
    {
      "ID": "veVTgYwC_AMyDSb57n27P_j1LPVKE-YCvDtg0ThMidGczqtAuAIYbQ==",
      "Lang": "pl",
      "CaptionKey": "translation",
      "CaptionName": "Tłumaczenie",
      "YoutubeSynced": true
    },
    {
      "ID": "fmQjJtnExIwb3vdu5k2bV-9l5TeuxHPFWiNPyV5KsnQa3od2Qe-5DA==",
      "Lang": "ps",
      "CaptionKey": "translation",
      "CaptionName": "ژباړه",
      "YoutubeSynced": true
    },
    {
      "ID": "fmQjJtnExIwlMK_G-sKKV6hQJzTC66lvD96RJnRkywYV3O2FGR7KfA==",
      "Lang": "pt",
      "CaptionKey": "translation",
      "CaptionName": "Tradução",
      "YoutubeSynced": true
    },
    {
      "ID": "USvfoL1xem7vnVl77kmhxZXzDrBMvENxZJhgUVGQaPSm05esj3kzQA==",
      "Lang": "ro",
      "CaptionKey": "translation",
      "CaptionName": "Traducere",
      "YoutubeSynced": true
    },
    {
      "ID": "8zFYp1sbE4Z3ex_HIy1752KCazFpxeQFrjbRrWedSFJ9OzYYgt7y-Q==",
      "Lang": "ru",
      "CaptionKey": "translation",
      "CaptionName": "Перевод",
      "YoutubeSynced": true
    },
    {
      "ID": "fmQjJtnExIwUkAnW6WYXxcYSDTdwv97nkycPxxa3GiJvVFe8TkNAbQ==",
      "Lang": "sd",
      "CaptionKey": "translation",
      "CaptionName": "ترجمو",
      "YoutubeSynced": true
    },
    {
      "ID": "TKriHA57Zd70ToTgDrmkqjxgRGnYHdnLAZ5zRnpQ0V6WtRxDFnPjdiiogjHa2KylInLW8E1aGKc=",
      "Lang": "si",
      "CaptionKey": "translation",
      "CaptionName": "පරිවර්තනය",
      "YoutubeSynced": true
    },
    {
      "ID": "q7TZNL-wO1KN3uDf5IsncaNWfKIWdkFs7O2Y1KqAOrQE2OXgPSaz5g==",
      "Lang": "sk",
      "CaptionKey": "translation",
      "CaptionName": "preklad",
      "YoutubeSynced": true
    },
    {
      "ID": "PMRsUg-pDFmraxSmVWEJHIwVrDPrtNilRF18Abi4fVo=",
      "Lang": "sl",
      "CaptionKey": "translation",
      "CaptionName": "Prevod",
      "YoutubeSynced": true
    },
    {
      "ID": "veVTgYwC_APCH_xTJLjE_C-pEh6cCtmoaSCktEyRTN8gXwTG7nsn5w==",
      "Lang": "sm",
      "CaptionKey": "translation",
      "CaptionName": "Faʻaliliuga",
      "YoutubeSynced": true
    },
    {
      "ID": "q7TZNL-wO1LfcNne7-aml76bsAo7sExMIgUkIT0nIzH2LKGCT19K0g==",
      "Lang": "sn",
      "CaptionKey": "translation",
      "CaptionName": "Dudziro",
      "YoutubeSynced": true
    },
    {
      "ID": "USvfoL1xem4M5ljzVBbwW2m4HFmuo8JzJeq3Z5JRdPlCBw7tu0TCAQ==",
      "Lang": "so",
      "CaptionKey": "translation",
      "CaptionName": "Tarjumida",
      "YoutubeSynced": true
    },
    {
      "ID": "USvfoL1xem7-Mh94_RZgWlMRgLt19WOg9cAksdp1uSUnNEgqMtzpEQ==",
      "Lang": "sq",
      "CaptionKey": "translation",
      "CaptionName": "përkthim",
      "YoutubeSynced": true
    },
    {
      "ID": "veVTgYwC_AOxqH7aIRvEPA5SX4lKa8WmDa_Cyq7T00yty9EpjkZgig==",
      "Lang": "sr",
      "CaptionKey": "translation",
      "CaptionName": "Превод",
      "YoutubeSynced": true
    },
    {
      "ID": "USvfoL1xem6bDpnlwZye5E9HHBDVIsddbEAPV-jlEQf2GPuThGkOVA==",
      "Lang": "st",
      "CaptionKey": "translation",
      "CaptionName": "Phetolelo",
      "YoutubeSynced": true
    },
    {
      "ID": "fmQjJtnExIwuAzm35j_8kvVWfF9KPxo1SFOkmp75_KxCboPWSU_MtQ==",
      "Lang": "su",
      "CaptionKey": "translation",
      "CaptionName": "Tarjamahan",
      "YoutubeSynced": true
    },
    {
      "ID": "8zFYp1sbE4YCStmMbJ7Kc2CNtLtIKKlSv5b6LSKGHfK6dDFXHzBFDQ==",
      "Lang": "sv",
      "CaptionKey": "translation",
      "CaptionName": "Översättning",
      "YoutubeSynced": true
    },
    {
      "ID": "q7TZNL-wO1LbedOe4gLjsDW36CtRD9jLBWWQa8NIwBOcOw9NUM8XyQ==",
      "Lang": "sw",
      "CaptionKey": "translation",
      "CaptionName": "Tafsiri",
      "YoutubeSynced": true
    },
    {
      "ID": "hijgmnTbp658ST3ZFM-CCvJMfcvdOAL7xTE1vGNOMmdSb1-WqYRYHQc4xBpLHM2nUvDXYDEfgpv7gW0JZqrxS43Y_j6rBJ0z",
      "Lang": "ta",
      "CaptionKey": "translation",
      "CaptionName": "மொழிபெயர்ப்பு",
      "YoutubeSynced": true
    },
    {
      "ID": "jixU8v8Hy2CSo13S_QtakptSEsKfB24EXO55Uy5sIflsSeFsCtAulIcr2Uy_stW3",
      "Lang": "te",
      "CaptionKey": "translation",
      "CaptionName": "అనువాదం",
      "YoutubeSynced": true
    },
    {
      "ID": "8zFYp1sbE4a_0xnQcpTBPf9IObE7sqyv0omeFvcFPMiIG-bN7FVuww==",
      "Lang": "tg",
      "CaptionKey": "translation",
      "CaptionName": "Тарҷума",
      "YoutubeSynced": true
    },
    {
      "ID": "v3VOklApJAnAAMw4JxjXMw4sadJ8ELq8DcdB3GLfFRU2XIQaXSdlLohLytjKwMgx",
      "Lang": "th",
      "CaptionKey": "translation",
      "CaptionName": "การแปล",
      "YoutubeSynced": true
    },
    {
      "ID": "ykFtjoQk85uZFycW4Vjlb9a1HY7lSV82Vy0JTNiEWT58FmqKEzSYcA==",
      "Lang": "tr",
      "CaptionKey": "translation",
      "CaptionName": "Tercüme",
      "YoutubeSynced": true
    },
    {
      "ID": "RKwc9mQ4xVdbetKeXmVjOaOHJOo8Rc_fRVxgX61NPVva6kh7345fF40sSlruEOiq",
      "Lang": "uk",
      "CaptionKey": "translation",
      "CaptionName": "Переклад",
      "YoutubeSynced": true
    },
    {
      "ID": "fmQjJtnExIyE6JFBw9f3uO9xjCncWoUNTVagA0W0NOQBCMk_gjdNyg==",
      "Lang": "ur",
      "CaptionKey": "translation",
      "CaptionName": "ترجمہ",
      "YoutubeSynced": true
    },
    {
      "ID": "q7TZNL-wO1JsEtteIrX7N5nIvxzRUL0dM-8OaJWBn_tm8FKVbLR25A==",
      "Lang": "uz",
      "CaptionKey": "translation",
      "CaptionName": "Tarjima",
      "YoutubeSynced": true
    },
    {
      "ID": "PMRsUg-pDFnjE-k2z1GIffU9T-Kkxsz0JmeDxxErfvA=",
      "Lang": "vi",
      "CaptionKey": "translation",
      "CaptionName": "Dịch",
      "YoutubeSynced": true
    },
    {
      "ID": "fmQjJtnExIy-_dW97yqA16JubmiBuEMUfjmU9ElY07JcivHETBXzNg==",
      "Lang": "xh",
      "CaptionKey": "translation",
      "CaptionName": "Inguqulelo",
      "YoutubeSynced": true
    },
    {
      "ID": "mfLB9GGaJym6TcnncpkApa_BJSgusCRclDcTW5a7LS2KQj5NtdXXrnPlryFqao14",
      "Lang": "yi",
      "CaptionKey": "translation",
      "CaptionName": "איבערזעצונג",
      "YoutubeSynced": true
    },
    {
      "ID": "q7TZNL-wO1KtW8kj9zGWwpqcyLj8gv4kTA4q2LayPTJs0WZOqvQRrQ==",
      "Lang": "yo",
      "CaptionKey": "translation",
      "CaptionName": "Itumọ",
      "YoutubeSynced": true
    },
    {
      "ID": "X-ELFGNd8MitPvzgspMgSA0La3cv3DqdyPeurgwRuq8Q8RM75x0wrA==",
      "Lang": "zh-Hans",
      "CaptionKey": "translation",
      "CaptionName": "翻译",
      "YoutubeSynced": true
    },
    {
      "ID": "X-ELFGNd8MitPvzgspMgSI43PPDjNvFyCLWHsA_hh5i8GRoVI-2zFA==",
      "Lang": "zh-Hant",
      "CaptionKey": "translation",
      "CaptionName": "翻譯",
      "YoutubeSynced": true
    },
    {
      "ID": "fmQjJtnExIzS66ZrecL5asTEqCpXxrdPhxxfzmPVyxdmKtIWasUfGg==",
      "Lang": "zu",
      "CaptionKey": "translation",
      "CaptionName": "Ukuhumusha",
      "YoutubeSynced": true
    }
  ]
}