{
  "File": "math-grade1-1_3_A.mp4",
  "ID": "Dck9nq9n8pw",
  "AudioLang": "",
  "DefaultLang": "af",
  "Title": "'N wiskunde meester! 💯 Graad 1 Wiskunde #3 1+1+1",
  "Description": "Aan onderwysers en skole:\nHierdie video word onder Creative Commons-lisensie gepubliseer.\n  CC BY 3.0 https://creativecommons.org/licenses/by/3.0/ \nGebruik gerus hierdie video in u klasse!\n\n",
  "VideoTags": "Graad 1,Unang Baitang,1. Klasse,1. sınıf,כיתה ה -1,1 ನೇ ಗ್ರೇಡ್,1st scelta,1mh ìrewiskunde,math,matematyka,математика,गणित,သင်္ချာ,temporäre",
  "YoutubeSynced": true,
  "ThumbnailUploaded": true,
  "Localizations": [
    {
      "Lang": "af",
      "Title": "'N wiskunde meester! 💯 Graad 1 Wiskunde #3 1+1+1",
      "Description": "Aan onderwysers en skole:\nHierdie video word onder Creative Commons-lisensie gepubliseer.\n  CC BY 3.0 https://creativecommons.org/licenses/by/3.0/ \nGebruik gerus hierdie video in u klasse!\n\n",
      "TwitterStatusID": 1230285493402619904
    },
    {
      "Lang": "am",
      "Title": "አንድ የሒሳብ ማስተር ይሁኑ! 💯 1 ኛ ክፍል ሒሳብ #3 1+1+1",
      "Description": "ለመምህራን እና ለት / ቤቶች\nይህ ቪዲዮ በ Creative Commons ፈቃድ ስር ታትሟል ፡፡\n  CC BY 3.0 https://creativecommons.org/licenses/by/3.0/ \nይህንን ቪዲዮ በትምህርቶችዎ ውስጥ ለመጠቀም ነፃ ይሁኑ!\n\n",
      "TwitterStatusID": 1230285494803521537
    },
    {
      "Lang": "ar",
      "Title": "تصبح على درجة الماجستير في الرياضيات! 💯 1st الصف الرياضيات #3 1+1+1",
      "Description": "للمعلمين والمدارس:\nتم نشر هذا الفيديو تحت رخصة المشاع الإبداعي.\n  CC BY 3.0 https://creativecommons.org/licenses/by/3.0/ \nلا تتردد في استخدام هذا الفيديو في الفصول الدراسية!\n\n",
      "TwitterStatusID": 1230285495608856577
    },
    {
      "Lang": "az",
      "Title": "bir riyaziyyat master ol! 💯 1-ci sinif Math #3 1+1+1",
      "Description": "Müəllimlərə və məktəblərə:\nBu video Creative Commons lisenziyası altında yayımlanıb.\n  CC BY 3.0 https://creativecommons.org/licenses/by/3.0/ \nBu videonu dərslərinizdə istifadə etməkdən çekinmeyin!\n\n",
      "TwitterStatusID": 1230285496481280000
    },
    {
      "Lang": "be",
      "Title": "Стаць матэматыкам майстар! 💯 першы клас Матэматычны #3 1+1+1",
      "Description": "Для настаўнікаў і школ:\nГэта відэа публікуецца пад ліцэнзіяй Creative Commons.\n  CC BY 3.0 https://creativecommons.org/licenses/by/3.0/ \nНе саромейцеся выкарыстоўваць гэта відэа ў сваіх класах!\n\n",
      "TwitterStatusID": 1230285497471078400
    },
    {
      "Lang": "bg",
      "Title": "Станете майстор математика! 💯 1-ви клас Математика #3 1+1+1",
      "Description": "За учители и училища:\nТози видеоклип е публикуван под Creative Commons License.\n  CC BY 3.0 https://creativecommons.org/licenses/by/3.0/ \nЧувствайте се свободни да използвате това видео в класовете си!\n\n",
      "TwitterStatusID": 1230285498322571264
    },
    {
      "Lang": "bn",
      "Title": "একটি গণিত মাস্টার হয়ে যান! 💯 1 ম মান গণিত #3 1+1+1",
      "Description": "শিক্ষক এবং বিদ্যালয়ের কাছে:\nএই ভিডিওটি ক্রিয়েটিভ কমন্স লাইসেন্সের আওতায় প্রকাশিত হয়েছে।\n  CC BY 3.0 https://creativecommons.org/licenses/by/3.0/ \nআপনার ক্লাসে এই ভিডিওটি নির্দ্বিধায় ব্যবহার করুন!\n\n",
      "TwitterStatusID": 1230285499224313856
    },
    {
      "Lang": "bs",
      "Title": "Postanite matematike majstor! 💯 1. razred Matematika #3 1+1+1",
      "Description": "Nastavnicima i školama:\nOvaj video je objavljen pod Creative Commons licencom.\n  CC BY 3.0 https://creativecommons.org/licenses/by/3.0/ \nSlobodno koristite ovaj videozapis u svojim predavanjima!\n\n",
      "TwitterStatusID": 1230285500113510400
    },
    {
      "Lang": "ca",
      "Title": "Convertir-se en un mestre de matemàtiques! 💯 1º Primaria Matemàtiques #3 1+1+1",
      "Description": "A professors i escoles:\nAquest vídeo es publica sota llicència Creative Commons.\n  CC BY 3.0 https://creativecommons.org/licenses/by/3.0/ \nNo dubteu a utilitzar aquest vídeo a les vostres classes.\n\n",
      "TwitterStatusID": 1230285501044674561
    },
    {
      "Lang": "co",
      "Title": "Divintatu un signore maths! 💯 1st scelta Maths #3 1+1+1",
      "Description": "À i prufessori è à e scole:\nStu video hè publicatu sottu licenza Creative Commons.\n  CC BY 3.0 https://creativecommons.org/licenses/by/3.0/ \nSentitevi liberi d'utilizà stu video in i vostri classi!\n\n",
      "TwitterStatusID": 1230285501938065408
    },
    {
      "Lang": "cs",
      "Title": "Staňte se matematický pán! 💯 První Třídy Matematika #3 1+1+1",
      "Description": "Učitelům a školám:\nToto video je publikováno pod licencí Creative Commons License.\n  CC BY 3.0 https://creativecommons.org/licenses/by/3.0/ \nNeváhejte použít toto video ve svých třídách!\n\n",
      "TwitterStatusID": 1230285502844043265
    },
    {
      "Lang": "cy",
      "Title": "Dod yn feistr mathemateg! 💯 gradd 1af Mathemateg #3 1+1+1",
      "Description": "I athrawon ac ysgolion:\nCyhoeddir y fideo hon o dan Creative Commons License.\n  CC BY 3.0 https://creativecommons.org/licenses/by/3.0/ \nMae croeso i chi ddefnyddio'r fideo hon yn eich dosbarthiadau!\n\n",
      "TwitterStatusID": 1230285503720644608
    },
    {
      "Lang": "da",
      "Title": "Bliv matematik mester! 💯 1 Klasse Matematik #3 1+1+1",
      "Description": "Til lærere og skoler:\nDenne video er offentliggjort under Creative Commons License.\n  CC BY 3.0 https://creativecommons.org/licenses/by/3.0/ \nBrug gjerne denne video i dine klasser!\n\n",
      "TwitterStatusID": 1230285504614039552
    },
    {
      "Lang": "de",
      "Title": "Werden Sie ein Mathe-Meister! 💯 1 Klasse Mathematik #3 1+1+1",
      "Description": "An Lehrer und Schulen:\nDieses Video wird unter der Creative Commons License veröffentlicht.\n  CC BY 3.0 https://creativecommons.org/licenses/by/3.0/ \nFühlen Sie sich frei, dieses Video in Ihren Klassen zu verwenden!\n\n",
      "TwitterStatusID": 1230285505536749569
    },
    {
      "Lang": "el",
      "Title": "Γίνετε πλοίαρχος μαθηματικά! 💯 1η τάξη Μαθηματικά #3 1+1+1",
      "Description": "Στους εκπαιδευτικούς και τα σχολεία:\nΑυτό το βίντεο δημοσιεύεται υπό Creative Commons License.\n  CC BY 3.0 https://creativecommons.org/licenses/by/3.0/ \nΜπορείτε να χρησιμοποιήσετε αυτό το βίντεο στις τάξεις σας!\n\n",
      "TwitterStatusID": 1230285506413379584
    },
    {
      "Lang": "en",
      "Title": "Be a math master! 💯 1st Grade Math #3 1+1+1",
      "Description": "To teachers and schools:\nThis video is published under Creative Commons License.\n  CC BY 3.0 https://creativecommons.org/licenses/by/3.0/ \nFeel free to use this video in your classes!\n\n",
      "TwitterStatusID": 1230285507235442690
    },
    {
      "Lang": "es",
      "Title": "Convertirse en un maestro de matemáticas! 💯 1er Grado Matemáticas #3 1+1+1",
      "Description": "A profesores y escuelas:\nEste video se publica bajo licencia Creative Commons.\n  CC BY 3.0 https://creativecommons.org/licenses/by/3.0/ \n¡Siéntete libre de usar este video en tus clases!\n\n",
      "TwitterStatusID": 1230285508216930305
    },
    {
      "Lang": "et",
      "Title": "Hakka matemaatika kapten! 💯 1. Klass Matemaatika #3 1+1+1",
      "Description": "Õpetajatele ja koolidele:\nSee video on avaldatud Creative Commonsi litsentsi all.\n  CC BY 3.0 https://creativecommons.org/licenses/by/3.0/ \nKasutage seda videot julgelt oma tundides!\n\n",
      "TwitterStatusID": 1230285509097734144
    },
    {
      "Lang": "eu",
      "Title": "matematika maisu bihurtu! 💯 1. Maila Matematika #3 1+1+1",
      "Description": "Irakasleei eta ikastetxeei:\nBideo hau Creative Commons lizentziapean argitaratzen da.\n  CC BY 3.0 https://creativecommons.org/licenses/by/3.0/ \nEz ahaztu bideo hau zure klaseetan erabiltzeko!\n\n",
      "TwitterStatusID": 1230285509978550278
    },
    {
      "Lang": "fa",
      "Title": "تبدیل به یک استاد ریاضی! 💯 درجه 1 ریاضی #3 1+1+1",
      "Description": "به معلمان و مدارس:\nاین ویدیو تحت مجوز Creative Commons منتشر شده است.\n  CC BY 3.0 https://creativecommons.org/licenses/by/3.0/ \nدر استفاده از این فیلم در کلاس های خود احساس راحتی کنید!\n\n",
      "TwitterStatusID": 1230285510897065985
    },
    {
      "Lang": "fi",
      "Title": "Ryhdy matematiikka mestari! 💯 1. luokka Matematiikka #3 1+1+1",
      "Description": "Opettajille ja kouluille:\nTämä video on julkaistu Creative Commons -lisenssillä.\n  CC BY 3.0 https://creativecommons.org/licenses/by/3.0/ \nVoit vapaasti käyttää tätä videota luokissa!\n\n",
      "TwitterStatusID": 1230285512063062017
    },
    {
      "Lang": "fil",
      "Title": "Maging isang matematika master! 💯 Unang Baitang Math #3 1+1+1",
      "Description": "Sa mga guro at paaralan:\nAng video na ito ay nai-publish sa ilalim ng Lisensya ng Creative Commons.\n  CC BY 3.0 https://creativecommons.org/licenses/by/3.0/ \nHuwag mag-atubiling gamitin ang video na ito sa iyong mga klase!\n\n",
      "TwitterStatusID": 1230285512927137792
    },
    {
      "Lang": "fr",
      "Title": "Devenez un maître de mathématiques! 💯 1ère Année Math #3 1+1+1",
      "Description": "Aux enseignants et aux écoles:\nCette vidéo est publiée sous licence Creative Commons.\n  CC BY 3.0 https://creativecommons.org/licenses/by/3.0/ \nN'hésitez pas à utiliser cette vidéo dans vos cours!\n\n",
      "TwitterStatusID": 1230285513828888577
    },
    {
      "Lang": "fy",
      "Title": "Wurd in math master! 💯 1st grade Math #3 1+1+1",
      "Description": "Oan dosinten en skoallen:\nDizze fideo wurdt publisearre ûnder Creative Commons License.\n  CC BY 3.0 https://creativecommons.org/licenses/by/3.0/ \nFiel jo frij om dizze fideo te brûken yn jo klassen!\n\n",
      "TwitterStatusID": 1230285514793635840
    },
    {
      "Lang": "gd",
      "Title": "A bhith na mhaighstir math! 💯 1mh ìre Math #3 1+1+1",
      "Description": "Do thidsearan agus sgoiltean:\nTha a ’bhidio seo air fhoillseachadh fo Creative Commons License.\n  CC BY 3.0 https://creativecommons.org/licenses/by/3.0/ \nFaodaidh tu am bhidio seo a chleachdadh anns na clasaichean agad!\n\n",
      "TwitterStatusID": 1230285515661832193
    },
    {
      "Lang": "gl",
      "Title": "Tornouse un mestre de matemáticas! 💯 1º de Primaria Matemáticas #3 1+1+1",
      "Description": "Para profesores e colexios:\nEste vídeo está publicado baixo a licenza Creative Commons.\n  CC BY 3.0 https://creativecommons.org/licenses/by/3.0/ \nNon dubides en usar este vídeo nas túas clases.\n\n",
      "TwitterStatusID": 1230285516576178176
    },
    {
      "Lang": "gu",
      "Title": "એક ગણિત માસ્ટર બનો! 💯 1 લી ગ્રેડ ગણિત #3 1+1+1",
      "Description": "શિક્ષકો અને શાળાઓને:\nઆ વિડિઓ ક્રિએટિવ કonsમન્સ લાઇસન્સ હેઠળ પ્રકાશિત છે.\n  CC BY 3.0 https://creativecommons.org/licenses/by/3.0/ \nતમારા વર્ગોમાં આ વિડિઓનો ઉપયોગ કરવા માટે મફત લાગે!\n\n",
      "TwitterStatusID": 1230285517469564928
    },
    {
      "Lang": "ha",
      "Title": "Zama ilimin lissafi maigidana! 💯 1st sa Ilimin lissafi #3 1+1+1",
      "Description": "Ga malamai da makarantu:\nWannan bidiyon an buga shi a ƙarƙashin lasisin Creative Commons.\n  CC BY 3.0 https://creativecommons.org/licenses/by/3.0/ \nJin kyauta don amfani da wannan bidiyon a cikin azuzuwanku!\n\n",
      "TwitterStatusID": 1230285518270713856
    },
    {
      "Lang": "hi",
      "Title": "एक गणित मास्टर बनें! 💯 1st ग्रेड गणित #3 1+1+1",
      "Description": "शिक्षकों और स्कूलों के लिए:\nयह वीडियो क्रिएटिव कॉमन्स लाइसेंस के तहत प्रकाशित हुआ है।\n  CC BY 3.0 https://creativecommons.org/licenses/by/3.0/ \nअपनी कक्षाओं में इस वीडियो का उपयोग करने के लिए स्वतंत्र महसूस करें!\n\n",
      "TwitterStatusID": 1230285519151435777
    },
    {
      "Lang": "hr",
      "Title": "Postanite matematike majstor! 💯 1. Razred Matematika #3 1+1+1",
      "Description": "Nastavnicima i školama:\nOvaj videozapis objavljen je pod licencom Creative Commons.\n  CC BY 3.0 https://creativecommons.org/licenses/by/3.0/ \nSlobodno upotrijebite ovaj videozapis u svojim predavanjima!\n\n",
      "TwitterStatusID": 1230285519948398593
    },
    {
      "Lang": "hu",
      "Title": "Legyen egy matematikai mester! 💯 1. Osztálya Matematikai #3 1+1+1",
      "Description": "Tanároknak és iskoláknak:\nEz a videó a Creative Commons License alatt jelenik meg.\n  CC BY 3.0 https://creativecommons.org/licenses/by/3.0/ \nNyugodtan használja ezt a videót az osztályokban!\n\n",
      "TwitterStatusID": 1230285520841764864
    },
    {
      "Lang": "hy",
      "Title": "Դարձեք մաթեմատիկական վարպետ! 💯 1-ին դասարան Մաթեմատիկա #3 1+1+1",
      "Description": "Ուսուցիչներին և դպրոցներին.\nԱյս տեսանյութը հրապարակված է Creative Commons արտոնագրի ներքո:\n  CC BY 3.0 https://creativecommons.org/licenses/by/3.0/ \nԱզատորեն օգտվեք այս տեսանյութից ձեր դասերից:\n\n",
      "TwitterStatusID": 1230285521730949120
    },
    {
      "Lang": "id",
      "Title": "Menjadi master matematika! 💯 Kelas 1 Matematika #3 1+1+1",
      "Description": "Kepada guru dan sekolah:\nVideo ini diterbitkan di bawah Lisensi Creative Commons.\n  CC BY 3.0 https://creativecommons.org/licenses/by/3.0/ \nJangan ragu untuk menggunakan video ini di kelas Anda!\n\n",
      "TwitterStatusID": 1230285522599153664
    },
    {
      "Lang": "ig",
      "Title": "Bụrụnụ ndị na-a mgbakọ na mwepụ ukwu! 💯 1st ọkwa Ná mgbakọ na mwepụ #3 1+1+1",
      "Description": "Maka ndị nkuzi na ụlọ akwụkwọ:\nEdere vidiyo a n'okpuru ikikere Creative Commons.\n  CC BY 3.0 https://creativecommons.org/licenses/by/3.0/ \nNwere onwe gị iji vidiyo a na klaasị gị!\n\n",
      "TwitterStatusID": 1230285523463241728
    },
    {
      "Lang": "is",
      "Title": "Gerast stærðfræði snillingur! 💯 1. Bekkjar Stærðfræði #3 1+1+1",
      "Description": "Til kennara og skóla:\nÞetta myndband er birt undir Creative Commons leyfi.\n  CC BY 3.0 https://creativecommons.org/licenses/by/3.0/ \nEkki hika við að nota þetta myndband í bekkjum þínum!\n\n",
      "TwitterStatusID": 1230285524373393409
    },
    {
      "Lang": "it",
      "Title": "Diventa un maestro di matematica! 💯 1° Grado Matematica #3 1+1+1",
      "Description": "Per insegnanti e scuole:\nQuesto video è pubblicato sotto la licenza Creative Commons.\n  CC BY 3.0 https://creativecommons.org/licenses/by/3.0/ \nSentiti libero di usare questo video nelle tue lezioni!\n\n",
      "TwitterStatusID": 1230285525262553088
    },
    {
      "Lang": "iw",
      "Title": "להיות הורים מתמטיקה! 💯 כיתה ה -1 מתמטיקה #3 1+1+1",
      "Description": "למורים ובתי ספר:\nסרטון זה מתפרסם תחת רישיון Creative Commons.\n  CC BY 3.0 https://creativecommons.org/licenses/by/3.0/ \nאל תהסס להשתמש בסרטון זה בשיעורים שלך!\n\n",
      "TwitterStatusID": 1230285526118199297
    },
    {
      "Lang": "ja",
      "Title": "さんすうマスターになろう！ 💯 小1 数学 #3 1+1+1",
      "Description": "先生と学校へ：\nこのビデオは、クリエイティブコモンズライセンスの下で公開されています。\n  CC BY 3.0 https://creativecommons.org/licenses/by/3.0/ \nこのビデオをクラスで自由に使用してください！\n\n",
      "TwitterStatusID": 1230285527024193536
    },
    {
      "Lang": "jv",
      "Title": "Dadi master math! 💯 1st bahan Math #3 1+1+1",
      "Description": "Tumrap guru lan sekolah:\nVideo iki diterbitake ing lisensi Creative Commons.\n  CC BY 3.0 https://creativecommons.org/licenses/by/3.0/ \nOjo nggunakake video iki ing kelas sampeyan!\n\n",
      "TwitterStatusID": 1230285527842058241
    },
    {
      "Lang": "ka",
      "Title": "გახდი მათემატიკის სამაგისტრო! 💯 1 კლასის მათემატიკა #3 1+1+1",
      "Description": "მასწავლებლებსა და სკოლებს:\nეს ვიდეო გამოქვეყნებულია Creative Commons- ის ლიცენზიით.\n  CC BY 3.0 https://creativecommons.org/licenses/by/3.0/ \nშეგიძლიათ გამოიყენოთ ეს ვიდეო თქვენს კლასებში!\n\n",
      "TwitterStatusID": 1230285528735502341
    },
    {
      "Lang": "kk",
      "Title": "математика шебері бол! 💯 1-ші сынып Математика #3 1+1+1",
      "Description": "Оқытушылар мен мектептерге:\nБұл бейне Creative Commons лицензиясы бойынша жарияланған.\n  CC BY 3.0 https://creativecommons.org/licenses/by/3.0/ \nБұл бейнені өз сабақтарыңызда қолдануға болады!\n\n",
      "TwitterStatusID": 1230285529540808704
    },
    {
      "Lang": "km",
      "Title": "ក្លាយជាមេគណិតវិទ្យាមួយ! 💯 ថ្នាក់ទី 1 គណិតវិទ្យា #3 1+1+1",
      "Description": "ជូនដល់គ្រូនិងសាលា៖\nវីដេអូនេះត្រូវបានផ្សព្វផ្សាយក្រោមអាជ្ញាប័ណ្ណច្នៃប្រឌិត។\n  CC BY 3.0 https://creativecommons.org/licenses/by/3.0/ \nសូមប្រើវីដេអូនេះនៅក្នុងថ្នាក់របស់អ្នកដោយឥតគិតថ្លៃ!\n\n",
      "TwitterStatusID": 1230285530413223936
    },
    {
      "Lang": "kn",
      "Title": "ಒಂದು ಗಣಿತ ಮಾಸ್ಟರ್ ಆಗಿ! 💯 1 ನೇ ಗ್ರೇಡ್ ಗಣಿತ #3 1+1+1",
      "Description": "ಶಿಕ್ಷಕರು ಮತ್ತು ಶಾಲೆಗಳಿಗೆ:\nಈ ವೀಡಿಯೊವನ್ನು ಕ್ರಿಯೇಟಿವ್ ಕಾಮನ್ಸ್ ಪರವಾನಗಿ ಅಡಿಯಲ್ಲಿ ಪ್ರಕಟಿಸಲಾಗಿದೆ.\n  CC BY 3.0 https://creativecommons.org/licenses/by/3.0/ \nನಿಮ್ಮ ತರಗತಿಗಳಲ್ಲಿ ಈ ವೀಡಿಯೊವನ್ನು ಬಳಸಲು ಹಿಂಜರಿಯಬೇಡಿ!\n\n",
      "TwitterStatusID": 1230285531235278849
    },
    {
      "Lang": "ko",
      "Title": "수학 마스터가 되세요! 💯 1 등급 수학 #3 1+1+1",
      "Description": "교사와 학교 :\n이 비디오는 Creative Commons License에 따라 게시됩니다.\n  CC BY 3.0 https://creativecommons.org/licenses/by/3.0/ \n이 비디오를 수업에 자유롭게 사용하십시오!\n\n",
      "TwitterStatusID": 1230285532028002304
    },
    {
      "Lang": "ku",
      "Title": "Bibe master math! 💯 pola 1'emîn Math #3 1+1+1",
      "Description": "Ji mamoste û dibistanan re:\nEv vîdyoyê di bin lîsansa Creative Commons-ê de hatî weşandin.\n  CC BY 3.0 https://creativecommons.org/licenses/by/3.0/ \nHêsan e ku hûn vê vîdyoyê di sinifên xwe de bikar bînin!\n\n",
      "TwitterStatusID": 1230285532908773378
    },
    {
      "Lang": "ky",
      "Title": "математика мырзасы бол! 💯 1-класс Математика #3 1+1+1",
      "Description": "мугалимдер жана мектептер үчүн:\nБул көргөзмө Creative Commons лиссиэнсийэ усулуобуйатынан жарыяланат.\n  CC BY 3.0 https://creativecommons.org/licenses/by/3.0/ \nСиздин класстары колдонсо болот!\n\n",
      "TwitterStatusID": 1230285533848330240
    },
    {
      "Lang": "lb",
      "Title": "Ginn eng temporäre Meeschtesch! 💯 1. Schouljoer Temporäre #3 1+1+1",
      "Description": "Un de Schoulmeeschteren an d'Schoulen:\nDëse Video ass ënner der Creative Commons Lizenz verëffentlecht.\n  CC BY 3.0 https://creativecommons.org/licenses/by/3.0/ \nFillt gratis dësen Video zu Ären Klassen ze benotzen!\n\n",
      "TwitterStatusID": 1230285534720749569
    },
    {
      "Lang": "lo",
      "Title": "ກາຍເປັນແມ່ບົດຄະນິດສາດ! 💯 1 ຊັ້ນ ຄະນິດສາດ #3 1+1+1",
      "Description": "ເຖິງຄູອາຈານແລະໂຮງຮຽນ:\nວິດີໂອນີ້ລົງພາຍໃຕ້ໃບອະນຸຍາດສ້າງສັນ.\n  CC BY 3.0 https://creativecommons.org/licenses/by/3.0/ \nຮູ້ສຶກວ່າບໍ່ເສຍຄ່າທີ່ຈະໃຊ້ວິດີໂອນີ້ໃນຫ້ອງຮຽນຂອງທ່ານ!\n\n",
      "TwitterStatusID": 1230285535630856192
    },
    {
      "Lang": "lt",
      "Title": "Tapkite matematikos meistras! 💯 1 Klasė Matematikos #3 1+1+1",
      "Description": "Mokytojams ir mokykloms:\nŠis vaizdo įrašas paskelbtas naudojant „Creative Commons“ licenciją.\n  CC BY 3.0 https://creativecommons.org/licenses/by/3.0/ \nNesivaržykite naudotis šiuo vaizdo įrašu savo klasėse!\n\n",
      "TwitterStatusID": 1230285536515903488
    },
    {
      "Lang": "lv",
      "Title": "Kļūsti par math meistars! 💯 1. Klase Matemātika #3 1+1+1",
      "Description": "Skolotājiem un skolām:\nŠis video ir publicēts saskaņā ar Creative Commons licenci.\n  CC BY 3.0 https://creativecommons.org/licenses/by/3.0/ \nJūtieties brīvi izmantot šo video savās nodarbībās!\n\n",
      "TwitterStatusID": 1230285537434451969
    },
    {
      "Lang": "mg",
      "Title": "Lasa mpampianatra matematika! 💯 1 kilasy Matematika #3 1+1+1",
      "Description": "Ho an'ireo mpampianatra sy sekoly:\nIty horonantsary ity dia navoaka eo ambanin'ny lisansa Creative Commons.\n  CC BY 3.0 https://creativecommons.org/licenses/by/3.0/ \nAza misalasala mampiasa an'io horonantsary io amin'ny kilasinao!\n\n",
      "TwitterStatusID": 1230285538378125314
    },
    {
      "Lang": "mi",
      "Title": "Hoko he ariki pāngarau! 💯 1 kōeke Pāngarau #3 1+1+1",
      "Description": "Ki nga kaiako me nga kura:\nKei te whakaputaina tenei ataata i raro i te Raihana Hoahoatanga.\n  CC BY 3.0 https://creativecommons.org/licenses/by/3.0/ \nKia kore e pai ki te whakamahi i tenei ataata i roto i o akomanga!\n\n",
      "TwitterStatusID": 1230285539401555970
    },
    {
      "Lang": "mk",
      "Title": "Да стане господар математика! 💯 1-во одделение Математика #3 1+1+1",
      "Description": "До наставниците и училиштата:\nОва видео е објавено под лиценца Криејтив комонс.\n  CC BY 3.0 https://creativecommons.org/licenses/by/3.0/ \nСлободно можете да го користите ова видео во вашите часови!\n\n",
      "TwitterStatusID": 1230285540278194177
    },
    {
      "Lang": "ml",
      "Title": "ഒരു ഗണിത മാസ്റ്റർ ആകുക! 💯 1st ഗ്രേഡ് മാത്ത് #3 1+1+1",
      "Description": "അധ്യാപകർക്കും സ്കൂളുകൾക്കും:\nക്രിയേറ്റീവ് കോമൺസ് ലൈസൻസിന് കീഴിൽ ഈ വീഡിയോ പ്രസിദ്ധീകരിച്ചു.\n  CC BY 3.0 https://creativecommons.org/licenses/by/3.0/ \nനിങ്ങളുടെ ക്ലാസുകളിൽ ഈ വീഡിയോ ഉപയോഗിക്കാൻ മടിക്കേണ്ടതില്ല!\n\n",
      "TwitterStatusID": 1230285541192527873
    },
    {
      "Lang": "mn",
      "Title": "математикийн мастер болох! 💯 1-р ангийн Математикийн #3 1+1+1",
      "Description": "Багш, сургуулиудад:\nЭнэ видео нь Creative Commons License лиценз дээр нийтлэгдсэн.\n  CC BY 3.0 https://creativecommons.org/licenses/by/3.0/ \nЭнэ видеог өөрийн ангиудад ашиглах боломжтой шүү!\n\n",
      "TwitterStatusID": 1230285542027251717
    },
    {
      "Lang": "mr",
      "Title": "एक गणित मास्टर व्हा! 💯 1 ग्रेड गणित #3 1+1+1",
      "Description": "शिक्षक आणि शाळा यांना:\nहा व्हिडिओ क्रिएटिव्ह कॉमन्स परवान्या अंतर्गत प्रकाशित झाला आहे.\n  CC BY 3.0 https://creativecommons.org/licenses/by/3.0/ \nआपल्या वर्गांमध्ये हा व्हिडिओ वापरण्यास मोकळ्या मनाने!\n\n",
      "TwitterStatusID": 1230285542970970113
    },
    {
      "Lang": "ms",
      "Title": "Menjadi tuan matematik! 💯 Gred 1 Matematik #3 1+1+1",
      "Description": "Kepada guru dan sekolah:\nVideo ini diterbitkan di bawah Lesen Creative Commons.\n  CC BY 3.0 https://creativecommons.org/licenses/by/3.0/ \nJangan ragu untuk menggunakan video ini dalam kelas anda!\n\n",
      "TwitterStatusID": 1230285543759499265
    },
    {
      "Lang": "mt",
      "Title": "Ssir kaptan matematika! 💯 grad 1 Matematika #3 1+1+1",
      "Description": "Għalliema u skejjel:\nDan il-video huwa ppublikat taħt il-Liċenzja Creative Commons.\n  CC BY 3.0 https://creativecommons.org/licenses/by/3.0/ \nĦossok liberu li tuża dan il-video fil-klassijiet tiegħek!\n\n",
      "TwitterStatusID": 1230285544640237568
    },
    {
      "Lang": "my",
      "Title": "တစ်သင်္ချာမာစတာဖြစ်လာ! 💯 1st တန်း သင်္ချာ #3 1+1+1",
      "Description": "ဆရာများနှင့်ကျောင်းများသို့\nဒီဗီဒီယိုကို Creative Commons လိုင်စင်အောက်မှာထုတ်ဝေထားတယ်။\n  CC BY 3.0 https://creativecommons.org/licenses/by/3.0/ \nဤဗီဒီယိုကိုသင်၏အတန်းများ၌အခမဲ့အသုံးပြုပါ။\n\n",
      "TwitterStatusID": 1230285545529430016
    },
    {
      "Lang": "ne",
      "Title": "एक गणित मास्टर बन्न! 💯 1st ग्रेड गणित #3 1+1+1",
      "Description": "शिक्षक र विद्यालयहरुलाई:\nयो भिडियो क्रिएटिभ कमन्स लाइसेन्स अन्तर्गत प्रकाशित गरिएको छ।\n  CC BY 3.0 https://creativecommons.org/licenses/by/3.0/ \nतपाईंको कक्षामा यो भिडियो प्रयोग गर्न स्वतन्त्र महसुस गर्नुहोस्!\n\n",
      "TwitterStatusID": 1230285546385072128
    },
    {
      "Lang": "nl",
      "Title": "Word math meester! 💯 1e Leerjaar Wiskunde #3 1+1+1",
      "Description": "Aan leraren en scholen:\nDeze video is gepubliceerd onder Creative Commons License.\n  CC BY 3.0 https://creativecommons.org/licenses/by/3.0/ \nVoel je vrij om deze video in je lessen te gebruiken!\n\n",
      "TwitterStatusID": 1230285547186212864
    },
    {
      "Lang": "no",
      "Title": "Bli en matte mester! 💯 1. Klasse Matte #3 1+1+1",
      "Description": "Til lærere og skoler:\nDenne videoen er publisert under Creative Commons License.\n  CC BY 3.0 https://creativecommons.org/licenses/by/3.0/ \nBruk gjerne denne videoen i klassene dine!\n\n",
      "TwitterStatusID": 1230285548071186432
    },
    {
      "Lang": "pa",
      "Title": "ਨੂੰ ਇੱਕ ਗਣਿਤ ਮਾਸਟਰ ਬਣੋ! 💯 1 ਦਾ ਗ੍ਰੇਡ ਗਣਿਤ #3 1+1+1",
      "Description": "ਅਧਿਆਪਕਾਂ ਅਤੇ ਸਕੂਲਾਂ ਨੂੰ:\nਇਹ ਵੀਡੀਓ ਕਰੀਏਟਿਵ ਕਾਮਨਜ਼ ਲਾਇਸੈਂਸ ਅਧੀਨ ਪ੍ਰਕਾਸ਼ਤ ਕੀਤਾ ਗਿਆ ਹੈ.\n  CC BY 3.0 https://creativecommons.org/licenses/by/3.0/ \nਇਸ ਕਲਾਸ ਨੂੰ ਆਪਣੀਆਂ ਕਲਾਸਾਂ ਵਿਚ ਵਰਤਣ ਲਈ ਮੁਫ਼ਤ ਮਹਿਸੂਸ ਕਰੋ!\n\n",
      "TwitterStatusID": 1230285548989734912
    },
    {
      "Lang": "pl",
      "Title": "Zostań mistrzem matematyki! 💯 Klasa 1 Matematyka #3 1+1+1",
      "Description": "Do nauczycieli i szkół:\nTen film jest opublikowany na licencji Creative Commons.\n  CC BY 3.0 https://creativecommons.org/licenses/by/3.0/ \nZachęcamy do korzystania z tego filmu na zajęciach!\n\n",
      "TwitterStatusID": 1230285549782454273
    },
    {
      "Lang": "ps",
      "Title": "شي یو ریاضی بادار! 💯 1st ټولګي ریاضی #3 1+1+1",
      "Description": "ښوونکو او ښوونځیو ته:\nدا ویډیو د کریټیو کامنز لایسنس لاندې خپره شوې ده.\n  CC BY 3.0 https://creativecommons.org/licenses/by/3.0/ \nپه خپلو ټولګیو کې د دې ویډیو کارولو لپاره وړیا احساس وکړئ!\n\n",
      "TwitterStatusID": 1230285550659072001
    },
    {
      "Lang": "pt",
      "Title": "Torne-se um mestre de matemática! 💯 1ª Série Matemática #3 1+1+1",
      "Description": "Para professores e escolas:\nEste vídeo é publicado sob licença Creative Commons.\n  CC BY 3.0 https://creativecommons.org/licenses/by/3.0/ \nSinta-se livre para usar este vídeo em suas aulas!\n\n",
      "TwitterStatusID": 1230285551594459136
    },
    {
      "Lang": "ro",
      "Title": "Deveni un maestru de matematică! 💯 Clasa I Matematica #3 1+1+1",
      "Description": "Pentru profesori și școli:\nAcest videoclip este publicat sub licență Creative Commons.\n  CC BY 3.0 https://creativecommons.org/licenses/by/3.0/ \nSimte-te liber să folosești acest videoclip în orele tale!\n\n",
      "TwitterStatusID": 1230285552483614720
    },
    {
      "Lang": "ru",
      "Title": "Стать математиком мастер! 💯 первый класс Математический #3 1+1+1",
      "Description": "Учителям и школам:\nЭто видео опубликовано под лицензией Creative Commons.\n  CC BY 3.0 https://creativecommons.org/licenses/by/3.0/ \nНе стесняйтесь использовать это видео в своих классах!\n\n",
      "TwitterStatusID": 1230285553356001285
    },
    {
      "Lang": "sd",
      "Title": "هڪ رياضي رکن ٿا بڻجي! 💯 1st گريڊ رياضي #3 1+1+1",
      "Description": "استاد ۽ اسڪولن ڏانهن:\nهيء وڊيو تخليقي العام لائسنس هيٺ شايع ٿيل آهي.\n  CC BY 3.0 https://creativecommons.org/licenses/by/3.0/ \nپنهنجي وڊيوز ۾ هن وڊيو کي استعمال ڪرڻ لاء آزاد ٿيو!\n\n",
      "TwitterStatusID": 1230285554626859008
    },
    {
      "Lang": "si",
      "Title": "එය ගණිත ස්වාමියා බවට පත් වෙනවා! 💯 1 වන ශ්රේණියේ ගණිත #3 1+1+1",
      "Description": "ගුරුවරුන්ට සහ පාසල්වලට:\nමෙම වීඩියෝව නිර්මාණාත්මක පොදු බලපත්‍රය යටතේ ප්‍රකාශයට පත් කෙරේ.\n  CC BY 3.0 https://creativecommons.org/licenses/by/3.0/ \nඔබේ පංතිවල මෙම වීඩියෝව භාවිතා කිරීමට නිදහස් වන්න!\n\n",
      "TwitterStatusID": 1230285555486715904
    },
    {
      "Lang": "sk",
      "Title": "Staňte sa matematický pán! 💯 1. Ročník Matematika #3 1+1+1",
      "Description": "Pre učiteľov a školy:\nToto video je publikované pod licenciou Creative Commons License.\n  CC BY 3.0 https://creativecommons.org/licenses/by/3.0/ \nNeváhajte použiť toto video vo svojich triedach!\n\n",
      "TwitterStatusID": 1230285556317212673
    },
    {
      "Lang": "sl",
      "Title": "Postanite math mojster! 💯 1. razred Math #3 1+1+1",
      "Description": "Učiteljem in šolam:\nTa videoposnetek je objavljen pod licenco Creative Commons.\n  CC BY 3.0 https://creativecommons.org/licenses/by/3.0/ \nUporabite ta video v svojih razredih!\n\n",
      "TwitterStatusID": 1230285557198012421
    },
    {
      "Lang": "sm",
      "Title": "Avea ma se matai o le numera! 💯 vasega 1 Le numera #3 1+1+1",
      "Description": "I faiaoga ma aʻoga:\nO lenei vitio ua lomia i lalo o le Creative Commons License.\n  CC BY 3.0 https://creativecommons.org/licenses/by/3.0/ \nLagona le saoloto e faʻaaoga lenei vitio i au vasega!\n\n",
      "TwitterStatusID": 1230285558137573376
    },
    {
      "Lang": "sn",
      "Title": "Iva tenzi yemasvomhu! 💯 1st giredha Masvomhu #3 1+1+1",
      "Description": "Kune vadzidzisi uye zvikoro:\nVhidhiyo iyi inoburitswa pasi peCreative Commons License.\n  CC BY 3.0 https://creativecommons.org/licenses/by/3.0/ \nInzwa wakasununguka kushandisa iyi vhidhiyo mumakirasi ako!\n\n",
      "TwitterStatusID": 1230285559022538752
    },
    {
      "Lang": "so",
      "Title": "Noqo sayidkiisa xisaab ah! 💯 fasalka 1aad Xisaabta #3 1+1+1",
      "Description": "Ku socota macallimiinta iyo iskuulada:\nMuuqaalkan fiidiyaha ah waxaa lagu daabacay hoosta hal-abuurnimada Hal-abuurka.\n  CC BY 3.0 https://creativecommons.org/licenses/by/3.0/ \nXor baad u leedahay inaad fiidiyaha u isticmaasho fasalladaaga!\n\n",
      "TwitterStatusID": 1230285559936864256
    },
    {
      "Lang": "sq",
      "Title": "Bëhuni një mjeshtër math! 💯 Klasa e Parë Math #3 1+1+1",
      "Description": "Për mësuesit dhe shkollat:\nKjo video është botuar nën licencën Creative Commons.\n  CC BY 3.0 https://creativecommons.org/licenses/by/3.0/ \nMos ngurroni të përdorni këtë video në klasat tuaja!\n\n",
      "TwitterStatusID": 1230285560817704960
    },
    {
      "Lang": "sr",
      "Title": "Постаните математика мајстор! 💯 1. разред Математика #3 1+1+1",
      "Description": "Наставницима и школама:\nОвај видео је објављен под Цреативе Цоммонс лиценцом.\n  CC BY 3.0 https://creativecommons.org/licenses/by/3.0/ \nСлободно користите овај видеозапис у својим предавањима!\n\n",
      "TwitterStatusID": 1230285561706905600
    },
    {
      "Lang": "st",
      "Title": "Ba lipalo monghali! 💯 1st sehlopheng Lipalo #3 1+1+1",
      "Description": "Ho matichere le likolo:\nVideo ena e phatlalalitsoe tlas'a Creative Commons License.\n  CC BY 3.0 https://creativecommons.org/licenses/by/3.0/ \nIkutloe u lokolohile ho sebelisa video ena litlelaseng tsa hau!\n\n",
      "TwitterStatusID": 1230337678601670657
    },
    {
      "Lang": "su",
      "Title": "Jadi master math! 💯 1st kelas Math #3 1+1+1",
      "Description": "Pikeun guru sareng sakola:\nPidéo ieu dikaluarkeun dina Lisensi Lisénsi Creative Commons.\n  CC BY 3.0 https://creativecommons.org/licenses/by/3.0/ \nTong ngosongkeun pidéo ieu di kelas!\n\n",
      "TwitterStatusID": 1230337679557947392
    },
    {
      "Lang": "sv",
      "Title": "Bli ett matematiskt mästare! 💯 1:a grade Matematik #3 1+1+1",
      "Description": "Till lärare och skolor:\nDenna video publiceras under Creative Commons License.\n  CC BY 3.0 https://creativecommons.org/licenses/by/3.0/ \nAnvänd gärna den här videon i dina klasser!\n\n",
      "TwitterStatusID": 1230337680430383104
    },
    {
      "Lang": "sw",
      "Title": "Kuwa hesabu bwana! 💯 Darasa la 1 Hisabati #3 1+1+1",
      "Description": "Kwa waalimu na shule:\nVideo hii imechapishwa chini ya Leseni ya Creative Commons.\n  CC BY 3.0 https://creativecommons.org/licenses/by/3.0/ \nJisikie huru kutumia video hii kwenye darasa lako!\n\n",
      "TwitterStatusID": 1230337681327935488
    },
    {
      "Lang": "ta",
      "Title": "ஒரு கணித மாஸ்டர் ஆக! 💯 1st தர கணித #3 1+1+1",
      "Description": "ஆசிரியர்கள் மற்றும் பள்ளிகளுக்கு:\nஇந்த வீடியோ கிரியேட்டிவ் காமன்ஸ் உரிமத்தின் கீழ் வெளியிடப்பட்டுள்ளது.\n  CC BY 3.0 https://creativecommons.org/licenses/by/3.0/ \nஉங்கள் வகுப்புகளில் இந்த வீடியோவைப் பயன்படுத்த தயங்காதீர்கள்!\n\n",
      "TwitterStatusID": 1230337682200416261
    },
    {
      "Lang": "te",
      "Title": "ఒక గణిత మాస్టర్ అవ్వండి! 💯 1 వ గ్రేడ్ గణిత #3 1+1+1",
      "Description": "ఉపాధ్యాయులకు మరియు పాఠశాలలకు:\nఈ వీడియో క్రియేటివ్ కామన్స్ లైసెన్స్ క్రింద ప్రచురించబడింది.\n  CC BY 3.0 https://creativecommons.org/licenses/by/3.0/ \nమీ తరగతుల్లో ఈ వీడియోను ఉపయోగించడానికి సంకోచించకండి!\n\n",
      "TwitterStatusID": 1230337683081183234
    },
    {
      "Lang": "tg",
      "Title": "Табдил як устоди фанни математика! 💯 синфи 1 Математика #3 1+1+1",
      "Description": "Ба муаллимон ва мактабҳо:\nИн видео зери иҷозатномаи Creative Commons нашр шудааст.\n  CC BY 3.0 https://creativecommons.org/licenses/by/3.0/ \nИн видеоро дар дарсҳои худ истифода баред!\n\n",
      "TwitterStatusID": 1230337683962023936
    },
    {
      "Lang": "th",
      "Title": "กลายเป็นหลักคณิตศาสตร์! 💯 1 คะแนน คณิตศาสตร์ #3 1+1+1",
      "Description": "ถึงครูและโรงเรียน:\nวิดีโอนี้เผยแพร่ภายใต้สัญญาอนุญาตครีเอทีฟคอมมอนส์\n  CC BY 3.0 https://creativecommons.org/licenses/by/3.0/ \nอย่าลังเลที่จะใช้วิดีโอนี้ในชั้นเรียนของคุณ!\n\n",
      "TwitterStatusID": 1230337684855382018
    },
    {
      "Lang": "tr",
      "Title": "Bir matematik ustası ol! 💯 1. sınıf Matematik #3 1+1+1",
      "Description": "Öğretmenlere ve okullara:\nBu video Creative Commons License. Altında yayınlandı.\n  CC BY 3.0 https://creativecommons.org/licenses/by/3.0/ \nBu videoyu derslerinizde kullanmaktan çekinmeyin!\n\n",
      "TwitterStatusID": 1230337685690052608
    },
    {
      "Lang": "uk",
      "Title": "Стати математиком майстер! 💯 перший клас Математичний #3 1+1+1",
      "Description": "Для вчителів та шкіл:\nЦе відео опубліковане під ліцензією Creative Commons.\n  CC BY 3.0 https://creativecommons.org/licenses/by/3.0/ \nСміливо використовуйте це відео у своїх класах!\n\n",
      "TwitterStatusID": 1230337686629535744
    },
    {
      "Lang": "ur",
      "Title": "ایک ریاضی ماسٹر بن! 💯 1st گریڈ ریاضی #3 1+1+1",
      "Description": "اساتذہ اور اسکولوں کے لئے:\nیہ ویڈیو تخلیقی العام لائسنس کے تحت شائع ہوا ہے۔\n  CC BY 3.0 https://creativecommons.org/licenses/by/3.0/ \nاپنی ویڈیو کو اپنی کلاسوں میں آزادانہ طور پر استعمال کریں!\n\n",
      "TwitterStatusID": 1230337687510368256
    },
    {
      "Lang": "uz",
      "Title": "matematika master bo'l! 💯 1-sinf Matematik #3 1+1+1",
      "Description": "O'qituvchilar va maktablarga:\nUshbu video Creative Commons litsenziyasi ostida joylashtirilgan.\n  CC BY 3.0 https://creativecommons.org/licenses/by/3.0/ \nUshbu videoni o'z sinflaringizda ishlatish bepul!\n\n",
      "TwitterStatusID": 1230337688382758912
    },
    {
      "Lang": "vi",
      "Title": "Trở thành chuyên gia toán học! 💯 lớp 1 Môn Toán #3 1+1+1",
      "Description": "Gửi giáo viên và nhà trường:\nVideo này được xuất bản theo Giấy phép Creative Commons.\n  CC BY 3.0 https://creativecommons.org/licenses/by/3.0/ \nHãy sử dụng video này trong các lớp học của bạn!\n\n",
      "TwitterStatusID": 1230337689360068608
    },
    {
      "Lang": "xh",
      "Title": "Yiba yinkosi izibalo! 💯 1st grade Izibalo #3 1+1+1",
      "Description": "Kootitshala nakwizikolo:\nLe vidiyo ipapashwa phantsi kwelayisensi yeCreative Commons.\n  CC BY 3.0 https://creativecommons.org/licenses/by/3.0/ \nZive ukhululekile ukusebenzisa le vidiyo kwiiklasi zakho!\n\n",
      "TwitterStatusID": 1230337690257592326
    },
    {
      "Lang": "yi",
      "Title": "ווערן אַ מאַט בעל! 💯 1 מיינונג מאַט #3 1+1+1",
      "Description": "צו לערערס און שולן:\nדער ווידעא איז ארויס אונטער Creative Commons License.\n  CC BY 3.0 https://creativecommons.org/licenses/by/3.0/ \nפילן פריי צו נוצן דעם ווידעא אין דיין קלאסן!\n\n",
      "TwitterStatusID": 1230337691222343681
    },
    {
      "Lang": "yo",
      "Title": "Di a eko isiro titunto si! 💯 1st ite Isiro #3 1+1+1",
      "Description": "Si awọn olukọ ati awọn ile-iwe:\nFidio yii ni a tẹjade labẹ Iwe-aṣẹ Creative Commons.\n  CC BY 3.0 https://creativecommons.org/licenses/by/3.0/ \nLero lati lo fidio yii ninu awọn kilasi rẹ!\n\n",
      "TwitterStatusID": 1230337692149284864
    },
    {
      "Lang": "zh-Hans",
      "Title": "成为数学大师！ 💯 一年级 数学 #3 1+1+1",
      "Description": "致老师和学校：\n该视频是根据知识共享许可发布的。\n  CC BY 3.0 https://creativecommons.org/licenses/by/3.0/ \n随时在您的课程中使用此视频！\n\n",
      "TwitterStatusID": 1230337693088792576
    },
    {
      "Lang": "zh-Hant",
      "Title": "成為數學大師！ 💯 一年級 數學 #3 1+1+1",
      "Description": "致老師和學校：\n該視頻是根據知識共享許可發布的。\n  CC BY 3.0 https://creativecommons.org/licenses/by/3.0/ \n隨時在您的課程中使用此視頻！\n\n",
      "TwitterStatusID": 1230337693956993024
    },
    {
      "Lang": "zu",
      "Title": "Iba master izibalo! 💯 Ibanga Lokuqala Izibalo #3 1+1+1",
      "Description": "Kothisha nasezikoleni:\nLe vidiyo ishicilelwe ngaphansi kwelayisensi yeCreative Commons.\n  CC BY 3.0 https://creativecommons.org/licenses/by/3.0/ \nZizwe ukhululekile ukusebenzisa le vidiyo emakilasini akho!\n\n",
      "TwitterStatusID": 1230337694779072512
    }
  ],
  "HatenaPermalink": "https://b.hatena.ne.jp/isonschool/20200216#bookmark-4681576471063295202"
}