{
  "SerieName": "grammar-ja-tk",
  "No": 11,
  "VideoTitle": "かっこいい",
  "ThumbnailTitle": "",
  "YoutubeDescription": "{Grammatical explanation}:\n{Tae Kim's Guide to Learning Japanese}\n{http://www.guidetojapanese.org/learn/grammar/adjectives} \n  https://www.youtube.com/watch?v=LGXVzWwz0Oc",
  "YoutubeTitle": "",
  "Boxes": [
    {
      "Pos": 0,
      "PersonName": "y",
      "Candidates": [
        {
          "Word": "今、",
          "Root": "",
          "FeatureSet": null,
          "Conditions": [
            {
              "Pos": 2,
              "Morphemes": [
                {
                  "Word": "",
                  "Root": "",
                  "FeatureSet": [
                    "current"
                  ]
                }
              ]
            }
          ],
          "PersonConditions": null
        },
        {
          "Word": "昔、",
          "Root": "",
          "FeatureSet": null,
          "Conditions": [
            {
              "Pos": 2,
              "Morphemes": [
                {
                  "Word": "",
                  "Root": "",
                  "FeatureSet": [
                    "past"
                  ]
                }
              ]
            }
          ],
          "PersonConditions": null
        }
      ]
    },
    {
      "Pos": 1,
      "PersonName": "y",
      "Candidates": [
        {
          "Word": "彼は",
          "Root": "",
          "FeatureSet": null,
          "Conditions": null,
          "PersonConditions": null
        },
        {
          "Word": "友達は",
          "Root": "",
          "FeatureSet": null,
          "Conditions": null,
          "PersonConditions": null
        },
        {
          "Word": "先生は",
          "Root": "",
          "FeatureSet": null,
          "Conditions": null,
          "PersonConditions": null
        }
      ]
    },
    {
      "Pos": 2,
      "PersonName": "y",
      "Candidates": [
        {
          "Word": "かっこいい",
          "Root": "",
          "FeatureSet": [
            "p",
            "current"
          ],
          "Conditions": null,
          "PersonConditions": null
        },
        {
          "Word": "かっこよくない",
          "Root": "",
          "FeatureSet": [
            "n",
            "current"
          ],
          "Conditions": null,
          "PersonConditions": null
        },
        {
          "Word": "かっこよかった",
          "Root": "",
          "FeatureSet": [
            "p",
            "past"
          ],
          "Conditions": null,
          "PersonConditions": null
        },
        {
          "Word": "かっこよくなかった",
          "Root": "",
          "FeatureSet": [
            "n",
            "past"
          ],
          "Conditions": null,
          "PersonConditions": null
        }
      ]
    }
  ],
  "Pars": [
    {
      "Header": "",
      "Poses": [
        0,
        1,
        2
      ]
    }
  ],
  "Exercises": [
    {
      "Name": "A",
      "Problems": [
        {
          "ProblemNo": 0,
          "OriginalCandidates": [
            {
              "Word": "昔、",
              "Ruby": "mukashi,"
            },
            {
              "Word": "彼は",
              "Ruby": "kare wa"
            },
            {
              "Word": "かっこよかった",
              "Ruby": "kakkoyokatta"
            }
          ],
          "ChangeCandidatePos": 0,
          "ChangeCandidates": [
            {
              "Word": "今、",
              "Ruby": "ima,"
            },
            {
              "Word": "",
              "Ruby": ""
            },
            {
              "Word": "かっこいい",
              "Ruby": "kakkoii"
            }
          ],
          "ChangeMorphemes": [
            {
              "Word": "今、",
              "Root": "",
              "FeatureSet": null
            },
            {
              "Word": "",
              "Root": "",
              "FeatureSet": null
            },
            {
              "Word": "",
              "Root": "",
              "FeatureSet": [
                "current"
              ]
            }
          ],
          "AnswerCandidates": [
            {
              "Word": "今、",
              "Ruby": "ima,"
            },
            {
              "Word": "彼は",
              "Ruby": "kare wa"
            },
            {
              "Word": "かっこいい",
              "Ruby": "kakkoii"
            }
          ]
        },
        {
          "ProblemNo": 1,
          "OriginalCandidates": [
            {
              "Word": "今、",
              "Ruby": "ima,"
            },
            {
              "Word": "彼は",
              "Ruby": "kare wa"
            },
            {
              "Word": "かっこいい",
              "Ruby": "kakkoii"
            }
          ],
          "ChangeCandidatePos": 2,
          "ChangeCandidates": [
            {
              "Word": "",
              "Ruby": ""
            },
            {
              "Word": "",
              "Ruby": ""
            },
            {
              "Word": "かっこよくない",
              "Ruby": "kakkoyoku nai"
            }
          ],
          "ChangeMorphemes": [
            {
              "Word": "",
              "Root": "",
              "FeatureSet": null
            },
            {
              "Word": "",
              "Root": "",
              "FeatureSet": null
            },
            {
              "Word": "かっこよくない",
              "Root": "",
              "FeatureSet": [
                "n",
                "current"
              ]
            }
          ],
          "AnswerCandidates": [
            {
              "Word": "今、",
              "Ruby": "ima,"
            },
            {
              "Word": "彼は",
              "Ruby": "kare wa"
            },
            {
              "Word": "かっこよくない",
              "Ruby": "kakkoyoku nai"
            }
          ]
        },
        {
          "ProblemNo": 2,
          "OriginalCandidates": [
            {
              "Word": "今、",
              "Ruby": "ima,"
            },
            {
              "Word": "彼は",
              "Ruby": "kare wa"
            },
            {
              "Word": "かっこよくない",
              "Ruby": "kakkoyoku nai"
            }
          ],
          "ChangeCandidatePos": 1,
          "ChangeCandidates": [
            {
              "Word": "",
              "Ruby": ""
            },
            {
              "Word": "友達は",
              "Ruby": "tomodachi wa"
            },
            {
              "Word": "",
              "Ruby": ""
            }
          ],
          "ChangeMorphemes": [
            {
              "Word": "",
              "Root": "",
              "FeatureSet": null
            },
            {
              "Word": "友達は",
              "Root": "",
              "FeatureSet": null
            },
            {
              "Word": "",
              "Root": "",
              "FeatureSet": null
            }
          ],
          "AnswerCandidates": [
            {
              "Word": "今、",
              "Ruby": "ima,"
            },
            {
              "Word": "友達は",
              "Ruby": "tomodachi wa"
            },
            {
              "Word": "かっこよくない",
              "Ruby": "kakkoyoku nai"
            }
          ]
        },
        {
          "ProblemNo": 3,
          "OriginalCandidates": [
            {
              "Word": "今、",
              "Ruby": "ima,"
            },
            {
              "Word": "友達は",
              "Ruby": "tomodachi wa"
            },
            {
              "Word": "かっこよくない",
              "Ruby": "kakkoyoku nai"
            }
          ],
          "ChangeCandidatePos": 0,
          "ChangeCandidates": [
            {
              "Word": "昔、",
              "Ruby": "mukashi,"
            },
            {
              "Word": "",
              "Ruby": ""
            },
            {
              "Word": "かっこよくなかった",
              "Ruby": "kakkoyoku nakatta"
            }
          ],
          "ChangeMorphemes": [
            {
              "Word": "昔、",
              "Root": "",
              "FeatureSet": null
            },
            {
              "Word": "",
              "Root": "",
              "FeatureSet": null
            },
            {
              "Word": "",
              "Root": "",
              "FeatureSet": [
                "past"
              ]
            }
          ],
          "AnswerCandidates": [
            {
              "Word": "昔、",
              "Ruby": "mukashi,"
            },
            {
              "Word": "友達は",
              "Ruby": "tomodachi wa"
            },
            {
              "Word": "かっこよくなかった",
              "Ruby": "kakkoyoku nakatta"
            }
          ]
        },
        {
          "ProblemNo": 4,
          "OriginalCandidates": [
            {
              "Word": "昔、",
              "Ruby": "mukashi,"
            },
            {
              "Word": "友達は",
              "Ruby": "tomodachi wa"
            },
            {
              "Word": "かっこよくなかった",
              "Ruby": "kakkoyoku nakatta"
            }
          ],
          "ChangeCandidatePos": 1,
          "ChangeCandidates": [
            {
              "Word": "",
              "Ruby": ""
            },
            {
              "Word": "彼は",
              "Ruby": "kare wa"
            },
            {
              "Word": "",
              "Ruby": ""
            }
          ],
          "ChangeMorphemes": [
            {
              "Word": "",
              "Root": "",
              "FeatureSet": null
            },
            {
              "Word": "彼は",
              "Root": "",
              "FeatureSet": null
            },
            {
              "Word": "",
              "Root": "",
              "FeatureSet": null
            }
          ],
          "AnswerCandidates": [
            {
              "Word": "昔、",
              "Ruby": "mukashi,"
            },
            {
              "Word": "彼は",
              "Ruby": "kare wa"
            },
            {
              "Word": "かっこよくなかった",
              "Ruby": "kakkoyoku nakatta"
            }
          ]
        },
        {
          "ProblemNo": 5,
          "OriginalCandidates": [
            {
              "Word": "昔、",
              "Ruby": "mukashi,"
            },
            {
              "Word": "彼は",
              "Ruby": "kare wa"
            },
            {
              "Word": "かっこよくなかった",
              "Ruby": "kakkoyoku nakatta"
            }
          ],
          "ChangeCandidatePos": 1,
          "ChangeCandidates": [
            {
              "Word": "",
              "Ruby": ""
            },
            {
              "Word": "先生は",
              "Ruby": "sensei wa"
            },
            {
              "Word": "",
              "Ruby": ""
            }
          ],
          "ChangeMorphemes": [
            {
              "Word": "",
              "Root": "",
              "FeatureSet": null
            },
            {
              "Word": "先生は",
              "Root": "",
              "FeatureSet": null
            },
            {
              "Word": "",
              "Root": "",
              "FeatureSet": null
            }
          ],
          "AnswerCandidates": [
            {
              "Word": "昔、",
              "Ruby": "mukashi,"
            },
            {
              "Word": "先生は",
              "Ruby": "sensei wa"
            },
            {
              "Word": "かっこよくなかった",
              "Ruby": "kakkoyoku nakatta"
            }
          ]
        },
        {
          "ProblemNo": 6,
          "OriginalCandidates": [
            {
              "Word": "昔、",
              "Ruby": "mukashi,"
            },
            {
              "Word": "先生は",
              "Ruby": "sensei wa"
            },
            {
              "Word": "かっこよくなかった",
              "Ruby": "kakkoyoku nakatta"
            }
          ],
          "ChangeCandidatePos": 0,
          "ChangeCandidates": [
            {
              "Word": "今、",
              "Ruby": "ima,"
            },
            {
              "Word": "",
              "Ruby": ""
            },
            {
              "Word": "かっこよくない",
              "Ruby": "kakkoyoku nai"
            }
          ],
          "ChangeMorphemes": [
            {
              "Word": "今、",
              "Root": "",
              "FeatureSet": null
            },
            {
              "Word": "",
              "Root": "",
              "FeatureSet": null
            },
            {
              "Word": "",
              "Root": "",
              "FeatureSet": [
                "current"
              ]
            }
          ],
          "AnswerCandidates": [
            {
              "Word": "今、",
              "Ruby": "ima,"
            },
            {
              "Word": "先生は",
              "Ruby": "sensei wa"
            },
            {
              "Word": "かっこよくない",
              "Ruby": "kakkoyoku nai"
            }
          ]
        },
        {
          "ProblemNo": 7,
          "OriginalCandidates": [
            {
              "Word": "今、",
              "Ruby": "ima,"
            },
            {
              "Word": "先生は",
              "Ruby": "sensei wa"
            },
            {
              "Word": "かっこよくない",
              "Ruby": "kakkoyoku nai"
            }
          ],
          "ChangeCandidatePos": 2,
          "ChangeCandidates": [
            {
              "Word": "",
              "Ruby": ""
            },
            {
              "Word": "",
              "Ruby": ""
            },
            {
              "Word": "かっこいい",
              "Ruby": "kakkoii"
            }
          ],
          "ChangeMorphemes": [
            {
              "Word": "",
              "Root": "",
              "FeatureSet": null
            },
            {
              "Word": "",
              "Root": "",
              "FeatureSet": null
            },
            {
              "Word": "かっこいい",
              "Root": "",
              "FeatureSet": [
                "p",
                "current"
              ]
            }
          ],
          "AnswerCandidates": [
            {
              "Word": "今、",
              "Ruby": "ima,"
            },
            {
              "Word": "先生は",
              "Ruby": "sensei wa"
            },
            {
              "Word": "かっこいい",
              "Ruby": "kakkoii"
            }
          ]
        },
        {
          "ProblemNo": 8,
          "OriginalCandidates": [
            {
              "Word": "今、",
              "Ruby": "ima,"
            },
            {
              "Word": "先生は",
              "Ruby": "sensei wa"
            },
            {
              "Word": "かっこいい",
              "Ruby": "kakkoii"
            }
          ],
          "ChangeCandidatePos": 0,
          "ChangeCandidates": [
            {
              "Word": "昔、",
              "Ruby": "mukashi,"
            },
            {
              "Word": "",
              "Ruby": ""
            },
            {
              "Word": "かっこよかった",
              "Ruby": "kakkoyokatta"
            }
          ],
          "ChangeMorphemes": [
            {
              "Word": "昔、",
              "Root": "",
              "FeatureSet": null
            },
            {
              "Word": "",
              "Root": "",
              "FeatureSet": null
            },
            {
              "Word": "",
              "Root": "",
              "FeatureSet": [
                "past"
              ]
            }
          ],
          "AnswerCandidates": [
            {
              "Word": "昔、",
              "Ruby": "mukashi,"
            },
            {
              "Word": "先生は",
              "Ruby": "sensei wa"
            },
            {
              "Word": "かっこよかった",
              "Ruby": "kakkoyokatta"
            }
          ]
        },
        {
          "ProblemNo": 9,
          "OriginalCandidates": [
            {
              "Word": "昔、",
              "Ruby": "mukashi,"
            },
            {
              "Word": "先生は",
              "Ruby": "sensei wa"
            },
            {
              "Word": "かっこよかった",
              "Ruby": "kakkoyokatta"
            }
          ],
          "ChangeCandidatePos": 1,
          "ChangeCandidates": [
            {
              "Word": "",
              "Ruby": ""
            },
            {
              "Word": "友達は",
              "Ruby": "tomodachi wa"
            },
            {
              "Word": "",
              "Ruby": ""
            }
          ],
          "ChangeMorphemes": [
            {
              "Word": "",
              "Root": "",
              "FeatureSet": null
            },
            {
              "Word": "友達は",
              "Root": "",
              "FeatureSet": null
            },
            {
              "Word": "",
              "Root": "",
              "FeatureSet": null
            }
          ],
          "AnswerCandidates": [
            {
              "Word": "昔、",
              "Ruby": "mukashi,"
            },
            {
              "Word": "友達は",
              "Ruby": "tomodachi wa"
            },
            {
              "Word": "かっこよかった",
              "Ruby": "kakkoyokatta"
            }
          ]
        }
      ],
      "VideoFile": "grammar-ja-tk_11_A.mp4",
      "AnimeticCaptions": [
        {
          "Start": 0,
          "End": 3,
          "Text": "Japanese grammar exercises #11 かっこいい",
          "Ruby": "",
          "Lang": "",
          "ProblemNo": 0,
          "Kind": 0
        },
        {
          "Start": 3,
          "End": 7,
          "Text": "{昔、彼はかっこよかった}",
          "Ruby": "mukashi, kare wa kakkoyokatta",
          "Lang": "ja",
          "ProblemNo": 0,
          "Kind": 1
        },
        {
          "Start": 7,
          "End": 8,
          "Text": "{今、}",
          "Ruby": "ima,",
          "Lang": "ja",
          "ProblemNo": 0,
          "Kind": 2
        },
        {
          "Start": 8,
          "End": 10,
          "Text": "{かっこいい}",
          "Ruby": "kakkoii",
          "Lang": "ja",
          "ProblemNo": 0,
          "Kind": 2
        },
        {
          "Start": 10,
          "End": 15,
          "Text": "{今、彼はかっこいい}",
          "Ruby": "ima, kare wa kakkoii",
          "Lang": "ja",
          "ProblemNo": 0,
          "Kind": 3
        },
        {
          "Start": 15,
          "End": 21,
          "Text": "{今、彼はかっこいい}",
          "Ruby": "ima, kare wa kakkoii",
          "Lang": "ja",
          "ProblemNo": 0,
          "Kind": 4
        },
        {
          "Start": 21,
          "End": 25,
          "Text": "{今、彼はかっこいい}",
          "Ruby": "ima, kare wa kakkoii",
          "Lang": "ja",
          "ProblemNo": 1,
          "Kind": 1
        },
        {
          "Start": 25,
          "End": 27,
          "Text": "{かっこよくない}",
          "Ruby": "kakkoyoku nai",
          "Lang": "ja",
          "ProblemNo": 1,
          "Kind": 2
        },
        {
          "Start": 27,
          "End": 32,
          "Text": "{今、彼はかっこよくない}",
          "Ruby": "ima, kare wa kakkoyoku nai",
          "Lang": "ja",
          "ProblemNo": 1,
          "Kind": 3
        },
        {
          "Start": 32,
          "End": 38,
          "Text": "{今、彼はかっこよくない}",
          "Ruby": "ima, kare wa kakkoyoku nai",
          "Lang": "ja",
          "ProblemNo": 1,
          "Kind": 4
        },
        {
          "Start": 38,
          "End": 42,
          "Text": "{今、彼はかっこよくない}",
          "Ruby": "ima, kare wa kakkoyoku nai",
          "Lang": "ja",
          "ProblemNo": 2,
          "Kind": 1
        },
        {
          "Start": 42,
          "End": 44,
          "Text": "{友達は}",
          "Ruby": "tomodachi wa",
          "Lang": "ja",
          "ProblemNo": 2,
          "Kind": 2
        },
        {
          "Start": 44,
          "End": 49,
          "Text": "{今、友達はかっこよくない}",
          "Ruby": "ima, tomodachi wa kakkoyoku nai",
          "Lang": "ja",
          "ProblemNo": 2,
          "Kind": 3
        },
        {
          "Start": 49,
          "End": 55,
          "Text": "{今、友達はかっこよくない}",
          "Ruby": "ima, tomodachi wa kakkoyoku nai",
          "Lang": "ja",
          "ProblemNo": 2,
          "Kind": 4
        },
        {
          "Start": 55,
          "End": 59,
          "Text": "{今、友達はかっこよくない}",
          "Ruby": "ima, tomodachi wa kakkoyoku nai",
          "Lang": "ja",
          "ProblemNo": 3,
          "Kind": 1
        },
        {
          "Start": 59,
          "End": 60,
          "Text": "{昔、}",
          "Ruby": "mukashi,",
          "Lang": "ja",
          "ProblemNo": 3,
          "Kind": 2
        },
        {
          "Start": 60,
          "End": 62,
          "Text": "{かっこよくなかった}",
          "Ruby": "kakkoyoku nakatta",
          "Lang": "ja",
          "ProblemNo": 3,
          "Kind": 2
        },
        {
          "Start": 62,
          "End": 67,
          "Text": "{昔、友達はかっこよくなかった}",
          "Ruby": "mukashi, tomodachi wa kakkoyoku nakatta",
          "Lang": "ja",
          "ProblemNo": 3,
          "Kind": 3
        },
        {
          "Start": 67,
          "End": 73,
          "Text": "{昔、友達はかっこよくなかった}",
          "Ruby": "mukashi, tomodachi wa kakkoyoku nakatta",
          "Lang": "ja",
          "ProblemNo": 3,
          "Kind": 4
        },
        {
          "Start": 73,
          "End": 77,
          "Text": "{昔、友達はかっこよくなかった}",
          "Ruby": "mukashi, tomodachi wa kakkoyoku nakatta",
          "Lang": "ja",
          "ProblemNo": 4,
          "Kind": 1
        },
        {
          "Start": 77,
          "End": 78,
          "Text": "{彼は}",
          "Ruby": "kare wa",
          "Lang": "ja",
          "ProblemNo": 4,
          "Kind": 2
        },
        {
          "Start": 78,
          "End": 83,
          "Text": "{昔、彼はかっこよくなかった}",
          "Ruby": "mukashi, kare wa kakkoyoku nakatta",
          "Lang": "ja",
          "ProblemNo": 4,
          "Kind": 3
        },
        {
          "Start": 83,
          "End": 89,
          "Text": "{昔、彼はかっこよくなかった}",
          "Ruby": "mukashi, kare wa kakkoyoku nakatta",
          "Lang": "ja",
          "ProblemNo": 4,
          "Kind": 4
        },
        {
          "Start": 89,
          "End": 93,
          "Text": "{昔、彼はかっこよくなかった}",
          "Ruby": "mukashi, kare wa kakkoyoku nakatta",
          "Lang": "ja",
          "ProblemNo": 5,
          "Kind": 1
        },
        {
          "Start": 93,
          "End": 95,
          "Text": "{先生は}",
          "Ruby": "sensei wa",
          "Lang": "ja",
          "ProblemNo": 5,
          "Kind": 2
        },
        {
          "Start": 95,
          "End": 100,
          "Text": "{昔、先生はかっこよくなかった}",
          "Ruby": "mukashi, sensei wa kakkoyoku nakatta",
          "Lang": "ja",
          "ProblemNo": 5,
          "Kind": 3
        },
        {
          "Start": 100,
          "End": 106,
          "Text": "{昔、先生はかっこよくなかった}",
          "Ruby": "mukashi, sensei wa kakkoyoku nakatta",
          "Lang": "ja",
          "ProblemNo": 5,
          "Kind": 4
        },
        {
          "Start": 106,
          "End": 110,
          "Text": "{昔、先生はかっこよくなかった}",
          "Ruby": "mukashi, sensei wa kakkoyoku nakatta",
          "Lang": "ja",
          "ProblemNo": 6,
          "Kind": 1
        },
        {
          "Start": 110,
          "End": 111,
          "Text": "{今、}",
          "Ruby": "ima,",
          "Lang": "ja",
          "ProblemNo": 6,
          "Kind": 2
        },
        {
          "Start": 111,
          "End": 113,
          "Text": "{かっこよくない}",
          "Ruby": "kakkoyoku nai",
          "Lang": "ja",
          "ProblemNo": 6,
          "Kind": 2
        },
        {
          "Start": 113,
          "End": 118,
          "Text": "{今、先生はかっこよくない}",
          "Ruby": "ima, sensei wa kakkoyoku nai",
          "Lang": "ja",
          "ProblemNo": 6,
          "Kind": 3
        },
        {
          "Start": 118,
          "End": 124,
          "Text": "{今、先生はかっこよくない}",
          "Ruby": "ima, sensei wa kakkoyoku nai",
          "Lang": "ja",
          "ProblemNo": 6,
          "Kind": 4
        },
        {
          "Start": 124,
          "End": 128,
          "Text": "{今、先生はかっこよくない}",
          "Ruby": "ima, sensei wa kakkoyoku nai",
          "Lang": "ja",
          "ProblemNo": 7,
          "Kind": 1
        },
        {
          "Start": 128,
          "End": 130,
          "Text": "{かっこいい}",
          "Ruby": "kakkoii",
          "Lang": "ja",
          "ProblemNo": 7,
          "Kind": 2
        },
        {
          "Start": 130,
          "End": 135,
          "Text": "{今、先生はかっこいい}",
          "Ruby": "ima, sensei wa kakkoii",
          "Lang": "ja",
          "ProblemNo": 7,
          "Kind": 3
        },
        {
          "Start": 135,
          "End": 141,
          "Text": "{今、先生はかっこいい}",
          "Ruby": "ima, sensei wa kakkoii",
          "Lang": "ja",
          "ProblemNo": 7,
          "Kind": 4
        },
        {
          "Start": 141,
          "End": 145,
          "Text": "{今、先生はかっこいい}",
          "Ruby": "ima, sensei wa kakkoii",
          "Lang": "ja",
          "ProblemNo": 8,
          "Kind": 1
        },
        {
          "Start": 145,
          "End": 146,
          "Text": "{昔、}",
          "Ruby": "mukashi,",
          "Lang": "ja",
          "ProblemNo": 8,
          "Kind": 2
        },
        {
          "Start": 146,
          "End": 148,
          "Text": "{かっこよかった}",
          "Ruby": "kakkoyokatta",
          "Lang": "ja",
          "ProblemNo": 8,
          "Kind": 2
        },
        {
          "Start": 148,
          "End": 153,
          "Text": "{昔、先生はかっこよかった}",
          "Ruby": "mukashi, sensei wa kakkoyokatta",
          "Lang": "ja",
          "ProblemNo": 8,
          "Kind": 3
        },
        {
          "Start": 153,
          "End": 159,
          "Text": "{昔、先生はかっこよかった}",
          "Ruby": "mukashi, sensei wa kakkoyokatta",
          "Lang": "ja",
          "ProblemNo": 8,
          "Kind": 4
        },
        {
          "Start": 159,
          "End": 163,
          "Text": "{昔、先生はかっこよかった}",
          "Ruby": "mukashi, sensei wa kakkoyokatta",
          "Lang": "ja",
          "ProblemNo": 9,
          "Kind": 1
        },
        {
          "Start": 163,
          "End": 165,
          "Text": "{友達は}",
          "Ruby": "tomodachi wa",
          "Lang": "ja",
          "ProblemNo": 9,
          "Kind": 2
        },
        {
          "Start": 165,
          "End": 170,
          "Text": "{昔、友達はかっこよかった}",
          "Ruby": "mukashi, tomodachi wa kakkoyokatta",
          "Lang": "ja",
          "ProblemNo": 9,
          "Kind": 3
        },
        {
          "Start": 170,
          "End": 176,
          "Text": "{昔、友達はかっこよかった}",
          "Ruby": "mukashi, tomodachi wa kakkoyokatta",
          "Lang": "ja",
          "ProblemNo": 9,
          "Kind": 4
        },
        {
          "Start": 176,
          "End": 179,
          "Text": "",
          "Ruby": "",
          "Lang": "",
          "ProblemNo": 0,
          "Kind": 5
        },
        {
          "Start": 179,
          "End": 183,
          "Text": "{昔、彼はかっこよかった}",
          "Ruby": "mukashi, kare wa kakkoyokatta",
          "Lang": "ja",
          "ProblemNo": 0,
          "Kind": 1
        },
        {
          "Start": 183,
          "End": 184,
          "Text": "{今、}",
          "Ruby": "ima,",
          "Lang": "ja",
          "ProblemNo": 0,
          "Kind": 2
        },
        {
          "Start": 184,
          "End": 189,
          "Text": "{今、彼はかっこいい}",
          "Ruby": "ima, kare wa kakkoii",
          "Lang": "ja",
          "ProblemNo": 0,
          "Kind": 3
        },
        {
          "Start": 189,
          "End": 195,
          "Text": "{今、彼はかっこいい}",
          "Ruby": "ima, kare wa kakkoii",
          "Lang": "ja",
          "ProblemNo": 0,
          "Kind": 4
        },
        {
          "Start": 195,
          "End": 199,
          "Text": "{今、彼はかっこいい}",
          "Ruby": "ima, kare wa kakkoii",
          "Lang": "ja",
          "ProblemNo": 1,
          "Kind": 1
        },
        {
          "Start": 199,
          "End": 201,
          "Text": "{かっこよくない}",
          "Ruby": "kakkoyoku nai",
          "Lang": "ja",
          "ProblemNo": 1,
          "Kind": 2
        },
        {
          "Start": 201,
          "End": 206,
          "Text": "{今、彼はかっこよくない}",
          "Ruby": "ima, kare wa kakkoyoku nai",
          "Lang": "ja",
          "ProblemNo": 1,
          "Kind": 3
        },
        {
          "Start": 206,
          "End": 212,
          "Text": "{今、彼はかっこよくない}",
          "Ruby": "ima, kare wa kakkoyoku nai",
          "Lang": "ja",
          "ProblemNo": 1,
          "Kind": 4
        },
        {
          "Start": 212,
          "End": 216,
          "Text": "{今、彼はかっこよくない}",
          "Ruby": "ima, kare wa kakkoyoku nai",
          "Lang": "ja",
          "ProblemNo": 2,
          "Kind": 1
        },
        {
          "Start": 216,
          "End": 218,
          "Text": "{友達は}",
          "Ruby": "tomodachi wa",
          "Lang": "ja",
          "ProblemNo": 2,
          "Kind": 2
        },
        {
          "Start": 218,
          "End": 223,
          "Text": "{今、友達はかっこよくない}",
          "Ruby": "ima, tomodachi wa kakkoyoku nai",
          "Lang": "ja",
          "ProblemNo": 2,
          "Kind": 3
        },
        {
          "Start": 223,
          "End": 229,
          "Text": "{今、友達はかっこよくない}",
          "Ruby": "ima, tomodachi wa kakkoyoku nai",
          "Lang": "ja",
          "ProblemNo": 2,
          "Kind": 4
        },
        {
          "Start": 229,
          "End": 233,
          "Text": "{今、友達はかっこよくない}",
          "Ruby": "ima, tomodachi wa kakkoyoku nai",
          "Lang": "ja",
          "ProblemNo": 3,
          "Kind": 1
        },
        {
          "Start": 233,
          "End": 234,
          "Text": "{昔、}",
          "Ruby": "mukashi,",
          "Lang": "ja",
          "ProblemNo": 3,
          "Kind": 2
        },
        {
          "Start": 234,
          "End": 239,
          "Text": "{昔、友達はかっこよくなかった}",
          "Ruby": "mukashi, tomodachi wa kakkoyoku nakatta",
          "Lang": "ja",
          "ProblemNo": 3,
          "Kind": 3
        },
        {
          "Start": 239,
          "End": 245,
          "Text": "{昔、友達はかっこよくなかった}",
          "Ruby": "mukashi, tomodachi wa kakkoyoku nakatta",
          "Lang": "ja",
          "ProblemNo": 3,
          "Kind": 4
        },
        {
          "Start": 245,
          "End": 249,
          "Text": "{昔、友達はかっこよくなかった}",
          "Ruby": "mukashi, tomodachi wa kakkoyoku nakatta",
          "Lang": "ja",
          "ProblemNo": 4,
          "Kind": 1
        },
        {
          "Start": 249,
          "End": 250,
          "Text": "{彼は}",
          "Ruby": "kare wa",
          "Lang": "ja",
          "ProblemNo": 4,
          "Kind": 2
        },
        {
          "Start": 250,
          "End": 255,
          "Text": "{昔、彼はかっこよくなかった}",
          "Ruby": "mukashi, kare wa kakkoyoku nakatta",
          "Lang": "ja",
          "ProblemNo": 4,
          "Kind": 3
        },
        {
          "Start": 255,
          "End": 261,
          "Text": "{昔、彼はかっこよくなかった}",
          "Ruby": "mukashi, kare wa kakkoyoku nakatta",
          "Lang": "ja",
          "ProblemNo": 4,
          "Kind": 4
        },
        {
          "Start": 261,
          "End": 265,
          "Text": "{昔、彼はかっこよくなかった}",
          "Ruby": "mukashi, kare wa kakkoyoku nakatta",
          "Lang": "ja",
          "ProblemNo": 5,
          "Kind": 1
        },
        {
          "Start": 265,
          "End": 267,
          "Text": "{先生は}",
          "Ruby": "sensei wa",
          "Lang": "ja",
          "ProblemNo": 5,
          "Kind": 2
        },
        {
          "Start": 267,
          "End": 272,
          "Text": "{昔、先生はかっこよくなかった}",
          "Ruby": "mukashi, sensei wa kakkoyoku nakatta",
          "Lang": "ja",
          "ProblemNo": 5,
          "Kind": 3
        },
        {
          "Start": 272,
          "End": 278,
          "Text": "{昔、先生はかっこよくなかった}",
          "Ruby": "mukashi, sensei wa kakkoyoku nakatta",
          "Lang": "ja",
          "ProblemNo": 5,
          "Kind": 4
        },
        {
          "Start": 278,
          "End": 282,
          "Text": "{昔、先生はかっこよくなかった}",
          "Ruby": "mukashi, sensei wa kakkoyoku nakatta",
          "Lang": "ja",
          "ProblemNo": 6,
          "Kind": 1
        },
        {
          "Start": 282,
          "End": 283,
          "Text": "{今、}",
          "Ruby": "ima,",
          "Lang": "ja",
          "ProblemNo": 6,
          "Kind": 2
        },
        {
          "Start": 283,
          "End": 288,
          "Text": "{今、先生はかっこよくない}",
          "Ruby": "ima, sensei wa kakkoyoku nai",
          "Lang": "ja",
          "ProblemNo": 6,
          "Kind": 3
        },
        {
          "Start": 288,
          "End": 294,
          "Text": "{今、先生はかっこよくない}",
          "Ruby": "ima, sensei wa kakkoyoku nai",
          "Lang": "ja",
          "ProblemNo": 6,
          "Kind": 4
        },
        {
          "Start": 294,
          "End": 298,
          "Text": "{今、先生はかっこよくない}",
          "Ruby": "ima, sensei wa kakkoyoku nai",
          "Lang": "ja",
          "ProblemNo": 7,
          "Kind": 1
        },
        {
          "Start": 298,
          "End": 300,
          "Text": "{かっこいい}",
          "Ruby": "kakkoii",
          "Lang": "ja",
          "ProblemNo": 7,
          "Kind": 2
        },
        {
          "Start": 300,
          "End": 305,
          "Text": "{今、先生はかっこいい}",
          "Ruby": "ima, sensei wa kakkoii",
          "Lang": "ja",
          "ProblemNo": 7,
          "Kind": 3
        },
        {
          "Start": 305,
          "End": 311,
          "Text": "{今、先生はかっこいい}",
          "Ruby": "ima, sensei wa kakkoii",
          "Lang": "ja",
          "ProblemNo": 7,
          "Kind": 4
        },
        {
          "Start": 311,
          "End": 315,
          "Text": "{今、先生はかっこいい}",
          "Ruby": "ima, sensei wa kakkoii",
          "Lang": "ja",
          "ProblemNo": 8,
          "Kind": 1
        },
        {
          "Start": 315,
          "End": 316,
          "Text": "{昔、}",
          "Ruby": "mukashi,",
          "Lang": "ja",
          "ProblemNo": 8,
          "Kind": 2
        },
        {
          "Start": 316,
          "End": 321,
          "Text": "{昔、先生はかっこよかった}",
          "Ruby": "mukashi, sensei wa kakkoyokatta",
          "Lang": "ja",
          "ProblemNo": 8,
          "Kind": 3
        },
        {
          "Start": 321,
          "End": 327,
          "Text": "{昔、先生はかっこよかった}",
          "Ruby": "mukashi, sensei wa kakkoyokatta",
          "Lang": "ja",
          "ProblemNo": 8,
          "Kind": 4
        },
        {
          "Start": 327,
          "End": 331,
          "Text": "{昔、先生はかっこよかった}",
          "Ruby": "mukashi, sensei wa kakkoyokatta",
          "Lang": "ja",
          "ProblemNo": 9,
          "Kind": 1
        },
        {
          "Start": 331,
          "End": 333,
          "Text": "{友達は}",
          "Ruby": "tomodachi wa",
          "Lang": "ja",
          "ProblemNo": 9,
          "Kind": 2
        },
        {
          "Start": 333,
          "End": 338,
          "Text": "{昔、友達はかっこよかった}",
          "Ruby": "mukashi, tomodachi wa kakkoyokatta",
          "Lang": "ja",
          "ProblemNo": 9,
          "Kind": 3
        },
        {
          "Start": 338,
          "End": 344,
          "Text": "{昔、友達はかっこよかった}",
          "Ruby": "mukashi, tomodachi wa kakkoyokatta",
          "Lang": "ja",
          "ProblemNo": 9,
          "Kind": 4
        },
        {
          "Start": 344,
          "End": 347,
          "Text": "",
          "Ruby": "",
          "Lang": "",
          "ProblemNo": 0,
          "Kind": 5
        },
        {
          "Start": 347,
          "End": 351,
          "Text": "{昔、彼はかっこよかった}",
          "Ruby": "mukashi, kare wa kakkoyokatta",
          "Lang": "ja",
          "ProblemNo": 0,
          "Kind": 1
        },
        {
          "Start": 351,
          "End": 352,
          "Text": "{今、}",
          "Ruby": "ima,",
          "Lang": "ja",
          "ProblemNo": 0,
          "Kind": 2
        },
        {
          "Start": 352,
          "End": 357,
          "Text": "{今、彼はかっこいい}",
          "Ruby": "ima, kare wa kakkoii",
          "Lang": "ja",
          "ProblemNo": 0,
          "Kind": 3
        },
        {
          "Start": 357,
          "End": 363,
          "Text": "{今、彼はかっこいい}",
          "Ruby": "ima, kare wa kakkoii",
          "Lang": "ja",
          "ProblemNo": 0,
          "Kind": 4
        },
        {
          "Start": 363,
          "End": 367,
          "Text": "{今、彼はかっこいい}",
          "Ruby": "ima, kare wa kakkoii",
          "Lang": "ja",
          "ProblemNo": 1,
          "Kind": 1
        },
        {
          "Start": 367,
          "End": 369,
          "Text": "{かっこよくない}",
          "Ruby": "kakkoyoku nai",
          "Lang": "ja",
          "ProblemNo": 1,
          "Kind": 2
        },
        {
          "Start": 369,
          "End": 374,
          "Text": "{今、彼はかっこよくない}",
          "Ruby": "ima, kare wa kakkoyoku nai",
          "Lang": "ja",
          "ProblemNo": 1,
          "Kind": 3
        },
        {
          "Start": 374,
          "End": 380,
          "Text": "{今、彼はかっこよくない}",
          "Ruby": "ima, kare wa kakkoyoku nai",
          "Lang": "ja",
          "ProblemNo": 1,
          "Kind": 4
        },
        {
          "Start": 380,
          "End": 384,
          "Text": "{今、彼はかっこよくない}",
          "Ruby": "ima, kare wa kakkoyoku nai",
          "Lang": "ja",
          "ProblemNo": 2,
          "Kind": 1
        },
        {
          "Start": 384,
          "End": 386,
          "Text": "{友達は}",
          "Ruby": "tomodachi wa",
          "Lang": "ja",
          "ProblemNo": 2,
          "Kind": 2
        },
        {
          "Start": 386,
          "End": 391,
          "Text": "{今、友達はかっこよくない}",
          "Ruby": "ima, tomodachi wa kakkoyoku nai",
          "Lang": "ja",
          "ProblemNo": 2,
          "Kind": 3
        },
        {
          "Start": 391,
          "End": 397,
          "Text": "{今、友達はかっこよくない}",
          "Ruby": "ima, tomodachi wa kakkoyoku nai",
          "Lang": "ja",
          "ProblemNo": 2,
          "Kind": 4
        },
        {
          "Start": 397,
          "End": 401,
          "Text": "{今、友達はかっこよくない}",
          "Ruby": "ima, tomodachi wa kakkoyoku nai",
          "Lang": "ja",
          "ProblemNo": 3,
          "Kind": 1
        },
        {
          "Start": 401,
          "End": 402,
          "Text": "{昔、}",
          "Ruby": "mukashi,",
          "Lang": "ja",
          "ProblemNo": 3,
          "Kind": 2
        },
        {
          "Start": 402,
          "End": 407,
          "Text": "{昔、友達はかっこよくなかった}",
          "Ruby": "mukashi, tomodachi wa kakkoyoku nakatta",
          "Lang": "ja",
          "ProblemNo": 3,
          "Kind": 3
        },
        {
          "Start": 407,
          "End": 413,
          "Text": "{昔、友達はかっこよくなかった}",
          "Ruby": "mukashi, tomodachi wa kakkoyoku nakatta",
          "Lang": "ja",
          "ProblemNo": 3,
          "Kind": 4
        },
        {
          "Start": 413,
          "End": 417,
          "Text": "{昔、友達はかっこよくなかった}",
          "Ruby": "mukashi, tomodachi wa kakkoyoku nakatta",
          "Lang": "ja",
          "ProblemNo": 4,
          "Kind": 1
        },
        {
          "Start": 417,
          "End": 418,
          "Text": "{彼は}",
          "Ruby": "kare wa",
          "Lang": "ja",
          "ProblemNo": 4,
          "Kind": 2
        },
        {
          "Start": 418,
          "End": 423,
          "Text": "{昔、彼はかっこよくなかった}",
          "Ruby": "mukashi, kare wa kakkoyoku nakatta",
          "Lang": "ja",
          "ProblemNo": 4,
          "Kind": 3
        },
        {
          "Start": 423,
          "End": 429,
          "Text": "{昔、彼はかっこよくなかった}",
          "Ruby": "mukashi, kare wa kakkoyoku nakatta",
          "Lang": "ja",
          "ProblemNo": 4,
          "Kind": 4
        },
        {
          "Start": 429,
          "End": 433,
          "Text": "{昔、彼はかっこよくなかった}",
          "Ruby": "mukashi, kare wa kakkoyoku nakatta",
          "Lang": "ja",
          "ProblemNo": 5,
          "Kind": 1
        },
        {
          "Start": 433,
          "End": 435,
          "Text": "{先生は}",
          "Ruby": "sensei wa",
          "Lang": "ja",
          "ProblemNo": 5,
          "Kind": 2
        },
        {
          "Start": 435,
          "End": 440,
          "Text": "{昔、先生はかっこよくなかった}",
          "Ruby": "mukashi, sensei wa kakkoyoku nakatta",
          "Lang": "ja",
          "ProblemNo": 5,
          "Kind": 3
        },
        {
          "Start": 440,
          "End": 446,
          "Text": "{昔、先生はかっこよくなかった}",
          "Ruby": "mukashi, sensei wa kakkoyoku nakatta",
          "Lang": "ja",
          "ProblemNo": 5,
          "Kind": 4
        },
        {
          "Start": 446,
          "End": 450,
          "Text": "{昔、先生はかっこよくなかった}",
          "Ruby": "mukashi, sensei wa kakkoyoku nakatta",
          "Lang": "ja",
          "ProblemNo": 6,
          "Kind": 1
        },
        {
          "Start": 450,
          "End": 451,
          "Text": "{今、}",
          "Ruby": "ima,",
          "Lang": "ja",
          "ProblemNo": 6,
          "Kind": 2
        },
        {
          "Start": 451,
          "End": 456,
          "Text": "{今、先生はかっこよくない}",
          "Ruby": "ima, sensei wa kakkoyoku nai",
          "Lang": "ja",
          "ProblemNo": 6,
          "Kind": 3
        },
        {
          "Start": 456,
          "End": 462,
          "Text": "{今、先生はかっこよくない}",
          "Ruby": "ima, sensei wa kakkoyoku nai",
          "Lang": "ja",
          "ProblemNo": 6,
          "Kind": 4
        },
        {
          "Start": 462,
          "End": 466,
          "Text": "{今、先生はかっこよくない}",
          "Ruby": "ima, sensei wa kakkoyoku nai",
          "Lang": "ja",
          "ProblemNo": 7,
          "Kind": 1
        },
        {
          "Start": 466,
          "End": 468,
          "Text": "{かっこいい}",
          "Ruby": "kakkoii",
          "Lang": "ja",
          "ProblemNo": 7,
          "Kind": 2
        },
        {
          "Start": 468,
          "End": 473,
          "Text": "{今、先生はかっこいい}",
          "Ruby": "ima, sensei wa kakkoii",
          "Lang": "ja",
          "ProblemNo": 7,
          "Kind": 3
        },
        {
          "Start": 473,
          "End": 479,
          "Text": "{今、先生はかっこいい}",
          "Ruby": "ima, sensei wa kakkoii",
          "Lang": "ja",
          "ProblemNo": 7,
          "Kind": 4
        },
        {
          "Start": 479,
          "End": 483,
          "Text": "{今、先生はかっこいい}",
          "Ruby": "ima, sensei wa kakkoii",
          "Lang": "ja",
          "ProblemNo": 8,
          "Kind": 1
        },
        {
          "Start": 483,
          "End": 484,
          "Text": "{昔、}",
          "Ruby": "mukashi,",
          "Lang": "ja",
          "ProblemNo": 8,
          "Kind": 2
        },
        {
          "Start": 484,
          "End": 489,
          "Text": "{昔、先生はかっこよかった}",
          "Ruby": "mukashi, sensei wa kakkoyokatta",
          "Lang": "ja",
          "ProblemNo": 8,
          "Kind": 3
        },
        {
          "Start": 489,
          "End": 495,
          "Text": "{昔、先生はかっこよかった}",
          "Ruby": "mukashi, sensei wa kakkoyokatta",
          "Lang": "ja",
          "ProblemNo": 8,
          "Kind": 4
        },
        {
          "Start": 495,
          "End": 499,
          "Text": "{昔、先生はかっこよかった}",
          "Ruby": "mukashi, sensei wa kakkoyokatta",
          "Lang": "ja",
          "ProblemNo": 9,
          "Kind": 1
        },
        {
          "Start": 499,
          "End": 501,
          "Text": "{友達は}",
          "Ruby": "tomodachi wa",
          "Lang": "ja",
          "ProblemNo": 9,
          "Kind": 2
        },
        {
          "Start": 501,
          "End": 506,
          "Text": "{昔、友達はかっこよかった}",
          "Ruby": "mukashi, tomodachi wa kakkoyokatta",
          "Lang": "ja",
          "ProblemNo": 9,
          "Kind": 3
        },
        {
          "Start": 506,
          "End": 512,
          "Text": "{昔、友達はかっこよかった}",
          "Ruby": "mukashi, tomodachi wa kakkoyokatta",
          "Lang": "ja",
          "ProblemNo": 9,
          "Kind": 4
        },
        {
          "Start": 512,
          "End": 515,
          "Text": "",
          "Ruby": "",
          "Lang": "",
          "ProblemNo": 0,
          "Kind": 5
        },
        {
          "Start": 515,
          "End": 535,
          "Text": "{Please subscribe!}",
          "Ruby": "",
          "Lang": "en",
          "ProblemNo": 0,
          "Kind": 7
        }
      ]
    }
  ],
  "CannotChange": true
}