{
  "SerieName": "grammar-ja-tk",
  "No": 50,
  "VideoTitle": "ん",
  "ThumbnailTitle": "",
  "YoutubeDescription": "{Grammatical explanation}:\n{Tae Kim's Guide to Learning Japanese}\n{http://www.guidetojapanese.org/learn/grammar/nounparticles}",
  "YoutubeTitle": "",
  "Boxes": [
    {
      "Pos": 0,
      "PersonName": "x",
      "Candidates": [
        {
          "Word": "明日は",
          "Root": "",
          "FeatureSet": null,
          "Conditions": [
            {
              "Pos": 1,
              "Morphemes": [
                {
                  "Word": "",
                  "Root": "",
                  "FeatureSet": [
                    "current"
                  ]
                }
              ]
            }
          ],
          "PersonConditions": null
        },
        {
          "Word": "今は",
          "Root": "",
          "FeatureSet": null,
          "Conditions": [
            {
              "Pos": 1,
              "Morphemes": [
                {
                  "Word": "",
                  "Root": "",
                  "FeatureSet": [
                    "current"
                  ]
                }
              ]
            }
          ],
          "PersonConditions": null
        },
        {
          "Word": "去年は",
          "Root": "",
          "FeatureSet": null,
          "Conditions": [
            {
              "Pos": 1,
              "Morphemes": [
                {
                  "Word": "",
                  "Root": "",
                  "FeatureSet": [
                    "past"
                  ]
                }
              ]
            }
          ],
          "PersonConditions": null
        }
      ]
    },
    {
      "Pos": 1,
      "PersonName": "x",
      "Candidates": [
        {
          "Word": "忙しいんだ",
          "Root": "忙しい",
          "FeatureSet": [
            "p",
            "current"
          ],
          "Conditions": null,
          "PersonConditions": null
        },
        {
          "Word": "忙しくないんだ",
          "Root": "忙しい",
          "FeatureSet": [
            "n",
            "current"
          ],
          "Conditions": null,
          "PersonConditions": null
        },
        {
          "Word": "忙しくなかったんだ",
          "Root": "忙しい",
          "FeatureSet": [
            "n",
            "past"
          ],
          "Conditions": null,
          "PersonConditions": null
        },
        {
          "Word": "楽しいんだ",
          "Root": "楽しい",
          "FeatureSet": [
            "p",
            "current"
          ],
          "Conditions": null,
          "PersonConditions": null
        },
        {
          "Word": "楽しくないんだ",
          "Root": "楽しい",
          "FeatureSet": [
            "n",
            "current"
          ],
          "Conditions": null,
          "PersonConditions": null
        },
        {
          "Word": "楽しかったんだ",
          "Root": "楽しい",
          "FeatureSet": [
            "p",
            "past"
          ],
          "Conditions": null,
          "PersonConditions": null
        },
        {
          "Word": "楽しくなかったんだ",
          "Root": "楽しい",
          "FeatureSet": [
            "n",
            "past"
          ],
          "Conditions": null,
          "PersonConditions": null
        }
      ]
    }
  ],
  "Pars": [
    {
      "Header": "",
      "Poses": [
        0,
        1
      ]
    }
  ],
  "Exercises": [
    {
      "Name": "A",
      "Problems": [
        {
          "ProblemNo": 0,
          "OriginalCandidates": [
            {
              "Word": "今は",
              "Ruby": "ima wa"
            },
            {
              "Word": "楽しくないんだ",
              "Ruby": "tanoshiku nai nda"
            }
          ],
          "ChangeCandidatePos": 1,
          "ChangeCandidates": [
            {
              "Word": "",
              "Ruby": ""
            },
            {
              "Word": "楽しいんだ",
              "Ruby": "tanoshii nda"
            }
          ],
          "ChangeMorphemes": [
            {
              "Word": "",
              "Root": "",
              "FeatureSet": null
            },
            {
              "Word": "楽しいんだ",
              "Root": "楽しい",
              "FeatureSet": [
                "p",
                "current"
              ]
            }
          ],
          "AnswerCandidates": [
            {
              "Word": "今は",
              "Ruby": "ima wa"
            },
            {
              "Word": "楽しいんだ",
              "Ruby": "tanoshii nda"
            }
          ]
        },
        {
          "ProblemNo": 1,
          "OriginalCandidates": [
            {
              "Word": "今は",
              "Ruby": "ima wa"
            },
            {
              "Word": "楽しいんだ",
              "Ruby": "tanoshii nda"
            }
          ],
          "ChangeCandidatePos": 0,
          "ChangeCandidates": [
            {
              "Word": "去年は",
              "Ruby": "kyonen wa"
            },
            {
              "Word": "楽しかったんだ",
              "Ruby": "tanoshikatta nda"
            }
          ],
          "ChangeMorphemes": [
            {
              "Word": "去年は",
              "Root": "",
              "FeatureSet": null
            },
            {
              "Word": "",
              "Root": "",
              "FeatureSet": [
                "past"
              ]
            }
          ],
          "AnswerCandidates": [
            {
              "Word": "去年は",
              "Ruby": "kyonen wa"
            },
            {
              "Word": "楽しかったんだ",
              "Ruby": "tanoshikatta nda"
            }
          ]
        },
        {
          "ProblemNo": 2,
          "OriginalCandidates": [
            {
              "Word": "去年は",
              "Ruby": "kyonen wa"
            },
            {
              "Word": "楽しかったんだ",
              "Ruby": "tanoshikatta nda"
            }
          ],
          "ChangeCandidatePos": 0,
          "ChangeCandidates": [
            {
              "Word": "明日は",
              "Ruby": "明日 wa"
            },
            {
              "Word": "楽しいんだ",
              "Ruby": "tanoshii nda"
            }
          ],
          "ChangeMorphemes": [
            {
              "Word": "明日は",
              "Root": "",
              "FeatureSet": null
            },
            {
              "Word": "",
              "Root": "",
              "FeatureSet": [
                "current"
              ]
            }
          ],
          "AnswerCandidates": [
            {
              "Word": "明日は",
              "Ruby": "明日 wa"
            },
            {
              "Word": "楽しいんだ",
              "Ruby": "tanoshii nda"
            }
          ]
        },
        {
          "ProblemNo": 3,
          "OriginalCandidates": [
            {
              "Word": "明日は",
              "Ruby": "明日 wa"
            },
            {
              "Word": "楽しいんだ",
              "Ruby": "tanoshii nda"
            }
          ],
          "ChangeCandidatePos": 1,
          "ChangeCandidates": [
            {
              "Word": "",
              "Ruby": ""
            },
            {
              "Word": "忙しいんだ",
              "Ruby": "isogashii nda"
            }
          ],
          "ChangeMorphemes": [
            {
              "Word": "",
              "Root": "",
              "FeatureSet": null
            },
            {
              "Word": "忙しいんだ",
              "Root": "忙しい",
              "FeatureSet": [
                "p",
                "current"
              ]
            }
          ],
          "AnswerCandidates": [
            {
              "Word": "明日は",
              "Ruby": "明日 wa"
            },
            {
              "Word": "忙しいんだ",
              "Ruby": "isogashii nda"
            }
          ]
        },
        {
          "ProblemNo": 4,
          "OriginalCandidates": [
            {
              "Word": "明日は",
              "Ruby": "明日 wa"
            },
            {
              "Word": "忙しいんだ",
              "Ruby": "isogashii nda"
            }
          ],
          "ChangeCandidatePos": 0,
          "ChangeCandidates": [
            {
              "Word": "今は",
              "Ruby": "ima wa"
            },
            {
              "Word": "忙しいんだ",
              "Ruby": "isogashii nda"
            }
          ],
          "ChangeMorphemes": [
            {
              "Word": "今は",
              "Root": "",
              "FeatureSet": null
            },
            {
              "Word": "",
              "Root": "",
              "FeatureSet": [
                "current"
              ]
            }
          ],
          "AnswerCandidates": [
            {
              "Word": "今は",
              "Ruby": "ima wa"
            },
            {
              "Word": "忙しいんだ",
              "Ruby": "isogashii nda"
            }
          ]
        },
        {
          "ProblemNo": 5,
          "OriginalCandidates": [
            {
              "Word": "今は",
              "Ruby": "ima wa"
            },
            {
              "Word": "忙しいんだ",
              "Ruby": "isogashii nda"
            }
          ],
          "ChangeCandidatePos": 1,
          "ChangeCandidates": [
            {
              "Word": "",
              "Ruby": ""
            },
            {
              "Word": "忙しくないんだ",
              "Ruby": "isogashiku nai nda"
            }
          ],
          "ChangeMorphemes": [
            {
              "Word": "",
              "Root": "",
              "FeatureSet": null
            },
            {
              "Word": "忙しくないんだ",
              "Root": "忙しい",
              "FeatureSet": [
                "n",
                "current"
              ]
            }
          ],
          "AnswerCandidates": [
            {
              "Word": "今は",
              "Ruby": "ima wa"
            },
            {
              "Word": "忙しくないんだ",
              "Ruby": "isogashiku nai nda"
            }
          ]
        },
        {
          "ProblemNo": 6,
          "OriginalCandidates": [
            {
              "Word": "今は",
              "Ruby": "ima wa"
            },
            {
              "Word": "忙しくないんだ",
              "Ruby": "isogashiku nai nda"
            }
          ],
          "ChangeCandidatePos": 0,
          "ChangeCandidates": [
            {
              "Word": "明日は",
              "Ruby": "明日 wa"
            },
            {
              "Word": "忙しくないんだ",
              "Ruby": "isogashiku nai nda"
            }
          ],
          "ChangeMorphemes": [
            {
              "Word": "明日は",
              "Root": "",
              "FeatureSet": null
            },
            {
              "Word": "",
              "Root": "",
              "FeatureSet": [
                "current"
              ]
            }
          ],
          "AnswerCandidates": [
            {
              "Word": "明日は",
              "Ruby": "明日 wa"
            },
            {
              "Word": "忙しくないんだ",
              "Ruby": "isogashiku nai nda"
            }
          ]
        },
        {
          "ProblemNo": 7,
          "OriginalCandidates": [
            {
              "Word": "明日は",
              "Ruby": "明日 wa"
            },
            {
              "Word": "忙しくないんだ",
              "Ruby": "isogashiku nai nda"
            }
          ],
          "ChangeCandidatePos": 0,
          "ChangeCandidates": [
            {
              "Word": "去年は",
              "Ruby": "kyonen wa"
            },
            {
              "Word": "忙しくなかったんだ",
              "Ruby": "isogashiku nakatta nda"
            }
          ],
          "ChangeMorphemes": [
            {
              "Word": "去年は",
              "Root": "",
              "FeatureSet": null
            },
            {
              "Word": "",
              "Root": "",
              "FeatureSet": [
                "past"
              ]
            }
          ],
          "AnswerCandidates": [
            {
              "Word": "去年は",
              "Ruby": "kyonen wa"
            },
            {
              "Word": "忙しくなかったんだ",
              "Ruby": "isogashiku nakatta nda"
            }
          ]
        },
        {
          "ProblemNo": 8,
          "OriginalCandidates": [
            {
              "Word": "去年は",
              "Ruby": "kyonen wa"
            },
            {
              "Word": "忙しくなかったんだ",
              "Ruby": "isogashiku nakatta nda"
            }
          ],
          "ChangeCandidatePos": 1,
          "ChangeCandidates": [
            {
              "Word": "",
              "Ruby": ""
            },
            {
              "Word": "楽しくなかったんだ",
              "Ruby": "tanoshiku nakatta nda"
            }
          ],
          "ChangeMorphemes": [
            {
              "Word": "",
              "Root": "",
              "FeatureSet": null
            },
            {
              "Word": "楽しくなかったんだ",
              "Root": "楽しい",
              "FeatureSet": [
                "n",
                "past"
              ]
            }
          ],
          "AnswerCandidates": [
            {
              "Word": "去年は",
              "Ruby": "kyonen wa"
            },
            {
              "Word": "楽しくなかったんだ",
              "Ruby": "tanoshiku nakatta nda"
            }
          ]
        },
        {
          "ProblemNo": 9,
          "OriginalCandidates": [
            {
              "Word": "去年は",
              "Ruby": "kyonen wa"
            },
            {
              "Word": "楽しくなかったんだ",
              "Ruby": "tanoshiku nakatta nda"
            }
          ],
          "ChangeCandidatePos": 0,
          "ChangeCandidates": [
            {
              "Word": "明日は",
              "Ruby": "明日 wa"
            },
            {
              "Word": "楽しくないんだ",
              "Ruby": "tanoshiku nai nda"
            }
          ],
          "ChangeMorphemes": [
            {
              "Word": "明日は",
              "Root": "",
              "FeatureSet": null
            },
            {
              "Word": "",
              "Root": "",
              "FeatureSet": [
                "current"
              ]
            }
          ],
          "AnswerCandidates": [
            {
              "Word": "明日は",
              "Ruby": "明日 wa"
            },
            {
              "Word": "楽しくないんだ",
              "Ruby": "tanoshiku nai nda"
            }
          ]
        }
      ],
      "VideoFile": "grammar-ja-tk_50_A.mp4",
      "AnimeticCaptions": [
        {
          "Start": 0,
          "End": 3,
          "Text": "Japanese grammar exercises #50 ん",
          "Ruby": "",
          "Lang": "",
          "ProblemNo": 0,
          "Kind": 0
        },
        {
          "Start": 3,
          "End": 6,
          "Text": "{今は楽しくないんだ}",
          "Ruby": "ima wa tanoshiku nai nda",
          "Lang": "ja",
          "ProblemNo": 0,
          "Kind": 1
        },
        {
          "Start": 6,
          "End": 8,
          "Text": "{楽しいんだ}",
          "Ruby": "tanoshii nda",
          "Lang": "ja",
          "ProblemNo": 0,
          "Kind": 2
        },
        {
          "Start": 8,
          "End": 12,
          "Text": "{今は楽しいんだ}",
          "Ruby": "ima wa tanoshii nda",
          "Lang": "ja",
          "ProblemNo": 0,
          "Kind": 3
        },
        {
          "Start": 12,
          "End": 17,
          "Text": "{今は楽しいんだ}",
          "Ruby": "ima wa tanoshii nda",
          "Lang": "ja",
          "ProblemNo": 0,
          "Kind": 4
        },
        {
          "Start": 17,
          "End": 20,
          "Text": "{今は楽しいんだ}",
          "Ruby": "ima wa tanoshii nda",
          "Lang": "ja",
          "ProblemNo": 1,
          "Kind": 1
        },
        {
          "Start": 20,
          "End": 21,
          "Text": "{去年は}",
          "Ruby": "kyonen wa",
          "Lang": "ja",
          "ProblemNo": 1,
          "Kind": 2
        },
        {
          "Start": 21,
          "End": 23,
          "Text": "{楽しかったんだ}",
          "Ruby": "tanoshikatta nda",
          "Lang": "ja",
          "ProblemNo": 1,
          "Kind": 2
        },
        {
          "Start": 23,
          "End": 27,
          "Text": "{去年は楽しかったんだ}",
          "Ruby": "kyonen wa tanoshikatta nda",
          "Lang": "ja",
          "ProblemNo": 1,
          "Kind": 3
        },
        {
          "Start": 27,
          "End": 32,
          "Text": "{去年は楽しかったんだ}",
          "Ruby": "kyonen wa tanoshikatta nda",
          "Lang": "ja",
          "ProblemNo": 1,
          "Kind": 4
        },
        {
          "Start": 32,
          "End": 35,
          "Text": "{去年は楽しかったんだ}",
          "Ruby": "kyonen wa tanoshikatta nda",
          "Lang": "ja",
          "ProblemNo": 2,
          "Kind": 1
        },
        {
          "Start": 35,
          "End": 36,
          "Text": "{明日は}",
          "Ruby": "明日 wa",
          "Lang": "ja",
          "ProblemNo": 2,
          "Kind": 2
        },
        {
          "Start": 36,
          "End": 38,
          "Text": "{楽しいんだ}",
          "Ruby": "tanoshii nda",
          "Lang": "ja",
          "ProblemNo": 2,
          "Kind": 2
        },
        {
          "Start": 38,
          "End": 42,
          "Text": "{明日は楽しいんだ}",
          "Ruby": "明日 wa tanoshii nda",
          "Lang": "ja",
          "ProblemNo": 2,
          "Kind": 3
        },
        {
          "Start": 42,
          "End": 47,
          "Text": "{明日は楽しいんだ}",
          "Ruby": "明日 wa tanoshii nda",
          "Lang": "ja",
          "ProblemNo": 2,
          "Kind": 4
        },
        {
          "Start": 47,
          "End": 50,
          "Text": "{明日は楽しいんだ}",
          "Ruby": "明日 wa tanoshii nda",
          "Lang": "ja",
          "ProblemNo": 3,
          "Kind": 1
        },
        {
          "Start": 50,
          "End": 52,
          "Text": "{忙しいんだ}",
          "Ruby": "isogashii nda",
          "Lang": "ja",
          "ProblemNo": 3,
          "Kind": 2
        },
        {
          "Start": 52,
          "End": 56,
          "Text": "{明日は忙しいんだ}",
          "Ruby": "明日 wa isogashii nda",
          "Lang": "ja",
          "ProblemNo": 3,
          "Kind": 3
        },
        {
          "Start": 56,
          "End": 61,
          "Text": "{明日は忙しいんだ}",
          "Ruby": "明日 wa isogashii nda",
          "Lang": "ja",
          "ProblemNo": 3,
          "Kind": 4
        },
        {
          "Start": 61,
          "End": 64,
          "Text": "{明日は忙しいんだ}",
          "Ruby": "明日 wa isogashii nda",
          "Lang": "ja",
          "ProblemNo": 4,
          "Kind": 1
        },
        {
          "Start": 64,
          "End": 65,
          "Text": "{今は}",
          "Ruby": "ima wa",
          "Lang": "ja",
          "ProblemNo": 4,
          "Kind": 2
        },
        {
          "Start": 65,
          "End": 67,
          "Text": "{忙しいんだ}",
          "Ruby": "isogashii nda",
          "Lang": "ja",
          "ProblemNo": 4,
          "Kind": 2
        },
        {
          "Start": 67,
          "End": 71,
          "Text": "{今は忙しいんだ}",
          "Ruby": "ima wa isogashii nda",
          "Lang": "ja",
          "ProblemNo": 4,
          "Kind": 3
        },
        {
          "Start": 71,
          "End": 76,
          "Text": "{今は忙しいんだ}",
          "Ruby": "ima wa isogashii nda",
          "Lang": "ja",
          "ProblemNo": 4,
          "Kind": 4
        },
        {
          "Start": 76,
          "End": 79,
          "Text": "{今は忙しいんだ}",
          "Ruby": "ima wa isogashii nda",
          "Lang": "ja",
          "ProblemNo": 5,
          "Kind": 1
        },
        {
          "Start": 79,
          "End": 81,
          "Text": "{忙しくないんだ}",
          "Ruby": "isogashiku nai nda",
          "Lang": "ja",
          "ProblemNo": 5,
          "Kind": 2
        },
        {
          "Start": 81,
          "End": 85,
          "Text": "{今は忙しくないんだ}",
          "Ruby": "ima wa isogashiku nai nda",
          "Lang": "ja",
          "ProblemNo": 5,
          "Kind": 3
        },
        {
          "Start": 85,
          "End": 90,
          "Text": "{今は忙しくないんだ}",
          "Ruby": "ima wa isogashiku nai nda",
          "Lang": "ja",
          "ProblemNo": 5,
          "Kind": 4
        },
        {
          "Start": 90,
          "End": 93,
          "Text": "{今は忙しくないんだ}",
          "Ruby": "ima wa isogashiku nai nda",
          "Lang": "ja",
          "ProblemNo": 6,
          "Kind": 1
        },
        {
          "Start": 93,
          "End": 94,
          "Text": "{明日は}",
          "Ruby": "明日 wa",
          "Lang": "ja",
          "ProblemNo": 6,
          "Kind": 2
        },
        {
          "Start": 94,
          "End": 96,
          "Text": "{忙しくないんだ}",
          "Ruby": "isogashiku nai nda",
          "Lang": "ja",
          "ProblemNo": 6,
          "Kind": 2
        },
        {
          "Start": 96,
          "End": 101,
          "Text": "{明日は忙しくないんだ}",
          "Ruby": "明日 wa isogashiku nai nda",
          "Lang": "ja",
          "ProblemNo": 6,
          "Kind": 3
        },
        {
          "Start": 101,
          "End": 107,
          "Text": "{明日は忙しくないんだ}",
          "Ruby": "明日 wa isogashiku nai nda",
          "Lang": "ja",
          "ProblemNo": 6,
          "Kind": 4
        },
        {
          "Start": 107,
          "End": 111,
          "Text": "{明日は忙しくないんだ}",
          "Ruby": "明日 wa isogashiku nai nda",
          "Lang": "ja",
          "ProblemNo": 7,
          "Kind": 1
        },
        {
          "Start": 111,
          "End": 112,
          "Text": "{去年は}",
          "Ruby": "kyonen wa",
          "Lang": "ja",
          "ProblemNo": 7,
          "Kind": 2
        },
        {
          "Start": 112,
          "End": 114,
          "Text": "{忙しくなかったんだ}",
          "Ruby": "isogashiku nakatta nda",
          "Lang": "ja",
          "ProblemNo": 7,
          "Kind": 2
        },
        {
          "Start": 114,
          "End": 119,
          "Text": "{去年は忙しくなかったんだ}",
          "Ruby": "kyonen wa isogashiku nakatta nda",
          "Lang": "ja",
          "ProblemNo": 7,
          "Kind": 3
        },
        {
          "Start": 119,
          "End": 125,
          "Text": "{去年は忙しくなかったんだ}",
          "Ruby": "kyonen wa isogashiku nakatta nda",
          "Lang": "ja",
          "ProblemNo": 7,
          "Kind": 4
        },
        {
          "Start": 125,
          "End": 129,
          "Text": "{去年は忙しくなかったんだ}",
          "Ruby": "kyonen wa isogashiku nakatta nda",
          "Lang": "ja",
          "ProblemNo": 8,
          "Kind": 1
        },
        {
          "Start": 129,
          "End": 131,
          "Text": "{楽しくなかったんだ}",
          "Ruby": "tanoshiku nakatta nda",
          "Lang": "ja",
          "ProblemNo": 8,
          "Kind": 2
        },
        {
          "Start": 131,
          "End": 136,
          "Text": "{去年は楽しくなかったんだ}",
          "Ruby": "kyonen wa tanoshiku nakatta nda",
          "Lang": "ja",
          "ProblemNo": 8,
          "Kind": 3
        },
        {
          "Start": 136,
          "End": 142,
          "Text": "{去年は楽しくなかったんだ}",
          "Ruby": "kyonen wa tanoshiku nakatta nda",
          "Lang": "ja",
          "ProblemNo": 8,
          "Kind": 4
        },
        {
          "Start": 142,
          "End": 146,
          "Text": "{去年は楽しくなかったんだ}",
          "Ruby": "kyonen wa tanoshiku nakatta nda",
          "Lang": "ja",
          "ProblemNo": 9,
          "Kind": 1
        },
        {
          "Start": 146,
          "End": 147,
          "Text": "{明日は}",
          "Ruby": "明日 wa",
          "Lang": "ja",
          "ProblemNo": 9,
          "Kind": 2
        },
        {
          "Start": 147,
          "End": 149,
          "Text": "{楽しくないんだ}",
          "Ruby": "tanoshiku nai nda",
          "Lang": "ja",
          "ProblemNo": 9,
          "Kind": 2
        },
        {
          "Start": 149,
          "End": 153,
          "Text": "{明日は楽しくないんだ}",
          "Ruby": "明日 wa tanoshiku nai nda",
          "Lang": "ja",
          "ProblemNo": 9,
          "Kind": 3
        },
        {
          "Start": 153,
          "End": 158,
          "Text": "{明日は楽しくないんだ}",
          "Ruby": "明日 wa tanoshiku nai nda",
          "Lang": "ja",
          "ProblemNo": 9,
          "Kind": 4
        },
        {
          "Start": 158,
          "End": 161,
          "Text": "",
          "Ruby": "",
          "Lang": "",
          "ProblemNo": 0,
          "Kind": 5
        },
        {
          "Start": 161,
          "End": 164,
          "Text": "{今は楽しくないんだ}",
          "Ruby": "ima wa tanoshiku nai nda",
          "Lang": "ja",
          "ProblemNo": 0,
          "Kind": 1
        },
        {
          "Start": 164,
          "End": 166,
          "Text": "{楽しいんだ}",
          "Ruby": "tanoshii nda",
          "Lang": "ja",
          "ProblemNo": 0,
          "Kind": 2
        },
        {
          "Start": 166,
          "End": 170,
          "Text": "{今は楽しいんだ}",
          "Ruby": "ima wa tanoshii nda",
          "Lang": "ja",
          "ProblemNo": 0,
          "Kind": 3
        },
        {
          "Start": 170,
          "End": 175,
          "Text": "{今は楽しいんだ}",
          "Ruby": "ima wa tanoshii nda",
          "Lang": "ja",
          "ProblemNo": 0,
          "Kind": 4
        },
        {
          "Start": 175,
          "End": 178,
          "Text": "{今は楽しいんだ}",
          "Ruby": "ima wa tanoshii nda",
          "Lang": "ja",
          "ProblemNo": 1,
          "Kind": 1
        },
        {
          "Start": 178,
          "End": 179,
          "Text": "{去年は}",
          "Ruby": "kyonen wa",
          "Lang": "ja",
          "ProblemNo": 1,
          "Kind": 2
        },
        {
          "Start": 179,
          "End": 183,
          "Text": "{去年は楽しかったんだ}",
          "Ruby": "kyonen wa tanoshikatta nda",
          "Lang": "ja",
          "ProblemNo": 1,
          "Kind": 3
        },
        {
          "Start": 183,
          "End": 188,
          "Text": "{去年は楽しかったんだ}",
          "Ruby": "kyonen wa tanoshikatta nda",
          "Lang": "ja",
          "ProblemNo": 1,
          "Kind": 4
        },
        {
          "Start": 188,
          "End": 191,
          "Text": "{去年は楽しかったんだ}",
          "Ruby": "kyonen wa tanoshikatta nda",
          "Lang": "ja",
          "ProblemNo": 2,
          "Kind": 1
        },
        {
          "Start": 191,
          "End": 192,
          "Text": "{明日は}",
          "Ruby": "明日 wa",
          "Lang": "ja",
          "ProblemNo": 2,
          "Kind": 2
        },
        {
          "Start": 192,
          "End": 196,
          "Text": "{明日は楽しいんだ}",
          "Ruby": "明日 wa tanoshii nda",
          "Lang": "ja",
          "ProblemNo": 2,
          "Kind": 3
        },
        {
          "Start": 196,
          "End": 201,
          "Text": "{明日は楽しいんだ}",
          "Ruby": "明日 wa tanoshii nda",
          "Lang": "ja",
          "ProblemNo": 2,
          "Kind": 4
        },
        {
          "Start": 201,
          "End": 204,
          "Text": "{明日は楽しいんだ}",
          "Ruby": "明日 wa tanoshii nda",
          "Lang": "ja",
          "ProblemNo": 3,
          "Kind": 1
        },
        {
          "Start": 204,
          "End": 206,
          "Text": "{忙しいんだ}",
          "Ruby": "isogashii nda",
          "Lang": "ja",
          "ProblemNo": 3,
          "Kind": 2
        },
        {
          "Start": 206,
          "End": 210,
          "Text": "{明日は忙しいんだ}",
          "Ruby": "明日 wa isogashii nda",
          "Lang": "ja",
          "ProblemNo": 3,
          "Kind": 3
        },
        {
          "Start": 210,
          "End": 215,
          "Text": "{明日は忙しいんだ}",
          "Ruby": "明日 wa isogashii nda",
          "Lang": "ja",
          "ProblemNo": 3,
          "Kind": 4
        },
        {
          "Start": 215,
          "End": 218,
          "Text": "{明日は忙しいんだ}",
          "Ruby": "明日 wa isogashii nda",
          "Lang": "ja",
          "ProblemNo": 4,
          "Kind": 1
        },
        {
          "Start": 218,
          "End": 219,
          "Text": "{今は}",
          "Ruby": "ima wa",
          "Lang": "ja",
          "ProblemNo": 4,
          "Kind": 2
        },
        {
          "Start": 219,
          "End": 223,
          "Text": "{今は忙しいんだ}",
          "Ruby": "ima wa isogashii nda",
          "Lang": "ja",
          "ProblemNo": 4,
          "Kind": 3
        },
        {
          "Start": 223,
          "End": 228,
          "Text": "{今は忙しいんだ}",
          "Ruby": "ima wa isogashii nda",
          "Lang": "ja",
          "ProblemNo": 4,
          "Kind": 4
        },
        {
          "Start": 228,
          "End": 231,
          "Text": "{今は忙しいんだ}",
          "Ruby": "ima wa isogashii nda",
          "Lang": "ja",
          "ProblemNo": 5,
          "Kind": 1
        },
        {
          "Start": 231,
          "End": 233,
          "Text": "{忙しくないんだ}",
          "Ruby": "isogashiku nai nda",
          "Lang": "ja",
          "ProblemNo": 5,
          "Kind": 2
        },
        {
          "Start": 233,
          "End": 237,
          "Text": "{今は忙しくないんだ}",
          "Ruby": "ima wa isogashiku nai nda",
          "Lang": "ja",
          "ProblemNo": 5,
          "Kind": 3
        },
        {
          "Start": 237,
          "End": 242,
          "Text": "{今は忙しくないんだ}",
          "Ruby": "ima wa isogashiku nai nda",
          "Lang": "ja",
          "ProblemNo": 5,
          "Kind": 4
        },
        {
          "Start": 242,
          "End": 245,
          "Text": "{今は忙しくないんだ}",
          "Ruby": "ima wa isogashiku nai nda",
          "Lang": "ja",
          "ProblemNo": 6,
          "Kind": 1
        },
        {
          "Start": 245,
          "End": 246,
          "Text": "{明日は}",
          "Ruby": "明日 wa",
          "Lang": "ja",
          "ProblemNo": 6,
          "Kind": 2
        },
        {
          "Start": 246,
          "End": 251,
          "Text": "{明日は忙しくないんだ}",
          "Ruby": "明日 wa isogashiku nai nda",
          "Lang": "ja",
          "ProblemNo": 6,
          "Kind": 3
        },
        {
          "Start": 251,
          "End": 257,
          "Text": "{明日は忙しくないんだ}",
          "Ruby": "明日 wa isogashiku nai nda",
          "Lang": "ja",
          "ProblemNo": 6,
          "Kind": 4
        },
        {
          "Start": 257,
          "End": 261,
          "Text": "{明日は忙しくないんだ}",
          "Ruby": "明日 wa isogashiku nai nda",
          "Lang": "ja",
          "ProblemNo": 7,
          "Kind": 1
        },
        {
          "Start": 261,
          "End": 262,
          "Text": "{去年は}",
          "Ruby": "kyonen wa",
          "Lang": "ja",
          "ProblemNo": 7,
          "Kind": 2
        },
        {
          "Start": 262,
          "End": 267,
          "Text": "{去年は忙しくなかったんだ}",
          "Ruby": "kyonen wa isogashiku nakatta nda",
          "Lang": "ja",
          "ProblemNo": 7,
          "Kind": 3
        },
        {
          "Start": 267,
          "End": 273,
          "Text": "{去年は忙しくなかったんだ}",
          "Ruby": "kyonen wa isogashiku nakatta nda",
          "Lang": "ja",
          "ProblemNo": 7,
          "Kind": 4
        },
        {
          "Start": 273,
          "End": 277,
          "Text": "{去年は忙しくなかったんだ}",
          "Ruby": "kyonen wa isogashiku nakatta nda",
          "Lang": "ja",
          "ProblemNo": 8,
          "Kind": 1
        },
        {
          "Start": 277,
          "End": 279,
          "Text": "{楽しくなかったんだ}",
          "Ruby": "tanoshiku nakatta nda",
          "Lang": "ja",
          "ProblemNo": 8,
          "Kind": 2
        },
        {
          "Start": 279,
          "End": 284,
          "Text": "{去年は楽しくなかったんだ}",
          "Ruby": "kyonen wa tanoshiku nakatta nda",
          "Lang": "ja",
          "ProblemNo": 8,
          "Kind": 3
        },
        {
          "Start": 284,
          "End": 290,
          "Text": "{去年は楽しくなかったんだ}",
          "Ruby": "kyonen wa tanoshiku nakatta nda",
          "Lang": "ja",
          "ProblemNo": 8,
          "Kind": 4
        },
        {
          "Start": 290,
          "End": 294,
          "Text": "{去年は楽しくなかったんだ}",
          "Ruby": "kyonen wa tanoshiku nakatta nda",
          "Lang": "ja",
          "ProblemNo": 9,
          "Kind": 1
        },
        {
          "Start": 294,
          "End": 295,
          "Text": "{明日は}",
          "Ruby": "明日 wa",
          "Lang": "ja",
          "ProblemNo": 9,
          "Kind": 2
        },
        {
          "Start": 295,
          "End": 299,
          "Text": "{明日は楽しくないんだ}",
          "Ruby": "明日 wa tanoshiku nai nda",
          "Lang": "ja",
          "ProblemNo": 9,
          "Kind": 3
        },
        {
          "Start": 299,
          "End": 304,
          "Text": "{明日は楽しくないんだ}",
          "Ruby": "明日 wa tanoshiku nai nda",
          "Lang": "ja",
          "ProblemNo": 9,
          "Kind": 4
        },
        {
          "Start": 304,
          "End": 307,
          "Text": "",
          "Ruby": "",
          "Lang": "",
          "ProblemNo": 0,
          "Kind": 5
        },
        {
          "Start": 307,
          "End": 310,
          "Text": "{今は楽しくないんだ}",
          "Ruby": "ima wa tanoshiku nai nda",
          "Lang": "ja",
          "ProblemNo": 0,
          "Kind": 1
        },
        {
          "Start": 310,
          "End": 312,
          "Text": "{楽しいんだ}",
          "Ruby": "tanoshii nda",
          "Lang": "ja",
          "ProblemNo": 0,
          "Kind": 2
        },
        {
          "Start": 312,
          "End": 316,
          "Text": "{今は楽しいんだ}",
          "Ruby": "ima wa tanoshii nda",
          "Lang": "ja",
          "ProblemNo": 0,
          "Kind": 3
        },
        {
          "Start": 316,
          "End": 321,
          "Text": "{今は楽しいんだ}",
          "Ruby": "ima wa tanoshii nda",
          "Lang": "ja",
          "ProblemNo": 0,
          "Kind": 4
        },
        {
          "Start": 321,
          "End": 324,
          "Text": "{今は楽しいんだ}",
          "Ruby": "ima wa tanoshii nda",
          "Lang": "ja",
          "ProblemNo": 1,
          "Kind": 1
        },
        {
          "Start": 324,
          "End": 325,
          "Text": "{去年は}",
          "Ruby": "kyonen wa",
          "Lang": "ja",
          "ProblemNo": 1,
          "Kind": 2
        },
        {
          "Start": 325,
          "End": 329,
          "Text": "{去年は楽しかったんだ}",
          "Ruby": "kyonen wa tanoshikatta nda",
          "Lang": "ja",
          "ProblemNo": 1,
          "Kind": 3
        },
        {
          "Start": 329,
          "End": 334,
          "Text": "{去年は楽しかったんだ}",
          "Ruby": "kyonen wa tanoshikatta nda",
          "Lang": "ja",
          "ProblemNo": 1,
          "Kind": 4
        },
        {
          "Start": 334,
          "End": 337,
          "Text": "{去年は楽しかったんだ}",
          "Ruby": "kyonen wa tanoshikatta nda",
          "Lang": "ja",
          "ProblemNo": 2,
          "Kind": 1
        },
        {
          "Start": 337,
          "End": 338,
          "Text": "{明日は}",
          "Ruby": "明日 wa",
          "Lang": "ja",
          "ProblemNo": 2,
          "Kind": 2
        },
        {
          "Start": 338,
          "End": 342,
          "Text": "{明日は楽しいんだ}",
          "Ruby": "明日 wa tanoshii nda",
          "Lang": "ja",
          "ProblemNo": 2,
          "Kind": 3
        },
        {
          "Start": 342,
          "End": 347,
          "Text": "{明日は楽しいんだ}",
          "Ruby": "明日 wa tanoshii nda",
          "Lang": "ja",
          "ProblemNo": 2,
          "Kind": 4
        },
        {
          "Start": 347,
          "End": 350,
          "Text": "{明日は楽しいんだ}",
          "Ruby": "明日 wa tanoshii nda",
          "Lang": "ja",
          "ProblemNo": 3,
          "Kind": 1
        },
        {
          "Start": 350,
          "End": 352,
          "Text": "{忙しいんだ}",
          "Ruby": "isogashii nda",
          "Lang": "ja",
          "ProblemNo": 3,
          "Kind": 2
        },
        {
          "Start": 352,
          "End": 356,
          "Text": "{明日は忙しいんだ}",
          "Ruby": "明日 wa isogashii nda",
          "Lang": "ja",
          "ProblemNo": 3,
          "Kind": 3
        },
        {
          "Start": 356,
          "End": 361,
          "Text": "{明日は忙しいんだ}",
          "Ruby": "明日 wa isogashii nda",
          "Lang": "ja",
          "ProblemNo": 3,
          "Kind": 4
        },
        {
          "Start": 361,
          "End": 364,
          "Text": "{明日は忙しいんだ}",
          "Ruby": "明日 wa isogashii nda",
          "Lang": "ja",
          "ProblemNo": 4,
          "Kind": 1
        },
        {
          "Start": 364,
          "End": 365,
          "Text": "{今は}",
          "Ruby": "ima wa",
          "Lang": "ja",
          "ProblemNo": 4,
          "Kind": 2
        },
        {
          "Start": 365,
          "End": 369,
          "Text": "{今は忙しいんだ}",
          "Ruby": "ima wa isogashii nda",
          "Lang": "ja",
          "ProblemNo": 4,
          "Kind": 3
        },
        {
          "Start": 369,
          "End": 374,
          "Text": "{今は忙しいんだ}",
          "Ruby": "ima wa isogashii nda",
          "Lang": "ja",
          "ProblemNo": 4,
          "Kind": 4
        },
        {
          "Start": 374,
          "End": 377,
          "Text": "{今は忙しいんだ}",
          "Ruby": "ima wa isogashii nda",
          "Lang": "ja",
          "ProblemNo": 5,
          "Kind": 1
        },
        {
          "Start": 377,
          "End": 379,
          "Text": "{忙しくないんだ}",
          "Ruby": "isogashiku nai nda",
          "Lang": "ja",
          "ProblemNo": 5,
          "Kind": 2
        },
        {
          "Start": 379,
          "End": 383,
          "Text": "{今は忙しくないんだ}",
          "Ruby": "ima wa isogashiku nai nda",
          "Lang": "ja",
          "ProblemNo": 5,
          "Kind": 3
        },
        {
          "Start": 383,
          "End": 388,
          "Text": "{今は忙しくないんだ}",
          "Ruby": "ima wa isogashiku nai nda",
          "Lang": "ja",
          "ProblemNo": 5,
          "Kind": 4
        },
        {
          "Start": 388,
          "End": 391,
          "Text": "{今は忙しくないんだ}",
          "Ruby": "ima wa isogashiku nai nda",
          "Lang": "ja",
          "ProblemNo": 6,
          "Kind": 1
        },
        {
          "Start": 391,
          "End": 392,
          "Text": "{明日は}",
          "Ruby": "明日 wa",
          "Lang": "ja",
          "ProblemNo": 6,
          "Kind": 2
        },
        {
          "Start": 392,
          "End": 397,
          "Text": "{明日は忙しくないんだ}",
          "Ruby": "明日 wa isogashiku nai nda",
          "Lang": "ja",
          "ProblemNo": 6,
          "Kind": 3
        },
        {
          "Start": 397,
          "End": 403,
          "Text": "{明日は忙しくないんだ}",
          "Ruby": "明日 wa isogashiku nai nda",
          "Lang": "ja",
          "ProblemNo": 6,
          "Kind": 4
        },
        {
          "Start": 403,
          "End": 407,
          "Text": "{明日は忙しくないんだ}",
          "Ruby": "明日 wa isogashiku nai nda",
          "Lang": "ja",
          "ProblemNo": 7,
          "Kind": 1
        },
        {
          "Start": 407,
          "End": 408,
          "Text": "{去年は}",
          "Ruby": "kyonen wa",
          "Lang": "ja",
          "ProblemNo": 7,
          "Kind": 2
        },
        {
          "Start": 408,
          "End": 413,
          "Text": "{去年は忙しくなかったんだ}",
          "Ruby": "kyonen wa isogashiku nakatta nda",
          "Lang": "ja",
          "ProblemNo": 7,
          "Kind": 3
        },
        {
          "Start": 413,
          "End": 419,
          "Text": "{去年は忙しくなかったんだ}",
          "Ruby": "kyonen wa isogashiku nakatta nda",
          "Lang": "ja",
          "ProblemNo": 7,
          "Kind": 4
        },
        {
          "Start": 419,
          "End": 423,
          "Text": "{去年は忙しくなかったんだ}",
          "Ruby": "kyonen wa isogashiku nakatta nda",
          "Lang": "ja",
          "ProblemNo": 8,
          "Kind": 1
        },
        {
          "Start": 423,
          "End": 425,
          "Text": "{楽しくなかったんだ}",
          "Ruby": "tanoshiku nakatta nda",
          "Lang": "ja",
          "ProblemNo": 8,
          "Kind": 2
        },
        {
          "Start": 425,
          "End": 430,
          "Text": "{去年は楽しくなかったんだ}",
          "Ruby": "kyonen wa tanoshiku nakatta nda",
          "Lang": "ja",
          "ProblemNo": 8,
          "Kind": 3
        },
        {
          "Start": 430,
          "End": 436,
          "Text": "{去年は楽しくなかったんだ}",
          "Ruby": "kyonen wa tanoshiku nakatta nda",
          "Lang": "ja",
          "ProblemNo": 8,
          "Kind": 4
        },
        {
          "Start": 436,
          "End": 440,
          "Text": "{去年は楽しくなかったんだ}",
          "Ruby": "kyonen wa tanoshiku nakatta nda",
          "Lang": "ja",
          "ProblemNo": 9,
          "Kind": 1
        },
        {
          "Start": 440,
          "End": 441,
          "Text": "{明日は}",
          "Ruby": "明日 wa",
          "Lang": "ja",
          "ProblemNo": 9,
          "Kind": 2
        },
        {
          "Start": 441,
          "End": 445,
          "Text": "{明日は楽しくないんだ}",
          "Ruby": "明日 wa tanoshiku nai nda",
          "Lang": "ja",
          "ProblemNo": 9,
          "Kind": 3
        },
        {
          "Start": 445,
          "End": 450,
          "Text": "{明日は楽しくないんだ}",
          "Ruby": "明日 wa tanoshiku nai nda",
          "Lang": "ja",
          "ProblemNo": 9,
          "Kind": 4
        },
        {
          "Start": 450,
          "End": 453,
          "Text": "",
          "Ruby": "",
          "Lang": "",
          "ProblemNo": 0,
          "Kind": 5
        },
        {
          "Start": 453,
          "End": 473,
          "Text": "{Please subscribe!}",
          "Ruby": "",
          "Lang": "en",
          "ProblemNo": 0,
          "Kind": 7
        }
      ]
    }
  ],
  "CannotChange": true
}