{
  "SerieName": "grammar-ja-tk",
  "No": 20,
  "VideoTitle": "見る",
  "ThumbnailTitle": "",
  "YoutubeDescription": "{Grammatical explanation}:\n{Tae Kim's Guide to Learning Japanese}\n{http://www.guidetojapanese.org/learn/grammar/past_tense}",
  "YoutubeTitle": "",
  "Boxes": [
    {
      "Pos": 0,
      "PersonName": "x",
      "Candidates": [
        {
          "Word": "明日、",
          "Root": "",
          "FeatureSet": null,
          "Conditions": [
            {
              "Pos": 3,
              "Morphemes": [
                {
                  "Word": "",
                  "Root": "",
                  "FeatureSet": [
                    "current"
                  ]
                }
              ]
            }
          ],
          "PersonConditions": null
        },
        {
          "Word": "昨日、",
          "Root": "",
          "FeatureSet": null,
          "Conditions": [
            {
              "Pos": 3,
              "Morphemes": [
                {
                  "Word": "",
                  "Root": "",
                  "FeatureSet": [
                    "past"
                  ]
                }
              ]
            }
          ],
          "PersonConditions": null
        }
      ]
    },
    {
      "Pos": 1,
      "PersonName": "x",
      "Candidates": [
        {
          "Word": "私",
          "Root": "",
          "FeatureSet": null,
          "Conditions": null,
          "PersonConditions": null
        },
        {
          "Word": "子供",
          "Root": "",
          "FeatureSet": null,
          "Conditions": null,
          "PersonConditions": null
        }
      ]
    },
    {
      "Pos": 2,
      "PersonName": "x",
      "Candidates": [
        {
          "Word": "は",
          "Root": "",
          "FeatureSet": null,
          "Conditions": null,
          "PersonConditions": null
        },
        {
          "Word": "も",
          "Root": "",
          "FeatureSet": null,
          "Conditions": null,
          "PersonConditions": null
        }
      ]
    },
    {
      "Pos": 3,
      "PersonName": "x",
      "Candidates": [
        {
          "Word": "見る",
          "Root": "見る",
          "FeatureSet": [
            "p",
            "current"
          ],
          "Conditions": null,
          "PersonConditions": null
        },
        {
          "Word": "見ない",
          "Root": "見る",
          "FeatureSet": [
            "n",
            "current"
          ],
          "Conditions": null,
          "PersonConditions": null
        },
        {
          "Word": "見た",
          "Root": "見る",
          "FeatureSet": [
            "p",
            "past"
          ],
          "Conditions": null,
          "PersonConditions": null
        },
        {
          "Word": "泳ぐ",
          "Root": "泳ぐ",
          "FeatureSet": [
            "p",
            "current"
          ],
          "Conditions": null,
          "PersonConditions": null
        },
        {
          "Word": "泳いだ",
          "Root": "泳ぐ",
          "FeatureSet": [
            "p",
            "past"
          ],
          "Conditions": null,
          "PersonConditions": null
        }
      ]
    }
  ],
  "Pars": [
    {
      "Header": "",
      "Poses": [
        0,
        1,
        2,
        3
      ]
    }
  ],
  "Exercises": [
    {
      "Name": "A",
      "Problems": [
        {
          "ProblemNo": 0,
          "OriginalCandidates": [
            {
              "Word": "昨日、",
              "Ruby": "sakujitsu,"
            },
            {
              "Word": "私",
              "Ruby": "watashi"
            },
            {
              "Word": "は",
              "Ruby": "wa"
            },
            {
              "Word": "泳いだ",
              "Ruby": "oyoida"
            }
          ],
          "ChangeCandidatePos": 2,
          "ChangeCandidates": [
            {
              "Word": "",
              "Ruby": ""
            },
            {
              "Word": "",
              "Ruby": ""
            },
            {
              "Word": "も",
              "Ruby": "mo"
            },
            {
              "Word": "",
              "Ruby": ""
            }
          ],
          "ChangeMorphemes": [
            {
              "Word": "",
              "Root": "",
              "FeatureSet": null
            },
            {
              "Word": "",
              "Root": "",
              "FeatureSet": null
            },
            {
              "Word": "も",
              "Root": "",
              "FeatureSet": null
            },
            {
              "Word": "",
              "Root": "",
              "FeatureSet": null
            }
          ],
          "AnswerCandidates": [
            {
              "Word": "昨日、",
              "Ruby": "sakujitsu,"
            },
            {
              "Word": "私",
              "Ruby": "watashi"
            },
            {
              "Word": "も",
              "Ruby": "mo"
            },
            {
              "Word": "泳いだ",
              "Ruby": "oyoida"
            }
          ]
        },
        {
          "ProblemNo": 1,
          "OriginalCandidates": [
            {
              "Word": "昨日、",
              "Ruby": "sakujitsu,"
            },
            {
              "Word": "私",
              "Ruby": "watashi"
            },
            {
              "Word": "も",
              "Ruby": "mo"
            },
            {
              "Word": "泳いだ",
              "Ruby": "oyoida"
            }
          ],
          "ChangeCandidatePos": 0,
          "ChangeCandidates": [
            {
              "Word": "明日、",
              "Ruby": "asu,"
            },
            {
              "Word": "",
              "Ruby": ""
            },
            {
              "Word": "",
              "Ruby": ""
            },
            {
              "Word": "泳ぐ",
              "Ruby": "oyogu"
            }
          ],
          "ChangeMorphemes": [
            {
              "Word": "明日、",
              "Root": "",
              "FeatureSet": null
            },
            {
              "Word": "",
              "Root": "",
              "FeatureSet": null
            },
            {
              "Word": "",
              "Root": "",
              "FeatureSet": null
            },
            {
              "Word": "",
              "Root": "",
              "FeatureSet": [
                "current"
              ]
            }
          ],
          "AnswerCandidates": [
            {
              "Word": "明日、",
              "Ruby": "asu,"
            },
            {
              "Word": "私",
              "Ruby": "watashi"
            },
            {
              "Word": "も",
              "Ruby": "mo"
            },
            {
              "Word": "泳ぐ",
              "Ruby": "oyogu"
            }
          ]
        },
        {
          "ProblemNo": 2,
          "OriginalCandidates": [
            {
              "Word": "明日、",
              "Ruby": "asu,"
            },
            {
              "Word": "私",
              "Ruby": "watashi"
            },
            {
              "Word": "も",
              "Ruby": "mo"
            },
            {
              "Word": "泳ぐ",
              "Ruby": "oyogu"
            }
          ],
          "ChangeCandidatePos": 2,
          "ChangeCandidates": [
            {
              "Word": "",
              "Ruby": ""
            },
            {
              "Word": "",
              "Ruby": ""
            },
            {
              "Word": "は",
              "Ruby": "wa"
            },
            {
              "Word": "",
              "Ruby": ""
            }
          ],
          "ChangeMorphemes": [
            {
              "Word": "",
              "Root": "",
              "FeatureSet": null
            },
            {
              "Word": "",
              "Root": "",
              "FeatureSet": null
            },
            {
              "Word": "は",
              "Root": "",
              "FeatureSet": null
            },
            {
              "Word": "",
              "Root": "",
              "FeatureSet": null
            }
          ],
          "AnswerCandidates": [
            {
              "Word": "明日、",
              "Ruby": "asu,"
            },
            {
              "Word": "私",
              "Ruby": "watashi"
            },
            {
              "Word": "は",
              "Ruby": "wa"
            },
            {
              "Word": "泳ぐ",
              "Ruby": "oyogu"
            }
          ]
        },
        {
          "ProblemNo": 3,
          "OriginalCandidates": [
            {
              "Word": "明日、",
              "Ruby": "asu,"
            },
            {
              "Word": "私",
              "Ruby": "watashi"
            },
            {
              "Word": "は",
              "Ruby": "wa"
            },
            {
              "Word": "泳ぐ",
              "Ruby": "oyogu"
            }
          ],
          "ChangeCandidatePos": 3,
          "ChangeCandidates": [
            {
              "Word": "",
              "Ruby": ""
            },
            {
              "Word": "",
              "Ruby": ""
            },
            {
              "Word": "",
              "Ruby": ""
            },
            {
              "Word": "見る",
              "Ruby": "miru"
            }
          ],
          "ChangeMorphemes": [
            {
              "Word": "",
              "Root": "",
              "FeatureSet": null
            },
            {
              "Word": "",
              "Root": "",
              "FeatureSet": null
            },
            {
              "Word": "",
              "Root": "",
              "FeatureSet": null
            },
            {
              "Word": "見る",
              "Root": "見る",
              "FeatureSet": [
                "p",
                "current"
              ]
            }
          ],
          "AnswerCandidates": [
            {
              "Word": "明日、",
              "Ruby": "asu,"
            },
            {
              "Word": "私",
              "Ruby": "watashi"
            },
            {
              "Word": "は",
              "Ruby": "wa"
            },
            {
              "Word": "見る",
              "Ruby": "miru"
            }
          ]
        },
        {
          "ProblemNo": 4,
          "OriginalCandidates": [
            {
              "Word": "明日、",
              "Ruby": "asu,"
            },
            {
              "Word": "私",
              "Ruby": "watashi"
            },
            {
              "Word": "は",
              "Ruby": "wa"
            },
            {
              "Word": "見る",
              "Ruby": "miru"
            }
          ],
          "ChangeCandidatePos": 0,
          "ChangeCandidates": [
            {
              "Word": "昨日、",
              "Ruby": "sakujitsu,"
            },
            {
              "Word": "",
              "Ruby": ""
            },
            {
              "Word": "",
              "Ruby": ""
            },
            {
              "Word": "見た",
              "Ruby": "mita"
            }
          ],
          "ChangeMorphemes": [
            {
              "Word": "昨日、",
              "Root": "",
              "FeatureSet": null
            },
            {
              "Word": "",
              "Root": "",
              "FeatureSet": null
            },
            {
              "Word": "",
              "Root": "",
              "FeatureSet": null
            },
            {
              "Word": "",
              "Root": "",
              "FeatureSet": [
                "past"
              ]
            }
          ],
          "AnswerCandidates": [
            {
              "Word": "昨日、",
              "Ruby": "sakujitsu,"
            },
            {
              "Word": "私",
              "Ruby": "watashi"
            },
            {
              "Word": "は",
              "Ruby": "wa"
            },
            {
              "Word": "見た",
              "Ruby": "mita"
            }
          ]
        },
        {
          "ProblemNo": 5,
          "OriginalCandidates": [
            {
              "Word": "昨日、",
              "Ruby": "sakujitsu,"
            },
            {
              "Word": "私",
              "Ruby": "watashi"
            },
            {
              "Word": "は",
              "Ruby": "wa"
            },
            {
              "Word": "見た",
              "Ruby": "mita"
            }
          ],
          "ChangeCandidatePos": 1,
          "ChangeCandidates": [
            {
              "Word": "",
              "Ruby": ""
            },
            {
              "Word": "子供",
              "Ruby": "kodomo"
            },
            {
              "Word": "",
              "Ruby": ""
            },
            {
              "Word": "",
              "Ruby": ""
            }
          ],
          "ChangeMorphemes": [
            {
              "Word": "",
              "Root": "",
              "FeatureSet": null
            },
            {
              "Word": "子供",
              "Root": "",
              "FeatureSet": null
            },
            {
              "Word": "",
              "Root": "",
              "FeatureSet": null
            },
            {
              "Word": "",
              "Root": "",
              "FeatureSet": null
            }
          ],
          "AnswerCandidates": [
            {
              "Word": "昨日、",
              "Ruby": "sakujitsu,"
            },
            {
              "Word": "子供",
              "Ruby": "kodomo"
            },
            {
              "Word": "は",
              "Ruby": "wa"
            },
            {
              "Word": "見た",
              "Ruby": "mita"
            }
          ]
        },
        {
          "ProblemNo": 6,
          "OriginalCandidates": [
            {
              "Word": "昨日、",
              "Ruby": "sakujitsu,"
            },
            {
              "Word": "子供",
              "Ruby": "kodomo"
            },
            {
              "Word": "は",
              "Ruby": "wa"
            },
            {
              "Word": "見た",
              "Ruby": "mita"
            }
          ],
          "ChangeCandidatePos": 0,
          "ChangeCandidates": [
            {
              "Word": "明日、",
              "Ruby": "asu,"
            },
            {
              "Word": "",
              "Ruby": ""
            },
            {
              "Word": "",
              "Ruby": ""
            },
            {
              "Word": "見る",
              "Ruby": "miru"
            }
          ],
          "ChangeMorphemes": [
            {
              "Word": "明日、",
              "Root": "",
              "FeatureSet": null
            },
            {
              "Word": "",
              "Root": "",
              "FeatureSet": null
            },
            {
              "Word": "",
              "Root": "",
              "FeatureSet": null
            },
            {
              "Word": "",
              "Root": "",
              "FeatureSet": [
                "current"
              ]
            }
          ],
          "AnswerCandidates": [
            {
              "Word": "明日、",
              "Ruby": "asu,"
            },
            {
              "Word": "子供",
              "Ruby": "kodomo"
            },
            {
              "Word": "は",
              "Ruby": "wa"
            },
            {
              "Word": "見る",
              "Ruby": "miru"
            }
          ]
        },
        {
          "ProblemNo": 7,
          "OriginalCandidates": [
            {
              "Word": "明日、",
              "Ruby": "asu,"
            },
            {
              "Word": "子供",
              "Ruby": "kodomo"
            },
            {
              "Word": "は",
              "Ruby": "wa"
            },
            {
              "Word": "見る",
              "Ruby": "miru"
            }
          ],
          "ChangeCandidatePos": 3,
          "ChangeCandidates": [
            {
              "Word": "",
              "Ruby": ""
            },
            {
              "Word": "",
              "Ruby": ""
            },
            {
              "Word": "",
              "Ruby": ""
            },
            {
              "Word": "見ない",
              "Ruby": "mi nai"
            }
          ],
          "ChangeMorphemes": [
            {
              "Word": "",
              "Root": "",
              "FeatureSet": null
            },
            {
              "Word": "",
              "Root": "",
              "FeatureSet": null
            },
            {
              "Word": "",
              "Root": "",
              "FeatureSet": null
            },
            {
              "Word": "見ない",
              "Root": "見る",
              "FeatureSet": [
                "n",
                "current"
              ]
            }
          ],
          "AnswerCandidates": [
            {
              "Word": "明日、",
              "Ruby": "asu,"
            },
            {
              "Word": "子供",
              "Ruby": "kodomo"
            },
            {
              "Word": "は",
              "Ruby": "wa"
            },
            {
              "Word": "見ない",
              "Ruby": "mi nai"
            }
          ]
        },
        {
          "ProblemNo": 8,
          "OriginalCandidates": [
            {
              "Word": "明日、",
              "Ruby": "asu,"
            },
            {
              "Word": "子供",
              "Ruby": "kodomo"
            },
            {
              "Word": "は",
              "Ruby": "wa"
            },
            {
              "Word": "見ない",
              "Ruby": "mi nai"
            }
          ],
          "ChangeCandidatePos": 2,
          "ChangeCandidates": [
            {
              "Word": "",
              "Ruby": ""
            },
            {
              "Word": "",
              "Ruby": ""
            },
            {
              "Word": "も",
              "Ruby": "mo"
            },
            {
              "Word": "",
              "Ruby": ""
            }
          ],
          "ChangeMorphemes": [
            {
              "Word": "",
              "Root": "",
              "FeatureSet": null
            },
            {
              "Word": "",
              "Root": "",
              "FeatureSet": null
            },
            {
              "Word": "も",
              "Root": "",
              "FeatureSet": null
            },
            {
              "Word": "",
              "Root": "",
              "FeatureSet": null
            }
          ],
          "AnswerCandidates": [
            {
              "Word": "明日、",
              "Ruby": "asu,"
            },
            {
              "Word": "子供",
              "Ruby": "kodomo"
            },
            {
              "Word": "も",
              "Ruby": "mo"
            },
            {
              "Word": "見ない",
              "Ruby": "mi nai"
            }
          ]
        },
        {
          "ProblemNo": 9,
          "OriginalCandidates": [
            {
              "Word": "明日、",
              "Ruby": "asu,"
            },
            {
              "Word": "子供",
              "Ruby": "kodomo"
            },
            {
              "Word": "も",
              "Ruby": "mo"
            },
            {
              "Word": "見ない",
              "Ruby": "mi nai"
            }
          ],
          "ChangeCandidatePos": 3,
          "ChangeCandidates": [
            {
              "Word": "",
              "Ruby": ""
            },
            {
              "Word": "",
              "Ruby": ""
            },
            {
              "Word": "",
              "Ruby": ""
            },
            {
              "Word": "見る",
              "Ruby": "miru"
            }
          ],
          "ChangeMorphemes": [
            {
              "Word": "",
              "Root": "",
              "FeatureSet": null
            },
            {
              "Word": "",
              "Root": "",
              "FeatureSet": null
            },
            {
              "Word": "",
              "Root": "",
              "FeatureSet": null
            },
            {
              "Word": "見る",
              "Root": "見る",
              "FeatureSet": [
                "p",
                "current"
              ]
            }
          ],
          "AnswerCandidates": [
            {
              "Word": "明日、",
              "Ruby": "asu,"
            },
            {
              "Word": "子供",
              "Ruby": "kodomo"
            },
            {
              "Word": "も",
              "Ruby": "mo"
            },
            {
              "Word": "見る",
              "Ruby": "miru"
            }
          ]
        }
      ],
      "VideoFile": "grammar-ja-tk_20_A.mp4",
      "AnimeticCaptions": [
        {
          "Start": 0,
          "End": 3,
          "Text": "Japanese grammar exercises #20 見る",
          "Ruby": "",
          "Lang": "",
          "ProblemNo": 0,
          "Kind": 0
        },
        {
          "Start": 3,
          "End": 7,
          "Text": "{昨日、私は泳いだ}",
          "Ruby": "sakujitsu, watashi wa oyoida",
          "Lang": "ja",
          "ProblemNo": 0,
          "Kind": 1
        },
        {
          "Start": 7,
          "End": 8,
          "Text": "{も}",
          "Ruby": "mo",
          "Lang": "ja",
          "ProblemNo": 0,
          "Kind": 2
        },
        {
          "Start": 8,
          "End": 13,
          "Text": "{昨日、私も泳いだ}",
          "Ruby": "sakujitsu, watashi mo oyoida",
          "Lang": "ja",
          "ProblemNo": 0,
          "Kind": 3
        },
        {
          "Start": 13,
          "End": 19,
          "Text": "{昨日、私も泳いだ}",
          "Ruby": "sakujitsu, watashi mo oyoida",
          "Lang": "ja",
          "ProblemNo": 0,
          "Kind": 4
        },
        {
          "Start": 19,
          "End": 23,
          "Text": "{昨日、私も泳いだ}",
          "Ruby": "sakujitsu, watashi mo oyoida",
          "Lang": "ja",
          "ProblemNo": 1,
          "Kind": 1
        },
        {
          "Start": 23,
          "End": 24,
          "Text": "{明日、}",
          "Ruby": "asu,",
          "Lang": "ja",
          "ProblemNo": 1,
          "Kind": 2
        },
        {
          "Start": 24,
          "End": 25,
          "Text": "{泳ぐ}",
          "Ruby": "oyogu",
          "Lang": "ja",
          "ProblemNo": 1,
          "Kind": 2
        },
        {
          "Start": 25,
          "End": 30,
          "Text": "{明日、私も泳ぐ}",
          "Ruby": "asu, watashi mo oyogu",
          "Lang": "ja",
          "ProblemNo": 1,
          "Kind": 3
        },
        {
          "Start": 30,
          "End": 36,
          "Text": "{明日、私も泳ぐ}",
          "Ruby": "asu, watashi mo oyogu",
          "Lang": "ja",
          "ProblemNo": 1,
          "Kind": 4
        },
        {
          "Start": 36,
          "End": 40,
          "Text": "{明日、私も泳ぐ}",
          "Ruby": "asu, watashi mo oyogu",
          "Lang": "ja",
          "ProblemNo": 2,
          "Kind": 1
        },
        {
          "Start": 40,
          "End": 41,
          "Text": "{は}",
          "Ruby": "wa",
          "Lang": "ja",
          "ProblemNo": 2,
          "Kind": 2
        },
        {
          "Start": 41,
          "End": 46,
          "Text": "{明日、私は泳ぐ}",
          "Ruby": "asu, watashi wa oyogu",
          "Lang": "ja",
          "ProblemNo": 2,
          "Kind": 3
        },
        {
          "Start": 46,
          "End": 52,
          "Text": "{明日、私は泳ぐ}",
          "Ruby": "asu, watashi wa oyogu",
          "Lang": "ja",
          "ProblemNo": 2,
          "Kind": 4
        },
        {
          "Start": 52,
          "End": 56,
          "Text": "{明日、私は泳ぐ}",
          "Ruby": "asu, watashi wa oyogu",
          "Lang": "ja",
          "ProblemNo": 3,
          "Kind": 1
        },
        {
          "Start": 56,
          "End": 57,
          "Text": "{見る}",
          "Ruby": "miru",
          "Lang": "ja",
          "ProblemNo": 3,
          "Kind": 2
        },
        {
          "Start": 57,
          "End": 61,
          "Text": "{明日、私は見る}",
          "Ruby": "asu, watashi wa miru",
          "Lang": "ja",
          "ProblemNo": 3,
          "Kind": 3
        },
        {
          "Start": 61,
          "End": 66,
          "Text": "{明日、私は見る}",
          "Ruby": "asu, watashi wa miru",
          "Lang": "ja",
          "ProblemNo": 3,
          "Kind": 4
        },
        {
          "Start": 66,
          "End": 69,
          "Text": "{明日、私は見る}",
          "Ruby": "asu, watashi wa miru",
          "Lang": "ja",
          "ProblemNo": 4,
          "Kind": 1
        },
        {
          "Start": 69,
          "End": 70,
          "Text": "{昨日、}",
          "Ruby": "sakujitsu,",
          "Lang": "ja",
          "ProblemNo": 4,
          "Kind": 2
        },
        {
          "Start": 70,
          "End": 71,
          "Text": "{見た}",
          "Ruby": "mita",
          "Lang": "ja",
          "ProblemNo": 4,
          "Kind": 2
        },
        {
          "Start": 71,
          "End": 75,
          "Text": "{昨日、私は見た}",
          "Ruby": "sakujitsu, watashi wa mita",
          "Lang": "ja",
          "ProblemNo": 4,
          "Kind": 3
        },
        {
          "Start": 75,
          "End": 80,
          "Text": "{昨日、私は見た}",
          "Ruby": "sakujitsu, watashi wa mita",
          "Lang": "ja",
          "ProblemNo": 4,
          "Kind": 4
        },
        {
          "Start": 80,
          "End": 83,
          "Text": "{昨日、私は見た}",
          "Ruby": "sakujitsu, watashi wa mita",
          "Lang": "ja",
          "ProblemNo": 5,
          "Kind": 1
        },
        {
          "Start": 83,
          "End": 84,
          "Text": "{子供}",
          "Ruby": "kodomo",
          "Lang": "ja",
          "ProblemNo": 5,
          "Kind": 2
        },
        {
          "Start": 84,
          "End": 88,
          "Text": "{昨日、子供は見た}",
          "Ruby": "sakujitsu, kodomo wa mita",
          "Lang": "ja",
          "ProblemNo": 5,
          "Kind": 3
        },
        {
          "Start": 88,
          "End": 93,
          "Text": "{昨日、子供は見た}",
          "Ruby": "sakujitsu, kodomo wa mita",
          "Lang": "ja",
          "ProblemNo": 5,
          "Kind": 4
        },
        {
          "Start": 93,
          "End": 96,
          "Text": "{昨日、子供は見た}",
          "Ruby": "sakujitsu, kodomo wa mita",
          "Lang": "ja",
          "ProblemNo": 6,
          "Kind": 1
        },
        {
          "Start": 96,
          "End": 97,
          "Text": "{明日、}",
          "Ruby": "asu,",
          "Lang": "ja",
          "ProblemNo": 6,
          "Kind": 2
        },
        {
          "Start": 97,
          "End": 98,
          "Text": "{見る}",
          "Ruby": "miru",
          "Lang": "ja",
          "ProblemNo": 6,
          "Kind": 2
        },
        {
          "Start": 98,
          "End": 102,
          "Text": "{明日、子供は見る}",
          "Ruby": "asu, kodomo wa miru",
          "Lang": "ja",
          "ProblemNo": 6,
          "Kind": 3
        },
        {
          "Start": 102,
          "End": 107,
          "Text": "{明日、子供は見る}",
          "Ruby": "asu, kodomo wa miru",
          "Lang": "ja",
          "ProblemNo": 6,
          "Kind": 4
        },
        {
          "Start": 107,
          "End": 110,
          "Text": "{明日、子供は見る}",
          "Ruby": "asu, kodomo wa miru",
          "Lang": "ja",
          "ProblemNo": 7,
          "Kind": 1
        },
        {
          "Start": 110,
          "End": 111,
          "Text": "{見ない}",
          "Ruby": "mi nai",
          "Lang": "ja",
          "ProblemNo": 7,
          "Kind": 2
        },
        {
          "Start": 111,
          "End": 115,
          "Text": "{明日、子供は見ない}",
          "Ruby": "asu, kodomo wa mi nai",
          "Lang": "ja",
          "ProblemNo": 7,
          "Kind": 3
        },
        {
          "Start": 115,
          "End": 120,
          "Text": "{明日、子供は見ない}",
          "Ruby": "asu, kodomo wa mi nai",
          "Lang": "ja",
          "ProblemNo": 7,
          "Kind": 4
        },
        {
          "Start": 120,
          "End": 123,
          "Text": "{明日、子供は見ない}",
          "Ruby": "asu, kodomo wa mi nai",
          "Lang": "ja",
          "ProblemNo": 8,
          "Kind": 1
        },
        {
          "Start": 123,
          "End": 124,
          "Text": "{も}",
          "Ruby": "mo",
          "Lang": "ja",
          "ProblemNo": 8,
          "Kind": 2
        },
        {
          "Start": 124,
          "End": 128,
          "Text": "{明日、子供も見ない}",
          "Ruby": "asu, kodomo mo mi nai",
          "Lang": "ja",
          "ProblemNo": 8,
          "Kind": 3
        },
        {
          "Start": 128,
          "End": 133,
          "Text": "{明日、子供も見ない}",
          "Ruby": "asu, kodomo mo mi nai",
          "Lang": "ja",
          "ProblemNo": 8,
          "Kind": 4
        },
        {
          "Start": 133,
          "End": 136,
          "Text": "{明日、子供も見ない}",
          "Ruby": "asu, kodomo mo mi nai",
          "Lang": "ja",
          "ProblemNo": 9,
          "Kind": 1
        },
        {
          "Start": 136,
          "End": 137,
          "Text": "{見る}",
          "Ruby": "miru",
          "Lang": "ja",
          "ProblemNo": 9,
          "Kind": 2
        },
        {
          "Start": 137,
          "End": 141,
          "Text": "{明日、子供も見る}",
          "Ruby": "asu, kodomo mo miru",
          "Lang": "ja",
          "ProblemNo": 9,
          "Kind": 3
        },
        {
          "Start": 141,
          "End": 146,
          "Text": "{明日、子供も見る}",
          "Ruby": "asu, kodomo mo miru",
          "Lang": "ja",
          "ProblemNo": 9,
          "Kind": 4
        },
        {
          "Start": 146,
          "End": 149,
          "Text": "",
          "Ruby": "",
          "Lang": "",
          "ProblemNo": 0,
          "Kind": 5
        },
        {
          "Start": 149,
          "End": 153,
          "Text": "{昨日、私は泳いだ}",
          "Ruby": "sakujitsu, watashi wa oyoida",
          "Lang": "ja",
          "ProblemNo": 0,
          "Kind": 1
        },
        {
          "Start": 153,
          "End": 154,
          "Text": "{も}",
          "Ruby": "mo",
          "Lang": "ja",
          "ProblemNo": 0,
          "Kind": 2
        },
        {
          "Start": 154,
          "End": 159,
          "Text": "{昨日、私も泳いだ}",
          "Ruby": "sakujitsu, watashi mo oyoida",
          "Lang": "ja",
          "ProblemNo": 0,
          "Kind": 3
        },
        {
          "Start": 159,
          "End": 165,
          "Text": "{昨日、私も泳いだ}",
          "Ruby": "sakujitsu, watashi mo oyoida",
          "Lang": "ja",
          "ProblemNo": 0,
          "Kind": 4
        },
        {
          "Start": 165,
          "End": 169,
          "Text": "{昨日、私も泳いだ}",
          "Ruby": "sakujitsu, watashi mo oyoida",
          "Lang": "ja",
          "ProblemNo": 1,
          "Kind": 1
        },
        {
          "Start": 169,
          "End": 170,
          "Text": "{明日、}",
          "Ruby": "asu,",
          "Lang": "ja",
          "ProblemNo": 1,
          "Kind": 2
        },
        {
          "Start": 170,
          "End": 175,
          "Text": "{明日、私も泳ぐ}",
          "Ruby": "asu, watashi mo oyogu",
          "Lang": "ja",
          "ProblemNo": 1,
          "Kind": 3
        },
        {
          "Start": 175,
          "End": 181,
          "Text": "{明日、私も泳ぐ}",
          "Ruby": "asu, watashi mo oyogu",
          "Lang": "ja",
          "ProblemNo": 1,
          "Kind": 4
        },
        {
          "Start": 181,
          "End": 185,
          "Text": "{明日、私も泳ぐ}",
          "Ruby": "asu, watashi mo oyogu",
          "Lang": "ja",
          "ProblemNo": 2,
          "Kind": 1
        },
        {
          "Start": 185,
          "End": 186,
          "Text": "{は}",
          "Ruby": "wa",
          "Lang": "ja",
          "ProblemNo": 2,
          "Kind": 2
        },
        {
          "Start": 186,
          "End": 191,
          "Text": "{明日、私は泳ぐ}",
          "Ruby": "asu, watashi wa oyogu",
          "Lang": "ja",
          "ProblemNo": 2,
          "Kind": 3
        },
        {
          "Start": 191,
          "End": 197,
          "Text": "{明日、私は泳ぐ}",
          "Ruby": "asu, watashi wa oyogu",
          "Lang": "ja",
          "ProblemNo": 2,
          "Kind": 4
        },
        {
          "Start": 197,
          "End": 201,
          "Text": "{明日、私は泳ぐ}",
          "Ruby": "asu, watashi wa oyogu",
          "Lang": "ja",
          "ProblemNo": 3,
          "Kind": 1
        },
        {
          "Start": 201,
          "End": 202,
          "Text": "{見る}",
          "Ruby": "miru",
          "Lang": "ja",
          "ProblemNo": 3,
          "Kind": 2
        },
        {
          "Start": 202,
          "End": 206,
          "Text": "{明日、私は見る}",
          "Ruby": "asu, watashi wa miru",
          "Lang": "ja",
          "ProblemNo": 3,
          "Kind": 3
        },
        {
          "Start": 206,
          "End": 211,
          "Text": "{明日、私は見る}",
          "Ruby": "asu, watashi wa miru",
          "Lang": "ja",
          "ProblemNo": 3,
          "Kind": 4
        },
        {
          "Start": 211,
          "End": 214,
          "Text": "{明日、私は見る}",
          "Ruby": "asu, watashi wa miru",
          "Lang": "ja",
          "ProblemNo": 4,
          "Kind": 1
        },
        {
          "Start": 214,
          "End": 215,
          "Text": "{昨日、}",
          "Ruby": "sakujitsu,",
          "Lang": "ja",
          "ProblemNo": 4,
          "Kind": 2
        },
        {
          "Start": 215,
          "End": 219,
          "Text": "{昨日、私は見た}",
          "Ruby": "sakujitsu, watashi wa mita",
          "Lang": "ja",
          "ProblemNo": 4,
          "Kind": 3
        },
        {
          "Start": 219,
          "End": 224,
          "Text": "{昨日、私は見た}",
          "Ruby": "sakujitsu, watashi wa mita",
          "Lang": "ja",
          "ProblemNo": 4,
          "Kind": 4
        },
        {
          "Start": 224,
          "End": 227,
          "Text": "{昨日、私は見た}",
          "Ruby": "sakujitsu, watashi wa mita",
          "Lang": "ja",
          "ProblemNo": 5,
          "Kind": 1
        },
        {
          "Start": 227,
          "End": 228,
          "Text": "{子供}",
          "Ruby": "kodomo",
          "Lang": "ja",
          "ProblemNo": 5,
          "Kind": 2
        },
        {
          "Start": 228,
          "End": 232,
          "Text": "{昨日、子供は見た}",
          "Ruby": "sakujitsu, kodomo wa mita",
          "Lang": "ja",
          "ProblemNo": 5,
          "Kind": 3
        },
        {
          "Start": 232,
          "End": 237,
          "Text": "{昨日、子供は見た}",
          "Ruby": "sakujitsu, kodomo wa mita",
          "Lang": "ja",
          "ProblemNo": 5,
          "Kind": 4
        },
        {
          "Start": 237,
          "End": 240,
          "Text": "{昨日、子供は見た}",
          "Ruby": "sakujitsu, kodomo wa mita",
          "Lang": "ja",
          "ProblemNo": 6,
          "Kind": 1
        },
        {
          "Start": 240,
          "End": 241,
          "Text": "{明日、}",
          "Ruby": "asu,",
          "Lang": "ja",
          "ProblemNo": 6,
          "Kind": 2
        },
        {
          "Start": 241,
          "End": 245,
          "Text": "{明日、子供は見る}",
          "Ruby": "asu, kodomo wa miru",
          "Lang": "ja",
          "ProblemNo": 6,
          "Kind": 3
        },
        {
          "Start": 245,
          "End": 250,
          "Text": "{明日、子供は見る}",
          "Ruby": "asu, kodomo wa miru",
          "Lang": "ja",
          "ProblemNo": 6,
          "Kind": 4
        },
        {
          "Start": 250,
          "End": 253,
          "Text": "{明日、子供は見る}",
          "Ruby": "asu, kodomo wa miru",
          "Lang": "ja",
          "ProblemNo": 7,
          "Kind": 1
        },
        {
          "Start": 253,
          "End": 254,
          "Text": "{見ない}",
          "Ruby": "mi nai",
          "Lang": "ja",
          "ProblemNo": 7,
          "Kind": 2
        },
        {
          "Start": 254,
          "End": 258,
          "Text": "{明日、子供は見ない}",
          "Ruby": "asu, kodomo wa mi nai",
          "Lang": "ja",
          "ProblemNo": 7,
          "Kind": 3
        },
        {
          "Start": 258,
          "End": 263,
          "Text": "{明日、子供は見ない}",
          "Ruby": "asu, kodomo wa mi nai",
          "Lang": "ja",
          "ProblemNo": 7,
          "Kind": 4
        },
        {
          "Start": 263,
          "End": 266,
          "Text": "{明日、子供は見ない}",
          "Ruby": "asu, kodomo wa mi nai",
          "Lang": "ja",
          "ProblemNo": 8,
          "Kind": 1
        },
        {
          "Start": 266,
          "End": 267,
          "Text": "{も}",
          "Ruby": "mo",
          "Lang": "ja",
          "ProblemNo": 8,
          "Kind": 2
        },
        {
          "Start": 267,
          "End": 271,
          "Text": "{明日、子供も見ない}",
          "Ruby": "asu, kodomo mo mi nai",
          "Lang": "ja",
          "ProblemNo": 8,
          "Kind": 3
        },
        {
          "Start": 271,
          "End": 276,
          "Text": "{明日、子供も見ない}",
          "Ruby": "asu, kodomo mo mi nai",
          "Lang": "ja",
          "ProblemNo": 8,
          "Kind": 4
        },
        {
          "Start": 276,
          "End": 279,
          "Text": "{明日、子供も見ない}",
          "Ruby": "asu, kodomo mo mi nai",
          "Lang": "ja",
          "ProblemNo": 9,
          "Kind": 1
        },
        {
          "Start": 279,
          "End": 280,
          "Text": "{見る}",
          "Ruby": "miru",
          "Lang": "ja",
          "ProblemNo": 9,
          "Kind": 2
        },
        {
          "Start": 280,
          "End": 284,
          "Text": "{明日、子供も見る}",
          "Ruby": "asu, kodomo mo miru",
          "Lang": "ja",
          "ProblemNo": 9,
          "Kind": 3
        },
        {
          "Start": 284,
          "End": 289,
          "Text": "{明日、子供も見る}",
          "Ruby": "asu, kodomo mo miru",
          "Lang": "ja",
          "ProblemNo": 9,
          "Kind": 4
        },
        {
          "Start": 289,
          "End": 292,
          "Text": "",
          "Ruby": "",
          "Lang": "",
          "ProblemNo": 0,
          "Kind": 5
        },
        {
          "Start": 292,
          "End": 296,
          "Text": "{昨日、私は泳いだ}",
          "Ruby": "sakujitsu, watashi wa oyoida",
          "Lang": "ja",
          "ProblemNo": 0,
          "Kind": 1
        },
        {
          "Start": 296,
          "End": 297,
          "Text": "{も}",
          "Ruby": "mo",
          "Lang": "ja",
          "ProblemNo": 0,
          "Kind": 2
        },
        {
          "Start": 297,
          "End": 302,
          "Text": "{昨日、私も泳いだ}",
          "Ruby": "sakujitsu, watashi mo oyoida",
          "Lang": "ja",
          "ProblemNo": 0,
          "Kind": 3
        },
        {
          "Start": 302,
          "End": 308,
          "Text": "{昨日、私も泳いだ}",
          "Ruby": "sakujitsu, watashi mo oyoida",
          "Lang": "ja",
          "ProblemNo": 0,
          "Kind": 4
        },
        {
          "Start": 308,
          "End": 312,
          "Text": "{昨日、私も泳いだ}",
          "Ruby": "sakujitsu, watashi mo oyoida",
          "Lang": "ja",
          "ProblemNo": 1,
          "Kind": 1
        },
        {
          "Start": 312,
          "End": 313,
          "Text": "{明日、}",
          "Ruby": "asu,",
          "Lang": "ja",
          "ProblemNo": 1,
          "Kind": 2
        },
        {
          "Start": 313,
          "End": 318,
          "Text": "{明日、私も泳ぐ}",
          "Ruby": "asu, watashi mo oyogu",
          "Lang": "ja",
          "ProblemNo": 1,
          "Kind": 3
        },
        {
          "Start": 318,
          "End": 324,
          "Text": "{明日、私も泳ぐ}",
          "Ruby": "asu, watashi mo oyogu",
          "Lang": "ja",
          "ProblemNo": 1,
          "Kind": 4
        },
        {
          "Start": 324,
          "End": 328,
          "Text": "{明日、私も泳ぐ}",
          "Ruby": "asu, watashi mo oyogu",
          "Lang": "ja",
          "ProblemNo": 2,
          "Kind": 1
        },
        {
          "Start": 328,
          "End": 329,
          "Text": "{は}",
          "Ruby": "wa",
          "Lang": "ja",
          "ProblemNo": 2,
          "Kind": 2
        },
        {
          "Start": 329,
          "End": 334,
          "Text": "{明日、私は泳ぐ}",
          "Ruby": "asu, watashi wa oyogu",
          "Lang": "ja",
          "ProblemNo": 2,
          "Kind": 3
        },
        {
          "Start": 334,
          "End": 340,
          "Text": "{明日、私は泳ぐ}",
          "Ruby": "asu, watashi wa oyogu",
          "Lang": "ja",
          "ProblemNo": 2,
          "Kind": 4
        },
        {
          "Start": 340,
          "End": 344,
          "Text": "{明日、私は泳ぐ}",
          "Ruby": "asu, watashi wa oyogu",
          "Lang": "ja",
          "ProblemNo": 3,
          "Kind": 1
        },
        {
          "Start": 344,
          "End": 345,
          "Text": "{見る}",
          "Ruby": "miru",
          "Lang": "ja",
          "ProblemNo": 3,
          "Kind": 2
        },
        {
          "Start": 345,
          "End": 349,
          "Text": "{明日、私は見る}",
          "Ruby": "asu, watashi wa miru",
          "Lang": "ja",
          "ProblemNo": 3,
          "Kind": 3
        },
        {
          "Start": 349,
          "End": 354,
          "Text": "{明日、私は見る}",
          "Ruby": "asu, watashi wa miru",
          "Lang": "ja",
          "ProblemNo": 3,
          "Kind": 4
        },
        {
          "Start": 354,
          "End": 357,
          "Text": "{明日、私は見る}",
          "Ruby": "asu, watashi wa miru",
          "Lang": "ja",
          "ProblemNo": 4,
          "Kind": 1
        },
        {
          "Start": 357,
          "End": 358,
          "Text": "{昨日、}",
          "Ruby": "sakujitsu,",
          "Lang": "ja",
          "ProblemNo": 4,
          "Kind": 2
        },
        {
          "Start": 358,
          "End": 362,
          "Text": "{昨日、私は見た}",
          "Ruby": "sakujitsu, watashi wa mita",
          "Lang": "ja",
          "ProblemNo": 4,
          "Kind": 3
        },
        {
          "Start": 362,
          "End": 367,
          "Text": "{昨日、私は見た}",
          "Ruby": "sakujitsu, watashi wa mita",
          "Lang": "ja",
          "ProblemNo": 4,
          "Kind": 4
        },
        {
          "Start": 367,
          "End": 370,
          "Text": "{昨日、私は見た}",
          "Ruby": "sakujitsu, watashi wa mita",
          "Lang": "ja",
          "ProblemNo": 5,
          "Kind": 1
        },
        {
          "Start": 370,
          "End": 371,
          "Text": "{子供}",
          "Ruby": "kodomo",
          "Lang": "ja",
          "ProblemNo": 5,
          "Kind": 2
        },
        {
          "Start": 371,
          "End": 375,
          "Text": "{昨日、子供は見た}",
          "Ruby": "sakujitsu, kodomo wa mita",
          "Lang": "ja",
          "ProblemNo": 5,
          "Kind": 3
        },
        {
          "Start": 375,
          "End": 380,
          "Text": "{昨日、子供は見た}",
          "Ruby": "sakujitsu, kodomo wa mita",
          "Lang": "ja",
          "ProblemNo": 5,
          "Kind": 4
        },
        {
          "Start": 380,
          "End": 383,
          "Text": "{昨日、子供は見た}",
          "Ruby": "sakujitsu, kodomo wa mita",
          "Lang": "ja",
          "ProblemNo": 6,
          "Kind": 1
        },
        {
          "Start": 383,
          "End": 384,
          "Text": "{明日、}",
          "Ruby": "asu,",
          "Lang": "ja",
          "ProblemNo": 6,
          "Kind": 2
        },
        {
          "Start": 384,
          "End": 388,
          "Text": "{明日、子供は見る}",
          "Ruby": "asu, kodomo wa miru",
          "Lang": "ja",
          "ProblemNo": 6,
          "Kind": 3
        },
        {
          "Start": 388,
          "End": 393,
          "Text": "{明日、子供は見る}",
          "Ruby": "asu, kodomo wa miru",
          "Lang": "ja",
          "ProblemNo": 6,
          "Kind": 4
        },
        {
          "Start": 393,
          "End": 396,
          "Text": "{明日、子供は見る}",
          "Ruby": "asu, kodomo wa miru",
          "Lang": "ja",
          "ProblemNo": 7,
          "Kind": 1
        },
        {
          "Start": 396,
          "End": 397,
          "Text": "{見ない}",
          "Ruby": "mi nai",
          "Lang": "ja",
          "ProblemNo": 7,
          "Kind": 2
        },
        {
          "Start": 397,
          "End": 401,
          "Text": "{明日、子供は見ない}",
          "Ruby": "asu, kodomo wa mi nai",
          "Lang": "ja",
          "ProblemNo": 7,
          "Kind": 3
        },
        {
          "Start": 401,
          "End": 406,
          "Text": "{明日、子供は見ない}",
          "Ruby": "asu, kodomo wa mi nai",
          "Lang": "ja",
          "ProblemNo": 7,
          "Kind": 4
        },
        {
          "Start": 406,
          "End": 409,
          "Text": "{明日、子供は見ない}",
          "Ruby": "asu, kodomo wa mi nai",
          "Lang": "ja",
          "ProblemNo": 8,
          "Kind": 1
        },
        {
          "Start": 409,
          "End": 410,
          "Text": "{も}",
          "Ruby": "mo",
          "Lang": "ja",
          "ProblemNo": 8,
          "Kind": 2
        },
        {
          "Start": 410,
          "End": 414,
          "Text": "{明日、子供も見ない}",
          "Ruby": "asu, kodomo mo mi nai",
          "Lang": "ja",
          "ProblemNo": 8,
          "Kind": 3
        },
        {
          "Start": 414,
          "End": 419,
          "Text": "{明日、子供も見ない}",
          "Ruby": "asu, kodomo mo mi nai",
          "Lang": "ja",
          "ProblemNo": 8,
          "Kind": 4
        },
        {
          "Start": 419,
          "End": 422,
          "Text": "{明日、子供も見ない}",
          "Ruby": "asu, kodomo mo mi nai",
          "Lang": "ja",
          "ProblemNo": 9,
          "Kind": 1
        },
        {
          "Start": 422,
          "End": 423,
          "Text": "{見る}",
          "Ruby": "miru",
          "Lang": "ja",
          "ProblemNo": 9,
          "Kind": 2
        },
        {
          "Start": 423,
          "End": 427,
          "Text": "{明日、子供も見る}",
          "Ruby": "asu, kodomo mo miru",
          "Lang": "ja",
          "ProblemNo": 9,
          "Kind": 3
        },
        {
          "Start": 427,
          "End": 432,
          "Text": "{明日、子供も見る}",
          "Ruby": "asu, kodomo mo miru",
          "Lang": "ja",
          "ProblemNo": 9,
          "Kind": 4
        },
        {
          "Start": 432,
          "End": 435,
          "Text": "",
          "Ruby": "",
          "Lang": "",
          "ProblemNo": 0,
          "Kind": 5
        },
        {
          "Start": 435,
          "End": 455,
          "Text": "{Please subscribe!}",
          "Ruby": "",
          "Lang": "en",
          "ProblemNo": 0,
          "Kind": 7
        }
      ]
    }
  ],
  "CannotChange": true
}