{
  "SerieName": "grammar-ja-tk",
  "No": 18,
  "VideoTitle": "「行かない」「行かなかった」",
  "ThumbnailTitle": "かない",
  "YoutubeDescription": "{Grammatical explanation}:\n{Tae Kim's Guide to Learning Japanese}\n{http://www.guidetojapanese.org/learn/grammar/past_tense}",
  "YoutubeTitle": "",
  "Boxes": [
    {
      "Pos": 0,
      "PersonName": "y",
      "Candidates": [
        {
          "Word": "明日、",
          "Root": "",
          "FeatureSet": null,
          "Conditions": [
            {
              "Pos": 3,
              "Morphemes": [
                {
                  "Word": "",
                  "Root": "",
                  "FeatureSet": [
                    "current"
                  ]
                }
              ]
            }
          ],
          "PersonConditions": null
        },
        {
          "Word": "昨日、",
          "Root": "",
          "FeatureSet": null,
          "Conditions": [
            {
              "Pos": 3,
              "Morphemes": [
                {
                  "Word": "",
                  "Root": "",
                  "FeatureSet": [
                    "past"
                  ]
                }
              ]
            }
          ],
          "PersonConditions": null
        }
      ]
    },
    {
      "Pos": 1,
      "PersonName": "y",
      "Candidates": [
        {
          "Word": "ボブ",
          "Root": "",
          "FeatureSet": null,
          "Conditions": null,
          "PersonConditions": null
        },
        {
          "Word": "私",
          "Root": "",
          "FeatureSet": null,
          "Conditions": null,
          "PersonConditions": null
        },
        {
          "Word": "先生",
          "Root": "",
          "FeatureSet": null,
          "Conditions": null,
          "PersonConditions": null
        }
      ]
    },
    {
      "Pos": 2,
      "PersonName": "y",
      "Candidates": [
        {
          "Word": "は",
          "Root": "",
          "FeatureSet": null,
          "Conditions": null,
          "PersonConditions": null
        },
        {
          "Word": "も",
          "Root": "",
          "FeatureSet": null,
          "Conditions": null,
          "PersonConditions": null
        }
      ]
    },
    {
      "Pos": 3,
      "PersonName": "y",
      "Candidates": [
        {
          "Word": "行かない",
          "Root": "行く",
          "FeatureSet": [
            "n",
            "current"
          ],
          "Conditions": null,
          "PersonConditions": null
        },
        {
          "Word": "行かなかった",
          "Root": "行く",
          "FeatureSet": [
            "n",
            "past"
          ],
          "Conditions": null,
          "PersonConditions": null
        }
      ]
    }
  ],
  "Pars": [
    {
      "Header": "",
      "Poses": [
        0,
        1,
        2,
        3
      ]
    }
  ],
  "Exercises": [
    {
      "Name": "A",
      "Problems": [
        {
          "ProblemNo": 0,
          "OriginalCandidates": [
            {
              "Word": "明日、",
              "Ruby": "asu,"
            },
            {
              "Word": "ボブ",
              "Ruby": "bobu"
            },
            {
              "Word": "は",
              "Ruby": "wa"
            },
            {
              "Word": "行かない",
              "Ruby": "ika nai"
            }
          ],
          "ChangeCandidatePos": 1,
          "ChangeCandidates": [
            {
              "Word": "",
              "Ruby": ""
            },
            {
              "Word": "先生",
              "Ruby": "sensei"
            },
            {
              "Word": "",
              "Ruby": ""
            },
            {
              "Word": "",
              "Ruby": ""
            }
          ],
          "ChangeMorphemes": [
            {
              "Word": "",
              "Root": "",
              "FeatureSet": null
            },
            {
              "Word": "先生",
              "Root": "",
              "FeatureSet": null
            },
            {
              "Word": "",
              "Root": "",
              "FeatureSet": null
            },
            {
              "Word": "",
              "Root": "",
              "FeatureSet": null
            }
          ],
          "AnswerCandidates": [
            {
              "Word": "明日、",
              "Ruby": "asu,"
            },
            {
              "Word": "先生",
              "Ruby": "sensei"
            },
            {
              "Word": "は",
              "Ruby": "wa"
            },
            {
              "Word": "行かない",
              "Ruby": "ika nai"
            }
          ]
        },
        {
          "ProblemNo": 1,
          "OriginalCandidates": [
            {
              "Word": "明日、",
              "Ruby": "asu,"
            },
            {
              "Word": "先生",
              "Ruby": "sensei"
            },
            {
              "Word": "は",
              "Ruby": "wa"
            },
            {
              "Word": "行かない",
              "Ruby": "ika nai"
            }
          ],
          "ChangeCandidatePos": 1,
          "ChangeCandidates": [
            {
              "Word": "",
              "Ruby": ""
            },
            {
              "Word": "私",
              "Ruby": "watashi"
            },
            {
              "Word": "",
              "Ruby": ""
            },
            {
              "Word": "",
              "Ruby": ""
            }
          ],
          "ChangeMorphemes": [
            {
              "Word": "",
              "Root": "",
              "FeatureSet": null
            },
            {
              "Word": "私",
              "Root": "",
              "FeatureSet": null
            },
            {
              "Word": "",
              "Root": "",
              "FeatureSet": null
            },
            {
              "Word": "",
              "Root": "",
              "FeatureSet": null
            }
          ],
          "AnswerCandidates": [
            {
              "Word": "明日、",
              "Ruby": "asu,"
            },
            {
              "Word": "私",
              "Ruby": "watashi"
            },
            {
              "Word": "は",
              "Ruby": "wa"
            },
            {
              "Word": "行かない",
              "Ruby": "ika nai"
            }
          ]
        },
        {
          "ProblemNo": 2,
          "OriginalCandidates": [
            {
              "Word": "明日、",
              "Ruby": "asu,"
            },
            {
              "Word": "私",
              "Ruby": "watashi"
            },
            {
              "Word": "は",
              "Ruby": "wa"
            },
            {
              "Word": "行かない",
              "Ruby": "ika nai"
            }
          ],
          "ChangeCandidatePos": 2,
          "ChangeCandidates": [
            {
              "Word": "",
              "Ruby": ""
            },
            {
              "Word": "",
              "Ruby": ""
            },
            {
              "Word": "も",
              "Ruby": "mo"
            },
            {
              "Word": "",
              "Ruby": ""
            }
          ],
          "ChangeMorphemes": [
            {
              "Word": "",
              "Root": "",
              "FeatureSet": null
            },
            {
              "Word": "",
              "Root": "",
              "FeatureSet": null
            },
            {
              "Word": "も",
              "Root": "",
              "FeatureSet": null
            },
            {
              "Word": "",
              "Root": "",
              "FeatureSet": null
            }
          ],
          "AnswerCandidates": [
            {
              "Word": "明日、",
              "Ruby": "asu,"
            },
            {
              "Word": "私",
              "Ruby": "watashi"
            },
            {
              "Word": "も",
              "Ruby": "mo"
            },
            {
              "Word": "行かない",
              "Ruby": "ika nai"
            }
          ]
        },
        {
          "ProblemNo": 3,
          "OriginalCandidates": [
            {
              "Word": "明日、",
              "Ruby": "asu,"
            },
            {
              "Word": "私",
              "Ruby": "watashi"
            },
            {
              "Word": "も",
              "Ruby": "mo"
            },
            {
              "Word": "行かない",
              "Ruby": "ika nai"
            }
          ],
          "ChangeCandidatePos": 0,
          "ChangeCandidates": [
            {
              "Word": "昨日、",
              "Ruby": "sakujitsu,"
            },
            {
              "Word": "",
              "Ruby": ""
            },
            {
              "Word": "",
              "Ruby": ""
            },
            {
              "Word": "行かなかった",
              "Ruby": "ika nakatta"
            }
          ],
          "ChangeMorphemes": [
            {
              "Word": "昨日、",
              "Root": "",
              "FeatureSet": null
            },
            {
              "Word": "",
              "Root": "",
              "FeatureSet": null
            },
            {
              "Word": "",
              "Root": "",
              "FeatureSet": null
            },
            {
              "Word": "",
              "Root": "",
              "FeatureSet": [
                "past"
              ]
            }
          ],
          "AnswerCandidates": [
            {
              "Word": "昨日、",
              "Ruby": "sakujitsu,"
            },
            {
              "Word": "私",
              "Ruby": "watashi"
            },
            {
              "Word": "も",
              "Ruby": "mo"
            },
            {
              "Word": "行かなかった",
              "Ruby": "ika nakatta"
            }
          ]
        },
        {
          "ProblemNo": 4,
          "OriginalCandidates": [
            {
              "Word": "昨日、",
              "Ruby": "sakujitsu,"
            },
            {
              "Word": "私",
              "Ruby": "watashi"
            },
            {
              "Word": "も",
              "Ruby": "mo"
            },
            {
              "Word": "行かなかった",
              "Ruby": "ika nakatta"
            }
          ],
          "ChangeCandidatePos": 1,
          "ChangeCandidates": [
            {
              "Word": "",
              "Ruby": ""
            },
            {
              "Word": "ボブ",
              "Ruby": "bobu"
            },
            {
              "Word": "",
              "Ruby": ""
            },
            {
              "Word": "",
              "Ruby": ""
            }
          ],
          "ChangeMorphemes": [
            {
              "Word": "",
              "Root": "",
              "FeatureSet": null
            },
            {
              "Word": "ボブ",
              "Root": "",
              "FeatureSet": null
            },
            {
              "Word": "",
              "Root": "",
              "FeatureSet": null
            },
            {
              "Word": "",
              "Root": "",
              "FeatureSet": null
            }
          ],
          "AnswerCandidates": [
            {
              "Word": "昨日、",
              "Ruby": "sakujitsu,"
            },
            {
              "Word": "ボブ",
              "Ruby": "bobu"
            },
            {
              "Word": "も",
              "Ruby": "mo"
            },
            {
              "Word": "行かなかった",
              "Ruby": "ika nakatta"
            }
          ]
        },
        {
          "ProblemNo": 5,
          "OriginalCandidates": [
            {
              "Word": "昨日、",
              "Ruby": "sakujitsu,"
            },
            {
              "Word": "ボブ",
              "Ruby": "bobu"
            },
            {
              "Word": "も",
              "Ruby": "mo"
            },
            {
              "Word": "行かなかった",
              "Ruby": "ika nakatta"
            }
          ],
          "ChangeCandidatePos": 0,
          "ChangeCandidates": [
            {
              "Word": "明日、",
              "Ruby": "asu,"
            },
            {
              "Word": "",
              "Ruby": ""
            },
            {
              "Word": "",
              "Ruby": ""
            },
            {
              "Word": "行かない",
              "Ruby": "ika nai"
            }
          ],
          "ChangeMorphemes": [
            {
              "Word": "明日、",
              "Root": "",
              "FeatureSet": null
            },
            {
              "Word": "",
              "Root": "",
              "FeatureSet": null
            },
            {
              "Word": "",
              "Root": "",
              "FeatureSet": null
            },
            {
              "Word": "",
              "Root": "",
              "FeatureSet": [
                "current"
              ]
            }
          ],
          "AnswerCandidates": [
            {
              "Word": "明日、",
              "Ruby": "asu,"
            },
            {
              "Word": "ボブ",
              "Ruby": "bobu"
            },
            {
              "Word": "も",
              "Ruby": "mo"
            },
            {
              "Word": "行かない",
              "Ruby": "ika nai"
            }
          ]
        },
        {
          "ProblemNo": 6,
          "OriginalCandidates": [
            {
              "Word": "明日、",
              "Ruby": "asu,"
            },
            {
              "Word": "ボブ",
              "Ruby": "bobu"
            },
            {
              "Word": "も",
              "Ruby": "mo"
            },
            {
              "Word": "行かない",
              "Ruby": "ika nai"
            }
          ],
          "ChangeCandidatePos": 1,
          "ChangeCandidates": [
            {
              "Word": "",
              "Ruby": ""
            },
            {
              "Word": "先生",
              "Ruby": "sensei"
            },
            {
              "Word": "",
              "Ruby": ""
            },
            {
              "Word": "",
              "Ruby": ""
            }
          ],
          "ChangeMorphemes": [
            {
              "Word": "",
              "Root": "",
              "FeatureSet": null
            },
            {
              "Word": "先生",
              "Root": "",
              "FeatureSet": null
            },
            {
              "Word": "",
              "Root": "",
              "FeatureSet": null
            },
            {
              "Word": "",
              "Root": "",
              "FeatureSet": null
            }
          ],
          "AnswerCandidates": [
            {
              "Word": "明日、",
              "Ruby": "asu,"
            },
            {
              "Word": "先生",
              "Ruby": "sensei"
            },
            {
              "Word": "も",
              "Ruby": "mo"
            },
            {
              "Word": "行かない",
              "Ruby": "ika nai"
            }
          ]
        },
        {
          "ProblemNo": 7,
          "OriginalCandidates": [
            {
              "Word": "明日、",
              "Ruby": "asu,"
            },
            {
              "Word": "先生",
              "Ruby": "sensei"
            },
            {
              "Word": "も",
              "Ruby": "mo"
            },
            {
              "Word": "行かない",
              "Ruby": "ika nai"
            }
          ],
          "ChangeCandidatePos": 0,
          "ChangeCandidates": [
            {
              "Word": "昨日、",
              "Ruby": "sakujitsu,"
            },
            {
              "Word": "",
              "Ruby": ""
            },
            {
              "Word": "",
              "Ruby": ""
            },
            {
              "Word": "行かなかった",
              "Ruby": "ika nakatta"
            }
          ],
          "ChangeMorphemes": [
            {
              "Word": "昨日、",
              "Root": "",
              "FeatureSet": null
            },
            {
              "Word": "",
              "Root": "",
              "FeatureSet": null
            },
            {
              "Word": "",
              "Root": "",
              "FeatureSet": null
            },
            {
              "Word": "",
              "Root": "",
              "FeatureSet": [
                "past"
              ]
            }
          ],
          "AnswerCandidates": [
            {
              "Word": "昨日、",
              "Ruby": "sakujitsu,"
            },
            {
              "Word": "先生",
              "Ruby": "sensei"
            },
            {
              "Word": "も",
              "Ruby": "mo"
            },
            {
              "Word": "行かなかった",
              "Ruby": "ika nakatta"
            }
          ]
        },
        {
          "ProblemNo": 8,
          "OriginalCandidates": [
            {
              "Word": "昨日、",
              "Ruby": "sakujitsu,"
            },
            {
              "Word": "先生",
              "Ruby": "sensei"
            },
            {
              "Word": "も",
              "Ruby": "mo"
            },
            {
              "Word": "行かなかった",
              "Ruby": "ika nakatta"
            }
          ],
          "ChangeCandidatePos": 2,
          "ChangeCandidates": [
            {
              "Word": "",
              "Ruby": ""
            },
            {
              "Word": "",
              "Ruby": ""
            },
            {
              "Word": "は",
              "Ruby": "wa"
            },
            {
              "Word": "",
              "Ruby": ""
            }
          ],
          "ChangeMorphemes": [
            {
              "Word": "",
              "Root": "",
              "FeatureSet": null
            },
            {
              "Word": "",
              "Root": "",
              "FeatureSet": null
            },
            {
              "Word": "は",
              "Root": "",
              "FeatureSet": null
            },
            {
              "Word": "",
              "Root": "",
              "FeatureSet": null
            }
          ],
          "AnswerCandidates": [
            {
              "Word": "昨日、",
              "Ruby": "sakujitsu,"
            },
            {
              "Word": "先生",
              "Ruby": "sensei"
            },
            {
              "Word": "は",
              "Ruby": "wa"
            },
            {
              "Word": "行かなかった",
              "Ruby": "ika nakatta"
            }
          ]
        },
        {
          "ProblemNo": 9,
          "OriginalCandidates": [
            {
              "Word": "昨日、",
              "Ruby": "sakujitsu,"
            },
            {
              "Word": "先生",
              "Ruby": "sensei"
            },
            {
              "Word": "は",
              "Ruby": "wa"
            },
            {
              "Word": "行かなかった",
              "Ruby": "ika nakatta"
            }
          ],
          "ChangeCandidatePos": 1,
          "ChangeCandidates": [
            {
              "Word": "",
              "Ruby": ""
            },
            {
              "Word": "ボブ",
              "Ruby": "bobu"
            },
            {
              "Word": "",
              "Ruby": ""
            },
            {
              "Word": "",
              "Ruby": ""
            }
          ],
          "ChangeMorphemes": [
            {
              "Word": "",
              "Root": "",
              "FeatureSet": null
            },
            {
              "Word": "ボブ",
              "Root": "",
              "FeatureSet": null
            },
            {
              "Word": "",
              "Root": "",
              "FeatureSet": null
            },
            {
              "Word": "",
              "Root": "",
              "FeatureSet": null
            }
          ],
          "AnswerCandidates": [
            {
              "Word": "昨日、",
              "Ruby": "sakujitsu,"
            },
            {
              "Word": "ボブ",
              "Ruby": "bobu"
            },
            {
              "Word": "は",
              "Ruby": "wa"
            },
            {
              "Word": "行かなかった",
              "Ruby": "ika nakatta"
            }
          ]
        }
      ],
      "VideoFile": "grammar-ja-tk_18_A.mp4",
      "AnimeticCaptions": [
        {
          "Start": 0,
          "End": 3,
          "Text": "Japanese grammar exercises #18 「行かない」「行かなかった」",
          "Ruby": "",
          "Lang": "",
          "ProblemNo": 0,
          "Kind": 0
        },
        {
          "Start": 3,
          "End": 6,
          "Text": "{明日、ボブは行かない}",
          "Ruby": "asu, bobu wa ika nai",
          "Lang": "ja",
          "ProblemNo": 0,
          "Kind": 1
        },
        {
          "Start": 6,
          "End": 8,
          "Text": "{先生}",
          "Ruby": "sensei",
          "Lang": "ja",
          "ProblemNo": 0,
          "Kind": 2
        },
        {
          "Start": 8,
          "End": 13,
          "Text": "{明日、先生は行かない}",
          "Ruby": "asu, sensei wa ika nai",
          "Lang": "ja",
          "ProblemNo": 0,
          "Kind": 3
        },
        {
          "Start": 13,
          "End": 19,
          "Text": "{明日、先生は行かない}",
          "Ruby": "asu, sensei wa ika nai",
          "Lang": "ja",
          "ProblemNo": 0,
          "Kind": 4
        },
        {
          "Start": 19,
          "End": 23,
          "Text": "{明日、先生は行かない}",
          "Ruby": "asu, sensei wa ika nai",
          "Lang": "ja",
          "ProblemNo": 1,
          "Kind": 1
        },
        {
          "Start": 23,
          "End": 24,
          "Text": "{私}",
          "Ruby": "watashi",
          "Lang": "ja",
          "ProblemNo": 1,
          "Kind": 2
        },
        {
          "Start": 24,
          "End": 28,
          "Text": "{明日、私は行かない}",
          "Ruby": "asu, watashi wa ika nai",
          "Lang": "ja",
          "ProblemNo": 1,
          "Kind": 3
        },
        {
          "Start": 28,
          "End": 33,
          "Text": "{明日、私は行かない}",
          "Ruby": "asu, watashi wa ika nai",
          "Lang": "ja",
          "ProblemNo": 1,
          "Kind": 4
        },
        {
          "Start": 33,
          "End": 36,
          "Text": "{明日、私は行かない}",
          "Ruby": "asu, watashi wa ika nai",
          "Lang": "ja",
          "ProblemNo": 2,
          "Kind": 1
        },
        {
          "Start": 36,
          "End": 37,
          "Text": "{も}",
          "Ruby": "mo",
          "Lang": "ja",
          "ProblemNo": 2,
          "Kind": 2
        },
        {
          "Start": 37,
          "End": 41,
          "Text": "{明日、私も行かない}",
          "Ruby": "asu, watashi mo ika nai",
          "Lang": "ja",
          "ProblemNo": 2,
          "Kind": 3
        },
        {
          "Start": 41,
          "End": 46,
          "Text": "{明日、私も行かない}",
          "Ruby": "asu, watashi mo ika nai",
          "Lang": "ja",
          "ProblemNo": 2,
          "Kind": 4
        },
        {
          "Start": 46,
          "End": 49,
          "Text": "{明日、私も行かない}",
          "Ruby": "asu, watashi mo ika nai",
          "Lang": "ja",
          "ProblemNo": 3,
          "Kind": 1
        },
        {
          "Start": 49,
          "End": 50,
          "Text": "{昨日、}",
          "Ruby": "sakujitsu,",
          "Lang": "ja",
          "ProblemNo": 3,
          "Kind": 2
        },
        {
          "Start": 50,
          "End": 52,
          "Text": "{行かなかった}",
          "Ruby": "ika nakatta",
          "Lang": "ja",
          "ProblemNo": 3,
          "Kind": 2
        },
        {
          "Start": 52,
          "End": 57,
          "Text": "{昨日、私も行かなかった}",
          "Ruby": "sakujitsu, watashi mo ika nakatta",
          "Lang": "ja",
          "ProblemNo": 3,
          "Kind": 3
        },
        {
          "Start": 57,
          "End": 63,
          "Text": "{昨日、私も行かなかった}",
          "Ruby": "sakujitsu, watashi mo ika nakatta",
          "Lang": "ja",
          "ProblemNo": 3,
          "Kind": 4
        },
        {
          "Start": 63,
          "End": 67,
          "Text": "{昨日、私も行かなかった}",
          "Ruby": "sakujitsu, watashi mo ika nakatta",
          "Lang": "ja",
          "ProblemNo": 4,
          "Kind": 1
        },
        {
          "Start": 67,
          "End": 68,
          "Text": "{ボブ}",
          "Ruby": "bobu",
          "Lang": "ja",
          "ProblemNo": 4,
          "Kind": 2
        },
        {
          "Start": 68,
          "End": 73,
          "Text": "{昨日、ボブも行かなかった}",
          "Ruby": "sakujitsu, bobu mo ika nakatta",
          "Lang": "ja",
          "ProblemNo": 4,
          "Kind": 3
        },
        {
          "Start": 73,
          "End": 79,
          "Text": "{昨日、ボブも行かなかった}",
          "Ruby": "sakujitsu, bobu mo ika nakatta",
          "Lang": "ja",
          "ProblemNo": 4,
          "Kind": 4
        },
        {
          "Start": 79,
          "End": 83,
          "Text": "{昨日、ボブも行かなかった}",
          "Ruby": "sakujitsu, bobu mo ika nakatta",
          "Lang": "ja",
          "ProblemNo": 5,
          "Kind": 1
        },
        {
          "Start": 83,
          "End": 84,
          "Text": "{明日、}",
          "Ruby": "asu,",
          "Lang": "ja",
          "ProblemNo": 5,
          "Kind": 2
        },
        {
          "Start": 84,
          "End": 85,
          "Text": "{行かない}",
          "Ruby": "ika nai",
          "Lang": "ja",
          "ProblemNo": 5,
          "Kind": 2
        },
        {
          "Start": 85,
          "End": 89,
          "Text": "{明日、ボブも行かない}",
          "Ruby": "asu, bobu mo ika nai",
          "Lang": "ja",
          "ProblemNo": 5,
          "Kind": 3
        },
        {
          "Start": 89,
          "End": 94,
          "Text": "{明日、ボブも行かない}",
          "Ruby": "asu, bobu mo ika nai",
          "Lang": "ja",
          "ProblemNo": 5,
          "Kind": 4
        },
        {
          "Start": 94,
          "End": 97,
          "Text": "{明日、ボブも行かない}",
          "Ruby": "asu, bobu mo ika nai",
          "Lang": "ja",
          "ProblemNo": 6,
          "Kind": 1
        },
        {
          "Start": 97,
          "End": 99,
          "Text": "{先生}",
          "Ruby": "sensei",
          "Lang": "ja",
          "ProblemNo": 6,
          "Kind": 2
        },
        {
          "Start": 99,
          "End": 104,
          "Text": "{明日、先生も行かない}",
          "Ruby": "asu, sensei mo ika nai",
          "Lang": "ja",
          "ProblemNo": 6,
          "Kind": 3
        },
        {
          "Start": 104,
          "End": 110,
          "Text": "{明日、先生も行かない}",
          "Ruby": "asu, sensei mo ika nai",
          "Lang": "ja",
          "ProblemNo": 6,
          "Kind": 4
        },
        {
          "Start": 110,
          "End": 114,
          "Text": "{明日、先生も行かない}",
          "Ruby": "asu, sensei mo ika nai",
          "Lang": "ja",
          "ProblemNo": 7,
          "Kind": 1
        },
        {
          "Start": 114,
          "End": 115,
          "Text": "{昨日、}",
          "Ruby": "sakujitsu,",
          "Lang": "ja",
          "ProblemNo": 7,
          "Kind": 2
        },
        {
          "Start": 115,
          "End": 117,
          "Text": "{行かなかった}",
          "Ruby": "ika nakatta",
          "Lang": "ja",
          "ProblemNo": 7,
          "Kind": 2
        },
        {
          "Start": 117,
          "End": 122,
          "Text": "{昨日、先生も行かなかった}",
          "Ruby": "sakujitsu, sensei mo ika nakatta",
          "Lang": "ja",
          "ProblemNo": 7,
          "Kind": 3
        },
        {
          "Start": 122,
          "End": 128,
          "Text": "{昨日、先生も行かなかった}",
          "Ruby": "sakujitsu, sensei mo ika nakatta",
          "Lang": "ja",
          "ProblemNo": 7,
          "Kind": 4
        },
        {
          "Start": 128,
          "End": 132,
          "Text": "{昨日、先生も行かなかった}",
          "Ruby": "sakujitsu, sensei mo ika nakatta",
          "Lang": "ja",
          "ProblemNo": 8,
          "Kind": 1
        },
        {
          "Start": 132,
          "End": 133,
          "Text": "{は}",
          "Ruby": "wa",
          "Lang": "ja",
          "ProblemNo": 8,
          "Kind": 2
        },
        {
          "Start": 133,
          "End": 138,
          "Text": "{昨日、先生は行かなかった}",
          "Ruby": "sakujitsu, sensei wa ika nakatta",
          "Lang": "ja",
          "ProblemNo": 8,
          "Kind": 3
        },
        {
          "Start": 138,
          "End": 144,
          "Text": "{昨日、先生は行かなかった}",
          "Ruby": "sakujitsu, sensei wa ika nakatta",
          "Lang": "ja",
          "ProblemNo": 8,
          "Kind": 4
        },
        {
          "Start": 144,
          "End": 148,
          "Text": "{昨日、先生は行かなかった}",
          "Ruby": "sakujitsu, sensei wa ika nakatta",
          "Lang": "ja",
          "ProblemNo": 9,
          "Kind": 1
        },
        {
          "Start": 148,
          "End": 149,
          "Text": "{ボブ}",
          "Ruby": "bobu",
          "Lang": "ja",
          "ProblemNo": 9,
          "Kind": 2
        },
        {
          "Start": 149,
          "End": 154,
          "Text": "{昨日、ボブは行かなかった}",
          "Ruby": "sakujitsu, bobu wa ika nakatta",
          "Lang": "ja",
          "ProblemNo": 9,
          "Kind": 3
        },
        {
          "Start": 154,
          "End": 160,
          "Text": "{昨日、ボブは行かなかった}",
          "Ruby": "sakujitsu, bobu wa ika nakatta",
          "Lang": "ja",
          "ProblemNo": 9,
          "Kind": 4
        },
        {
          "Start": 160,
          "End": 163,
          "Text": "",
          "Ruby": "",
          "Lang": "",
          "ProblemNo": 0,
          "Kind": 5
        },
        {
          "Start": 163,
          "End": 166,
          "Text": "{明日、ボブは行かない}",
          "Ruby": "asu, bobu wa ika nai",
          "Lang": "ja",
          "ProblemNo": 0,
          "Kind": 1
        },
        {
          "Start": 166,
          "End": 168,
          "Text": "{先生}",
          "Ruby": "sensei",
          "Lang": "ja",
          "ProblemNo": 0,
          "Kind": 2
        },
        {
          "Start": 168,
          "End": 173,
          "Text": "{明日、先生は行かない}",
          "Ruby": "asu, sensei wa ika nai",
          "Lang": "ja",
          "ProblemNo": 0,
          "Kind": 3
        },
        {
          "Start": 173,
          "End": 179,
          "Text": "{明日、先生は行かない}",
          "Ruby": "asu, sensei wa ika nai",
          "Lang": "ja",
          "ProblemNo": 0,
          "Kind": 4
        },
        {
          "Start": 179,
          "End": 183,
          "Text": "{明日、先生は行かない}",
          "Ruby": "asu, sensei wa ika nai",
          "Lang": "ja",
          "ProblemNo": 1,
          "Kind": 1
        },
        {
          "Start": 183,
          "End": 184,
          "Text": "{私}",
          "Ruby": "watashi",
          "Lang": "ja",
          "ProblemNo": 1,
          "Kind": 2
        },
        {
          "Start": 184,
          "End": 188,
          "Text": "{明日、私は行かない}",
          "Ruby": "asu, watashi wa ika nai",
          "Lang": "ja",
          "ProblemNo": 1,
          "Kind": 3
        },
        {
          "Start": 188,
          "End": 193,
          "Text": "{明日、私は行かない}",
          "Ruby": "asu, watashi wa ika nai",
          "Lang": "ja",
          "ProblemNo": 1,
          "Kind": 4
        },
        {
          "Start": 193,
          "End": 196,
          "Text": "{明日、私は行かない}",
          "Ruby": "asu, watashi wa ika nai",
          "Lang": "ja",
          "ProblemNo": 2,
          "Kind": 1
        },
        {
          "Start": 196,
          "End": 197,
          "Text": "{も}",
          "Ruby": "mo",
          "Lang": "ja",
          "ProblemNo": 2,
          "Kind": 2
        },
        {
          "Start": 197,
          "End": 201,
          "Text": "{明日、私も行かない}",
          "Ruby": "asu, watashi mo ika nai",
          "Lang": "ja",
          "ProblemNo": 2,
          "Kind": 3
        },
        {
          "Start": 201,
          "End": 206,
          "Text": "{明日、私も行かない}",
          "Ruby": "asu, watashi mo ika nai",
          "Lang": "ja",
          "ProblemNo": 2,
          "Kind": 4
        },
        {
          "Start": 206,
          "End": 209,
          "Text": "{明日、私も行かない}",
          "Ruby": "asu, watashi mo ika nai",
          "Lang": "ja",
          "ProblemNo": 3,
          "Kind": 1
        },
        {
          "Start": 209,
          "End": 210,
          "Text": "{昨日、}",
          "Ruby": "sakujitsu,",
          "Lang": "ja",
          "ProblemNo": 3,
          "Kind": 2
        },
        {
          "Start": 210,
          "End": 215,
          "Text": "{昨日、私も行かなかった}",
          "Ruby": "sakujitsu, watashi mo ika nakatta",
          "Lang": "ja",
          "ProblemNo": 3,
          "Kind": 3
        },
        {
          "Start": 215,
          "End": 221,
          "Text": "{昨日、私も行かなかった}",
          "Ruby": "sakujitsu, watashi mo ika nakatta",
          "Lang": "ja",
          "ProblemNo": 3,
          "Kind": 4
        },
        {
          "Start": 221,
          "End": 225,
          "Text": "{昨日、私も行かなかった}",
          "Ruby": "sakujitsu, watashi mo ika nakatta",
          "Lang": "ja",
          "ProblemNo": 4,
          "Kind": 1
        },
        {
          "Start": 225,
          "End": 226,
          "Text": "{ボブ}",
          "Ruby": "bobu",
          "Lang": "ja",
          "ProblemNo": 4,
          "Kind": 2
        },
        {
          "Start": 226,
          "End": 231,
          "Text": "{昨日、ボブも行かなかった}",
          "Ruby": "sakujitsu, bobu mo ika nakatta",
          "Lang": "ja",
          "ProblemNo": 4,
          "Kind": 3
        },
        {
          "Start": 231,
          "End": 237,
          "Text": "{昨日、ボブも行かなかった}",
          "Ruby": "sakujitsu, bobu mo ika nakatta",
          "Lang": "ja",
          "ProblemNo": 4,
          "Kind": 4
        },
        {
          "Start": 237,
          "End": 241,
          "Text": "{昨日、ボブも行かなかった}",
          "Ruby": "sakujitsu, bobu mo ika nakatta",
          "Lang": "ja",
          "ProblemNo": 5,
          "Kind": 1
        },
        {
          "Start": 241,
          "End": 242,
          "Text": "{明日、}",
          "Ruby": "asu,",
          "Lang": "ja",
          "ProblemNo": 5,
          "Kind": 2
        },
        {
          "Start": 242,
          "End": 246,
          "Text": "{明日、ボブも行かない}",
          "Ruby": "asu, bobu mo ika nai",
          "Lang": "ja",
          "ProblemNo": 5,
          "Kind": 3
        },
        {
          "Start": 246,
          "End": 251,
          "Text": "{明日、ボブも行かない}",
          "Ruby": "asu, bobu mo ika nai",
          "Lang": "ja",
          "ProblemNo": 5,
          "Kind": 4
        },
        {
          "Start": 251,
          "End": 254,
          "Text": "{明日、ボブも行かない}",
          "Ruby": "asu, bobu mo ika nai",
          "Lang": "ja",
          "ProblemNo": 6,
          "Kind": 1
        },
        {
          "Start": 254,
          "End": 256,
          "Text": "{先生}",
          "Ruby": "sensei",
          "Lang": "ja",
          "ProblemNo": 6,
          "Kind": 2
        },
        {
          "Start": 256,
          "End": 261,
          "Text": "{明日、先生も行かない}",
          "Ruby": "asu, sensei mo ika nai",
          "Lang": "ja",
          "ProblemNo": 6,
          "Kind": 3
        },
        {
          "Start": 261,
          "End": 267,
          "Text": "{明日、先生も行かない}",
          "Ruby": "asu, sensei mo ika nai",
          "Lang": "ja",
          "ProblemNo": 6,
          "Kind": 4
        },
        {
          "Start": 267,
          "End": 271,
          "Text": "{明日、先生も行かない}",
          "Ruby": "asu, sensei mo ika nai",
          "Lang": "ja",
          "ProblemNo": 7,
          "Kind": 1
        },
        {
          "Start": 271,
          "End": 272,
          "Text": "{昨日、}",
          "Ruby": "sakujitsu,",
          "Lang": "ja",
          "ProblemNo": 7,
          "Kind": 2
        },
        {
          "Start": 272,
          "End": 277,
          "Text": "{昨日、先生も行かなかった}",
          "Ruby": "sakujitsu, sensei mo ika nakatta",
          "Lang": "ja",
          "ProblemNo": 7,
          "Kind": 3
        },
        {
          "Start": 277,
          "End": 283,
          "Text": "{昨日、先生も行かなかった}",
          "Ruby": "sakujitsu, sensei mo ika nakatta",
          "Lang": "ja",
          "ProblemNo": 7,
          "Kind": 4
        },
        {
          "Start": 283,
          "End": 287,
          "Text": "{昨日、先生も行かなかった}",
          "Ruby": "sakujitsu, sensei mo ika nakatta",
          "Lang": "ja",
          "ProblemNo": 8,
          "Kind": 1
        },
        {
          "Start": 287,
          "End": 288,
          "Text": "{は}",
          "Ruby": "wa",
          "Lang": "ja",
          "ProblemNo": 8,
          "Kind": 2
        },
        {
          "Start": 288,
          "End": 293,
          "Text": "{昨日、先生は行かなかった}",
          "Ruby": "sakujitsu, sensei wa ika nakatta",
          "Lang": "ja",
          "ProblemNo": 8,
          "Kind": 3
        },
        {
          "Start": 293,
          "End": 299,
          "Text": "{昨日、先生は行かなかった}",
          "Ruby": "sakujitsu, sensei wa ika nakatta",
          "Lang": "ja",
          "ProblemNo": 8,
          "Kind": 4
        },
        {
          "Start": 299,
          "End": 303,
          "Text": "{昨日、先生は行かなかった}",
          "Ruby": "sakujitsu, sensei wa ika nakatta",
          "Lang": "ja",
          "ProblemNo": 9,
          "Kind": 1
        },
        {
          "Start": 303,
          "End": 304,
          "Text": "{ボブ}",
          "Ruby": "bobu",
          "Lang": "ja",
          "ProblemNo": 9,
          "Kind": 2
        },
        {
          "Start": 304,
          "End": 309,
          "Text": "{昨日、ボブは行かなかった}",
          "Ruby": "sakujitsu, bobu wa ika nakatta",
          "Lang": "ja",
          "ProblemNo": 9,
          "Kind": 3
        },
        {
          "Start": 309,
          "End": 315,
          "Text": "{昨日、ボブは行かなかった}",
          "Ruby": "sakujitsu, bobu wa ika nakatta",
          "Lang": "ja",
          "ProblemNo": 9,
          "Kind": 4
        },
        {
          "Start": 315,
          "End": 318,
          "Text": "",
          "Ruby": "",
          "Lang": "",
          "ProblemNo": 0,
          "Kind": 5
        },
        {
          "Start": 318,
          "End": 321,
          "Text": "{明日、ボブは行かない}",
          "Ruby": "asu, bobu wa ika nai",
          "Lang": "ja",
          "ProblemNo": 0,
          "Kind": 1
        },
        {
          "Start": 321,
          "End": 323,
          "Text": "{先生}",
          "Ruby": "sensei",
          "Lang": "ja",
          "ProblemNo": 0,
          "Kind": 2
        },
        {
          "Start": 323,
          "End": 328,
          "Text": "{明日、先生は行かない}",
          "Ruby": "asu, sensei wa ika nai",
          "Lang": "ja",
          "ProblemNo": 0,
          "Kind": 3
        },
        {
          "Start": 328,
          "End": 334,
          "Text": "{明日、先生は行かない}",
          "Ruby": "asu, sensei wa ika nai",
          "Lang": "ja",
          "ProblemNo": 0,
          "Kind": 4
        },
        {
          "Start": 334,
          "End": 338,
          "Text": "{明日、先生は行かない}",
          "Ruby": "asu, sensei wa ika nai",
          "Lang": "ja",
          "ProblemNo": 1,
          "Kind": 1
        },
        {
          "Start": 338,
          "End": 339,
          "Text": "{私}",
          "Ruby": "watashi",
          "Lang": "ja",
          "ProblemNo": 1,
          "Kind": 2
        },
        {
          "Start": 339,
          "End": 343,
          "Text": "{明日、私は行かない}",
          "Ruby": "asu, watashi wa ika nai",
          "Lang": "ja",
          "ProblemNo": 1,
          "Kind": 3
        },
        {
          "Start": 343,
          "End": 348,
          "Text": "{明日、私は行かない}",
          "Ruby": "asu, watashi wa ika nai",
          "Lang": "ja",
          "ProblemNo": 1,
          "Kind": 4
        },
        {
          "Start": 348,
          "End": 351,
          "Text": "{明日、私は行かない}",
          "Ruby": "asu, watashi wa ika nai",
          "Lang": "ja",
          "ProblemNo": 2,
          "Kind": 1
        },
        {
          "Start": 351,
          "End": 352,
          "Text": "{も}",
          "Ruby": "mo",
          "Lang": "ja",
          "ProblemNo": 2,
          "Kind": 2
        },
        {
          "Start": 352,
          "End": 356,
          "Text": "{明日、私も行かない}",
          "Ruby": "asu, watashi mo ika nai",
          "Lang": "ja",
          "ProblemNo": 2,
          "Kind": 3
        },
        {
          "Start": 356,
          "End": 361,
          "Text": "{明日、私も行かない}",
          "Ruby": "asu, watashi mo ika nai",
          "Lang": "ja",
          "ProblemNo": 2,
          "Kind": 4
        },
        {
          "Start": 361,
          "End": 364,
          "Text": "{明日、私も行かない}",
          "Ruby": "asu, watashi mo ika nai",
          "Lang": "ja",
          "ProblemNo": 3,
          "Kind": 1
        },
        {
          "Start": 364,
          "End": 365,
          "Text": "{昨日、}",
          "Ruby": "sakujitsu,",
          "Lang": "ja",
          "ProblemNo": 3,
          "Kind": 2
        },
        {
          "Start": 365,
          "End": 370,
          "Text": "{昨日、私も行かなかった}",
          "Ruby": "sakujitsu, watashi mo ika nakatta",
          "Lang": "ja",
          "ProblemNo": 3,
          "Kind": 3
        },
        {
          "Start": 370,
          "End": 376,
          "Text": "{昨日、私も行かなかった}",
          "Ruby": "sakujitsu, watashi mo ika nakatta",
          "Lang": "ja",
          "ProblemNo": 3,
          "Kind": 4
        },
        {
          "Start": 376,
          "End": 380,
          "Text": "{昨日、私も行かなかった}",
          "Ruby": "sakujitsu, watashi mo ika nakatta",
          "Lang": "ja",
          "ProblemNo": 4,
          "Kind": 1
        },
        {
          "Start": 380,
          "End": 381,
          "Text": "{ボブ}",
          "Ruby": "bobu",
          "Lang": "ja",
          "ProblemNo": 4,
          "Kind": 2
        },
        {
          "Start": 381,
          "End": 386,
          "Text": "{昨日、ボブも行かなかった}",
          "Ruby": "sakujitsu, bobu mo ika nakatta",
          "Lang": "ja",
          "ProblemNo": 4,
          "Kind": 3
        },
        {
          "Start": 386,
          "End": 392,
          "Text": "{昨日、ボブも行かなかった}",
          "Ruby": "sakujitsu, bobu mo ika nakatta",
          "Lang": "ja",
          "ProblemNo": 4,
          "Kind": 4
        },
        {
          "Start": 392,
          "End": 396,
          "Text": "{昨日、ボブも行かなかった}",
          "Ruby": "sakujitsu, bobu mo ika nakatta",
          "Lang": "ja",
          "ProblemNo": 5,
          "Kind": 1
        },
        {
          "Start": 396,
          "End": 397,
          "Text": "{明日、}",
          "Ruby": "asu,",
          "Lang": "ja",
          "ProblemNo": 5,
          "Kind": 2
        },
        {
          "Start": 397,
          "End": 401,
          "Text": "{明日、ボブも行かない}",
          "Ruby": "asu, bobu mo ika nai",
          "Lang": "ja",
          "ProblemNo": 5,
          "Kind": 3
        },
        {
          "Start": 401,
          "End": 406,
          "Text": "{明日、ボブも行かない}",
          "Ruby": "asu, bobu mo ika nai",
          "Lang": "ja",
          "ProblemNo": 5,
          "Kind": 4
        },
        {
          "Start": 406,
          "End": 409,
          "Text": "{明日、ボブも行かない}",
          "Ruby": "asu, bobu mo ika nai",
          "Lang": "ja",
          "ProblemNo": 6,
          "Kind": 1
        },
        {
          "Start": 409,
          "End": 411,
          "Text": "{先生}",
          "Ruby": "sensei",
          "Lang": "ja",
          "ProblemNo": 6,
          "Kind": 2
        },
        {
          "Start": 411,
          "End": 416,
          "Text": "{明日、先生も行かない}",
          "Ruby": "asu, sensei mo ika nai",
          "Lang": "ja",
          "ProblemNo": 6,
          "Kind": 3
        },
        {
          "Start": 416,
          "End": 422,
          "Text": "{明日、先生も行かない}",
          "Ruby": "asu, sensei mo ika nai",
          "Lang": "ja",
          "ProblemNo": 6,
          "Kind": 4
        },
        {
          "Start": 422,
          "End": 426,
          "Text": "{明日、先生も行かない}",
          "Ruby": "asu, sensei mo ika nai",
          "Lang": "ja",
          "ProblemNo": 7,
          "Kind": 1
        },
        {
          "Start": 426,
          "End": 427,
          "Text": "{昨日、}",
          "Ruby": "sakujitsu,",
          "Lang": "ja",
          "ProblemNo": 7,
          "Kind": 2
        },
        {
          "Start": 427,
          "End": 432,
          "Text": "{昨日、先生も行かなかった}",
          "Ruby": "sakujitsu, sensei mo ika nakatta",
          "Lang": "ja",
          "ProblemNo": 7,
          "Kind": 3
        },
        {
          "Start": 432,
          "End": 438,
          "Text": "{昨日、先生も行かなかった}",
          "Ruby": "sakujitsu, sensei mo ika nakatta",
          "Lang": "ja",
          "ProblemNo": 7,
          "Kind": 4
        },
        {
          "Start": 438,
          "End": 442,
          "Text": "{昨日、先生も行かなかった}",
          "Ruby": "sakujitsu, sensei mo ika nakatta",
          "Lang": "ja",
          "ProblemNo": 8,
          "Kind": 1
        },
        {
          "Start": 442,
          "End": 443,
          "Text": "{は}",
          "Ruby": "wa",
          "Lang": "ja",
          "ProblemNo": 8,
          "Kind": 2
        },
        {
          "Start": 443,
          "End": 448,
          "Text": "{昨日、先生は行かなかった}",
          "Ruby": "sakujitsu, sensei wa ika nakatta",
          "Lang": "ja",
          "ProblemNo": 8,
          "Kind": 3
        },
        {
          "Start": 448,
          "End": 454,
          "Text": "{昨日、先生は行かなかった}",
          "Ruby": "sakujitsu, sensei wa ika nakatta",
          "Lang": "ja",
          "ProblemNo": 8,
          "Kind": 4
        },
        {
          "Start": 454,
          "End": 458,
          "Text": "{昨日、先生は行かなかった}",
          "Ruby": "sakujitsu, sensei wa ika nakatta",
          "Lang": "ja",
          "ProblemNo": 9,
          "Kind": 1
        },
        {
          "Start": 458,
          "End": 459,
          "Text": "{ボブ}",
          "Ruby": "bobu",
          "Lang": "ja",
          "ProblemNo": 9,
          "Kind": 2
        },
        {
          "Start": 459,
          "End": 464,
          "Text": "{昨日、ボブは行かなかった}",
          "Ruby": "sakujitsu, bobu wa ika nakatta",
          "Lang": "ja",
          "ProblemNo": 9,
          "Kind": 3
        },
        {
          "Start": 464,
          "End": 470,
          "Text": "{昨日、ボブは行かなかった}",
          "Ruby": "sakujitsu, bobu wa ika nakatta",
          "Lang": "ja",
          "ProblemNo": 9,
          "Kind": 4
        },
        {
          "Start": 470,
          "End": 473,
          "Text": "",
          "Ruby": "",
          "Lang": "",
          "ProblemNo": 0,
          "Kind": 5
        },
        {
          "Start": 473,
          "End": 493,
          "Text": "{Please subscribe!}",
          "Ruby": "",
          "Lang": "en",
          "ProblemNo": 0,
          "Kind": 7
        }
      ]
    }
  ],
  "CannotChange": true
}