{
  "SerieName": "grammar-ja-tk",
  "No": 3,
  "VideoTitle": "だ",
  "ThumbnailTitle": "じゃなかった",
  "YoutubeDescription": "{Grammatical explanation}:\n{Tae Kim's Guide to Learning Japanese}\n{http://www.guidetojapanese.org/learn/grammar/stateofbeing}",
  "YoutubeTitle": "",
  "Boxes": [
    {
      "Pos": 0,
      "PersonName": "z",
      "Candidates": [
        {
          "Word": "うん、",
          "Root": "",
          "FeatureSet": null,
          "Conditions": [
            {
              "Pos": 2,
              "Morphemes": [
                {
                  "Word": "",
                  "Root": "",
                  "FeatureSet": [
                    "p"
                  ]
                }
              ]
            }
          ],
          "PersonConditions": null
        },
        {
          "Word": "いや、",
          "Root": "",
          "FeatureSet": null,
          "Conditions": [
            {
              "Pos": 2,
              "Morphemes": [
                {
                  "Word": "",
                  "Root": "",
                  "FeatureSet": [
                    "n"
                  ]
                }
              ]
            }
          ],
          "PersonConditions": null
        }
      ]
    },
    {
      "Pos": 1,
      "PersonName": "z",
      "Candidates": [
        {
          "Word": "これ",
          "Root": "",
          "FeatureSet": null,
          "Conditions": null,
          "PersonConditions": null
        },
        {
          "Word": "そう",
          "Root": "",
          "FeatureSet": null,
          "Conditions": null,
          "PersonConditions": null
        },
        {
          "Word": "それ",
          "Root": "",
          "FeatureSet": null,
          "Conditions": null,
          "PersonConditions": null
        },
        {
          "Word": "大人",
          "Root": "",
          "FeatureSet": null,
          "Conditions": null,
          "PersonConditions": null
        },
        {
          "Word": "子供",
          "Root": "",
          "FeatureSet": null,
          "Conditions": null,
          "PersonConditions": null
        }
      ]
    },
    {
      "Pos": 2,
      "PersonName": "z",
      "Candidates": [
        {
          "Word": "だ",
          "Root": "",
          "FeatureSet": [
            "p",
            "current"
          ],
          "Conditions": null,
          "PersonConditions": null
        },
        {
          "Word": "だった",
          "Root": "",
          "FeatureSet": [
            "p",
            "past"
          ],
          "Conditions": null,
          "PersonConditions": null
        },
        {
          "Word": "じゃなかった",
          "Root": "",
          "FeatureSet": [
            "n",
            "past"
          ],
          "Conditions": null,
          "PersonConditions": null
        }
      ]
    }
  ],
  "Pars": [
    {
      "Header": "",
      "Poses": [
        0,
        1,
        2
      ]
    }
  ],
  "Exercises": [
    {
      "Name": "A",
      "Problems": [
        {
          "ProblemNo": 0,
          "OriginalCandidates": [
            {
              "Word": "いや、",
              "Ruby": "iya,"
            },
            {
              "Word": "これ",
              "Ruby": "kore"
            },
            {
              "Word": "じゃなかった",
              "Ruby": "ja nakatta"
            }
          ],
          "ChangeCandidatePos": 1,
          "ChangeCandidates": [
            {
              "Word": "",
              "Ruby": ""
            },
            {
              "Word": "それ",
              "Ruby": "sore"
            },
            {
              "Word": "",
              "Ruby": ""
            }
          ],
          "ChangeMorphemes": [
            {
              "Word": "",
              "Root": "",
              "FeatureSet": null
            },
            {
              "Word": "それ",
              "Root": "",
              "FeatureSet": null
            },
            {
              "Word": "",
              "Root": "",
              "FeatureSet": null
            }
          ],
          "AnswerCandidates": [
            {
              "Word": "いや、",
              "Ruby": "iya,"
            },
            {
              "Word": "それ",
              "Ruby": "sore"
            },
            {
              "Word": "じゃなかった",
              "Ruby": "ja nakatta"
            }
          ]
        },
        {
          "ProblemNo": 1,
          "OriginalCandidates": [
            {
              "Word": "いや、",
              "Ruby": "iya,"
            },
            {
              "Word": "それ",
              "Ruby": "sore"
            },
            {
              "Word": "じゃなかった",
              "Ruby": "ja nakatta"
            }
          ],
          "ChangeCandidatePos": 0,
          "ChangeCandidates": [
            {
              "Word": "うん、",
              "Ruby": "un,"
            },
            {
              "Word": "",
              "Ruby": ""
            },
            {
              "Word": "だった",
              "Ruby": "datta"
            }
          ],
          "ChangeMorphemes": [
            {
              "Word": "うん、",
              "Root": "",
              "FeatureSet": null
            },
            {
              "Word": "",
              "Root": "",
              "FeatureSet": null
            },
            {
              "Word": "",
              "Root": "",
              "FeatureSet": [
                "p"
              ]
            }
          ],
          "AnswerCandidates": [
            {
              "Word": "うん、",
              "Ruby": "un,"
            },
            {
              "Word": "それ",
              "Ruby": "sore"
            },
            {
              "Word": "だった",
              "Ruby": "datta"
            }
          ]
        },
        {
          "ProblemNo": 2,
          "OriginalCandidates": [
            {
              "Word": "うん、",
              "Ruby": "un,"
            },
            {
              "Word": "それ",
              "Ruby": "sore"
            },
            {
              "Word": "だった",
              "Ruby": "datta"
            }
          ],
          "ChangeCandidatePos": 1,
          "ChangeCandidates": [
            {
              "Word": "",
              "Ruby": ""
            },
            {
              "Word": "大人",
              "Ruby": "otona"
            },
            {
              "Word": "",
              "Ruby": ""
            }
          ],
          "ChangeMorphemes": [
            {
              "Word": "",
              "Root": "",
              "FeatureSet": null
            },
            {
              "Word": "大人",
              "Root": "",
              "FeatureSet": null
            },
            {
              "Word": "",
              "Root": "",
              "FeatureSet": null
            }
          ],
          "AnswerCandidates": [
            {
              "Word": "うん、",
              "Ruby": "un,"
            },
            {
              "Word": "大人",
              "Ruby": "otona"
            },
            {
              "Word": "だった",
              "Ruby": "datta"
            }
          ]
        },
        {
          "ProblemNo": 3,
          "OriginalCandidates": [
            {
              "Word": "うん、",
              "Ruby": "un,"
            },
            {
              "Word": "大人",
              "Ruby": "otona"
            },
            {
              "Word": "だった",
              "Ruby": "datta"
            }
          ],
          "ChangeCandidatePos": 2,
          "ChangeCandidates": [
            {
              "Word": "",
              "Ruby": ""
            },
            {
              "Word": "",
              "Ruby": ""
            },
            {
              "Word": "だ",
              "Ruby": "da"
            }
          ],
          "ChangeMorphemes": [
            {
              "Word": "",
              "Root": "",
              "FeatureSet": null
            },
            {
              "Word": "",
              "Root": "",
              "FeatureSet": null
            },
            {
              "Word": "だ",
              "Root": "",
              "FeatureSet": [
                "p",
                "current"
              ]
            }
          ],
          "AnswerCandidates": [
            {
              "Word": "うん、",
              "Ruby": "un,"
            },
            {
              "Word": "大人",
              "Ruby": "otona"
            },
            {
              "Word": "だ",
              "Ruby": "da"
            }
          ]
        },
        {
          "ProblemNo": 4,
          "OriginalCandidates": [
            {
              "Word": "うん、",
              "Ruby": "un,"
            },
            {
              "Word": "大人",
              "Ruby": "otona"
            },
            {
              "Word": "だ",
              "Ruby": "da"
            }
          ],
          "ChangeCandidatePos": 1,
          "ChangeCandidates": [
            {
              "Word": "",
              "Ruby": ""
            },
            {
              "Word": "そう",
              "Ruby": "sou"
            },
            {
              "Word": "",
              "Ruby": ""
            }
          ],
          "ChangeMorphemes": [
            {
              "Word": "",
              "Root": "",
              "FeatureSet": null
            },
            {
              "Word": "そう",
              "Root": "",
              "FeatureSet": null
            },
            {
              "Word": "",
              "Root": "",
              "FeatureSet": null
            }
          ],
          "AnswerCandidates": [
            {
              "Word": "うん、",
              "Ruby": "un,"
            },
            {
              "Word": "そう",
              "Ruby": "sou"
            },
            {
              "Word": "だ",
              "Ruby": "da"
            }
          ]
        },
        {
          "ProblemNo": 5,
          "OriginalCandidates": [
            {
              "Word": "うん、",
              "Ruby": "un,"
            },
            {
              "Word": "そう",
              "Ruby": "sou"
            },
            {
              "Word": "だ",
              "Ruby": "da"
            }
          ],
          "ChangeCandidatePos": 1,
          "ChangeCandidates": [
            {
              "Word": "",
              "Ruby": ""
            },
            {
              "Word": "子供",
              "Ruby": "kodomo"
            },
            {
              "Word": "",
              "Ruby": ""
            }
          ],
          "ChangeMorphemes": [
            {
              "Word": "",
              "Root": "",
              "FeatureSet": null
            },
            {
              "Word": "子供",
              "Root": "",
              "FeatureSet": null
            },
            {
              "Word": "",
              "Root": "",
              "FeatureSet": null
            }
          ],
          "AnswerCandidates": [
            {
              "Word": "うん、",
              "Ruby": "un,"
            },
            {
              "Word": "子供",
              "Ruby": "kodomo"
            },
            {
              "Word": "だ",
              "Ruby": "da"
            }
          ]
        },
        {
          "ProblemNo": 6,
          "OriginalCandidates": [
            {
              "Word": "うん、",
              "Ruby": "un,"
            },
            {
              "Word": "子供",
              "Ruby": "kodomo"
            },
            {
              "Word": "だ",
              "Ruby": "da"
            }
          ],
          "ChangeCandidatePos": 2,
          "ChangeCandidates": [
            {
              "Word": "",
              "Ruby": ""
            },
            {
              "Word": "",
              "Ruby": ""
            },
            {
              "Word": "だった",
              "Ruby": "datta"
            }
          ],
          "ChangeMorphemes": [
            {
              "Word": "",
              "Root": "",
              "FeatureSet": null
            },
            {
              "Word": "",
              "Root": "",
              "FeatureSet": null
            },
            {
              "Word": "だった",
              "Root": "",
              "FeatureSet": [
                "p",
                "past"
              ]
            }
          ],
          "AnswerCandidates": [
            {
              "Word": "うん、",
              "Ruby": "un,"
            },
            {
              "Word": "子供",
              "Ruby": "kodomo"
            },
            {
              "Word": "だった",
              "Ruby": "datta"
            }
          ]
        },
        {
          "ProblemNo": 7,
          "OriginalCandidates": [
            {
              "Word": "うん、",
              "Ruby": "un,"
            },
            {
              "Word": "子供",
              "Ruby": "kodomo"
            },
            {
              "Word": "だった",
              "Ruby": "datta"
            }
          ],
          "ChangeCandidatePos": 0,
          "ChangeCandidates": [
            {
              "Word": "いや、",
              "Ruby": "iya,"
            },
            {
              "Word": "",
              "Ruby": ""
            },
            {
              "Word": "じゃなかった",
              "Ruby": "ja nakatta"
            }
          ],
          "ChangeMorphemes": [
            {
              "Word": "いや、",
              "Root": "",
              "FeatureSet": null
            },
            {
              "Word": "",
              "Root": "",
              "FeatureSet": null
            },
            {
              "Word": "",
              "Root": "",
              "FeatureSet": [
                "n"
              ]
            }
          ],
          "AnswerCandidates": [
            {
              "Word": "いや、",
              "Ruby": "iya,"
            },
            {
              "Word": "子供",
              "Ruby": "kodomo"
            },
            {
              "Word": "じゃなかった",
              "Ruby": "ja nakatta"
            }
          ]
        },
        {
          "ProblemNo": 8,
          "OriginalCandidates": [
            {
              "Word": "いや、",
              "Ruby": "iya,"
            },
            {
              "Word": "子供",
              "Ruby": "kodomo"
            },
            {
              "Word": "じゃなかった",
              "Ruby": "ja nakatta"
            }
          ],
          "ChangeCandidatePos": 1,
          "ChangeCandidates": [
            {
              "Word": "",
              "Ruby": ""
            },
            {
              "Word": "そう",
              "Ruby": "sou"
            },
            {
              "Word": "",
              "Ruby": ""
            }
          ],
          "ChangeMorphemes": [
            {
              "Word": "",
              "Root": "",
              "FeatureSet": null
            },
            {
              "Word": "そう",
              "Root": "",
              "FeatureSet": null
            },
            {
              "Word": "",
              "Root": "",
              "FeatureSet": null
            }
          ],
          "AnswerCandidates": [
            {
              "Word": "いや、",
              "Ruby": "iya,"
            },
            {
              "Word": "そう",
              "Ruby": "sou"
            },
            {
              "Word": "じゃなかった",
              "Ruby": "ja nakatta"
            }
          ]
        },
        {
          "ProblemNo": 9,
          "OriginalCandidates": [
            {
              "Word": "いや、",
              "Ruby": "iya,"
            },
            {
              "Word": "そう",
              "Ruby": "sou"
            },
            {
              "Word": "じゃなかった",
              "Ruby": "ja nakatta"
            }
          ],
          "ChangeCandidatePos": 0,
          "ChangeCandidates": [
            {
              "Word": "うん、",
              "Ruby": "un,"
            },
            {
              "Word": "",
              "Ruby": ""
            },
            {
              "Word": "だった",
              "Ruby": "datta"
            }
          ],
          "ChangeMorphemes": [
            {
              "Word": "うん、",
              "Root": "",
              "FeatureSet": null
            },
            {
              "Word": "",
              "Root": "",
              "FeatureSet": null
            },
            {
              "Word": "",
              "Root": "",
              "FeatureSet": [
                "p"
              ]
            }
          ],
          "AnswerCandidates": [
            {
              "Word": "うん、",
              "Ruby": "un,"
            },
            {
              "Word": "そう",
              "Ruby": "sou"
            },
            {
              "Word": "だった",
              "Ruby": "datta"
            }
          ]
        }
      ],
      "VideoFile": "grammar-ja-tk_3_A.mp4",
      "AnimeticCaptions": [
        {
          "Start": 0,
          "End": 3,
          "Text": "Japanese grammar exercises #3 だ",
          "Ruby": "",
          "Lang": "",
          "ProblemNo": 0,
          "Kind": 0
        },
        {
          "Start": 3,
          "End": 6,
          "Text": "{いや、これじゃなかった}",
          "Ruby": "iya, kore ja nakatta",
          "Lang": "ja",
          "ProblemNo": 0,
          "Kind": 1
        },
        {
          "Start": 6,
          "End": 7,
          "Text": "{それ}",
          "Ruby": "sore",
          "Lang": "ja",
          "ProblemNo": 0,
          "Kind": 2
        },
        {
          "Start": 7,
          "End": 11,
          "Text": "{いや、それじゃなかった}",
          "Ruby": "iya, sore ja nakatta",
          "Lang": "ja",
          "ProblemNo": 0,
          "Kind": 3
        },
        {
          "Start": 11,
          "End": 16,
          "Text": "{いや、それじゃなかった}",
          "Ruby": "iya, sore ja nakatta",
          "Lang": "ja",
          "ProblemNo": 0,
          "Kind": 4
        },
        {
          "Start": 16,
          "End": 19,
          "Text": "{いや、それじゃなかった}",
          "Ruby": "iya, sore ja nakatta",
          "Lang": "ja",
          "ProblemNo": 1,
          "Kind": 1
        },
        {
          "Start": 19,
          "End": 20,
          "Text": "{うん、}",
          "Ruby": "un,",
          "Lang": "ja",
          "ProblemNo": 1,
          "Kind": 2
        },
        {
          "Start": 20,
          "End": 21,
          "Text": "{だった}",
          "Ruby": "datta",
          "Lang": "ja",
          "ProblemNo": 1,
          "Kind": 2
        },
        {
          "Start": 21,
          "End": 25,
          "Text": "{うん、それだった}",
          "Ruby": "un, sore datta",
          "Lang": "ja",
          "ProblemNo": 1,
          "Kind": 3
        },
        {
          "Start": 25,
          "End": 30,
          "Text": "{うん、それだった}",
          "Ruby": "un, sore datta",
          "Lang": "ja",
          "ProblemNo": 1,
          "Kind": 4
        },
        {
          "Start": 30,
          "End": 33,
          "Text": "{うん、それだった}",
          "Ruby": "un, sore datta",
          "Lang": "ja",
          "ProblemNo": 2,
          "Kind": 1
        },
        {
          "Start": 33,
          "End": 34,
          "Text": "{大人}",
          "Ruby": "otona",
          "Lang": "ja",
          "ProblemNo": 2,
          "Kind": 2
        },
        {
          "Start": 34,
          "End": 38,
          "Text": "{うん、大人だった}",
          "Ruby": "un, otona datta",
          "Lang": "ja",
          "ProblemNo": 2,
          "Kind": 3
        },
        {
          "Start": 38,
          "End": 43,
          "Text": "{うん、大人だった}",
          "Ruby": "un, otona datta",
          "Lang": "ja",
          "ProblemNo": 2,
          "Kind": 4
        },
        {
          "Start": 43,
          "End": 46,
          "Text": "{うん、大人だった}",
          "Ruby": "un, otona datta",
          "Lang": "ja",
          "ProblemNo": 3,
          "Kind": 1
        },
        {
          "Start": 46,
          "End": 47,
          "Text": "{だ}",
          "Ruby": "da",
          "Lang": "ja",
          "ProblemNo": 3,
          "Kind": 2
        },
        {
          "Start": 47,
          "End": 51,
          "Text": "{うん、大人だ}",
          "Ruby": "un, otona da",
          "Lang": "ja",
          "ProblemNo": 3,
          "Kind": 3
        },
        {
          "Start": 51,
          "End": 56,
          "Text": "{うん、大人だ}",
          "Ruby": "un, otona da",
          "Lang": "ja",
          "ProblemNo": 3,
          "Kind": 4
        },
        {
          "Start": 56,
          "End": 59,
          "Text": "{うん、大人だ}",
          "Ruby": "un, otona da",
          "Lang": "ja",
          "ProblemNo": 4,
          "Kind": 1
        },
        {
          "Start": 59,
          "End": 60,
          "Text": "{そう}",
          "Ruby": "sou",
          "Lang": "ja",
          "ProblemNo": 4,
          "Kind": 2
        },
        {
          "Start": 60,
          "End": 64,
          "Text": "{うん、そうだ}",
          "Ruby": "un, sou da",
          "Lang": "ja",
          "ProblemNo": 4,
          "Kind": 3
        },
        {
          "Start": 64,
          "End": 69,
          "Text": "{うん、そうだ}",
          "Ruby": "un, sou da",
          "Lang": "ja",
          "ProblemNo": 4,
          "Kind": 4
        },
        {
          "Start": 69,
          "End": 72,
          "Text": "{うん、そうだ}",
          "Ruby": "un, sou da",
          "Lang": "ja",
          "ProblemNo": 5,
          "Kind": 1
        },
        {
          "Start": 72,
          "End": 73,
          "Text": "{子供}",
          "Ruby": "kodomo",
          "Lang": "ja",
          "ProblemNo": 5,
          "Kind": 2
        },
        {
          "Start": 73,
          "End": 77,
          "Text": "{うん、子供だ}",
          "Ruby": "un, kodomo da",
          "Lang": "ja",
          "ProblemNo": 5,
          "Kind": 3
        },
        {
          "Start": 77,
          "End": 82,
          "Text": "{うん、子供だ}",
          "Ruby": "un, kodomo da",
          "Lang": "ja",
          "ProblemNo": 5,
          "Kind": 4
        },
        {
          "Start": 82,
          "End": 85,
          "Text": "{うん、子供だ}",
          "Ruby": "un, kodomo da",
          "Lang": "ja",
          "ProblemNo": 6,
          "Kind": 1
        },
        {
          "Start": 85,
          "End": 86,
          "Text": "{だった}",
          "Ruby": "datta",
          "Lang": "ja",
          "ProblemNo": 6,
          "Kind": 2
        },
        {
          "Start": 86,
          "End": 90,
          "Text": "{うん、子供だった}",
          "Ruby": "un, kodomo datta",
          "Lang": "ja",
          "ProblemNo": 6,
          "Kind": 3
        },
        {
          "Start": 90,
          "End": 95,
          "Text": "{うん、子供だった}",
          "Ruby": "un, kodomo datta",
          "Lang": "ja",
          "ProblemNo": 6,
          "Kind": 4
        },
        {
          "Start": 95,
          "End": 98,
          "Text": "{うん、子供だった}",
          "Ruby": "un, kodomo datta",
          "Lang": "ja",
          "ProblemNo": 7,
          "Kind": 1
        },
        {
          "Start": 98,
          "End": 99,
          "Text": "{いや、}",
          "Ruby": "iya,",
          "Lang": "ja",
          "ProblemNo": 7,
          "Kind": 2
        },
        {
          "Start": 99,
          "End": 101,
          "Text": "{じゃなかった}",
          "Ruby": "ja nakatta",
          "Lang": "ja",
          "ProblemNo": 7,
          "Kind": 2
        },
        {
          "Start": 101,
          "End": 105,
          "Text": "{いや、子供じゃなかった}",
          "Ruby": "iya, kodomo ja nakatta",
          "Lang": "ja",
          "ProblemNo": 7,
          "Kind": 3
        },
        {
          "Start": 105,
          "End": 110,
          "Text": "{いや、子供じゃなかった}",
          "Ruby": "iya, kodomo ja nakatta",
          "Lang": "ja",
          "ProblemNo": 7,
          "Kind": 4
        },
        {
          "Start": 110,
          "End": 113,
          "Text": "{いや、子供じゃなかった}",
          "Ruby": "iya, kodomo ja nakatta",
          "Lang": "ja",
          "ProblemNo": 8,
          "Kind": 1
        },
        {
          "Start": 113,
          "End": 114,
          "Text": "{そう}",
          "Ruby": "sou",
          "Lang": "ja",
          "ProblemNo": 8,
          "Kind": 2
        },
        {
          "Start": 114,
          "End": 118,
          "Text": "{いや、そうじゃなかった}",
          "Ruby": "iya, sou ja nakatta",
          "Lang": "ja",
          "ProblemNo": 8,
          "Kind": 3
        },
        {
          "Start": 118,
          "End": 123,
          "Text": "{いや、そうじゃなかった}",
          "Ruby": "iya, sou ja nakatta",
          "Lang": "ja",
          "ProblemNo": 8,
          "Kind": 4
        },
        {
          "Start": 123,
          "End": 126,
          "Text": "{いや、そうじゃなかった}",
          "Ruby": "iya, sou ja nakatta",
          "Lang": "ja",
          "ProblemNo": 9,
          "Kind": 1
        },
        {
          "Start": 126,
          "End": 127,
          "Text": "{うん、}",
          "Ruby": "un,",
          "Lang": "ja",
          "ProblemNo": 9,
          "Kind": 2
        },
        {
          "Start": 127,
          "End": 128,
          "Text": "{だった}",
          "Ruby": "datta",
          "Lang": "ja",
          "ProblemNo": 9,
          "Kind": 2
        },
        {
          "Start": 128,
          "End": 132,
          "Text": "{うん、そうだった}",
          "Ruby": "un, sou datta",
          "Lang": "ja",
          "ProblemNo": 9,
          "Kind": 3
        },
        {
          "Start": 132,
          "End": 137,
          "Text": "{うん、そうだった}",
          "Ruby": "un, sou datta",
          "Lang": "ja",
          "ProblemNo": 9,
          "Kind": 4
        },
        {
          "Start": 137,
          "End": 140,
          "Text": "",
          "Ruby": "",
          "Lang": "",
          "ProblemNo": 0,
          "Kind": 5
        },
        {
          "Start": 140,
          "End": 143,
          "Text": "{いや、これじゃなかった}",
          "Ruby": "iya, kore ja nakatta",
          "Lang": "ja",
          "ProblemNo": 0,
          "Kind": 1
        },
        {
          "Start": 143,
          "End": 144,
          "Text": "{それ}",
          "Ruby": "sore",
          "Lang": "ja",
          "ProblemNo": 0,
          "Kind": 2
        },
        {
          "Start": 144,
          "End": 148,
          "Text": "{いや、それじゃなかった}",
          "Ruby": "iya, sore ja nakatta",
          "Lang": "ja",
          "ProblemNo": 0,
          "Kind": 3
        },
        {
          "Start": 148,
          "End": 153,
          "Text": "{いや、それじゃなかった}",
          "Ruby": "iya, sore ja nakatta",
          "Lang": "ja",
          "ProblemNo": 0,
          "Kind": 4
        },
        {
          "Start": 153,
          "End": 156,
          "Text": "{いや、それじゃなかった}",
          "Ruby": "iya, sore ja nakatta",
          "Lang": "ja",
          "ProblemNo": 1,
          "Kind": 1
        },
        {
          "Start": 156,
          "End": 157,
          "Text": "{うん、}",
          "Ruby": "un,",
          "Lang": "ja",
          "ProblemNo": 1,
          "Kind": 2
        },
        {
          "Start": 157,
          "End": 161,
          "Text": "{うん、それだった}",
          "Ruby": "un, sore datta",
          "Lang": "ja",
          "ProblemNo": 1,
          "Kind": 3
        },
        {
          "Start": 161,
          "End": 166,
          "Text": "{うん、それだった}",
          "Ruby": "un, sore datta",
          "Lang": "ja",
          "ProblemNo": 1,
          "Kind": 4
        },
        {
          "Start": 166,
          "End": 169,
          "Text": "{うん、それだった}",
          "Ruby": "un, sore datta",
          "Lang": "ja",
          "ProblemNo": 2,
          "Kind": 1
        },
        {
          "Start": 169,
          "End": 170,
          "Text": "{大人}",
          "Ruby": "otona",
          "Lang": "ja",
          "ProblemNo": 2,
          "Kind": 2
        },
        {
          "Start": 170,
          "End": 174,
          "Text": "{うん、大人だった}",
          "Ruby": "un, otona datta",
          "Lang": "ja",
          "ProblemNo": 2,
          "Kind": 3
        },
        {
          "Start": 174,
          "End": 179,
          "Text": "{うん、大人だった}",
          "Ruby": "un, otona datta",
          "Lang": "ja",
          "ProblemNo": 2,
          "Kind": 4
        },
        {
          "Start": 179,
          "End": 182,
          "Text": "{うん、大人だった}",
          "Ruby": "un, otona datta",
          "Lang": "ja",
          "ProblemNo": 3,
          "Kind": 1
        },
        {
          "Start": 182,
          "End": 183,
          "Text": "{だ}",
          "Ruby": "da",
          "Lang": "ja",
          "ProblemNo": 3,
          "Kind": 2
        },
        {
          "Start": 183,
          "End": 187,
          "Text": "{うん、大人だ}",
          "Ruby": "un, otona da",
          "Lang": "ja",
          "ProblemNo": 3,
          "Kind": 3
        },
        {
          "Start": 187,
          "End": 192,
          "Text": "{うん、大人だ}",
          "Ruby": "un, otona da",
          "Lang": "ja",
          "ProblemNo": 3,
          "Kind": 4
        },
        {
          "Start": 192,
          "End": 195,
          "Text": "{うん、大人だ}",
          "Ruby": "un, otona da",
          "Lang": "ja",
          "ProblemNo": 4,
          "Kind": 1
        },
        {
          "Start": 195,
          "End": 196,
          "Text": "{そう}",
          "Ruby": "sou",
          "Lang": "ja",
          "ProblemNo": 4,
          "Kind": 2
        },
        {
          "Start": 196,
          "End": 200,
          "Text": "{うん、そうだ}",
          "Ruby": "un, sou da",
          "Lang": "ja",
          "ProblemNo": 4,
          "Kind": 3
        },
        {
          "Start": 200,
          "End": 205,
          "Text": "{うん、そうだ}",
          "Ruby": "un, sou da",
          "Lang": "ja",
          "ProblemNo": 4,
          "Kind": 4
        },
        {
          "Start": 205,
          "End": 208,
          "Text": "{うん、そうだ}",
          "Ruby": "un, sou da",
          "Lang": "ja",
          "ProblemNo": 5,
          "Kind": 1
        },
        {
          "Start": 208,
          "End": 209,
          "Text": "{子供}",
          "Ruby": "kodomo",
          "Lang": "ja",
          "ProblemNo": 5,
          "Kind": 2
        },
        {
          "Start": 209,
          "End": 213,
          "Text": "{うん、子供だ}",
          "Ruby": "un, kodomo da",
          "Lang": "ja",
          "ProblemNo": 5,
          "Kind": 3
        },
        {
          "Start": 213,
          "End": 218,
          "Text": "{うん、子供だ}",
          "Ruby": "un, kodomo da",
          "Lang": "ja",
          "ProblemNo": 5,
          "Kind": 4
        },
        {
          "Start": 218,
          "End": 221,
          "Text": "{うん、子供だ}",
          "Ruby": "un, kodomo da",
          "Lang": "ja",
          "ProblemNo": 6,
          "Kind": 1
        },
        {
          "Start": 221,
          "End": 222,
          "Text": "{だった}",
          "Ruby": "datta",
          "Lang": "ja",
          "ProblemNo": 6,
          "Kind": 2
        },
        {
          "Start": 222,
          "End": 226,
          "Text": "{うん、子供だった}",
          "Ruby": "un, kodomo datta",
          "Lang": "ja",
          "ProblemNo": 6,
          "Kind": 3
        },
        {
          "Start": 226,
          "End": 231,
          "Text": "{うん、子供だった}",
          "Ruby": "un, kodomo datta",
          "Lang": "ja",
          "ProblemNo": 6,
          "Kind": 4
        },
        {
          "Start": 231,
          "End": 234,
          "Text": "{うん、子供だった}",
          "Ruby": "un, kodomo datta",
          "Lang": "ja",
          "ProblemNo": 7,
          "Kind": 1
        },
        {
          "Start": 234,
          "End": 235,
          "Text": "{いや、}",
          "Ruby": "iya,",
          "Lang": "ja",
          "ProblemNo": 7,
          "Kind": 2
        },
        {
          "Start": 235,
          "End": 239,
          "Text": "{いや、子供じゃなかった}",
          "Ruby": "iya, kodomo ja nakatta",
          "Lang": "ja",
          "ProblemNo": 7,
          "Kind": 3
        },
        {
          "Start": 239,
          "End": 244,
          "Text": "{いや、子供じゃなかった}",
          "Ruby": "iya, kodomo ja nakatta",
          "Lang": "ja",
          "ProblemNo": 7,
          "Kind": 4
        },
        {
          "Start": 244,
          "End": 247,
          "Text": "{いや、子供じゃなかった}",
          "Ruby": "iya, kodomo ja nakatta",
          "Lang": "ja",
          "ProblemNo": 8,
          "Kind": 1
        },
        {
          "Start": 247,
          "End": 248,
          "Text": "{そう}",
          "Ruby": "sou",
          "Lang": "ja",
          "ProblemNo": 8,
          "Kind": 2
        },
        {
          "Start": 248,
          "End": 252,
          "Text": "{いや、そうじゃなかった}",
          "Ruby": "iya, sou ja nakatta",
          "Lang": "ja",
          "ProblemNo": 8,
          "Kind": 3
        },
        {
          "Start": 252,
          "End": 257,
          "Text": "{いや、そうじゃなかった}",
          "Ruby": "iya, sou ja nakatta",
          "Lang": "ja",
          "ProblemNo": 8,
          "Kind": 4
        },
        {
          "Start": 257,
          "End": 260,
          "Text": "{いや、そうじゃなかった}",
          "Ruby": "iya, sou ja nakatta",
          "Lang": "ja",
          "ProblemNo": 9,
          "Kind": 1
        },
        {
          "Start": 260,
          "End": 261,
          "Text": "{うん、}",
          "Ruby": "un,",
          "Lang": "ja",
          "ProblemNo": 9,
          "Kind": 2
        },
        {
          "Start": 261,
          "End": 265,
          "Text": "{うん、そうだった}",
          "Ruby": "un, sou datta",
          "Lang": "ja",
          "ProblemNo": 9,
          "Kind": 3
        },
        {
          "Start": 265,
          "End": 270,
          "Text": "{うん、そうだった}",
          "Ruby": "un, sou datta",
          "Lang": "ja",
          "ProblemNo": 9,
          "Kind": 4
        },
        {
          "Start": 270,
          "End": 273,
          "Text": "",
          "Ruby": "",
          "Lang": "",
          "ProblemNo": 0,
          "Kind": 5
        },
        {
          "Start": 273,
          "End": 276,
          "Text": "{いや、これじゃなかった}",
          "Ruby": "iya, kore ja nakatta",
          "Lang": "ja",
          "ProblemNo": 0,
          "Kind": 1
        },
        {
          "Start": 276,
          "End": 277,
          "Text": "{それ}",
          "Ruby": "sore",
          "Lang": "ja",
          "ProblemNo": 0,
          "Kind": 2
        },
        {
          "Start": 277,
          "End": 281,
          "Text": "{いや、それじゃなかった}",
          "Ruby": "iya, sore ja nakatta",
          "Lang": "ja",
          "ProblemNo": 0,
          "Kind": 3
        },
        {
          "Start": 281,
          "End": 286,
          "Text": "{いや、それじゃなかった}",
          "Ruby": "iya, sore ja nakatta",
          "Lang": "ja",
          "ProblemNo": 0,
          "Kind": 4
        },
        {
          "Start": 286,
          "End": 289,
          "Text": "{いや、それじゃなかった}",
          "Ruby": "iya, sore ja nakatta",
          "Lang": "ja",
          "ProblemNo": 1,
          "Kind": 1
        },
        {
          "Start": 289,
          "End": 290,
          "Text": "{うん、}",
          "Ruby": "un,",
          "Lang": "ja",
          "ProblemNo": 1,
          "Kind": 2
        },
        {
          "Start": 290,
          "End": 294,
          "Text": "{うん、それだった}",
          "Ruby": "un, sore datta",
          "Lang": "ja",
          "ProblemNo": 1,
          "Kind": 3
        },
        {
          "Start": 294,
          "End": 299,
          "Text": "{うん、それだった}",
          "Ruby": "un, sore datta",
          "Lang": "ja",
          "ProblemNo": 1,
          "Kind": 4
        },
        {
          "Start": 299,
          "End": 302,
          "Text": "{うん、それだった}",
          "Ruby": "un, sore datta",
          "Lang": "ja",
          "ProblemNo": 2,
          "Kind": 1
        },
        {
          "Start": 302,
          "End": 303,
          "Text": "{大人}",
          "Ruby": "otona",
          "Lang": "ja",
          "ProblemNo": 2,
          "Kind": 2
        },
        {
          "Start": 303,
          "End": 307,
          "Text": "{うん、大人だった}",
          "Ruby": "un, otona datta",
          "Lang": "ja",
          "ProblemNo": 2,
          "Kind": 3
        },
        {
          "Start": 307,
          "End": 312,
          "Text": "{うん、大人だった}",
          "Ruby": "un, otona datta",
          "Lang": "ja",
          "ProblemNo": 2,
          "Kind": 4
        },
        {
          "Start": 312,
          "End": 315,
          "Text": "{うん、大人だった}",
          "Ruby": "un, otona datta",
          "Lang": "ja",
          "ProblemNo": 3,
          "Kind": 1
        },
        {
          "Start": 315,
          "End": 316,
          "Text": "{だ}",
          "Ruby": "da",
          "Lang": "ja",
          "ProblemNo": 3,
          "Kind": 2
        },
        {
          "Start": 316,
          "End": 320,
          "Text": "{うん、大人だ}",
          "Ruby": "un, otona da",
          "Lang": "ja",
          "ProblemNo": 3,
          "Kind": 3
        },
        {
          "Start": 320,
          "End": 325,
          "Text": "{うん、大人だ}",
          "Ruby": "un, otona da",
          "Lang": "ja",
          "ProblemNo": 3,
          "Kind": 4
        },
        {
          "Start": 325,
          "End": 328,
          "Text": "{うん、大人だ}",
          "Ruby": "un, otona da",
          "Lang": "ja",
          "ProblemNo": 4,
          "Kind": 1
        },
        {
          "Start": 328,
          "End": 329,
          "Text": "{そう}",
          "Ruby": "sou",
          "Lang": "ja",
          "ProblemNo": 4,
          "Kind": 2
        },
        {
          "Start": 329,
          "End": 333,
          "Text": "{うん、そうだ}",
          "Ruby": "un, sou da",
          "Lang": "ja",
          "ProblemNo": 4,
          "Kind": 3
        },
        {
          "Start": 333,
          "End": 338,
          "Text": "{うん、そうだ}",
          "Ruby": "un, sou da",
          "Lang": "ja",
          "ProblemNo": 4,
          "Kind": 4
        },
        {
          "Start": 338,
          "End": 341,
          "Text": "{うん、そうだ}",
          "Ruby": "un, sou da",
          "Lang": "ja",
          "ProblemNo": 5,
          "Kind": 1
        },
        {
          "Start": 341,
          "End": 342,
          "Text": "{子供}",
          "Ruby": "kodomo",
          "Lang": "ja",
          "ProblemNo": 5,
          "Kind": 2
        },
        {
          "Start": 342,
          "End": 346,
          "Text": "{うん、子供だ}",
          "Ruby": "un, kodomo da",
          "Lang": "ja",
          "ProblemNo": 5,
          "Kind": 3
        },
        {
          "Start": 346,
          "End": 351,
          "Text": "{うん、子供だ}",
          "Ruby": "un, kodomo da",
          "Lang": "ja",
          "ProblemNo": 5,
          "Kind": 4
        },
        {
          "Start": 351,
          "End": 354,
          "Text": "{うん、子供だ}",
          "Ruby": "un, kodomo da",
          "Lang": "ja",
          "ProblemNo": 6,
          "Kind": 1
        },
        {
          "Start": 354,
          "End": 355,
          "Text": "{だった}",
          "Ruby": "datta",
          "Lang": "ja",
          "ProblemNo": 6,
          "Kind": 2
        },
        {
          "Start": 355,
          "End": 359,
          "Text": "{うん、子供だった}",
          "Ruby": "un, kodomo datta",
          "Lang": "ja",
          "ProblemNo": 6,
          "Kind": 3
        },
        {
          "Start": 359,
          "End": 364,
          "Text": "{うん、子供だった}",
          "Ruby": "un, kodomo datta",
          "Lang": "ja",
          "ProblemNo": 6,
          "Kind": 4
        },
        {
          "Start": 364,
          "End": 367,
          "Text": "{うん、子供だった}",
          "Ruby": "un, kodomo datta",
          "Lang": "ja",
          "ProblemNo": 7,
          "Kind": 1
        },
        {
          "Start": 367,
          "End": 368,
          "Text": "{いや、}",
          "Ruby": "iya,",
          "Lang": "ja",
          "ProblemNo": 7,
          "Kind": 2
        },
        {
          "Start": 368,
          "End": 372,
          "Text": "{いや、子供じゃなかった}",
          "Ruby": "iya, kodomo ja nakatta",
          "Lang": "ja",
          "ProblemNo": 7,
          "Kind": 3
        },
        {
          "Start": 372,
          "End": 377,
          "Text": "{いや、子供じゃなかった}",
          "Ruby": "iya, kodomo ja nakatta",
          "Lang": "ja",
          "ProblemNo": 7,
          "Kind": 4
        },
        {
          "Start": 377,
          "End": 380,
          "Text": "{いや、子供じゃなかった}",
          "Ruby": "iya, kodomo ja nakatta",
          "Lang": "ja",
          "ProblemNo": 8,
          "Kind": 1
        },
        {
          "Start": 380,
          "End": 381,
          "Text": "{そう}",
          "Ruby": "sou",
          "Lang": "ja",
          "ProblemNo": 8,
          "Kind": 2
        },
        {
          "Start": 381,
          "End": 385,
          "Text": "{いや、そうじゃなかった}",
          "Ruby": "iya, sou ja nakatta",
          "Lang": "ja",
          "ProblemNo": 8,
          "Kind": 3
        },
        {
          "Start": 385,
          "End": 390,
          "Text": "{いや、そうじゃなかった}",
          "Ruby": "iya, sou ja nakatta",
          "Lang": "ja",
          "ProblemNo": 8,
          "Kind": 4
        },
        {
          "Start": 390,
          "End": 393,
          "Text": "{いや、そうじゃなかった}",
          "Ruby": "iya, sou ja nakatta",
          "Lang": "ja",
          "ProblemNo": 9,
          "Kind": 1
        },
        {
          "Start": 393,
          "End": 394,
          "Text": "{うん、}",
          "Ruby": "un,",
          "Lang": "ja",
          "ProblemNo": 9,
          "Kind": 2
        },
        {
          "Start": 394,
          "End": 398,
          "Text": "{うん、そうだった}",
          "Ruby": "un, sou datta",
          "Lang": "ja",
          "ProblemNo": 9,
          "Kind": 3
        },
        {
          "Start": 398,
          "End": 403,
          "Text": "{うん、そうだった}",
          "Ruby": "un, sou datta",
          "Lang": "ja",
          "ProblemNo": 9,
          "Kind": 4
        },
        {
          "Start": 403,
          "End": 406,
          "Text": "",
          "Ruby": "",
          "Lang": "",
          "ProblemNo": 0,
          "Kind": 5
        },
        {
          "Start": 406,
          "End": 426,
          "Text": "{Please subscribe!}",
          "Ruby": "",
          "Lang": "en",
          "ProblemNo": 0,
          "Kind": 7
        }
      ]
    }
  ],
  "CannotChange": true
}