{
  "SerieName": "grammar-ja-tk",
  "No": 54,
  "VideoTitle": "く",
  "ThumbnailTitle": "",
  "YoutubeDescription": "{Grammatical explanation}:\n{Tae Kim's Guide to Learning Japanese}\n{http://www.guidetojapanese.org/learn/grammar/adverbs}",
  "YoutubeTitle": "",
  "Boxes": [
    {
      "Pos": 0,
      "PersonName": "z",
      "Candidates": [
        {
          "Word": "画面",
          "Root": "",
          "FeatureSet": null,
          "Conditions": null,
          "PersonConditions": null
        },
        {
          "Word": "顔",
          "Root": "",
          "FeatureSet": null,
          "Conditions": null,
          "PersonConditions": null
        },
        {
          "Word": "空",
          "Root": "",
          "FeatureSet": null,
          "Conditions": null,
          "PersonConditions": null
        }
      ]
    },
    {
      "Pos": 1,
      "PersonName": "z",
      "Candidates": [
        {
          "Word": "が",
          "Root": "",
          "FeatureSet": null,
          "Conditions": null,
          "PersonConditions": null
        }
      ]
    },
    {
      "Pos": 2,
      "PersonName": "z",
      "Candidates": [
        {
          "Word": "青く",
          "Root": "",
          "FeatureSet": null,
          "Conditions": null,
          "PersonConditions": null
        },
        {
          "Word": "赤く",
          "Root": "",
          "FeatureSet": null,
          "Conditions": null,
          "PersonConditions": null
        },
        {
          "Word": "白く",
          "Root": "",
          "FeatureSet": null,
          "Conditions": null,
          "PersonConditions": null
        },
        {
          "Word": "黒く",
          "Root": "",
          "FeatureSet": null,
          "Conditions": null,
          "PersonConditions": null
        }
      ]
    },
    {
      "Pos": 3,
      "PersonName": "z",
      "Candidates": [
        {
          "Word": "なった",
          "Root": "",
          "FeatureSet": null,
          "Conditions": null,
          "PersonConditions": null
        }
      ]
    }
  ],
  "Pars": [
    {
      "Header": "",
      "Poses": [
        0,
        1,
        2,
        3
      ]
    }
  ],
  "Exercises": [
    {
      "Name": "A",
      "Problems": [
        {
          "ProblemNo": 0,
          "OriginalCandidates": [
            {
              "Word": "顔",
              "Ruby": "kao"
            },
            {
              "Word": "が",
              "Ruby": "ga"
            },
            {
              "Word": "赤く",
              "Ruby": "akaku"
            },
            {
              "Word": "なった",
              "Ruby": "natta"
            }
          ],
          "ChangeCandidatePos": 2,
          "ChangeCandidates": [
            {
              "Word": "",
              "Ruby": ""
            },
            {
              "Word": "",
              "Ruby": ""
            },
            {
              "Word": "黒く",
              "Ruby": "kuroku"
            },
            {
              "Word": "",
              "Ruby": ""
            }
          ],
          "ChangeMorphemes": [
            {
              "Word": "",
              "Root": "",
              "FeatureSet": null
            },
            {
              "Word": "",
              "Root": "",
              "FeatureSet": null
            },
            {
              "Word": "黒く",
              "Root": "",
              "FeatureSet": null
            },
            {
              "Word": "",
              "Root": "",
              "FeatureSet": null
            }
          ],
          "AnswerCandidates": [
            {
              "Word": "顔",
              "Ruby": "kao"
            },
            {
              "Word": "が",
              "Ruby": "ga"
            },
            {
              "Word": "黒く",
              "Ruby": "kuroku"
            },
            {
              "Word": "なった",
              "Ruby": "natta"
            }
          ]
        },
        {
          "ProblemNo": 1,
          "OriginalCandidates": [
            {
              "Word": "顔",
              "Ruby": "kao"
            },
            {
              "Word": "が",
              "Ruby": "ga"
            },
            {
              "Word": "黒く",
              "Ruby": "kuroku"
            },
            {
              "Word": "なった",
              "Ruby": "natta"
            }
          ],
          "ChangeCandidatePos": 2,
          "ChangeCandidates": [
            {
              "Word": "",
              "Ruby": ""
            },
            {
              "Word": "",
              "Ruby": ""
            },
            {
              "Word": "白く",
              "Ruby": "shiroku"
            },
            {
              "Word": "",
              "Ruby": ""
            }
          ],
          "ChangeMorphemes": [
            {
              "Word": "",
              "Root": "",
              "FeatureSet": null
            },
            {
              "Word": "",
              "Root": "",
              "FeatureSet": null
            },
            {
              "Word": "白く",
              "Root": "",
              "FeatureSet": null
            },
            {
              "Word": "",
              "Root": "",
              "FeatureSet": null
            }
          ],
          "AnswerCandidates": [
            {
              "Word": "顔",
              "Ruby": "kao"
            },
            {
              "Word": "が",
              "Ruby": "ga"
            },
            {
              "Word": "白く",
              "Ruby": "shiroku"
            },
            {
              "Word": "なった",
              "Ruby": "natta"
            }
          ]
        },
        {
          "ProblemNo": 2,
          "OriginalCandidates": [
            {
              "Word": "顔",
              "Ruby": "kao"
            },
            {
              "Word": "が",
              "Ruby": "ga"
            },
            {
              "Word": "白く",
              "Ruby": "shiroku"
            },
            {
              "Word": "なった",
              "Ruby": "natta"
            }
          ],
          "ChangeCandidatePos": 0,
          "ChangeCandidates": [
            {
              "Word": "空",
              "Ruby": "sora"
            },
            {
              "Word": "",
              "Ruby": ""
            },
            {
              "Word": "",
              "Ruby": ""
            },
            {
              "Word": "",
              "Ruby": ""
            }
          ],
          "ChangeMorphemes": [
            {
              "Word": "空",
              "Root": "",
              "FeatureSet": null
            },
            {
              "Word": "",
              "Root": "",
              "FeatureSet": null
            },
            {
              "Word": "",
              "Root": "",
              "FeatureSet": null
            },
            {
              "Word": "",
              "Root": "",
              "FeatureSet": null
            }
          ],
          "AnswerCandidates": [
            {
              "Word": "空",
              "Ruby": "sora"
            },
            {
              "Word": "が",
              "Ruby": "ga"
            },
            {
              "Word": "白く",
              "Ruby": "shiroku"
            },
            {
              "Word": "なった",
              "Ruby": "natta"
            }
          ]
        },
        {
          "ProblemNo": 3,
          "OriginalCandidates": [
            {
              "Word": "空",
              "Ruby": "sora"
            },
            {
              "Word": "が",
              "Ruby": "ga"
            },
            {
              "Word": "白く",
              "Ruby": "shiroku"
            },
            {
              "Word": "なった",
              "Ruby": "natta"
            }
          ],
          "ChangeCandidatePos": 2,
          "ChangeCandidates": [
            {
              "Word": "",
              "Ruby": ""
            },
            {
              "Word": "",
              "Ruby": ""
            },
            {
              "Word": "青く",
              "Ruby": "aoku"
            },
            {
              "Word": "",
              "Ruby": ""
            }
          ],
          "ChangeMorphemes": [
            {
              "Word": "",
              "Root": "",
              "FeatureSet": null
            },
            {
              "Word": "",
              "Root": "",
              "FeatureSet": null
            },
            {
              "Word": "青く",
              "Root": "",
              "FeatureSet": null
            },
            {
              "Word": "",
              "Root": "",
              "FeatureSet": null
            }
          ],
          "AnswerCandidates": [
            {
              "Word": "空",
              "Ruby": "sora"
            },
            {
              "Word": "が",
              "Ruby": "ga"
            },
            {
              "Word": "青く",
              "Ruby": "aoku"
            },
            {
              "Word": "なった",
              "Ruby": "natta"
            }
          ]
        },
        {
          "ProblemNo": 4,
          "OriginalCandidates": [
            {
              "Word": "空",
              "Ruby": "sora"
            },
            {
              "Word": "が",
              "Ruby": "ga"
            },
            {
              "Word": "青く",
              "Ruby": "aoku"
            },
            {
              "Word": "なった",
              "Ruby": "natta"
            }
          ],
          "ChangeCandidatePos": 0,
          "ChangeCandidates": [
            {
              "Word": "顔",
              "Ruby": "kao"
            },
            {
              "Word": "",
              "Ruby": ""
            },
            {
              "Word": "",
              "Ruby": ""
            },
            {
              "Word": "",
              "Ruby": ""
            }
          ],
          "ChangeMorphemes": [
            {
              "Word": "顔",
              "Root": "",
              "FeatureSet": null
            },
            {
              "Word": "",
              "Root": "",
              "FeatureSet": null
            },
            {
              "Word": "",
              "Root": "",
              "FeatureSet": null
            },
            {
              "Word": "",
              "Root": "",
              "FeatureSet": null
            }
          ],
          "AnswerCandidates": [
            {
              "Word": "顔",
              "Ruby": "kao"
            },
            {
              "Word": "が",
              "Ruby": "ga"
            },
            {
              "Word": "青く",
              "Ruby": "aoku"
            },
            {
              "Word": "なった",
              "Ruby": "natta"
            }
          ]
        },
        {
          "ProblemNo": 5,
          "OriginalCandidates": [
            {
              "Word": "顔",
              "Ruby": "kao"
            },
            {
              "Word": "が",
              "Ruby": "ga"
            },
            {
              "Word": "青く",
              "Ruby": "aoku"
            },
            {
              "Word": "なった",
              "Ruby": "natta"
            }
          ],
          "ChangeCandidatePos": 0,
          "ChangeCandidates": [
            {
              "Word": "画面",
              "Ruby": "gamen"
            },
            {
              "Word": "",
              "Ruby": ""
            },
            {
              "Word": "",
              "Ruby": ""
            },
            {
              "Word": "",
              "Ruby": ""
            }
          ],
          "ChangeMorphemes": [
            {
              "Word": "画面",
              "Root": "",
              "FeatureSet": null
            },
            {
              "Word": "",
              "Root": "",
              "FeatureSet": null
            },
            {
              "Word": "",
              "Root": "",
              "FeatureSet": null
            },
            {
              "Word": "",
              "Root": "",
              "FeatureSet": null
            }
          ],
          "AnswerCandidates": [
            {
              "Word": "画面",
              "Ruby": "gamen"
            },
            {
              "Word": "が",
              "Ruby": "ga"
            },
            {
              "Word": "青く",
              "Ruby": "aoku"
            },
            {
              "Word": "なった",
              "Ruby": "natta"
            }
          ]
        },
        {
          "ProblemNo": 6,
          "OriginalCandidates": [
            {
              "Word": "画面",
              "Ruby": "gamen"
            },
            {
              "Word": "が",
              "Ruby": "ga"
            },
            {
              "Word": "青く",
              "Ruby": "aoku"
            },
            {
              "Word": "なった",
              "Ruby": "natta"
            }
          ],
          "ChangeCandidatePos": 2,
          "ChangeCandidates": [
            {
              "Word": "",
              "Ruby": ""
            },
            {
              "Word": "",
              "Ruby": ""
            },
            {
              "Word": "白く",
              "Ruby": "shiroku"
            },
            {
              "Word": "",
              "Ruby": ""
            }
          ],
          "ChangeMorphemes": [
            {
              "Word": "",
              "Root": "",
              "FeatureSet": null
            },
            {
              "Word": "",
              "Root": "",
              "FeatureSet": null
            },
            {
              "Word": "白く",
              "Root": "",
              "FeatureSet": null
            },
            {
              "Word": "",
              "Root": "",
              "FeatureSet": null
            }
          ],
          "AnswerCandidates": [
            {
              "Word": "画面",
              "Ruby": "gamen"
            },
            {
              "Word": "が",
              "Ruby": "ga"
            },
            {
              "Word": "白く",
              "Ruby": "shiroku"
            },
            {
              "Word": "なった",
              "Ruby": "natta"
            }
          ]
        },
        {
          "ProblemNo": 7,
          "OriginalCandidates": [
            {
              "Word": "画面",
              "Ruby": "gamen"
            },
            {
              "Word": "が",
              "Ruby": "ga"
            },
            {
              "Word": "白く",
              "Ruby": "shiroku"
            },
            {
              "Word": "なった",
              "Ruby": "natta"
            }
          ],
          "ChangeCandidatePos": 2,
          "ChangeCandidates": [
            {
              "Word": "",
              "Ruby": ""
            },
            {
              "Word": "",
              "Ruby": ""
            },
            {
              "Word": "赤く",
              "Ruby": "akaku"
            },
            {
              "Word": "",
              "Ruby": ""
            }
          ],
          "ChangeMorphemes": [
            {
              "Word": "",
              "Root": "",
              "FeatureSet": null
            },
            {
              "Word": "",
              "Root": "",
              "FeatureSet": null
            },
            {
              "Word": "赤く",
              "Root": "",
              "FeatureSet": null
            },
            {
              "Word": "",
              "Root": "",
              "FeatureSet": null
            }
          ],
          "AnswerCandidates": [
            {
              "Word": "画面",
              "Ruby": "gamen"
            },
            {
              "Word": "が",
              "Ruby": "ga"
            },
            {
              "Word": "赤く",
              "Ruby": "akaku"
            },
            {
              "Word": "なった",
              "Ruby": "natta"
            }
          ]
        },
        {
          "ProblemNo": 8,
          "OriginalCandidates": [
            {
              "Word": "画面",
              "Ruby": "gamen"
            },
            {
              "Word": "が",
              "Ruby": "ga"
            },
            {
              "Word": "赤く",
              "Ruby": "akaku"
            },
            {
              "Word": "なった",
              "Ruby": "natta"
            }
          ],
          "ChangeCandidatePos": 2,
          "ChangeCandidates": [
            {
              "Word": "",
              "Ruby": ""
            },
            {
              "Word": "",
              "Ruby": ""
            },
            {
              "Word": "黒く",
              "Ruby": "kuroku"
            },
            {
              "Word": "",
              "Ruby": ""
            }
          ],
          "ChangeMorphemes": [
            {
              "Word": "",
              "Root": "",
              "FeatureSet": null
            },
            {
              "Word": "",
              "Root": "",
              "FeatureSet": null
            },
            {
              "Word": "黒く",
              "Root": "",
              "FeatureSet": null
            },
            {
              "Word": "",
              "Root": "",
              "FeatureSet": null
            }
          ],
          "AnswerCandidates": [
            {
              "Word": "画面",
              "Ruby": "gamen"
            },
            {
              "Word": "が",
              "Ruby": "ga"
            },
            {
              "Word": "黒く",
              "Ruby": "kuroku"
            },
            {
              "Word": "なった",
              "Ruby": "natta"
            }
          ]
        },
        {
          "ProblemNo": 9,
          "OriginalCandidates": [
            {
              "Word": "画面",
              "Ruby": "gamen"
            },
            {
              "Word": "が",
              "Ruby": "ga"
            },
            {
              "Word": "黒く",
              "Ruby": "kuroku"
            },
            {
              "Word": "なった",
              "Ruby": "natta"
            }
          ],
          "ChangeCandidatePos": 0,
          "ChangeCandidates": [
            {
              "Word": "空",
              "Ruby": "sora"
            },
            {
              "Word": "",
              "Ruby": ""
            },
            {
              "Word": "",
              "Ruby": ""
            },
            {
              "Word": "",
              "Ruby": ""
            }
          ],
          "ChangeMorphemes": [
            {
              "Word": "空",
              "Root": "",
              "FeatureSet": null
            },
            {
              "Word": "",
              "Root": "",
              "FeatureSet": null
            },
            {
              "Word": "",
              "Root": "",
              "FeatureSet": null
            },
            {
              "Word": "",
              "Root": "",
              "FeatureSet": null
            }
          ],
          "AnswerCandidates": [
            {
              "Word": "空",
              "Ruby": "sora"
            },
            {
              "Word": "が",
              "Ruby": "ga"
            },
            {
              "Word": "黒く",
              "Ruby": "kuroku"
            },
            {
              "Word": "なった",
              "Ruby": "natta"
            }
          ]
        }
      ],
      "VideoFile": "grammar-ja-tk_54_A.mp4",
      "AnimeticCaptions": [
        {
          "Start": 0,
          "End": 3,
          "Text": "Japanese grammar exercises #54 く",
          "Ruby": "",
          "Lang": "",
          "ProblemNo": 0,
          "Kind": 0
        },
        {
          "Start": 3,
          "End": 6,
          "Text": "{顔が赤くなった}",
          "Ruby": "kao ga akaku natta",
          "Lang": "ja",
          "ProblemNo": 0,
          "Kind": 1
        },
        {
          "Start": 6,
          "End": 7,
          "Text": "{黒く}",
          "Ruby": "kuroku",
          "Lang": "ja",
          "ProblemNo": 0,
          "Kind": 2
        },
        {
          "Start": 7,
          "End": 11,
          "Text": "{顔が黒くなった}",
          "Ruby": "kao ga kuroku natta",
          "Lang": "ja",
          "ProblemNo": 0,
          "Kind": 3
        },
        {
          "Start": 11,
          "End": 16,
          "Text": "{顔が黒くなった}",
          "Ruby": "kao ga kuroku natta",
          "Lang": "ja",
          "ProblemNo": 0,
          "Kind": 4
        },
        {
          "Start": 16,
          "End": 19,
          "Text": "{顔が黒くなった}",
          "Ruby": "kao ga kuroku natta",
          "Lang": "ja",
          "ProblemNo": 1,
          "Kind": 1
        },
        {
          "Start": 19,
          "End": 20,
          "Text": "{白く}",
          "Ruby": "shiroku",
          "Lang": "ja",
          "ProblemNo": 1,
          "Kind": 2
        },
        {
          "Start": 20,
          "End": 24,
          "Text": "{顔が白くなった}",
          "Ruby": "kao ga shiroku natta",
          "Lang": "ja",
          "ProblemNo": 1,
          "Kind": 3
        },
        {
          "Start": 24,
          "End": 29,
          "Text": "{顔が白くなった}",
          "Ruby": "kao ga shiroku natta",
          "Lang": "ja",
          "ProblemNo": 1,
          "Kind": 4
        },
        {
          "Start": 29,
          "End": 32,
          "Text": "{顔が白くなった}",
          "Ruby": "kao ga shiroku natta",
          "Lang": "ja",
          "ProblemNo": 2,
          "Kind": 1
        },
        {
          "Start": 32,
          "End": 33,
          "Text": "{空}",
          "Ruby": "sora",
          "Lang": "ja",
          "ProblemNo": 2,
          "Kind": 2
        },
        {
          "Start": 33,
          "End": 37,
          "Text": "{空が白くなった}",
          "Ruby": "sora ga shiroku natta",
          "Lang": "ja",
          "ProblemNo": 2,
          "Kind": 3
        },
        {
          "Start": 37,
          "End": 42,
          "Text": "{空が白くなった}",
          "Ruby": "sora ga shiroku natta",
          "Lang": "ja",
          "ProblemNo": 2,
          "Kind": 4
        },
        {
          "Start": 42,
          "End": 45,
          "Text": "{空が白くなった}",
          "Ruby": "sora ga shiroku natta",
          "Lang": "ja",
          "ProblemNo": 3,
          "Kind": 1
        },
        {
          "Start": 45,
          "End": 46,
          "Text": "{青く}",
          "Ruby": "aoku",
          "Lang": "ja",
          "ProblemNo": 3,
          "Kind": 2
        },
        {
          "Start": 46,
          "End": 50,
          "Text": "{空が青くなった}",
          "Ruby": "sora ga aoku natta",
          "Lang": "ja",
          "ProblemNo": 3,
          "Kind": 3
        },
        {
          "Start": 50,
          "End": 55,
          "Text": "{空が青くなった}",
          "Ruby": "sora ga aoku natta",
          "Lang": "ja",
          "ProblemNo": 3,
          "Kind": 4
        },
        {
          "Start": 55,
          "End": 58,
          "Text": "{空が青くなった}",
          "Ruby": "sora ga aoku natta",
          "Lang": "ja",
          "ProblemNo": 4,
          "Kind": 1
        },
        {
          "Start": 58,
          "End": 59,
          "Text": "{顔}",
          "Ruby": "kao",
          "Lang": "ja",
          "ProblemNo": 4,
          "Kind": 2
        },
        {
          "Start": 59,
          "End": 63,
          "Text": "{顔が青くなった}",
          "Ruby": "kao ga aoku natta",
          "Lang": "ja",
          "ProblemNo": 4,
          "Kind": 3
        },
        {
          "Start": 63,
          "End": 68,
          "Text": "{顔が青くなった}",
          "Ruby": "kao ga aoku natta",
          "Lang": "ja",
          "ProblemNo": 4,
          "Kind": 4
        },
        {
          "Start": 68,
          "End": 71,
          "Text": "{顔が青くなった}",
          "Ruby": "kao ga aoku natta",
          "Lang": "ja",
          "ProblemNo": 5,
          "Kind": 1
        },
        {
          "Start": 71,
          "End": 72,
          "Text": "{画面}",
          "Ruby": "gamen",
          "Lang": "ja",
          "ProblemNo": 5,
          "Kind": 2
        },
        {
          "Start": 72,
          "End": 76,
          "Text": "{画面が青くなった}",
          "Ruby": "gamen ga aoku natta",
          "Lang": "ja",
          "ProblemNo": 5,
          "Kind": 3
        },
        {
          "Start": 76,
          "End": 81,
          "Text": "{画面が青くなった}",
          "Ruby": "gamen ga aoku natta",
          "Lang": "ja",
          "ProblemNo": 5,
          "Kind": 4
        },
        {
          "Start": 81,
          "End": 84,
          "Text": "{画面が青くなった}",
          "Ruby": "gamen ga aoku natta",
          "Lang": "ja",
          "ProblemNo": 6,
          "Kind": 1
        },
        {
          "Start": 84,
          "End": 85,
          "Text": "{白く}",
          "Ruby": "shiroku",
          "Lang": "ja",
          "ProblemNo": 6,
          "Kind": 2
        },
        {
          "Start": 85,
          "End": 89,
          "Text": "{画面が白くなった}",
          "Ruby": "gamen ga shiroku natta",
          "Lang": "ja",
          "ProblemNo": 6,
          "Kind": 3
        },
        {
          "Start": 89,
          "End": 94,
          "Text": "{画面が白くなった}",
          "Ruby": "gamen ga shiroku natta",
          "Lang": "ja",
          "ProblemNo": 6,
          "Kind": 4
        },
        {
          "Start": 94,
          "End": 97,
          "Text": "{画面が白くなった}",
          "Ruby": "gamen ga shiroku natta",
          "Lang": "ja",
          "ProblemNo": 7,
          "Kind": 1
        },
        {
          "Start": 97,
          "End": 98,
          "Text": "{赤く}",
          "Ruby": "akaku",
          "Lang": "ja",
          "ProblemNo": 7,
          "Kind": 2
        },
        {
          "Start": 98,
          "End": 102,
          "Text": "{画面が赤くなった}",
          "Ruby": "gamen ga akaku natta",
          "Lang": "ja",
          "ProblemNo": 7,
          "Kind": 3
        },
        {
          "Start": 102,
          "End": 107,
          "Text": "{画面が赤くなった}",
          "Ruby": "gamen ga akaku natta",
          "Lang": "ja",
          "ProblemNo": 7,
          "Kind": 4
        },
        {
          "Start": 107,
          "End": 110,
          "Text": "{画面が赤くなった}",
          "Ruby": "gamen ga akaku natta",
          "Lang": "ja",
          "ProblemNo": 8,
          "Kind": 1
        },
        {
          "Start": 110,
          "End": 111,
          "Text": "{黒く}",
          "Ruby": "kuroku",
          "Lang": "ja",
          "ProblemNo": 8,
          "Kind": 2
        },
        {
          "Start": 111,
          "End": 115,
          "Text": "{画面が黒くなった}",
          "Ruby": "gamen ga kuroku natta",
          "Lang": "ja",
          "ProblemNo": 8,
          "Kind": 3
        },
        {
          "Start": 115,
          "End": 120,
          "Text": "{画面が黒くなった}",
          "Ruby": "gamen ga kuroku natta",
          "Lang": "ja",
          "ProblemNo": 8,
          "Kind": 4
        },
        {
          "Start": 120,
          "End": 123,
          "Text": "{画面が黒くなった}",
          "Ruby": "gamen ga kuroku natta",
          "Lang": "ja",
          "ProblemNo": 9,
          "Kind": 1
        },
        {
          "Start": 123,
          "End": 124,
          "Text": "{空}",
          "Ruby": "sora",
          "Lang": "ja",
          "ProblemNo": 9,
          "Kind": 2
        },
        {
          "Start": 124,
          "End": 128,
          "Text": "{空が黒くなった}",
          "Ruby": "sora ga kuroku natta",
          "Lang": "ja",
          "ProblemNo": 9,
          "Kind": 3
        },
        {
          "Start": 128,
          "End": 133,
          "Text": "{空が黒くなった}",
          "Ruby": "sora ga kuroku natta",
          "Lang": "ja",
          "ProblemNo": 9,
          "Kind": 4
        },
        {
          "Start": 133,
          "End": 136,
          "Text": "",
          "Ruby": "",
          "Lang": "",
          "ProblemNo": 0,
          "Kind": 5
        },
        {
          "Start": 136,
          "End": 139,
          "Text": "{顔が赤くなった}",
          "Ruby": "kao ga akaku natta",
          "Lang": "ja",
          "ProblemNo": 0,
          "Kind": 1
        },
        {
          "Start": 139,
          "End": 140,
          "Text": "{黒く}",
          "Ruby": "kuroku",
          "Lang": "ja",
          "ProblemNo": 0,
          "Kind": 2
        },
        {
          "Start": 140,
          "End": 144,
          "Text": "{顔が黒くなった}",
          "Ruby": "kao ga kuroku natta",
          "Lang": "ja",
          "ProblemNo": 0,
          "Kind": 3
        },
        {
          "Start": 144,
          "End": 149,
          "Text": "{顔が黒くなった}",
          "Ruby": "kao ga kuroku natta",
          "Lang": "ja",
          "ProblemNo": 0,
          "Kind": 4
        },
        {
          "Start": 149,
          "End": 152,
          "Text": "{顔が黒くなった}",
          "Ruby": "kao ga kuroku natta",
          "Lang": "ja",
          "ProblemNo": 1,
          "Kind": 1
        },
        {
          "Start": 152,
          "End": 153,
          "Text": "{白く}",
          "Ruby": "shiroku",
          "Lang": "ja",
          "ProblemNo": 1,
          "Kind": 2
        },
        {
          "Start": 153,
          "End": 157,
          "Text": "{顔が白くなった}",
          "Ruby": "kao ga shiroku natta",
          "Lang": "ja",
          "ProblemNo": 1,
          "Kind": 3
        },
        {
          "Start": 157,
          "End": 162,
          "Text": "{顔が白くなった}",
          "Ruby": "kao ga shiroku natta",
          "Lang": "ja",
          "ProblemNo": 1,
          "Kind": 4
        },
        {
          "Start": 162,
          "End": 165,
          "Text": "{顔が白くなった}",
          "Ruby": "kao ga shiroku natta",
          "Lang": "ja",
          "ProblemNo": 2,
          "Kind": 1
        },
        {
          "Start": 165,
          "End": 166,
          "Text": "{空}",
          "Ruby": "sora",
          "Lang": "ja",
          "ProblemNo": 2,
          "Kind": 2
        },
        {
          "Start": 166,
          "End": 170,
          "Text": "{空が白くなった}",
          "Ruby": "sora ga shiroku natta",
          "Lang": "ja",
          "ProblemNo": 2,
          "Kind": 3
        },
        {
          "Start": 170,
          "End": 175,
          "Text": "{空が白くなった}",
          "Ruby": "sora ga shiroku natta",
          "Lang": "ja",
          "ProblemNo": 2,
          "Kind": 4
        },
        {
          "Start": 175,
          "End": 178,
          "Text": "{空が白くなった}",
          "Ruby": "sora ga shiroku natta",
          "Lang": "ja",
          "ProblemNo": 3,
          "Kind": 1
        },
        {
          "Start": 178,
          "End": 179,
          "Text": "{青く}",
          "Ruby": "aoku",
          "Lang": "ja",
          "ProblemNo": 3,
          "Kind": 2
        },
        {
          "Start": 179,
          "End": 183,
          "Text": "{空が青くなった}",
          "Ruby": "sora ga aoku natta",
          "Lang": "ja",
          "ProblemNo": 3,
          "Kind": 3
        },
        {
          "Start": 183,
          "End": 188,
          "Text": "{空が青くなった}",
          "Ruby": "sora ga aoku natta",
          "Lang": "ja",
          "ProblemNo": 3,
          "Kind": 4
        },
        {
          "Start": 188,
          "End": 191,
          "Text": "{空が青くなった}",
          "Ruby": "sora ga aoku natta",
          "Lang": "ja",
          "ProblemNo": 4,
          "Kind": 1
        },
        {
          "Start": 191,
          "End": 192,
          "Text": "{顔}",
          "Ruby": "kao",
          "Lang": "ja",
          "ProblemNo": 4,
          "Kind": 2
        },
        {
          "Start": 192,
          "End": 196,
          "Text": "{顔が青くなった}",
          "Ruby": "kao ga aoku natta",
          "Lang": "ja",
          "ProblemNo": 4,
          "Kind": 3
        },
        {
          "Start": 196,
          "End": 201,
          "Text": "{顔が青くなった}",
          "Ruby": "kao ga aoku natta",
          "Lang": "ja",
          "ProblemNo": 4,
          "Kind": 4
        },
        {
          "Start": 201,
          "End": 204,
          "Text": "{顔が青くなった}",
          "Ruby": "kao ga aoku natta",
          "Lang": "ja",
          "ProblemNo": 5,
          "Kind": 1
        },
        {
          "Start": 204,
          "End": 205,
          "Text": "{画面}",
          "Ruby": "gamen",
          "Lang": "ja",
          "ProblemNo": 5,
          "Kind": 2
        },
        {
          "Start": 205,
          "End": 209,
          "Text": "{画面が青くなった}",
          "Ruby": "gamen ga aoku natta",
          "Lang": "ja",
          "ProblemNo": 5,
          "Kind": 3
        },
        {
          "Start": 209,
          "End": 214,
          "Text": "{画面が青くなった}",
          "Ruby": "gamen ga aoku natta",
          "Lang": "ja",
          "ProblemNo": 5,
          "Kind": 4
        },
        {
          "Start": 214,
          "End": 217,
          "Text": "{画面が青くなった}",
          "Ruby": "gamen ga aoku natta",
          "Lang": "ja",
          "ProblemNo": 6,
          "Kind": 1
        },
        {
          "Start": 217,
          "End": 218,
          "Text": "{白く}",
          "Ruby": "shiroku",
          "Lang": "ja",
          "ProblemNo": 6,
          "Kind": 2
        },
        {
          "Start": 218,
          "End": 222,
          "Text": "{画面が白くなった}",
          "Ruby": "gamen ga shiroku natta",
          "Lang": "ja",
          "ProblemNo": 6,
          "Kind": 3
        },
        {
          "Start": 222,
          "End": 227,
          "Text": "{画面が白くなった}",
          "Ruby": "gamen ga shiroku natta",
          "Lang": "ja",
          "ProblemNo": 6,
          "Kind": 4
        },
        {
          "Start": 227,
          "End": 230,
          "Text": "{画面が白くなった}",
          "Ruby": "gamen ga shiroku natta",
          "Lang": "ja",
          "ProblemNo": 7,
          "Kind": 1
        },
        {
          "Start": 230,
          "End": 231,
          "Text": "{赤く}",
          "Ruby": "akaku",
          "Lang": "ja",
          "ProblemNo": 7,
          "Kind": 2
        },
        {
          "Start": 231,
          "End": 235,
          "Text": "{画面が赤くなった}",
          "Ruby": "gamen ga akaku natta",
          "Lang": "ja",
          "ProblemNo": 7,
          "Kind": 3
        },
        {
          "Start": 235,
          "End": 240,
          "Text": "{画面が赤くなった}",
          "Ruby": "gamen ga akaku natta",
          "Lang": "ja",
          "ProblemNo": 7,
          "Kind": 4
        },
        {
          "Start": 240,
          "End": 243,
          "Text": "{画面が赤くなった}",
          "Ruby": "gamen ga akaku natta",
          "Lang": "ja",
          "ProblemNo": 8,
          "Kind": 1
        },
        {
          "Start": 243,
          "End": 244,
          "Text": "{黒く}",
          "Ruby": "kuroku",
          "Lang": "ja",
          "ProblemNo": 8,
          "Kind": 2
        },
        {
          "Start": 244,
          "End": 248,
          "Text": "{画面が黒くなった}",
          "Ruby": "gamen ga kuroku natta",
          "Lang": "ja",
          "ProblemNo": 8,
          "Kind": 3
        },
        {
          "Start": 248,
          "End": 253,
          "Text": "{画面が黒くなった}",
          "Ruby": "gamen ga kuroku natta",
          "Lang": "ja",
          "ProblemNo": 8,
          "Kind": 4
        },
        {
          "Start": 253,
          "End": 256,
          "Text": "{画面が黒くなった}",
          "Ruby": "gamen ga kuroku natta",
          "Lang": "ja",
          "ProblemNo": 9,
          "Kind": 1
        },
        {
          "Start": 256,
          "End": 257,
          "Text": "{空}",
          "Ruby": "sora",
          "Lang": "ja",
          "ProblemNo": 9,
          "Kind": 2
        },
        {
          "Start": 257,
          "End": 261,
          "Text": "{空が黒くなった}",
          "Ruby": "sora ga kuroku natta",
          "Lang": "ja",
          "ProblemNo": 9,
          "Kind": 3
        },
        {
          "Start": 261,
          "End": 266,
          "Text": "{空が黒くなった}",
          "Ruby": "sora ga kuroku natta",
          "Lang": "ja",
          "ProblemNo": 9,
          "Kind": 4
        },
        {
          "Start": 266,
          "End": 269,
          "Text": "",
          "Ruby": "",
          "Lang": "",
          "ProblemNo": 0,
          "Kind": 5
        },
        {
          "Start": 269,
          "End": 272,
          "Text": "{顔が赤くなった}",
          "Ruby": "kao ga akaku natta",
          "Lang": "ja",
          "ProblemNo": 0,
          "Kind": 1
        },
        {
          "Start": 272,
          "End": 273,
          "Text": "{黒く}",
          "Ruby": "kuroku",
          "Lang": "ja",
          "ProblemNo": 0,
          "Kind": 2
        },
        {
          "Start": 273,
          "End": 277,
          "Text": "{顔が黒くなった}",
          "Ruby": "kao ga kuroku natta",
          "Lang": "ja",
          "ProblemNo": 0,
          "Kind": 3
        },
        {
          "Start": 277,
          "End": 282,
          "Text": "{顔が黒くなった}",
          "Ruby": "kao ga kuroku natta",
          "Lang": "ja",
          "ProblemNo": 0,
          "Kind": 4
        },
        {
          "Start": 282,
          "End": 285,
          "Text": "{顔が黒くなった}",
          "Ruby": "kao ga kuroku natta",
          "Lang": "ja",
          "ProblemNo": 1,
          "Kind": 1
        },
        {
          "Start": 285,
          "End": 286,
          "Text": "{白く}",
          "Ruby": "shiroku",
          "Lang": "ja",
          "ProblemNo": 1,
          "Kind": 2
        },
        {
          "Start": 286,
          "End": 290,
          "Text": "{顔が白くなった}",
          "Ruby": "kao ga shiroku natta",
          "Lang": "ja",
          "ProblemNo": 1,
          "Kind": 3
        },
        {
          "Start": 290,
          "End": 295,
          "Text": "{顔が白くなった}",
          "Ruby": "kao ga shiroku natta",
          "Lang": "ja",
          "ProblemNo": 1,
          "Kind": 4
        },
        {
          "Start": 295,
          "End": 298,
          "Text": "{顔が白くなった}",
          "Ruby": "kao ga shiroku natta",
          "Lang": "ja",
          "ProblemNo": 2,
          "Kind": 1
        },
        {
          "Start": 298,
          "End": 299,
          "Text": "{空}",
          "Ruby": "sora",
          "Lang": "ja",
          "ProblemNo": 2,
          "Kind": 2
        },
        {
          "Start": 299,
          "End": 303,
          "Text": "{空が白くなった}",
          "Ruby": "sora ga shiroku natta",
          "Lang": "ja",
          "ProblemNo": 2,
          "Kind": 3
        },
        {
          "Start": 303,
          "End": 308,
          "Text": "{空が白くなった}",
          "Ruby": "sora ga shiroku natta",
          "Lang": "ja",
          "ProblemNo": 2,
          "Kind": 4
        },
        {
          "Start": 308,
          "End": 311,
          "Text": "{空が白くなった}",
          "Ruby": "sora ga shiroku natta",
          "Lang": "ja",
          "ProblemNo": 3,
          "Kind": 1
        },
        {
          "Start": 311,
          "End": 312,
          "Text": "{青く}",
          "Ruby": "aoku",
          "Lang": "ja",
          "ProblemNo": 3,
          "Kind": 2
        },
        {
          "Start": 312,
          "End": 316,
          "Text": "{空が青くなった}",
          "Ruby": "sora ga aoku natta",
          "Lang": "ja",
          "ProblemNo": 3,
          "Kind": 3
        },
        {
          "Start": 316,
          "End": 321,
          "Text": "{空が青くなった}",
          "Ruby": "sora ga aoku natta",
          "Lang": "ja",
          "ProblemNo": 3,
          "Kind": 4
        },
        {
          "Start": 321,
          "End": 324,
          "Text": "{空が青くなった}",
          "Ruby": "sora ga aoku natta",
          "Lang": "ja",
          "ProblemNo": 4,
          "Kind": 1
        },
        {
          "Start": 324,
          "End": 325,
          "Text": "{顔}",
          "Ruby": "kao",
          "Lang": "ja",
          "ProblemNo": 4,
          "Kind": 2
        },
        {
          "Start": 325,
          "End": 329,
          "Text": "{顔が青くなった}",
          "Ruby": "kao ga aoku natta",
          "Lang": "ja",
          "ProblemNo": 4,
          "Kind": 3
        },
        {
          "Start": 329,
          "End": 334,
          "Text": "{顔が青くなった}",
          "Ruby": "kao ga aoku natta",
          "Lang": "ja",
          "ProblemNo": 4,
          "Kind": 4
        },
        {
          "Start": 334,
          "End": 337,
          "Text": "{顔が青くなった}",
          "Ruby": "kao ga aoku natta",
          "Lang": "ja",
          "ProblemNo": 5,
          "Kind": 1
        },
        {
          "Start": 337,
          "End": 338,
          "Text": "{画面}",
          "Ruby": "gamen",
          "Lang": "ja",
          "ProblemNo": 5,
          "Kind": 2
        },
        {
          "Start": 338,
          "End": 342,
          "Text": "{画面が青くなった}",
          "Ruby": "gamen ga aoku natta",
          "Lang": "ja",
          "ProblemNo": 5,
          "Kind": 3
        },
        {
          "Start": 342,
          "End": 347,
          "Text": "{画面が青くなった}",
          "Ruby": "gamen ga aoku natta",
          "Lang": "ja",
          "ProblemNo": 5,
          "Kind": 4
        },
        {
          "Start": 347,
          "End": 350,
          "Text": "{画面が青くなった}",
          "Ruby": "gamen ga aoku natta",
          "Lang": "ja",
          "ProblemNo": 6,
          "Kind": 1
        },
        {
          "Start": 350,
          "End": 351,
          "Text": "{白く}",
          "Ruby": "shiroku",
          "Lang": "ja",
          "ProblemNo": 6,
          "Kind": 2
        },
        {
          "Start": 351,
          "End": 355,
          "Text": "{画面が白くなった}",
          "Ruby": "gamen ga shiroku natta",
          "Lang": "ja",
          "ProblemNo": 6,
          "Kind": 3
        },
        {
          "Start": 355,
          "End": 360,
          "Text": "{画面が白くなった}",
          "Ruby": "gamen ga shiroku natta",
          "Lang": "ja",
          "ProblemNo": 6,
          "Kind": 4
        },
        {
          "Start": 360,
          "End": 363,
          "Text": "{画面が白くなった}",
          "Ruby": "gamen ga shiroku natta",
          "Lang": "ja",
          "ProblemNo": 7,
          "Kind": 1
        },
        {
          "Start": 363,
          "End": 364,
          "Text": "{赤く}",
          "Ruby": "akaku",
          "Lang": "ja",
          "ProblemNo": 7,
          "Kind": 2
        },
        {
          "Start": 364,
          "End": 368,
          "Text": "{画面が赤くなった}",
          "Ruby": "gamen ga akaku natta",
          "Lang": "ja",
          "ProblemNo": 7,
          "Kind": 3
        },
        {
          "Start": 368,
          "End": 373,
          "Text": "{画面が赤くなった}",
          "Ruby": "gamen ga akaku natta",
          "Lang": "ja",
          "ProblemNo": 7,
          "Kind": 4
        },
        {
          "Start": 373,
          "End": 376,
          "Text": "{画面が赤くなった}",
          "Ruby": "gamen ga akaku natta",
          "Lang": "ja",
          "ProblemNo": 8,
          "Kind": 1
        },
        {
          "Start": 376,
          "End": 377,
          "Text": "{黒く}",
          "Ruby": "kuroku",
          "Lang": "ja",
          "ProblemNo": 8,
          "Kind": 2
        },
        {
          "Start": 377,
          "End": 381,
          "Text": "{画面が黒くなった}",
          "Ruby": "gamen ga kuroku natta",
          "Lang": "ja",
          "ProblemNo": 8,
          "Kind": 3
        },
        {
          "Start": 381,
          "End": 386,
          "Text": "{画面が黒くなった}",
          "Ruby": "gamen ga kuroku natta",
          "Lang": "ja",
          "ProblemNo": 8,
          "Kind": 4
        },
        {
          "Start": 386,
          "End": 389,
          "Text": "{画面が黒くなった}",
          "Ruby": "gamen ga kuroku natta",
          "Lang": "ja",
          "ProblemNo": 9,
          "Kind": 1
        },
        {
          "Start": 389,
          "End": 390,
          "Text": "{空}",
          "Ruby": "sora",
          "Lang": "ja",
          "ProblemNo": 9,
          "Kind": 2
        },
        {
          "Start": 390,
          "End": 394,
          "Text": "{空が黒くなった}",
          "Ruby": "sora ga kuroku natta",
          "Lang": "ja",
          "ProblemNo": 9,
          "Kind": 3
        },
        {
          "Start": 394,
          "End": 399,
          "Text": "{空が黒くなった}",
          "Ruby": "sora ga kuroku natta",
          "Lang": "ja",
          "ProblemNo": 9,
          "Kind": 4
        },
        {
          "Start": 399,
          "End": 402,
          "Text": "",
          "Ruby": "",
          "Lang": "",
          "ProblemNo": 0,
          "Kind": 5
        },
        {
          "Start": 402,
          "End": 422,
          "Text": "{Please subscribe!}",
          "Ruby": "",
          "Lang": "en",
          "ProblemNo": 0,
          "Kind": 7
        }
      ]
    }
  ],
  "CannotChange": true
}