{
  "VideoFile": "grammar-fil-a_8_A.mp4",
  "Captions": [
    {
      "ID": "k8oB9geQ4Tb1Rc8Wfk7d0GprfSJgj-JTCjVEpNwHHD7-09VuNeRdyw==",
      "Lang": "af",
      "CaptionKey": "translation",
      "CaptionName": "vertaling",
      "YoutubeSynced": true
    },
    {
      "ID": "EhHcl2OLJw4brOtqqz35-Xfhdz5TC7jHSdD7sOrwGiFeIzn9YatdEA==",
      "Lang": "am",
      "CaptionKey": "translation",
      "CaptionName": "ትርጉም",
      "YoutubeSynced": true
    },
    {
      "ID": "RYdgiMiKbSZgFCijVLN2gZUhfQpiQWdbbLO0lzez0CHP5gRO2BKfbA==",
      "Lang": "ar",
      "CaptionKey": "translation",
      "CaptionName": "ترجمة",
      "YoutubeSynced": true
    },
    {
      "ID": "RYdgiMiKbSY4oz8LTKXMgcfp_VcxHEq_DLbGEUu2Sf4-gXx1UBLxBg==",
      "Lang": "az",
      "CaptionKey": "translation",
      "CaptionName": "Tərcümə",
      "YoutubeSynced": true
    },
    {
      "ID": "2ZD6a5mmwt1w8w1l6cE1Wtv9F9E3FaM5vg03uixuwz6f_DNXgnD4M_9bN5ZYt4VM",
      "Lang": "be",
      "CaptionKey": "translation",
      "CaptionName": "Пераклад",
      "YoutubeSynced": true
    },
    {
      "ID": "EhHcl2OLJw65zWuEOOuWEeCzFwkLF6DZRtKa8urdrmNfzagxEiuRGA==",
      "Lang": "bg",
      "CaptionKey": "translation",
      "CaptionName": "превод",
      "YoutubeSynced": true
    },
    {
      "ID": "rC4nrGCvlUbJAMgtqtWWBWpJwEuktRUU0aEG1yXPtJLqASVeflDU7sryUar710FE",
      "Lang": "bn",
      "CaptionKey": "translation",
      "CaptionName": "অনুবাদ",
      "YoutubeSynced": true
    },
    {
      "ID": "CydZBDQyoiUvkmg-jJCdZe8ZjKZTN-B0KteB7S-6gWA=",
      "Lang": "bs",
      "CaptionKey": "translation",
      "CaptionName": "Prevod",
      "YoutubeSynced": true
    },
    {
      "ID": "RYdgiMiKbSZejptuaGJyNlBRtCjrzBxU4Q5kcQkDPmRS2y8KxJM8nQ==",
      "Lang": "ca",
      "CaptionKey": "translation",
      "CaptionName": "Traducció",
      "YoutubeSynced": true
    },
    {
      "ID": "RYdgiMiKbSZhsLOwCc8_i-vVl8htVszb-aItMy-a2myB8JU9WcJXbg==",
      "Lang": "co",
      "CaptionKey": "translation",
      "CaptionName": "Traduzione",
      "YoutubeSynced": true
    },
    {
      "ID": "7WiaskDc-G720Mfjb33t0FZvOhjEf4h60hESA1jB-8b4_e1hQOuAhA==",
      "Lang": "cs",
      "CaptionKey": "translation",
      "CaptionName": "Překlad",
      "YoutubeSynced": true
    },
    {
      "ID": "aq5T32xuOag66Kd_7eBvZS9O4ccoaEOACjkoQs8F80RwjNIBrGO8rw==",
      "Lang": "cy",
      "CaptionKey": "translation",
      "CaptionName": "Cyfieithiad",
      "YoutubeSynced": true
    },
    {
      "ID": "qs0YIomG8aBfyrV2I-E2tzLSrs59wNgkr3vB5f74m4k2JLCs7hS7Eg==",
      "Lang": "da",
      "CaptionKey": "translation",
      "CaptionName": "Oversættelse",
      "YoutubeSynced": true
    },
    {
      "ID": "EhHcl2OLJw7L5LksjYM2vW1L-NZ1LKe6w-Myt3gQAIM9cZrz0P63Kw==",
      "Lang": "de",
      "CaptionKey": "translation",
      "CaptionName": "Übersetzung",
      "YoutubeSynced": true
    },
    {
      "ID": "rC4nrGCvlUbuzI1tNNGqajA8wB12JuXoRHSHnZqsb85DsX03WvHleBYg6nTEM07Y",
      "Lang": "el",
      "CaptionKey": "translation",
      "CaptionName": "Μετάφραση",
      "YoutubeSynced": true
    },
    {
      "ID": "aq5T32xuOaj1pZw1c4XV6ss3191a3JaQLDb_QFGmvpI0Ir_Yv3PcSg==",
      "Lang": "en",
      "CaptionKey": "translation",
      "CaptionName": "Translation",
      "YoutubeSynced": true
    },
    {
      "ID": "aq5T32xuOahSFYeZeZynGwoQN356M92LHalGRMqgaa9NvBiWazUwlg==",
      "Lang": "es",
      "CaptionKey": "translation",
      "CaptionName": "Traducción",
      "YoutubeSynced": true
    },
    {
      "ID": "CydZBDQyoiXpIbMhUb9kVvmQA6zVtUbrNf2PbUIJzHM=",
      "Lang": "et",
      "CaptionKey": "translation",
      "CaptionName": "Tõlge",
      "YoutubeSynced": true
    },
    {
      "ID": "k8oB9geQ4TZWFzXERkldVQ86d1PafQ47HIx8zRuQ5bubIPDCnt2CLA==",
      "Lang": "eu",
      "CaptionKey": "translation",
      "CaptionName": "Itzulpena",
      "YoutubeSynced": true
    },
    {
      "ID": "RYdgiMiKbSah-3mALYlZBQkmTMqh318QlpDSpaK6falSLWmXc8iJVg==",
      "Lang": "fa",
      "CaptionKey": "translation",
      "CaptionName": "ترجمه",
      "YoutubeSynced": true
    },
    {
      "ID": "RYdgiMiKbSYMOt_QrbphNti34oHz1qRheQ2AmvftacqPTaXyzAG0gg==",
      "Lang": "fi",
      "CaptionKey": "translation",
      "CaptionName": "Käännös",
      "YoutubeSynced": true
    },
    {
      "ID": "aq5T32xuOahVK9vyJkzaAUt4XmZnQy85P2QIL-bhvSqmsKLw04Tb4g==",
      "Lang": "fil",
      "CaptionKey": "translation",
      "CaptionName": "Pagsasalin",
      "YoutubeSynced": true
    },
    {
      "ID": "RYdgiMiKbSaR5wy8cHWd9cFSJfaA8ICcGFFgx7MQkbeutH0A8r-oYg==",
      "Lang": "fr",
      "CaptionKey": "translation",
      "CaptionName": "Traduction",
      "YoutubeSynced": true
    },
    {
      "ID": "RYdgiMiKbSaHcsc1FzJI6gaOEC1kz27-WYwMl-Xm9HfqIVBBxMDIgw==",
      "Lang": "fy",
      "CaptionKey": "translation",
      "CaptionName": "Oersetting",
      "YoutubeSynced": true
    },
    {
      "ID": "rC4nrGCvlUYG-5vKtG99RPfONlv8d6uBnev7nhHmsALlm8jiO474tlWqQqE4n6Lu",
      "Lang": "gd",
      "CaptionKey": "translation",
      "CaptionName": "Eadar-theangachadh",
      "YoutubeSynced": true
    },
    {
      "ID": "RYdgiMiKbSZqSwVY3Ca7Se2bHVTqWPZPGx-KkfXSHKtrfqZ9kliRww==",
      "Lang": "gl",
      "CaptionKey": "translation",
      "CaptionName": "Tradución",
      "YoutubeSynced": true
    },
    {
      "ID": "rC4nrGCvlUbPAT3Gb7HuToYf2KfGdMTVnTvX9H7Rxr4afqRkCxibM9UrSs5eFEkw",
      "Lang": "gu",
      "CaptionKey": "translation",
      "CaptionName": "અનુવાદ",
      "YoutubeSynced": true
    },
    {
      "ID": "2g1sd9Unn17WeGXA7xVqXmTVW4vXCUNS6hpLH2CVC3rGDORVuVLAGA==",
      "Lang": "ha",
      "CaptionKey": "translation",
      "CaptionName": "Fassara",
      "YoutubeSynced": true
    },
    {
      "ID": "rC4nrGCvlUbMtVaroO3P-L-GBu1Kt9jxAF040yIQFveyu8ZsF_wtviyj6K7fFeg-",
      "Lang": "hi",
      "CaptionKey": "translation",
      "CaptionName": "अनुवाद",
      "YoutubeSynced": true
    },
    {
      "ID": "7WiaskDc-G5ndsiukgXO3zafmSig4kcdOd7Ic0-OUgFjVnstCByhFA==",
      "Lang": "hr",
      "CaptionKey": "translation",
      "CaptionName": "Prijevod",
      "YoutubeSynced": true
    },
    {
      "ID": "RYdgiMiKbSaKx3ECage8LDdhDunKnQ4tlbXakHsKsilQTae0tDGZEA==",
      "Lang": "hu",
      "CaptionKey": "translation",
      "CaptionName": "Fordítás",
      "YoutubeSynced": true
    },
    {
      "ID": "nkmz1VSv4nulwMRRQjP8Q7VF9DfgxVfZHp6znGk7GB-cFy1SLSXEVLh4DP7qICjNr94u7z01ce0=",
      "Lang": "hy",
      "CaptionKey": "translation",
      "CaptionName": "Թարգմանություն",
      "YoutubeSynced": true
    },
    {
      "ID": "RYdgiMiKbSY-_m205gLeWxaUGZKdR5tQQfSuzB4fGkwi96FYr0uadw==",
      "Lang": "id",
      "CaptionKey": "translation",
      "CaptionName": "Terjemahan",
      "YoutubeSynced": true
    },
    {
      "ID": "7WiaskDc-G7rXtU-aprhDhIea0sC8GQChip7XLpUyI7dMbs7emLMnw==",
      "Lang": "ig",
      "CaptionKey": "translation",
      "CaptionName": "Ntughari",
      "YoutubeSynced": true
    },
    {
      "ID": "k8oB9geQ4TbT2Nepm-83kpN2WQgI2lWZjepziq6MZ_MTa5hXzID4XQ==",
      "Lang": "is",
      "CaptionKey": "translation",
      "CaptionName": "Þýðing",
      "YoutubeSynced": true
    },
    {
      "ID": "RYdgiMiKbSZBgqoL2cO9exfPf6mPl1RLg84vOBrqbRMt86Yv1_lKPg==",
      "Lang": "it",
      "CaptionKey": "translation",
      "CaptionName": "Traduzione",
      "YoutubeSynced": true
    },
    {
      "ID": "RYdgiMiKbSbTQVaBqaXbd0MBJD61J12zDpcjoyEu3yo_1jOSooN9Zw==",
      "Lang": "iw",
      "CaptionKey": "translation",
      "CaptionName": "תרגום",
      "YoutubeSynced": true
    },
    {
      "ID": "CydZBDQyoiWrP5H7rPDGrXIrgXOhDoko37mqZ-p5QUQ=",
      "Lang": "ja",
      "CaptionKey": "translation",
      "CaptionName": "翻訳",
      "YoutubeSynced": true
    },
    {
      "ID": "k8oB9geQ4TbSyDALFxNFabUnXkfwT4ZeEz0i3jAbvF362DE7Yjw8qQ==",
      "Lang": "jv",
      "CaptionKey": "translation",
      "CaptionName": "Ngartekne",
      "YoutubeSynced": true
    },
    {
      "ID": "611jcEfgJEBdE8I286eZXM2yMBPLd33sLIK_Wy2f0oVWyB916bFklJi7xCVe4aQA1fBcIu12tFQ=",
      "Lang": "ka",
      "CaptionKey": "translation",
      "CaptionName": "თარგმანი",
      "YoutubeSynced": true
    },
    {
      "ID": "Nz_p6NHCJn3ROD25PrXD3jmfCtEpSERUlcVt6_HkLt8DGuQmoYjedw==",
      "Lang": "kk",
      "CaptionKey": "translation",
      "CaptionName": "Аударма",
      "YoutubeSynced": true
    },
    {
      "ID": "-mkxlYqS3xawna5Jw4shirqMsT122mjeEdBiyHOGyV4IaIaAiLRdlARdpgT6pHhx83WFpgm0J9c=",
      "Lang": "km",
      "CaptionKey": "translation",
      "CaptionName": "ការបកប្រែ",
      "YoutubeSynced": true
    },
    {
      "ID": "rC4nrGCvlUYFrUdMVT-GevPsq4V9mroerBcJxZtLasL5MzYn5TQphieC59vIbqRQ",
      "Lang": "kn",
      "CaptionKey": "translation",
      "CaptionName": "ಅನುವಾದ",
      "YoutubeSynced": true
    },
    {
      "ID": "CydZBDQyoiWu0a0nXyFZLsh6WHBdSTRGG2wzEeI0HXw=",
      "Lang": "ko",
      "CaptionKey": "translation",
      "CaptionName": "번역",
      "YoutubeSynced": true
    },
    {
      "ID": "CydZBDQyoiU2yVBrQ_DsM0nJ72uq333qFAL60f3X1XE=",
      "Lang": "ku",
      "CaptionKey": "translation",
      "CaptionName": "Werger",
      "YoutubeSynced": true
    },
    {
      "ID": "Nz_p6NHCJn1TjM42dCY2mSTfdkgTF9BFpIBPBAPAJz5AM1rBhoDtMA==",
      "Lang": "ky",
      "CaptionKey": "translation",
      "CaptionName": "котормо",
      "YoutubeSynced": true
    },
    {
      "ID": "EhHcl2OLJw649NkNyH52pg0KTThD0iRxqK79QNxIadyb-HxPClxGsA==",
      "Lang": "lb",
      "CaptionKey": "translation",
      "CaptionName": "Iwwersetzung",
      "YoutubeSynced": true
    },
    {
      "ID": "-mkxlYqS3xZ76AK8P6qbBpMPm7eqDpF79oIZBg4DOQvfgLoSK6qSx2szPUkUwEFp28BALa-4QrE=",
      "Lang": "lo",
      "CaptionKey": "translation",
      "CaptionName": "ການແປພາສາ",
      "YoutubeSynced": true
    },
    {
      "ID": "7WiaskDc-G4P2SC6e_rsnqr_K4iJpABMsPC1GV2n_EJ01x5jybG4mA==",
      "Lang": "lt",
      "CaptionKey": "translation",
      "CaptionName": "Vertimas",
      "YoutubeSynced": true
    },
    {
      "ID": "RYdgiMiKbSaDdhZFOjbYDW0R2Pxrk3XwqpfMV6NSZBdn1Q4wS_jfvQ==",
      "Lang": "lv",
      "CaptionKey": "translation",
      "CaptionName": "Tulkošana",
      "YoutubeSynced": true
    },
    {
      "ID": "aq5T32xuOaifk4sontSIOYwpJ3lbVo8T1oDJ0GGos-bT5HesXG1IKg==",
      "Lang": "mg",
      "CaptionKey": "translation",
      "CaptionName": "Translation",
      "YoutubeSynced": true
    },
    {
      "ID": "Jodb-K-vQ8MHfZdlHVkmmeJWMcI1JgWYmWDmJbnYzeqMDDQMH4jvdCfffxV6y7ST",
      "Lang": "mi",
      "CaptionKey": "translation",
      "CaptionName": "Whakamaoritanga",
      "YoutubeSynced": true
    },
    {
      "ID": "EhHcl2OLJw5g4VJ7dm0QIkP2BBL5GS3HL1y4Qg__OXsaE3RU5MvS2A==",
      "Lang": "mk",
      "CaptionKey": "translation",
      "CaptionName": "Превод",
      "YoutubeSynced": true
    },
    {
      "ID": "-mkxlYqS3xYxyxXw_H7cOSXFbLGKgy6ceetihKF8_n8FX-MAXdNt0GzRP_8Ck0hRSzSpC3rffE0=",
      "Lang": "ml",
      "CaptionKey": "translation",
      "CaptionName": "വിവർത്തനം",
      "YoutubeSynced": true
    },
    {
      "ID": "2ZD6a5mmwt0fsUC9pibWZ1ptG6Ohk--wMHcB6LdFsY_id4p4BWjFutwmh1LoO1vC",
      "Lang": "mn",
      "CaptionKey": "translation",
      "CaptionName": "Орчуулга",
      "YoutubeSynced": true
    },
    {
      "ID": "ZhPx6sYbCHa6Z1rRSgEnyYDMQQ7VpGPllK_K2e8IPwcJJJ97Eh_CZd_Xv-jPjsTM",
      "Lang": "mr",
      "CaptionKey": "translation",
      "CaptionName": "भाषांतर",
      "YoutubeSynced": true
    },
    {
      "ID": "RYdgiMiKbSalJbqBjFI9gKQ3eNEvdblJF35Qxx1Lf8x7_X_xF46mMw==",
      "Lang": "ms",
      "CaptionKey": "translation",
      "CaptionName": "Terjemahan",
      "YoutubeSynced": true
    },
    {
      "ID": "aq5T32xuOaji2yBjYcbMfGkZVvSuru42Rv1buIMZJ3wYtd5MTtzgXw==",
      "Lang": "mt",
      "CaptionKey": "translation",
      "CaptionName": "Traduzzjoni",
      "YoutubeSynced": true
    },
    {
      "ID": "611jcEfgJEDGNi7-gLFZvYnXjSsdH2SSo5wbZNlMW6WM_yt_u_vyKesbv6v1glyfl84npYjkQus=",
      "Lang": "my",
      "CaptionKey": "translation",
      "CaptionName": "ဘာသာပြန်",
      "YoutubeSynced": true
    },
    {
      "ID": "rC4nrGCvlUZMOqL6QmIN-Y0R2Gma-T81OWkpL2e_X7x9GJ4E6y6yb0TzqG8GeR5Q",
      "Lang": "ne",
      "CaptionKey": "translation",
      "CaptionName": "अनुवाद",
      "YoutubeSynced": true
    },
    {
      "ID": "k8oB9geQ4Tbe5oqy9Feolcky82BwQcDGL_G8HtiKoVYGwwdPV6sVCg==",
      "Lang": "nl",
      "CaptionKey": "translation",
      "CaptionName": "Vertaling",
      "YoutubeSynced": true
    },
    {
      "ID": "EhHcl2OLJw5rhvn1Kc2TnMifSjckBEE-7oGkocVPZ50TreLtyHzQOA==",
      "Lang": "no",
      "CaptionKey": "translation",
      "CaptionName": "Oversettelse",
      "YoutubeSynced": true
    },
    {
      "ID": "rC4nrGCvlUaaH105YHFUwlv6QkCnFwGxZBKRUL6lBDX4QzrkDrhkL1ZigrtOFqul",
      "Lang": "pa",
      "CaptionKey": "translation",
      "CaptionName": "ਅਨੁਵਾਦ",
      "YoutubeSynced": true
    },
    {
      "ID": "EhHcl2OLJw5gIB8hIH7PuvxZK4bqINmMd6iGM5xcZbNJVdd4LgtlAw==",
      "Lang": "pl",
      "CaptionKey": "translation",
      "CaptionName": "Tłumaczenie",
      "YoutubeSynced": true
    },
    {
      "ID": "RYdgiMiKbSblGdWxVKJiWlVI2-S0zHx6QcbrrWX_NoD0tv_EO6RV5A==",
      "Lang": "ps",
      "CaptionKey": "translation",
      "CaptionName": "ژباړه",
      "YoutubeSynced": true
    },
    {
      "ID": "RYdgiMiKbSYXAGy0VRHq4q8-kYZg-ygnXnGP-HpWICVM60bg0-jxKg==",
      "Lang": "pt",
      "CaptionKey": "translation",
      "CaptionName": "Tradução",
      "YoutubeSynced": true
    },
    {
      "ID": "k8oB9geQ4Tb_bnZVOVZfJhsy_0tJb5Z-M-DpU8dGyBl57leQiZ-3kA==",
      "Lang": "ro",
      "CaptionKey": "translation",
      "CaptionName": "Traducere",
      "YoutubeSynced": true
    },
    {
      "ID": "Nz_p6NHCJn3BqSRjLFFF9hUUOUmg3dRxjnMlo4qC2NbyitqnfoKWKw==",
      "Lang": "ru",
      "CaptionKey": "translation",
      "CaptionName": "Перевод",
      "YoutubeSynced": true
    },
    {
      "ID": "RYdgiMiKbSbeD2uHPnfnTMq9_u4nELxMOO5KZrzCyDHm9PLwrAbD8w==",
      "Lang": "sd",
      "CaptionKey": "translation",
      "CaptionName": "ترجمو",
      "YoutubeSynced": true
    },
    {
      "ID": "-mkxlYqS3xbj4A3KIeqfeZtP01JuaJMgj1S5SEnvrF9dGOOXU4M5FrArjmZeMUDwybEyS8ibVGQ=",
      "Lang": "si",
      "CaptionKey": "translation",
      "CaptionName": "පරිවර්තනය",
      "YoutubeSynced": true
    },
    {
      "ID": "2g1sd9Unn177jPkT8qF_WMcdXjmBmYzQuzgYFI6tpEblMFhfByVY8w==",
      "Lang": "sk",
      "CaptionKey": "translation",
      "CaptionName": "preklad",
      "YoutubeSynced": true
    },
    {
      "ID": "CydZBDQyoiUJuzTHbJEM88rB6gkQeOryaQfJtvbEbjo=",
      "Lang": "sl",
      "CaptionKey": "translation",
      "CaptionName": "Prevod",
      "YoutubeSynced": true
    },
    {
      "ID": "EhHcl2OLJw4Tp2eF9xLChmlpNbBu1JHuiZa4_he0ckT0Ka0KnbT5gA==",
      "Lang": "sm",
      "CaptionKey": "translation",
      "CaptionName": "Faʻaliliuga",
      "YoutubeSynced": true
    },
    {
      "ID": "2g1sd9Unn15uu7M77U5P1Fy51_cg29R22GYnayQRx_E6_oHD0jV9UA==",
      "Lang": "sn",
      "CaptionKey": "translation",
      "CaptionName": "Dudziro",
      "YoutubeSynced": true
    },
    {
      "ID": "k8oB9geQ4Tb2IjHQxTSPyNKYHFZ4TM0SZOjAY0iF3HRZ9vINdmmGXA==",
      "Lang": "so",
      "CaptionKey": "translation",
      "CaptionName": "Tarjumida",
      "YoutubeSynced": true
    },
    {
      "ID": "k8oB9geQ4TZsK4oe4rzQ0-hTMoAxMq8bsa61tdxbpnzKjXWz9MGoeg==",
      "Lang": "sq",
      "CaptionKey": "translation",
      "CaptionName": "përkthim",
      "YoutubeSynced": true
    },
    {
      "ID": "EhHcl2OLJw5YrAWLSffQ_S1LMKd4RvQJ2PgnXYmnPnvJfFmHTQ-h9g==",
      "Lang": "sr",
      "CaptionKey": "translation",
      "CaptionName": "Превод",
      "YoutubeSynced": true
    },
    {
      "ID": "k8oB9geQ4TZqo7jBQmzCy1AV0lrtbUxFq2QtRkvZtiIU5RPTjcA4eQ==",
      "Lang": "st",
      "CaptionKey": "translation",
      "CaptionName": "Phetolelo",
      "YoutubeSynced": true
    },
    {
      "ID": "RYdgiMiKbSZQ9maZKAqNrIL7dZE96NU_vPJUXmhY8KgJk1_MVzI6Kw==",
      "Lang": "su",
      "CaptionKey": "translation",
      "CaptionName": "Tarjamahan",
      "YoutubeSynced": true
    },
    {
      "ID": "Nz_p6NHCJn1sAlggc3CbRMapnzfcmKse12dx1hhJ6JeZcKmrn3ueUw==",
      "Lang": "sv",
      "CaptionKey": "translation",
      "CaptionName": "Översättning",
      "YoutubeSynced": true
    },
    {
      "ID": "2g1sd9Unn16S0zKoqzlzi5ZrK6CXVHo4Zq3Mf9t0cp8IoQCokrt5jw==",
      "Lang": "sw",
      "CaptionKey": "translation",
      "CaptionName": "Tafsiri",
      "YoutubeSynced": true
    },
    {
      "ID": "vWFP-p7V-DwqgOhXp-4fJrHLss9prkCp_tSKV_mJmW9FPTssYciec3fzVmbR0AA1nLhIomA14rdO-Vm95SkZBnoFfajWcO8-",
      "Lang": "ta",
      "CaptionKey": "translation",
      "CaptionName": "மொழிபெயர்ப்பு",
      "YoutubeSynced": true
    },
    {
      "ID": "ZhPx6sYbCHb3cIMjh5NADfG7-_ClgJi4A5PD9ZyP2XV1Dqj5pMimZcinltxmFNOK",
      "Lang": "te",
      "CaptionKey": "translation",
      "CaptionName": "అనువాదం",
      "YoutubeSynced": true
    },
    {
      "ID": "Nz_p6NHCJn3N8ehzPSTF3GQ1Hz5drdkUx4oAcSpwBs_SLQcyK9UR6Q==",
      "Lang": "tg",
      "CaptionKey": "translation",
      "CaptionName": "Тарҷума",
      "YoutubeSynced": true
    },
    {
      "ID": "rC4nrGCvlUY7Acrcu9QcaJmemRg5myLKkdynyVI-Gj_EM9vdDXfnKxpQq1ubyhDN",
      "Lang": "th",
      "CaptionKey": "translation",
      "CaptionName": "การแปล",
      "YoutubeSynced": true
    },
    {
      "ID": "7WiaskDc-G6Qic5aFpz8lY_c1OxcCcRHPg57ia5P-x0qazWTlegUpw==",
      "Lang": "tr",
      "CaptionKey": "translation",
      "CaptionName": "Tercüme",
      "YoutubeSynced": true
    },
    {
      "ID": "2ZD6a5mmwt0UQH1ZYM_wi7u7pVterqzzIp9fkQSuYp9pbmxL9GdaIS-aEU8d_VF3",
      "Lang": "uk",
      "CaptionKey": "translation",
      "CaptionName": "Переклад",
      "YoutubeSynced": true
    },
    {
      "ID": "RYdgiMiKbSYiVGTQRgNhQbC2whA3_Yp4lYX2rGT5JDO0P0malOKxug==",
      "Lang": "ur",
      "CaptionKey": "translation",
      "CaptionName": "ترجمہ",
      "YoutubeSynced": true
    },
    {
      "ID": "2g1sd9Unn162uVvNSfvNwklWjhKJh7ymD20XVS9QfYq9iHUNTwQZXg==",
      "Lang": "uz",
      "CaptionKey": "translation",
      "CaptionName": "Tarjima",
      "YoutubeSynced": true
    },
    {
      "ID": "CydZBDQyoiVmz_RxfAF5M4K2jr2IUPaojA9u9GbcK9o=",
      "Lang": "vi",
      "CaptionKey": "translation",
      "CaptionName": "Dịch",
      "YoutubeSynced": true
    },
    {
      "ID": "RYdgiMiKbSbC7yWQ6CtBV1ItH70_0llxuUhTCcWtzQWvMgkDq8_-2Q==",
      "Lang": "xh",
      "CaptionKey": "translation",
      "CaptionName": "Inguqulelo",
      "YoutubeSynced": true
    },
    {
      "ID": "agvczbuUKC4iidxiYQEvfsCHPEDLV_XQD38URhx1FyfLpgbEg3fSGjqs1W3XhXag",
      "Lang": "yi",
      "CaptionKey": "translation",
      "CaptionName": "איבערזעצונג",
      "YoutubeSynced": true
    },
    {
      "ID": "2g1sd9Unn15rpLjT0_i-zNJttMq0YsSoiNTajnPMZ81osS7Ad-u5ew==",
      "Lang": "yo",
      "CaptionKey": "translation",
      "CaptionName": "Itumọ",
      "YoutubeSynced": true
    },
    {
      "ID": "aq5T32xuOai9muULqGaCVj3XI2qeeAuTxl968ZdvFj7ZM3F8wfT7PQ==",
      "Lang": "zh-Hans",
      "CaptionKey": "translation",
      "CaptionName": "翻译",
      "YoutubeSynced": true
    },
    {
      "ID": "aq5T32xuOai9muULqGaCVtyziTUBqdeVlkkz_-1kYBf9QlBoMbGPHw==",
      "Lang": "zh-Hant",
      "CaptionKey": "translation",
      "CaptionName": "翻譯",
      "YoutubeSynced": true
    },
    {
      "ID": "RYdgiMiKbSaUBQlN_ltCSThNbpwdq8tQgeQjXDRkTBHEPwslSac4Tg==",
      "Lang": "zu",
      "CaptionKey": "translation",
      "CaptionName": "Ukuhumusha",
      "YoutubeSynced": true
    }
  ]
}