{
  "VideoFile": "grammar-fil-a_14_A.mp4",
  "Captions": [
    {
      "ID": "wRSLcQTr9UnOUpMwD_WRYBJQte9GpjwI_Ducq4ZHZUrl2nYYZ2pKuA==",
      "Lang": "af",
      "CaptionKey": "translation",
      "CaptionName": "vertaling",
      "YoutubeSynced": true
    },
    {
      "ID": "-sPEwxVMA9Dn3qK1g4XVWRceCjcwyZGf5C642Aig5kbsum4f-gexyA==",
      "Lang": "am",
      "CaptionKey": "translation",
      "CaptionName": "ትርጉም",
      "YoutubeSynced": true
    },
    {
      "ID": "Gz8mCpE2V5dyTv1o8t5toy_d5hutw5_zztP2wdmEK2KTy0ijrX-Mew==",
      "Lang": "ar",
      "CaptionKey": "translation",
      "CaptionName": "ترجمة",
      "YoutubeSynced": true
    },
    {
      "ID": "Gz8mCpE2V5cizUeGfADn95qMubBp15VhgTtIhW-0G48QwdcDy2Lmpw==",
      "Lang": "az",
      "CaptionKey": "translation",
      "CaptionName": "Tərcümə",
      "YoutubeSynced": true
    },
    {
      "ID": "k1mSfhsTgxl6wGMDgD0WBmrXrnGbd6xhORbgutLCPSWyh0MVZt6KIqn_3NpziWmr",
      "Lang": "be",
      "CaptionKey": "translation",
      "CaptionName": "Пераклад",
      "YoutubeSynced": true
    },
    {
      "ID": "-sPEwxVMA9CtjPdyc2cwNKfUQ6wTgcPFtRzD3udlkl5I6nNRAH3-9Q==",
      "Lang": "bg",
      "CaptionKey": "translation",
      "CaptionName": "превод",
      "YoutubeSynced": true
    },
    {
      "ID": "lEAYeC_QeZQBWySju_CV8eRyMy7wUGRCAeBtT0McI9zgUiGU42fnv33EOkkxWmLS",
      "Lang": "bn",
      "CaptionKey": "translation",
      "CaptionName": "অনুবাদ",
      "YoutubeSynced": true
    },
    {
      "ID": "_GLpJSpCZVHeCsAymZzphI594UXRG4oTvpaGU2BkQbk=",
      "Lang": "bs",
      "CaptionKey": "translation",
      "CaptionName": "Prevod",
      "YoutubeSynced": true
    },
    {
      "ID": "Gz8mCpE2V5ejJ4om3UvUE9kP3iJ6CB0nkJJFhniHXo0RzPbI4_AMZg==",
      "Lang": "ca",
      "CaptionKey": "translation",
      "CaptionName": "Traducció",
      "YoutubeSynced": true
    },
    {
      "ID": "Gz8mCpE2V5eftgBWFX5DFAmNCu7bJx_0Cgtz8sk7FHETNNypuAGycQ==",
      "Lang": "co",
      "CaptionKey": "translation",
      "CaptionName": "Traduzione",
      "YoutubeSynced": true
    },
    {
      "ID": "GGCyO5HDlqsikI_yM2Ba7CpP5UMYG8n1a3q5Yn3xshWDiQxCUl17Aw==",
      "Lang": "cs",
      "CaptionKey": "translation",
      "CaptionName": "Překlad",
      "YoutubeSynced": true
    },
    {
      "ID": "i8XsrNvcgJ8A4lGHLvQZImWqPAXi8zcfTGuzPl1HxU8AXRduaXBGnQ==",
      "Lang": "cy",
      "CaptionKey": "translation",
      "CaptionName": "Cyfieithiad",
      "YoutubeSynced": true
    },
    {
      "ID": "kr1hWrsPbz0HFGo8c_kjJixPfd-6RjmmhBALftiAG1KnG3Xv7mkxrw==",
      "Lang": "da",
      "CaptionKey": "translation",
      "CaptionName": "Oversættelse",
      "YoutubeSynced": true
    },
    {
      "ID": "-sPEwxVMA9B5OdV-0QCsLYxe-xX91mbX_IpUpkXKlQ0zm44NUpwkDg==",
      "Lang": "de",
      "CaptionKey": "translation",
      "CaptionName": "Übersetzung",
      "YoutubeSynced": true
    },
    {
      "ID": "lEAYeC_QeZRB25zFrwB7KQV39J3DKgvBhllmY-WjThcyxATFxzgaIRZd_B7XrdvB",
      "Lang": "el",
      "CaptionKey": "translation",
      "CaptionName": "Μετάφραση",
      "YoutubeSynced": true
    },
    {
      "ID": "i8XsrNvcgJ-qrJ5xA1vyKGnimD3eGNcBrickcFOAn8Z72MTnaiXOHQ==",
      "Lang": "en",
      "CaptionKey": "translation",
      "CaptionName": "Translation",
      "YoutubeSynced": true
    },
    {
      "ID": "i8XsrNvcgJ-yDKj8w7AC5f0A01Kej7DRnd_2wonjZ5mQS8m9QzZ43Q==",
      "Lang": "es",
      "CaptionKey": "translation",
      "CaptionName": "Traducción",
      "YoutubeSynced": true
    },
    {
      "ID": "_GLpJSpCZVFDDfnDd_UvDwAVAFt8eInIqweNdlBosB0=",
      "Lang": "et",
      "CaptionKey": "translation",
      "CaptionName": "Tõlge",
      "YoutubeSynced": true
    },
    {
      "ID": "wRSLcQTr9UnIoi7WQ5QyDMqn76e8wOCP1X9Lth-Oggq3lofl9R80eQ==",
      "Lang": "eu",
      "CaptionKey": "translation",
      "CaptionName": "Itzulpena",
      "YoutubeSynced": true
    },
    {
      "ID": "Gz8mCpE2V5eM9fnr4FBsFh7yknOLfuKsfOX1KDOL2KCvrbt_WUlaYA==",
      "Lang": "fa",
      "CaptionKey": "translation",
      "CaptionName": "ترجمه",
      "YoutubeSynced": true
    },
    {
      "ID": "Gz8mCpE2V5f82AT-dOhnYaTPwu1xlXimBsYbCmdWCF_w7cbkC_s6jQ==",
      "Lang": "fi",
      "CaptionKey": "translation",
      "CaptionName": "Käännös",
      "YoutubeSynced": true
    },
    {
      "ID": "i8XsrNvcgJ-UK_5vQgKMzQgFZDMz8EHsHDx2dY9qZOtBQg9QgUW2Kg==",
      "Lang": "fil",
      "CaptionKey": "translation",
      "CaptionName": "Pagsasalin",
      "YoutubeSynced": true
    },
    {
      "ID": "Gz8mCpE2V5c1RSRGcfp06lLvT4UpIqj7eMG2v2lX5Sdc91rmeHEzBQ==",
      "Lang": "fr",
      "CaptionKey": "translation",
      "CaptionName": "Traduction",
      "YoutubeSynced": true
    },
    {
      "ID": "Gz8mCpE2V5f_koNGhdXUBv3to5nYVck2agTzDFPdMEr-IamrRyY-JA==",
      "Lang": "fy",
      "CaptionKey": "translation",
      "CaptionName": "Oersetting",
      "YoutubeSynced": true
    },
    {
      "ID": "lEAYeC_QeZTmiYF1Rs4AOLxHHs2wyKKw-nn7fvZ_i-fv68MNEcD35jCdXHZXH98X",
      "Lang": "gd",
      "CaptionKey": "translation",
      "CaptionName": "Eadar-theangachadh",
      "YoutubeSynced": true
    },
    {
      "ID": "Gz8mCpE2V5eGQDqEKYy2Gi9JoZVWBWbJDl4ceAVeegds-vx5PuEAkQ==",
      "Lang": "gl",
      "CaptionKey": "translation",
      "CaptionName": "Tradución",
      "YoutubeSynced": true
    },
    {
      "ID": "lEAYeC_QeZQWZpz-1DQICuS94tVPn2E8a-Z9Qnxo7G5QlYqXSB3J4I-b-R_a4e7x",
      "Lang": "gu",
      "CaptionKey": "translation",
      "CaptionName": "અનુવાદ",
      "YoutubeSynced": true
    },
    {
      "ID": "Sq9eUSTHmaiNnZK_Y8o75k--kAtauovRCbaPiJnwQkS0SI7OmD_llg==",
      "Lang": "ha",
      "CaptionKey": "translation",
      "CaptionName": "Fassara",
      "YoutubeSynced": true
    },
    {
      "ID": "lEAYeC_QeZTIoPBvC3r6MsHj00BAK-BKdiNYTJpRML0NNqbqCsI2ELdYV6aNgOrv",
      "Lang": "hi",
      "CaptionKey": "translation",
      "CaptionName": "अनुवाद",
      "YoutubeSynced": true
    },
    {
      "ID": "GGCyO5HDlqsecbWfngedi5k6sLPdAChvP-Nl168qAgTqgTzShPr62w==",
      "Lang": "hr",
      "CaptionKey": "translation",
      "CaptionName": "Prijevod",
      "YoutubeSynced": true
    },
    {
      "ID": "Gz8mCpE2V5dfYny6XFybJYulyaq0QeMToLbp0cg54tLMVtUe6xe5Pw==",
      "Lang": "hu",
      "CaptionKey": "translation",
      "CaptionName": "Fordítás",
      "YoutubeSynced": true
    },
    {
      "ID": "u-nUIY-2eVgKxPKmNjO8Z9fAIx9_y3XxxWMtWO1a2_EFyPYnZzYj1p4j_f4fVHlVkqiN9geD3bs=",
      "Lang": "hy",
      "CaptionKey": "translation",
      "CaptionName": "Թարգմանություն",
      "YoutubeSynced": true
    },
    {
      "ID": "Gz8mCpE2V5fTP9qguuE6Cb_zJIscIH4_idPTfeGdyCkoNV6ODL1qNw==",
      "Lang": "id",
      "CaptionKey": "translation",
      "CaptionName": "Terjemahan",
      "YoutubeSynced": true
    },
    {
      "ID": "GGCyO5HDlqvZJrVdl_TzbqGLLXW5ercglOBnk_NQBRP2xIzsdv9SXg==",
      "Lang": "ig",
      "CaptionKey": "translation",
      "CaptionName": "Ntughari",
      "YoutubeSynced": true
    },
    {
      "ID": "wRSLcQTr9UnVSDgCYOvnnYnUlvysL79yA2Bs4xreOdHSlUURWiu_YQ==",
      "Lang": "is",
      "CaptionKey": "translation",
      "CaptionName": "Þýðing",
      "YoutubeSynced": true
    },
    {
      "ID": "Gz8mCpE2V5ed1YoHA2nReeWVHAqI-Xo1YOlwh1x4-uuRT_XYHFHbbA==",
      "Lang": "it",
      "CaptionKey": "translation",
      "CaptionName": "Traduzione",
      "YoutubeSynced": true
    },
    {
      "ID": "Gz8mCpE2V5fVL-sziHI93sBcrqRYG1c3q_xkeU4qyb39_dV_GAYSog==",
      "Lang": "iw",
      "CaptionKey": "translation",
      "CaptionName": "תרגום",
      "YoutubeSynced": true
    },
    {
      "ID": "_GLpJSpCZVELt2461nkrtK_6zXAteSp-MfOgwpasetg=",
      "Lang": "ja",
      "CaptionKey": "translation",
      "CaptionName": "翻訳",
      "YoutubeSynced": true
    },
    {
      "ID": "wRSLcQTr9UljVwrk9F8fXSezAJRLvXWi6reeFX0TjRKgY9gkpswp1Q==",
      "Lang": "jv",
      "CaptionKey": "translation",
      "CaptionName": "Ngartekne",
      "YoutubeSynced": true
    },
    {
      "ID": "KbU2hZYJKga_X7sLIilM8g0MlmKobHSYIOjQXySUfjirIC3kWrAlbTDJ5vQwRJ_exJXiYIvrcUI=",
      "Lang": "ka",
      "CaptionKey": "translation",
      "CaptionName": "თარგმანი",
      "YoutubeSynced": true
    },
    {
      "ID": "aDmVvShiNIDXmIZZz59kP65RuF4oRl-pfMgyeqcu2eJKeNUfY0uArw==",
      "Lang": "kk",
      "CaptionKey": "translation",
      "CaptionName": "Аударма",
      "YoutubeSynced": true
    },
    {
      "ID": "qma-UmAi8fPgd4AbgB5GOX5wFlw14i7BjMXx7MILsglKPk9hP-6ntBq9QRlm83Qv9I1WErkDnl0=",
      "Lang": "km",
      "CaptionKey": "translation",
      "CaptionName": "ការបកប្រែ",
      "YoutubeSynced": true
    },
    {
      "ID": "lEAYeC_QeZQOP8gbsytCMJaI5S_wY1w50vzXaoNhGXOiJRbNOBDz1xqukNr4v7py",
      "Lang": "kn",
      "CaptionKey": "translation",
      "CaptionName": "ಅನುವಾದ",
      "YoutubeSynced": true
    },
    {
      "ID": "_GLpJSpCZVEw8RdB9QIH_CZBax6iVLeFHEzDeGfOLQw=",
      "Lang": "ko",
      "CaptionKey": "translation",
      "CaptionName": "번역",
      "YoutubeSynced": true
    },
    {
      "ID": "_GLpJSpCZVH1lXqArv5BIQrqTrGiUIXcx-_UcFQEuwY=",
      "Lang": "ku",
      "CaptionKey": "translation",
      "CaptionName": "Werger",
      "YoutubeSynced": true
    },
    {
      "ID": "aDmVvShiNIDo49L-TfP0kDX5U0w8KN6K5N0ZnqBlWu6uXD_DSiy6jQ==",
      "Lang": "ky",
      "CaptionKey": "translation",
      "CaptionName": "котормо",
      "YoutubeSynced": true
    },
    {
      "ID": "-sPEwxVMA9APgEFLctyUcEHHMv-uqERnYmip6xncKFnypuHD3vTRAQ==",
      "Lang": "lb",
      "CaptionKey": "translation",
      "CaptionName": "Iwwersetzung",
      "YoutubeSynced": true
    },
    {
      "ID": "qma-UmAi8fP-OFRS4ZsItbMqd4_6bfr47oB5jtpGcjbZNUnGQ9epZVgo3rpFPTifi6xMdoFwqXg=",
      "Lang": "lo",
      "CaptionKey": "translation",
      "CaptionName": "ການແປພາສາ",
      "YoutubeSynced": true
    },
    {
      "ID": "GGCyO5HDlqt2DU8M9xD-Wq38s815xoOroLr3JaVz3D2jBRqm2BHs4g==",
      "Lang": "lt",
      "CaptionKey": "translation",
      "CaptionName": "Vertimas",
      "YoutubeSynced": true
    },
    {
      "ID": "Gz8mCpE2V5ch5UAyoMWmhGqA2Rx5nxoax-Z3P875mgjMXPYDH2u_uQ==",
      "Lang": "lv",
      "CaptionKey": "translation",
      "CaptionName": "Tulkošana",
      "YoutubeSynced": true
    },
    {
      "ID": "i8XsrNvcgJ8J1E3h-SxC3CGIa9czwWOzW8GYpDwyoXF6VNkcgc7acQ==",
      "Lang": "mg",
      "CaptionKey": "translation",
      "CaptionName": "Translation",
      "YoutubeSynced": true
    },
    {
      "ID": "GY8XIGzRkZx00CUj4Md-VIdCRC0YQGR2LzRYKhoKLmQJunS8JrB_Q5EoXDdFH-OF",
      "Lang": "mi",
      "CaptionKey": "translation",
      "CaptionName": "Whakamaoritanga",
      "YoutubeSynced": true
    },
    {
      "ID": "-sPEwxVMA9B0FjtgNtxXmL-uisTWxvO9727c4rMRJkTPIfOMhzgwaw==",
      "Lang": "mk",
      "CaptionKey": "translation",
      "CaptionName": "Превод",
      "YoutubeSynced": true
    },
    {
      "ID": "qma-UmAi8fN4ayZvDH8DMR8RDGnFC9oYBthXqClpNm2zgNB4m-2Vr_7lIfD6ykr4p0Iz7KZ0eIM=",
      "Lang": "ml",
      "CaptionKey": "translation",
      "CaptionName": "വിവർത്തനം",
      "YoutubeSynced": true
    },
    {
      "ID": "k1mSfhsTgxlZHF8KMo79Y9iTD5_RXbzSPz4M-xFly1S5tsFQQMmQ3KPX5ESaJUvc",
      "Lang": "mn",
      "CaptionKey": "translation",
      "CaptionName": "Орчуулга",
      "YoutubeSynced": true
    },
    {
      "ID": "jQxlyNkhCbhbjAmzZtcYpPaZ5xbe_YgOrHnxAQReAOb-ZZ81-mMKuN525U-2fnpX",
      "Lang": "mr",
      "CaptionKey": "translation",
      "CaptionName": "भाषांतर",
      "YoutubeSynced": true
    },
    {
      "ID": "Gz8mCpE2V5f16vEjgs6882iklrb1apLL5tMZ6xL4cGeXC7maNSb8YQ==",
      "Lang": "ms",
      "CaptionKey": "translation",
      "CaptionName": "Terjemahan",
      "YoutubeSynced": true
    },
    {
      "ID": "i8XsrNvcgJ_u6aTuyA_amv1dZ8fA9LX443vZhwvM0_UvlFHQW1Bbtw==",
      "Lang": "mt",
      "CaptionKey": "translation",
      "CaptionName": "Traduzzjoni",
      "YoutubeSynced": true
    },
    {
      "ID": "KbU2hZYJKgbnsgAsh-PGYQ1JtRKb5zImeE4tPWH0IsqcjjL-lNFFAA8B16ybHTTA407puuMmQT0=",
      "Lang": "my",
      "CaptionKey": "translation",
      "CaptionName": "ဘာသာပြန်",
      "YoutubeSynced": true
    },
    {
      "ID": "lEAYeC_QeZRfiNdSalp1frKyKC29SIfet8xiJ76QWA5WYkYJi9epjkpw5PKHECGS",
      "Lang": "ne",
      "CaptionKey": "translation",
      "CaptionName": "अनुवाद",
      "YoutubeSynced": true
    },
    {
      "ID": "wRSLcQTr9UlBp0OJ_rsrPDCgA3yPM_OF2-B7dgW1JRA_wXG0HuYhzA==",
      "Lang": "nl",
      "CaptionKey": "translation",
      "CaptionName": "Vertaling",
      "YoutubeSynced": true
    },
    {
      "ID": "-sPEwxVMA9C7LxOEK4lO4UbUbW7x2YUifdBuvKk0S2njeMBQnGKTcQ==",
      "Lang": "no",
      "CaptionKey": "translation",
      "CaptionName": "Oversettelse",
      "YoutubeSynced": true
    },
    {
      "ID": "lEAYeC_QeZTGwpudyNFBNzVZU_nTlzpYVq-JvFzEHeqlwBfmScXql7Yp58SbIsS7",
      "Lang": "pa",
      "CaptionKey": "translation",
      "CaptionName": "ਅਨੁਵਾਦ",
      "YoutubeSynced": true
    },
    {
      "ID": "-sPEwxVMA9BQ4iRGCj-WC6TBT4YoCQRASVOHzy_rJxuBW7ZwUZNb1g==",
      "Lang": "pl",
      "CaptionKey": "translation",
      "CaptionName": "Tłumaczenie",
      "YoutubeSynced": true
    },
    {
      "ID": "Gz8mCpE2V5d1CuvWFxXofgnmPxWWSDwPWku9GhLKAP54_ePiNZ61hA==",
      "Lang": "ps",
      "CaptionKey": "translation",
      "CaptionName": "ژباړه",
      "YoutubeSynced": true
    },
    {
      "ID": "Gz8mCpE2V5ebTUwPuh3W2xfd4tKaT3tMRp0zeWKkB_dMMUKDyDfGLg==",
      "Lang": "pt",
      "CaptionKey": "translation",
      "CaptionName": "Tradução",
      "YoutubeSynced": true
    },
    {
      "ID": "wRSLcQTr9UnjJXpwlRTlfmBfqMIvDTQWovwd7NCQS-kc1V17fhY0ag==",
      "Lang": "ro",
      "CaptionKey": "translation",
      "CaptionName": "Traducere",
      "YoutubeSynced": true
    },
    {
      "ID": "aDmVvShiNICNIiCsOorBdvEyOqValHR5pvHs2ZKBAzd-IHePf2GU2g==",
      "Lang": "ru",
      "CaptionKey": "translation",
      "CaptionName": "Перевод",
      "YoutubeSynced": true
    },
    {
      "ID": "Gz8mCpE2V5eZZCxe0IM6qYZhnDOfV7nXDR8VUpqm1pZYWFyrynLulg==",
      "Lang": "sd",
      "CaptionKey": "translation",
      "CaptionName": "ترجمو",
      "YoutubeSynced": true
    },
    {
      "ID": "qma-UmAi8fMY3actOv6GjX1r_Rpoi3llmLA5cWjFcnfA-tWgsMXfcuW8lr9vIAlzdO2n97ONdEM=",
      "Lang": "si",
      "CaptionKey": "translation",
      "CaptionName": "පරිවර්තනය",
      "YoutubeSynced": true
    },
    {
      "ID": "Sq9eUSTHmaiEDyc_alUXGn_2gXnFHfrYzOOEWXlWBtrw1q5UVq13_g==",
      "Lang": "sk",
      "CaptionKey": "translation",
      "CaptionName": "preklad",
      "YoutubeSynced": true
    },
    {
      "ID": "_GLpJSpCZVFasvPn4VxXFOjT6UbdvNIJH-jp0u7sqo8=",
      "Lang": "sl",
      "CaptionKey": "translation",
      "CaptionName": "Prevod",
      "YoutubeSynced": true
    },
    {
      "ID": "-sPEwxVMA9B7G-YcXbxS0XoDTi63YXYA-x8cqLuCzHy_CFvv_eMdNQ==",
      "Lang": "sm",
      "CaptionKey": "translation",
      "CaptionName": "Faʻaliliuga",
      "YoutubeSynced": true
    },
    {
      "ID": "Sq9eUSTHmaimLUijHyBIbsWVBsFJdCKFriLgBGsmckglB8lVD8JDuQ==",
      "Lang": "sn",
      "CaptionKey": "translation",
      "CaptionName": "Dudziro",
      "YoutubeSynced": true
    },
    {
      "ID": "wRSLcQTr9UkwZ_XxAD8H89z3ljLJ0vCQ8F2gpj8MD16ZWRJst-0_EQ==",
      "Lang": "so",
      "CaptionKey": "translation",
      "CaptionName": "Tarjumida",
      "YoutubeSynced": true
    },
    {
      "ID": "wRSLcQTr9UmQkcY6-_DZRdsRSJT5ew11AFUGj3hQ-jd5dinVMxC6Pg==",
      "Lang": "sq",
      "CaptionKey": "translation",
      "CaptionName": "përkthim",
      "YoutubeSynced": true
    },
    {
      "ID": "-sPEwxVMA9CYtcjEH862Cay4rByaONqRR0sFgpDy_NSF_TXiqbjKYQ==",
      "Lang": "sr",
      "CaptionKey": "translation",
      "CaptionName": "Превод",
      "YoutubeSynced": true
    },
    {
      "ID": "wRSLcQTr9UmZmkurTOjiVs_QcVEehhZWr1NflYrXZ_89Ua3DySYp1w==",
      "Lang": "st",
      "CaptionKey": "translation",
      "CaptionName": "Phetolelo",
      "YoutubeSynced": true
    },
    {
      "ID": "Gz8mCpE2V5e3-nzz9J8uyotNbKaqsleGOpsuPX-YBB7UXlC7T2eZ0Q==",
      "Lang": "su",
      "CaptionKey": "translation",
      "CaptionName": "Tarjamahan",
      "YoutubeSynced": true
    },
    {
      "ID": "aDmVvShiNIDON0TDdkXeMutzltnkH_iBHLTvWW62SDDVbu6o5oi0mA==",
      "Lang": "sv",
      "CaptionKey": "translation",
      "CaptionName": "Översättning",
      "YoutubeSynced": true
    },
    {
      "ID": "Sq9eUSTHmaif8PYMVRMNnMFFm0oPqYk97fi-7ctz9VJ7MzWvXtoQbQ==",
      "Lang": "sw",
      "CaptionKey": "translation",
      "CaptionName": "Tafsiri",
      "YoutubeSynced": true
    },
    {
      "ID": "Ja80il6ALDsEN5drbu1oyWRLn7FRn_s3t7Q_-YsuT9G45PWrC1qNpjo2-9ge-ZjAO1b4edEDiB6LGjosrjslv0u2dYNphY12",
      "Lang": "ta",
      "CaptionKey": "translation",
      "CaptionName": "மொழிபெயர்ப்பு",
      "YoutubeSynced": true
    },
    {
      "ID": "jQxlyNkhCbh4TzCJ6c-fn-bLPfVBuPdmccFr0UtCxL82CqJ04aJnEZGl1vPeaKap",
      "Lang": "te",
      "CaptionKey": "translation",
      "CaptionName": "అనువాదం",
      "YoutubeSynced": true
    },
    {
      "ID": "aDmVvShiNIBnPHDTu-pwqqOeUOXGYRENCjOiTZZ6xW7YWHWtwJA2KA==",
      "Lang": "tg",
      "CaptionKey": "translation",
      "CaptionName": "Тарҷума",
      "YoutubeSynced": true
    },
    {
      "ID": "lEAYeC_QeZQXP1qlfMIJcfZSw7I69DvCyxzJ0wGR5BsmHXqCH3pKjhaD-HpRcGpd",
      "Lang": "th",
      "CaptionKey": "translation",
      "CaptionName": "การแปล",
      "YoutubeSynced": true
    },
    {
      "ID": "GGCyO5HDlqsvSqwjWA2hW4MW8ev-kgOOhzVSlEYkSUOtMDb3PVJO6Q==",
      "Lang": "tr",
      "CaptionKey": "translation",
      "CaptionName": "Tercüme",
      "YoutubeSynced": true
    },
    {
      "ID": "k1mSfhsTgxkX5gcLHgMPvg2kaLVuoxpLme29ZSPfy8EgQfApjJ6hxFAfKQJSN44B",
      "Lang": "uk",
      "CaptionKey": "translation",
      "CaptionName": "Переклад",
      "YoutubeSynced": true
    },
    {
      "ID": "Gz8mCpE2V5cA2_EGeLdPPfjcP4SyHW6EAPN0vqlCX7JUqxHsJg9WLg==",
      "Lang": "ur",
      "CaptionKey": "translation",
      "CaptionName": "ترجمہ",
      "YoutubeSynced": true
    },
    {
      "ID": "Sq9eUSTHmahLriUnazeP_3wBvGDW5PqLRRpcUpAwzqhxixV5sI62Gw==",
      "Lang": "uz",
      "CaptionKey": "translation",
      "CaptionName": "Tarjima",
      "YoutubeSynced": true
    },
    {
      "ID": "_GLpJSpCZVFWK03Td0a3TW5UkWuwSJPVC_lO9KqUFH4=",
      "Lang": "vi",
      "CaptionKey": "translation",
      "CaptionName": "Dịch",
      "YoutubeSynced": true
    },
    {
      "ID": "Gz8mCpE2V5cACupJaw2oJzzBriBbaa38VO6zTaVGIVIb9M-oOgevNA==",
      "Lang": "xh",
      "CaptionKey": "translation",
      "CaptionName": "Inguqulelo",
      "YoutubeSynced": true
    },
    {
      "ID": "FLiypdBUUb0haQCuNV_a8RG7SdrR8PDHdSMjbFOjKw1xha7_KqSVP1E8Gg2sdCwz",
      "Lang": "yi",
      "CaptionKey": "translation",
      "CaptionName": "איבערזעצונג",
      "YoutubeSynced": true
    },
    {
      "ID": "Sq9eUSTHmaiLRJk7BfuLfCjUh5f7COPnSFMU-Y2HKy88nk45kz4TgQ==",
      "Lang": "yo",
      "CaptionKey": "translation",
      "CaptionName": "Itumọ",
      "YoutubeSynced": true
    },
    {
      "ID": "i8XsrNvcgJ_SeoO8hu8JEDhTz_ApsZosd19yMfWgwTMzCOuVZjrrVw==",
      "Lang": "zh-Hans",
      "CaptionKey": "translation",
      "CaptionName": "翻译",
      "YoutubeSynced": true
    },
    {
      "ID": "i8XsrNvcgJ_SeoO8hu8JENvWmYls43VC6kDVUZm_E-7lcutt0Slt8A==",
      "Lang": "zh-Hant",
      "CaptionKey": "translation",
      "CaptionName": "翻譯",
      "YoutubeSynced": true
    },
    {
      "ID": "Gz8mCpE2V5epBv5iwawRx7F7euAwaod3bIDzlgLuK9N_dRyRmuR_GA==",
      "Lang": "zu",
      "CaptionKey": "translation",
      "CaptionName": "Ukuhumusha",
      "YoutubeSynced": true
    }
  ]
}