{
  "SerieName": "grammar-en-beginner-simple",
  "No": 11,
  "VideoTitle": "s",
  "ThumbnailTitle": "",
  "YoutubeDescription": "",
  "YoutubeTitle": "",
  "Boxes": [
    {
      "Pos": 0,
      "PersonName": "u",
      "Candidates": [
        {
          "Word": "I",
          "Root": "",
          "FeatureSet": null,
          "Conditions": [
            {
              "Pos": 1,
              "Morphemes": [
                {
                  "Word": "",
                  "Root": "",
                  "FeatureSet": [
                    "ns"
                  ]
                }
              ]
            }
          ],
          "PersonConditions": null
        },
        {
          "Word": "She",
          "Root": "",
          "FeatureSet": null,
          "Conditions": [
            {
              "Pos": 1,
              "Morphemes": [
                {
                  "Word": "",
                  "Root": "",
                  "FeatureSet": [
                    "s"
                  ]
                }
              ]
            }
          ],
          "PersonConditions": null
        },
        {
          "Word": "They",
          "Root": "",
          "FeatureSet": null,
          "Conditions": [
            {
              "Pos": 1,
              "Morphemes": [
                {
                  "Word": "",
                  "Root": "",
                  "FeatureSet": [
                    "ns"
                  ]
                }
              ]
            }
          ],
          "PersonConditions": null
        }
      ]
    },
    {
      "Pos": 1,
      "PersonName": "u",
      "Candidates": [
        {
          "Word": "like",
          "Root": "like",
          "FeatureSet": [
            "ns"
          ],
          "Conditions": null,
          "PersonConditions": null
        },
        {
          "Word": "likes",
          "Root": "like",
          "FeatureSet": [
            "s"
          ],
          "Conditions": null,
          "PersonConditions": null
        },
        {
          "Word": "drink",
          "Root": "drink",
          "FeatureSet": [
            "ns"
          ],
          "Conditions": null,
          "PersonConditions": null
        },
        {
          "Word": "drinks",
          "Root": "drink",
          "FeatureSet": [
            "s"
          ],
          "Conditions": null,
          "PersonConditions": null
        }
      ]
    },
    {
      "Pos": 2,
      "PersonName": "u",
      "Candidates": [
        {
          "Word": "tea",
          "Root": "",
          "FeatureSet": null,
          "Conditions": null,
          "PersonConditions": null
        }
      ]
    }
  ],
  "Pars": [
    {
      "Header": "",
      "Poses": [
        0,
        1,
        2
      ]
    }
  ],
  "Exercises": [
    {
      "Name": "A",
      "Problems": [
        {
          "ProblemNo": 0,
          "OriginalCandidates": [
            {
              "Word": "She",
              "Ruby": "ʃi"
            },
            {
              "Word": "likes",
              "Ruby": "laɪks"
            },
            {
              "Word": "tea",
              "Ruby": "ti"
            }
          ],
          "ChangeCandidatePos": 0,
          "ChangeCandidates": [
            {
              "Word": "I",
              "Ruby": "aɪ"
            },
            {
              "Word": "like",
              "Ruby": "laɪk"
            },
            {
              "Word": "",
              "Ruby": ""
            }
          ],
          "ChangeMorphemes": [
            {
              "Word": "I",
              "Root": "",
              "FeatureSet": null
            },
            {
              "Word": "",
              "Root": "",
              "FeatureSet": [
                "ns"
              ]
            },
            {
              "Word": "",
              "Root": "",
              "FeatureSet": null
            }
          ],
          "AnswerCandidates": [
            {
              "Word": "I",
              "Ruby": "aɪ"
            },
            {
              "Word": "like",
              "Ruby": "laɪk"
            },
            {
              "Word": "tea",
              "Ruby": "ti"
            }
          ]
        },
        {
          "ProblemNo": 1,
          "OriginalCandidates": [
            {
              "Word": "I",
              "Ruby": "aɪ"
            },
            {
              "Word": "like",
              "Ruby": "laɪk"
            },
            {
              "Word": "tea",
              "Ruby": "ti"
            }
          ],
          "ChangeCandidatePos": 0,
          "ChangeCandidates": [
            {
              "Word": "They",
              "Ruby": "ðe"
            },
            {
              "Word": "like",
              "Ruby": "laɪk"
            },
            {
              "Word": "",
              "Ruby": ""
            }
          ],
          "ChangeMorphemes": [
            {
              "Word": "They",
              "Root": "",
              "FeatureSet": null
            },
            {
              "Word": "",
              "Root": "",
              "FeatureSet": [
                "ns"
              ]
            },
            {
              "Word": "",
              "Root": "",
              "FeatureSet": null
            }
          ],
          "AnswerCandidates": [
            {
              "Word": "They",
              "Ruby": "ðe"
            },
            {
              "Word": "like",
              "Ruby": "laɪk"
            },
            {
              "Word": "tea",
              "Ruby": "ti"
            }
          ]
        },
        {
          "ProblemNo": 2,
          "OriginalCandidates": [
            {
              "Word": "They",
              "Ruby": "ðe"
            },
            {
              "Word": "like",
              "Ruby": "laɪk"
            },
            {
              "Word": "tea",
              "Ruby": "ti"
            }
          ],
          "ChangeCandidatePos": 1,
          "ChangeCandidates": [
            {
              "Word": "",
              "Ruby": ""
            },
            {
              "Word": "drink",
              "Ruby": "drɪŋk"
            },
            {
              "Word": "",
              "Ruby": ""
            }
          ],
          "ChangeMorphemes": [
            {
              "Word": "",
              "Root": "",
              "FeatureSet": null
            },
            {
              "Word": "drink",
              "Root": "drink",
              "FeatureSet": [
                "ns"
              ]
            },
            {
              "Word": "",
              "Root": "",
              "FeatureSet": null
            }
          ],
          "AnswerCandidates": [
            {
              "Word": "They",
              "Ruby": "ðe"
            },
            {
              "Word": "drink",
              "Ruby": "drɪŋk"
            },
            {
              "Word": "tea",
              "Ruby": "ti"
            }
          ]
        },
        {
          "ProblemNo": 3,
          "OriginalCandidates": [
            {
              "Word": "They",
              "Ruby": "ðe"
            },
            {
              "Word": "drink",
              "Ruby": "drɪŋk"
            },
            {
              "Word": "tea",
              "Ruby": "ti"
            }
          ],
          "ChangeCandidatePos": 0,
          "ChangeCandidates": [
            {
              "Word": "I",
              "Ruby": "aɪ"
            },
            {
              "Word": "drink",
              "Ruby": "drɪŋk"
            },
            {
              "Word": "",
              "Ruby": ""
            }
          ],
          "ChangeMorphemes": [
            {
              "Word": "I",
              "Root": "",
              "FeatureSet": null
            },
            {
              "Word": "",
              "Root": "",
              "FeatureSet": [
                "ns"
              ]
            },
            {
              "Word": "",
              "Root": "",
              "FeatureSet": null
            }
          ],
          "AnswerCandidates": [
            {
              "Word": "I",
              "Ruby": "aɪ"
            },
            {
              "Word": "drink",
              "Ruby": "drɪŋk"
            },
            {
              "Word": "tea",
              "Ruby": "ti"
            }
          ]
        },
        {
          "ProblemNo": 4,
          "OriginalCandidates": [
            {
              "Word": "I",
              "Ruby": "aɪ"
            },
            {
              "Word": "drink",
              "Ruby": "drɪŋk"
            },
            {
              "Word": "tea",
              "Ruby": "ti"
            }
          ],
          "ChangeCandidatePos": 0,
          "ChangeCandidates": [
            {
              "Word": "She",
              "Ruby": "ʃi"
            },
            {
              "Word": "drinks",
              "Ruby": "drɪŋks"
            },
            {
              "Word": "",
              "Ruby": ""
            }
          ],
          "ChangeMorphemes": [
            {
              "Word": "She",
              "Root": "",
              "FeatureSet": null
            },
            {
              "Word": "",
              "Root": "",
              "FeatureSet": [
                "s"
              ]
            },
            {
              "Word": "",
              "Root": "",
              "FeatureSet": null
            }
          ],
          "AnswerCandidates": [
            {
              "Word": "She",
              "Ruby": "ʃi"
            },
            {
              "Word": "drinks",
              "Ruby": "drɪŋks"
            },
            {
              "Word": "tea",
              "Ruby": "ti"
            }
          ]
        }
      ],
      "VideoFile": "grammar-en-beginner-simple_11_A.mp4",
      "AnimeticCaptions": [
        {
          "Start": 0,
          "End": 1,
          "Text": "{I}",
          "Ruby": "aɪ",
          "Lang": "en",
          "ProblemNo": 3,
          "Kind": 2
        },
        {
          "Start": 1,
          "End": 4,
          "Text": "English grammar exercises #11 s",
          "Ruby": "",
          "Lang": "",
          "ProblemNo": 0,
          "Kind": 0
        },
        {
          "Start": 4,
          "End": 7,
          "Text": "{She likes tea}",
          "Ruby": "ʃi laɪks ti",
          "Lang": "en",
          "ProblemNo": 0,
          "Kind": 1
        },
        {
          "Start": 7,
          "End": 8,
          "Text": "{I}",
          "Ruby": "aɪ",
          "Lang": "en",
          "ProblemNo": 0,
          "Kind": 2
        },
        {
          "Start": 8,
          "End": 9,
          "Text": "{like}",
          "Ruby": "laɪk",
          "Lang": "en",
          "ProblemNo": 0,
          "Kind": 2
        },
        {
          "Start": 9,
          "End": 13,
          "Text": "{I like tea}",
          "Ruby": "aɪ laɪk ti",
          "Lang": "en",
          "ProblemNo": 0,
          "Kind": 3
        },
        {
          "Start": 13,
          "End": 18,
          "Text": "{I like tea}",
          "Ruby": "aɪ laɪk ti",
          "Lang": "en",
          "ProblemNo": 0,
          "Kind": 4
        },
        {
          "Start": 18,
          "End": 21,
          "Text": "{I like tea}",
          "Ruby": "aɪ laɪk ti",
          "Lang": "en",
          "ProblemNo": 1,
          "Kind": 1
        },
        {
          "Start": 21,
          "End": 22,
          "Text": "{They}",
          "Ruby": "ðe",
          "Lang": "en",
          "ProblemNo": 1,
          "Kind": 2
        },
        {
          "Start": 22,
          "End": 23,
          "Text": "{like}",
          "Ruby": "laɪk",
          "Lang": "en",
          "ProblemNo": 1,
          "Kind": 2
        },
        {
          "Start": 23,
          "End": 27,
          "Text": "{They like tea}",
          "Ruby": "ðe laɪk ti",
          "Lang": "en",
          "ProblemNo": 1,
          "Kind": 3
        },
        {
          "Start": 27,
          "End": 32,
          "Text": "{They like tea}",
          "Ruby": "ðe laɪk ti",
          "Lang": "en",
          "ProblemNo": 1,
          "Kind": 4
        },
        {
          "Start": 32,
          "End": 35,
          "Text": "{They like tea}",
          "Ruby": "ðe laɪk ti",
          "Lang": "en",
          "ProblemNo": 2,
          "Kind": 1
        },
        {
          "Start": 35,
          "End": 36,
          "Text": "{drink}",
          "Ruby": "drɪŋk",
          "Lang": "en",
          "ProblemNo": 2,
          "Kind": 2
        },
        {
          "Start": 36,
          "End": 40,
          "Text": "{They drink tea}",
          "Ruby": "ðe drɪŋk ti",
          "Lang": "en",
          "ProblemNo": 2,
          "Kind": 3
        },
        {
          "Start": 40,
          "End": 45,
          "Text": "{They drink tea}",
          "Ruby": "ðe drɪŋk ti",
          "Lang": "en",
          "ProblemNo": 2,
          "Kind": 4
        },
        {
          "Start": 45,
          "End": 48,
          "Text": "{They drink tea}",
          "Ruby": "ðe drɪŋk ti",
          "Lang": "en",
          "ProblemNo": 3,
          "Kind": 1
        },
        {
          "Start": 48,
          "End": 49,
          "Text": "{I}",
          "Ruby": "aɪ",
          "Lang": "en",
          "ProblemNo": 3,
          "Kind": 2
        },
        {
          "Start": 49,
          "End": 50,
          "Text": "{drink}",
          "Ruby": "drɪŋk",
          "Lang": "en",
          "ProblemNo": 3,
          "Kind": 2
        },
        {
          "Start": 50,
          "End": 54,
          "Text": "{I drink tea}",
          "Ruby": "aɪ drɪŋk ti",
          "Lang": "en",
          "ProblemNo": 3,
          "Kind": 3
        },
        {
          "Start": 54,
          "End": 59,
          "Text": "{I drink tea}",
          "Ruby": "aɪ drɪŋk ti",
          "Lang": "en",
          "ProblemNo": 3,
          "Kind": 4
        },
        {
          "Start": 59,
          "End": 62,
          "Text": "{I drink tea}",
          "Ruby": "aɪ drɪŋk ti",
          "Lang": "en",
          "ProblemNo": 4,
          "Kind": 1
        },
        {
          "Start": 62,
          "End": 63,
          "Text": "{She}",
          "Ruby": "ʃi",
          "Lang": "en",
          "ProblemNo": 4,
          "Kind": 2
        },
        {
          "Start": 63,
          "End": 64,
          "Text": "{drinks}",
          "Ruby": "drɪŋks",
          "Lang": "en",
          "ProblemNo": 4,
          "Kind": 2
        },
        {
          "Start": 64,
          "End": 68,
          "Text": "{She drinks tea}",
          "Ruby": "ʃi drɪŋks ti",
          "Lang": "en",
          "ProblemNo": 4,
          "Kind": 3
        },
        {
          "Start": 68,
          "End": 73,
          "Text": "{She drinks tea}",
          "Ruby": "ʃi drɪŋks ti",
          "Lang": "en",
          "ProblemNo": 4,
          "Kind": 4
        },
        {
          "Start": 73,
          "End": 76,
          "Text": "",
          "Ruby": "",
          "Lang": "",
          "ProblemNo": 0,
          "Kind": 5
        },
        {
          "Start": 76,
          "End": 79,
          "Text": "{She likes tea}",
          "Ruby": "ʃi laɪks ti",
          "Lang": "en",
          "ProblemNo": 0,
          "Kind": 1
        },
        {
          "Start": 79,
          "End": 80,
          "Text": "{I}",
          "Ruby": "aɪ",
          "Lang": "en",
          "ProblemNo": 0,
          "Kind": 2
        },
        {
          "Start": 80,
          "End": 84,
          "Text": "{I like tea}",
          "Ruby": "aɪ laɪk ti",
          "Lang": "en",
          "ProblemNo": 0,
          "Kind": 3
        },
        {
          "Start": 84,
          "End": 89,
          "Text": "{I like tea}",
          "Ruby": "aɪ laɪk ti",
          "Lang": "en",
          "ProblemNo": 0,
          "Kind": 4
        },
        {
          "Start": 89,
          "End": 92,
          "Text": "{I like tea}",
          "Ruby": "aɪ laɪk ti",
          "Lang": "en",
          "ProblemNo": 1,
          "Kind": 1
        },
        {
          "Start": 92,
          "End": 93,
          "Text": "{They}",
          "Ruby": "ðe",
          "Lang": "en",
          "ProblemNo": 1,
          "Kind": 2
        },
        {
          "Start": 93,
          "End": 97,
          "Text": "{They like tea}",
          "Ruby": "ðe laɪk ti",
          "Lang": "en",
          "ProblemNo": 1,
          "Kind": 3
        },
        {
          "Start": 97,
          "End": 102,
          "Text": "{They like tea}",
          "Ruby": "ðe laɪk ti",
          "Lang": "en",
          "ProblemNo": 1,
          "Kind": 4
        },
        {
          "Start": 102,
          "End": 105,
          "Text": "{They like tea}",
          "Ruby": "ðe laɪk ti",
          "Lang": "en",
          "ProblemNo": 2,
          "Kind": 1
        },
        {
          "Start": 105,
          "End": 106,
          "Text": "{drink}",
          "Ruby": "drɪŋk",
          "Lang": "en",
          "ProblemNo": 2,
          "Kind": 2
        },
        {
          "Start": 106,
          "End": 110,
          "Text": "{They drink tea}",
          "Ruby": "ðe drɪŋk ti",
          "Lang": "en",
          "ProblemNo": 2,
          "Kind": 3
        },
        {
          "Start": 110,
          "End": 115,
          "Text": "{They drink tea}",
          "Ruby": "ðe drɪŋk ti",
          "Lang": "en",
          "ProblemNo": 2,
          "Kind": 4
        },
        {
          "Start": 115,
          "End": 118,
          "Text": "{They drink tea}",
          "Ruby": "ðe drɪŋk ti",
          "Lang": "en",
          "ProblemNo": 3,
          "Kind": 1
        },
        {
          "Start": 118,
          "End": 119,
          "Text": "{I}",
          "Ruby": "aɪ",
          "Lang": "en",
          "ProblemNo": 3,
          "Kind": 2
        },
        {
          "Start": 119,
          "End": 123,
          "Text": "{I drink tea}",
          "Ruby": "aɪ drɪŋk ti",
          "Lang": "en",
          "ProblemNo": 3,
          "Kind": 3
        },
        {
          "Start": 123,
          "End": 128,
          "Text": "{I drink tea}",
          "Ruby": "aɪ drɪŋk ti",
          "Lang": "en",
          "ProblemNo": 3,
          "Kind": 4
        },
        {
          "Start": 128,
          "End": 131,
          "Text": "{I drink tea}",
          "Ruby": "aɪ drɪŋk ti",
          "Lang": "en",
          "ProblemNo": 4,
          "Kind": 1
        },
        {
          "Start": 131,
          "End": 132,
          "Text": "{She}",
          "Ruby": "ʃi",
          "Lang": "en",
          "ProblemNo": 4,
          "Kind": 2
        },
        {
          "Start": 132,
          "End": 136,
          "Text": "{She drinks tea}",
          "Ruby": "ʃi drɪŋks ti",
          "Lang": "en",
          "ProblemNo": 4,
          "Kind": 3
        },
        {
          "Start": 136,
          "End": 141,
          "Text": "{She drinks tea}",
          "Ruby": "ʃi drɪŋks ti",
          "Lang": "en",
          "ProblemNo": 4,
          "Kind": 4
        },
        {
          "Start": 141,
          "End": 144,
          "Text": "",
          "Ruby": "",
          "Lang": "",
          "ProblemNo": 0,
          "Kind": 5
        },
        {
          "Start": 144,
          "End": 147,
          "Text": "{She likes tea}",
          "Ruby": "ʃi laɪks ti",
          "Lang": "en",
          "ProblemNo": 0,
          "Kind": 1
        },
        {
          "Start": 147,
          "End": 148,
          "Text": "{I}",
          "Ruby": "aɪ",
          "Lang": "en",
          "ProblemNo": 0,
          "Kind": 2
        },
        {
          "Start": 148,
          "End": 152,
          "Text": "{I like tea}",
          "Ruby": "aɪ laɪk ti",
          "Lang": "en",
          "ProblemNo": 0,
          "Kind": 3
        },
        {
          "Start": 152,
          "End": 157,
          "Text": "{I like tea}",
          "Ruby": "aɪ laɪk ti",
          "Lang": "en",
          "ProblemNo": 0,
          "Kind": 4
        },
        {
          "Start": 157,
          "End": 160,
          "Text": "{I like tea}",
          "Ruby": "aɪ laɪk ti",
          "Lang": "en",
          "ProblemNo": 1,
          "Kind": 1
        },
        {
          "Start": 160,
          "End": 161,
          "Text": "{They}",
          "Ruby": "ðe",
          "Lang": "en",
          "ProblemNo": 1,
          "Kind": 2
        },
        {
          "Start": 161,
          "End": 165,
          "Text": "{They like tea}",
          "Ruby": "ðe laɪk ti",
          "Lang": "en",
          "ProblemNo": 1,
          "Kind": 3
        },
        {
          "Start": 165,
          "End": 170,
          "Text": "{They like tea}",
          "Ruby": "ðe laɪk ti",
          "Lang": "en",
          "ProblemNo": 1,
          "Kind": 4
        },
        {
          "Start": 170,
          "End": 173,
          "Text": "{They like tea}",
          "Ruby": "ðe laɪk ti",
          "Lang": "en",
          "ProblemNo": 2,
          "Kind": 1
        },
        {
          "Start": 173,
          "End": 174,
          "Text": "{drink}",
          "Ruby": "drɪŋk",
          "Lang": "en",
          "ProblemNo": 2,
          "Kind": 2
        },
        {
          "Start": 174,
          "End": 178,
          "Text": "{They drink tea}",
          "Ruby": "ðe drɪŋk ti",
          "Lang": "en",
          "ProblemNo": 2,
          "Kind": 3
        },
        {
          "Start": 178,
          "End": 183,
          "Text": "{They drink tea}",
          "Ruby": "ðe drɪŋk ti",
          "Lang": "en",
          "ProblemNo": 2,
          "Kind": 4
        },
        {
          "Start": 183,
          "End": 186,
          "Text": "{They drink tea}",
          "Ruby": "ðe drɪŋk ti",
          "Lang": "en",
          "ProblemNo": 3,
          "Kind": 1
        },
        {
          "Start": 186,
          "End": 187,
          "Text": "{I}",
          "Ruby": "aɪ",
          "Lang": "en",
          "ProblemNo": 3,
          "Kind": 2
        },
        {
          "Start": 187,
          "End": 191,
          "Text": "{I drink tea}",
          "Ruby": "aɪ drɪŋk ti",
          "Lang": "en",
          "ProblemNo": 3,
          "Kind": 3
        },
        {
          "Start": 191,
          "End": 196,
          "Text": "{I drink tea}",
          "Ruby": "aɪ drɪŋk ti",
          "Lang": "en",
          "ProblemNo": 3,
          "Kind": 4
        },
        {
          "Start": 196,
          "End": 199,
          "Text": "{I drink tea}",
          "Ruby": "aɪ drɪŋk ti",
          "Lang": "en",
          "ProblemNo": 4,
          "Kind": 1
        },
        {
          "Start": 199,
          "End": 200,
          "Text": "{She}",
          "Ruby": "ʃi",
          "Lang": "en",
          "ProblemNo": 4,
          "Kind": 2
        },
        {
          "Start": 200,
          "End": 204,
          "Text": "{She drinks tea}",
          "Ruby": "ʃi drɪŋks ti",
          "Lang": "en",
          "ProblemNo": 4,
          "Kind": 3
        },
        {
          "Start": 204,
          "End": 209,
          "Text": "{She drinks tea}",
          "Ruby": "ʃi drɪŋks ti",
          "Lang": "en",
          "ProblemNo": 4,
          "Kind": 4
        },
        {
          "Start": 209,
          "End": 212,
          "Text": "",
          "Ruby": "",
          "Lang": "",
          "ProblemNo": 0,
          "Kind": 5
        },
        {
          "Start": 212,
          "End": 232,
          "Text": "{Please subscribe!}",
          "Ruby": "",
          "Lang": "en",
          "ProblemNo": 0,
          "Kind": 7
        }
      ]
    },
    {
      "Name": "AU",
      "Problems": [
        {
          "ProblemNo": 0,
          "OriginalCandidates": [
            {
              "Word": "She",
              "Ruby": "ʃi"
            },
            {
              "Word": "likes",
              "Ruby": "laɪks"
            },
            {
              "Word": "tea",
              "Ruby": "ti"
            }
          ],
          "ChangeCandidatePos": 0,
          "ChangeCandidates": [
            {
              "Word": "They",
              "Ruby": "ðe"
            },
            {
              "Word": "like",
              "Ruby": "laɪk"
            },
            {
              "Word": "",
              "Ruby": ""
            }
          ],
          "ChangeMorphemes": [
            {
              "Word": "They",
              "Root": "",
              "FeatureSet": null
            },
            {
              "Word": "",
              "Root": "",
              "FeatureSet": [
                "ns"
              ]
            },
            {
              "Word": "",
              "Root": "",
              "FeatureSet": null
            }
          ],
          "AnswerCandidates": [
            {
              "Word": "They",
              "Ruby": "ðe"
            },
            {
              "Word": "like",
              "Ruby": "laɪk"
            },
            {
              "Word": "tea",
              "Ruby": "ti"
            }
          ]
        },
        {
          "ProblemNo": 1,
          "OriginalCandidates": [
            {
              "Word": "They",
              "Ruby": "ðe"
            },
            {
              "Word": "like",
              "Ruby": "laɪk"
            },
            {
              "Word": "tea",
              "Ruby": "ti"
            }
          ],
          "ChangeCandidatePos": 0,
          "ChangeCandidates": [
            {
              "Word": "I",
              "Ruby": "aɪ"
            },
            {
              "Word": "like",
              "Ruby": "laɪk"
            },
            {
              "Word": "",
              "Ruby": ""
            }
          ],
          "ChangeMorphemes": [
            {
              "Word": "I",
              "Root": "",
              "FeatureSet": null
            },
            {
              "Word": "",
              "Root": "",
              "FeatureSet": [
                "ns"
              ]
            },
            {
              "Word": "",
              "Root": "",
              "FeatureSet": null
            }
          ],
          "AnswerCandidates": [
            {
              "Word": "I",
              "Ruby": "aɪ"
            },
            {
              "Word": "like",
              "Ruby": "laɪk"
            },
            {
              "Word": "tea",
              "Ruby": "ti"
            }
          ]
        },
        {
          "ProblemNo": 2,
          "OriginalCandidates": [
            {
              "Word": "I",
              "Ruby": "aɪ"
            },
            {
              "Word": "like",
              "Ruby": "laɪk"
            },
            {
              "Word": "tea",
              "Ruby": "ti"
            }
          ],
          "ChangeCandidatePos": 1,
          "ChangeCandidates": [
            {
              "Word": "",
              "Ruby": ""
            },
            {
              "Word": "drink",
              "Ruby": "drɪŋk"
            },
            {
              "Word": "",
              "Ruby": ""
            }
          ],
          "ChangeMorphemes": [
            {
              "Word": "",
              "Root": "",
              "FeatureSet": null
            },
            {
              "Word": "drink",
              "Root": "drink",
              "FeatureSet": [
                "ns"
              ]
            },
            {
              "Word": "",
              "Root": "",
              "FeatureSet": null
            }
          ],
          "AnswerCandidates": [
            {
              "Word": "I",
              "Ruby": "aɪ"
            },
            {
              "Word": "drink",
              "Ruby": "drɪŋk"
            },
            {
              "Word": "tea",
              "Ruby": "ti"
            }
          ]
        },
        {
          "ProblemNo": 3,
          "OriginalCandidates": [
            {
              "Word": "I",
              "Ruby": "aɪ"
            },
            {
              "Word": "drink",
              "Ruby": "drɪŋk"
            },
            {
              "Word": "tea",
              "Ruby": "ti"
            }
          ],
          "ChangeCandidatePos": 0,
          "ChangeCandidates": [
            {
              "Word": "She",
              "Ruby": "ʃi"
            },
            {
              "Word": "drinks",
              "Ruby": "drɪŋks"
            },
            {
              "Word": "",
              "Ruby": ""
            }
          ],
          "ChangeMorphemes": [
            {
              "Word": "She",
              "Root": "",
              "FeatureSet": null
            },
            {
              "Word": "",
              "Root": "",
              "FeatureSet": [
                "s"
              ]
            },
            {
              "Word": "",
              "Root": "",
              "FeatureSet": null
            }
          ],
          "AnswerCandidates": [
            {
              "Word": "She",
              "Ruby": "ʃi"
            },
            {
              "Word": "drinks",
              "Ruby": "drɪŋks"
            },
            {
              "Word": "tea",
              "Ruby": "ti"
            }
          ]
        },
        {
          "ProblemNo": 4,
          "OriginalCandidates": [
            {
              "Word": "She",
              "Ruby": "ʃi"
            },
            {
              "Word": "drinks",
              "Ruby": "drɪŋks"
            },
            {
              "Word": "tea",
              "Ruby": "ti"
            }
          ],
          "ChangeCandidatePos": 0,
          "ChangeCandidates": [
            {
              "Word": "They",
              "Ruby": "ðe"
            },
            {
              "Word": "drink",
              "Ruby": "drɪŋk"
            },
            {
              "Word": "",
              "Ruby": ""
            }
          ],
          "ChangeMorphemes": [
            {
              "Word": "They",
              "Root": "",
              "FeatureSet": null
            },
            {
              "Word": "",
              "Root": "",
              "FeatureSet": [
                "ns"
              ]
            },
            {
              "Word": "",
              "Root": "",
              "FeatureSet": null
            }
          ],
          "AnswerCandidates": [
            {
              "Word": "They",
              "Ruby": "ðe"
            },
            {
              "Word": "drink",
              "Ruby": "drɪŋk"
            },
            {
              "Word": "tea",
              "Ruby": "ti"
            }
          ]
        }
      ],
      "VideoFile": "grammar-en-beginner-simple_11_AU.mp4",
      "AnimeticCaptions": [
        {
          "Start": 0,
          "End": 1,
          "Text": "{She}",
          "Ruby": "ʃi",
          "Lang": "en",
          "ProblemNo": 3,
          "Kind": 2
        },
        {
          "Start": 1,
          "End": 4,
          "Text": "English grammar exercises (Australia) #11 s",
          "Ruby": "",
          "Lang": "",
          "ProblemNo": 0,
          "Kind": 0
        },
        {
          "Start": 4,
          "End": 7,
          "Text": "{She likes tea}",
          "Ruby": "ʃi laɪks ti",
          "Lang": "en",
          "ProblemNo": 0,
          "Kind": 1
        },
        {
          "Start": 7,
          "End": 8,
          "Text": "{They}",
          "Ruby": "ðe",
          "Lang": "en",
          "ProblemNo": 0,
          "Kind": 2
        },
        {
          "Start": 8,
          "End": 9,
          "Text": "{like}",
          "Ruby": "laɪk",
          "Lang": "en",
          "ProblemNo": 0,
          "Kind": 2
        },
        {
          "Start": 9,
          "End": 11,
          "Text": "{They like tea}",
          "Ruby": "ðe laɪk ti",
          "Lang": "en",
          "ProblemNo": 0,
          "Kind": 3
        },
        {
          "Start": 11,
          "End": 15,
          "Text": "{They like tea}",
          "Ruby": "ðe laɪk ti",
          "Lang": "en",
          "ProblemNo": 0,
          "Kind": 4
        },
        {
          "Start": 15,
          "End": 17,
          "Text": "{They like tea}",
          "Ruby": "ðe laɪk ti",
          "Lang": "en",
          "ProblemNo": 1,
          "Kind": 1
        },
        {
          "Start": 17,
          "End": 18,
          "Text": "{I}",
          "Ruby": "aɪ",
          "Lang": "en",
          "ProblemNo": 1,
          "Kind": 2
        },
        {
          "Start": 18,
          "End": 19,
          "Text": "{like}",
          "Ruby": "laɪk",
          "Lang": "en",
          "ProblemNo": 1,
          "Kind": 2
        },
        {
          "Start": 19,
          "End": 21,
          "Text": "{I like tea}",
          "Ruby": "aɪ laɪk ti",
          "Lang": "en",
          "ProblemNo": 1,
          "Kind": 3
        },
        {
          "Start": 21,
          "End": 25,
          "Text": "{I like tea}",
          "Ruby": "aɪ laɪk ti",
          "Lang": "en",
          "ProblemNo": 1,
          "Kind": 4
        },
        {
          "Start": 25,
          "End": 27,
          "Text": "{I like tea}",
          "Ruby": "aɪ laɪk ti",
          "Lang": "en",
          "ProblemNo": 2,
          "Kind": 1
        },
        {
          "Start": 27,
          "End": 28,
          "Text": "{drink}",
          "Ruby": "drɪŋk",
          "Lang": "en",
          "ProblemNo": 2,
          "Kind": 2
        },
        {
          "Start": 28,
          "End": 30,
          "Text": "{I drink tea}",
          "Ruby": "aɪ drɪŋk ti",
          "Lang": "en",
          "ProblemNo": 2,
          "Kind": 3
        },
        {
          "Start": 30,
          "End": 34,
          "Text": "{I drink tea}",
          "Ruby": "aɪ drɪŋk ti",
          "Lang": "en",
          "ProblemNo": 2,
          "Kind": 4
        },
        {
          "Start": 34,
          "End": 36,
          "Text": "{I drink tea}",
          "Ruby": "aɪ drɪŋk ti",
          "Lang": "en",
          "ProblemNo": 3,
          "Kind": 1
        },
        {
          "Start": 36,
          "End": 37,
          "Text": "{She}",
          "Ruby": "ʃi",
          "Lang": "en",
          "ProblemNo": 3,
          "Kind": 2
        },
        {
          "Start": 37,
          "End": 38,
          "Text": "{drinks}",
          "Ruby": "drɪŋks",
          "Lang": "en",
          "ProblemNo": 3,
          "Kind": 2
        },
        {
          "Start": 38,
          "End": 42,
          "Text": "{She drinks tea}",
          "Ruby": "ʃi drɪŋks ti",
          "Lang": "en",
          "ProblemNo": 3,
          "Kind": 3
        },
        {
          "Start": 42,
          "End": 47,
          "Text": "{She drinks tea}",
          "Ruby": "ʃi drɪŋks ti",
          "Lang": "en",
          "ProblemNo": 3,
          "Kind": 4
        },
        {
          "Start": 47,
          "End": 50,
          "Text": "{She drinks tea}",
          "Ruby": "ʃi drɪŋks ti",
          "Lang": "en",
          "ProblemNo": 4,
          "Kind": 1
        },
        {
          "Start": 50,
          "End": 51,
          "Text": "{They}",
          "Ruby": "ðe",
          "Lang": "en",
          "ProblemNo": 4,
          "Kind": 2
        },
        {
          "Start": 51,
          "End": 52,
          "Text": "{drink}",
          "Ruby": "drɪŋk",
          "Lang": "en",
          "ProblemNo": 4,
          "Kind": 2
        },
        {
          "Start": 52,
          "End": 56,
          "Text": "{They drink tea}",
          "Ruby": "ðe drɪŋk ti",
          "Lang": "en",
          "ProblemNo": 4,
          "Kind": 3
        },
        {
          "Start": 56,
          "End": 61,
          "Text": "{They drink tea}",
          "Ruby": "ðe drɪŋk ti",
          "Lang": "en",
          "ProblemNo": 4,
          "Kind": 4
        },
        {
          "Start": 61,
          "End": 64,
          "Text": "",
          "Ruby": "",
          "Lang": "",
          "ProblemNo": 0,
          "Kind": 5
        },
        {
          "Start": 64,
          "End": 67,
          "Text": "{She likes tea}",
          "Ruby": "ʃi laɪks ti",
          "Lang": "en",
          "ProblemNo": 0,
          "Kind": 1
        },
        {
          "Start": 67,
          "End": 68,
          "Text": "{They}",
          "Ruby": "ðe",
          "Lang": "en",
          "ProblemNo": 0,
          "Kind": 2
        },
        {
          "Start": 68,
          "End": 70,
          "Text": "{They like tea}",
          "Ruby": "ðe laɪk ti",
          "Lang": "en",
          "ProblemNo": 0,
          "Kind": 3
        },
        {
          "Start": 70,
          "End": 74,
          "Text": "{They like tea}",
          "Ruby": "ðe laɪk ti",
          "Lang": "en",
          "ProblemNo": 0,
          "Kind": 4
        },
        {
          "Start": 74,
          "End": 76,
          "Text": "{They like tea}",
          "Ruby": "ðe laɪk ti",
          "Lang": "en",
          "ProblemNo": 1,
          "Kind": 1
        },
        {
          "Start": 76,
          "End": 77,
          "Text": "{I}",
          "Ruby": "aɪ",
          "Lang": "en",
          "ProblemNo": 1,
          "Kind": 2
        },
        {
          "Start": 77,
          "End": 79,
          "Text": "{I like tea}",
          "Ruby": "aɪ laɪk ti",
          "Lang": "en",
          "ProblemNo": 1,
          "Kind": 3
        },
        {
          "Start": 79,
          "End": 83,
          "Text": "{I like tea}",
          "Ruby": "aɪ laɪk ti",
          "Lang": "en",
          "ProblemNo": 1,
          "Kind": 4
        },
        {
          "Start": 83,
          "End": 85,
          "Text": "{I like tea}",
          "Ruby": "aɪ laɪk ti",
          "Lang": "en",
          "ProblemNo": 2,
          "Kind": 1
        },
        {
          "Start": 85,
          "End": 86,
          "Text": "{drink}",
          "Ruby": "drɪŋk",
          "Lang": "en",
          "ProblemNo": 2,
          "Kind": 2
        },
        {
          "Start": 86,
          "End": 88,
          "Text": "{I drink tea}",
          "Ruby": "aɪ drɪŋk ti",
          "Lang": "en",
          "ProblemNo": 2,
          "Kind": 3
        },
        {
          "Start": 88,
          "End": 92,
          "Text": "{I drink tea}",
          "Ruby": "aɪ drɪŋk ti",
          "Lang": "en",
          "ProblemNo": 2,
          "Kind": 4
        },
        {
          "Start": 92,
          "End": 94,
          "Text": "{I drink tea}",
          "Ruby": "aɪ drɪŋk ti",
          "Lang": "en",
          "ProblemNo": 3,
          "Kind": 1
        },
        {
          "Start": 94,
          "End": 95,
          "Text": "{She}",
          "Ruby": "ʃi",
          "Lang": "en",
          "ProblemNo": 3,
          "Kind": 2
        },
        {
          "Start": 95,
          "End": 99,
          "Text": "{She drinks tea}",
          "Ruby": "ʃi drɪŋks ti",
          "Lang": "en",
          "ProblemNo": 3,
          "Kind": 3
        },
        {
          "Start": 99,
          "End": 104,
          "Text": "{She drinks tea}",
          "Ruby": "ʃi drɪŋks ti",
          "Lang": "en",
          "ProblemNo": 3,
          "Kind": 4
        },
        {
          "Start": 104,
          "End": 107,
          "Text": "{She drinks tea}",
          "Ruby": "ʃi drɪŋks ti",
          "Lang": "en",
          "ProblemNo": 4,
          "Kind": 1
        },
        {
          "Start": 107,
          "End": 108,
          "Text": "{They}",
          "Ruby": "ðe",
          "Lang": "en",
          "ProblemNo": 4,
          "Kind": 2
        },
        {
          "Start": 108,
          "End": 112,
          "Text": "{They drink tea}",
          "Ruby": "ðe drɪŋk ti",
          "Lang": "en",
          "ProblemNo": 4,
          "Kind": 3
        },
        {
          "Start": 112,
          "End": 117,
          "Text": "{They drink tea}",
          "Ruby": "ðe drɪŋk ti",
          "Lang": "en",
          "ProblemNo": 4,
          "Kind": 4
        },
        {
          "Start": 117,
          "End": 120,
          "Text": "",
          "Ruby": "",
          "Lang": "",
          "ProblemNo": 0,
          "Kind": 5
        },
        {
          "Start": 120,
          "End": 123,
          "Text": "{She likes tea}",
          "Ruby": "ʃi laɪks ti",
          "Lang": "en",
          "ProblemNo": 0,
          "Kind": 1
        },
        {
          "Start": 123,
          "End": 124,
          "Text": "{They}",
          "Ruby": "ðe",
          "Lang": "en",
          "ProblemNo": 0,
          "Kind": 2
        },
        {
          "Start": 124,
          "End": 126,
          "Text": "{They like tea}",
          "Ruby": "ðe laɪk ti",
          "Lang": "en",
          "ProblemNo": 0,
          "Kind": 3
        },
        {
          "Start": 126,
          "End": 130,
          "Text": "{They like tea}",
          "Ruby": "ðe laɪk ti",
          "Lang": "en",
          "ProblemNo": 0,
          "Kind": 4
        },
        {
          "Start": 130,
          "End": 132,
          "Text": "{They like tea}",
          "Ruby": "ðe laɪk ti",
          "Lang": "en",
          "ProblemNo": 1,
          "Kind": 1
        },
        {
          "Start": 132,
          "End": 133,
          "Text": "{I}",
          "Ruby": "aɪ",
          "Lang": "en",
          "ProblemNo": 1,
          "Kind": 2
        },
        {
          "Start": 133,
          "End": 135,
          "Text": "{I like tea}",
          "Ruby": "aɪ laɪk ti",
          "Lang": "en",
          "ProblemNo": 1,
          "Kind": 3
        },
        {
          "Start": 135,
          "End": 139,
          "Text": "{I like tea}",
          "Ruby": "aɪ laɪk ti",
          "Lang": "en",
          "ProblemNo": 1,
          "Kind": 4
        },
        {
          "Start": 139,
          "End": 141,
          "Text": "{I like tea}",
          "Ruby": "aɪ laɪk ti",
          "Lang": "en",
          "ProblemNo": 2,
          "Kind": 1
        },
        {
          "Start": 141,
          "End": 142,
          "Text": "{drink}",
          "Ruby": "drɪŋk",
          "Lang": "en",
          "ProblemNo": 2,
          "Kind": 2
        },
        {
          "Start": 142,
          "End": 144,
          "Text": "{I drink tea}",
          "Ruby": "aɪ drɪŋk ti",
          "Lang": "en",
          "ProblemNo": 2,
          "Kind": 3
        },
        {
          "Start": 144,
          "End": 148,
          "Text": "{I drink tea}",
          "Ruby": "aɪ drɪŋk ti",
          "Lang": "en",
          "ProblemNo": 2,
          "Kind": 4
        },
        {
          "Start": 148,
          "End": 150,
          "Text": "{I drink tea}",
          "Ruby": "aɪ drɪŋk ti",
          "Lang": "en",
          "ProblemNo": 3,
          "Kind": 1
        },
        {
          "Start": 150,
          "End": 151,
          "Text": "{She}",
          "Ruby": "ʃi",
          "Lang": "en",
          "ProblemNo": 3,
          "Kind": 2
        },
        {
          "Start": 151,
          "End": 155,
          "Text": "{She drinks tea}",
          "Ruby": "ʃi drɪŋks ti",
          "Lang": "en",
          "ProblemNo": 3,
          "Kind": 3
        },
        {
          "Start": 155,
          "End": 160,
          "Text": "{She drinks tea}",
          "Ruby": "ʃi drɪŋks ti",
          "Lang": "en",
          "ProblemNo": 3,
          "Kind": 4
        },
        {
          "Start": 160,
          "End": 163,
          "Text": "{She drinks tea}",
          "Ruby": "ʃi drɪŋks ti",
          "Lang": "en",
          "ProblemNo": 4,
          "Kind": 1
        },
        {
          "Start": 163,
          "End": 164,
          "Text": "{They}",
          "Ruby": "ðe",
          "Lang": "en",
          "ProblemNo": 4,
          "Kind": 2
        },
        {
          "Start": 164,
          "End": 168,
          "Text": "{They drink tea}",
          "Ruby": "ðe drɪŋk ti",
          "Lang": "en",
          "ProblemNo": 4,
          "Kind": 3
        },
        {
          "Start": 168,
          "End": 173,
          "Text": "{They drink tea}",
          "Ruby": "ðe drɪŋk ti",
          "Lang": "en",
          "ProblemNo": 4,
          "Kind": 4
        },
        {
          "Start": 173,
          "End": 176,
          "Text": "",
          "Ruby": "",
          "Lang": "",
          "ProblemNo": 0,
          "Kind": 5
        },
        {
          "Start": 176,
          "End": 196,
          "Text": "{Please subscribe!}",
          "Ruby": "",
          "Lang": "en",
          "ProblemNo": 0,
          "Kind": 7
        }
      ]
    },
    {
      "Name": "IN",
      "Problems": [
        {
          "ProblemNo": 0,
          "OriginalCandidates": [
            {
              "Word": "She",
              "Ruby": "ʃi"
            },
            {
              "Word": "likes",
              "Ruby": "laɪks"
            },
            {
              "Word": "tea",
              "Ruby": "ti"
            }
          ],
          "ChangeCandidatePos": 1,
          "ChangeCandidates": [
            {
              "Word": "",
              "Ruby": ""
            },
            {
              "Word": "drinks",
              "Ruby": "drɪŋks"
            },
            {
              "Word": "",
              "Ruby": ""
            }
          ],
          "ChangeMorphemes": [
            {
              "Word": "",
              "Root": "",
              "FeatureSet": null
            },
            {
              "Word": "drinks",
              "Root": "drink",
              "FeatureSet": [
                "s"
              ]
            },
            {
              "Word": "",
              "Root": "",
              "FeatureSet": null
            }
          ],
          "AnswerCandidates": [
            {
              "Word": "She",
              "Ruby": "ʃi"
            },
            {
              "Word": "drinks",
              "Ruby": "drɪŋks"
            },
            {
              "Word": "tea",
              "Ruby": "ti"
            }
          ]
        },
        {
          "ProblemNo": 1,
          "OriginalCandidates": [
            {
              "Word": "She",
              "Ruby": "ʃi"
            },
            {
              "Word": "drinks",
              "Ruby": "drɪŋks"
            },
            {
              "Word": "tea",
              "Ruby": "ti"
            }
          ],
          "ChangeCandidatePos": 0,
          "ChangeCandidates": [
            {
              "Word": "They",
              "Ruby": "ðe"
            },
            {
              "Word": "drink",
              "Ruby": "drɪŋk"
            },
            {
              "Word": "",
              "Ruby": ""
            }
          ],
          "ChangeMorphemes": [
            {
              "Word": "They",
              "Root": "",
              "FeatureSet": null
            },
            {
              "Word": "",
              "Root": "",
              "FeatureSet": [
                "ns"
              ]
            },
            {
              "Word": "",
              "Root": "",
              "FeatureSet": null
            }
          ],
          "AnswerCandidates": [
            {
              "Word": "They",
              "Ruby": "ðe"
            },
            {
              "Word": "drink",
              "Ruby": "drɪŋk"
            },
            {
              "Word": "tea",
              "Ruby": "ti"
            }
          ]
        },
        {
          "ProblemNo": 2,
          "OriginalCandidates": [
            {
              "Word": "They",
              "Ruby": "ðe"
            },
            {
              "Word": "drink",
              "Ruby": "drɪŋk"
            },
            {
              "Word": "tea",
              "Ruby": "ti"
            }
          ],
          "ChangeCandidatePos": 1,
          "ChangeCandidates": [
            {
              "Word": "",
              "Ruby": ""
            },
            {
              "Word": "like",
              "Ruby": "laɪk"
            },
            {
              "Word": "",
              "Ruby": ""
            }
          ],
          "ChangeMorphemes": [
            {
              "Word": "",
              "Root": "",
              "FeatureSet": null
            },
            {
              "Word": "like",
              "Root": "like",
              "FeatureSet": [
                "ns"
              ]
            },
            {
              "Word": "",
              "Root": "",
              "FeatureSet": null
            }
          ],
          "AnswerCandidates": [
            {
              "Word": "They",
              "Ruby": "ðe"
            },
            {
              "Word": "like",
              "Ruby": "laɪk"
            },
            {
              "Word": "tea",
              "Ruby": "ti"
            }
          ]
        },
        {
          "ProblemNo": 3,
          "OriginalCandidates": [
            {
              "Word": "They",
              "Ruby": "ðe"
            },
            {
              "Word": "like",
              "Ruby": "laɪk"
            },
            {
              "Word": "tea",
              "Ruby": "ti"
            }
          ],
          "ChangeCandidatePos": 0,
          "ChangeCandidates": [
            {
              "Word": "I",
              "Ruby": "aɪ"
            },
            {
              "Word": "like",
              "Ruby": "laɪk"
            },
            {
              "Word": "",
              "Ruby": ""
            }
          ],
          "ChangeMorphemes": [
            {
              "Word": "I",
              "Root": "",
              "FeatureSet": null
            },
            {
              "Word": "",
              "Root": "",
              "FeatureSet": [
                "ns"
              ]
            },
            {
              "Word": "",
              "Root": "",
              "FeatureSet": null
            }
          ],
          "AnswerCandidates": [
            {
              "Word": "I",
              "Ruby": "aɪ"
            },
            {
              "Word": "like",
              "Ruby": "laɪk"
            },
            {
              "Word": "tea",
              "Ruby": "ti"
            }
          ]
        },
        {
          "ProblemNo": 4,
          "OriginalCandidates": [
            {
              "Word": "I",
              "Ruby": "aɪ"
            },
            {
              "Word": "like",
              "Ruby": "laɪk"
            },
            {
              "Word": "tea",
              "Ruby": "ti"
            }
          ],
          "ChangeCandidatePos": 1,
          "ChangeCandidates": [
            {
              "Word": "",
              "Ruby": ""
            },
            {
              "Word": "drink",
              "Ruby": "drɪŋk"
            },
            {
              "Word": "",
              "Ruby": ""
            }
          ],
          "ChangeMorphemes": [
            {
              "Word": "",
              "Root": "",
              "FeatureSet": null
            },
            {
              "Word": "drink",
              "Root": "drink",
              "FeatureSet": [
                "ns"
              ]
            },
            {
              "Word": "",
              "Root": "",
              "FeatureSet": null
            }
          ],
          "AnswerCandidates": [
            {
              "Word": "I",
              "Ruby": "aɪ"
            },
            {
              "Word": "drink",
              "Ruby": "drɪŋk"
            },
            {
              "Word": "tea",
              "Ruby": "ti"
            }
          ]
        }
      ],
      "VideoFile": "grammar-en-beginner-simple_11_IN.mp4",
      "AnimeticCaptions": [
        {
          "Start": 0,
          "End": 1,
          "Text": "{I}",
          "Ruby": "aɪ",
          "Lang": "en",
          "ProblemNo": 3,
          "Kind": 2
        },
        {
          "Start": 1,
          "End": 4,
          "Text": "English grammar exercises (India) #11 s",
          "Ruby": "",
          "Lang": "",
          "ProblemNo": 0,
          "Kind": 0
        },
        {
          "Start": 4,
          "End": 7,
          "Text": "{She likes tea}",
          "Ruby": "ʃi laɪks ti",
          "Lang": "en",
          "ProblemNo": 0,
          "Kind": 1
        },
        {
          "Start": 7,
          "End": 8,
          "Text": "{drinks}",
          "Ruby": "drɪŋks",
          "Lang": "en",
          "ProblemNo": 0,
          "Kind": 2
        },
        {
          "Start": 8,
          "End": 12,
          "Text": "{She drinks tea}",
          "Ruby": "ʃi drɪŋks ti",
          "Lang": "en",
          "ProblemNo": 0,
          "Kind": 3
        },
        {
          "Start": 12,
          "End": 17,
          "Text": "{She drinks tea}",
          "Ruby": "ʃi drɪŋks ti",
          "Lang": "en",
          "ProblemNo": 0,
          "Kind": 4
        },
        {
          "Start": 17,
          "End": 20,
          "Text": "{She drinks tea}",
          "Ruby": "ʃi drɪŋks ti",
          "Lang": "en",
          "ProblemNo": 1,
          "Kind": 1
        },
        {
          "Start": 20,
          "End": 21,
          "Text": "{They}",
          "Ruby": "ðe",
          "Lang": "en",
          "ProblemNo": 1,
          "Kind": 2
        },
        {
          "Start": 21,
          "End": 22,
          "Text": "{drink}",
          "Ruby": "drɪŋk",
          "Lang": "en",
          "ProblemNo": 1,
          "Kind": 2
        },
        {
          "Start": 22,
          "End": 26,
          "Text": "{They drink tea}",
          "Ruby": "ðe drɪŋk ti",
          "Lang": "en",
          "ProblemNo": 1,
          "Kind": 3
        },
        {
          "Start": 26,
          "End": 31,
          "Text": "{They drink tea}",
          "Ruby": "ðe drɪŋk ti",
          "Lang": "en",
          "ProblemNo": 1,
          "Kind": 4
        },
        {
          "Start": 31,
          "End": 34,
          "Text": "{They drink tea}",
          "Ruby": "ðe drɪŋk ti",
          "Lang": "en",
          "ProblemNo": 2,
          "Kind": 1
        },
        {
          "Start": 34,
          "End": 35,
          "Text": "{like}",
          "Ruby": "laɪk",
          "Lang": "en",
          "ProblemNo": 2,
          "Kind": 2
        },
        {
          "Start": 35,
          "End": 39,
          "Text": "{They like tea}",
          "Ruby": "ðe laɪk ti",
          "Lang": "en",
          "ProblemNo": 2,
          "Kind": 3
        },
        {
          "Start": 39,
          "End": 44,
          "Text": "{They like tea}",
          "Ruby": "ðe laɪk ti",
          "Lang": "en",
          "ProblemNo": 2,
          "Kind": 4
        },
        {
          "Start": 44,
          "End": 47,
          "Text": "{They like tea}",
          "Ruby": "ðe laɪk ti",
          "Lang": "en",
          "ProblemNo": 3,
          "Kind": 1
        },
        {
          "Start": 47,
          "End": 48,
          "Text": "{I}",
          "Ruby": "aɪ",
          "Lang": "en",
          "ProblemNo": 3,
          "Kind": 2
        },
        {
          "Start": 48,
          "End": 49,
          "Text": "{like}",
          "Ruby": "laɪk",
          "Lang": "en",
          "ProblemNo": 3,
          "Kind": 2
        },
        {
          "Start": 49,
          "End": 53,
          "Text": "{I like tea}",
          "Ruby": "aɪ laɪk ti",
          "Lang": "en",
          "ProblemNo": 3,
          "Kind": 3
        },
        {
          "Start": 53,
          "End": 58,
          "Text": "{I like tea}",
          "Ruby": "aɪ laɪk ti",
          "Lang": "en",
          "ProblemNo": 3,
          "Kind": 4
        },
        {
          "Start": 58,
          "End": 61,
          "Text": "{I like tea}",
          "Ruby": "aɪ laɪk ti",
          "Lang": "en",
          "ProblemNo": 4,
          "Kind": 1
        },
        {
          "Start": 61,
          "End": 62,
          "Text": "{drink}",
          "Ruby": "drɪŋk",
          "Lang": "en",
          "ProblemNo": 4,
          "Kind": 2
        },
        {
          "Start": 62,
          "End": 66,
          "Text": "{I drink tea}",
          "Ruby": "aɪ drɪŋk ti",
          "Lang": "en",
          "ProblemNo": 4,
          "Kind": 3
        },
        {
          "Start": 66,
          "End": 71,
          "Text": "{I drink tea}",
          "Ruby": "aɪ drɪŋk ti",
          "Lang": "en",
          "ProblemNo": 4,
          "Kind": 4
        },
        {
          "Start": 71,
          "End": 74,
          "Text": "",
          "Ruby": "",
          "Lang": "",
          "ProblemNo": 0,
          "Kind": 5
        },
        {
          "Start": 74,
          "End": 77,
          "Text": "{She likes tea}",
          "Ruby": "ʃi laɪks ti",
          "Lang": "en",
          "ProblemNo": 0,
          "Kind": 1
        },
        {
          "Start": 77,
          "End": 78,
          "Text": "{drinks}",
          "Ruby": "drɪŋks",
          "Lang": "en",
          "ProblemNo": 0,
          "Kind": 2
        },
        {
          "Start": 78,
          "End": 82,
          "Text": "{She drinks tea}",
          "Ruby": "ʃi drɪŋks ti",
          "Lang": "en",
          "ProblemNo": 0,
          "Kind": 3
        },
        {
          "Start": 82,
          "End": 87,
          "Text": "{She drinks tea}",
          "Ruby": "ʃi drɪŋks ti",
          "Lang": "en",
          "ProblemNo": 0,
          "Kind": 4
        },
        {
          "Start": 87,
          "End": 90,
          "Text": "{She drinks tea}",
          "Ruby": "ʃi drɪŋks ti",
          "Lang": "en",
          "ProblemNo": 1,
          "Kind": 1
        },
        {
          "Start": 90,
          "End": 91,
          "Text": "{They}",
          "Ruby": "ðe",
          "Lang": "en",
          "ProblemNo": 1,
          "Kind": 2
        },
        {
          "Start": 91,
          "End": 95,
          "Text": "{They drink tea}",
          "Ruby": "ðe drɪŋk ti",
          "Lang": "en",
          "ProblemNo": 1,
          "Kind": 3
        },
        {
          "Start": 95,
          "End": 100,
          "Text": "{They drink tea}",
          "Ruby": "ðe drɪŋk ti",
          "Lang": "en",
          "ProblemNo": 1,
          "Kind": 4
        },
        {
          "Start": 100,
          "End": 103,
          "Text": "{They drink tea}",
          "Ruby": "ðe drɪŋk ti",
          "Lang": "en",
          "ProblemNo": 2,
          "Kind": 1
        },
        {
          "Start": 103,
          "End": 104,
          "Text": "{like}",
          "Ruby": "laɪk",
          "Lang": "en",
          "ProblemNo": 2,
          "Kind": 2
        },
        {
          "Start": 104,
          "End": 108,
          "Text": "{They like tea}",
          "Ruby": "ðe laɪk ti",
          "Lang": "en",
          "ProblemNo": 2,
          "Kind": 3
        },
        {
          "Start": 108,
          "End": 113,
          "Text": "{They like tea}",
          "Ruby": "ðe laɪk ti",
          "Lang": "en",
          "ProblemNo": 2,
          "Kind": 4
        },
        {
          "Start": 113,
          "End": 116,
          "Text": "{They like tea}",
          "Ruby": "ðe laɪk ti",
          "Lang": "en",
          "ProblemNo": 3,
          "Kind": 1
        },
        {
          "Start": 116,
          "End": 117,
          "Text": "{I}",
          "Ruby": "aɪ",
          "Lang": "en",
          "ProblemNo": 3,
          "Kind": 2
        },
        {
          "Start": 117,
          "End": 121,
          "Text": "{I like tea}",
          "Ruby": "aɪ laɪk ti",
          "Lang": "en",
          "ProblemNo": 3,
          "Kind": 3
        },
        {
          "Start": 121,
          "End": 126,
          "Text": "{I like tea}",
          "Ruby": "aɪ laɪk ti",
          "Lang": "en",
          "ProblemNo": 3,
          "Kind": 4
        },
        {
          "Start": 126,
          "End": 129,
          "Text": "{I like tea}",
          "Ruby": "aɪ laɪk ti",
          "Lang": "en",
          "ProblemNo": 4,
          "Kind": 1
        },
        {
          "Start": 129,
          "End": 130,
          "Text": "{drink}",
          "Ruby": "drɪŋk",
          "Lang": "en",
          "ProblemNo": 4,
          "Kind": 2
        },
        {
          "Start": 130,
          "End": 134,
          "Text": "{I drink tea}",
          "Ruby": "aɪ drɪŋk ti",
          "Lang": "en",
          "ProblemNo": 4,
          "Kind": 3
        },
        {
          "Start": 134,
          "End": 139,
          "Text": "{I drink tea}",
          "Ruby": "aɪ drɪŋk ti",
          "Lang": "en",
          "ProblemNo": 4,
          "Kind": 4
        },
        {
          "Start": 139,
          "End": 142,
          "Text": "",
          "Ruby": "",
          "Lang": "",
          "ProblemNo": 0,
          "Kind": 5
        },
        {
          "Start": 142,
          "End": 145,
          "Text": "{She likes tea}",
          "Ruby": "ʃi laɪks ti",
          "Lang": "en",
          "ProblemNo": 0,
          "Kind": 1
        },
        {
          "Start": 145,
          "End": 146,
          "Text": "{drinks}",
          "Ruby": "drɪŋks",
          "Lang": "en",
          "ProblemNo": 0,
          "Kind": 2
        },
        {
          "Start": 146,
          "End": 150,
          "Text": "{She drinks tea}",
          "Ruby": "ʃi drɪŋks ti",
          "Lang": "en",
          "ProblemNo": 0,
          "Kind": 3
        },
        {
          "Start": 150,
          "End": 155,
          "Text": "{She drinks tea}",
          "Ruby": "ʃi drɪŋks ti",
          "Lang": "en",
          "ProblemNo": 0,
          "Kind": 4
        },
        {
          "Start": 155,
          "End": 158,
          "Text": "{She drinks tea}",
          "Ruby": "ʃi drɪŋks ti",
          "Lang": "en",
          "ProblemNo": 1,
          "Kind": 1
        },
        {
          "Start": 158,
          "End": 159,
          "Text": "{They}",
          "Ruby": "ðe",
          "Lang": "en",
          "ProblemNo": 1,
          "Kind": 2
        },
        {
          "Start": 159,
          "End": 163,
          "Text": "{They drink tea}",
          "Ruby": "ðe drɪŋk ti",
          "Lang": "en",
          "ProblemNo": 1,
          "Kind": 3
        },
        {
          "Start": 163,
          "End": 168,
          "Text": "{They drink tea}",
          "Ruby": "ðe drɪŋk ti",
          "Lang": "en",
          "ProblemNo": 1,
          "Kind": 4
        },
        {
          "Start": 168,
          "End": 171,
          "Text": "{They drink tea}",
          "Ruby": "ðe drɪŋk ti",
          "Lang": "en",
          "ProblemNo": 2,
          "Kind": 1
        },
        {
          "Start": 171,
          "End": 172,
          "Text": "{like}",
          "Ruby": "laɪk",
          "Lang": "en",
          "ProblemNo": 2,
          "Kind": 2
        },
        {
          "Start": 172,
          "End": 176,
          "Text": "{They like tea}",
          "Ruby": "ðe laɪk ti",
          "Lang": "en",
          "ProblemNo": 2,
          "Kind": 3
        },
        {
          "Start": 176,
          "End": 181,
          "Text": "{They like tea}",
          "Ruby": "ðe laɪk ti",
          "Lang": "en",
          "ProblemNo": 2,
          "Kind": 4
        },
        {
          "Start": 181,
          "End": 184,
          "Text": "{They like tea}",
          "Ruby": "ðe laɪk ti",
          "Lang": "en",
          "ProblemNo": 3,
          "Kind": 1
        },
        {
          "Start": 184,
          "End": 185,
          "Text": "{I}",
          "Ruby": "aɪ",
          "Lang": "en",
          "ProblemNo": 3,
          "Kind": 2
        },
        {
          "Start": 185,
          "End": 189,
          "Text": "{I like tea}",
          "Ruby": "aɪ laɪk ti",
          "Lang": "en",
          "ProblemNo": 3,
          "Kind": 3
        },
        {
          "Start": 189,
          "End": 194,
          "Text": "{I like tea}",
          "Ruby": "aɪ laɪk ti",
          "Lang": "en",
          "ProblemNo": 3,
          "Kind": 4
        },
        {
          "Start": 194,
          "End": 197,
          "Text": "{I like tea}",
          "Ruby": "aɪ laɪk ti",
          "Lang": "en",
          "ProblemNo": 4,
          "Kind": 1
        },
        {
          "Start": 197,
          "End": 198,
          "Text": "{drink}",
          "Ruby": "drɪŋk",
          "Lang": "en",
          "ProblemNo": 4,
          "Kind": 2
        },
        {
          "Start": 198,
          "End": 202,
          "Text": "{I drink tea}",
          "Ruby": "aɪ drɪŋk ti",
          "Lang": "en",
          "ProblemNo": 4,
          "Kind": 3
        },
        {
          "Start": 202,
          "End": 207,
          "Text": "{I drink tea}",
          "Ruby": "aɪ drɪŋk ti",
          "Lang": "en",
          "ProblemNo": 4,
          "Kind": 4
        },
        {
          "Start": 207,
          "End": 210,
          "Text": "",
          "Ruby": "",
          "Lang": "",
          "ProblemNo": 0,
          "Kind": 5
        },
        {
          "Start": 210,
          "End": 230,
          "Text": "{Please subscribe!}",
          "Ruby": "",
          "Lang": "en",
          "ProblemNo": 0,
          "Kind": 7
        }
      ]
    },
    {
      "Name": "UK",
      "Problems": [
        {
          "ProblemNo": 0,
          "OriginalCandidates": [
            {
              "Word": "I",
              "Ruby": "aɪ"
            },
            {
              "Word": "drink",
              "Ruby": "drɪŋk"
            },
            {
              "Word": "tea",
              "Ruby": "ti"
            }
          ],
          "ChangeCandidatePos": 0,
          "ChangeCandidates": [
            {
              "Word": "She",
              "Ruby": "ʃi"
            },
            {
              "Word": "drinks",
              "Ruby": "drɪŋks"
            },
            {
              "Word": "",
              "Ruby": ""
            }
          ],
          "ChangeMorphemes": [
            {
              "Word": "She",
              "Root": "",
              "FeatureSet": null
            },
            {
              "Word": "",
              "Root": "",
              "FeatureSet": [
                "s"
              ]
            },
            {
              "Word": "",
              "Root": "",
              "FeatureSet": null
            }
          ],
          "AnswerCandidates": [
            {
              "Word": "She",
              "Ruby": "ʃi"
            },
            {
              "Word": "drinks",
              "Ruby": "drɪŋks"
            },
            {
              "Word": "tea",
              "Ruby": "ti"
            }
          ]
        },
        {
          "ProblemNo": 1,
          "OriginalCandidates": [
            {
              "Word": "She",
              "Ruby": "ʃi"
            },
            {
              "Word": "drinks",
              "Ruby": "drɪŋks"
            },
            {
              "Word": "tea",
              "Ruby": "ti"
            }
          ],
          "ChangeCandidatePos": 0,
          "ChangeCandidates": [
            {
              "Word": "They",
              "Ruby": "ðe"
            },
            {
              "Word": "drink",
              "Ruby": "drɪŋk"
            },
            {
              "Word": "",
              "Ruby": ""
            }
          ],
          "ChangeMorphemes": [
            {
              "Word": "They",
              "Root": "",
              "FeatureSet": null
            },
            {
              "Word": "",
              "Root": "",
              "FeatureSet": [
                "ns"
              ]
            },
            {
              "Word": "",
              "Root": "",
              "FeatureSet": null
            }
          ],
          "AnswerCandidates": [
            {
              "Word": "They",
              "Ruby": "ðe"
            },
            {
              "Word": "drink",
              "Ruby": "drɪŋk"
            },
            {
              "Word": "tea",
              "Ruby": "ti"
            }
          ]
        },
        {
          "ProblemNo": 2,
          "OriginalCandidates": [
            {
              "Word": "They",
              "Ruby": "ðe"
            },
            {
              "Word": "drink",
              "Ruby": "drɪŋk"
            },
            {
              "Word": "tea",
              "Ruby": "ti"
            }
          ],
          "ChangeCandidatePos": 1,
          "ChangeCandidates": [
            {
              "Word": "",
              "Ruby": ""
            },
            {
              "Word": "like",
              "Ruby": "laɪk"
            },
            {
              "Word": "",
              "Ruby": ""
            }
          ],
          "ChangeMorphemes": [
            {
              "Word": "",
              "Root": "",
              "FeatureSet": null
            },
            {
              "Word": "like",
              "Root": "like",
              "FeatureSet": [
                "ns"
              ]
            },
            {
              "Word": "",
              "Root": "",
              "FeatureSet": null
            }
          ],
          "AnswerCandidates": [
            {
              "Word": "They",
              "Ruby": "ðe"
            },
            {
              "Word": "like",
              "Ruby": "laɪk"
            },
            {
              "Word": "tea",
              "Ruby": "ti"
            }
          ]
        },
        {
          "ProblemNo": 3,
          "OriginalCandidates": [
            {
              "Word": "They",
              "Ruby": "ðe"
            },
            {
              "Word": "like",
              "Ruby": "laɪk"
            },
            {
              "Word": "tea",
              "Ruby": "ti"
            }
          ],
          "ChangeCandidatePos": 0,
          "ChangeCandidates": [
            {
              "Word": "I",
              "Ruby": "aɪ"
            },
            {
              "Word": "like",
              "Ruby": "laɪk"
            },
            {
              "Word": "",
              "Ruby": ""
            }
          ],
          "ChangeMorphemes": [
            {
              "Word": "I",
              "Root": "",
              "FeatureSet": null
            },
            {
              "Word": "",
              "Root": "",
              "FeatureSet": [
                "ns"
              ]
            },
            {
              "Word": "",
              "Root": "",
              "FeatureSet": null
            }
          ],
          "AnswerCandidates": [
            {
              "Word": "I",
              "Ruby": "aɪ"
            },
            {
              "Word": "like",
              "Ruby": "laɪk"
            },
            {
              "Word": "tea",
              "Ruby": "ti"
            }
          ]
        },
        {
          "ProblemNo": 4,
          "OriginalCandidates": [
            {
              "Word": "I",
              "Ruby": "aɪ"
            },
            {
              "Word": "like",
              "Ruby": "laɪk"
            },
            {
              "Word": "tea",
              "Ruby": "ti"
            }
          ],
          "ChangeCandidatePos": 0,
          "ChangeCandidates": [
            {
              "Word": "She",
              "Ruby": "ʃi"
            },
            {
              "Word": "likes",
              "Ruby": "laɪks"
            },
            {
              "Word": "",
              "Ruby": ""
            }
          ],
          "ChangeMorphemes": [
            {
              "Word": "She",
              "Root": "",
              "FeatureSet": null
            },
            {
              "Word": "",
              "Root": "",
              "FeatureSet": [
                "s"
              ]
            },
            {
              "Word": "",
              "Root": "",
              "FeatureSet": null
            }
          ],
          "AnswerCandidates": [
            {
              "Word": "She",
              "Ruby": "ʃi"
            },
            {
              "Word": "likes",
              "Ruby": "laɪks"
            },
            {
              "Word": "tea",
              "Ruby": "ti"
            }
          ]
        }
      ],
      "VideoFile": "grammar-en-beginner-simple_11_UK.mp4",
      "AnimeticCaptions": [
        {
          "Start": 0,
          "End": 1,
          "Text": "{I}",
          "Ruby": "aɪ",
          "Lang": "en",
          "ProblemNo": 3,
          "Kind": 2
        },
        {
          "Start": 1,
          "End": 4,
          "Text": "English grammar exercises (British) #11 s",
          "Ruby": "",
          "Lang": "",
          "ProblemNo": 0,
          "Kind": 0
        },
        {
          "Start": 4,
          "End": 7,
          "Text": "{I drink tea}",
          "Ruby": "aɪ drɪŋk ti",
          "Lang": "en",
          "ProblemNo": 0,
          "Kind": 1
        },
        {
          "Start": 7,
          "End": 8,
          "Text": "{She}",
          "Ruby": "ʃi",
          "Lang": "en",
          "ProblemNo": 0,
          "Kind": 2
        },
        {
          "Start": 8,
          "End": 9,
          "Text": "{drinks}",
          "Ruby": "drɪŋks",
          "Lang": "en",
          "ProblemNo": 0,
          "Kind": 2
        },
        {
          "Start": 9,
          "End": 13,
          "Text": "{She drinks tea}",
          "Ruby": "ʃi drɪŋks ti",
          "Lang": "en",
          "ProblemNo": 0,
          "Kind": 3
        },
        {
          "Start": 13,
          "End": 18,
          "Text": "{She drinks tea}",
          "Ruby": "ʃi drɪŋks ti",
          "Lang": "en",
          "ProblemNo": 0,
          "Kind": 4
        },
        {
          "Start": 18,
          "End": 21,
          "Text": "{She drinks tea}",
          "Ruby": "ʃi drɪŋks ti",
          "Lang": "en",
          "ProblemNo": 1,
          "Kind": 1
        },
        {
          "Start": 21,
          "End": 22,
          "Text": "{They}",
          "Ruby": "ðe",
          "Lang": "en",
          "ProblemNo": 1,
          "Kind": 2
        },
        {
          "Start": 22,
          "End": 23,
          "Text": "{drink}",
          "Ruby": "drɪŋk",
          "Lang": "en",
          "ProblemNo": 1,
          "Kind": 2
        },
        {
          "Start": 23,
          "End": 27,
          "Text": "{They drink tea}",
          "Ruby": "ðe drɪŋk ti",
          "Lang": "en",
          "ProblemNo": 1,
          "Kind": 3
        },
        {
          "Start": 27,
          "End": 32,
          "Text": "{They drink tea}",
          "Ruby": "ðe drɪŋk ti",
          "Lang": "en",
          "ProblemNo": 1,
          "Kind": 4
        },
        {
          "Start": 32,
          "End": 35,
          "Text": "{They drink tea}",
          "Ruby": "ðe drɪŋk ti",
          "Lang": "en",
          "ProblemNo": 2,
          "Kind": 1
        },
        {
          "Start": 35,
          "End": 36,
          "Text": "{like}",
          "Ruby": "laɪk",
          "Lang": "en",
          "ProblemNo": 2,
          "Kind": 2
        },
        {
          "Start": 36,
          "End": 40,
          "Text": "{They like tea}",
          "Ruby": "ðe laɪk ti",
          "Lang": "en",
          "ProblemNo": 2,
          "Kind": 3
        },
        {
          "Start": 40,
          "End": 45,
          "Text": "{They like tea}",
          "Ruby": "ðe laɪk ti",
          "Lang": "en",
          "ProblemNo": 2,
          "Kind": 4
        },
        {
          "Start": 45,
          "End": 48,
          "Text": "{They like tea}",
          "Ruby": "ðe laɪk ti",
          "Lang": "en",
          "ProblemNo": 3,
          "Kind": 1
        },
        {
          "Start": 48,
          "End": 49,
          "Text": "{I}",
          "Ruby": "aɪ",
          "Lang": "en",
          "ProblemNo": 3,
          "Kind": 2
        },
        {
          "Start": 49,
          "End": 50,
          "Text": "{like}",
          "Ruby": "laɪk",
          "Lang": "en",
          "ProblemNo": 3,
          "Kind": 2
        },
        {
          "Start": 50,
          "End": 52,
          "Text": "{I like tea}",
          "Ruby": "aɪ laɪk ti",
          "Lang": "en",
          "ProblemNo": 3,
          "Kind": 3
        },
        {
          "Start": 52,
          "End": 56,
          "Text": "{I like tea}",
          "Ruby": "aɪ laɪk ti",
          "Lang": "en",
          "ProblemNo": 3,
          "Kind": 4
        },
        {
          "Start": 56,
          "End": 58,
          "Text": "{I like tea}",
          "Ruby": "aɪ laɪk ti",
          "Lang": "en",
          "ProblemNo": 4,
          "Kind": 1
        },
        {
          "Start": 58,
          "End": 59,
          "Text": "{She}",
          "Ruby": "ʃi",
          "Lang": "en",
          "ProblemNo": 4,
          "Kind": 2
        },
        {
          "Start": 59,
          "End": 60,
          "Text": "{likes}",
          "Ruby": "laɪks",
          "Lang": "en",
          "ProblemNo": 4,
          "Kind": 2
        },
        {
          "Start": 60,
          "End": 64,
          "Text": "{She likes tea}",
          "Ruby": "ʃi laɪks ti",
          "Lang": "en",
          "ProblemNo": 4,
          "Kind": 3
        },
        {
          "Start": 64,
          "End": 69,
          "Text": "{She likes tea}",
          "Ruby": "ʃi laɪks ti",
          "Lang": "en",
          "ProblemNo": 4,
          "Kind": 4
        },
        {
          "Start": 69,
          "End": 72,
          "Text": "",
          "Ruby": "",
          "Lang": "",
          "ProblemNo": 0,
          "Kind": 5
        },
        {
          "Start": 72,
          "End": 75,
          "Text": "{I drink tea}",
          "Ruby": "aɪ drɪŋk ti",
          "Lang": "en",
          "ProblemNo": 0,
          "Kind": 1
        },
        {
          "Start": 75,
          "End": 76,
          "Text": "{She}",
          "Ruby": "ʃi",
          "Lang": "en",
          "ProblemNo": 0,
          "Kind": 2
        },
        {
          "Start": 76,
          "End": 80,
          "Text": "{She drinks tea}",
          "Ruby": "ʃi drɪŋks ti",
          "Lang": "en",
          "ProblemNo": 0,
          "Kind": 3
        },
        {
          "Start": 80,
          "End": 85,
          "Text": "{She drinks tea}",
          "Ruby": "ʃi drɪŋks ti",
          "Lang": "en",
          "ProblemNo": 0,
          "Kind": 4
        },
        {
          "Start": 85,
          "End": 88,
          "Text": "{She drinks tea}",
          "Ruby": "ʃi drɪŋks ti",
          "Lang": "en",
          "ProblemNo": 1,
          "Kind": 1
        },
        {
          "Start": 88,
          "End": 89,
          "Text": "{They}",
          "Ruby": "ðe",
          "Lang": "en",
          "ProblemNo": 1,
          "Kind": 2
        },
        {
          "Start": 89,
          "End": 93,
          "Text": "{They drink tea}",
          "Ruby": "ðe drɪŋk ti",
          "Lang": "en",
          "ProblemNo": 1,
          "Kind": 3
        },
        {
          "Start": 93,
          "End": 98,
          "Text": "{They drink tea}",
          "Ruby": "ðe drɪŋk ti",
          "Lang": "en",
          "ProblemNo": 1,
          "Kind": 4
        },
        {
          "Start": 98,
          "End": 101,
          "Text": "{They drink tea}",
          "Ruby": "ðe drɪŋk ti",
          "Lang": "en",
          "ProblemNo": 2,
          "Kind": 1
        },
        {
          "Start": 101,
          "End": 102,
          "Text": "{like}",
          "Ruby": "laɪk",
          "Lang": "en",
          "ProblemNo": 2,
          "Kind": 2
        },
        {
          "Start": 102,
          "End": 106,
          "Text": "{They like tea}",
          "Ruby": "ðe laɪk ti",
          "Lang": "en",
          "ProblemNo": 2,
          "Kind": 3
        },
        {
          "Start": 106,
          "End": 111,
          "Text": "{They like tea}",
          "Ruby": "ðe laɪk ti",
          "Lang": "en",
          "ProblemNo": 2,
          "Kind": 4
        },
        {
          "Start": 111,
          "End": 114,
          "Text": "{They like tea}",
          "Ruby": "ðe laɪk ti",
          "Lang": "en",
          "ProblemNo": 3,
          "Kind": 1
        },
        {
          "Start": 114,
          "End": 115,
          "Text": "{I}",
          "Ruby": "aɪ",
          "Lang": "en",
          "ProblemNo": 3,
          "Kind": 2
        },
        {
          "Start": 115,
          "End": 117,
          "Text": "{I like tea}",
          "Ruby": "aɪ laɪk ti",
          "Lang": "en",
          "ProblemNo": 3,
          "Kind": 3
        },
        {
          "Start": 117,
          "End": 121,
          "Text": "{I like tea}",
          "Ruby": "aɪ laɪk ti",
          "Lang": "en",
          "ProblemNo": 3,
          "Kind": 4
        },
        {
          "Start": 121,
          "End": 123,
          "Text": "{I like tea}",
          "Ruby": "aɪ laɪk ti",
          "Lang": "en",
          "ProblemNo": 4,
          "Kind": 1
        },
        {
          "Start": 123,
          "End": 124,
          "Text": "{She}",
          "Ruby": "ʃi",
          "Lang": "en",
          "ProblemNo": 4,
          "Kind": 2
        },
        {
          "Start": 124,
          "End": 128,
          "Text": "{She likes tea}",
          "Ruby": "ʃi laɪks ti",
          "Lang": "en",
          "ProblemNo": 4,
          "Kind": 3
        },
        {
          "Start": 128,
          "End": 133,
          "Text": "{She likes tea}",
          "Ruby": "ʃi laɪks ti",
          "Lang": "en",
          "ProblemNo": 4,
          "Kind": 4
        },
        {
          "Start": 133,
          "End": 136,
          "Text": "",
          "Ruby": "",
          "Lang": "",
          "ProblemNo": 0,
          "Kind": 5
        },
        {
          "Start": 136,
          "End": 139,
          "Text": "{I drink tea}",
          "Ruby": "aɪ drɪŋk ti",
          "Lang": "en",
          "ProblemNo": 0,
          "Kind": 1
        },
        {
          "Start": 139,
          "End": 140,
          "Text": "{She}",
          "Ruby": "ʃi",
          "Lang": "en",
          "ProblemNo": 0,
          "Kind": 2
        },
        {
          "Start": 140,
          "End": 144,
          "Text": "{She drinks tea}",
          "Ruby": "ʃi drɪŋks ti",
          "Lang": "en",
          "ProblemNo": 0,
          "Kind": 3
        },
        {
          "Start": 144,
          "End": 149,
          "Text": "{She drinks tea}",
          "Ruby": "ʃi drɪŋks ti",
          "Lang": "en",
          "ProblemNo": 0,
          "Kind": 4
        },
        {
          "Start": 149,
          "End": 152,
          "Text": "{She drinks tea}",
          "Ruby": "ʃi drɪŋks ti",
          "Lang": "en",
          "ProblemNo": 1,
          "Kind": 1
        },
        {
          "Start": 152,
          "End": 153,
          "Text": "{They}",
          "Ruby": "ðe",
          "Lang": "en",
          "ProblemNo": 1,
          "Kind": 2
        },
        {
          "Start": 153,
          "End": 157,
          "Text": "{They drink tea}",
          "Ruby": "ðe drɪŋk ti",
          "Lang": "en",
          "ProblemNo": 1,
          "Kind": 3
        },
        {
          "Start": 157,
          "End": 162,
          "Text": "{They drink tea}",
          "Ruby": "ðe drɪŋk ti",
          "Lang": "en",
          "ProblemNo": 1,
          "Kind": 4
        },
        {
          "Start": 162,
          "End": 165,
          "Text": "{They drink tea}",
          "Ruby": "ðe drɪŋk ti",
          "Lang": "en",
          "ProblemNo": 2,
          "Kind": 1
        },
        {
          "Start": 165,
          "End": 166,
          "Text": "{like}",
          "Ruby": "laɪk",
          "Lang": "en",
          "ProblemNo": 2,
          "Kind": 2
        },
        {
          "Start": 166,
          "End": 170,
          "Text": "{They like tea}",
          "Ruby": "ðe laɪk ti",
          "Lang": "en",
          "ProblemNo": 2,
          "Kind": 3
        },
        {
          "Start": 170,
          "End": 175,
          "Text": "{They like tea}",
          "Ruby": "ðe laɪk ti",
          "Lang": "en",
          "ProblemNo": 2,
          "Kind": 4
        },
        {
          "Start": 175,
          "End": 178,
          "Text": "{They like tea}",
          "Ruby": "ðe laɪk ti",
          "Lang": "en",
          "ProblemNo": 3,
          "Kind": 1
        },
        {
          "Start": 178,
          "End": 179,
          "Text": "{I}",
          "Ruby": "aɪ",
          "Lang": "en",
          "ProblemNo": 3,
          "Kind": 2
        },
        {
          "Start": 179,
          "End": 181,
          "Text": "{I like tea}",
          "Ruby": "aɪ laɪk ti",
          "Lang": "en",
          "ProblemNo": 3,
          "Kind": 3
        },
        {
          "Start": 181,
          "End": 185,
          "Text": "{I like tea}",
          "Ruby": "aɪ laɪk ti",
          "Lang": "en",
          "ProblemNo": 3,
          "Kind": 4
        },
        {
          "Start": 185,
          "End": 187,
          "Text": "{I like tea}",
          "Ruby": "aɪ laɪk ti",
          "Lang": "en",
          "ProblemNo": 4,
          "Kind": 1
        },
        {
          "Start": 187,
          "End": 188,
          "Text": "{She}",
          "Ruby": "ʃi",
          "Lang": "en",
          "ProblemNo": 4,
          "Kind": 2
        },
        {
          "Start": 188,
          "End": 192,
          "Text": "{She likes tea}",
          "Ruby": "ʃi laɪks ti",
          "Lang": "en",
          "ProblemNo": 4,
          "Kind": 3
        },
        {
          "Start": 192,
          "End": 197,
          "Text": "{She likes tea}",
          "Ruby": "ʃi laɪks ti",
          "Lang": "en",
          "ProblemNo": 4,
          "Kind": 4
        },
        {
          "Start": 197,
          "End": 200,
          "Text": "",
          "Ruby": "",
          "Lang": "",
          "ProblemNo": 0,
          "Kind": 5
        },
        {
          "Start": 200,
          "End": 220,
          "Text": "{Please subscribe!}",
          "Ruby": "",
          "Lang": "en",
          "ProblemNo": 0,
          "Kind": 7
        }
      ]
    }
  ],
  "CannotChange": true
}