{
  "SerieName": "grammar-en-beginner-simple",
  "No": 14,
  "VideoTitle": "does not",
  "ThumbnailTitle": "",
  "YoutubeDescription": "",
  "YoutubeTitle": "",
  "Boxes": [
    {
      "Pos": 0,
      "PersonName": "u",
      "Candidates": [
        {
          "Word": "Our father",
          "Root": "",
          "FeatureSet": null,
          "Conditions": [
            {
              "Pos": 1,
              "Morphemes": [
                {
                  "Word": "",
                  "Root": "",
                  "FeatureSet": [
                    "s"
                  ]
                }
              ]
            }
          ],
          "PersonConditions": null
        },
        {
          "Word": "We",
          "Root": "",
          "FeatureSet": null,
          "Conditions": [
            {
              "Pos": 1,
              "Morphemes": [
                {
                  "Word": "",
                  "Root": "",
                  "FeatureSet": [
                    "ns"
                  ]
                }
              ]
            }
          ],
          "PersonConditions": null
        },
        {
          "Word": "You",
          "Root": "",
          "FeatureSet": null,
          "Conditions": [
            {
              "Pos": 1,
              "Morphemes": [
                {
                  "Word": "",
                  "Root": "",
                  "FeatureSet": [
                    "ns"
                  ]
                }
              ]
            }
          ],
          "PersonConditions": null
        },
        {
          "Word": "She",
          "Root": "",
          "FeatureSet": null,
          "Conditions": [
            {
              "Pos": 1,
              "Morphemes": [
                {
                  "Word": "",
                  "Root": "",
                  "FeatureSet": [
                    "s"
                  ]
                }
              ]
            }
          ],
          "PersonConditions": null
        }
      ]
    },
    {
      "Pos": 1,
      "PersonName": "u",
      "Candidates": [
        {
          "Word": "do not",
          "Root": "",
          "FeatureSet": [
            "ns"
          ],
          "Conditions": null,
          "PersonConditions": null
        },
        {
          "Word": "does not",
          "Root": "",
          "FeatureSet": [
            "s"
          ],
          "Conditions": null,
          "PersonConditions": null
        }
      ]
    },
    {
      "Pos": 2,
      "PersonName": "u",
      "Candidates": [
        {
          "Word": "have much time",
          "Root": "",
          "FeatureSet": null,
          "Conditions": null,
          "PersonConditions": null
        },
        {
          "Word": "trust him",
          "Root": "",
          "FeatureSet": null,
          "Conditions": null,
          "PersonConditions": null
        }
      ]
    }
  ],
  "Pars": [
    {
      "Header": "",
      "Poses": [
        0,
        1,
        2
      ]
    }
  ],
  "Exercises": [
    {
      "Name": "A",
      "Problems": [
        {
          "ProblemNo": 0,
          "OriginalCandidates": [
            {
              "Word": "You",
              "Ruby": "ju"
            },
            {
              "Word": "do not",
              "Ruby": "du nɑt"
            },
            {
              "Word": "have much time",
              "Ruby": "hæv məʧ taɪm"
            }
          ],
          "ChangeCandidatePos": 0,
          "ChangeCandidates": [
            {
              "Word": "We",
              "Ruby": "wi"
            },
            {
              "Word": "do not",
              "Ruby": "du nɑt"
            },
            {
              "Word": "",
              "Ruby": ""
            }
          ],
          "ChangeMorphemes": [
            {
              "Word": "We",
              "Root": "",
              "FeatureSet": null
            },
            {
              "Word": "",
              "Root": "",
              "FeatureSet": [
                "ns"
              ]
            },
            {
              "Word": "",
              "Root": "",
              "FeatureSet": null
            }
          ],
          "AnswerCandidates": [
            {
              "Word": "We",
              "Ruby": "wi"
            },
            {
              "Word": "do not",
              "Ruby": "du nɑt"
            },
            {
              "Word": "have much time",
              "Ruby": "hæv məʧ taɪm"
            }
          ]
        },
        {
          "ProblemNo": 1,
          "OriginalCandidates": [
            {
              "Word": "We",
              "Ruby": "wi"
            },
            {
              "Word": "do not",
              "Ruby": "du nɑt"
            },
            {
              "Word": "have much time",
              "Ruby": "hæv məʧ taɪm"
            }
          ],
          "ChangeCandidatePos": 2,
          "ChangeCandidates": [
            {
              "Word": "",
              "Ruby": ""
            },
            {
              "Word": "",
              "Ruby": ""
            },
            {
              "Word": "trust him",
              "Ruby": "trəst ɪm"
            }
          ],
          "ChangeMorphemes": [
            {
              "Word": "",
              "Root": "",
              "FeatureSet": null
            },
            {
              "Word": "",
              "Root": "",
              "FeatureSet": null
            },
            {
              "Word": "trust him",
              "Root": "",
              "FeatureSet": null
            }
          ],
          "AnswerCandidates": [
            {
              "Word": "We",
              "Ruby": "wi"
            },
            {
              "Word": "do not",
              "Ruby": "du nɑt"
            },
            {
              "Word": "trust him",
              "Ruby": "trəst ɪm"
            }
          ]
        },
        {
          "ProblemNo": 2,
          "OriginalCandidates": [
            {
              "Word": "We",
              "Ruby": "wi"
            },
            {
              "Word": "do not",
              "Ruby": "du nɑt"
            },
            {
              "Word": "trust him",
              "Ruby": "trəst ɪm"
            }
          ],
          "ChangeCandidatePos": 0,
          "ChangeCandidates": [
            {
              "Word": "You",
              "Ruby": "ju"
            },
            {
              "Word": "do not",
              "Ruby": "du nɑt"
            },
            {
              "Word": "",
              "Ruby": ""
            }
          ],
          "ChangeMorphemes": [
            {
              "Word": "You",
              "Root": "",
              "FeatureSet": null
            },
            {
              "Word": "",
              "Root": "",
              "FeatureSet": [
                "ns"
              ]
            },
            {
              "Word": "",
              "Root": "",
              "FeatureSet": null
            }
          ],
          "AnswerCandidates": [
            {
              "Word": "You",
              "Ruby": "ju"
            },
            {
              "Word": "do not",
              "Ruby": "du nɑt"
            },
            {
              "Word": "trust him",
              "Ruby": "trəst ɪm"
            }
          ]
        },
        {
          "ProblemNo": 3,
          "OriginalCandidates": [
            {
              "Word": "You",
              "Ruby": "ju"
            },
            {
              "Word": "do not",
              "Ruby": "du nɑt"
            },
            {
              "Word": "trust him",
              "Ruby": "trəst ɪm"
            }
          ],
          "ChangeCandidatePos": 0,
          "ChangeCandidates": [
            {
              "Word": "Our father",
              "Ruby": "ɑr ˈfɑðər"
            },
            {
              "Word": "does not",
              "Ruby": "dɪz nɑt"
            },
            {
              "Word": "",
              "Ruby": ""
            }
          ],
          "ChangeMorphemes": [
            {
              "Word": "Our father",
              "Root": "",
              "FeatureSet": null
            },
            {
              "Word": "",
              "Root": "",
              "FeatureSet": [
                "s"
              ]
            },
            {
              "Word": "",
              "Root": "",
              "FeatureSet": null
            }
          ],
          "AnswerCandidates": [
            {
              "Word": "Our father",
              "Ruby": "ɑr ˈfɑðər"
            },
            {
              "Word": "does not",
              "Ruby": "dɪz nɑt"
            },
            {
              "Word": "trust him",
              "Ruby": "trəst ɪm"
            }
          ]
        },
        {
          "ProblemNo": 4,
          "OriginalCandidates": [
            {
              "Word": "Our father",
              "Ruby": "ɑr ˈfɑðər"
            },
            {
              "Word": "does not",
              "Ruby": "dɪz nɑt"
            },
            {
              "Word": "trust him",
              "Ruby": "trəst ɪm"
            }
          ],
          "ChangeCandidatePos": 2,
          "ChangeCandidates": [
            {
              "Word": "",
              "Ruby": ""
            },
            {
              "Word": "",
              "Ruby": ""
            },
            {
              "Word": "have much time",
              "Ruby": "hæv məʧ taɪm"
            }
          ],
          "ChangeMorphemes": [
            {
              "Word": "",
              "Root": "",
              "FeatureSet": null
            },
            {
              "Word": "",
              "Root": "",
              "FeatureSet": null
            },
            {
              "Word": "have much time",
              "Root": "",
              "FeatureSet": null
            }
          ],
          "AnswerCandidates": [
            {
              "Word": "Our father",
              "Ruby": "ɑr ˈfɑðər"
            },
            {
              "Word": "does not",
              "Ruby": "dɪz nɑt"
            },
            {
              "Word": "have much time",
              "Ruby": "hæv məʧ taɪm"
            }
          ]
        }
      ],
      "VideoFile": "grammar-en-beginner-simple_14_A.mp4",
      "AnimeticCaptions": [
        {
          "Start": 0,
          "End": 2,
          "Text": "{Our father}",
          "Ruby": "ɑr ˈfɑðər",
          "Lang": "en",
          "ProblemNo": 3,
          "Kind": 2
        },
        {
          "Start": 2,
          "End": 5,
          "Text": "English grammar exercises #14 does not",
          "Ruby": "",
          "Lang": "",
          "ProblemNo": 0,
          "Kind": 0
        },
        {
          "Start": 5,
          "End": 8,
          "Text": "{You do not have much time}",
          "Ruby": "ju du nɑt hæv məʧ taɪm",
          "Lang": "en",
          "ProblemNo": 0,
          "Kind": 1
        },
        {
          "Start": 8,
          "End": 9,
          "Text": "{We}",
          "Ruby": "wi",
          "Lang": "en",
          "ProblemNo": 0,
          "Kind": 2
        },
        {
          "Start": 9,
          "End": 10,
          "Text": "{do not}",
          "Ruby": "du nɑt",
          "Lang": "en",
          "ProblemNo": 0,
          "Kind": 2
        },
        {
          "Start": 10,
          "End": 14,
          "Text": "{We do not have much time}",
          "Ruby": "wi du nɑt hæv məʧ taɪm",
          "Lang": "en",
          "ProblemNo": 0,
          "Kind": 3
        },
        {
          "Start": 14,
          "End": 19,
          "Text": "{We do not have much time}",
          "Ruby": "wi du nɑt hæv məʧ taɪm",
          "Lang": "en",
          "ProblemNo": 0,
          "Kind": 4
        },
        {
          "Start": 19,
          "End": 22,
          "Text": "{We do not have much time}",
          "Ruby": "wi du nɑt hæv məʧ taɪm",
          "Lang": "en",
          "ProblemNo": 1,
          "Kind": 1
        },
        {
          "Start": 22,
          "End": 23,
          "Text": "{trust him}",
          "Ruby": "trəst ɪm",
          "Lang": "en",
          "ProblemNo": 1,
          "Kind": 2
        },
        {
          "Start": 23,
          "End": 27,
          "Text": "{We do not trust him}",
          "Ruby": "wi du nɑt trəst ɪm",
          "Lang": "en",
          "ProblemNo": 1,
          "Kind": 3
        },
        {
          "Start": 27,
          "End": 32,
          "Text": "{We do not trust him}",
          "Ruby": "wi du nɑt trəst ɪm",
          "Lang": "en",
          "ProblemNo": 1,
          "Kind": 4
        },
        {
          "Start": 32,
          "End": 35,
          "Text": "{We do not trust him}",
          "Ruby": "wi du nɑt trəst ɪm",
          "Lang": "en",
          "ProblemNo": 2,
          "Kind": 1
        },
        {
          "Start": 35,
          "End": 36,
          "Text": "{You}",
          "Ruby": "ju",
          "Lang": "en",
          "ProblemNo": 2,
          "Kind": 2
        },
        {
          "Start": 36,
          "End": 37,
          "Text": "{do not}",
          "Ruby": "du nɑt",
          "Lang": "en",
          "ProblemNo": 2,
          "Kind": 2
        },
        {
          "Start": 37,
          "End": 41,
          "Text": "{You do not trust him}",
          "Ruby": "ju du nɑt trəst ɪm",
          "Lang": "en",
          "ProblemNo": 2,
          "Kind": 3
        },
        {
          "Start": 41,
          "End": 46,
          "Text": "{You do not trust him}",
          "Ruby": "ju du nɑt trəst ɪm",
          "Lang": "en",
          "ProblemNo": 2,
          "Kind": 4
        },
        {
          "Start": 46,
          "End": 49,
          "Text": "{You do not trust him}",
          "Ruby": "ju du nɑt trəst ɪm",
          "Lang": "en",
          "ProblemNo": 3,
          "Kind": 1
        },
        {
          "Start": 49,
          "End": 51,
          "Text": "{Our father}",
          "Ruby": "ɑr ˈfɑðər",
          "Lang": "en",
          "ProblemNo": 3,
          "Kind": 2
        },
        {
          "Start": 51,
          "End": 52,
          "Text": "{does not}",
          "Ruby": "dɪz nɑt",
          "Lang": "en",
          "ProblemNo": 3,
          "Kind": 2
        },
        {
          "Start": 52,
          "End": 56,
          "Text": "{Our father does not trust him}",
          "Ruby": "ɑr ˈfɑðər dɪz nɑt trəst ɪm",
          "Lang": "en",
          "ProblemNo": 3,
          "Kind": 3
        },
        {
          "Start": 56,
          "End": 61,
          "Text": "{Our father does not trust him}",
          "Ruby": "ɑr ˈfɑðər dɪz nɑt trəst ɪm",
          "Lang": "en",
          "ProblemNo": 3,
          "Kind": 4
        },
        {
          "Start": 61,
          "End": 64,
          "Text": "{Our father does not trust him}",
          "Ruby": "ɑr ˈfɑðər dɪz nɑt trəst ɪm",
          "Lang": "en",
          "ProblemNo": 4,
          "Kind": 1
        },
        {
          "Start": 64,
          "End": 66,
          "Text": "{have much time}",
          "Ruby": "hæv məʧ taɪm",
          "Lang": "en",
          "ProblemNo": 4,
          "Kind": 2
        },
        {
          "Start": 66,
          "End": 71,
          "Text": "{Our father does not have much time}",
          "Ruby": "ɑr ˈfɑðər dɪz nɑt hæv məʧ taɪm",
          "Lang": "en",
          "ProblemNo": 4,
          "Kind": 3
        },
        {
          "Start": 71,
          "End": 77,
          "Text": "{Our father does not have much time}",
          "Ruby": "ɑr ˈfɑðər dɪz nɑt hæv məʧ taɪm",
          "Lang": "en",
          "ProblemNo": 4,
          "Kind": 4
        },
        {
          "Start": 77,
          "End": 80,
          "Text": "",
          "Ruby": "",
          "Lang": "",
          "ProblemNo": 0,
          "Kind": 5
        },
        {
          "Start": 80,
          "End": 83,
          "Text": "{You do not have much time}",
          "Ruby": "ju du nɑt hæv məʧ taɪm",
          "Lang": "en",
          "ProblemNo": 0,
          "Kind": 1
        },
        {
          "Start": 83,
          "End": 84,
          "Text": "{We}",
          "Ruby": "wi",
          "Lang": "en",
          "ProblemNo": 0,
          "Kind": 2
        },
        {
          "Start": 84,
          "End": 88,
          "Text": "{We do not have much time}",
          "Ruby": "wi du nɑt hæv məʧ taɪm",
          "Lang": "en",
          "ProblemNo": 0,
          "Kind": 3
        },
        {
          "Start": 88,
          "End": 93,
          "Text": "{We do not have much time}",
          "Ruby": "wi du nɑt hæv məʧ taɪm",
          "Lang": "en",
          "ProblemNo": 0,
          "Kind": 4
        },
        {
          "Start": 93,
          "End": 96,
          "Text": "{We do not have much time}",
          "Ruby": "wi du nɑt hæv məʧ taɪm",
          "Lang": "en",
          "ProblemNo": 1,
          "Kind": 1
        },
        {
          "Start": 96,
          "End": 97,
          "Text": "{trust him}",
          "Ruby": "trəst ɪm",
          "Lang": "en",
          "ProblemNo": 1,
          "Kind": 2
        },
        {
          "Start": 97,
          "End": 101,
          "Text": "{We do not trust him}",
          "Ruby": "wi du nɑt trəst ɪm",
          "Lang": "en",
          "ProblemNo": 1,
          "Kind": 3
        },
        {
          "Start": 101,
          "End": 106,
          "Text": "{We do not trust him}",
          "Ruby": "wi du nɑt trəst ɪm",
          "Lang": "en",
          "ProblemNo": 1,
          "Kind": 4
        },
        {
          "Start": 106,
          "End": 109,
          "Text": "{We do not trust him}",
          "Ruby": "wi du nɑt trəst ɪm",
          "Lang": "en",
          "ProblemNo": 2,
          "Kind": 1
        },
        {
          "Start": 109,
          "End": 110,
          "Text": "{You}",
          "Ruby": "ju",
          "Lang": "en",
          "ProblemNo": 2,
          "Kind": 2
        },
        {
          "Start": 110,
          "End": 114,
          "Text": "{You do not trust him}",
          "Ruby": "ju du nɑt trəst ɪm",
          "Lang": "en",
          "ProblemNo": 2,
          "Kind": 3
        },
        {
          "Start": 114,
          "End": 119,
          "Text": "{You do not trust him}",
          "Ruby": "ju du nɑt trəst ɪm",
          "Lang": "en",
          "ProblemNo": 2,
          "Kind": 4
        },
        {
          "Start": 119,
          "End": 122,
          "Text": "{You do not trust him}",
          "Ruby": "ju du nɑt trəst ɪm",
          "Lang": "en",
          "ProblemNo": 3,
          "Kind": 1
        },
        {
          "Start": 122,
          "End": 124,
          "Text": "{Our father}",
          "Ruby": "ɑr ˈfɑðər",
          "Lang": "en",
          "ProblemNo": 3,
          "Kind": 2
        },
        {
          "Start": 124,
          "End": 128,
          "Text": "{Our father does not trust him}",
          "Ruby": "ɑr ˈfɑðər dɪz nɑt trəst ɪm",
          "Lang": "en",
          "ProblemNo": 3,
          "Kind": 3
        },
        {
          "Start": 128,
          "End": 133,
          "Text": "{Our father does not trust him}",
          "Ruby": "ɑr ˈfɑðər dɪz nɑt trəst ɪm",
          "Lang": "en",
          "ProblemNo": 3,
          "Kind": 4
        },
        {
          "Start": 133,
          "End": 136,
          "Text": "{Our father does not trust him}",
          "Ruby": "ɑr ˈfɑðər dɪz nɑt trəst ɪm",
          "Lang": "en",
          "ProblemNo": 4,
          "Kind": 1
        },
        {
          "Start": 136,
          "End": 138,
          "Text": "{have much time}",
          "Ruby": "hæv məʧ taɪm",
          "Lang": "en",
          "ProblemNo": 4,
          "Kind": 2
        },
        {
          "Start": 138,
          "End": 143,
          "Text": "{Our father does not have much time}",
          "Ruby": "ɑr ˈfɑðər dɪz nɑt hæv məʧ taɪm",
          "Lang": "en",
          "ProblemNo": 4,
          "Kind": 3
        },
        {
          "Start": 143,
          "End": 149,
          "Text": "{Our father does not have much time}",
          "Ruby": "ɑr ˈfɑðər dɪz nɑt hæv məʧ taɪm",
          "Lang": "en",
          "ProblemNo": 4,
          "Kind": 4
        },
        {
          "Start": 149,
          "End": 152,
          "Text": "",
          "Ruby": "",
          "Lang": "",
          "ProblemNo": 0,
          "Kind": 5
        },
        {
          "Start": 152,
          "End": 155,
          "Text": "{You do not have much time}",
          "Ruby": "ju du nɑt hæv məʧ taɪm",
          "Lang": "en",
          "ProblemNo": 0,
          "Kind": 1
        },
        {
          "Start": 155,
          "End": 156,
          "Text": "{We}",
          "Ruby": "wi",
          "Lang": "en",
          "ProblemNo": 0,
          "Kind": 2
        },
        {
          "Start": 156,
          "End": 160,
          "Text": "{We do not have much time}",
          "Ruby": "wi du nɑt hæv məʧ taɪm",
          "Lang": "en",
          "ProblemNo": 0,
          "Kind": 3
        },
        {
          "Start": 160,
          "End": 165,
          "Text": "{We do not have much time}",
          "Ruby": "wi du nɑt hæv məʧ taɪm",
          "Lang": "en",
          "ProblemNo": 0,
          "Kind": 4
        },
        {
          "Start": 165,
          "End": 168,
          "Text": "{We do not have much time}",
          "Ruby": "wi du nɑt hæv məʧ taɪm",
          "Lang": "en",
          "ProblemNo": 1,
          "Kind": 1
        },
        {
          "Start": 168,
          "End": 169,
          "Text": "{trust him}",
          "Ruby": "trəst ɪm",
          "Lang": "en",
          "ProblemNo": 1,
          "Kind": 2
        },
        {
          "Start": 169,
          "End": 173,
          "Text": "{We do not trust him}",
          "Ruby": "wi du nɑt trəst ɪm",
          "Lang": "en",
          "ProblemNo": 1,
          "Kind": 3
        },
        {
          "Start": 173,
          "End": 178,
          "Text": "{We do not trust him}",
          "Ruby": "wi du nɑt trəst ɪm",
          "Lang": "en",
          "ProblemNo": 1,
          "Kind": 4
        },
        {
          "Start": 178,
          "End": 181,
          "Text": "{We do not trust him}",
          "Ruby": "wi du nɑt trəst ɪm",
          "Lang": "en",
          "ProblemNo": 2,
          "Kind": 1
        },
        {
          "Start": 181,
          "End": 182,
          "Text": "{You}",
          "Ruby": "ju",
          "Lang": "en",
          "ProblemNo": 2,
          "Kind": 2
        },
        {
          "Start": 182,
          "End": 186,
          "Text": "{You do not trust him}",
          "Ruby": "ju du nɑt trəst ɪm",
          "Lang": "en",
          "ProblemNo": 2,
          "Kind": 3
        },
        {
          "Start": 186,
          "End": 191,
          "Text": "{You do not trust him}",
          "Ruby": "ju du nɑt trəst ɪm",
          "Lang": "en",
          "ProblemNo": 2,
          "Kind": 4
        },
        {
          "Start": 191,
          "End": 194,
          "Text": "{You do not trust him}",
          "Ruby": "ju du nɑt trəst ɪm",
          "Lang": "en",
          "ProblemNo": 3,
          "Kind": 1
        },
        {
          "Start": 194,
          "End": 196,
          "Text": "{Our father}",
          "Ruby": "ɑr ˈfɑðər",
          "Lang": "en",
          "ProblemNo": 3,
          "Kind": 2
        },
        {
          "Start": 196,
          "End": 200,
          "Text": "{Our father does not trust him}",
          "Ruby": "ɑr ˈfɑðər dɪz nɑt trəst ɪm",
          "Lang": "en",
          "ProblemNo": 3,
          "Kind": 3
        },
        {
          "Start": 200,
          "End": 205,
          "Text": "{Our father does not trust him}",
          "Ruby": "ɑr ˈfɑðər dɪz nɑt trəst ɪm",
          "Lang": "en",
          "ProblemNo": 3,
          "Kind": 4
        },
        {
          "Start": 205,
          "End": 208,
          "Text": "{Our father does not trust him}",
          "Ruby": "ɑr ˈfɑðər dɪz nɑt trəst ɪm",
          "Lang": "en",
          "ProblemNo": 4,
          "Kind": 1
        },
        {
          "Start": 208,
          "End": 210,
          "Text": "{have much time}",
          "Ruby": "hæv məʧ taɪm",
          "Lang": "en",
          "ProblemNo": 4,
          "Kind": 2
        },
        {
          "Start": 210,
          "End": 215,
          "Text": "{Our father does not have much time}",
          "Ruby": "ɑr ˈfɑðər dɪz nɑt hæv məʧ taɪm",
          "Lang": "en",
          "ProblemNo": 4,
          "Kind": 3
        },
        {
          "Start": 215,
          "End": 221,
          "Text": "{Our father does not have much time}",
          "Ruby": "ɑr ˈfɑðər dɪz nɑt hæv məʧ taɪm",
          "Lang": "en",
          "ProblemNo": 4,
          "Kind": 4
        },
        {
          "Start": 221,
          "End": 224,
          "Text": "",
          "Ruby": "",
          "Lang": "",
          "ProblemNo": 0,
          "Kind": 5
        },
        {
          "Start": 224,
          "End": 244,
          "Text": "{Please subscribe!}",
          "Ruby": "",
          "Lang": "en",
          "ProblemNo": 0,
          "Kind": 7
        }
      ]
    },
    {
      "Name": "AU",
      "Problems": [
        {
          "ProblemNo": 0,
          "OriginalCandidates": [
            {
              "Word": "We",
              "Ruby": "wi"
            },
            {
              "Word": "do not",
              "Ruby": "du nɑt"
            },
            {
              "Word": "have much time",
              "Ruby": "hæv məʧ taɪm"
            }
          ],
          "ChangeCandidatePos": 0,
          "ChangeCandidates": [
            {
              "Word": "Our father",
              "Ruby": "ɑr ˈfɑðər"
            },
            {
              "Word": "does not",
              "Ruby": "dɪz nɑt"
            },
            {
              "Word": "",
              "Ruby": ""
            }
          ],
          "ChangeMorphemes": [
            {
              "Word": "Our father",
              "Root": "",
              "FeatureSet": null
            },
            {
              "Word": "",
              "Root": "",
              "FeatureSet": [
                "s"
              ]
            },
            {
              "Word": "",
              "Root": "",
              "FeatureSet": null
            }
          ],
          "AnswerCandidates": [
            {
              "Word": "Our father",
              "Ruby": "ɑr ˈfɑðər"
            },
            {
              "Word": "does not",
              "Ruby": "dɪz nɑt"
            },
            {
              "Word": "have much time",
              "Ruby": "hæv məʧ taɪm"
            }
          ]
        },
        {
          "ProblemNo": 1,
          "OriginalCandidates": [
            {
              "Word": "Our father",
              "Ruby": "ɑr ˈfɑðər"
            },
            {
              "Word": "does not",
              "Ruby": "dɪz nɑt"
            },
            {
              "Word": "have much time",
              "Ruby": "hæv məʧ taɪm"
            }
          ],
          "ChangeCandidatePos": 0,
          "ChangeCandidates": [
            {
              "Word": "She",
              "Ruby": "ʃi"
            },
            {
              "Word": "does not",
              "Ruby": "dɪz nɑt"
            },
            {
              "Word": "",
              "Ruby": ""
            }
          ],
          "ChangeMorphemes": [
            {
              "Word": "She",
              "Root": "",
              "FeatureSet": null
            },
            {
              "Word": "",
              "Root": "",
              "FeatureSet": [
                "s"
              ]
            },
            {
              "Word": "",
              "Root": "",
              "FeatureSet": null
            }
          ],
          "AnswerCandidates": [
            {
              "Word": "She",
              "Ruby": "ʃi"
            },
            {
              "Word": "does not",
              "Ruby": "dɪz nɑt"
            },
            {
              "Word": "have much time",
              "Ruby": "hæv məʧ taɪm"
            }
          ]
        },
        {
          "ProblemNo": 2,
          "OriginalCandidates": [
            {
              "Word": "She",
              "Ruby": "ʃi"
            },
            {
              "Word": "does not",
              "Ruby": "dɪz nɑt"
            },
            {
              "Word": "have much time",
              "Ruby": "hæv məʧ taɪm"
            }
          ],
          "ChangeCandidatePos": 0,
          "ChangeCandidates": [
            {
              "Word": "You",
              "Ruby": "ju"
            },
            {
              "Word": "do not",
              "Ruby": "du nɑt"
            },
            {
              "Word": "",
              "Ruby": ""
            }
          ],
          "ChangeMorphemes": [
            {
              "Word": "You",
              "Root": "",
              "FeatureSet": null
            },
            {
              "Word": "",
              "Root": "",
              "FeatureSet": [
                "ns"
              ]
            },
            {
              "Word": "",
              "Root": "",
              "FeatureSet": null
            }
          ],
          "AnswerCandidates": [
            {
              "Word": "You",
              "Ruby": "ju"
            },
            {
              "Word": "do not",
              "Ruby": "du nɑt"
            },
            {
              "Word": "have much time",
              "Ruby": "hæv məʧ taɪm"
            }
          ]
        },
        {
          "ProblemNo": 3,
          "OriginalCandidates": [
            {
              "Word": "You",
              "Ruby": "ju"
            },
            {
              "Word": "do not",
              "Ruby": "du nɑt"
            },
            {
              "Word": "have much time",
              "Ruby": "hæv məʧ taɪm"
            }
          ],
          "ChangeCandidatePos": 2,
          "ChangeCandidates": [
            {
              "Word": "",
              "Ruby": ""
            },
            {
              "Word": "",
              "Ruby": ""
            },
            {
              "Word": "trust him",
              "Ruby": "trəst ɪm"
            }
          ],
          "ChangeMorphemes": [
            {
              "Word": "",
              "Root": "",
              "FeatureSet": null
            },
            {
              "Word": "",
              "Root": "",
              "FeatureSet": null
            },
            {
              "Word": "trust him",
              "Root": "",
              "FeatureSet": null
            }
          ],
          "AnswerCandidates": [
            {
              "Word": "You",
              "Ruby": "ju"
            },
            {
              "Word": "do not",
              "Ruby": "du nɑt"
            },
            {
              "Word": "trust him",
              "Ruby": "trəst ɪm"
            }
          ]
        },
        {
          "ProblemNo": 4,
          "OriginalCandidates": [
            {
              "Word": "You",
              "Ruby": "ju"
            },
            {
              "Word": "do not",
              "Ruby": "du nɑt"
            },
            {
              "Word": "trust him",
              "Ruby": "trəst ɪm"
            }
          ],
          "ChangeCandidatePos": 0,
          "ChangeCandidates": [
            {
              "Word": "Our father",
              "Ruby": "ɑr ˈfɑðər"
            },
            {
              "Word": "does not",
              "Ruby": "dɪz nɑt"
            },
            {
              "Word": "",
              "Ruby": ""
            }
          ],
          "ChangeMorphemes": [
            {
              "Word": "Our father",
              "Root": "",
              "FeatureSet": null
            },
            {
              "Word": "",
              "Root": "",
              "FeatureSet": [
                "s"
              ]
            },
            {
              "Word": "",
              "Root": "",
              "FeatureSet": null
            }
          ],
          "AnswerCandidates": [
            {
              "Word": "Our father",
              "Ruby": "ɑr ˈfɑðər"
            },
            {
              "Word": "does not",
              "Ruby": "dɪz nɑt"
            },
            {
              "Word": "trust him",
              "Ruby": "trəst ɪm"
            }
          ]
        }
      ],
      "VideoFile": "grammar-en-beginner-simple_14_AU.mp4",
      "AnimeticCaptions": [
        {
          "Start": 0,
          "End": 1,
          "Text": "{trust him}",
          "Ruby": "trəst ɪm",
          "Lang": "en",
          "ProblemNo": 3,
          "Kind": 2
        },
        {
          "Start": 1,
          "End": 4,
          "Text": "English grammar exercises (Australia) #14 does not",
          "Ruby": "",
          "Lang": "",
          "ProblemNo": 0,
          "Kind": 0
        },
        {
          "Start": 4,
          "End": 7,
          "Text": "{We do not have much time}",
          "Ruby": "wi du nɑt hæv məʧ taɪm",
          "Lang": "en",
          "ProblemNo": 0,
          "Kind": 1
        },
        {
          "Start": 7,
          "End": 8,
          "Text": "{Our father}",
          "Ruby": "ɑr ˈfɑðər",
          "Lang": "en",
          "ProblemNo": 0,
          "Kind": 2
        },
        {
          "Start": 8,
          "End": 9,
          "Text": "{does not}",
          "Ruby": "dɪz nɑt",
          "Lang": "en",
          "ProblemNo": 0,
          "Kind": 2
        },
        {
          "Start": 9,
          "End": 14,
          "Text": "{Our father does not have much time}",
          "Ruby": "ɑr ˈfɑðər dɪz nɑt hæv məʧ taɪm",
          "Lang": "en",
          "ProblemNo": 0,
          "Kind": 3
        },
        {
          "Start": 14,
          "End": 20,
          "Text": "{Our father does not have much time}",
          "Ruby": "ɑr ˈfɑðər dɪz nɑt hæv məʧ taɪm",
          "Lang": "en",
          "ProblemNo": 0,
          "Kind": 4
        },
        {
          "Start": 20,
          "End": 24,
          "Text": "{Our father does not have much time}",
          "Ruby": "ɑr ˈfɑðər dɪz nɑt hæv məʧ taɪm",
          "Lang": "en",
          "ProblemNo": 1,
          "Kind": 1
        },
        {
          "Start": 24,
          "End": 25,
          "Text": "{She}",
          "Ruby": "ʃi",
          "Lang": "en",
          "ProblemNo": 1,
          "Kind": 2
        },
        {
          "Start": 25,
          "End": 26,
          "Text": "{does not}",
          "Ruby": "dɪz nɑt",
          "Lang": "en",
          "ProblemNo": 1,
          "Kind": 2
        },
        {
          "Start": 26,
          "End": 30,
          "Text": "{She does not have much time}",
          "Ruby": "ʃi dɪz nɑt hæv məʧ taɪm",
          "Lang": "en",
          "ProblemNo": 1,
          "Kind": 3
        },
        {
          "Start": 30,
          "End": 35,
          "Text": "{She does not have much time}",
          "Ruby": "ʃi dɪz nɑt hæv məʧ taɪm",
          "Lang": "en",
          "ProblemNo": 1,
          "Kind": 4
        },
        {
          "Start": 35,
          "End": 38,
          "Text": "{She does not have much time}",
          "Ruby": "ʃi dɪz nɑt hæv məʧ taɪm",
          "Lang": "en",
          "ProblemNo": 2,
          "Kind": 1
        },
        {
          "Start": 38,
          "End": 39,
          "Text": "{You}",
          "Ruby": "ju",
          "Lang": "en",
          "ProblemNo": 2,
          "Kind": 2
        },
        {
          "Start": 39,
          "End": 40,
          "Text": "{do not}",
          "Ruby": "du nɑt",
          "Lang": "en",
          "ProblemNo": 2,
          "Kind": 2
        },
        {
          "Start": 40,
          "End": 44,
          "Text": "{You do not have much time}",
          "Ruby": "ju du nɑt hæv məʧ taɪm",
          "Lang": "en",
          "ProblemNo": 2,
          "Kind": 3
        },
        {
          "Start": 44,
          "End": 49,
          "Text": "{You do not have much time}",
          "Ruby": "ju du nɑt hæv məʧ taɪm",
          "Lang": "en",
          "ProblemNo": 2,
          "Kind": 4
        },
        {
          "Start": 49,
          "End": 52,
          "Text": "{You do not have much time}",
          "Ruby": "ju du nɑt hæv məʧ taɪm",
          "Lang": "en",
          "ProblemNo": 3,
          "Kind": 1
        },
        {
          "Start": 52,
          "End": 53,
          "Text": "{trust him}",
          "Ruby": "trəst ɪm",
          "Lang": "en",
          "ProblemNo": 3,
          "Kind": 2
        },
        {
          "Start": 53,
          "End": 57,
          "Text": "{You do not trust him}",
          "Ruby": "ju du nɑt trəst ɪm",
          "Lang": "en",
          "ProblemNo": 3,
          "Kind": 3
        },
        {
          "Start": 57,
          "End": 62,
          "Text": "{You do not trust him}",
          "Ruby": "ju du nɑt trəst ɪm",
          "Lang": "en",
          "ProblemNo": 3,
          "Kind": 4
        },
        {
          "Start": 62,
          "End": 65,
          "Text": "{You do not trust him}",
          "Ruby": "ju du nɑt trəst ɪm",
          "Lang": "en",
          "ProblemNo": 4,
          "Kind": 1
        },
        {
          "Start": 65,
          "End": 66,
          "Text": "{Our father}",
          "Ruby": "ɑr ˈfɑðər",
          "Lang": "en",
          "ProblemNo": 4,
          "Kind": 2
        },
        {
          "Start": 66,
          "End": 67,
          "Text": "{does not}",
          "Ruby": "dɪz nɑt",
          "Lang": "en",
          "ProblemNo": 4,
          "Kind": 2
        },
        {
          "Start": 67,
          "End": 71,
          "Text": "{Our father does not trust him}",
          "Ruby": "ɑr ˈfɑðər dɪz nɑt trəst ɪm",
          "Lang": "en",
          "ProblemNo": 4,
          "Kind": 3
        },
        {
          "Start": 71,
          "End": 76,
          "Text": "{Our father does not trust him}",
          "Ruby": "ɑr ˈfɑðər dɪz nɑt trəst ɪm",
          "Lang": "en",
          "ProblemNo": 4,
          "Kind": 4
        },
        {
          "Start": 76,
          "End": 79,
          "Text": "",
          "Ruby": "",
          "Lang": "",
          "ProblemNo": 0,
          "Kind": 5
        },
        {
          "Start": 79,
          "End": 82,
          "Text": "{We do not have much time}",
          "Ruby": "wi du nɑt hæv məʧ taɪm",
          "Lang": "en",
          "ProblemNo": 0,
          "Kind": 1
        },
        {
          "Start": 82,
          "End": 83,
          "Text": "{Our father}",
          "Ruby": "ɑr ˈfɑðər",
          "Lang": "en",
          "ProblemNo": 0,
          "Kind": 2
        },
        {
          "Start": 83,
          "End": 88,
          "Text": "{Our father does not have much time}",
          "Ruby": "ɑr ˈfɑðər dɪz nɑt hæv məʧ taɪm",
          "Lang": "en",
          "ProblemNo": 0,
          "Kind": 3
        },
        {
          "Start": 88,
          "End": 94,
          "Text": "{Our father does not have much time}",
          "Ruby": "ɑr ˈfɑðər dɪz nɑt hæv məʧ taɪm",
          "Lang": "en",
          "ProblemNo": 0,
          "Kind": 4
        },
        {
          "Start": 94,
          "End": 98,
          "Text": "{Our father does not have much time}",
          "Ruby": "ɑr ˈfɑðər dɪz nɑt hæv məʧ taɪm",
          "Lang": "en",
          "ProblemNo": 1,
          "Kind": 1
        },
        {
          "Start": 98,
          "End": 99,
          "Text": "{She}",
          "Ruby": "ʃi",
          "Lang": "en",
          "ProblemNo": 1,
          "Kind": 2
        },
        {
          "Start": 99,
          "End": 103,
          "Text": "{She does not have much time}",
          "Ruby": "ʃi dɪz nɑt hæv məʧ taɪm",
          "Lang": "en",
          "ProblemNo": 1,
          "Kind": 3
        },
        {
          "Start": 103,
          "End": 108,
          "Text": "{She does not have much time}",
          "Ruby": "ʃi dɪz nɑt hæv məʧ taɪm",
          "Lang": "en",
          "ProblemNo": 1,
          "Kind": 4
        },
        {
          "Start": 108,
          "End": 111,
          "Text": "{She does not have much time}",
          "Ruby": "ʃi dɪz nɑt hæv məʧ taɪm",
          "Lang": "en",
          "ProblemNo": 2,
          "Kind": 1
        },
        {
          "Start": 111,
          "End": 112,
          "Text": "{You}",
          "Ruby": "ju",
          "Lang": "en",
          "ProblemNo": 2,
          "Kind": 2
        },
        {
          "Start": 112,
          "End": 116,
          "Text": "{You do not have much time}",
          "Ruby": "ju du nɑt hæv məʧ taɪm",
          "Lang": "en",
          "ProblemNo": 2,
          "Kind": 3
        },
        {
          "Start": 116,
          "End": 121,
          "Text": "{You do not have much time}",
          "Ruby": "ju du nɑt hæv məʧ taɪm",
          "Lang": "en",
          "ProblemNo": 2,
          "Kind": 4
        },
        {
          "Start": 121,
          "End": 124,
          "Text": "{You do not have much time}",
          "Ruby": "ju du nɑt hæv məʧ taɪm",
          "Lang": "en",
          "ProblemNo": 3,
          "Kind": 1
        },
        {
          "Start": 124,
          "End": 125,
          "Text": "{trust him}",
          "Ruby": "trəst ɪm",
          "Lang": "en",
          "ProblemNo": 3,
          "Kind": 2
        },
        {
          "Start": 125,
          "End": 129,
          "Text": "{You do not trust him}",
          "Ruby": "ju du nɑt trəst ɪm",
          "Lang": "en",
          "ProblemNo": 3,
          "Kind": 3
        },
        {
          "Start": 129,
          "End": 134,
          "Text": "{You do not trust him}",
          "Ruby": "ju du nɑt trəst ɪm",
          "Lang": "en",
          "ProblemNo": 3,
          "Kind": 4
        },
        {
          "Start": 134,
          "End": 137,
          "Text": "{You do not trust him}",
          "Ruby": "ju du nɑt trəst ɪm",
          "Lang": "en",
          "ProblemNo": 4,
          "Kind": 1
        },
        {
          "Start": 137,
          "End": 138,
          "Text": "{Our father}",
          "Ruby": "ɑr ˈfɑðər",
          "Lang": "en",
          "ProblemNo": 4,
          "Kind": 2
        },
        {
          "Start": 138,
          "End": 142,
          "Text": "{Our father does not trust him}",
          "Ruby": "ɑr ˈfɑðər dɪz nɑt trəst ɪm",
          "Lang": "en",
          "ProblemNo": 4,
          "Kind": 3
        },
        {
          "Start": 142,
          "End": 147,
          "Text": "{Our father does not trust him}",
          "Ruby": "ɑr ˈfɑðər dɪz nɑt trəst ɪm",
          "Lang": "en",
          "ProblemNo": 4,
          "Kind": 4
        },
        {
          "Start": 147,
          "End": 150,
          "Text": "",
          "Ruby": "",
          "Lang": "",
          "ProblemNo": 0,
          "Kind": 5
        },
        {
          "Start": 150,
          "End": 153,
          "Text": "{We do not have much time}",
          "Ruby": "wi du nɑt hæv məʧ taɪm",
          "Lang": "en",
          "ProblemNo": 0,
          "Kind": 1
        },
        {
          "Start": 153,
          "End": 154,
          "Text": "{Our father}",
          "Ruby": "ɑr ˈfɑðər",
          "Lang": "en",
          "ProblemNo": 0,
          "Kind": 2
        },
        {
          "Start": 154,
          "End": 159,
          "Text": "{Our father does not have much time}",
          "Ruby": "ɑr ˈfɑðər dɪz nɑt hæv məʧ taɪm",
          "Lang": "en",
          "ProblemNo": 0,
          "Kind": 3
        },
        {
          "Start": 159,
          "End": 165,
          "Text": "{Our father does not have much time}",
          "Ruby": "ɑr ˈfɑðər dɪz nɑt hæv məʧ taɪm",
          "Lang": "en",
          "ProblemNo": 0,
          "Kind": 4
        },
        {
          "Start": 165,
          "End": 169,
          "Text": "{Our father does not have much time}",
          "Ruby": "ɑr ˈfɑðər dɪz nɑt hæv məʧ taɪm",
          "Lang": "en",
          "ProblemNo": 1,
          "Kind": 1
        },
        {
          "Start": 169,
          "End": 170,
          "Text": "{She}",
          "Ruby": "ʃi",
          "Lang": "en",
          "ProblemNo": 1,
          "Kind": 2
        },
        {
          "Start": 170,
          "End": 174,
          "Text": "{She does not have much time}",
          "Ruby": "ʃi dɪz nɑt hæv məʧ taɪm",
          "Lang": "en",
          "ProblemNo": 1,
          "Kind": 3
        },
        {
          "Start": 174,
          "End": 179,
          "Text": "{She does not have much time}",
          "Ruby": "ʃi dɪz nɑt hæv məʧ taɪm",
          "Lang": "en",
          "ProblemNo": 1,
          "Kind": 4
        },
        {
          "Start": 179,
          "End": 182,
          "Text": "{She does not have much time}",
          "Ruby": "ʃi dɪz nɑt hæv məʧ taɪm",
          "Lang": "en",
          "ProblemNo": 2,
          "Kind": 1
        },
        {
          "Start": 182,
          "End": 183,
          "Text": "{You}",
          "Ruby": "ju",
          "Lang": "en",
          "ProblemNo": 2,
          "Kind": 2
        },
        {
          "Start": 183,
          "End": 187,
          "Text": "{You do not have much time}",
          "Ruby": "ju du nɑt hæv məʧ taɪm",
          "Lang": "en",
          "ProblemNo": 2,
          "Kind": 3
        },
        {
          "Start": 187,
          "End": 192,
          "Text": "{You do not have much time}",
          "Ruby": "ju du nɑt hæv məʧ taɪm",
          "Lang": "en",
          "ProblemNo": 2,
          "Kind": 4
        },
        {
          "Start": 192,
          "End": 195,
          "Text": "{You do not have much time}",
          "Ruby": "ju du nɑt hæv məʧ taɪm",
          "Lang": "en",
          "ProblemNo": 3,
          "Kind": 1
        },
        {
          "Start": 195,
          "End": 196,
          "Text": "{trust him}",
          "Ruby": "trəst ɪm",
          "Lang": "en",
          "ProblemNo": 3,
          "Kind": 2
        },
        {
          "Start": 196,
          "End": 200,
          "Text": "{You do not trust him}",
          "Ruby": "ju du nɑt trəst ɪm",
          "Lang": "en",
          "ProblemNo": 3,
          "Kind": 3
        },
        {
          "Start": 200,
          "End": 205,
          "Text": "{You do not trust him}",
          "Ruby": "ju du nɑt trəst ɪm",
          "Lang": "en",
          "ProblemNo": 3,
          "Kind": 4
        },
        {
          "Start": 205,
          "End": 208,
          "Text": "{You do not trust him}",
          "Ruby": "ju du nɑt trəst ɪm",
          "Lang": "en",
          "ProblemNo": 4,
          "Kind": 1
        },
        {
          "Start": 208,
          "End": 209,
          "Text": "{Our father}",
          "Ruby": "ɑr ˈfɑðər",
          "Lang": "en",
          "ProblemNo": 4,
          "Kind": 2
        },
        {
          "Start": 209,
          "End": 213,
          "Text": "{Our father does not trust him}",
          "Ruby": "ɑr ˈfɑðər dɪz nɑt trəst ɪm",
          "Lang": "en",
          "ProblemNo": 4,
          "Kind": 3
        },
        {
          "Start": 213,
          "End": 218,
          "Text": "{Our father does not trust him}",
          "Ruby": "ɑr ˈfɑðər dɪz nɑt trəst ɪm",
          "Lang": "en",
          "ProblemNo": 4,
          "Kind": 4
        },
        {
          "Start": 218,
          "End": 221,
          "Text": "",
          "Ruby": "",
          "Lang": "",
          "ProblemNo": 0,
          "Kind": 5
        },
        {
          "Start": 221,
          "End": 241,
          "Text": "{Please subscribe!}",
          "Ruby": "",
          "Lang": "en",
          "ProblemNo": 0,
          "Kind": 7
        }
      ]
    },
    {
      "Name": "IN",
      "Problems": [
        {
          "ProblemNo": 0,
          "OriginalCandidates": [
            {
              "Word": "Our father",
              "Ruby": "ɑr ˈfɑðər"
            },
            {
              "Word": "does not",
              "Ruby": "dɪz nɑt"
            },
            {
              "Word": "have much time",
              "Ruby": "hæv məʧ taɪm"
            }
          ],
          "ChangeCandidatePos": 0,
          "ChangeCandidates": [
            {
              "Word": "She",
              "Ruby": "ʃi"
            },
            {
              "Word": "does not",
              "Ruby": "dɪz nɑt"
            },
            {
              "Word": "",
              "Ruby": ""
            }
          ],
          "ChangeMorphemes": [
            {
              "Word": "She",
              "Root": "",
              "FeatureSet": null
            },
            {
              "Word": "",
              "Root": "",
              "FeatureSet": [
                "s"
              ]
            },
            {
              "Word": "",
              "Root": "",
              "FeatureSet": null
            }
          ],
          "AnswerCandidates": [
            {
              "Word": "She",
              "Ruby": "ʃi"
            },
            {
              "Word": "does not",
              "Ruby": "dɪz nɑt"
            },
            {
              "Word": "have much time",
              "Ruby": "hæv məʧ taɪm"
            }
          ]
        },
        {
          "ProblemNo": 1,
          "OriginalCandidates": [
            {
              "Word": "She",
              "Ruby": "ʃi"
            },
            {
              "Word": "does not",
              "Ruby": "dɪz nɑt"
            },
            {
              "Word": "have much time",
              "Ruby": "hæv məʧ taɪm"
            }
          ],
          "ChangeCandidatePos": 0,
          "ChangeCandidates": [
            {
              "Word": "You",
              "Ruby": "ju"
            },
            {
              "Word": "do not",
              "Ruby": "du nɑt"
            },
            {
              "Word": "",
              "Ruby": ""
            }
          ],
          "ChangeMorphemes": [
            {
              "Word": "You",
              "Root": "",
              "FeatureSet": null
            },
            {
              "Word": "",
              "Root": "",
              "FeatureSet": [
                "ns"
              ]
            },
            {
              "Word": "",
              "Root": "",
              "FeatureSet": null
            }
          ],
          "AnswerCandidates": [
            {
              "Word": "You",
              "Ruby": "ju"
            },
            {
              "Word": "do not",
              "Ruby": "du nɑt"
            },
            {
              "Word": "have much time",
              "Ruby": "hæv məʧ taɪm"
            }
          ]
        },
        {
          "ProblemNo": 2,
          "OriginalCandidates": [
            {
              "Word": "You",
              "Ruby": "ju"
            },
            {
              "Word": "do not",
              "Ruby": "du nɑt"
            },
            {
              "Word": "have much time",
              "Ruby": "hæv məʧ taɪm"
            }
          ],
          "ChangeCandidatePos": 0,
          "ChangeCandidates": [
            {
              "Word": "We",
              "Ruby": "wi"
            },
            {
              "Word": "do not",
              "Ruby": "du nɑt"
            },
            {
              "Word": "",
              "Ruby": ""
            }
          ],
          "ChangeMorphemes": [
            {
              "Word": "We",
              "Root": "",
              "FeatureSet": null
            },
            {
              "Word": "",
              "Root": "",
              "FeatureSet": [
                "ns"
              ]
            },
            {
              "Word": "",
              "Root": "",
              "FeatureSet": null
            }
          ],
          "AnswerCandidates": [
            {
              "Word": "We",
              "Ruby": "wi"
            },
            {
              "Word": "do not",
              "Ruby": "du nɑt"
            },
            {
              "Word": "have much time",
              "Ruby": "hæv məʧ taɪm"
            }
          ]
        },
        {
          "ProblemNo": 3,
          "OriginalCandidates": [
            {
              "Word": "We",
              "Ruby": "wi"
            },
            {
              "Word": "do not",
              "Ruby": "du nɑt"
            },
            {
              "Word": "have much time",
              "Ruby": "hæv məʧ taɪm"
            }
          ],
          "ChangeCandidatePos": 2,
          "ChangeCandidates": [
            {
              "Word": "",
              "Ruby": ""
            },
            {
              "Word": "",
              "Ruby": ""
            },
            {
              "Word": "trust him",
              "Ruby": "trəst ɪm"
            }
          ],
          "ChangeMorphemes": [
            {
              "Word": "",
              "Root": "",
              "FeatureSet": null
            },
            {
              "Word": "",
              "Root": "",
              "FeatureSet": null
            },
            {
              "Word": "trust him",
              "Root": "",
              "FeatureSet": null
            }
          ],
          "AnswerCandidates": [
            {
              "Word": "We",
              "Ruby": "wi"
            },
            {
              "Word": "do not",
              "Ruby": "du nɑt"
            },
            {
              "Word": "trust him",
              "Ruby": "trəst ɪm"
            }
          ]
        },
        {
          "ProblemNo": 4,
          "OriginalCandidates": [
            {
              "Word": "We",
              "Ruby": "wi"
            },
            {
              "Word": "do not",
              "Ruby": "du nɑt"
            },
            {
              "Word": "trust him",
              "Ruby": "trəst ɪm"
            }
          ],
          "ChangeCandidatePos": 0,
          "ChangeCandidates": [
            {
              "Word": "Our father",
              "Ruby": "ɑr ˈfɑðər"
            },
            {
              "Word": "does not",
              "Ruby": "dɪz nɑt"
            },
            {
              "Word": "",
              "Ruby": ""
            }
          ],
          "ChangeMorphemes": [
            {
              "Word": "Our father",
              "Root": "",
              "FeatureSet": null
            },
            {
              "Word": "",
              "Root": "",
              "FeatureSet": [
                "s"
              ]
            },
            {
              "Word": "",
              "Root": "",
              "FeatureSet": null
            }
          ],
          "AnswerCandidates": [
            {
              "Word": "Our father",
              "Ruby": "ɑr ˈfɑðər"
            },
            {
              "Word": "does not",
              "Ruby": "dɪz nɑt"
            },
            {
              "Word": "trust him",
              "Ruby": "trəst ɪm"
            }
          ]
        }
      ],
      "VideoFile": "grammar-en-beginner-simple_14_IN.mp4",
      "AnimeticCaptions": [
        {
          "Start": 0,
          "End": 1,
          "Text": "{trust him}",
          "Ruby": "trəst ɪm",
          "Lang": "en",
          "ProblemNo": 3,
          "Kind": 2
        },
        {
          "Start": 1,
          "End": 4,
          "Text": "English grammar exercises (India) #14 does not",
          "Ruby": "",
          "Lang": "",
          "ProblemNo": 0,
          "Kind": 0
        },
        {
          "Start": 4,
          "End": 8,
          "Text": "{Our father does not have much time}",
          "Ruby": "ɑr ˈfɑðər dɪz nɑt hæv məʧ taɪm",
          "Lang": "en",
          "ProblemNo": 0,
          "Kind": 1
        },
        {
          "Start": 8,
          "End": 9,
          "Text": "{She}",
          "Ruby": "ʃi",
          "Lang": "en",
          "ProblemNo": 0,
          "Kind": 2
        },
        {
          "Start": 9,
          "End": 10,
          "Text": "{does not}",
          "Ruby": "dɪz nɑt",
          "Lang": "en",
          "ProblemNo": 0,
          "Kind": 2
        },
        {
          "Start": 10,
          "End": 14,
          "Text": "{She does not have much time}",
          "Ruby": "ʃi dɪz nɑt hæv məʧ taɪm",
          "Lang": "en",
          "ProblemNo": 0,
          "Kind": 3
        },
        {
          "Start": 14,
          "End": 19,
          "Text": "{She does not have much time}",
          "Ruby": "ʃi dɪz nɑt hæv məʧ taɪm",
          "Lang": "en",
          "ProblemNo": 0,
          "Kind": 4
        },
        {
          "Start": 19,
          "End": 22,
          "Text": "{She does not have much time}",
          "Ruby": "ʃi dɪz nɑt hæv məʧ taɪm",
          "Lang": "en",
          "ProblemNo": 1,
          "Kind": 1
        },
        {
          "Start": 22,
          "End": 23,
          "Text": "{You}",
          "Ruby": "ju",
          "Lang": "en",
          "ProblemNo": 1,
          "Kind": 2
        },
        {
          "Start": 23,
          "End": 24,
          "Text": "{do not}",
          "Ruby": "du nɑt",
          "Lang": "en",
          "ProblemNo": 1,
          "Kind": 2
        },
        {
          "Start": 24,
          "End": 28,
          "Text": "{You do not have much time}",
          "Ruby": "ju du nɑt hæv məʧ taɪm",
          "Lang": "en",
          "ProblemNo": 1,
          "Kind": 3
        },
        {
          "Start": 28,
          "End": 33,
          "Text": "{You do not have much time}",
          "Ruby": "ju du nɑt hæv məʧ taɪm",
          "Lang": "en",
          "ProblemNo": 1,
          "Kind": 4
        },
        {
          "Start": 33,
          "End": 36,
          "Text": "{You do not have much time}",
          "Ruby": "ju du nɑt hæv məʧ taɪm",
          "Lang": "en",
          "ProblemNo": 2,
          "Kind": 1
        },
        {
          "Start": 36,
          "End": 37,
          "Text": "{We}",
          "Ruby": "wi",
          "Lang": "en",
          "ProblemNo": 2,
          "Kind": 2
        },
        {
          "Start": 37,
          "End": 38,
          "Text": "{do not}",
          "Ruby": "du nɑt",
          "Lang": "en",
          "ProblemNo": 2,
          "Kind": 2
        },
        {
          "Start": 38,
          "End": 42,
          "Text": "{We do not have much time}",
          "Ruby": "wi du nɑt hæv məʧ taɪm",
          "Lang": "en",
          "ProblemNo": 2,
          "Kind": 3
        },
        {
          "Start": 42,
          "End": 47,
          "Text": "{We do not have much time}",
          "Ruby": "wi du nɑt hæv məʧ taɪm",
          "Lang": "en",
          "ProblemNo": 2,
          "Kind": 4
        },
        {
          "Start": 47,
          "End": 50,
          "Text": "{We do not have much time}",
          "Ruby": "wi du nɑt hæv məʧ taɪm",
          "Lang": "en",
          "ProblemNo": 3,
          "Kind": 1
        },
        {
          "Start": 50,
          "End": 51,
          "Text": "{trust him}",
          "Ruby": "trəst ɪm",
          "Lang": "en",
          "ProblemNo": 3,
          "Kind": 2
        },
        {
          "Start": 51,
          "End": 55,
          "Text": "{We do not trust him}",
          "Ruby": "wi du nɑt trəst ɪm",
          "Lang": "en",
          "ProblemNo": 3,
          "Kind": 3
        },
        {
          "Start": 55,
          "End": 60,
          "Text": "{We do not trust him}",
          "Ruby": "wi du nɑt trəst ɪm",
          "Lang": "en",
          "ProblemNo": 3,
          "Kind": 4
        },
        {
          "Start": 60,
          "End": 63,
          "Text": "{We do not trust him}",
          "Ruby": "wi du nɑt trəst ɪm",
          "Lang": "en",
          "ProblemNo": 4,
          "Kind": 1
        },
        {
          "Start": 63,
          "End": 64,
          "Text": "{Our father}",
          "Ruby": "ɑr ˈfɑðər",
          "Lang": "en",
          "ProblemNo": 4,
          "Kind": 2
        },
        {
          "Start": 64,
          "End": 65,
          "Text": "{does not}",
          "Ruby": "dɪz nɑt",
          "Lang": "en",
          "ProblemNo": 4,
          "Kind": 2
        },
        {
          "Start": 65,
          "End": 69,
          "Text": "{Our father does not trust him}",
          "Ruby": "ɑr ˈfɑðər dɪz nɑt trəst ɪm",
          "Lang": "en",
          "ProblemNo": 4,
          "Kind": 3
        },
        {
          "Start": 69,
          "End": 74,
          "Text": "{Our father does not trust him}",
          "Ruby": "ɑr ˈfɑðər dɪz nɑt trəst ɪm",
          "Lang": "en",
          "ProblemNo": 4,
          "Kind": 4
        },
        {
          "Start": 74,
          "End": 77,
          "Text": "",
          "Ruby": "",
          "Lang": "",
          "ProblemNo": 0,
          "Kind": 5
        },
        {
          "Start": 77,
          "End": 81,
          "Text": "{Our father does not have much time}",
          "Ruby": "ɑr ˈfɑðər dɪz nɑt hæv məʧ taɪm",
          "Lang": "en",
          "ProblemNo": 0,
          "Kind": 1
        },
        {
          "Start": 81,
          "End": 82,
          "Text": "{She}",
          "Ruby": "ʃi",
          "Lang": "en",
          "ProblemNo": 0,
          "Kind": 2
        },
        {
          "Start": 82,
          "End": 86,
          "Text": "{She does not have much time}",
          "Ruby": "ʃi dɪz nɑt hæv məʧ taɪm",
          "Lang": "en",
          "ProblemNo": 0,
          "Kind": 3
        },
        {
          "Start": 86,
          "End": 91,
          "Text": "{She does not have much time}",
          "Ruby": "ʃi dɪz nɑt hæv məʧ taɪm",
          "Lang": "en",
          "ProblemNo": 0,
          "Kind": 4
        },
        {
          "Start": 91,
          "End": 94,
          "Text": "{She does not have much time}",
          "Ruby": "ʃi dɪz nɑt hæv məʧ taɪm",
          "Lang": "en",
          "ProblemNo": 1,
          "Kind": 1
        },
        {
          "Start": 94,
          "End": 95,
          "Text": "{You}",
          "Ruby": "ju",
          "Lang": "en",
          "ProblemNo": 1,
          "Kind": 2
        },
        {
          "Start": 95,
          "End": 99,
          "Text": "{You do not have much time}",
          "Ruby": "ju du nɑt hæv məʧ taɪm",
          "Lang": "en",
          "ProblemNo": 1,
          "Kind": 3
        },
        {
          "Start": 99,
          "End": 104,
          "Text": "{You do not have much time}",
          "Ruby": "ju du nɑt hæv məʧ taɪm",
          "Lang": "en",
          "ProblemNo": 1,
          "Kind": 4
        },
        {
          "Start": 104,
          "End": 107,
          "Text": "{You do not have much time}",
          "Ruby": "ju du nɑt hæv məʧ taɪm",
          "Lang": "en",
          "ProblemNo": 2,
          "Kind": 1
        },
        {
          "Start": 107,
          "End": 108,
          "Text": "{We}",
          "Ruby": "wi",
          "Lang": "en",
          "ProblemNo": 2,
          "Kind": 2
        },
        {
          "Start": 108,
          "End": 112,
          "Text": "{We do not have much time}",
          "Ruby": "wi du nɑt hæv məʧ taɪm",
          "Lang": "en",
          "ProblemNo": 2,
          "Kind": 3
        },
        {
          "Start": 112,
          "End": 117,
          "Text": "{We do not have much time}",
          "Ruby": "wi du nɑt hæv məʧ taɪm",
          "Lang": "en",
          "ProblemNo": 2,
          "Kind": 4
        },
        {
          "Start": 117,
          "End": 120,
          "Text": "{We do not have much time}",
          "Ruby": "wi du nɑt hæv məʧ taɪm",
          "Lang": "en",
          "ProblemNo": 3,
          "Kind": 1
        },
        {
          "Start": 120,
          "End": 121,
          "Text": "{trust him}",
          "Ruby": "trəst ɪm",
          "Lang": "en",
          "ProblemNo": 3,
          "Kind": 2
        },
        {
          "Start": 121,
          "End": 125,
          "Text": "{We do not trust him}",
          "Ruby": "wi du nɑt trəst ɪm",
          "Lang": "en",
          "ProblemNo": 3,
          "Kind": 3
        },
        {
          "Start": 125,
          "End": 130,
          "Text": "{We do not trust him}",
          "Ruby": "wi du nɑt trəst ɪm",
          "Lang": "en",
          "ProblemNo": 3,
          "Kind": 4
        },
        {
          "Start": 130,
          "End": 133,
          "Text": "{We do not trust him}",
          "Ruby": "wi du nɑt trəst ɪm",
          "Lang": "en",
          "ProblemNo": 4,
          "Kind": 1
        },
        {
          "Start": 133,
          "End": 134,
          "Text": "{Our father}",
          "Ruby": "ɑr ˈfɑðər",
          "Lang": "en",
          "ProblemNo": 4,
          "Kind": 2
        },
        {
          "Start": 134,
          "End": 138,
          "Text": "{Our father does not trust him}",
          "Ruby": "ɑr ˈfɑðər dɪz nɑt trəst ɪm",
          "Lang": "en",
          "ProblemNo": 4,
          "Kind": 3
        },
        {
          "Start": 138,
          "End": 143,
          "Text": "{Our father does not trust him}",
          "Ruby": "ɑr ˈfɑðər dɪz nɑt trəst ɪm",
          "Lang": "en",
          "ProblemNo": 4,
          "Kind": 4
        },
        {
          "Start": 143,
          "End": 146,
          "Text": "",
          "Ruby": "",
          "Lang": "",
          "ProblemNo": 0,
          "Kind": 5
        },
        {
          "Start": 146,
          "End": 150,
          "Text": "{Our father does not have much time}",
          "Ruby": "ɑr ˈfɑðər dɪz nɑt hæv məʧ taɪm",
          "Lang": "en",
          "ProblemNo": 0,
          "Kind": 1
        },
        {
          "Start": 150,
          "End": 151,
          "Text": "{She}",
          "Ruby": "ʃi",
          "Lang": "en",
          "ProblemNo": 0,
          "Kind": 2
        },
        {
          "Start": 151,
          "End": 155,
          "Text": "{She does not have much time}",
          "Ruby": "ʃi dɪz nɑt hæv məʧ taɪm",
          "Lang": "en",
          "ProblemNo": 0,
          "Kind": 3
        },
        {
          "Start": 155,
          "End": 160,
          "Text": "{She does not have much time}",
          "Ruby": "ʃi dɪz nɑt hæv məʧ taɪm",
          "Lang": "en",
          "ProblemNo": 0,
          "Kind": 4
        },
        {
          "Start": 160,
          "End": 163,
          "Text": "{She does not have much time}",
          "Ruby": "ʃi dɪz nɑt hæv məʧ taɪm",
          "Lang": "en",
          "ProblemNo": 1,
          "Kind": 1
        },
        {
          "Start": 163,
          "End": 164,
          "Text": "{You}",
          "Ruby": "ju",
          "Lang": "en",
          "ProblemNo": 1,
          "Kind": 2
        },
        {
          "Start": 164,
          "End": 168,
          "Text": "{You do not have much time}",
          "Ruby": "ju du nɑt hæv məʧ taɪm",
          "Lang": "en",
          "ProblemNo": 1,
          "Kind": 3
        },
        {
          "Start": 168,
          "End": 173,
          "Text": "{You do not have much time}",
          "Ruby": "ju du nɑt hæv məʧ taɪm",
          "Lang": "en",
          "ProblemNo": 1,
          "Kind": 4
        },
        {
          "Start": 173,
          "End": 176,
          "Text": "{You do not have much time}",
          "Ruby": "ju du nɑt hæv məʧ taɪm",
          "Lang": "en",
          "ProblemNo": 2,
          "Kind": 1
        },
        {
          "Start": 176,
          "End": 177,
          "Text": "{We}",
          "Ruby": "wi",
          "Lang": "en",
          "ProblemNo": 2,
          "Kind": 2
        },
        {
          "Start": 177,
          "End": 181,
          "Text": "{We do not have much time}",
          "Ruby": "wi du nɑt hæv məʧ taɪm",
          "Lang": "en",
          "ProblemNo": 2,
          "Kind": 3
        },
        {
          "Start": 181,
          "End": 186,
          "Text": "{We do not have much time}",
          "Ruby": "wi du nɑt hæv məʧ taɪm",
          "Lang": "en",
          "ProblemNo": 2,
          "Kind": 4
        },
        {
          "Start": 186,
          "End": 189,
          "Text": "{We do not have much time}",
          "Ruby": "wi du nɑt hæv məʧ taɪm",
          "Lang": "en",
          "ProblemNo": 3,
          "Kind": 1
        },
        {
          "Start": 189,
          "End": 190,
          "Text": "{trust him}",
          "Ruby": "trəst ɪm",
          "Lang": "en",
          "ProblemNo": 3,
          "Kind": 2
        },
        {
          "Start": 190,
          "End": 194,
          "Text": "{We do not trust him}",
          "Ruby": "wi du nɑt trəst ɪm",
          "Lang": "en",
          "ProblemNo": 3,
          "Kind": 3
        },
        {
          "Start": 194,
          "End": 199,
          "Text": "{We do not trust him}",
          "Ruby": "wi du nɑt trəst ɪm",
          "Lang": "en",
          "ProblemNo": 3,
          "Kind": 4
        },
        {
          "Start": 199,
          "End": 202,
          "Text": "{We do not trust him}",
          "Ruby": "wi du nɑt trəst ɪm",
          "Lang": "en",
          "ProblemNo": 4,
          "Kind": 1
        },
        {
          "Start": 202,
          "End": 203,
          "Text": "{Our father}",
          "Ruby": "ɑr ˈfɑðər",
          "Lang": "en",
          "ProblemNo": 4,
          "Kind": 2
        },
        {
          "Start": 203,
          "End": 207,
          "Text": "{Our father does not trust him}",
          "Ruby": "ɑr ˈfɑðər dɪz nɑt trəst ɪm",
          "Lang": "en",
          "ProblemNo": 4,
          "Kind": 3
        },
        {
          "Start": 207,
          "End": 212,
          "Text": "{Our father does not trust him}",
          "Ruby": "ɑr ˈfɑðər dɪz nɑt trəst ɪm",
          "Lang": "en",
          "ProblemNo": 4,
          "Kind": 4
        },
        {
          "Start": 212,
          "End": 215,
          "Text": "",
          "Ruby": "",
          "Lang": "",
          "ProblemNo": 0,
          "Kind": 5
        },
        {
          "Start": 215,
          "End": 235,
          "Text": "{Please subscribe!}",
          "Ruby": "",
          "Lang": "en",
          "ProblemNo": 0,
          "Kind": 7
        }
      ]
    },
    {
      "Name": "UK",
      "Problems": [
        {
          "ProblemNo": 0,
          "OriginalCandidates": [
            {
              "Word": "We",
              "Ruby": "wi"
            },
            {
              "Word": "do not",
              "Ruby": "du nɑt"
            },
            {
              "Word": "trust him",
              "Ruby": "trəst ɪm"
            }
          ],
          "ChangeCandidatePos": 0,
          "ChangeCandidates": [
            {
              "Word": "She",
              "Ruby": "ʃi"
            },
            {
              "Word": "does not",
              "Ruby": "dɪz nɑt"
            },
            {
              "Word": "",
              "Ruby": ""
            }
          ],
          "ChangeMorphemes": [
            {
              "Word": "She",
              "Root": "",
              "FeatureSet": null
            },
            {
              "Word": "",
              "Root": "",
              "FeatureSet": [
                "s"
              ]
            },
            {
              "Word": "",
              "Root": "",
              "FeatureSet": null
            }
          ],
          "AnswerCandidates": [
            {
              "Word": "She",
              "Ruby": "ʃi"
            },
            {
              "Word": "does not",
              "Ruby": "dɪz nɑt"
            },
            {
              "Word": "trust him",
              "Ruby": "trəst ɪm"
            }
          ]
        },
        {
          "ProblemNo": 1,
          "OriginalCandidates": [
            {
              "Word": "She",
              "Ruby": "ʃi"
            },
            {
              "Word": "does not",
              "Ruby": "dɪz nɑt"
            },
            {
              "Word": "trust him",
              "Ruby": "trəst ɪm"
            }
          ],
          "ChangeCandidatePos": 0,
          "ChangeCandidates": [
            {
              "Word": "Our father",
              "Ruby": "ɑr ˈfɑðər"
            },
            {
              "Word": "does not",
              "Ruby": "dɪz nɑt"
            },
            {
              "Word": "",
              "Ruby": ""
            }
          ],
          "ChangeMorphemes": [
            {
              "Word": "Our father",
              "Root": "",
              "FeatureSet": null
            },
            {
              "Word": "",
              "Root": "",
              "FeatureSet": [
                "s"
              ]
            },
            {
              "Word": "",
              "Root": "",
              "FeatureSet": null
            }
          ],
          "AnswerCandidates": [
            {
              "Word": "Our father",
              "Ruby": "ɑr ˈfɑðər"
            },
            {
              "Word": "does not",
              "Ruby": "dɪz nɑt"
            },
            {
              "Word": "trust him",
              "Ruby": "trəst ɪm"
            }
          ]
        },
        {
          "ProblemNo": 2,
          "OriginalCandidates": [
            {
              "Word": "Our father",
              "Ruby": "ɑr ˈfɑðər"
            },
            {
              "Word": "does not",
              "Ruby": "dɪz nɑt"
            },
            {
              "Word": "trust him",
              "Ruby": "trəst ɪm"
            }
          ],
          "ChangeCandidatePos": 0,
          "ChangeCandidates": [
            {
              "Word": "You",
              "Ruby": "ju"
            },
            {
              "Word": "do not",
              "Ruby": "du nɑt"
            },
            {
              "Word": "",
              "Ruby": ""
            }
          ],
          "ChangeMorphemes": [
            {
              "Word": "You",
              "Root": "",
              "FeatureSet": null
            },
            {
              "Word": "",
              "Root": "",
              "FeatureSet": [
                "ns"
              ]
            },
            {
              "Word": "",
              "Root": "",
              "FeatureSet": null
            }
          ],
          "AnswerCandidates": [
            {
              "Word": "You",
              "Ruby": "ju"
            },
            {
              "Word": "do not",
              "Ruby": "du nɑt"
            },
            {
              "Word": "trust him",
              "Ruby": "trəst ɪm"
            }
          ]
        },
        {
          "ProblemNo": 3,
          "OriginalCandidates": [
            {
              "Word": "You",
              "Ruby": "ju"
            },
            {
              "Word": "do not",
              "Ruby": "du nɑt"
            },
            {
              "Word": "trust him",
              "Ruby": "trəst ɪm"
            }
          ],
          "ChangeCandidatePos": 2,
          "ChangeCandidates": [
            {
              "Word": "",
              "Ruby": ""
            },
            {
              "Word": "",
              "Ruby": ""
            },
            {
              "Word": "have much time",
              "Ruby": "hæv məʧ taɪm"
            }
          ],
          "ChangeMorphemes": [
            {
              "Word": "",
              "Root": "",
              "FeatureSet": null
            },
            {
              "Word": "",
              "Root": "",
              "FeatureSet": null
            },
            {
              "Word": "have much time",
              "Root": "",
              "FeatureSet": null
            }
          ],
          "AnswerCandidates": [
            {
              "Word": "You",
              "Ruby": "ju"
            },
            {
              "Word": "do not",
              "Ruby": "du nɑt"
            },
            {
              "Word": "have much time",
              "Ruby": "hæv məʧ taɪm"
            }
          ]
        },
        {
          "ProblemNo": 4,
          "OriginalCandidates": [
            {
              "Word": "You",
              "Ruby": "ju"
            },
            {
              "Word": "do not",
              "Ruby": "du nɑt"
            },
            {
              "Word": "have much time",
              "Ruby": "hæv məʧ taɪm"
            }
          ],
          "ChangeCandidatePos": 0,
          "ChangeCandidates": [
            {
              "Word": "Our father",
              "Ruby": "ɑr ˈfɑðər"
            },
            {
              "Word": "does not",
              "Ruby": "dɪz nɑt"
            },
            {
              "Word": "",
              "Ruby": ""
            }
          ],
          "ChangeMorphemes": [
            {
              "Word": "Our father",
              "Root": "",
              "FeatureSet": null
            },
            {
              "Word": "",
              "Root": "",
              "FeatureSet": [
                "s"
              ]
            },
            {
              "Word": "",
              "Root": "",
              "FeatureSet": null
            }
          ],
          "AnswerCandidates": [
            {
              "Word": "Our father",
              "Ruby": "ɑr ˈfɑðər"
            },
            {
              "Word": "does not",
              "Ruby": "dɪz nɑt"
            },
            {
              "Word": "have much time",
              "Ruby": "hæv məʧ taɪm"
            }
          ]
        }
      ],
      "VideoFile": "grammar-en-beginner-simple_14_UK.mp4",
      "AnimeticCaptions": [
        {
          "Start": 0,
          "End": 2,
          "Text": "{have much time}",
          "Ruby": "hæv məʧ taɪm",
          "Lang": "en",
          "ProblemNo": 3,
          "Kind": 2
        },
        {
          "Start": 2,
          "End": 5,
          "Text": "English grammar exercises (British) #14 does not",
          "Ruby": "",
          "Lang": "",
          "ProblemNo": 0,
          "Kind": 0
        },
        {
          "Start": 5,
          "End": 8,
          "Text": "{We do not trust him}",
          "Ruby": "wi du nɑt trəst ɪm",
          "Lang": "en",
          "ProblemNo": 0,
          "Kind": 1
        },
        {
          "Start": 8,
          "End": 9,
          "Text": "{She}",
          "Ruby": "ʃi",
          "Lang": "en",
          "ProblemNo": 0,
          "Kind": 2
        },
        {
          "Start": 9,
          "End": 10,
          "Text": "{does not}",
          "Ruby": "dɪz nɑt",
          "Lang": "en",
          "ProblemNo": 0,
          "Kind": 2
        },
        {
          "Start": 10,
          "End": 14,
          "Text": "{She does not trust him}",
          "Ruby": "ʃi dɪz nɑt trəst ɪm",
          "Lang": "en",
          "ProblemNo": 0,
          "Kind": 3
        },
        {
          "Start": 14,
          "End": 19,
          "Text": "{She does not trust him}",
          "Ruby": "ʃi dɪz nɑt trəst ɪm",
          "Lang": "en",
          "ProblemNo": 0,
          "Kind": 4
        },
        {
          "Start": 19,
          "End": 22,
          "Text": "{She does not trust him}",
          "Ruby": "ʃi dɪz nɑt trəst ɪm",
          "Lang": "en",
          "ProblemNo": 1,
          "Kind": 1
        },
        {
          "Start": 22,
          "End": 23,
          "Text": "{Our father}",
          "Ruby": "ɑr ˈfɑðər",
          "Lang": "en",
          "ProblemNo": 1,
          "Kind": 2
        },
        {
          "Start": 23,
          "End": 24,
          "Text": "{does not}",
          "Ruby": "dɪz nɑt",
          "Lang": "en",
          "ProblemNo": 1,
          "Kind": 2
        },
        {
          "Start": 24,
          "End": 28,
          "Text": "{Our father does not trust him}",
          "Ruby": "ɑr ˈfɑðər dɪz nɑt trəst ɪm",
          "Lang": "en",
          "ProblemNo": 1,
          "Kind": 3
        },
        {
          "Start": 28,
          "End": 33,
          "Text": "{Our father does not trust him}",
          "Ruby": "ɑr ˈfɑðər dɪz nɑt trəst ɪm",
          "Lang": "en",
          "ProblemNo": 1,
          "Kind": 4
        },
        {
          "Start": 33,
          "End": 36,
          "Text": "{Our father does not trust him}",
          "Ruby": "ɑr ˈfɑðər dɪz nɑt trəst ɪm",
          "Lang": "en",
          "ProblemNo": 2,
          "Kind": 1
        },
        {
          "Start": 36,
          "End": 37,
          "Text": "{You}",
          "Ruby": "ju",
          "Lang": "en",
          "ProblemNo": 2,
          "Kind": 2
        },
        {
          "Start": 37,
          "End": 38,
          "Text": "{do not}",
          "Ruby": "du nɑt",
          "Lang": "en",
          "ProblemNo": 2,
          "Kind": 2
        },
        {
          "Start": 38,
          "End": 42,
          "Text": "{You do not trust him}",
          "Ruby": "ju du nɑt trəst ɪm",
          "Lang": "en",
          "ProblemNo": 2,
          "Kind": 3
        },
        {
          "Start": 42,
          "End": 47,
          "Text": "{You do not trust him}",
          "Ruby": "ju du nɑt trəst ɪm",
          "Lang": "en",
          "ProblemNo": 2,
          "Kind": 4
        },
        {
          "Start": 47,
          "End": 50,
          "Text": "{You do not trust him}",
          "Ruby": "ju du nɑt trəst ɪm",
          "Lang": "en",
          "ProblemNo": 3,
          "Kind": 1
        },
        {
          "Start": 50,
          "End": 52,
          "Text": "{have much time}",
          "Ruby": "hæv məʧ taɪm",
          "Lang": "en",
          "ProblemNo": 3,
          "Kind": 2
        },
        {
          "Start": 52,
          "End": 56,
          "Text": "{You do not have much time}",
          "Ruby": "ju du nɑt hæv məʧ taɪm",
          "Lang": "en",
          "ProblemNo": 3,
          "Kind": 3
        },
        {
          "Start": 56,
          "End": 61,
          "Text": "{You do not have much time}",
          "Ruby": "ju du nɑt hæv məʧ taɪm",
          "Lang": "en",
          "ProblemNo": 3,
          "Kind": 4
        },
        {
          "Start": 61,
          "End": 64,
          "Text": "{You do not have much time}",
          "Ruby": "ju du nɑt hæv məʧ taɪm",
          "Lang": "en",
          "ProblemNo": 4,
          "Kind": 1
        },
        {
          "Start": 64,
          "End": 65,
          "Text": "{Our father}",
          "Ruby": "ɑr ˈfɑðər",
          "Lang": "en",
          "ProblemNo": 4,
          "Kind": 2
        },
        {
          "Start": 65,
          "End": 66,
          "Text": "{does not}",
          "Ruby": "dɪz nɑt",
          "Lang": "en",
          "ProblemNo": 4,
          "Kind": 2
        },
        {
          "Start": 66,
          "End": 71,
          "Text": "{Our father does not have much time}",
          "Ruby": "ɑr ˈfɑðər dɪz nɑt hæv məʧ taɪm",
          "Lang": "en",
          "ProblemNo": 4,
          "Kind": 3
        },
        {
          "Start": 71,
          "End": 77,
          "Text": "{Our father does not have much time}",
          "Ruby": "ɑr ˈfɑðər dɪz nɑt hæv məʧ taɪm",
          "Lang": "en",
          "ProblemNo": 4,
          "Kind": 4
        },
        {
          "Start": 77,
          "End": 80,
          "Text": "",
          "Ruby": "",
          "Lang": "",
          "ProblemNo": 0,
          "Kind": 5
        },
        {
          "Start": 80,
          "End": 83,
          "Text": "{We do not trust him}",
          "Ruby": "wi du nɑt trəst ɪm",
          "Lang": "en",
          "ProblemNo": 0,
          "Kind": 1
        },
        {
          "Start": 83,
          "End": 84,
          "Text": "{She}",
          "Ruby": "ʃi",
          "Lang": "en",
          "ProblemNo": 0,
          "Kind": 2
        },
        {
          "Start": 84,
          "End": 88,
          "Text": "{She does not trust him}",
          "Ruby": "ʃi dɪz nɑt trəst ɪm",
          "Lang": "en",
          "ProblemNo": 0,
          "Kind": 3
        },
        {
          "Start": 88,
          "End": 93,
          "Text": "{She does not trust him}",
          "Ruby": "ʃi dɪz nɑt trəst ɪm",
          "Lang": "en",
          "ProblemNo": 0,
          "Kind": 4
        },
        {
          "Start": 93,
          "End": 96,
          "Text": "{She does not trust him}",
          "Ruby": "ʃi dɪz nɑt trəst ɪm",
          "Lang": "en",
          "ProblemNo": 1,
          "Kind": 1
        },
        {
          "Start": 96,
          "End": 97,
          "Text": "{Our father}",
          "Ruby": "ɑr ˈfɑðər",
          "Lang": "en",
          "ProblemNo": 1,
          "Kind": 2
        },
        {
          "Start": 97,
          "End": 101,
          "Text": "{Our father does not trust him}",
          "Ruby": "ɑr ˈfɑðər dɪz nɑt trəst ɪm",
          "Lang": "en",
          "ProblemNo": 1,
          "Kind": 3
        },
        {
          "Start": 101,
          "End": 106,
          "Text": "{Our father does not trust him}",
          "Ruby": "ɑr ˈfɑðər dɪz nɑt trəst ɪm",
          "Lang": "en",
          "ProblemNo": 1,
          "Kind": 4
        },
        {
          "Start": 106,
          "End": 109,
          "Text": "{Our father does not trust him}",
          "Ruby": "ɑr ˈfɑðər dɪz nɑt trəst ɪm",
          "Lang": "en",
          "ProblemNo": 2,
          "Kind": 1
        },
        {
          "Start": 109,
          "End": 110,
          "Text": "{You}",
          "Ruby": "ju",
          "Lang": "en",
          "ProblemNo": 2,
          "Kind": 2
        },
        {
          "Start": 110,
          "End": 114,
          "Text": "{You do not trust him}",
          "Ruby": "ju du nɑt trəst ɪm",
          "Lang": "en",
          "ProblemNo": 2,
          "Kind": 3
        },
        {
          "Start": 114,
          "End": 119,
          "Text": "{You do not trust him}",
          "Ruby": "ju du nɑt trəst ɪm",
          "Lang": "en",
          "ProblemNo": 2,
          "Kind": 4
        },
        {
          "Start": 119,
          "End": 122,
          "Text": "{You do not trust him}",
          "Ruby": "ju du nɑt trəst ɪm",
          "Lang": "en",
          "ProblemNo": 3,
          "Kind": 1
        },
        {
          "Start": 122,
          "End": 124,
          "Text": "{have much time}",
          "Ruby": "hæv məʧ taɪm",
          "Lang": "en",
          "ProblemNo": 3,
          "Kind": 2
        },
        {
          "Start": 124,
          "End": 128,
          "Text": "{You do not have much time}",
          "Ruby": "ju du nɑt hæv məʧ taɪm",
          "Lang": "en",
          "ProblemNo": 3,
          "Kind": 3
        },
        {
          "Start": 128,
          "End": 133,
          "Text": "{You do not have much time}",
          "Ruby": "ju du nɑt hæv məʧ taɪm",
          "Lang": "en",
          "ProblemNo": 3,
          "Kind": 4
        },
        {
          "Start": 133,
          "End": 136,
          "Text": "{You do not have much time}",
          "Ruby": "ju du nɑt hæv məʧ taɪm",
          "Lang": "en",
          "ProblemNo": 4,
          "Kind": 1
        },
        {
          "Start": 136,
          "End": 137,
          "Text": "{Our father}",
          "Ruby": "ɑr ˈfɑðər",
          "Lang": "en",
          "ProblemNo": 4,
          "Kind": 2
        },
        {
          "Start": 137,
          "End": 142,
          "Text": "{Our father does not have much time}",
          "Ruby": "ɑr ˈfɑðər dɪz nɑt hæv məʧ taɪm",
          "Lang": "en",
          "ProblemNo": 4,
          "Kind": 3
        },
        {
          "Start": 142,
          "End": 148,
          "Text": "{Our father does not have much time}",
          "Ruby": "ɑr ˈfɑðər dɪz nɑt hæv məʧ taɪm",
          "Lang": "en",
          "ProblemNo": 4,
          "Kind": 4
        },
        {
          "Start": 148,
          "End": 151,
          "Text": "",
          "Ruby": "",
          "Lang": "",
          "ProblemNo": 0,
          "Kind": 5
        },
        {
          "Start": 151,
          "End": 154,
          "Text": "{We do not trust him}",
          "Ruby": "wi du nɑt trəst ɪm",
          "Lang": "en",
          "ProblemNo": 0,
          "Kind": 1
        },
        {
          "Start": 154,
          "End": 155,
          "Text": "{She}",
          "Ruby": "ʃi",
          "Lang": "en",
          "ProblemNo": 0,
          "Kind": 2
        },
        {
          "Start": 155,
          "End": 159,
          "Text": "{She does not trust him}",
          "Ruby": "ʃi dɪz nɑt trəst ɪm",
          "Lang": "en",
          "ProblemNo": 0,
          "Kind": 3
        },
        {
          "Start": 159,
          "End": 164,
          "Text": "{She does not trust him}",
          "Ruby": "ʃi dɪz nɑt trəst ɪm",
          "Lang": "en",
          "ProblemNo": 0,
          "Kind": 4
        },
        {
          "Start": 164,
          "End": 167,
          "Text": "{She does not trust him}",
          "Ruby": "ʃi dɪz nɑt trəst ɪm",
          "Lang": "en",
          "ProblemNo": 1,
          "Kind": 1
        },
        {
          "Start": 167,
          "End": 168,
          "Text": "{Our father}",
          "Ruby": "ɑr ˈfɑðər",
          "Lang": "en",
          "ProblemNo": 1,
          "Kind": 2
        },
        {
          "Start": 168,
          "End": 172,
          "Text": "{Our father does not trust him}",
          "Ruby": "ɑr ˈfɑðər dɪz nɑt trəst ɪm",
          "Lang": "en",
          "ProblemNo": 1,
          "Kind": 3
        },
        {
          "Start": 172,
          "End": 177,
          "Text": "{Our father does not trust him}",
          "Ruby": "ɑr ˈfɑðər dɪz nɑt trəst ɪm",
          "Lang": "en",
          "ProblemNo": 1,
          "Kind": 4
        },
        {
          "Start": 177,
          "End": 180,
          "Text": "{Our father does not trust him}",
          "Ruby": "ɑr ˈfɑðər dɪz nɑt trəst ɪm",
          "Lang": "en",
          "ProblemNo": 2,
          "Kind": 1
        },
        {
          "Start": 180,
          "End": 181,
          "Text": "{You}",
          "Ruby": "ju",
          "Lang": "en",
          "ProblemNo": 2,
          "Kind": 2
        },
        {
          "Start": 181,
          "End": 185,
          "Text": "{You do not trust him}",
          "Ruby": "ju du nɑt trəst ɪm",
          "Lang": "en",
          "ProblemNo": 2,
          "Kind": 3
        },
        {
          "Start": 185,
          "End": 190,
          "Text": "{You do not trust him}",
          "Ruby": "ju du nɑt trəst ɪm",
          "Lang": "en",
          "ProblemNo": 2,
          "Kind": 4
        },
        {
          "Start": 190,
          "End": 193,
          "Text": "{You do not trust him}",
          "Ruby": "ju du nɑt trəst ɪm",
          "Lang": "en",
          "ProblemNo": 3,
          "Kind": 1
        },
        {
          "Start": 193,
          "End": 195,
          "Text": "{have much time}",
          "Ruby": "hæv məʧ taɪm",
          "Lang": "en",
          "ProblemNo": 3,
          "Kind": 2
        },
        {
          "Start": 195,
          "End": 199,
          "Text": "{You do not have much time}",
          "Ruby": "ju du nɑt hæv məʧ taɪm",
          "Lang": "en",
          "ProblemNo": 3,
          "Kind": 3
        },
        {
          "Start": 199,
          "End": 204,
          "Text": "{You do not have much time}",
          "Ruby": "ju du nɑt hæv məʧ taɪm",
          "Lang": "en",
          "ProblemNo": 3,
          "Kind": 4
        },
        {
          "Start": 204,
          "End": 207,
          "Text": "{You do not have much time}",
          "Ruby": "ju du nɑt hæv məʧ taɪm",
          "Lang": "en",
          "ProblemNo": 4,
          "Kind": 1
        },
        {
          "Start": 207,
          "End": 208,
          "Text": "{Our father}",
          "Ruby": "ɑr ˈfɑðər",
          "Lang": "en",
          "ProblemNo": 4,
          "Kind": 2
        },
        {
          "Start": 208,
          "End": 213,
          "Text": "{Our father does not have much time}",
          "Ruby": "ɑr ˈfɑðər dɪz nɑt hæv məʧ taɪm",
          "Lang": "en",
          "ProblemNo": 4,
          "Kind": 3
        },
        {
          "Start": 213,
          "End": 219,
          "Text": "{Our father does not have much time}",
          "Ruby": "ɑr ˈfɑðər dɪz nɑt hæv məʧ taɪm",
          "Lang": "en",
          "ProblemNo": 4,
          "Kind": 4
        },
        {
          "Start": 219,
          "End": 222,
          "Text": "",
          "Ruby": "",
          "Lang": "",
          "ProblemNo": 0,
          "Kind": 5
        },
        {
          "Start": 222,
          "End": 242,
          "Text": "{Please subscribe!}",
          "Ruby": "",
          "Lang": "en",
          "ProblemNo": 0,
          "Kind": 7
        }
      ]
    }
  ],
  "CannotChange": true
}