{
  "SerieName": "grammar-en-beginner-simple",
  "No": 88,
  "VideoTitle": "need",
  "ThumbnailTitle": "",
  "YoutubeDescription": "",
  "YoutubeTitle": "",
  "Boxes": [
    {
      "Pos": 0,
      "PersonName": "u",
      "Candidates": [
        {
          "Word": "They",
          "Root": "",
          "FeatureSet": null,
          "Conditions": [
            {
              "Pos": 1,
              "Morphemes": [
                {
                  "Word": "",
                  "Root": "",
                  "FeatureSet": [
                    "ns"
                  ]
                }
              ]
            }
          ],
          "PersonConditions": null
        },
        {
          "Word": "My father",
          "Root": "",
          "FeatureSet": null,
          "Conditions": [
            {
              "Pos": 1,
              "Morphemes": [
                {
                  "Word": "",
                  "Root": "",
                  "FeatureSet": [
                    "s"
                  ]
                }
              ]
            }
          ],
          "PersonConditions": null
        }
      ]
    },
    {
      "Pos": 1,
      "PersonName": "u",
      "Candidates": [
        {
          "Word": "need",
          "Root": "need",
          "FeatureSet": [
            "ns"
          ],
          "Conditions": null,
          "PersonConditions": null
        },
        {
          "Word": "needs",
          "Root": "need",
          "FeatureSet": [
            "s"
          ],
          "Conditions": null,
          "PersonConditions": null
        },
        {
          "Word": "do not need",
          "Root": "not need",
          "FeatureSet": [
            "ns"
          ],
          "Conditions": null,
          "PersonConditions": null
        },
        {
          "Word": "does not need",
          "Root": "not need",
          "FeatureSet": [
            "s"
          ],
          "Conditions": null,
          "PersonConditions": null
        }
      ]
    },
    {
      "Pos": 2,
      "PersonName": "u",
      "Candidates": [
        {
          "Word": "to",
          "Root": "",
          "FeatureSet": null,
          "Conditions": null,
          "PersonConditions": null
        }
      ]
    },
    {
      "Pos": 3,
      "PersonName": "u",
      "Candidates": [
        {
          "Word": "run",
          "Root": "",
          "FeatureSet": null,
          "Conditions": null,
          "PersonConditions": null
        },
        {
          "Word": "pass the exam",
          "Root": "",
          "FeatureSet": null,
          "Conditions": null,
          "PersonConditions": null
        },
        {
          "Word": "hurry",
          "Root": "",
          "FeatureSet": null,
          "Conditions": null,
          "PersonConditions": null
        }
      ]
    }
  ],
  "Pars": [
    {
      "Header": "",
      "Poses": [
        0,
        1,
        2,
        3
      ]
    }
  ],
  "Exercises": [
    {
      "Name": "A",
      "Problems": [
        {
          "ProblemNo": 0,
          "OriginalCandidates": [
            {
              "Word": "They",
              "Ruby": "ðe"
            },
            {
              "Word": "need",
              "Ruby": "nid"
            },
            {
              "Word": "to",
              "Ruby": "tɪ"
            },
            {
              "Word": "run",
              "Ruby": "rən"
            }
          ],
          "ChangeCandidatePos": 0,
          "ChangeCandidates": [
            {
              "Word": "My father",
              "Ruby": "maɪ ˈfɑðər"
            },
            {
              "Word": "needs",
              "Ruby": "nidz"
            },
            {
              "Word": "",
              "Ruby": ""
            },
            {
              "Word": "",
              "Ruby": ""
            }
          ],
          "ChangeMorphemes": [
            {
              "Word": "My father",
              "Root": "",
              "FeatureSet": null
            },
            {
              "Word": "",
              "Root": "",
              "FeatureSet": [
                "s"
              ]
            },
            {
              "Word": "",
              "Root": "",
              "FeatureSet": null
            },
            {
              "Word": "",
              "Root": "",
              "FeatureSet": null
            }
          ],
          "AnswerCandidates": [
            {
              "Word": "My father",
              "Ruby": "maɪ ˈfɑðər"
            },
            {
              "Word": "needs",
              "Ruby": "nidz"
            },
            {
              "Word": "to",
              "Ruby": "tɪ"
            },
            {
              "Word": "run",
              "Ruby": "rən"
            }
          ]
        },
        {
          "ProblemNo": 1,
          "OriginalCandidates": [
            {
              "Word": "My father",
              "Ruby": "maɪ ˈfɑðər"
            },
            {
              "Word": "needs",
              "Ruby": "nidz"
            },
            {
              "Word": "to",
              "Ruby": "tɪ"
            },
            {
              "Word": "run",
              "Ruby": "rən"
            }
          ],
          "ChangeCandidatePos": 3,
          "ChangeCandidates": [
            {
              "Word": "",
              "Ruby": ""
            },
            {
              "Word": "",
              "Ruby": ""
            },
            {
              "Word": "",
              "Ruby": ""
            },
            {
              "Word": "pass the exam",
              "Ruby": "pæs ðə ɪgˈzæm"
            }
          ],
          "ChangeMorphemes": [
            {
              "Word": "",
              "Root": "",
              "FeatureSet": null
            },
            {
              "Word": "",
              "Root": "",
              "FeatureSet": null
            },
            {
              "Word": "",
              "Root": "",
              "FeatureSet": null
            },
            {
              "Word": "pass the exam",
              "Root": "",
              "FeatureSet": null
            }
          ],
          "AnswerCandidates": [
            {
              "Word": "My father",
              "Ruby": "maɪ ˈfɑðər"
            },
            {
              "Word": "needs",
              "Ruby": "nidz"
            },
            {
              "Word": "to",
              "Ruby": "tɪ"
            },
            {
              "Word": "pass the exam",
              "Ruby": "pæs ðə ɪgˈzæm"
            }
          ]
        },
        {
          "ProblemNo": 2,
          "OriginalCandidates": [
            {
              "Word": "My father",
              "Ruby": "maɪ ˈfɑðər"
            },
            {
              "Word": "needs",
              "Ruby": "nidz"
            },
            {
              "Word": "to",
              "Ruby": "tɪ"
            },
            {
              "Word": "pass the exam",
              "Ruby": "pæs ðə ɪgˈzæm"
            }
          ],
          "ChangeCandidatePos": 0,
          "ChangeCandidates": [
            {
              "Word": "They",
              "Ruby": "ðe"
            },
            {
              "Word": "need",
              "Ruby": "nid"
            },
            {
              "Word": "",
              "Ruby": ""
            },
            {
              "Word": "",
              "Ruby": ""
            }
          ],
          "ChangeMorphemes": [
            {
              "Word": "They",
              "Root": "",
              "FeatureSet": null
            },
            {
              "Word": "",
              "Root": "",
              "FeatureSet": [
                "ns"
              ]
            },
            {
              "Word": "",
              "Root": "",
              "FeatureSet": null
            },
            {
              "Word": "",
              "Root": "",
              "FeatureSet": null
            }
          ],
          "AnswerCandidates": [
            {
              "Word": "They",
              "Ruby": "ðe"
            },
            {
              "Word": "need",
              "Ruby": "nid"
            },
            {
              "Word": "to",
              "Ruby": "tɪ"
            },
            {
              "Word": "pass the exam",
              "Ruby": "pæs ðə ɪgˈzæm"
            }
          ]
        },
        {
          "ProblemNo": 3,
          "OriginalCandidates": [
            {
              "Word": "They",
              "Ruby": "ðe"
            },
            {
              "Word": "need",
              "Ruby": "nid"
            },
            {
              "Word": "to",
              "Ruby": "tɪ"
            },
            {
              "Word": "pass the exam",
              "Ruby": "pæs ðə ɪgˈzæm"
            }
          ],
          "ChangeCandidatePos": 3,
          "ChangeCandidates": [
            {
              "Word": "",
              "Ruby": ""
            },
            {
              "Word": "",
              "Ruby": ""
            },
            {
              "Word": "",
              "Ruby": ""
            },
            {
              "Word": "hurry",
              "Ruby": "ˈhəri"
            }
          ],
          "ChangeMorphemes": [
            {
              "Word": "",
              "Root": "",
              "FeatureSet": null
            },
            {
              "Word": "",
              "Root": "",
              "FeatureSet": null
            },
            {
              "Word": "",
              "Root": "",
              "FeatureSet": null
            },
            {
              "Word": "hurry",
              "Root": "",
              "FeatureSet": null
            }
          ],
          "AnswerCandidates": [
            {
              "Word": "They",
              "Ruby": "ðe"
            },
            {
              "Word": "need",
              "Ruby": "nid"
            },
            {
              "Word": "to",
              "Ruby": "tɪ"
            },
            {
              "Word": "hurry",
              "Ruby": "ˈhəri"
            }
          ]
        },
        {
          "ProblemNo": 4,
          "OriginalCandidates": [
            {
              "Word": "They",
              "Ruby": "ðe"
            },
            {
              "Word": "need",
              "Ruby": "nid"
            },
            {
              "Word": "to",
              "Ruby": "tɪ"
            },
            {
              "Word": "hurry",
              "Ruby": "ˈhəri"
            }
          ],
          "ChangeCandidatePos": 0,
          "ChangeCandidates": [
            {
              "Word": "My father",
              "Ruby": "maɪ ˈfɑðər"
            },
            {
              "Word": "needs",
              "Ruby": "nidz"
            },
            {
              "Word": "",
              "Ruby": ""
            },
            {
              "Word": "",
              "Ruby": ""
            }
          ],
          "ChangeMorphemes": [
            {
              "Word": "My father",
              "Root": "",
              "FeatureSet": null
            },
            {
              "Word": "",
              "Root": "",
              "FeatureSet": [
                "s"
              ]
            },
            {
              "Word": "",
              "Root": "",
              "FeatureSet": null
            },
            {
              "Word": "",
              "Root": "",
              "FeatureSet": null
            }
          ],
          "AnswerCandidates": [
            {
              "Word": "My father",
              "Ruby": "maɪ ˈfɑðər"
            },
            {
              "Word": "needs",
              "Ruby": "nidz"
            },
            {
              "Word": "to",
              "Ruby": "tɪ"
            },
            {
              "Word": "hurry",
              "Ruby": "ˈhəri"
            }
          ]
        }
      ],
      "VideoFile": "grammar-en-beginner-simple_88_A.mp4",
      "AnimeticCaptions": [
        {
          "Start": 0,
          "End": 1,
          "Text": "{hurry}",
          "Ruby": "ˈhəri",
          "Lang": "en",
          "ProblemNo": 3,
          "Kind": 2
        },
        {
          "Start": 1,
          "End": 4,
          "Text": "English grammar exercises #88 need",
          "Ruby": "",
          "Lang": "",
          "ProblemNo": 0,
          "Kind": 0
        },
        {
          "Start": 4,
          "End": 7,
          "Text": "{They need to run}",
          "Ruby": "ðe nid tɪ rən",
          "Lang": "en",
          "ProblemNo": 0,
          "Kind": 1
        },
        {
          "Start": 7,
          "End": 8,
          "Text": "{My father}",
          "Ruby": "maɪ ˈfɑðər",
          "Lang": "en",
          "ProblemNo": 0,
          "Kind": 2
        },
        {
          "Start": 8,
          "End": 9,
          "Text": "{needs}",
          "Ruby": "nidz",
          "Lang": "en",
          "ProblemNo": 0,
          "Kind": 2
        },
        {
          "Start": 9,
          "End": 13,
          "Text": "{My father needs to run}",
          "Ruby": "maɪ ˈfɑðər nidz tɪ rən",
          "Lang": "en",
          "ProblemNo": 0,
          "Kind": 3
        },
        {
          "Start": 13,
          "End": 18,
          "Text": "{My father needs to run}",
          "Ruby": "maɪ ˈfɑðər nidz tɪ rən",
          "Lang": "en",
          "ProblemNo": 0,
          "Kind": 4
        },
        {
          "Start": 18,
          "End": 21,
          "Text": "{My father needs to run}",
          "Ruby": "maɪ ˈfɑðər nidz tɪ rən",
          "Lang": "en",
          "ProblemNo": 1,
          "Kind": 1
        },
        {
          "Start": 21,
          "End": 23,
          "Text": "{pass the exam}",
          "Ruby": "pæs ðə ɪgˈzæm",
          "Lang": "en",
          "ProblemNo": 1,
          "Kind": 2
        },
        {
          "Start": 23,
          "End": 28,
          "Text": "{My father needs to pass the exam}",
          "Ruby": "maɪ ˈfɑðər nidz tɪ pæs ðə ɪgˈzæm",
          "Lang": "en",
          "ProblemNo": 1,
          "Kind": 3
        },
        {
          "Start": 28,
          "End": 34,
          "Text": "{My father needs to pass the exam}",
          "Ruby": "maɪ ˈfɑðər nidz tɪ pæs ðə ɪgˈzæm",
          "Lang": "en",
          "ProblemNo": 1,
          "Kind": 4
        },
        {
          "Start": 34,
          "End": 38,
          "Text": "{My father needs to pass the exam}",
          "Ruby": "maɪ ˈfɑðər nidz tɪ pæs ðə ɪgˈzæm",
          "Lang": "en",
          "ProblemNo": 2,
          "Kind": 1
        },
        {
          "Start": 38,
          "End": 39,
          "Text": "{They}",
          "Ruby": "ðe",
          "Lang": "en",
          "ProblemNo": 2,
          "Kind": 2
        },
        {
          "Start": 39,
          "End": 40,
          "Text": "{need}",
          "Ruby": "nid",
          "Lang": "en",
          "ProblemNo": 2,
          "Kind": 2
        },
        {
          "Start": 40,
          "End": 44,
          "Text": "{They need to pass the exam}",
          "Ruby": "ðe nid tɪ pæs ðə ɪgˈzæm",
          "Lang": "en",
          "ProblemNo": 2,
          "Kind": 3
        },
        {
          "Start": 44,
          "End": 49,
          "Text": "{They need to pass the exam}",
          "Ruby": "ðe nid tɪ pæs ðə ɪgˈzæm",
          "Lang": "en",
          "ProblemNo": 2,
          "Kind": 4
        },
        {
          "Start": 49,
          "End": 52,
          "Text": "{They need to pass the exam}",
          "Ruby": "ðe nid tɪ pæs ðə ɪgˈzæm",
          "Lang": "en",
          "ProblemNo": 3,
          "Kind": 1
        },
        {
          "Start": 52,
          "End": 53,
          "Text": "{hurry}",
          "Ruby": "ˈhəri",
          "Lang": "en",
          "ProblemNo": 3,
          "Kind": 2
        },
        {
          "Start": 53,
          "End": 57,
          "Text": "{They need to hurry}",
          "Ruby": "ðe nid tɪ ˈhəri",
          "Lang": "en",
          "ProblemNo": 3,
          "Kind": 3
        },
        {
          "Start": 57,
          "End": 62,
          "Text": "{They need to hurry}",
          "Ruby": "ðe nid tɪ ˈhəri",
          "Lang": "en",
          "ProblemNo": 3,
          "Kind": 4
        },
        {
          "Start": 62,
          "End": 65,
          "Text": "{They need to hurry}",
          "Ruby": "ðe nid tɪ ˈhəri",
          "Lang": "en",
          "ProblemNo": 4,
          "Kind": 1
        },
        {
          "Start": 65,
          "End": 66,
          "Text": "{My father}",
          "Ruby": "maɪ ˈfɑðər",
          "Lang": "en",
          "ProblemNo": 4,
          "Kind": 2
        },
        {
          "Start": 66,
          "End": 67,
          "Text": "{needs}",
          "Ruby": "nidz",
          "Lang": "en",
          "ProblemNo": 4,
          "Kind": 2
        },
        {
          "Start": 67,
          "End": 71,
          "Text": "{My father needs to hurry}",
          "Ruby": "maɪ ˈfɑðər nidz tɪ ˈhəri",
          "Lang": "en",
          "ProblemNo": 4,
          "Kind": 3
        },
        {
          "Start": 71,
          "End": 76,
          "Text": "{My father needs to hurry}",
          "Ruby": "maɪ ˈfɑðər nidz tɪ ˈhəri",
          "Lang": "en",
          "ProblemNo": 4,
          "Kind": 4
        },
        {
          "Start": 76,
          "End": 79,
          "Text": "",
          "Ruby": "",
          "Lang": "",
          "ProblemNo": 0,
          "Kind": 5
        },
        {
          "Start": 79,
          "End": 82,
          "Text": "{They need to run}",
          "Ruby": "ðe nid tɪ rən",
          "Lang": "en",
          "ProblemNo": 0,
          "Kind": 1
        },
        {
          "Start": 82,
          "End": 83,
          "Text": "{My father}",
          "Ruby": "maɪ ˈfɑðər",
          "Lang": "en",
          "ProblemNo": 0,
          "Kind": 2
        },
        {
          "Start": 83,
          "End": 87,
          "Text": "{My father needs to run}",
          "Ruby": "maɪ ˈfɑðər nidz tɪ rən",
          "Lang": "en",
          "ProblemNo": 0,
          "Kind": 3
        },
        {
          "Start": 87,
          "End": 92,
          "Text": "{My father needs to run}",
          "Ruby": "maɪ ˈfɑðər nidz tɪ rən",
          "Lang": "en",
          "ProblemNo": 0,
          "Kind": 4
        },
        {
          "Start": 92,
          "End": 95,
          "Text": "{My father needs to run}",
          "Ruby": "maɪ ˈfɑðər nidz tɪ rən",
          "Lang": "en",
          "ProblemNo": 1,
          "Kind": 1
        },
        {
          "Start": 95,
          "End": 97,
          "Text": "{pass the exam}",
          "Ruby": "pæs ðə ɪgˈzæm",
          "Lang": "en",
          "ProblemNo": 1,
          "Kind": 2
        },
        {
          "Start": 97,
          "End": 102,
          "Text": "{My father needs to pass the exam}",
          "Ruby": "maɪ ˈfɑðər nidz tɪ pæs ðə ɪgˈzæm",
          "Lang": "en",
          "ProblemNo": 1,
          "Kind": 3
        },
        {
          "Start": 102,
          "End": 108,
          "Text": "{My father needs to pass the exam}",
          "Ruby": "maɪ ˈfɑðər nidz tɪ pæs ðə ɪgˈzæm",
          "Lang": "en",
          "ProblemNo": 1,
          "Kind": 4
        },
        {
          "Start": 108,
          "End": 112,
          "Text": "{My father needs to pass the exam}",
          "Ruby": "maɪ ˈfɑðər nidz tɪ pæs ðə ɪgˈzæm",
          "Lang": "en",
          "ProblemNo": 2,
          "Kind": 1
        },
        {
          "Start": 112,
          "End": 113,
          "Text": "{They}",
          "Ruby": "ðe",
          "Lang": "en",
          "ProblemNo": 2,
          "Kind": 2
        },
        {
          "Start": 113,
          "End": 117,
          "Text": "{They need to pass the exam}",
          "Ruby": "ðe nid tɪ pæs ðə ɪgˈzæm",
          "Lang": "en",
          "ProblemNo": 2,
          "Kind": 3
        },
        {
          "Start": 117,
          "End": 122,
          "Text": "{They need to pass the exam}",
          "Ruby": "ðe nid tɪ pæs ðə ɪgˈzæm",
          "Lang": "en",
          "ProblemNo": 2,
          "Kind": 4
        },
        {
          "Start": 122,
          "End": 125,
          "Text": "{They need to pass the exam}",
          "Ruby": "ðe nid tɪ pæs ðə ɪgˈzæm",
          "Lang": "en",
          "ProblemNo": 3,
          "Kind": 1
        },
        {
          "Start": 125,
          "End": 126,
          "Text": "{hurry}",
          "Ruby": "ˈhəri",
          "Lang": "en",
          "ProblemNo": 3,
          "Kind": 2
        },
        {
          "Start": 126,
          "End": 130,
          "Text": "{They need to hurry}",
          "Ruby": "ðe nid tɪ ˈhəri",
          "Lang": "en",
          "ProblemNo": 3,
          "Kind": 3
        },
        {
          "Start": 130,
          "End": 135,
          "Text": "{They need to hurry}",
          "Ruby": "ðe nid tɪ ˈhəri",
          "Lang": "en",
          "ProblemNo": 3,
          "Kind": 4
        },
        {
          "Start": 135,
          "End": 138,
          "Text": "{They need to hurry}",
          "Ruby": "ðe nid tɪ ˈhəri",
          "Lang": "en",
          "ProblemNo": 4,
          "Kind": 1
        },
        {
          "Start": 138,
          "End": 139,
          "Text": "{My father}",
          "Ruby": "maɪ ˈfɑðər",
          "Lang": "en",
          "ProblemNo": 4,
          "Kind": 2
        },
        {
          "Start": 139,
          "End": 143,
          "Text": "{My father needs to hurry}",
          "Ruby": "maɪ ˈfɑðər nidz tɪ ˈhəri",
          "Lang": "en",
          "ProblemNo": 4,
          "Kind": 3
        },
        {
          "Start": 143,
          "End": 148,
          "Text": "{My father needs to hurry}",
          "Ruby": "maɪ ˈfɑðər nidz tɪ ˈhəri",
          "Lang": "en",
          "ProblemNo": 4,
          "Kind": 4
        },
        {
          "Start": 148,
          "End": 151,
          "Text": "",
          "Ruby": "",
          "Lang": "",
          "ProblemNo": 0,
          "Kind": 5
        },
        {
          "Start": 151,
          "End": 154,
          "Text": "{They need to run}",
          "Ruby": "ðe nid tɪ rən",
          "Lang": "en",
          "ProblemNo": 0,
          "Kind": 1
        },
        {
          "Start": 154,
          "End": 155,
          "Text": "{My father}",
          "Ruby": "maɪ ˈfɑðər",
          "Lang": "en",
          "ProblemNo": 0,
          "Kind": 2
        },
        {
          "Start": 155,
          "End": 159,
          "Text": "{My father needs to run}",
          "Ruby": "maɪ ˈfɑðər nidz tɪ rən",
          "Lang": "en",
          "ProblemNo": 0,
          "Kind": 3
        },
        {
          "Start": 159,
          "End": 164,
          "Text": "{My father needs to run}",
          "Ruby": "maɪ ˈfɑðər nidz tɪ rən",
          "Lang": "en",
          "ProblemNo": 0,
          "Kind": 4
        },
        {
          "Start": 164,
          "End": 167,
          "Text": "{My father needs to run}",
          "Ruby": "maɪ ˈfɑðər nidz tɪ rən",
          "Lang": "en",
          "ProblemNo": 1,
          "Kind": 1
        },
        {
          "Start": 167,
          "End": 169,
          "Text": "{pass the exam}",
          "Ruby": "pæs ðə ɪgˈzæm",
          "Lang": "en",
          "ProblemNo": 1,
          "Kind": 2
        },
        {
          "Start": 169,
          "End": 174,
          "Text": "{My father needs to pass the exam}",
          "Ruby": "maɪ ˈfɑðər nidz tɪ pæs ðə ɪgˈzæm",
          "Lang": "en",
          "ProblemNo": 1,
          "Kind": 3
        },
        {
          "Start": 174,
          "End": 180,
          "Text": "{My father needs to pass the exam}",
          "Ruby": "maɪ ˈfɑðər nidz tɪ pæs ðə ɪgˈzæm",
          "Lang": "en",
          "ProblemNo": 1,
          "Kind": 4
        },
        {
          "Start": 180,
          "End": 184,
          "Text": "{My father needs to pass the exam}",
          "Ruby": "maɪ ˈfɑðər nidz tɪ pæs ðə ɪgˈzæm",
          "Lang": "en",
          "ProblemNo": 2,
          "Kind": 1
        },
        {
          "Start": 184,
          "End": 185,
          "Text": "{They}",
          "Ruby": "ðe",
          "Lang": "en",
          "ProblemNo": 2,
          "Kind": 2
        },
        {
          "Start": 185,
          "End": 189,
          "Text": "{They need to pass the exam}",
          "Ruby": "ðe nid tɪ pæs ðə ɪgˈzæm",
          "Lang": "en",
          "ProblemNo": 2,
          "Kind": 3
        },
        {
          "Start": 189,
          "End": 194,
          "Text": "{They need to pass the exam}",
          "Ruby": "ðe nid tɪ pæs ðə ɪgˈzæm",
          "Lang": "en",
          "ProblemNo": 2,
          "Kind": 4
        },
        {
          "Start": 194,
          "End": 197,
          "Text": "{They need to pass the exam}",
          "Ruby": "ðe nid tɪ pæs ðə ɪgˈzæm",
          "Lang": "en",
          "ProblemNo": 3,
          "Kind": 1
        },
        {
          "Start": 197,
          "End": 198,
          "Text": "{hurry}",
          "Ruby": "ˈhəri",
          "Lang": "en",
          "ProblemNo": 3,
          "Kind": 2
        },
        {
          "Start": 198,
          "End": 202,
          "Text": "{They need to hurry}",
          "Ruby": "ðe nid tɪ ˈhəri",
          "Lang": "en",
          "ProblemNo": 3,
          "Kind": 3
        },
        {
          "Start": 202,
          "End": 207,
          "Text": "{They need to hurry}",
          "Ruby": "ðe nid tɪ ˈhəri",
          "Lang": "en",
          "ProblemNo": 3,
          "Kind": 4
        },
        {
          "Start": 207,
          "End": 210,
          "Text": "{They need to hurry}",
          "Ruby": "ðe nid tɪ ˈhəri",
          "Lang": "en",
          "ProblemNo": 4,
          "Kind": 1
        },
        {
          "Start": 210,
          "End": 211,
          "Text": "{My father}",
          "Ruby": "maɪ ˈfɑðər",
          "Lang": "en",
          "ProblemNo": 4,
          "Kind": 2
        },
        {
          "Start": 211,
          "End": 215,
          "Text": "{My father needs to hurry}",
          "Ruby": "maɪ ˈfɑðər nidz tɪ ˈhəri",
          "Lang": "en",
          "ProblemNo": 4,
          "Kind": 3
        },
        {
          "Start": 215,
          "End": 220,
          "Text": "{My father needs to hurry}",
          "Ruby": "maɪ ˈfɑðər nidz tɪ ˈhəri",
          "Lang": "en",
          "ProblemNo": 4,
          "Kind": 4
        },
        {
          "Start": 220,
          "End": 223,
          "Text": "",
          "Ruby": "",
          "Lang": "",
          "ProblemNo": 0,
          "Kind": 5
        },
        {
          "Start": 223,
          "End": 243,
          "Text": "{Please subscribe!}",
          "Ruby": "",
          "Lang": "en",
          "ProblemNo": 0,
          "Kind": 7
        }
      ]
    },
    {
      "Name": "AU",
      "Problems": [
        {
          "ProblemNo": 0,
          "OriginalCandidates": [
            {
              "Word": "My father",
              "Ruby": "maɪ ˈfɑðər"
            },
            {
              "Word": "does not need",
              "Ruby": "dɪz nɑt nid"
            },
            {
              "Word": "to",
              "Ruby": "tɪ"
            },
            {
              "Word": "pass the exam",
              "Ruby": "pæs ðə ɪgˈzæm"
            }
          ],
          "ChangeCandidatePos": 0,
          "ChangeCandidates": [
            {
              "Word": "They",
              "Ruby": "ðe"
            },
            {
              "Word": "do not need",
              "Ruby": "du nɑt nid"
            },
            {
              "Word": "",
              "Ruby": ""
            },
            {
              "Word": "",
              "Ruby": ""
            }
          ],
          "ChangeMorphemes": [
            {
              "Word": "They",
              "Root": "",
              "FeatureSet": null
            },
            {
              "Word": "",
              "Root": "",
              "FeatureSet": [
                "ns"
              ]
            },
            {
              "Word": "",
              "Root": "",
              "FeatureSet": null
            },
            {
              "Word": "",
              "Root": "",
              "FeatureSet": null
            }
          ],
          "AnswerCandidates": [
            {
              "Word": "They",
              "Ruby": "ðe"
            },
            {
              "Word": "do not need",
              "Ruby": "du nɑt nid"
            },
            {
              "Word": "to",
              "Ruby": "tɪ"
            },
            {
              "Word": "pass the exam",
              "Ruby": "pæs ðə ɪgˈzæm"
            }
          ]
        },
        {
          "ProblemNo": 1,
          "OriginalCandidates": [
            {
              "Word": "They",
              "Ruby": "ðe"
            },
            {
              "Word": "do not need",
              "Ruby": "du nɑt nid"
            },
            {
              "Word": "to",
              "Ruby": "tɪ"
            },
            {
              "Word": "pass the exam",
              "Ruby": "pæs ðə ɪgˈzæm"
            }
          ],
          "ChangeCandidatePos": 3,
          "ChangeCandidates": [
            {
              "Word": "",
              "Ruby": ""
            },
            {
              "Word": "",
              "Ruby": ""
            },
            {
              "Word": "",
              "Ruby": ""
            },
            {
              "Word": "hurry",
              "Ruby": "ˈhəri"
            }
          ],
          "ChangeMorphemes": [
            {
              "Word": "",
              "Root": "",
              "FeatureSet": null
            },
            {
              "Word": "",
              "Root": "",
              "FeatureSet": null
            },
            {
              "Word": "",
              "Root": "",
              "FeatureSet": null
            },
            {
              "Word": "hurry",
              "Root": "",
              "FeatureSet": null
            }
          ],
          "AnswerCandidates": [
            {
              "Word": "They",
              "Ruby": "ðe"
            },
            {
              "Word": "do not need",
              "Ruby": "du nɑt nid"
            },
            {
              "Word": "to",
              "Ruby": "tɪ"
            },
            {
              "Word": "hurry",
              "Ruby": "ˈhəri"
            }
          ]
        },
        {
          "ProblemNo": 2,
          "OriginalCandidates": [
            {
              "Word": "They",
              "Ruby": "ðe"
            },
            {
              "Word": "do not need",
              "Ruby": "du nɑt nid"
            },
            {
              "Word": "to",
              "Ruby": "tɪ"
            },
            {
              "Word": "hurry",
              "Ruby": "ˈhəri"
            }
          ],
          "ChangeCandidatePos": 0,
          "ChangeCandidates": [
            {
              "Word": "My father",
              "Ruby": "maɪ ˈfɑðər"
            },
            {
              "Word": "does not need",
              "Ruby": "dɪz nɑt nid"
            },
            {
              "Word": "",
              "Ruby": ""
            },
            {
              "Word": "",
              "Ruby": ""
            }
          ],
          "ChangeMorphemes": [
            {
              "Word": "My father",
              "Root": "",
              "FeatureSet": null
            },
            {
              "Word": "",
              "Root": "",
              "FeatureSet": [
                "s"
              ]
            },
            {
              "Word": "",
              "Root": "",
              "FeatureSet": null
            },
            {
              "Word": "",
              "Root": "",
              "FeatureSet": null
            }
          ],
          "AnswerCandidates": [
            {
              "Word": "My father",
              "Ruby": "maɪ ˈfɑðər"
            },
            {
              "Word": "does not need",
              "Ruby": "dɪz nɑt nid"
            },
            {
              "Word": "to",
              "Ruby": "tɪ"
            },
            {
              "Word": "hurry",
              "Ruby": "ˈhəri"
            }
          ]
        },
        {
          "ProblemNo": 3,
          "OriginalCandidates": [
            {
              "Word": "My father",
              "Ruby": "maɪ ˈfɑðər"
            },
            {
              "Word": "does not need",
              "Ruby": "dɪz nɑt nid"
            },
            {
              "Word": "to",
              "Ruby": "tɪ"
            },
            {
              "Word": "hurry",
              "Ruby": "ˈhəri"
            }
          ],
          "ChangeCandidatePos": 3,
          "ChangeCandidates": [
            {
              "Word": "",
              "Ruby": ""
            },
            {
              "Word": "",
              "Ruby": ""
            },
            {
              "Word": "",
              "Ruby": ""
            },
            {
              "Word": "run",
              "Ruby": "rən"
            }
          ],
          "ChangeMorphemes": [
            {
              "Word": "",
              "Root": "",
              "FeatureSet": null
            },
            {
              "Word": "",
              "Root": "",
              "FeatureSet": null
            },
            {
              "Word": "",
              "Root": "",
              "FeatureSet": null
            },
            {
              "Word": "run",
              "Root": "",
              "FeatureSet": null
            }
          ],
          "AnswerCandidates": [
            {
              "Word": "My father",
              "Ruby": "maɪ ˈfɑðər"
            },
            {
              "Word": "does not need",
              "Ruby": "dɪz nɑt nid"
            },
            {
              "Word": "to",
              "Ruby": "tɪ"
            },
            {
              "Word": "run",
              "Ruby": "rən"
            }
          ]
        },
        {
          "ProblemNo": 4,
          "OriginalCandidates": [
            {
              "Word": "My father",
              "Ruby": "maɪ ˈfɑðər"
            },
            {
              "Word": "does not need",
              "Ruby": "dɪz nɑt nid"
            },
            {
              "Word": "to",
              "Ruby": "tɪ"
            },
            {
              "Word": "run",
              "Ruby": "rən"
            }
          ],
          "ChangeCandidatePos": 1,
          "ChangeCandidates": [
            {
              "Word": "",
              "Ruby": ""
            },
            {
              "Word": "needs",
              "Ruby": "nidz"
            },
            {
              "Word": "",
              "Ruby": ""
            },
            {
              "Word": "",
              "Ruby": ""
            }
          ],
          "ChangeMorphemes": [
            {
              "Word": "",
              "Root": "",
              "FeatureSet": null
            },
            {
              "Word": "needs",
              "Root": "need",
              "FeatureSet": [
                "s"
              ]
            },
            {
              "Word": "",
              "Root": "",
              "FeatureSet": null
            },
            {
              "Word": "",
              "Root": "",
              "FeatureSet": null
            }
          ],
          "AnswerCandidates": [
            {
              "Word": "My father",
              "Ruby": "maɪ ˈfɑðər"
            },
            {
              "Word": "needs",
              "Ruby": "nidz"
            },
            {
              "Word": "to",
              "Ruby": "tɪ"
            },
            {
              "Word": "run",
              "Ruby": "rən"
            }
          ]
        }
      ],
      "VideoFile": "grammar-en-beginner-simple_88_AU.mp4",
      "AnimeticCaptions": [
        {
          "Start": 0,
          "End": 1,
          "Text": "{run}",
          "Ruby": "rən",
          "Lang": "en",
          "ProblemNo": 3,
          "Kind": 2
        },
        {
          "Start": 1,
          "End": 4,
          "Text": "English grammar exercises (Australia) #88 need",
          "Ruby": "",
          "Lang": "",
          "ProblemNo": 0,
          "Kind": 0
        },
        {
          "Start": 4,
          "End": 8,
          "Text": "{My father does not need to pass the exam}",
          "Ruby": "maɪ ˈfɑðər dɪz nɑt nid tɪ pæs ðə ɪgˈzæm",
          "Lang": "en",
          "ProblemNo": 0,
          "Kind": 1
        },
        {
          "Start": 8,
          "End": 9,
          "Text": "{They}",
          "Ruby": "ðe",
          "Lang": "en",
          "ProblemNo": 0,
          "Kind": 2
        },
        {
          "Start": 9,
          "End": 10,
          "Text": "{do not need}",
          "Ruby": "du nɑt nid",
          "Lang": "en",
          "ProblemNo": 0,
          "Kind": 2
        },
        {
          "Start": 10,
          "End": 14,
          "Text": "{They do not need to pass the exam}",
          "Ruby": "ðe du nɑt nid tɪ pæs ðə ɪgˈzæm",
          "Lang": "en",
          "ProblemNo": 0,
          "Kind": 3
        },
        {
          "Start": 14,
          "End": 19,
          "Text": "{They do not need to pass the exam}",
          "Ruby": "ðe du nɑt nid tɪ pæs ðə ɪgˈzæm",
          "Lang": "en",
          "ProblemNo": 0,
          "Kind": 4
        },
        {
          "Start": 19,
          "End": 22,
          "Text": "{They do not need to pass the exam}",
          "Ruby": "ðe du nɑt nid tɪ pæs ðə ɪgˈzæm",
          "Lang": "en",
          "ProblemNo": 1,
          "Kind": 1
        },
        {
          "Start": 22,
          "End": 23,
          "Text": "{hurry}",
          "Ruby": "ˈhəri",
          "Lang": "en",
          "ProblemNo": 1,
          "Kind": 2
        },
        {
          "Start": 23,
          "End": 27,
          "Text": "{They do not need to hurry}",
          "Ruby": "ðe du nɑt nid tɪ ˈhəri",
          "Lang": "en",
          "ProblemNo": 1,
          "Kind": 3
        },
        {
          "Start": 27,
          "End": 32,
          "Text": "{They do not need to hurry}",
          "Ruby": "ðe du nɑt nid tɪ ˈhəri",
          "Lang": "en",
          "ProblemNo": 1,
          "Kind": 4
        },
        {
          "Start": 32,
          "End": 35,
          "Text": "{They do not need to hurry}",
          "Ruby": "ðe du nɑt nid tɪ ˈhəri",
          "Lang": "en",
          "ProblemNo": 2,
          "Kind": 1
        },
        {
          "Start": 35,
          "End": 36,
          "Text": "{My father}",
          "Ruby": "maɪ ˈfɑðər",
          "Lang": "en",
          "ProblemNo": 2,
          "Kind": 2
        },
        {
          "Start": 36,
          "End": 37,
          "Text": "{does not need}",
          "Ruby": "dɪz nɑt nid",
          "Lang": "en",
          "ProblemNo": 2,
          "Kind": 2
        },
        {
          "Start": 37,
          "End": 41,
          "Text": "{My father does not need to hurry}",
          "Ruby": "maɪ ˈfɑðər dɪz nɑt nid tɪ ˈhəri",
          "Lang": "en",
          "ProblemNo": 2,
          "Kind": 3
        },
        {
          "Start": 41,
          "End": 46,
          "Text": "{My father does not need to hurry}",
          "Ruby": "maɪ ˈfɑðər dɪz nɑt nid tɪ ˈhəri",
          "Lang": "en",
          "ProblemNo": 2,
          "Kind": 4
        },
        {
          "Start": 46,
          "End": 49,
          "Text": "{My father does not need to hurry}",
          "Ruby": "maɪ ˈfɑðər dɪz nɑt nid tɪ ˈhəri",
          "Lang": "en",
          "ProblemNo": 3,
          "Kind": 1
        },
        {
          "Start": 49,
          "End": 50,
          "Text": "{run}",
          "Ruby": "rən",
          "Lang": "en",
          "ProblemNo": 3,
          "Kind": 2
        },
        {
          "Start": 50,
          "End": 54,
          "Text": "{My father does not need to run}",
          "Ruby": "maɪ ˈfɑðər dɪz nɑt nid tɪ rən",
          "Lang": "en",
          "ProblemNo": 3,
          "Kind": 3
        },
        {
          "Start": 54,
          "End": 59,
          "Text": "{My father does not need to run}",
          "Ruby": "maɪ ˈfɑðər dɪz nɑt nid tɪ rən",
          "Lang": "en",
          "ProblemNo": 3,
          "Kind": 4
        },
        {
          "Start": 59,
          "End": 62,
          "Text": "{My father does not need to run}",
          "Ruby": "maɪ ˈfɑðər dɪz nɑt nid tɪ rən",
          "Lang": "en",
          "ProblemNo": 4,
          "Kind": 1
        },
        {
          "Start": 62,
          "End": 63,
          "Text": "{needs}",
          "Ruby": "nidz",
          "Lang": "en",
          "ProblemNo": 4,
          "Kind": 2
        },
        {
          "Start": 63,
          "End": 67,
          "Text": "{My father needs to run}",
          "Ruby": "maɪ ˈfɑðər nidz tɪ rən",
          "Lang": "en",
          "ProblemNo": 4,
          "Kind": 3
        },
        {
          "Start": 67,
          "End": 72,
          "Text": "{My father needs to run}",
          "Ruby": "maɪ ˈfɑðər nidz tɪ rən",
          "Lang": "en",
          "ProblemNo": 4,
          "Kind": 4
        },
        {
          "Start": 72,
          "End": 75,
          "Text": "",
          "Ruby": "",
          "Lang": "",
          "ProblemNo": 0,
          "Kind": 5
        },
        {
          "Start": 75,
          "End": 79,
          "Text": "{My father does not need to pass the exam}",
          "Ruby": "maɪ ˈfɑðər dɪz nɑt nid tɪ pæs ðə ɪgˈzæm",
          "Lang": "en",
          "ProblemNo": 0,
          "Kind": 1
        },
        {
          "Start": 79,
          "End": 80,
          "Text": "{They}",
          "Ruby": "ðe",
          "Lang": "en",
          "ProblemNo": 0,
          "Kind": 2
        },
        {
          "Start": 80,
          "End": 84,
          "Text": "{They do not need to pass the exam}",
          "Ruby": "ðe du nɑt nid tɪ pæs ðə ɪgˈzæm",
          "Lang": "en",
          "ProblemNo": 0,
          "Kind": 3
        },
        {
          "Start": 84,
          "End": 89,
          "Text": "{They do not need to pass the exam}",
          "Ruby": "ðe du nɑt nid tɪ pæs ðə ɪgˈzæm",
          "Lang": "en",
          "ProblemNo": 0,
          "Kind": 4
        },
        {
          "Start": 89,
          "End": 92,
          "Text": "{They do not need to pass the exam}",
          "Ruby": "ðe du nɑt nid tɪ pæs ðə ɪgˈzæm",
          "Lang": "en",
          "ProblemNo": 1,
          "Kind": 1
        },
        {
          "Start": 92,
          "End": 93,
          "Text": "{hurry}",
          "Ruby": "ˈhəri",
          "Lang": "en",
          "ProblemNo": 1,
          "Kind": 2
        },
        {
          "Start": 93,
          "End": 97,
          "Text": "{They do not need to hurry}",
          "Ruby": "ðe du nɑt nid tɪ ˈhəri",
          "Lang": "en",
          "ProblemNo": 1,
          "Kind": 3
        },
        {
          "Start": 97,
          "End": 102,
          "Text": "{They do not need to hurry}",
          "Ruby": "ðe du nɑt nid tɪ ˈhəri",
          "Lang": "en",
          "ProblemNo": 1,
          "Kind": 4
        },
        {
          "Start": 102,
          "End": 105,
          "Text": "{They do not need to hurry}",
          "Ruby": "ðe du nɑt nid tɪ ˈhəri",
          "Lang": "en",
          "ProblemNo": 2,
          "Kind": 1
        },
        {
          "Start": 105,
          "End": 106,
          "Text": "{My father}",
          "Ruby": "maɪ ˈfɑðər",
          "Lang": "en",
          "ProblemNo": 2,
          "Kind": 2
        },
        {
          "Start": 106,
          "End": 110,
          "Text": "{My father does not need to hurry}",
          "Ruby": "maɪ ˈfɑðər dɪz nɑt nid tɪ ˈhəri",
          "Lang": "en",
          "ProblemNo": 2,
          "Kind": 3
        },
        {
          "Start": 110,
          "End": 115,
          "Text": "{My father does not need to hurry}",
          "Ruby": "maɪ ˈfɑðər dɪz nɑt nid tɪ ˈhəri",
          "Lang": "en",
          "ProblemNo": 2,
          "Kind": 4
        },
        {
          "Start": 115,
          "End": 118,
          "Text": "{My father does not need to hurry}",
          "Ruby": "maɪ ˈfɑðər dɪz nɑt nid tɪ ˈhəri",
          "Lang": "en",
          "ProblemNo": 3,
          "Kind": 1
        },
        {
          "Start": 118,
          "End": 119,
          "Text": "{run}",
          "Ruby": "rən",
          "Lang": "en",
          "ProblemNo": 3,
          "Kind": 2
        },
        {
          "Start": 119,
          "End": 123,
          "Text": "{My father does not need to run}",
          "Ruby": "maɪ ˈfɑðər dɪz nɑt nid tɪ rən",
          "Lang": "en",
          "ProblemNo": 3,
          "Kind": 3
        },
        {
          "Start": 123,
          "End": 128,
          "Text": "{My father does not need to run}",
          "Ruby": "maɪ ˈfɑðər dɪz nɑt nid tɪ rən",
          "Lang": "en",
          "ProblemNo": 3,
          "Kind": 4
        },
        {
          "Start": 128,
          "End": 131,
          "Text": "{My father does not need to run}",
          "Ruby": "maɪ ˈfɑðər dɪz nɑt nid tɪ rən",
          "Lang": "en",
          "ProblemNo": 4,
          "Kind": 1
        },
        {
          "Start": 131,
          "End": 132,
          "Text": "{needs}",
          "Ruby": "nidz",
          "Lang": "en",
          "ProblemNo": 4,
          "Kind": 2
        },
        {
          "Start": 132,
          "End": 136,
          "Text": "{My father needs to run}",
          "Ruby": "maɪ ˈfɑðər nidz tɪ rən",
          "Lang": "en",
          "ProblemNo": 4,
          "Kind": 3
        },
        {
          "Start": 136,
          "End": 141,
          "Text": "{My father needs to run}",
          "Ruby": "maɪ ˈfɑðər nidz tɪ rən",
          "Lang": "en",
          "ProblemNo": 4,
          "Kind": 4
        },
        {
          "Start": 141,
          "End": 144,
          "Text": "",
          "Ruby": "",
          "Lang": "",
          "ProblemNo": 0,
          "Kind": 5
        },
        {
          "Start": 144,
          "End": 148,
          "Text": "{My father does not need to pass the exam}",
          "Ruby": "maɪ ˈfɑðər dɪz nɑt nid tɪ pæs ðə ɪgˈzæm",
          "Lang": "en",
          "ProblemNo": 0,
          "Kind": 1
        },
        {
          "Start": 148,
          "End": 149,
          "Text": "{They}",
          "Ruby": "ðe",
          "Lang": "en",
          "ProblemNo": 0,
          "Kind": 2
        },
        {
          "Start": 149,
          "End": 153,
          "Text": "{They do not need to pass the exam}",
          "Ruby": "ðe du nɑt nid tɪ pæs ðə ɪgˈzæm",
          "Lang": "en",
          "ProblemNo": 0,
          "Kind": 3
        },
        {
          "Start": 153,
          "End": 158,
          "Text": "{They do not need to pass the exam}",
          "Ruby": "ðe du nɑt nid tɪ pæs ðə ɪgˈzæm",
          "Lang": "en",
          "ProblemNo": 0,
          "Kind": 4
        },
        {
          "Start": 158,
          "End": 161,
          "Text": "{They do not need to pass the exam}",
          "Ruby": "ðe du nɑt nid tɪ pæs ðə ɪgˈzæm",
          "Lang": "en",
          "ProblemNo": 1,
          "Kind": 1
        },
        {
          "Start": 161,
          "End": 162,
          "Text": "{hurry}",
          "Ruby": "ˈhəri",
          "Lang": "en",
          "ProblemNo": 1,
          "Kind": 2
        },
        {
          "Start": 162,
          "End": 166,
          "Text": "{They do not need to hurry}",
          "Ruby": "ðe du nɑt nid tɪ ˈhəri",
          "Lang": "en",
          "ProblemNo": 1,
          "Kind": 3
        },
        {
          "Start": 166,
          "End": 171,
          "Text": "{They do not need to hurry}",
          "Ruby": "ðe du nɑt nid tɪ ˈhəri",
          "Lang": "en",
          "ProblemNo": 1,
          "Kind": 4
        },
        {
          "Start": 171,
          "End": 174,
          "Text": "{They do not need to hurry}",
          "Ruby": "ðe du nɑt nid tɪ ˈhəri",
          "Lang": "en",
          "ProblemNo": 2,
          "Kind": 1
        },
        {
          "Start": 174,
          "End": 175,
          "Text": "{My father}",
          "Ruby": "maɪ ˈfɑðər",
          "Lang": "en",
          "ProblemNo": 2,
          "Kind": 2
        },
        {
          "Start": 175,
          "End": 179,
          "Text": "{My father does not need to hurry}",
          "Ruby": "maɪ ˈfɑðər dɪz nɑt nid tɪ ˈhəri",
          "Lang": "en",
          "ProblemNo": 2,
          "Kind": 3
        },
        {
          "Start": 179,
          "End": 184,
          "Text": "{My father does not need to hurry}",
          "Ruby": "maɪ ˈfɑðər dɪz nɑt nid tɪ ˈhəri",
          "Lang": "en",
          "ProblemNo": 2,
          "Kind": 4
        },
        {
          "Start": 184,
          "End": 187,
          "Text": "{My father does not need to hurry}",
          "Ruby": "maɪ ˈfɑðər dɪz nɑt nid tɪ ˈhəri",
          "Lang": "en",
          "ProblemNo": 3,
          "Kind": 1
        },
        {
          "Start": 187,
          "End": 188,
          "Text": "{run}",
          "Ruby": "rən",
          "Lang": "en",
          "ProblemNo": 3,
          "Kind": 2
        },
        {
          "Start": 188,
          "End": 192,
          "Text": "{My father does not need to run}",
          "Ruby": "maɪ ˈfɑðər dɪz nɑt nid tɪ rən",
          "Lang": "en",
          "ProblemNo": 3,
          "Kind": 3
        },
        {
          "Start": 192,
          "End": 197,
          "Text": "{My father does not need to run}",
          "Ruby": "maɪ ˈfɑðər dɪz nɑt nid tɪ rən",
          "Lang": "en",
          "ProblemNo": 3,
          "Kind": 4
        },
        {
          "Start": 197,
          "End": 200,
          "Text": "{My father does not need to run}",
          "Ruby": "maɪ ˈfɑðər dɪz nɑt nid tɪ rən",
          "Lang": "en",
          "ProblemNo": 4,
          "Kind": 1
        },
        {
          "Start": 200,
          "End": 201,
          "Text": "{needs}",
          "Ruby": "nidz",
          "Lang": "en",
          "ProblemNo": 4,
          "Kind": 2
        },
        {
          "Start": 201,
          "End": 205,
          "Text": "{My father needs to run}",
          "Ruby": "maɪ ˈfɑðər nidz tɪ rən",
          "Lang": "en",
          "ProblemNo": 4,
          "Kind": 3
        },
        {
          "Start": 205,
          "End": 210,
          "Text": "{My father needs to run}",
          "Ruby": "maɪ ˈfɑðər nidz tɪ rən",
          "Lang": "en",
          "ProblemNo": 4,
          "Kind": 4
        },
        {
          "Start": 210,
          "End": 213,
          "Text": "",
          "Ruby": "",
          "Lang": "",
          "ProblemNo": 0,
          "Kind": 5
        },
        {
          "Start": 213,
          "End": 233,
          "Text": "{Please subscribe!}",
          "Ruby": "",
          "Lang": "en",
          "ProblemNo": 0,
          "Kind": 7
        }
      ]
    },
    {
      "Name": "IN",
      "Problems": [
        {
          "ProblemNo": 0,
          "OriginalCandidates": [
            {
              "Word": "My father",
              "Ruby": "maɪ ˈfɑðər"
            },
            {
              "Word": "needs",
              "Ruby": "nidz"
            },
            {
              "Word": "to",
              "Ruby": "tɪ"
            },
            {
              "Word": "hurry",
              "Ruby": "ˈhəri"
            }
          ],
          "ChangeCandidatePos": 0,
          "ChangeCandidates": [
            {
              "Word": "They",
              "Ruby": "ðe"
            },
            {
              "Word": "need",
              "Ruby": "nid"
            },
            {
              "Word": "",
              "Ruby": ""
            },
            {
              "Word": "",
              "Ruby": ""
            }
          ],
          "ChangeMorphemes": [
            {
              "Word": "They",
              "Root": "",
              "FeatureSet": null
            },
            {
              "Word": "",
              "Root": "",
              "FeatureSet": [
                "ns"
              ]
            },
            {
              "Word": "",
              "Root": "",
              "FeatureSet": null
            },
            {
              "Word": "",
              "Root": "",
              "FeatureSet": null
            }
          ],
          "AnswerCandidates": [
            {
              "Word": "They",
              "Ruby": "ðe"
            },
            {
              "Word": "need",
              "Ruby": "nid"
            },
            {
              "Word": "to",
              "Ruby": "tɪ"
            },
            {
              "Word": "hurry",
              "Ruby": "ˈhəri"
            }
          ]
        },
        {
          "ProblemNo": 1,
          "OriginalCandidates": [
            {
              "Word": "They",
              "Ruby": "ðe"
            },
            {
              "Word": "need",
              "Ruby": "nid"
            },
            {
              "Word": "to",
              "Ruby": "tɪ"
            },
            {
              "Word": "hurry",
              "Ruby": "ˈhəri"
            }
          ],
          "ChangeCandidatePos": 1,
          "ChangeCandidates": [
            {
              "Word": "",
              "Ruby": ""
            },
            {
              "Word": "do not need",
              "Ruby": "du nɑt nid"
            },
            {
              "Word": "",
              "Ruby": ""
            },
            {
              "Word": "",
              "Ruby": ""
            }
          ],
          "ChangeMorphemes": [
            {
              "Word": "",
              "Root": "",
              "FeatureSet": null
            },
            {
              "Word": "do not need",
              "Root": "not need",
              "FeatureSet": [
                "ns"
              ]
            },
            {
              "Word": "",
              "Root": "",
              "FeatureSet": null
            },
            {
              "Word": "",
              "Root": "",
              "FeatureSet": null
            }
          ],
          "AnswerCandidates": [
            {
              "Word": "They",
              "Ruby": "ðe"
            },
            {
              "Word": "do not need",
              "Ruby": "du nɑt nid"
            },
            {
              "Word": "to",
              "Ruby": "tɪ"
            },
            {
              "Word": "hurry",
              "Ruby": "ˈhəri"
            }
          ]
        },
        {
          "ProblemNo": 2,
          "OriginalCandidates": [
            {
              "Word": "They",
              "Ruby": "ðe"
            },
            {
              "Word": "do not need",
              "Ruby": "du nɑt nid"
            },
            {
              "Word": "to",
              "Ruby": "tɪ"
            },
            {
              "Word": "hurry",
              "Ruby": "ˈhəri"
            }
          ],
          "ChangeCandidatePos": 0,
          "ChangeCandidates": [
            {
              "Word": "My father",
              "Ruby": "maɪ ˈfɑðər"
            },
            {
              "Word": "does not need",
              "Ruby": "dɪz nɑt nid"
            },
            {
              "Word": "",
              "Ruby": ""
            },
            {
              "Word": "",
              "Ruby": ""
            }
          ],
          "ChangeMorphemes": [
            {
              "Word": "My father",
              "Root": "",
              "FeatureSet": null
            },
            {
              "Word": "",
              "Root": "",
              "FeatureSet": [
                "s"
              ]
            },
            {
              "Word": "",
              "Root": "",
              "FeatureSet": null
            },
            {
              "Word": "",
              "Root": "",
              "FeatureSet": null
            }
          ],
          "AnswerCandidates": [
            {
              "Word": "My father",
              "Ruby": "maɪ ˈfɑðər"
            },
            {
              "Word": "does not need",
              "Ruby": "dɪz nɑt nid"
            },
            {
              "Word": "to",
              "Ruby": "tɪ"
            },
            {
              "Word": "hurry",
              "Ruby": "ˈhəri"
            }
          ]
        },
        {
          "ProblemNo": 3,
          "OriginalCandidates": [
            {
              "Word": "My father",
              "Ruby": "maɪ ˈfɑðər"
            },
            {
              "Word": "does not need",
              "Ruby": "dɪz nɑt nid"
            },
            {
              "Word": "to",
              "Ruby": "tɪ"
            },
            {
              "Word": "hurry",
              "Ruby": "ˈhəri"
            }
          ],
          "ChangeCandidatePos": 3,
          "ChangeCandidates": [
            {
              "Word": "",
              "Ruby": ""
            },
            {
              "Word": "",
              "Ruby": ""
            },
            {
              "Word": "",
              "Ruby": ""
            },
            {
              "Word": "run",
              "Ruby": "rən"
            }
          ],
          "ChangeMorphemes": [
            {
              "Word": "",
              "Root": "",
              "FeatureSet": null
            },
            {
              "Word": "",
              "Root": "",
              "FeatureSet": null
            },
            {
              "Word": "",
              "Root": "",
              "FeatureSet": null
            },
            {
              "Word": "run",
              "Root": "",
              "FeatureSet": null
            }
          ],
          "AnswerCandidates": [
            {
              "Word": "My father",
              "Ruby": "maɪ ˈfɑðər"
            },
            {
              "Word": "does not need",
              "Ruby": "dɪz nɑt nid"
            },
            {
              "Word": "to",
              "Ruby": "tɪ"
            },
            {
              "Word": "run",
              "Ruby": "rən"
            }
          ]
        },
        {
          "ProblemNo": 4,
          "OriginalCandidates": [
            {
              "Word": "My father",
              "Ruby": "maɪ ˈfɑðər"
            },
            {
              "Word": "does not need",
              "Ruby": "dɪz nɑt nid"
            },
            {
              "Word": "to",
              "Ruby": "tɪ"
            },
            {
              "Word": "run",
              "Ruby": "rən"
            }
          ],
          "ChangeCandidatePos": 0,
          "ChangeCandidates": [
            {
              "Word": "They",
              "Ruby": "ðe"
            },
            {
              "Word": "do not need",
              "Ruby": "du nɑt nid"
            },
            {
              "Word": "",
              "Ruby": ""
            },
            {
              "Word": "",
              "Ruby": ""
            }
          ],
          "ChangeMorphemes": [
            {
              "Word": "They",
              "Root": "",
              "FeatureSet": null
            },
            {
              "Word": "",
              "Root": "",
              "FeatureSet": [
                "ns"
              ]
            },
            {
              "Word": "",
              "Root": "",
              "FeatureSet": null
            },
            {
              "Word": "",
              "Root": "",
              "FeatureSet": null
            }
          ],
          "AnswerCandidates": [
            {
              "Word": "They",
              "Ruby": "ðe"
            },
            {
              "Word": "do not need",
              "Ruby": "du nɑt nid"
            },
            {
              "Word": "to",
              "Ruby": "tɪ"
            },
            {
              "Word": "run",
              "Ruby": "rən"
            }
          ]
        }
      ],
      "VideoFile": "grammar-en-beginner-simple_88_IN.mp4",
      "AnimeticCaptions": [
        {
          "Start": 0,
          "End": 1,
          "Text": "{run}",
          "Ruby": "rən",
          "Lang": "en",
          "ProblemNo": 3,
          "Kind": 2
        },
        {
          "Start": 1,
          "End": 4,
          "Text": "English grammar exercises (India) #88 need",
          "Ruby": "",
          "Lang": "",
          "ProblemNo": 0,
          "Kind": 0
        },
        {
          "Start": 4,
          "End": 7,
          "Text": "{My father needs to hurry}",
          "Ruby": "maɪ ˈfɑðər nidz tɪ ˈhəri",
          "Lang": "en",
          "ProblemNo": 0,
          "Kind": 1
        },
        {
          "Start": 7,
          "End": 8,
          "Text": "{They}",
          "Ruby": "ðe",
          "Lang": "en",
          "ProblemNo": 0,
          "Kind": 2
        },
        {
          "Start": 8,
          "End": 9,
          "Text": "{need}",
          "Ruby": "nid",
          "Lang": "en",
          "ProblemNo": 0,
          "Kind": 2
        },
        {
          "Start": 9,
          "End": 13,
          "Text": "{They need to hurry}",
          "Ruby": "ðe nid tɪ ˈhəri",
          "Lang": "en",
          "ProblemNo": 0,
          "Kind": 3
        },
        {
          "Start": 13,
          "End": 18,
          "Text": "{They need to hurry}",
          "Ruby": "ðe nid tɪ ˈhəri",
          "Lang": "en",
          "ProblemNo": 0,
          "Kind": 4
        },
        {
          "Start": 18,
          "End": 21,
          "Text": "{They need to hurry}",
          "Ruby": "ðe nid tɪ ˈhəri",
          "Lang": "en",
          "ProblemNo": 1,
          "Kind": 1
        },
        {
          "Start": 21,
          "End": 23,
          "Text": "{do not need}",
          "Ruby": "du nɑt nid",
          "Lang": "en",
          "ProblemNo": 1,
          "Kind": 2
        },
        {
          "Start": 23,
          "End": 27,
          "Text": "{They do not need to hurry}",
          "Ruby": "ðe du nɑt nid tɪ ˈhəri",
          "Lang": "en",
          "ProblemNo": 1,
          "Kind": 3
        },
        {
          "Start": 27,
          "End": 32,
          "Text": "{They do not need to hurry}",
          "Ruby": "ðe du nɑt nid tɪ ˈhəri",
          "Lang": "en",
          "ProblemNo": 1,
          "Kind": 4
        },
        {
          "Start": 32,
          "End": 35,
          "Text": "{They do not need to hurry}",
          "Ruby": "ðe du nɑt nid tɪ ˈhəri",
          "Lang": "en",
          "ProblemNo": 2,
          "Kind": 1
        },
        {
          "Start": 35,
          "End": 37,
          "Text": "{My father}",
          "Ruby": "maɪ ˈfɑðər",
          "Lang": "en",
          "ProblemNo": 2,
          "Kind": 2
        },
        {
          "Start": 37,
          "End": 39,
          "Text": "{does not need}",
          "Ruby": "dɪz nɑt nid",
          "Lang": "en",
          "ProblemNo": 2,
          "Kind": 2
        },
        {
          "Start": 39,
          "End": 44,
          "Text": "{My father does not need to hurry}",
          "Ruby": "maɪ ˈfɑðər dɪz nɑt nid tɪ ˈhəri",
          "Lang": "en",
          "ProblemNo": 2,
          "Kind": 3
        },
        {
          "Start": 44,
          "End": 50,
          "Text": "{My father does not need to hurry}",
          "Ruby": "maɪ ˈfɑðər dɪz nɑt nid tɪ ˈhəri",
          "Lang": "en",
          "ProblemNo": 2,
          "Kind": 4
        },
        {
          "Start": 50,
          "End": 54,
          "Text": "{My father does not need to hurry}",
          "Ruby": "maɪ ˈfɑðər dɪz nɑt nid tɪ ˈhəri",
          "Lang": "en",
          "ProblemNo": 3,
          "Kind": 1
        },
        {
          "Start": 54,
          "End": 55,
          "Text": "{run}",
          "Ruby": "rən",
          "Lang": "en",
          "ProblemNo": 3,
          "Kind": 2
        },
        {
          "Start": 55,
          "End": 60,
          "Text": "{My father does not need to run}",
          "Ruby": "maɪ ˈfɑðər dɪz nɑt nid tɪ rən",
          "Lang": "en",
          "ProblemNo": 3,
          "Kind": 3
        },
        {
          "Start": 60,
          "End": 66,
          "Text": "{My father does not need to run}",
          "Ruby": "maɪ ˈfɑðər dɪz nɑt nid tɪ rən",
          "Lang": "en",
          "ProblemNo": 3,
          "Kind": 4
        },
        {
          "Start": 66,
          "End": 70,
          "Text": "{My father does not need to run}",
          "Ruby": "maɪ ˈfɑðər dɪz nɑt nid tɪ rən",
          "Lang": "en",
          "ProblemNo": 4,
          "Kind": 1
        },
        {
          "Start": 70,
          "End": 71,
          "Text": "{They}",
          "Ruby": "ðe",
          "Lang": "en",
          "ProblemNo": 4,
          "Kind": 2
        },
        {
          "Start": 71,
          "End": 73,
          "Text": "{do not need}",
          "Ruby": "du nɑt nid",
          "Lang": "en",
          "ProblemNo": 4,
          "Kind": 2
        },
        {
          "Start": 73,
          "End": 77,
          "Text": "{They do not need to run}",
          "Ruby": "ðe du nɑt nid tɪ rən",
          "Lang": "en",
          "ProblemNo": 4,
          "Kind": 3
        },
        {
          "Start": 77,
          "End": 82,
          "Text": "{They do not need to run}",
          "Ruby": "ðe du nɑt nid tɪ rən",
          "Lang": "en",
          "ProblemNo": 4,
          "Kind": 4
        },
        {
          "Start": 82,
          "End": 85,
          "Text": "",
          "Ruby": "",
          "Lang": "",
          "ProblemNo": 0,
          "Kind": 5
        },
        {
          "Start": 85,
          "End": 88,
          "Text": "{My father needs to hurry}",
          "Ruby": "maɪ ˈfɑðər nidz tɪ ˈhəri",
          "Lang": "en",
          "ProblemNo": 0,
          "Kind": 1
        },
        {
          "Start": 88,
          "End": 89,
          "Text": "{They}",
          "Ruby": "ðe",
          "Lang": "en",
          "ProblemNo": 0,
          "Kind": 2
        },
        {
          "Start": 89,
          "End": 93,
          "Text": "{They need to hurry}",
          "Ruby": "ðe nid tɪ ˈhəri",
          "Lang": "en",
          "ProblemNo": 0,
          "Kind": 3
        },
        {
          "Start": 93,
          "End": 98,
          "Text": "{They need to hurry}",
          "Ruby": "ðe nid tɪ ˈhəri",
          "Lang": "en",
          "ProblemNo": 0,
          "Kind": 4
        },
        {
          "Start": 98,
          "End": 101,
          "Text": "{They need to hurry}",
          "Ruby": "ðe nid tɪ ˈhəri",
          "Lang": "en",
          "ProblemNo": 1,
          "Kind": 1
        },
        {
          "Start": 101,
          "End": 103,
          "Text": "{do not need}",
          "Ruby": "du nɑt nid",
          "Lang": "en",
          "ProblemNo": 1,
          "Kind": 2
        },
        {
          "Start": 103,
          "End": 107,
          "Text": "{They do not need to hurry}",
          "Ruby": "ðe du nɑt nid tɪ ˈhəri",
          "Lang": "en",
          "ProblemNo": 1,
          "Kind": 3
        },
        {
          "Start": 107,
          "End": 112,
          "Text": "{They do not need to hurry}",
          "Ruby": "ðe du nɑt nid tɪ ˈhəri",
          "Lang": "en",
          "ProblemNo": 1,
          "Kind": 4
        },
        {
          "Start": 112,
          "End": 115,
          "Text": "{They do not need to hurry}",
          "Ruby": "ðe du nɑt nid tɪ ˈhəri",
          "Lang": "en",
          "ProblemNo": 2,
          "Kind": 1
        },
        {
          "Start": 115,
          "End": 117,
          "Text": "{My father}",
          "Ruby": "maɪ ˈfɑðər",
          "Lang": "en",
          "ProblemNo": 2,
          "Kind": 2
        },
        {
          "Start": 117,
          "End": 122,
          "Text": "{My father does not need to hurry}",
          "Ruby": "maɪ ˈfɑðər dɪz nɑt nid tɪ ˈhəri",
          "Lang": "en",
          "ProblemNo": 2,
          "Kind": 3
        },
        {
          "Start": 122,
          "End": 128,
          "Text": "{My father does not need to hurry}",
          "Ruby": "maɪ ˈfɑðər dɪz nɑt nid tɪ ˈhəri",
          "Lang": "en",
          "ProblemNo": 2,
          "Kind": 4
        },
        {
          "Start": 128,
          "End": 132,
          "Text": "{My father does not need to hurry}",
          "Ruby": "maɪ ˈfɑðər dɪz nɑt nid tɪ ˈhəri",
          "Lang": "en",
          "ProblemNo": 3,
          "Kind": 1
        },
        {
          "Start": 132,
          "End": 133,
          "Text": "{run}",
          "Ruby": "rən",
          "Lang": "en",
          "ProblemNo": 3,
          "Kind": 2
        },
        {
          "Start": 133,
          "End": 138,
          "Text": "{My father does not need to run}",
          "Ruby": "maɪ ˈfɑðər dɪz nɑt nid tɪ rən",
          "Lang": "en",
          "ProblemNo": 3,
          "Kind": 3
        },
        {
          "Start": 138,
          "End": 144,
          "Text": "{My father does not need to run}",
          "Ruby": "maɪ ˈfɑðər dɪz nɑt nid tɪ rən",
          "Lang": "en",
          "ProblemNo": 3,
          "Kind": 4
        },
        {
          "Start": 144,
          "End": 148,
          "Text": "{My father does not need to run}",
          "Ruby": "maɪ ˈfɑðər dɪz nɑt nid tɪ rən",
          "Lang": "en",
          "ProblemNo": 4,
          "Kind": 1
        },
        {
          "Start": 148,
          "End": 149,
          "Text": "{They}",
          "Ruby": "ðe",
          "Lang": "en",
          "ProblemNo": 4,
          "Kind": 2
        },
        {
          "Start": 149,
          "End": 153,
          "Text": "{They do not need to run}",
          "Ruby": "ðe du nɑt nid tɪ rən",
          "Lang": "en",
          "ProblemNo": 4,
          "Kind": 3
        },
        {
          "Start": 153,
          "End": 158,
          "Text": "{They do not need to run}",
          "Ruby": "ðe du nɑt nid tɪ rən",
          "Lang": "en",
          "ProblemNo": 4,
          "Kind": 4
        },
        {
          "Start": 158,
          "End": 161,
          "Text": "",
          "Ruby": "",
          "Lang": "",
          "ProblemNo": 0,
          "Kind": 5
        },
        {
          "Start": 161,
          "End": 164,
          "Text": "{My father needs to hurry}",
          "Ruby": "maɪ ˈfɑðər nidz tɪ ˈhəri",
          "Lang": "en",
          "ProblemNo": 0,
          "Kind": 1
        },
        {
          "Start": 164,
          "End": 165,
          "Text": "{They}",
          "Ruby": "ðe",
          "Lang": "en",
          "ProblemNo": 0,
          "Kind": 2
        },
        {
          "Start": 165,
          "End": 169,
          "Text": "{They need to hurry}",
          "Ruby": "ðe nid tɪ ˈhəri",
          "Lang": "en",
          "ProblemNo": 0,
          "Kind": 3
        },
        {
          "Start": 169,
          "End": 174,
          "Text": "{They need to hurry}",
          "Ruby": "ðe nid tɪ ˈhəri",
          "Lang": "en",
          "ProblemNo": 0,
          "Kind": 4
        },
        {
          "Start": 174,
          "End": 177,
          "Text": "{They need to hurry}",
          "Ruby": "ðe nid tɪ ˈhəri",
          "Lang": "en",
          "ProblemNo": 1,
          "Kind": 1
        },
        {
          "Start": 177,
          "End": 179,
          "Text": "{do not need}",
          "Ruby": "du nɑt nid",
          "Lang": "en",
          "ProblemNo": 1,
          "Kind": 2
        },
        {
          "Start": 179,
          "End": 183,
          "Text": "{They do not need to hurry}",
          "Ruby": "ðe du nɑt nid tɪ ˈhəri",
          "Lang": "en",
          "ProblemNo": 1,
          "Kind": 3
        },
        {
          "Start": 183,
          "End": 188,
          "Text": "{They do not need to hurry}",
          "Ruby": "ðe du nɑt nid tɪ ˈhəri",
          "Lang": "en",
          "ProblemNo": 1,
          "Kind": 4
        },
        {
          "Start": 188,
          "End": 191,
          "Text": "{They do not need to hurry}",
          "Ruby": "ðe du nɑt nid tɪ ˈhəri",
          "Lang": "en",
          "ProblemNo": 2,
          "Kind": 1
        },
        {
          "Start": 191,
          "End": 193,
          "Text": "{My father}",
          "Ruby": "maɪ ˈfɑðər",
          "Lang": "en",
          "ProblemNo": 2,
          "Kind": 2
        },
        {
          "Start": 193,
          "End": 198,
          "Text": "{My father does not need to hurry}",
          "Ruby": "maɪ ˈfɑðər dɪz nɑt nid tɪ ˈhəri",
          "Lang": "en",
          "ProblemNo": 2,
          "Kind": 3
        },
        {
          "Start": 198,
          "End": 204,
          "Text": "{My father does not need to hurry}",
          "Ruby": "maɪ ˈfɑðər dɪz nɑt nid tɪ ˈhəri",
          "Lang": "en",
          "ProblemNo": 2,
          "Kind": 4
        },
        {
          "Start": 204,
          "End": 208,
          "Text": "{My father does not need to hurry}",
          "Ruby": "maɪ ˈfɑðər dɪz nɑt nid tɪ ˈhəri",
          "Lang": "en",
          "ProblemNo": 3,
          "Kind": 1
        },
        {
          "Start": 208,
          "End": 209,
          "Text": "{run}",
          "Ruby": "rən",
          "Lang": "en",
          "ProblemNo": 3,
          "Kind": 2
        },
        {
          "Start": 209,
          "End": 214,
          "Text": "{My father does not need to run}",
          "Ruby": "maɪ ˈfɑðər dɪz nɑt nid tɪ rən",
          "Lang": "en",
          "ProblemNo": 3,
          "Kind": 3
        },
        {
          "Start": 214,
          "End": 220,
          "Text": "{My father does not need to run}",
          "Ruby": "maɪ ˈfɑðər dɪz nɑt nid tɪ rən",
          "Lang": "en",
          "ProblemNo": 3,
          "Kind": 4
        },
        {
          "Start": 220,
          "End": 224,
          "Text": "{My father does not need to run}",
          "Ruby": "maɪ ˈfɑðər dɪz nɑt nid tɪ rən",
          "Lang": "en",
          "ProblemNo": 4,
          "Kind": 1
        },
        {
          "Start": 224,
          "End": 225,
          "Text": "{They}",
          "Ruby": "ðe",
          "Lang": "en",
          "ProblemNo": 4,
          "Kind": 2
        },
        {
          "Start": 225,
          "End": 229,
          "Text": "{They do not need to run}",
          "Ruby": "ðe du nɑt nid tɪ rən",
          "Lang": "en",
          "ProblemNo": 4,
          "Kind": 3
        },
        {
          "Start": 229,
          "End": 234,
          "Text": "{They do not need to run}",
          "Ruby": "ðe du nɑt nid tɪ rən",
          "Lang": "en",
          "ProblemNo": 4,
          "Kind": 4
        },
        {
          "Start": 234,
          "End": 237,
          "Text": "",
          "Ruby": "",
          "Lang": "",
          "ProblemNo": 0,
          "Kind": 5
        },
        {
          "Start": 237,
          "End": 257,
          "Text": "{Please subscribe!}",
          "Ruby": "",
          "Lang": "en",
          "ProblemNo": 0,
          "Kind": 7
        }
      ]
    },
    {
      "Name": "UK",
      "Problems": [
        {
          "ProblemNo": 0,
          "OriginalCandidates": [
            {
              "Word": "They",
              "Ruby": "ðe"
            },
            {
              "Word": "need",
              "Ruby": "nid"
            },
            {
              "Word": "to",
              "Ruby": "tɪ"
            },
            {
              "Word": "hurry",
              "Ruby": "ˈhəri"
            }
          ],
          "ChangeCandidatePos": 0,
          "ChangeCandidates": [
            {
              "Word": "My father",
              "Ruby": "maɪ ˈfɑðər"
            },
            {
              "Word": "needs",
              "Ruby": "nidz"
            },
            {
              "Word": "",
              "Ruby": ""
            },
            {
              "Word": "",
              "Ruby": ""
            }
          ],
          "ChangeMorphemes": [
            {
              "Word": "My father",
              "Root": "",
              "FeatureSet": null
            },
            {
              "Word": "",
              "Root": "",
              "FeatureSet": [
                "s"
              ]
            },
            {
              "Word": "",
              "Root": "",
              "FeatureSet": null
            },
            {
              "Word": "",
              "Root": "",
              "FeatureSet": null
            }
          ],
          "AnswerCandidates": [
            {
              "Word": "My father",
              "Ruby": "maɪ ˈfɑðər"
            },
            {
              "Word": "needs",
              "Ruby": "nidz"
            },
            {
              "Word": "to",
              "Ruby": "tɪ"
            },
            {
              "Word": "hurry",
              "Ruby": "ˈhəri"
            }
          ]
        },
        {
          "ProblemNo": 1,
          "OriginalCandidates": [
            {
              "Word": "My father",
              "Ruby": "maɪ ˈfɑðər"
            },
            {
              "Word": "needs",
              "Ruby": "nidz"
            },
            {
              "Word": "to",
              "Ruby": "tɪ"
            },
            {
              "Word": "hurry",
              "Ruby": "ˈhəri"
            }
          ],
          "ChangeCandidatePos": 3,
          "ChangeCandidates": [
            {
              "Word": "",
              "Ruby": ""
            },
            {
              "Word": "",
              "Ruby": ""
            },
            {
              "Word": "",
              "Ruby": ""
            },
            {
              "Word": "pass the exam",
              "Ruby": "pæs ðə ɪgˈzæm"
            }
          ],
          "ChangeMorphemes": [
            {
              "Word": "",
              "Root": "",
              "FeatureSet": null
            },
            {
              "Word": "",
              "Root": "",
              "FeatureSet": null
            },
            {
              "Word": "",
              "Root": "",
              "FeatureSet": null
            },
            {
              "Word": "pass the exam",
              "Root": "",
              "FeatureSet": null
            }
          ],
          "AnswerCandidates": [
            {
              "Word": "My father",
              "Ruby": "maɪ ˈfɑðər"
            },
            {
              "Word": "needs",
              "Ruby": "nidz"
            },
            {
              "Word": "to",
              "Ruby": "tɪ"
            },
            {
              "Word": "pass the exam",
              "Ruby": "pæs ðə ɪgˈzæm"
            }
          ]
        },
        {
          "ProblemNo": 2,
          "OriginalCandidates": [
            {
              "Word": "My father",
              "Ruby": "maɪ ˈfɑðər"
            },
            {
              "Word": "needs",
              "Ruby": "nidz"
            },
            {
              "Word": "to",
              "Ruby": "tɪ"
            },
            {
              "Word": "pass the exam",
              "Ruby": "pæs ðə ɪgˈzæm"
            }
          ],
          "ChangeCandidatePos": 3,
          "ChangeCandidates": [
            {
              "Word": "",
              "Ruby": ""
            },
            {
              "Word": "",
              "Ruby": ""
            },
            {
              "Word": "",
              "Ruby": ""
            },
            {
              "Word": "run",
              "Ruby": "rən"
            }
          ],
          "ChangeMorphemes": [
            {
              "Word": "",
              "Root": "",
              "FeatureSet": null
            },
            {
              "Word": "",
              "Root": "",
              "FeatureSet": null
            },
            {
              "Word": "",
              "Root": "",
              "FeatureSet": null
            },
            {
              "Word": "run",
              "Root": "",
              "FeatureSet": null
            }
          ],
          "AnswerCandidates": [
            {
              "Word": "My father",
              "Ruby": "maɪ ˈfɑðər"
            },
            {
              "Word": "needs",
              "Ruby": "nidz"
            },
            {
              "Word": "to",
              "Ruby": "tɪ"
            },
            {
              "Word": "run",
              "Ruby": "rən"
            }
          ]
        },
        {
          "ProblemNo": 3,
          "OriginalCandidates": [
            {
              "Word": "My father",
              "Ruby": "maɪ ˈfɑðər"
            },
            {
              "Word": "needs",
              "Ruby": "nidz"
            },
            {
              "Word": "to",
              "Ruby": "tɪ"
            },
            {
              "Word": "run",
              "Ruby": "rən"
            }
          ],
          "ChangeCandidatePos": 0,
          "ChangeCandidates": [
            {
              "Word": "They",
              "Ruby": "ðe"
            },
            {
              "Word": "need",
              "Ruby": "nid"
            },
            {
              "Word": "",
              "Ruby": ""
            },
            {
              "Word": "",
              "Ruby": ""
            }
          ],
          "ChangeMorphemes": [
            {
              "Word": "They",
              "Root": "",
              "FeatureSet": null
            },
            {
              "Word": "",
              "Root": "",
              "FeatureSet": [
                "ns"
              ]
            },
            {
              "Word": "",
              "Root": "",
              "FeatureSet": null
            },
            {
              "Word": "",
              "Root": "",
              "FeatureSet": null
            }
          ],
          "AnswerCandidates": [
            {
              "Word": "They",
              "Ruby": "ðe"
            },
            {
              "Word": "need",
              "Ruby": "nid"
            },
            {
              "Word": "to",
              "Ruby": "tɪ"
            },
            {
              "Word": "run",
              "Ruby": "rən"
            }
          ]
        },
        {
          "ProblemNo": 4,
          "OriginalCandidates": [
            {
              "Word": "They",
              "Ruby": "ðe"
            },
            {
              "Word": "need",
              "Ruby": "nid"
            },
            {
              "Word": "to",
              "Ruby": "tɪ"
            },
            {
              "Word": "run",
              "Ruby": "rən"
            }
          ],
          "ChangeCandidatePos": 1,
          "ChangeCandidates": [
            {
              "Word": "",
              "Ruby": ""
            },
            {
              "Word": "do not need",
              "Ruby": "du nɑt nid"
            },
            {
              "Word": "",
              "Ruby": ""
            },
            {
              "Word": "",
              "Ruby": ""
            }
          ],
          "ChangeMorphemes": [
            {
              "Word": "",
              "Root": "",
              "FeatureSet": null
            },
            {
              "Word": "do not need",
              "Root": "not need",
              "FeatureSet": [
                "ns"
              ]
            },
            {
              "Word": "",
              "Root": "",
              "FeatureSet": null
            },
            {
              "Word": "",
              "Root": "",
              "FeatureSet": null
            }
          ],
          "AnswerCandidates": [
            {
              "Word": "They",
              "Ruby": "ðe"
            },
            {
              "Word": "do not need",
              "Ruby": "du nɑt nid"
            },
            {
              "Word": "to",
              "Ruby": "tɪ"
            },
            {
              "Word": "run",
              "Ruby": "rən"
            }
          ]
        }
      ],
      "VideoFile": "grammar-en-beginner-simple_88_UK.mp4",
      "AnimeticCaptions": [
        {
          "Start": 0,
          "End": 1,
          "Text": "{They}",
          "Ruby": "ðe",
          "Lang": "en",
          "ProblemNo": 3,
          "Kind": 2
        },
        {
          "Start": 1,
          "End": 4,
          "Text": "English grammar exercises (British) #88 need",
          "Ruby": "",
          "Lang": "",
          "ProblemNo": 0,
          "Kind": 0
        },
        {
          "Start": 4,
          "End": 7,
          "Text": "{They need to hurry}",
          "Ruby": "ðe nid tɪ ˈhəri",
          "Lang": "en",
          "ProblemNo": 0,
          "Kind": 1
        },
        {
          "Start": 7,
          "End": 8,
          "Text": "{My father}",
          "Ruby": "maɪ ˈfɑðər",
          "Lang": "en",
          "ProblemNo": 0,
          "Kind": 2
        },
        {
          "Start": 8,
          "End": 9,
          "Text": "{needs}",
          "Ruby": "nidz",
          "Lang": "en",
          "ProblemNo": 0,
          "Kind": 2
        },
        {
          "Start": 9,
          "End": 13,
          "Text": "{My father needs to hurry}",
          "Ruby": "maɪ ˈfɑðər nidz tɪ ˈhəri",
          "Lang": "en",
          "ProblemNo": 0,
          "Kind": 3
        },
        {
          "Start": 13,
          "End": 18,
          "Text": "{My father needs to hurry}",
          "Ruby": "maɪ ˈfɑðər nidz tɪ ˈhəri",
          "Lang": "en",
          "ProblemNo": 0,
          "Kind": 4
        },
        {
          "Start": 18,
          "End": 21,
          "Text": "{My father needs to hurry}",
          "Ruby": "maɪ ˈfɑðər nidz tɪ ˈhəri",
          "Lang": "en",
          "ProblemNo": 1,
          "Kind": 1
        },
        {
          "Start": 21,
          "End": 23,
          "Text": "{pass the exam}",
          "Ruby": "pæs ðə ɪgˈzæm",
          "Lang": "en",
          "ProblemNo": 1,
          "Kind": 2
        },
        {
          "Start": 23,
          "End": 28,
          "Text": "{My father needs to pass the exam}",
          "Ruby": "maɪ ˈfɑðər nidz tɪ pæs ðə ɪgˈzæm",
          "Lang": "en",
          "ProblemNo": 1,
          "Kind": 3
        },
        {
          "Start": 28,
          "End": 34,
          "Text": "{My father needs to pass the exam}",
          "Ruby": "maɪ ˈfɑðər nidz tɪ pæs ðə ɪgˈzæm",
          "Lang": "en",
          "ProblemNo": 1,
          "Kind": 4
        },
        {
          "Start": 34,
          "End": 38,
          "Text": "{My father needs to pass the exam}",
          "Ruby": "maɪ ˈfɑðər nidz tɪ pæs ðə ɪgˈzæm",
          "Lang": "en",
          "ProblemNo": 2,
          "Kind": 1
        },
        {
          "Start": 38,
          "End": 39,
          "Text": "{run}",
          "Ruby": "rən",
          "Lang": "en",
          "ProblemNo": 2,
          "Kind": 2
        },
        {
          "Start": 39,
          "End": 43,
          "Text": "{My father needs to run}",
          "Ruby": "maɪ ˈfɑðər nidz tɪ rən",
          "Lang": "en",
          "ProblemNo": 2,
          "Kind": 3
        },
        {
          "Start": 43,
          "End": 48,
          "Text": "{My father needs to run}",
          "Ruby": "maɪ ˈfɑðər nidz tɪ rən",
          "Lang": "en",
          "ProblemNo": 2,
          "Kind": 4
        },
        {
          "Start": 48,
          "End": 51,
          "Text": "{My father needs to run}",
          "Ruby": "maɪ ˈfɑðər nidz tɪ rən",
          "Lang": "en",
          "ProblemNo": 3,
          "Kind": 1
        },
        {
          "Start": 51,
          "End": 52,
          "Text": "{They}",
          "Ruby": "ðe",
          "Lang": "en",
          "ProblemNo": 3,
          "Kind": 2
        },
        {
          "Start": 52,
          "End": 53,
          "Text": "{need}",
          "Ruby": "nid",
          "Lang": "en",
          "ProblemNo": 3,
          "Kind": 2
        },
        {
          "Start": 53,
          "End": 57,
          "Text": "{They need to run}",
          "Ruby": "ðe nid tɪ rən",
          "Lang": "en",
          "ProblemNo": 3,
          "Kind": 3
        },
        {
          "Start": 57,
          "End": 62,
          "Text": "{They need to run}",
          "Ruby": "ðe nid tɪ rən",
          "Lang": "en",
          "ProblemNo": 3,
          "Kind": 4
        },
        {
          "Start": 62,
          "End": 65,
          "Text": "{They need to run}",
          "Ruby": "ðe nid tɪ rən",
          "Lang": "en",
          "ProblemNo": 4,
          "Kind": 1
        },
        {
          "Start": 65,
          "End": 67,
          "Text": "{do not need}",
          "Ruby": "du nɑt nid",
          "Lang": "en",
          "ProblemNo": 4,
          "Kind": 2
        },
        {
          "Start": 67,
          "End": 71,
          "Text": "{They do not need to run}",
          "Ruby": "ðe du nɑt nid tɪ rən",
          "Lang": "en",
          "ProblemNo": 4,
          "Kind": 3
        },
        {
          "Start": 71,
          "End": 76,
          "Text": "{They do not need to run}",
          "Ruby": "ðe du nɑt nid tɪ rən",
          "Lang": "en",
          "ProblemNo": 4,
          "Kind": 4
        },
        {
          "Start": 76,
          "End": 79,
          "Text": "",
          "Ruby": "",
          "Lang": "",
          "ProblemNo": 0,
          "Kind": 5
        },
        {
          "Start": 79,
          "End": 82,
          "Text": "{They need to hurry}",
          "Ruby": "ðe nid tɪ ˈhəri",
          "Lang": "en",
          "ProblemNo": 0,
          "Kind": 1
        },
        {
          "Start": 82,
          "End": 83,
          "Text": "{My father}",
          "Ruby": "maɪ ˈfɑðər",
          "Lang": "en",
          "ProblemNo": 0,
          "Kind": 2
        },
        {
          "Start": 83,
          "End": 87,
          "Text": "{My father needs to hurry}",
          "Ruby": "maɪ ˈfɑðər nidz tɪ ˈhəri",
          "Lang": "en",
          "ProblemNo": 0,
          "Kind": 3
        },
        {
          "Start": 87,
          "End": 92,
          "Text": "{My father needs to hurry}",
          "Ruby": "maɪ ˈfɑðər nidz tɪ ˈhəri",
          "Lang": "en",
          "ProblemNo": 0,
          "Kind": 4
        },
        {
          "Start": 92,
          "End": 95,
          "Text": "{My father needs to hurry}",
          "Ruby": "maɪ ˈfɑðər nidz tɪ ˈhəri",
          "Lang": "en",
          "ProblemNo": 1,
          "Kind": 1
        },
        {
          "Start": 95,
          "End": 97,
          "Text": "{pass the exam}",
          "Ruby": "pæs ðə ɪgˈzæm",
          "Lang": "en",
          "ProblemNo": 1,
          "Kind": 2
        },
        {
          "Start": 97,
          "End": 102,
          "Text": "{My father needs to pass the exam}",
          "Ruby": "maɪ ˈfɑðər nidz tɪ pæs ðə ɪgˈzæm",
          "Lang": "en",
          "ProblemNo": 1,
          "Kind": 3
        },
        {
          "Start": 102,
          "End": 108,
          "Text": "{My father needs to pass the exam}",
          "Ruby": "maɪ ˈfɑðər nidz tɪ pæs ðə ɪgˈzæm",
          "Lang": "en",
          "ProblemNo": 1,
          "Kind": 4
        },
        {
          "Start": 108,
          "End": 112,
          "Text": "{My father needs to pass the exam}",
          "Ruby": "maɪ ˈfɑðər nidz tɪ pæs ðə ɪgˈzæm",
          "Lang": "en",
          "ProblemNo": 2,
          "Kind": 1
        },
        {
          "Start": 112,
          "End": 113,
          "Text": "{run}",
          "Ruby": "rən",
          "Lang": "en",
          "ProblemNo": 2,
          "Kind": 2
        },
        {
          "Start": 113,
          "End": 117,
          "Text": "{My father needs to run}",
          "Ruby": "maɪ ˈfɑðər nidz tɪ rən",
          "Lang": "en",
          "ProblemNo": 2,
          "Kind": 3
        },
        {
          "Start": 117,
          "End": 122,
          "Text": "{My father needs to run}",
          "Ruby": "maɪ ˈfɑðər nidz tɪ rən",
          "Lang": "en",
          "ProblemNo": 2,
          "Kind": 4
        },
        {
          "Start": 122,
          "End": 125,
          "Text": "{My father needs to run}",
          "Ruby": "maɪ ˈfɑðər nidz tɪ rən",
          "Lang": "en",
          "ProblemNo": 3,
          "Kind": 1
        },
        {
          "Start": 125,
          "End": 126,
          "Text": "{They}",
          "Ruby": "ðe",
          "Lang": "en",
          "ProblemNo": 3,
          "Kind": 2
        },
        {
          "Start": 126,
          "End": 130,
          "Text": "{They need to run}",
          "Ruby": "ðe nid tɪ rən",
          "Lang": "en",
          "ProblemNo": 3,
          "Kind": 3
        },
        {
          "Start": 130,
          "End": 135,
          "Text": "{They need to run}",
          "Ruby": "ðe nid tɪ rən",
          "Lang": "en",
          "ProblemNo": 3,
          "Kind": 4
        },
        {
          "Start": 135,
          "End": 138,
          "Text": "{They need to run}",
          "Ruby": "ðe nid tɪ rən",
          "Lang": "en",
          "ProblemNo": 4,
          "Kind": 1
        },
        {
          "Start": 138,
          "End": 140,
          "Text": "{do not need}",
          "Ruby": "du nɑt nid",
          "Lang": "en",
          "ProblemNo": 4,
          "Kind": 2
        },
        {
          "Start": 140,
          "End": 144,
          "Text": "{They do not need to run}",
          "Ruby": "ðe du nɑt nid tɪ rən",
          "Lang": "en",
          "ProblemNo": 4,
          "Kind": 3
        },
        {
          "Start": 144,
          "End": 149,
          "Text": "{They do not need to run}",
          "Ruby": "ðe du nɑt nid tɪ rən",
          "Lang": "en",
          "ProblemNo": 4,
          "Kind": 4
        },
        {
          "Start": 149,
          "End": 152,
          "Text": "",
          "Ruby": "",
          "Lang": "",
          "ProblemNo": 0,
          "Kind": 5
        },
        {
          "Start": 152,
          "End": 155,
          "Text": "{They need to hurry}",
          "Ruby": "ðe nid tɪ ˈhəri",
          "Lang": "en",
          "ProblemNo": 0,
          "Kind": 1
        },
        {
          "Start": 155,
          "End": 156,
          "Text": "{My father}",
          "Ruby": "maɪ ˈfɑðər",
          "Lang": "en",
          "ProblemNo": 0,
          "Kind": 2
        },
        {
          "Start": 156,
          "End": 160,
          "Text": "{My father needs to hurry}",
          "Ruby": "maɪ ˈfɑðər nidz tɪ ˈhəri",
          "Lang": "en",
          "ProblemNo": 0,
          "Kind": 3
        },
        {
          "Start": 160,
          "End": 165,
          "Text": "{My father needs to hurry}",
          "Ruby": "maɪ ˈfɑðər nidz tɪ ˈhəri",
          "Lang": "en",
          "ProblemNo": 0,
          "Kind": 4
        },
        {
          "Start": 165,
          "End": 168,
          "Text": "{My father needs to hurry}",
          "Ruby": "maɪ ˈfɑðər nidz tɪ ˈhəri",
          "Lang": "en",
          "ProblemNo": 1,
          "Kind": 1
        },
        {
          "Start": 168,
          "End": 170,
          "Text": "{pass the exam}",
          "Ruby": "pæs ðə ɪgˈzæm",
          "Lang": "en",
          "ProblemNo": 1,
          "Kind": 2
        },
        {
          "Start": 170,
          "End": 175,
          "Text": "{My father needs to pass the exam}",
          "Ruby": "maɪ ˈfɑðər nidz tɪ pæs ðə ɪgˈzæm",
          "Lang": "en",
          "ProblemNo": 1,
          "Kind": 3
        },
        {
          "Start": 175,
          "End": 181,
          "Text": "{My father needs to pass the exam}",
          "Ruby": "maɪ ˈfɑðər nidz tɪ pæs ðə ɪgˈzæm",
          "Lang": "en",
          "ProblemNo": 1,
          "Kind": 4
        },
        {
          "Start": 181,
          "End": 185,
          "Text": "{My father needs to pass the exam}",
          "Ruby": "maɪ ˈfɑðər nidz tɪ pæs ðə ɪgˈzæm",
          "Lang": "en",
          "ProblemNo": 2,
          "Kind": 1
        },
        {
          "Start": 185,
          "End": 186,
          "Text": "{run}",
          "Ruby": "rən",
          "Lang": "en",
          "ProblemNo": 2,
          "Kind": 2
        },
        {
          "Start": 186,
          "End": 190,
          "Text": "{My father needs to run}",
          "Ruby": "maɪ ˈfɑðər nidz tɪ rən",
          "Lang": "en",
          "ProblemNo": 2,
          "Kind": 3
        },
        {
          "Start": 190,
          "End": 195,
          "Text": "{My father needs to run}",
          "Ruby": "maɪ ˈfɑðər nidz tɪ rən",
          "Lang": "en",
          "ProblemNo": 2,
          "Kind": 4
        },
        {
          "Start": 195,
          "End": 198,
          "Text": "{My father needs to run}",
          "Ruby": "maɪ ˈfɑðər nidz tɪ rən",
          "Lang": "en",
          "ProblemNo": 3,
          "Kind": 1
        },
        {
          "Start": 198,
          "End": 199,
          "Text": "{They}",
          "Ruby": "ðe",
          "Lang": "en",
          "ProblemNo": 3,
          "Kind": 2
        },
        {
          "Start": 199,
          "End": 203,
          "Text": "{They need to run}",
          "Ruby": "ðe nid tɪ rən",
          "Lang": "en",
          "ProblemNo": 3,
          "Kind": 3
        },
        {
          "Start": 203,
          "End": 208,
          "Text": "{They need to run}",
          "Ruby": "ðe nid tɪ rən",
          "Lang": "en",
          "ProblemNo": 3,
          "Kind": 4
        },
        {
          "Start": 208,
          "End": 211,
          "Text": "{They need to run}",
          "Ruby": "ðe nid tɪ rən",
          "Lang": "en",
          "ProblemNo": 4,
          "Kind": 1
        },
        {
          "Start": 211,
          "End": 213,
          "Text": "{do not need}",
          "Ruby": "du nɑt nid",
          "Lang": "en",
          "ProblemNo": 4,
          "Kind": 2
        },
        {
          "Start": 213,
          "End": 217,
          "Text": "{They do not need to run}",
          "Ruby": "ðe du nɑt nid tɪ rən",
          "Lang": "en",
          "ProblemNo": 4,
          "Kind": 3
        },
        {
          "Start": 217,
          "End": 222,
          "Text": "{They do not need to run}",
          "Ruby": "ðe du nɑt nid tɪ rən",
          "Lang": "en",
          "ProblemNo": 4,
          "Kind": 4
        },
        {
          "Start": 222,
          "End": 225,
          "Text": "",
          "Ruby": "",
          "Lang": "",
          "ProblemNo": 0,
          "Kind": 5
        },
        {
          "Start": 225,
          "End": 245,
          "Text": "{Please subscribe!}",
          "Ruby": "",
          "Lang": "en",
          "ProblemNo": 0,
          "Kind": 7
        }
      ]
    }
  ],
  "CannotChange": true
}