{
  "SerieName": "grammar-en-beginner-simple",
  "No": 13,
  "VideoTitle": "do not",
  "ThumbnailTitle": "",
  "YoutubeDescription": "",
  "YoutubeTitle": "",
  "Boxes": [
    {
      "Pos": 0,
      "PersonName": "x",
      "Candidates": [
        {
          "Word": "I",
          "Root": "",
          "FeatureSet": null,
          "Conditions": [
            {
              "Pos": 1,
              "Morphemes": [
                {
                  "Word": "",
                  "Root": "",
                  "FeatureSet": [
                    "ns"
                  ]
                }
              ]
            }
          ],
          "PersonConditions": null
        },
        {
          "Word": "My brother",
          "Root": "",
          "FeatureSet": null,
          "Conditions": [
            {
              "Pos": 1,
              "Morphemes": [
                {
                  "Word": "",
                  "Root": "",
                  "FeatureSet": [
                    "s"
                  ]
                }
              ]
            }
          ],
          "PersonConditions": null
        },
        {
          "Word": "My sister",
          "Root": "",
          "FeatureSet": null,
          "Conditions": [
            {
              "Pos": 1,
              "Morphemes": [
                {
                  "Word": "",
                  "Root": "",
                  "FeatureSet": [
                    "s"
                  ]
                }
              ]
            }
          ],
          "PersonConditions": null
        },
        {
          "Word": "They",
          "Root": "",
          "FeatureSet": null,
          "Conditions": [
            {
              "Pos": 1,
              "Morphemes": [
                {
                  "Word": "",
                  "Root": "",
                  "FeatureSet": [
                    "ns"
                  ]
                }
              ]
            }
          ],
          "PersonConditions": null
        }
      ]
    },
    {
      "Pos": 1,
      "PersonName": "x",
      "Candidates": [
        {
          "Word": "do not",
          "Root": "",
          "FeatureSet": [
            "ns"
          ],
          "Conditions": null,
          "PersonConditions": null
        },
        {
          "Word": "does not",
          "Root": "",
          "FeatureSet": [
            "s"
          ],
          "Conditions": null,
          "PersonConditions": null
        }
      ]
    },
    {
      "Pos": 2,
      "PersonName": "x",
      "Candidates": [
        {
          "Word": "smoke",
          "Root": "",
          "FeatureSet": null,
          "Conditions": null,
          "PersonConditions": null
        },
        {
          "Word": "pay attention",
          "Root": "",
          "FeatureSet": null,
          "Conditions": null,
          "PersonConditions": null
        }
      ]
    }
  ],
  "Pars": [
    {
      "Header": "",
      "Poses": [
        0,
        1,
        2
      ]
    }
  ],
  "Exercises": [
    {
      "Name": "A",
      "Problems": [
        {
          "ProblemNo": 0,
          "OriginalCandidates": [
            {
              "Word": "My sister",
              "Ruby": "maɪ ˈsɪstər"
            },
            {
              "Word": "does not",
              "Ruby": "dɪz nɑt"
            },
            {
              "Word": "smoke",
              "Ruby": "smoʊk"
            }
          ],
          "ChangeCandidatePos": 0,
          "ChangeCandidates": [
            {
              "Word": "I",
              "Ruby": "aɪ"
            },
            {
              "Word": "do not",
              "Ruby": "du nɑt"
            },
            {
              "Word": "",
              "Ruby": ""
            }
          ],
          "ChangeMorphemes": [
            {
              "Word": "I",
              "Root": "",
              "FeatureSet": null
            },
            {
              "Word": "",
              "Root": "",
              "FeatureSet": [
                "ns"
              ]
            },
            {
              "Word": "",
              "Root": "",
              "FeatureSet": null
            }
          ],
          "AnswerCandidates": [
            {
              "Word": "I",
              "Ruby": "aɪ"
            },
            {
              "Word": "do not",
              "Ruby": "du nɑt"
            },
            {
              "Word": "smoke",
              "Ruby": "smoʊk"
            }
          ]
        },
        {
          "ProblemNo": 1,
          "OriginalCandidates": [
            {
              "Word": "I",
              "Ruby": "aɪ"
            },
            {
              "Word": "do not",
              "Ruby": "du nɑt"
            },
            {
              "Word": "smoke",
              "Ruby": "smoʊk"
            }
          ],
          "ChangeCandidatePos": 2,
          "ChangeCandidates": [
            {
              "Word": "",
              "Ruby": ""
            },
            {
              "Word": "",
              "Ruby": ""
            },
            {
              "Word": "pay attention",
              "Ruby": "pe əˈtɛnʃən"
            }
          ],
          "ChangeMorphemes": [
            {
              "Word": "",
              "Root": "",
              "FeatureSet": null
            },
            {
              "Word": "",
              "Root": "",
              "FeatureSet": null
            },
            {
              "Word": "pay attention",
              "Root": "",
              "FeatureSet": null
            }
          ],
          "AnswerCandidates": [
            {
              "Word": "I",
              "Ruby": "aɪ"
            },
            {
              "Word": "do not",
              "Ruby": "du nɑt"
            },
            {
              "Word": "pay attention",
              "Ruby": "pe əˈtɛnʃən"
            }
          ]
        },
        {
          "ProblemNo": 2,
          "OriginalCandidates": [
            {
              "Word": "I",
              "Ruby": "aɪ"
            },
            {
              "Word": "do not",
              "Ruby": "du nɑt"
            },
            {
              "Word": "pay attention",
              "Ruby": "pe əˈtɛnʃən"
            }
          ],
          "ChangeCandidatePos": 0,
          "ChangeCandidates": [
            {
              "Word": "My sister",
              "Ruby": "maɪ ˈsɪstər"
            },
            {
              "Word": "does not",
              "Ruby": "dɪz nɑt"
            },
            {
              "Word": "",
              "Ruby": ""
            }
          ],
          "ChangeMorphemes": [
            {
              "Word": "My sister",
              "Root": "",
              "FeatureSet": null
            },
            {
              "Word": "",
              "Root": "",
              "FeatureSet": [
                "s"
              ]
            },
            {
              "Word": "",
              "Root": "",
              "FeatureSet": null
            }
          ],
          "AnswerCandidates": [
            {
              "Word": "My sister",
              "Ruby": "maɪ ˈsɪstər"
            },
            {
              "Word": "does not",
              "Ruby": "dɪz nɑt"
            },
            {
              "Word": "pay attention",
              "Ruby": "pe əˈtɛnʃən"
            }
          ]
        },
        {
          "ProblemNo": 3,
          "OriginalCandidates": [
            {
              "Word": "My sister",
              "Ruby": "maɪ ˈsɪstər"
            },
            {
              "Word": "does not",
              "Ruby": "dɪz nɑt"
            },
            {
              "Word": "pay attention",
              "Ruby": "pe əˈtɛnʃən"
            }
          ],
          "ChangeCandidatePos": 0,
          "ChangeCandidates": [
            {
              "Word": "My brother",
              "Ruby": "maɪ ˈbrəðər"
            },
            {
              "Word": "does not",
              "Ruby": "dɪz nɑt"
            },
            {
              "Word": "",
              "Ruby": ""
            }
          ],
          "ChangeMorphemes": [
            {
              "Word": "My brother",
              "Root": "",
              "FeatureSet": null
            },
            {
              "Word": "",
              "Root": "",
              "FeatureSet": [
                "s"
              ]
            },
            {
              "Word": "",
              "Root": "",
              "FeatureSet": null
            }
          ],
          "AnswerCandidates": [
            {
              "Word": "My brother",
              "Ruby": "maɪ ˈbrəðər"
            },
            {
              "Word": "does not",
              "Ruby": "dɪz nɑt"
            },
            {
              "Word": "pay attention",
              "Ruby": "pe əˈtɛnʃən"
            }
          ]
        },
        {
          "ProblemNo": 4,
          "OriginalCandidates": [
            {
              "Word": "My brother",
              "Ruby": "maɪ ˈbrəðər"
            },
            {
              "Word": "does not",
              "Ruby": "dɪz nɑt"
            },
            {
              "Word": "pay attention",
              "Ruby": "pe əˈtɛnʃən"
            }
          ],
          "ChangeCandidatePos": 0,
          "ChangeCandidates": [
            {
              "Word": "They",
              "Ruby": "ðe"
            },
            {
              "Word": "do not",
              "Ruby": "du nɑt"
            },
            {
              "Word": "",
              "Ruby": ""
            }
          ],
          "ChangeMorphemes": [
            {
              "Word": "They",
              "Root": "",
              "FeatureSet": null
            },
            {
              "Word": "",
              "Root": "",
              "FeatureSet": [
                "ns"
              ]
            },
            {
              "Word": "",
              "Root": "",
              "FeatureSet": null
            }
          ],
          "AnswerCandidates": [
            {
              "Word": "They",
              "Ruby": "ðe"
            },
            {
              "Word": "do not",
              "Ruby": "du nɑt"
            },
            {
              "Word": "pay attention",
              "Ruby": "pe əˈtɛnʃən"
            }
          ]
        }
      ],
      "VideoFile": "grammar-en-beginner-simple_13_A.mp4",
      "AnimeticCaptions": [
        {
          "Start": 0,
          "End": 2,
          "Text": "{My brother}",
          "Ruby": "maɪ ˈbrəðər",
          "Lang": "en",
          "ProblemNo": 3,
          "Kind": 2
        },
        {
          "Start": 2,
          "End": 5,
          "Text": "English grammar exercises #13 do not",
          "Ruby": "",
          "Lang": "",
          "ProblemNo": 0,
          "Kind": 0
        },
        {
          "Start": 5,
          "End": 8,
          "Text": "{My sister does not smoke}",
          "Ruby": "maɪ ˈsɪstər dɪz nɑt smoʊk",
          "Lang": "en",
          "ProblemNo": 0,
          "Kind": 1
        },
        {
          "Start": 8,
          "End": 9,
          "Text": "{I}",
          "Ruby": "aɪ",
          "Lang": "en",
          "ProblemNo": 0,
          "Kind": 2
        },
        {
          "Start": 9,
          "End": 11,
          "Text": "{do not}",
          "Ruby": "du nɑt",
          "Lang": "en",
          "ProblemNo": 0,
          "Kind": 2
        },
        {
          "Start": 11,
          "End": 15,
          "Text": "{I do not smoke}",
          "Ruby": "aɪ du nɑt smoʊk",
          "Lang": "en",
          "ProblemNo": 0,
          "Kind": 3
        },
        {
          "Start": 15,
          "End": 20,
          "Text": "{I do not smoke}",
          "Ruby": "aɪ du nɑt smoʊk",
          "Lang": "en",
          "ProblemNo": 0,
          "Kind": 4
        },
        {
          "Start": 20,
          "End": 23,
          "Text": "{I do not smoke}",
          "Ruby": "aɪ du nɑt smoʊk",
          "Lang": "en",
          "ProblemNo": 1,
          "Kind": 1
        },
        {
          "Start": 23,
          "End": 25,
          "Text": "{pay attention}",
          "Ruby": "pe əˈtɛnʃən",
          "Lang": "en",
          "ProblemNo": 1,
          "Kind": 2
        },
        {
          "Start": 25,
          "End": 29,
          "Text": "{I do not pay attention}",
          "Ruby": "aɪ du nɑt pe əˈtɛnʃən",
          "Lang": "en",
          "ProblemNo": 1,
          "Kind": 3
        },
        {
          "Start": 29,
          "End": 34,
          "Text": "{I do not pay attention}",
          "Ruby": "aɪ du nɑt pe əˈtɛnʃən",
          "Lang": "en",
          "ProblemNo": 1,
          "Kind": 4
        },
        {
          "Start": 34,
          "End": 37,
          "Text": "{I do not pay attention}",
          "Ruby": "aɪ du nɑt pe əˈtɛnʃən",
          "Lang": "en",
          "ProblemNo": 2,
          "Kind": 1
        },
        {
          "Start": 37,
          "End": 39,
          "Text": "{My sister}",
          "Ruby": "maɪ ˈsɪstər",
          "Lang": "en",
          "ProblemNo": 2,
          "Kind": 2
        },
        {
          "Start": 39,
          "End": 41,
          "Text": "{does not}",
          "Ruby": "dɪz nɑt",
          "Lang": "en",
          "ProblemNo": 2,
          "Kind": 2
        },
        {
          "Start": 41,
          "End": 46,
          "Text": "{My sister does not pay attention}",
          "Ruby": "maɪ ˈsɪstər dɪz nɑt pe əˈtɛnʃən",
          "Lang": "en",
          "ProblemNo": 2,
          "Kind": 3
        },
        {
          "Start": 46,
          "End": 52,
          "Text": "{My sister does not pay attention}",
          "Ruby": "maɪ ˈsɪstər dɪz nɑt pe əˈtɛnʃən",
          "Lang": "en",
          "ProblemNo": 2,
          "Kind": 4
        },
        {
          "Start": 52,
          "End": 56,
          "Text": "{My sister does not pay attention}",
          "Ruby": "maɪ ˈsɪstər dɪz nɑt pe əˈtɛnʃən",
          "Lang": "en",
          "ProblemNo": 3,
          "Kind": 1
        },
        {
          "Start": 56,
          "End": 58,
          "Text": "{My brother}",
          "Ruby": "maɪ ˈbrəðər",
          "Lang": "en",
          "ProblemNo": 3,
          "Kind": 2
        },
        {
          "Start": 58,
          "End": 60,
          "Text": "{does not}",
          "Ruby": "dɪz nɑt",
          "Lang": "en",
          "ProblemNo": 3,
          "Kind": 2
        },
        {
          "Start": 60,
          "End": 65,
          "Text": "{My brother does not pay attention}",
          "Ruby": "maɪ ˈbrəðər dɪz nɑt pe əˈtɛnʃən",
          "Lang": "en",
          "ProblemNo": 3,
          "Kind": 3
        },
        {
          "Start": 65,
          "End": 71,
          "Text": "{My brother does not pay attention}",
          "Ruby": "maɪ ˈbrəðər dɪz nɑt pe əˈtɛnʃən",
          "Lang": "en",
          "ProblemNo": 3,
          "Kind": 4
        },
        {
          "Start": 71,
          "End": 75,
          "Text": "{My brother does not pay attention}",
          "Ruby": "maɪ ˈbrəðər dɪz nɑt pe əˈtɛnʃən",
          "Lang": "en",
          "ProblemNo": 4,
          "Kind": 1
        },
        {
          "Start": 75,
          "End": 76,
          "Text": "{They}",
          "Ruby": "ðe",
          "Lang": "en",
          "ProblemNo": 4,
          "Kind": 2
        },
        {
          "Start": 76,
          "End": 78,
          "Text": "{do not}",
          "Ruby": "du nɑt",
          "Lang": "en",
          "ProblemNo": 4,
          "Kind": 2
        },
        {
          "Start": 78,
          "End": 82,
          "Text": "{They do not pay attention}",
          "Ruby": "ðe du nɑt pe əˈtɛnʃən",
          "Lang": "en",
          "ProblemNo": 4,
          "Kind": 3
        },
        {
          "Start": 82,
          "End": 87,
          "Text": "{They do not pay attention}",
          "Ruby": "ðe du nɑt pe əˈtɛnʃən",
          "Lang": "en",
          "ProblemNo": 4,
          "Kind": 4
        },
        {
          "Start": 87,
          "End": 90,
          "Text": "",
          "Ruby": "",
          "Lang": "",
          "ProblemNo": 0,
          "Kind": 5
        },
        {
          "Start": 90,
          "End": 93,
          "Text": "{My sister does not smoke}",
          "Ruby": "maɪ ˈsɪstər dɪz nɑt smoʊk",
          "Lang": "en",
          "ProblemNo": 0,
          "Kind": 1
        },
        {
          "Start": 93,
          "End": 94,
          "Text": "{I}",
          "Ruby": "aɪ",
          "Lang": "en",
          "ProblemNo": 0,
          "Kind": 2
        },
        {
          "Start": 94,
          "End": 98,
          "Text": "{I do not smoke}",
          "Ruby": "aɪ du nɑt smoʊk",
          "Lang": "en",
          "ProblemNo": 0,
          "Kind": 3
        },
        {
          "Start": 98,
          "End": 103,
          "Text": "{I do not smoke}",
          "Ruby": "aɪ du nɑt smoʊk",
          "Lang": "en",
          "ProblemNo": 0,
          "Kind": 4
        },
        {
          "Start": 103,
          "End": 106,
          "Text": "{I do not smoke}",
          "Ruby": "aɪ du nɑt smoʊk",
          "Lang": "en",
          "ProblemNo": 1,
          "Kind": 1
        },
        {
          "Start": 106,
          "End": 108,
          "Text": "{pay attention}",
          "Ruby": "pe əˈtɛnʃən",
          "Lang": "en",
          "ProblemNo": 1,
          "Kind": 2
        },
        {
          "Start": 108,
          "End": 112,
          "Text": "{I do not pay attention}",
          "Ruby": "aɪ du nɑt pe əˈtɛnʃən",
          "Lang": "en",
          "ProblemNo": 1,
          "Kind": 3
        },
        {
          "Start": 112,
          "End": 117,
          "Text": "{I do not pay attention}",
          "Ruby": "aɪ du nɑt pe əˈtɛnʃən",
          "Lang": "en",
          "ProblemNo": 1,
          "Kind": 4
        },
        {
          "Start": 117,
          "End": 120,
          "Text": "{I do not pay attention}",
          "Ruby": "aɪ du nɑt pe əˈtɛnʃən",
          "Lang": "en",
          "ProblemNo": 2,
          "Kind": 1
        },
        {
          "Start": 120,
          "End": 122,
          "Text": "{My sister}",
          "Ruby": "maɪ ˈsɪstər",
          "Lang": "en",
          "ProblemNo": 2,
          "Kind": 2
        },
        {
          "Start": 122,
          "End": 127,
          "Text": "{My sister does not pay attention}",
          "Ruby": "maɪ ˈsɪstər dɪz nɑt pe əˈtɛnʃən",
          "Lang": "en",
          "ProblemNo": 2,
          "Kind": 3
        },
        {
          "Start": 127,
          "End": 133,
          "Text": "{My sister does not pay attention}",
          "Ruby": "maɪ ˈsɪstər dɪz nɑt pe əˈtɛnʃən",
          "Lang": "en",
          "ProblemNo": 2,
          "Kind": 4
        },
        {
          "Start": 133,
          "End": 137,
          "Text": "{My sister does not pay attention}",
          "Ruby": "maɪ ˈsɪstər dɪz nɑt pe əˈtɛnʃən",
          "Lang": "en",
          "ProblemNo": 3,
          "Kind": 1
        },
        {
          "Start": 137,
          "End": 139,
          "Text": "{My brother}",
          "Ruby": "maɪ ˈbrəðər",
          "Lang": "en",
          "ProblemNo": 3,
          "Kind": 2
        },
        {
          "Start": 139,
          "End": 144,
          "Text": "{My brother does not pay attention}",
          "Ruby": "maɪ ˈbrəðər dɪz nɑt pe əˈtɛnʃən",
          "Lang": "en",
          "ProblemNo": 3,
          "Kind": 3
        },
        {
          "Start": 144,
          "End": 150,
          "Text": "{My brother does not pay attention}",
          "Ruby": "maɪ ˈbrəðər dɪz nɑt pe əˈtɛnʃən",
          "Lang": "en",
          "ProblemNo": 3,
          "Kind": 4
        },
        {
          "Start": 150,
          "End": 154,
          "Text": "{My brother does not pay attention}",
          "Ruby": "maɪ ˈbrəðər dɪz nɑt pe əˈtɛnʃən",
          "Lang": "en",
          "ProblemNo": 4,
          "Kind": 1
        },
        {
          "Start": 154,
          "End": 155,
          "Text": "{They}",
          "Ruby": "ðe",
          "Lang": "en",
          "ProblemNo": 4,
          "Kind": 2
        },
        {
          "Start": 155,
          "End": 159,
          "Text": "{They do not pay attention}",
          "Ruby": "ðe du nɑt pe əˈtɛnʃən",
          "Lang": "en",
          "ProblemNo": 4,
          "Kind": 3
        },
        {
          "Start": 159,
          "End": 164,
          "Text": "{They do not pay attention}",
          "Ruby": "ðe du nɑt pe əˈtɛnʃən",
          "Lang": "en",
          "ProblemNo": 4,
          "Kind": 4
        },
        {
          "Start": 164,
          "End": 167,
          "Text": "",
          "Ruby": "",
          "Lang": "",
          "ProblemNo": 0,
          "Kind": 5
        },
        {
          "Start": 167,
          "End": 170,
          "Text": "{My sister does not smoke}",
          "Ruby": "maɪ ˈsɪstər dɪz nɑt smoʊk",
          "Lang": "en",
          "ProblemNo": 0,
          "Kind": 1
        },
        {
          "Start": 170,
          "End": 171,
          "Text": "{I}",
          "Ruby": "aɪ",
          "Lang": "en",
          "ProblemNo": 0,
          "Kind": 2
        },
        {
          "Start": 171,
          "End": 175,
          "Text": "{I do not smoke}",
          "Ruby": "aɪ du nɑt smoʊk",
          "Lang": "en",
          "ProblemNo": 0,
          "Kind": 3
        },
        {
          "Start": 175,
          "End": 180,
          "Text": "{I do not smoke}",
          "Ruby": "aɪ du nɑt smoʊk",
          "Lang": "en",
          "ProblemNo": 0,
          "Kind": 4
        },
        {
          "Start": 180,
          "End": 183,
          "Text": "{I do not smoke}",
          "Ruby": "aɪ du nɑt smoʊk",
          "Lang": "en",
          "ProblemNo": 1,
          "Kind": 1
        },
        {
          "Start": 183,
          "End": 185,
          "Text": "{pay attention}",
          "Ruby": "pe əˈtɛnʃən",
          "Lang": "en",
          "ProblemNo": 1,
          "Kind": 2
        },
        {
          "Start": 185,
          "End": 189,
          "Text": "{I do not pay attention}",
          "Ruby": "aɪ du nɑt pe əˈtɛnʃən",
          "Lang": "en",
          "ProblemNo": 1,
          "Kind": 3
        },
        {
          "Start": 189,
          "End": 194,
          "Text": "{I do not pay attention}",
          "Ruby": "aɪ du nɑt pe əˈtɛnʃən",
          "Lang": "en",
          "ProblemNo": 1,
          "Kind": 4
        },
        {
          "Start": 194,
          "End": 197,
          "Text": "{I do not pay attention}",
          "Ruby": "aɪ du nɑt pe əˈtɛnʃən",
          "Lang": "en",
          "ProblemNo": 2,
          "Kind": 1
        },
        {
          "Start": 197,
          "End": 199,
          "Text": "{My sister}",
          "Ruby": "maɪ ˈsɪstər",
          "Lang": "en",
          "ProblemNo": 2,
          "Kind": 2
        },
        {
          "Start": 199,
          "End": 204,
          "Text": "{My sister does not pay attention}",
          "Ruby": "maɪ ˈsɪstər dɪz nɑt pe əˈtɛnʃən",
          "Lang": "en",
          "ProblemNo": 2,
          "Kind": 3
        },
        {
          "Start": 204,
          "End": 210,
          "Text": "{My sister does not pay attention}",
          "Ruby": "maɪ ˈsɪstər dɪz nɑt pe əˈtɛnʃən",
          "Lang": "en",
          "ProblemNo": 2,
          "Kind": 4
        },
        {
          "Start": 210,
          "End": 214,
          "Text": "{My sister does not pay attention}",
          "Ruby": "maɪ ˈsɪstər dɪz nɑt pe əˈtɛnʃən",
          "Lang": "en",
          "ProblemNo": 3,
          "Kind": 1
        },
        {
          "Start": 214,
          "End": 216,
          "Text": "{My brother}",
          "Ruby": "maɪ ˈbrəðər",
          "Lang": "en",
          "ProblemNo": 3,
          "Kind": 2
        },
        {
          "Start": 216,
          "End": 221,
          "Text": "{My brother does not pay attention}",
          "Ruby": "maɪ ˈbrəðər dɪz nɑt pe əˈtɛnʃən",
          "Lang": "en",
          "ProblemNo": 3,
          "Kind": 3
        },
        {
          "Start": 221,
          "End": 227,
          "Text": "{My brother does not pay attention}",
          "Ruby": "maɪ ˈbrəðər dɪz nɑt pe əˈtɛnʃən",
          "Lang": "en",
          "ProblemNo": 3,
          "Kind": 4
        },
        {
          "Start": 227,
          "End": 231,
          "Text": "{My brother does not pay attention}",
          "Ruby": "maɪ ˈbrəðər dɪz nɑt pe əˈtɛnʃən",
          "Lang": "en",
          "ProblemNo": 4,
          "Kind": 1
        },
        {
          "Start": 231,
          "End": 232,
          "Text": "{They}",
          "Ruby": "ðe",
          "Lang": "en",
          "ProblemNo": 4,
          "Kind": 2
        },
        {
          "Start": 232,
          "End": 236,
          "Text": "{They do not pay attention}",
          "Ruby": "ðe du nɑt pe əˈtɛnʃən",
          "Lang": "en",
          "ProblemNo": 4,
          "Kind": 3
        },
        {
          "Start": 236,
          "End": 241,
          "Text": "{They do not pay attention}",
          "Ruby": "ðe du nɑt pe əˈtɛnʃən",
          "Lang": "en",
          "ProblemNo": 4,
          "Kind": 4
        },
        {
          "Start": 241,
          "End": 244,
          "Text": "",
          "Ruby": "",
          "Lang": "",
          "ProblemNo": 0,
          "Kind": 5
        },
        {
          "Start": 244,
          "End": 264,
          "Text": "{Please subscribe!}",
          "Ruby": "",
          "Lang": "en",
          "ProblemNo": 0,
          "Kind": 7
        }
      ]
    },
    {
      "Name": "AU",
      "Problems": [
        {
          "ProblemNo": 0,
          "OriginalCandidates": [
            {
              "Word": "My sister",
              "Ruby": "maɪ ˈsɪstər"
            },
            {
              "Word": "does not",
              "Ruby": "dɪz nɑt"
            },
            {
              "Word": "smoke",
              "Ruby": "smoʊk"
            }
          ],
          "ChangeCandidatePos": 0,
          "ChangeCandidates": [
            {
              "Word": "My brother",
              "Ruby": "maɪ ˈbrəðər"
            },
            {
              "Word": "does not",
              "Ruby": "dɪz nɑt"
            },
            {
              "Word": "",
              "Ruby": ""
            }
          ],
          "ChangeMorphemes": [
            {
              "Word": "My brother",
              "Root": "",
              "FeatureSet": null
            },
            {
              "Word": "",
              "Root": "",
              "FeatureSet": [
                "s"
              ]
            },
            {
              "Word": "",
              "Root": "",
              "FeatureSet": null
            }
          ],
          "AnswerCandidates": [
            {
              "Word": "My brother",
              "Ruby": "maɪ ˈbrəðər"
            },
            {
              "Word": "does not",
              "Ruby": "dɪz nɑt"
            },
            {
              "Word": "smoke",
              "Ruby": "smoʊk"
            }
          ]
        },
        {
          "ProblemNo": 1,
          "OriginalCandidates": [
            {
              "Word": "My brother",
              "Ruby": "maɪ ˈbrəðər"
            },
            {
              "Word": "does not",
              "Ruby": "dɪz nɑt"
            },
            {
              "Word": "smoke",
              "Ruby": "smoʊk"
            }
          ],
          "ChangeCandidatePos": 0,
          "ChangeCandidates": [
            {
              "Word": "I",
              "Ruby": "aɪ"
            },
            {
              "Word": "do not",
              "Ruby": "du nɑt"
            },
            {
              "Word": "",
              "Ruby": ""
            }
          ],
          "ChangeMorphemes": [
            {
              "Word": "I",
              "Root": "",
              "FeatureSet": null
            },
            {
              "Word": "",
              "Root": "",
              "FeatureSet": [
                "ns"
              ]
            },
            {
              "Word": "",
              "Root": "",
              "FeatureSet": null
            }
          ],
          "AnswerCandidates": [
            {
              "Word": "I",
              "Ruby": "aɪ"
            },
            {
              "Word": "do not",
              "Ruby": "du nɑt"
            },
            {
              "Word": "smoke",
              "Ruby": "smoʊk"
            }
          ]
        },
        {
          "ProblemNo": 2,
          "OriginalCandidates": [
            {
              "Word": "I",
              "Ruby": "aɪ"
            },
            {
              "Word": "do not",
              "Ruby": "du nɑt"
            },
            {
              "Word": "smoke",
              "Ruby": "smoʊk"
            }
          ],
          "ChangeCandidatePos": 2,
          "ChangeCandidates": [
            {
              "Word": "",
              "Ruby": ""
            },
            {
              "Word": "",
              "Ruby": ""
            },
            {
              "Word": "pay attention",
              "Ruby": "pe əˈtɛnʃən"
            }
          ],
          "ChangeMorphemes": [
            {
              "Word": "",
              "Root": "",
              "FeatureSet": null
            },
            {
              "Word": "",
              "Root": "",
              "FeatureSet": null
            },
            {
              "Word": "pay attention",
              "Root": "",
              "FeatureSet": null
            }
          ],
          "AnswerCandidates": [
            {
              "Word": "I",
              "Ruby": "aɪ"
            },
            {
              "Word": "do not",
              "Ruby": "du nɑt"
            },
            {
              "Word": "pay attention",
              "Ruby": "pe əˈtɛnʃən"
            }
          ]
        },
        {
          "ProblemNo": 3,
          "OriginalCandidates": [
            {
              "Word": "I",
              "Ruby": "aɪ"
            },
            {
              "Word": "do not",
              "Ruby": "du nɑt"
            },
            {
              "Word": "pay attention",
              "Ruby": "pe əˈtɛnʃən"
            }
          ],
          "ChangeCandidatePos": 0,
          "ChangeCandidates": [
            {
              "Word": "My sister",
              "Ruby": "maɪ ˈsɪstər"
            },
            {
              "Word": "does not",
              "Ruby": "dɪz nɑt"
            },
            {
              "Word": "",
              "Ruby": ""
            }
          ],
          "ChangeMorphemes": [
            {
              "Word": "My sister",
              "Root": "",
              "FeatureSet": null
            },
            {
              "Word": "",
              "Root": "",
              "FeatureSet": [
                "s"
              ]
            },
            {
              "Word": "",
              "Root": "",
              "FeatureSet": null
            }
          ],
          "AnswerCandidates": [
            {
              "Word": "My sister",
              "Ruby": "maɪ ˈsɪstər"
            },
            {
              "Word": "does not",
              "Ruby": "dɪz nɑt"
            },
            {
              "Word": "pay attention",
              "Ruby": "pe əˈtɛnʃən"
            }
          ]
        },
        {
          "ProblemNo": 4,
          "OriginalCandidates": [
            {
              "Word": "My sister",
              "Ruby": "maɪ ˈsɪstər"
            },
            {
              "Word": "does not",
              "Ruby": "dɪz nɑt"
            },
            {
              "Word": "pay attention",
              "Ruby": "pe əˈtɛnʃən"
            }
          ],
          "ChangeCandidatePos": 0,
          "ChangeCandidates": [
            {
              "Word": "They",
              "Ruby": "ðe"
            },
            {
              "Word": "do not",
              "Ruby": "du nɑt"
            },
            {
              "Word": "",
              "Ruby": ""
            }
          ],
          "ChangeMorphemes": [
            {
              "Word": "They",
              "Root": "",
              "FeatureSet": null
            },
            {
              "Word": "",
              "Root": "",
              "FeatureSet": [
                "ns"
              ]
            },
            {
              "Word": "",
              "Root": "",
              "FeatureSet": null
            }
          ],
          "AnswerCandidates": [
            {
              "Word": "They",
              "Ruby": "ðe"
            },
            {
              "Word": "do not",
              "Ruby": "du nɑt"
            },
            {
              "Word": "pay attention",
              "Ruby": "pe əˈtɛnʃən"
            }
          ]
        }
      ],
      "VideoFile": "grammar-en-beginner-simple_13_AU.mp4",
      "AnimeticCaptions": [
        {
          "Start": 0,
          "End": 1,
          "Text": "{My sister}",
          "Ruby": "maɪ ˈsɪstər",
          "Lang": "en",
          "ProblemNo": 3,
          "Kind": 2
        },
        {
          "Start": 1,
          "End": 4,
          "Text": "English grammar exercises (Australia) #13 do not",
          "Ruby": "",
          "Lang": "",
          "ProblemNo": 0,
          "Kind": 0
        },
        {
          "Start": 4,
          "End": 7,
          "Text": "{My sister does not smoke}",
          "Ruby": "maɪ ˈsɪstər dɪz nɑt smoʊk",
          "Lang": "en",
          "ProblemNo": 0,
          "Kind": 1
        },
        {
          "Start": 7,
          "End": 8,
          "Text": "{My brother}",
          "Ruby": "maɪ ˈbrəðər",
          "Lang": "en",
          "ProblemNo": 0,
          "Kind": 2
        },
        {
          "Start": 8,
          "End": 9,
          "Text": "{does not}",
          "Ruby": "dɪz nɑt",
          "Lang": "en",
          "ProblemNo": 0,
          "Kind": 2
        },
        {
          "Start": 9,
          "End": 13,
          "Text": "{My brother does not smoke}",
          "Ruby": "maɪ ˈbrəðər dɪz nɑt smoʊk",
          "Lang": "en",
          "ProblemNo": 0,
          "Kind": 3
        },
        {
          "Start": 13,
          "End": 18,
          "Text": "{My brother does not smoke}",
          "Ruby": "maɪ ˈbrəðər dɪz nɑt smoʊk",
          "Lang": "en",
          "ProblemNo": 0,
          "Kind": 4
        },
        {
          "Start": 18,
          "End": 21,
          "Text": "{My brother does not smoke}",
          "Ruby": "maɪ ˈbrəðər dɪz nɑt smoʊk",
          "Lang": "en",
          "ProblemNo": 1,
          "Kind": 1
        },
        {
          "Start": 21,
          "End": 22,
          "Text": "{I}",
          "Ruby": "aɪ",
          "Lang": "en",
          "ProblemNo": 1,
          "Kind": 2
        },
        {
          "Start": 22,
          "End": 23,
          "Text": "{do not}",
          "Ruby": "du nɑt",
          "Lang": "en",
          "ProblemNo": 1,
          "Kind": 2
        },
        {
          "Start": 23,
          "End": 27,
          "Text": "{I do not smoke}",
          "Ruby": "aɪ du nɑt smoʊk",
          "Lang": "en",
          "ProblemNo": 1,
          "Kind": 3
        },
        {
          "Start": 27,
          "End": 32,
          "Text": "{I do not smoke}",
          "Ruby": "aɪ du nɑt smoʊk",
          "Lang": "en",
          "ProblemNo": 1,
          "Kind": 4
        },
        {
          "Start": 32,
          "End": 35,
          "Text": "{I do not smoke}",
          "Ruby": "aɪ du nɑt smoʊk",
          "Lang": "en",
          "ProblemNo": 2,
          "Kind": 1
        },
        {
          "Start": 35,
          "End": 37,
          "Text": "{pay attention}",
          "Ruby": "pe əˈtɛnʃən",
          "Lang": "en",
          "ProblemNo": 2,
          "Kind": 2
        },
        {
          "Start": 37,
          "End": 41,
          "Text": "{I do not pay attention}",
          "Ruby": "aɪ du nɑt pe əˈtɛnʃən",
          "Lang": "en",
          "ProblemNo": 2,
          "Kind": 3
        },
        {
          "Start": 41,
          "End": 46,
          "Text": "{I do not pay attention}",
          "Ruby": "aɪ du nɑt pe əˈtɛnʃən",
          "Lang": "en",
          "ProblemNo": 2,
          "Kind": 4
        },
        {
          "Start": 46,
          "End": 49,
          "Text": "{I do not pay attention}",
          "Ruby": "aɪ du nɑt pe əˈtɛnʃən",
          "Lang": "en",
          "ProblemNo": 3,
          "Kind": 1
        },
        {
          "Start": 49,
          "End": 50,
          "Text": "{My sister}",
          "Ruby": "maɪ ˈsɪstər",
          "Lang": "en",
          "ProblemNo": 3,
          "Kind": 2
        },
        {
          "Start": 50,
          "End": 51,
          "Text": "{does not}",
          "Ruby": "dɪz nɑt",
          "Lang": "en",
          "ProblemNo": 3,
          "Kind": 2
        },
        {
          "Start": 51,
          "End": 56,
          "Text": "{My sister does not pay attention}",
          "Ruby": "maɪ ˈsɪstər dɪz nɑt pe əˈtɛnʃən",
          "Lang": "en",
          "ProblemNo": 3,
          "Kind": 3
        },
        {
          "Start": 56,
          "End": 62,
          "Text": "{My sister does not pay attention}",
          "Ruby": "maɪ ˈsɪstər dɪz nɑt pe əˈtɛnʃən",
          "Lang": "en",
          "ProblemNo": 3,
          "Kind": 4
        },
        {
          "Start": 62,
          "End": 66,
          "Text": "{My sister does not pay attention}",
          "Ruby": "maɪ ˈsɪstər dɪz nɑt pe əˈtɛnʃən",
          "Lang": "en",
          "ProblemNo": 4,
          "Kind": 1
        },
        {
          "Start": 66,
          "End": 67,
          "Text": "{They}",
          "Ruby": "ðe",
          "Lang": "en",
          "ProblemNo": 4,
          "Kind": 2
        },
        {
          "Start": 67,
          "End": 68,
          "Text": "{do not}",
          "Ruby": "du nɑt",
          "Lang": "en",
          "ProblemNo": 4,
          "Kind": 2
        },
        {
          "Start": 68,
          "End": 72,
          "Text": "{They do not pay attention}",
          "Ruby": "ðe du nɑt pe əˈtɛnʃən",
          "Lang": "en",
          "ProblemNo": 4,
          "Kind": 3
        },
        {
          "Start": 72,
          "End": 77,
          "Text": "{They do not pay attention}",
          "Ruby": "ðe du nɑt pe əˈtɛnʃən",
          "Lang": "en",
          "ProblemNo": 4,
          "Kind": 4
        },
        {
          "Start": 77,
          "End": 80,
          "Text": "",
          "Ruby": "",
          "Lang": "",
          "ProblemNo": 0,
          "Kind": 5
        },
        {
          "Start": 80,
          "End": 83,
          "Text": "{My sister does not smoke}",
          "Ruby": "maɪ ˈsɪstər dɪz nɑt smoʊk",
          "Lang": "en",
          "ProblemNo": 0,
          "Kind": 1
        },
        {
          "Start": 83,
          "End": 84,
          "Text": "{My brother}",
          "Ruby": "maɪ ˈbrəðər",
          "Lang": "en",
          "ProblemNo": 0,
          "Kind": 2
        },
        {
          "Start": 84,
          "End": 88,
          "Text": "{My brother does not smoke}",
          "Ruby": "maɪ ˈbrəðər dɪz nɑt smoʊk",
          "Lang": "en",
          "ProblemNo": 0,
          "Kind": 3
        },
        {
          "Start": 88,
          "End": 93,
          "Text": "{My brother does not smoke}",
          "Ruby": "maɪ ˈbrəðər dɪz nɑt smoʊk",
          "Lang": "en",
          "ProblemNo": 0,
          "Kind": 4
        },
        {
          "Start": 93,
          "End": 96,
          "Text": "{My brother does not smoke}",
          "Ruby": "maɪ ˈbrəðər dɪz nɑt smoʊk",
          "Lang": "en",
          "ProblemNo": 1,
          "Kind": 1
        },
        {
          "Start": 96,
          "End": 97,
          "Text": "{I}",
          "Ruby": "aɪ",
          "Lang": "en",
          "ProblemNo": 1,
          "Kind": 2
        },
        {
          "Start": 97,
          "End": 101,
          "Text": "{I do not smoke}",
          "Ruby": "aɪ du nɑt smoʊk",
          "Lang": "en",
          "ProblemNo": 1,
          "Kind": 3
        },
        {
          "Start": 101,
          "End": 106,
          "Text": "{I do not smoke}",
          "Ruby": "aɪ du nɑt smoʊk",
          "Lang": "en",
          "ProblemNo": 1,
          "Kind": 4
        },
        {
          "Start": 106,
          "End": 109,
          "Text": "{I do not smoke}",
          "Ruby": "aɪ du nɑt smoʊk",
          "Lang": "en",
          "ProblemNo": 2,
          "Kind": 1
        },
        {
          "Start": 109,
          "End": 111,
          "Text": "{pay attention}",
          "Ruby": "pe əˈtɛnʃən",
          "Lang": "en",
          "ProblemNo": 2,
          "Kind": 2
        },
        {
          "Start": 111,
          "End": 115,
          "Text": "{I do not pay attention}",
          "Ruby": "aɪ du nɑt pe əˈtɛnʃən",
          "Lang": "en",
          "ProblemNo": 2,
          "Kind": 3
        },
        {
          "Start": 115,
          "End": 120,
          "Text": "{I do not pay attention}",
          "Ruby": "aɪ du nɑt pe əˈtɛnʃən",
          "Lang": "en",
          "ProblemNo": 2,
          "Kind": 4
        },
        {
          "Start": 120,
          "End": 123,
          "Text": "{I do not pay attention}",
          "Ruby": "aɪ du nɑt pe əˈtɛnʃən",
          "Lang": "en",
          "ProblemNo": 3,
          "Kind": 1
        },
        {
          "Start": 123,
          "End": 124,
          "Text": "{My sister}",
          "Ruby": "maɪ ˈsɪstər",
          "Lang": "en",
          "ProblemNo": 3,
          "Kind": 2
        },
        {
          "Start": 124,
          "End": 129,
          "Text": "{My sister does not pay attention}",
          "Ruby": "maɪ ˈsɪstər dɪz nɑt pe əˈtɛnʃən",
          "Lang": "en",
          "ProblemNo": 3,
          "Kind": 3
        },
        {
          "Start": 129,
          "End": 135,
          "Text": "{My sister does not pay attention}",
          "Ruby": "maɪ ˈsɪstər dɪz nɑt pe əˈtɛnʃən",
          "Lang": "en",
          "ProblemNo": 3,
          "Kind": 4
        },
        {
          "Start": 135,
          "End": 139,
          "Text": "{My sister does not pay attention}",
          "Ruby": "maɪ ˈsɪstər dɪz nɑt pe əˈtɛnʃən",
          "Lang": "en",
          "ProblemNo": 4,
          "Kind": 1
        },
        {
          "Start": 139,
          "End": 140,
          "Text": "{They}",
          "Ruby": "ðe",
          "Lang": "en",
          "ProblemNo": 4,
          "Kind": 2
        },
        {
          "Start": 140,
          "End": 144,
          "Text": "{They do not pay attention}",
          "Ruby": "ðe du nɑt pe əˈtɛnʃən",
          "Lang": "en",
          "ProblemNo": 4,
          "Kind": 3
        },
        {
          "Start": 144,
          "End": 149,
          "Text": "{They do not pay attention}",
          "Ruby": "ðe du nɑt pe əˈtɛnʃən",
          "Lang": "en",
          "ProblemNo": 4,
          "Kind": 4
        },
        {
          "Start": 149,
          "End": 152,
          "Text": "",
          "Ruby": "",
          "Lang": "",
          "ProblemNo": 0,
          "Kind": 5
        },
        {
          "Start": 152,
          "End": 155,
          "Text": "{My sister does not smoke}",
          "Ruby": "maɪ ˈsɪstər dɪz nɑt smoʊk",
          "Lang": "en",
          "ProblemNo": 0,
          "Kind": 1
        },
        {
          "Start": 155,
          "End": 156,
          "Text": "{My brother}",
          "Ruby": "maɪ ˈbrəðər",
          "Lang": "en",
          "ProblemNo": 0,
          "Kind": 2
        },
        {
          "Start": 156,
          "End": 160,
          "Text": "{My brother does not smoke}",
          "Ruby": "maɪ ˈbrəðər dɪz nɑt smoʊk",
          "Lang": "en",
          "ProblemNo": 0,
          "Kind": 3
        },
        {
          "Start": 160,
          "End": 165,
          "Text": "{My brother does not smoke}",
          "Ruby": "maɪ ˈbrəðər dɪz nɑt smoʊk",
          "Lang": "en",
          "ProblemNo": 0,
          "Kind": 4
        },
        {
          "Start": 165,
          "End": 168,
          "Text": "{My brother does not smoke}",
          "Ruby": "maɪ ˈbrəðər dɪz nɑt smoʊk",
          "Lang": "en",
          "ProblemNo": 1,
          "Kind": 1
        },
        {
          "Start": 168,
          "End": 169,
          "Text": "{I}",
          "Ruby": "aɪ",
          "Lang": "en",
          "ProblemNo": 1,
          "Kind": 2
        },
        {
          "Start": 169,
          "End": 173,
          "Text": "{I do not smoke}",
          "Ruby": "aɪ du nɑt smoʊk",
          "Lang": "en",
          "ProblemNo": 1,
          "Kind": 3
        },
        {
          "Start": 173,
          "End": 178,
          "Text": "{I do not smoke}",
          "Ruby": "aɪ du nɑt smoʊk",
          "Lang": "en",
          "ProblemNo": 1,
          "Kind": 4
        },
        {
          "Start": 178,
          "End": 181,
          "Text": "{I do not smoke}",
          "Ruby": "aɪ du nɑt smoʊk",
          "Lang": "en",
          "ProblemNo": 2,
          "Kind": 1
        },
        {
          "Start": 181,
          "End": 183,
          "Text": "{pay attention}",
          "Ruby": "pe əˈtɛnʃən",
          "Lang": "en",
          "ProblemNo": 2,
          "Kind": 2
        },
        {
          "Start": 183,
          "End": 187,
          "Text": "{I do not pay attention}",
          "Ruby": "aɪ du nɑt pe əˈtɛnʃən",
          "Lang": "en",
          "ProblemNo": 2,
          "Kind": 3
        },
        {
          "Start": 187,
          "End": 192,
          "Text": "{I do not pay attention}",
          "Ruby": "aɪ du nɑt pe əˈtɛnʃən",
          "Lang": "en",
          "ProblemNo": 2,
          "Kind": 4
        },
        {
          "Start": 192,
          "End": 195,
          "Text": "{I do not pay attention}",
          "Ruby": "aɪ du nɑt pe əˈtɛnʃən",
          "Lang": "en",
          "ProblemNo": 3,
          "Kind": 1
        },
        {
          "Start": 195,
          "End": 196,
          "Text": "{My sister}",
          "Ruby": "maɪ ˈsɪstər",
          "Lang": "en",
          "ProblemNo": 3,
          "Kind": 2
        },
        {
          "Start": 196,
          "End": 201,
          "Text": "{My sister does not pay attention}",
          "Ruby": "maɪ ˈsɪstər dɪz nɑt pe əˈtɛnʃən",
          "Lang": "en",
          "ProblemNo": 3,
          "Kind": 3
        },
        {
          "Start": 201,
          "End": 207,
          "Text": "{My sister does not pay attention}",
          "Ruby": "maɪ ˈsɪstər dɪz nɑt pe əˈtɛnʃən",
          "Lang": "en",
          "ProblemNo": 3,
          "Kind": 4
        },
        {
          "Start": 207,
          "End": 211,
          "Text": "{My sister does not pay attention}",
          "Ruby": "maɪ ˈsɪstər dɪz nɑt pe əˈtɛnʃən",
          "Lang": "en",
          "ProblemNo": 4,
          "Kind": 1
        },
        {
          "Start": 211,
          "End": 212,
          "Text": "{They}",
          "Ruby": "ðe",
          "Lang": "en",
          "ProblemNo": 4,
          "Kind": 2
        },
        {
          "Start": 212,
          "End": 216,
          "Text": "{They do not pay attention}",
          "Ruby": "ðe du nɑt pe əˈtɛnʃən",
          "Lang": "en",
          "ProblemNo": 4,
          "Kind": 3
        },
        {
          "Start": 216,
          "End": 221,
          "Text": "{They do not pay attention}",
          "Ruby": "ðe du nɑt pe əˈtɛnʃən",
          "Lang": "en",
          "ProblemNo": 4,
          "Kind": 4
        },
        {
          "Start": 221,
          "End": 224,
          "Text": "",
          "Ruby": "",
          "Lang": "",
          "ProblemNo": 0,
          "Kind": 5
        },
        {
          "Start": 224,
          "End": 244,
          "Text": "{Please subscribe!}",
          "Ruby": "",
          "Lang": "en",
          "ProblemNo": 0,
          "Kind": 7
        }
      ]
    },
    {
      "Name": "IN",
      "Problems": [
        {
          "ProblemNo": 0,
          "OriginalCandidates": [
            {
              "Word": "My brother",
              "Ruby": "maɪ ˈbrəðər"
            },
            {
              "Word": "does not",
              "Ruby": "dɪz nɑt"
            },
            {
              "Word": "pay attention",
              "Ruby": "pe əˈtɛnʃən"
            }
          ],
          "ChangeCandidatePos": 0,
          "ChangeCandidates": [
            {
              "Word": "My sister",
              "Ruby": "maɪ ˈsɪstər"
            },
            {
              "Word": "does not",
              "Ruby": "dɪz nɑt"
            },
            {
              "Word": "",
              "Ruby": ""
            }
          ],
          "ChangeMorphemes": [
            {
              "Word": "My sister",
              "Root": "",
              "FeatureSet": null
            },
            {
              "Word": "",
              "Root": "",
              "FeatureSet": [
                "s"
              ]
            },
            {
              "Word": "",
              "Root": "",
              "FeatureSet": null
            }
          ],
          "AnswerCandidates": [
            {
              "Word": "My sister",
              "Ruby": "maɪ ˈsɪstər"
            },
            {
              "Word": "does not",
              "Ruby": "dɪz nɑt"
            },
            {
              "Word": "pay attention",
              "Ruby": "pe əˈtɛnʃən"
            }
          ]
        },
        {
          "ProblemNo": 1,
          "OriginalCandidates": [
            {
              "Word": "My sister",
              "Ruby": "maɪ ˈsɪstər"
            },
            {
              "Word": "does not",
              "Ruby": "dɪz nɑt"
            },
            {
              "Word": "pay attention",
              "Ruby": "pe əˈtɛnʃən"
            }
          ],
          "ChangeCandidatePos": 2,
          "ChangeCandidates": [
            {
              "Word": "",
              "Ruby": ""
            },
            {
              "Word": "",
              "Ruby": ""
            },
            {
              "Word": "smoke",
              "Ruby": "smoʊk"
            }
          ],
          "ChangeMorphemes": [
            {
              "Word": "",
              "Root": "",
              "FeatureSet": null
            },
            {
              "Word": "",
              "Root": "",
              "FeatureSet": null
            },
            {
              "Word": "smoke",
              "Root": "",
              "FeatureSet": null
            }
          ],
          "AnswerCandidates": [
            {
              "Word": "My sister",
              "Ruby": "maɪ ˈsɪstər"
            },
            {
              "Word": "does not",
              "Ruby": "dɪz nɑt"
            },
            {
              "Word": "smoke",
              "Ruby": "smoʊk"
            }
          ]
        },
        {
          "ProblemNo": 2,
          "OriginalCandidates": [
            {
              "Word": "My sister",
              "Ruby": "maɪ ˈsɪstər"
            },
            {
              "Word": "does not",
              "Ruby": "dɪz nɑt"
            },
            {
              "Word": "smoke",
              "Ruby": "smoʊk"
            }
          ],
          "ChangeCandidatePos": 0,
          "ChangeCandidates": [
            {
              "Word": "My brother",
              "Ruby": "maɪ ˈbrəðər"
            },
            {
              "Word": "does not",
              "Ruby": "dɪz nɑt"
            },
            {
              "Word": "",
              "Ruby": ""
            }
          ],
          "ChangeMorphemes": [
            {
              "Word": "My brother",
              "Root": "",
              "FeatureSet": null
            },
            {
              "Word": "",
              "Root": "",
              "FeatureSet": [
                "s"
              ]
            },
            {
              "Word": "",
              "Root": "",
              "FeatureSet": null
            }
          ],
          "AnswerCandidates": [
            {
              "Word": "My brother",
              "Ruby": "maɪ ˈbrəðər"
            },
            {
              "Word": "does not",
              "Ruby": "dɪz nɑt"
            },
            {
              "Word": "smoke",
              "Ruby": "smoʊk"
            }
          ]
        },
        {
          "ProblemNo": 3,
          "OriginalCandidates": [
            {
              "Word": "My brother",
              "Ruby": "maɪ ˈbrəðər"
            },
            {
              "Word": "does not",
              "Ruby": "dɪz nɑt"
            },
            {
              "Word": "smoke",
              "Ruby": "smoʊk"
            }
          ],
          "ChangeCandidatePos": 0,
          "ChangeCandidates": [
            {
              "Word": "They",
              "Ruby": "ðe"
            },
            {
              "Word": "do not",
              "Ruby": "du nɑt"
            },
            {
              "Word": "",
              "Ruby": ""
            }
          ],
          "ChangeMorphemes": [
            {
              "Word": "They",
              "Root": "",
              "FeatureSet": null
            },
            {
              "Word": "",
              "Root": "",
              "FeatureSet": [
                "ns"
              ]
            },
            {
              "Word": "",
              "Root": "",
              "FeatureSet": null
            }
          ],
          "AnswerCandidates": [
            {
              "Word": "They",
              "Ruby": "ðe"
            },
            {
              "Word": "do not",
              "Ruby": "du nɑt"
            },
            {
              "Word": "smoke",
              "Ruby": "smoʊk"
            }
          ]
        },
        {
          "ProblemNo": 4,
          "OriginalCandidates": [
            {
              "Word": "They",
              "Ruby": "ðe"
            },
            {
              "Word": "do not",
              "Ruby": "du nɑt"
            },
            {
              "Word": "smoke",
              "Ruby": "smoʊk"
            }
          ],
          "ChangeCandidatePos": 2,
          "ChangeCandidates": [
            {
              "Word": "",
              "Ruby": ""
            },
            {
              "Word": "",
              "Ruby": ""
            },
            {
              "Word": "pay attention",
              "Ruby": "pe əˈtɛnʃən"
            }
          ],
          "ChangeMorphemes": [
            {
              "Word": "",
              "Root": "",
              "FeatureSet": null
            },
            {
              "Word": "",
              "Root": "",
              "FeatureSet": null
            },
            {
              "Word": "pay attention",
              "Root": "",
              "FeatureSet": null
            }
          ],
          "AnswerCandidates": [
            {
              "Word": "They",
              "Ruby": "ðe"
            },
            {
              "Word": "do not",
              "Ruby": "du nɑt"
            },
            {
              "Word": "pay attention",
              "Ruby": "pe əˈtɛnʃən"
            }
          ]
        }
      ],
      "VideoFile": "grammar-en-beginner-simple_13_IN.mp4",
      "AnimeticCaptions": [
        {
          "Start": 0,
          "End": 1,
          "Text": "{They}",
          "Ruby": "ðe",
          "Lang": "en",
          "ProblemNo": 3,
          "Kind": 2
        },
        {
          "Start": 1,
          "End": 4,
          "Text": "English grammar exercises (India) #13 do not",
          "Ruby": "",
          "Lang": "",
          "ProblemNo": 0,
          "Kind": 0
        },
        {
          "Start": 4,
          "End": 8,
          "Text": "{My brother does not pay attention}",
          "Ruby": "maɪ ˈbrəðər dɪz nɑt pe əˈtɛnʃən",
          "Lang": "en",
          "ProblemNo": 0,
          "Kind": 1
        },
        {
          "Start": 8,
          "End": 10,
          "Text": "{My sister}",
          "Ruby": "maɪ ˈsɪstər",
          "Lang": "en",
          "ProblemNo": 0,
          "Kind": 2
        },
        {
          "Start": 10,
          "End": 11,
          "Text": "{does not}",
          "Ruby": "dɪz nɑt",
          "Lang": "en",
          "ProblemNo": 0,
          "Kind": 2
        },
        {
          "Start": 11,
          "End": 16,
          "Text": "{My sister does not pay attention}",
          "Ruby": "maɪ ˈsɪstər dɪz nɑt pe əˈtɛnʃən",
          "Lang": "en",
          "ProblemNo": 0,
          "Kind": 3
        },
        {
          "Start": 16,
          "End": 22,
          "Text": "{My sister does not pay attention}",
          "Ruby": "maɪ ˈsɪstər dɪz nɑt pe əˈtɛnʃən",
          "Lang": "en",
          "ProblemNo": 0,
          "Kind": 4
        },
        {
          "Start": 22,
          "End": 26,
          "Text": "{My sister does not pay attention}",
          "Ruby": "maɪ ˈsɪstər dɪz nɑt pe əˈtɛnʃən",
          "Lang": "en",
          "ProblemNo": 1,
          "Kind": 1
        },
        {
          "Start": 26,
          "End": 27,
          "Text": "{smoke}",
          "Ruby": "smoʊk",
          "Lang": "en",
          "ProblemNo": 1,
          "Kind": 2
        },
        {
          "Start": 27,
          "End": 31,
          "Text": "{My sister does not smoke}",
          "Ruby": "maɪ ˈsɪstər dɪz nɑt smoʊk",
          "Lang": "en",
          "ProblemNo": 1,
          "Kind": 3
        },
        {
          "Start": 31,
          "End": 36,
          "Text": "{My sister does not smoke}",
          "Ruby": "maɪ ˈsɪstər dɪz nɑt smoʊk",
          "Lang": "en",
          "ProblemNo": 1,
          "Kind": 4
        },
        {
          "Start": 36,
          "End": 39,
          "Text": "{My sister does not smoke}",
          "Ruby": "maɪ ˈsɪstər dɪz nɑt smoʊk",
          "Lang": "en",
          "ProblemNo": 2,
          "Kind": 1
        },
        {
          "Start": 39,
          "End": 40,
          "Text": "{My brother}",
          "Ruby": "maɪ ˈbrəðər",
          "Lang": "en",
          "ProblemNo": 2,
          "Kind": 2
        },
        {
          "Start": 40,
          "End": 41,
          "Text": "{does not}",
          "Ruby": "dɪz nɑt",
          "Lang": "en",
          "ProblemNo": 2,
          "Kind": 2
        },
        {
          "Start": 41,
          "End": 45,
          "Text": "{My brother does not smoke}",
          "Ruby": "maɪ ˈbrəðər dɪz nɑt smoʊk",
          "Lang": "en",
          "ProblemNo": 2,
          "Kind": 3
        },
        {
          "Start": 45,
          "End": 50,
          "Text": "{My brother does not smoke}",
          "Ruby": "maɪ ˈbrəðər dɪz nɑt smoʊk",
          "Lang": "en",
          "ProblemNo": 2,
          "Kind": 4
        },
        {
          "Start": 50,
          "End": 53,
          "Text": "{My brother does not smoke}",
          "Ruby": "maɪ ˈbrəðər dɪz nɑt smoʊk",
          "Lang": "en",
          "ProblemNo": 3,
          "Kind": 1
        },
        {
          "Start": 53,
          "End": 54,
          "Text": "{They}",
          "Ruby": "ðe",
          "Lang": "en",
          "ProblemNo": 3,
          "Kind": 2
        },
        {
          "Start": 54,
          "End": 55,
          "Text": "{do not}",
          "Ruby": "du nɑt",
          "Lang": "en",
          "ProblemNo": 3,
          "Kind": 2
        },
        {
          "Start": 55,
          "End": 59,
          "Text": "{They do not smoke}",
          "Ruby": "ðe du nɑt smoʊk",
          "Lang": "en",
          "ProblemNo": 3,
          "Kind": 3
        },
        {
          "Start": 59,
          "End": 64,
          "Text": "{They do not smoke}",
          "Ruby": "ðe du nɑt smoʊk",
          "Lang": "en",
          "ProblemNo": 3,
          "Kind": 4
        },
        {
          "Start": 64,
          "End": 67,
          "Text": "{They do not smoke}",
          "Ruby": "ðe du nɑt smoʊk",
          "Lang": "en",
          "ProblemNo": 4,
          "Kind": 1
        },
        {
          "Start": 67,
          "End": 69,
          "Text": "{pay attention}",
          "Ruby": "pe əˈtɛnʃən",
          "Lang": "en",
          "ProblemNo": 4,
          "Kind": 2
        },
        {
          "Start": 69,
          "End": 73,
          "Text": "{They do not pay attention}",
          "Ruby": "ðe du nɑt pe əˈtɛnʃən",
          "Lang": "en",
          "ProblemNo": 4,
          "Kind": 3
        },
        {
          "Start": 73,
          "End": 78,
          "Text": "{They do not pay attention}",
          "Ruby": "ðe du nɑt pe əˈtɛnʃən",
          "Lang": "en",
          "ProblemNo": 4,
          "Kind": 4
        },
        {
          "Start": 78,
          "End": 81,
          "Text": "",
          "Ruby": "",
          "Lang": "",
          "ProblemNo": 0,
          "Kind": 5
        },
        {
          "Start": 81,
          "End": 85,
          "Text": "{My brother does not pay attention}",
          "Ruby": "maɪ ˈbrəðər dɪz nɑt pe əˈtɛnʃən",
          "Lang": "en",
          "ProblemNo": 0,
          "Kind": 1
        },
        {
          "Start": 85,
          "End": 87,
          "Text": "{My sister}",
          "Ruby": "maɪ ˈsɪstər",
          "Lang": "en",
          "ProblemNo": 0,
          "Kind": 2
        },
        {
          "Start": 87,
          "End": 92,
          "Text": "{My sister does not pay attention}",
          "Ruby": "maɪ ˈsɪstər dɪz nɑt pe əˈtɛnʃən",
          "Lang": "en",
          "ProblemNo": 0,
          "Kind": 3
        },
        {
          "Start": 92,
          "End": 98,
          "Text": "{My sister does not pay attention}",
          "Ruby": "maɪ ˈsɪstər dɪz nɑt pe əˈtɛnʃən",
          "Lang": "en",
          "ProblemNo": 0,
          "Kind": 4
        },
        {
          "Start": 98,
          "End": 102,
          "Text": "{My sister does not pay attention}",
          "Ruby": "maɪ ˈsɪstər dɪz nɑt pe əˈtɛnʃən",
          "Lang": "en",
          "ProblemNo": 1,
          "Kind": 1
        },
        {
          "Start": 102,
          "End": 103,
          "Text": "{smoke}",
          "Ruby": "smoʊk",
          "Lang": "en",
          "ProblemNo": 1,
          "Kind": 2
        },
        {
          "Start": 103,
          "End": 107,
          "Text": "{My sister does not smoke}",
          "Ruby": "maɪ ˈsɪstər dɪz nɑt smoʊk",
          "Lang": "en",
          "ProblemNo": 1,
          "Kind": 3
        },
        {
          "Start": 107,
          "End": 112,
          "Text": "{My sister does not smoke}",
          "Ruby": "maɪ ˈsɪstər dɪz nɑt smoʊk",
          "Lang": "en",
          "ProblemNo": 1,
          "Kind": 4
        },
        {
          "Start": 112,
          "End": 115,
          "Text": "{My sister does not smoke}",
          "Ruby": "maɪ ˈsɪstər dɪz nɑt smoʊk",
          "Lang": "en",
          "ProblemNo": 2,
          "Kind": 1
        },
        {
          "Start": 115,
          "End": 116,
          "Text": "{My brother}",
          "Ruby": "maɪ ˈbrəðər",
          "Lang": "en",
          "ProblemNo": 2,
          "Kind": 2
        },
        {
          "Start": 116,
          "End": 120,
          "Text": "{My brother does not smoke}",
          "Ruby": "maɪ ˈbrəðər dɪz nɑt smoʊk",
          "Lang": "en",
          "ProblemNo": 2,
          "Kind": 3
        },
        {
          "Start": 120,
          "End": 125,
          "Text": "{My brother does not smoke}",
          "Ruby": "maɪ ˈbrəðər dɪz nɑt smoʊk",
          "Lang": "en",
          "ProblemNo": 2,
          "Kind": 4
        },
        {
          "Start": 125,
          "End": 128,
          "Text": "{My brother does not smoke}",
          "Ruby": "maɪ ˈbrəðər dɪz nɑt smoʊk",
          "Lang": "en",
          "ProblemNo": 3,
          "Kind": 1
        },
        {
          "Start": 128,
          "End": 129,
          "Text": "{They}",
          "Ruby": "ðe",
          "Lang": "en",
          "ProblemNo": 3,
          "Kind": 2
        },
        {
          "Start": 129,
          "End": 133,
          "Text": "{They do not smoke}",
          "Ruby": "ðe du nɑt smoʊk",
          "Lang": "en",
          "ProblemNo": 3,
          "Kind": 3
        },
        {
          "Start": 133,
          "End": 138,
          "Text": "{They do not smoke}",
          "Ruby": "ðe du nɑt smoʊk",
          "Lang": "en",
          "ProblemNo": 3,
          "Kind": 4
        },
        {
          "Start": 138,
          "End": 141,
          "Text": "{They do not smoke}",
          "Ruby": "ðe du nɑt smoʊk",
          "Lang": "en",
          "ProblemNo": 4,
          "Kind": 1
        },
        {
          "Start": 141,
          "End": 143,
          "Text": "{pay attention}",
          "Ruby": "pe əˈtɛnʃən",
          "Lang": "en",
          "ProblemNo": 4,
          "Kind": 2
        },
        {
          "Start": 143,
          "End": 147,
          "Text": "{They do not pay attention}",
          "Ruby": "ðe du nɑt pe əˈtɛnʃən",
          "Lang": "en",
          "ProblemNo": 4,
          "Kind": 3
        },
        {
          "Start": 147,
          "End": 152,
          "Text": "{They do not pay attention}",
          "Ruby": "ðe du nɑt pe əˈtɛnʃən",
          "Lang": "en",
          "ProblemNo": 4,
          "Kind": 4
        },
        {
          "Start": 152,
          "End": 155,
          "Text": "",
          "Ruby": "",
          "Lang": "",
          "ProblemNo": 0,
          "Kind": 5
        },
        {
          "Start": 155,
          "End": 159,
          "Text": "{My brother does not pay attention}",
          "Ruby": "maɪ ˈbrəðər dɪz nɑt pe əˈtɛnʃən",
          "Lang": "en",
          "ProblemNo": 0,
          "Kind": 1
        },
        {
          "Start": 159,
          "End": 161,
          "Text": "{My sister}",
          "Ruby": "maɪ ˈsɪstər",
          "Lang": "en",
          "ProblemNo": 0,
          "Kind": 2
        },
        {
          "Start": 161,
          "End": 166,
          "Text": "{My sister does not pay attention}",
          "Ruby": "maɪ ˈsɪstər dɪz nɑt pe əˈtɛnʃən",
          "Lang": "en",
          "ProblemNo": 0,
          "Kind": 3
        },
        {
          "Start": 166,
          "End": 172,
          "Text": "{My sister does not pay attention}",
          "Ruby": "maɪ ˈsɪstər dɪz nɑt pe əˈtɛnʃən",
          "Lang": "en",
          "ProblemNo": 0,
          "Kind": 4
        },
        {
          "Start": 172,
          "End": 176,
          "Text": "{My sister does not pay attention}",
          "Ruby": "maɪ ˈsɪstər dɪz nɑt pe əˈtɛnʃən",
          "Lang": "en",
          "ProblemNo": 1,
          "Kind": 1
        },
        {
          "Start": 176,
          "End": 177,
          "Text": "{smoke}",
          "Ruby": "smoʊk",
          "Lang": "en",
          "ProblemNo": 1,
          "Kind": 2
        },
        {
          "Start": 177,
          "End": 181,
          "Text": "{My sister does not smoke}",
          "Ruby": "maɪ ˈsɪstər dɪz nɑt smoʊk",
          "Lang": "en",
          "ProblemNo": 1,
          "Kind": 3
        },
        {
          "Start": 181,
          "End": 186,
          "Text": "{My sister does not smoke}",
          "Ruby": "maɪ ˈsɪstər dɪz nɑt smoʊk",
          "Lang": "en",
          "ProblemNo": 1,
          "Kind": 4
        },
        {
          "Start": 186,
          "End": 189,
          "Text": "{My sister does not smoke}",
          "Ruby": "maɪ ˈsɪstər dɪz nɑt smoʊk",
          "Lang": "en",
          "ProblemNo": 2,
          "Kind": 1
        },
        {
          "Start": 189,
          "End": 190,
          "Text": "{My brother}",
          "Ruby": "maɪ ˈbrəðər",
          "Lang": "en",
          "ProblemNo": 2,
          "Kind": 2
        },
        {
          "Start": 190,
          "End": 194,
          "Text": "{My brother does not smoke}",
          "Ruby": "maɪ ˈbrəðər dɪz nɑt smoʊk",
          "Lang": "en",
          "ProblemNo": 2,
          "Kind": 3
        },
        {
          "Start": 194,
          "End": 199,
          "Text": "{My brother does not smoke}",
          "Ruby": "maɪ ˈbrəðər dɪz nɑt smoʊk",
          "Lang": "en",
          "ProblemNo": 2,
          "Kind": 4
        },
        {
          "Start": 199,
          "End": 202,
          "Text": "{My brother does not smoke}",
          "Ruby": "maɪ ˈbrəðər dɪz nɑt smoʊk",
          "Lang": "en",
          "ProblemNo": 3,
          "Kind": 1
        },
        {
          "Start": 202,
          "End": 203,
          "Text": "{They}",
          "Ruby": "ðe",
          "Lang": "en",
          "ProblemNo": 3,
          "Kind": 2
        },
        {
          "Start": 203,
          "End": 207,
          "Text": "{They do not smoke}",
          "Ruby": "ðe du nɑt smoʊk",
          "Lang": "en",
          "ProblemNo": 3,
          "Kind": 3
        },
        {
          "Start": 207,
          "End": 212,
          "Text": "{They do not smoke}",
          "Ruby": "ðe du nɑt smoʊk",
          "Lang": "en",
          "ProblemNo": 3,
          "Kind": 4
        },
        {
          "Start": 212,
          "End": 215,
          "Text": "{They do not smoke}",
          "Ruby": "ðe du nɑt smoʊk",
          "Lang": "en",
          "ProblemNo": 4,
          "Kind": 1
        },
        {
          "Start": 215,
          "End": 217,
          "Text": "{pay attention}",
          "Ruby": "pe əˈtɛnʃən",
          "Lang": "en",
          "ProblemNo": 4,
          "Kind": 2
        },
        {
          "Start": 217,
          "End": 221,
          "Text": "{They do not pay attention}",
          "Ruby": "ðe du nɑt pe əˈtɛnʃən",
          "Lang": "en",
          "ProblemNo": 4,
          "Kind": 3
        },
        {
          "Start": 221,
          "End": 226,
          "Text": "{They do not pay attention}",
          "Ruby": "ðe du nɑt pe əˈtɛnʃən",
          "Lang": "en",
          "ProblemNo": 4,
          "Kind": 4
        },
        {
          "Start": 226,
          "End": 229,
          "Text": "",
          "Ruby": "",
          "Lang": "",
          "ProblemNo": 0,
          "Kind": 5
        },
        {
          "Start": 229,
          "End": 249,
          "Text": "{Please subscribe!}",
          "Ruby": "",
          "Lang": "en",
          "ProblemNo": 0,
          "Kind": 7
        }
      ]
    },
    {
      "Name": "UK",
      "Problems": [
        {
          "ProblemNo": 0,
          "OriginalCandidates": [
            {
              "Word": "I",
              "Ruby": "aɪ"
            },
            {
              "Word": "do not",
              "Ruby": "du nɑt"
            },
            {
              "Word": "smoke",
              "Ruby": "smoʊk"
            }
          ],
          "ChangeCandidatePos": 0,
          "ChangeCandidates": [
            {
              "Word": "My brother",
              "Ruby": "maɪ ˈbrəðər"
            },
            {
              "Word": "does not",
              "Ruby": "dɪz nɑt"
            },
            {
              "Word": "",
              "Ruby": ""
            }
          ],
          "ChangeMorphemes": [
            {
              "Word": "My brother",
              "Root": "",
              "FeatureSet": null
            },
            {
              "Word": "",
              "Root": "",
              "FeatureSet": [
                "s"
              ]
            },
            {
              "Word": "",
              "Root": "",
              "FeatureSet": null
            }
          ],
          "AnswerCandidates": [
            {
              "Word": "My brother",
              "Ruby": "maɪ ˈbrəðər"
            },
            {
              "Word": "does not",
              "Ruby": "dɪz nɑt"
            },
            {
              "Word": "smoke",
              "Ruby": "smoʊk"
            }
          ]
        },
        {
          "ProblemNo": 1,
          "OriginalCandidates": [
            {
              "Word": "My brother",
              "Ruby": "maɪ ˈbrəðər"
            },
            {
              "Word": "does not",
              "Ruby": "dɪz nɑt"
            },
            {
              "Word": "smoke",
              "Ruby": "smoʊk"
            }
          ],
          "ChangeCandidatePos": 0,
          "ChangeCandidates": [
            {
              "Word": "They",
              "Ruby": "ðe"
            },
            {
              "Word": "do not",
              "Ruby": "du nɑt"
            },
            {
              "Word": "",
              "Ruby": ""
            }
          ],
          "ChangeMorphemes": [
            {
              "Word": "They",
              "Root": "",
              "FeatureSet": null
            },
            {
              "Word": "",
              "Root": "",
              "FeatureSet": [
                "ns"
              ]
            },
            {
              "Word": "",
              "Root": "",
              "FeatureSet": null
            }
          ],
          "AnswerCandidates": [
            {
              "Word": "They",
              "Ruby": "ðe"
            },
            {
              "Word": "do not",
              "Ruby": "du nɑt"
            },
            {
              "Word": "smoke",
              "Ruby": "smoʊk"
            }
          ]
        },
        {
          "ProblemNo": 2,
          "OriginalCandidates": [
            {
              "Word": "They",
              "Ruby": "ðe"
            },
            {
              "Word": "do not",
              "Ruby": "du nɑt"
            },
            {
              "Word": "smoke",
              "Ruby": "smoʊk"
            }
          ],
          "ChangeCandidatePos": 2,
          "ChangeCandidates": [
            {
              "Word": "",
              "Ruby": ""
            },
            {
              "Word": "",
              "Ruby": ""
            },
            {
              "Word": "pay attention",
              "Ruby": "pe əˈtɛnʃən"
            }
          ],
          "ChangeMorphemes": [
            {
              "Word": "",
              "Root": "",
              "FeatureSet": null
            },
            {
              "Word": "",
              "Root": "",
              "FeatureSet": null
            },
            {
              "Word": "pay attention",
              "Root": "",
              "FeatureSet": null
            }
          ],
          "AnswerCandidates": [
            {
              "Word": "They",
              "Ruby": "ðe"
            },
            {
              "Word": "do not",
              "Ruby": "du nɑt"
            },
            {
              "Word": "pay attention",
              "Ruby": "pe əˈtɛnʃən"
            }
          ]
        },
        {
          "ProblemNo": 3,
          "OriginalCandidates": [
            {
              "Word": "They",
              "Ruby": "ðe"
            },
            {
              "Word": "do not",
              "Ruby": "du nɑt"
            },
            {
              "Word": "pay attention",
              "Ruby": "pe əˈtɛnʃən"
            }
          ],
          "ChangeCandidatePos": 0,
          "ChangeCandidates": [
            {
              "Word": "My sister",
              "Ruby": "maɪ ˈsɪstər"
            },
            {
              "Word": "does not",
              "Ruby": "dɪz nɑt"
            },
            {
              "Word": "",
              "Ruby": ""
            }
          ],
          "ChangeMorphemes": [
            {
              "Word": "My sister",
              "Root": "",
              "FeatureSet": null
            },
            {
              "Word": "",
              "Root": "",
              "FeatureSet": [
                "s"
              ]
            },
            {
              "Word": "",
              "Root": "",
              "FeatureSet": null
            }
          ],
          "AnswerCandidates": [
            {
              "Word": "My sister",
              "Ruby": "maɪ ˈsɪstər"
            },
            {
              "Word": "does not",
              "Ruby": "dɪz nɑt"
            },
            {
              "Word": "pay attention",
              "Ruby": "pe əˈtɛnʃən"
            }
          ]
        },
        {
          "ProblemNo": 4,
          "OriginalCandidates": [
            {
              "Word": "My sister",
              "Ruby": "maɪ ˈsɪstər"
            },
            {
              "Word": "does not",
              "Ruby": "dɪz nɑt"
            },
            {
              "Word": "pay attention",
              "Ruby": "pe əˈtɛnʃən"
            }
          ],
          "ChangeCandidatePos": 0,
          "ChangeCandidates": [
            {
              "Word": "My brother",
              "Ruby": "maɪ ˈbrəðər"
            },
            {
              "Word": "does not",
              "Ruby": "dɪz nɑt"
            },
            {
              "Word": "",
              "Ruby": ""
            }
          ],
          "ChangeMorphemes": [
            {
              "Word": "My brother",
              "Root": "",
              "FeatureSet": null
            },
            {
              "Word": "",
              "Root": "",
              "FeatureSet": [
                "s"
              ]
            },
            {
              "Word": "",
              "Root": "",
              "FeatureSet": null
            }
          ],
          "AnswerCandidates": [
            {
              "Word": "My brother",
              "Ruby": "maɪ ˈbrəðər"
            },
            {
              "Word": "does not",
              "Ruby": "dɪz nɑt"
            },
            {
              "Word": "pay attention",
              "Ruby": "pe əˈtɛnʃən"
            }
          ]
        }
      ],
      "VideoFile": "grammar-en-beginner-simple_13_UK.mp4",
      "AnimeticCaptions": [
        {
          "Start": 0,
          "End": 2,
          "Text": "{My sister}",
          "Ruby": "maɪ ˈsɪstər",
          "Lang": "en",
          "ProblemNo": 3,
          "Kind": 2
        },
        {
          "Start": 2,
          "End": 5,
          "Text": "English grammar exercises (British) #13 do not",
          "Ruby": "",
          "Lang": "",
          "ProblemNo": 0,
          "Kind": 0
        },
        {
          "Start": 5,
          "End": 8,
          "Text": "{I do not smoke}",
          "Ruby": "aɪ du nɑt smoʊk",
          "Lang": "en",
          "ProblemNo": 0,
          "Kind": 1
        },
        {
          "Start": 8,
          "End": 9,
          "Text": "{My brother}",
          "Ruby": "maɪ ˈbrəðər",
          "Lang": "en",
          "ProblemNo": 0,
          "Kind": 2
        },
        {
          "Start": 9,
          "End": 10,
          "Text": "{does not}",
          "Ruby": "dɪz nɑt",
          "Lang": "en",
          "ProblemNo": 0,
          "Kind": 2
        },
        {
          "Start": 10,
          "End": 14,
          "Text": "{My brother does not smoke}",
          "Ruby": "maɪ ˈbrəðər dɪz nɑt smoʊk",
          "Lang": "en",
          "ProblemNo": 0,
          "Kind": 3
        },
        {
          "Start": 14,
          "End": 19,
          "Text": "{My brother does not smoke}",
          "Ruby": "maɪ ˈbrəðər dɪz nɑt smoʊk",
          "Lang": "en",
          "ProblemNo": 0,
          "Kind": 4
        },
        {
          "Start": 19,
          "End": 22,
          "Text": "{My brother does not smoke}",
          "Ruby": "maɪ ˈbrəðər dɪz nɑt smoʊk",
          "Lang": "en",
          "ProblemNo": 1,
          "Kind": 1
        },
        {
          "Start": 22,
          "End": 23,
          "Text": "{They}",
          "Ruby": "ðe",
          "Lang": "en",
          "ProblemNo": 1,
          "Kind": 2
        },
        {
          "Start": 23,
          "End": 24,
          "Text": "{do not}",
          "Ruby": "du nɑt",
          "Lang": "en",
          "ProblemNo": 1,
          "Kind": 2
        },
        {
          "Start": 24,
          "End": 28,
          "Text": "{They do not smoke}",
          "Ruby": "ðe du nɑt smoʊk",
          "Lang": "en",
          "ProblemNo": 1,
          "Kind": 3
        },
        {
          "Start": 28,
          "End": 33,
          "Text": "{They do not smoke}",
          "Ruby": "ðe du nɑt smoʊk",
          "Lang": "en",
          "ProblemNo": 1,
          "Kind": 4
        },
        {
          "Start": 33,
          "End": 36,
          "Text": "{They do not smoke}",
          "Ruby": "ðe du nɑt smoʊk",
          "Lang": "en",
          "ProblemNo": 2,
          "Kind": 1
        },
        {
          "Start": 36,
          "End": 38,
          "Text": "{pay attention}",
          "Ruby": "pe əˈtɛnʃən",
          "Lang": "en",
          "ProblemNo": 2,
          "Kind": 2
        },
        {
          "Start": 38,
          "End": 42,
          "Text": "{They do not pay attention}",
          "Ruby": "ðe du nɑt pe əˈtɛnʃən",
          "Lang": "en",
          "ProblemNo": 2,
          "Kind": 3
        },
        {
          "Start": 42,
          "End": 47,
          "Text": "{They do not pay attention}",
          "Ruby": "ðe du nɑt pe əˈtɛnʃən",
          "Lang": "en",
          "ProblemNo": 2,
          "Kind": 4
        },
        {
          "Start": 47,
          "End": 50,
          "Text": "{They do not pay attention}",
          "Ruby": "ðe du nɑt pe əˈtɛnʃən",
          "Lang": "en",
          "ProblemNo": 3,
          "Kind": 1
        },
        {
          "Start": 50,
          "End": 52,
          "Text": "{My sister}",
          "Ruby": "maɪ ˈsɪstər",
          "Lang": "en",
          "ProblemNo": 3,
          "Kind": 2
        },
        {
          "Start": 52,
          "End": 53,
          "Text": "{does not}",
          "Ruby": "dɪz nɑt",
          "Lang": "en",
          "ProblemNo": 3,
          "Kind": 2
        },
        {
          "Start": 53,
          "End": 58,
          "Text": "{My sister does not pay attention}",
          "Ruby": "maɪ ˈsɪstər dɪz nɑt pe əˈtɛnʃən",
          "Lang": "en",
          "ProblemNo": 3,
          "Kind": 3
        },
        {
          "Start": 58,
          "End": 64,
          "Text": "{My sister does not pay attention}",
          "Ruby": "maɪ ˈsɪstər dɪz nɑt pe əˈtɛnʃən",
          "Lang": "en",
          "ProblemNo": 3,
          "Kind": 4
        },
        {
          "Start": 64,
          "End": 68,
          "Text": "{My sister does not pay attention}",
          "Ruby": "maɪ ˈsɪstər dɪz nɑt pe əˈtɛnʃən",
          "Lang": "en",
          "ProblemNo": 4,
          "Kind": 1
        },
        {
          "Start": 68,
          "End": 69,
          "Text": "{My brother}",
          "Ruby": "maɪ ˈbrəðər",
          "Lang": "en",
          "ProblemNo": 4,
          "Kind": 2
        },
        {
          "Start": 69,
          "End": 70,
          "Text": "{does not}",
          "Ruby": "dɪz nɑt",
          "Lang": "en",
          "ProblemNo": 4,
          "Kind": 2
        },
        {
          "Start": 70,
          "End": 75,
          "Text": "{My brother does not pay attention}",
          "Ruby": "maɪ ˈbrəðər dɪz nɑt pe əˈtɛnʃən",
          "Lang": "en",
          "ProblemNo": 4,
          "Kind": 3
        },
        {
          "Start": 75,
          "End": 81,
          "Text": "{My brother does not pay attention}",
          "Ruby": "maɪ ˈbrəðər dɪz nɑt pe əˈtɛnʃən",
          "Lang": "en",
          "ProblemNo": 4,
          "Kind": 4
        },
        {
          "Start": 81,
          "End": 84,
          "Text": "",
          "Ruby": "",
          "Lang": "",
          "ProblemNo": 0,
          "Kind": 5
        },
        {
          "Start": 84,
          "End": 87,
          "Text": "{I do not smoke}",
          "Ruby": "aɪ du nɑt smoʊk",
          "Lang": "en",
          "ProblemNo": 0,
          "Kind": 1
        },
        {
          "Start": 87,
          "End": 88,
          "Text": "{My brother}",
          "Ruby": "maɪ ˈbrəðər",
          "Lang": "en",
          "ProblemNo": 0,
          "Kind": 2
        },
        {
          "Start": 88,
          "End": 92,
          "Text": "{My brother does not smoke}",
          "Ruby": "maɪ ˈbrəðər dɪz nɑt smoʊk",
          "Lang": "en",
          "ProblemNo": 0,
          "Kind": 3
        },
        {
          "Start": 92,
          "End": 97,
          "Text": "{My brother does not smoke}",
          "Ruby": "maɪ ˈbrəðər dɪz nɑt smoʊk",
          "Lang": "en",
          "ProblemNo": 0,
          "Kind": 4
        },
        {
          "Start": 97,
          "End": 100,
          "Text": "{My brother does not smoke}",
          "Ruby": "maɪ ˈbrəðər dɪz nɑt smoʊk",
          "Lang": "en",
          "ProblemNo": 1,
          "Kind": 1
        },
        {
          "Start": 100,
          "End": 101,
          "Text": "{They}",
          "Ruby": "ðe",
          "Lang": "en",
          "ProblemNo": 1,
          "Kind": 2
        },
        {
          "Start": 101,
          "End": 105,
          "Text": "{They do not smoke}",
          "Ruby": "ðe du nɑt smoʊk",
          "Lang": "en",
          "ProblemNo": 1,
          "Kind": 3
        },
        {
          "Start": 105,
          "End": 110,
          "Text": "{They do not smoke}",
          "Ruby": "ðe du nɑt smoʊk",
          "Lang": "en",
          "ProblemNo": 1,
          "Kind": 4
        },
        {
          "Start": 110,
          "End": 113,
          "Text": "{They do not smoke}",
          "Ruby": "ðe du nɑt smoʊk",
          "Lang": "en",
          "ProblemNo": 2,
          "Kind": 1
        },
        {
          "Start": 113,
          "End": 115,
          "Text": "{pay attention}",
          "Ruby": "pe əˈtɛnʃən",
          "Lang": "en",
          "ProblemNo": 2,
          "Kind": 2
        },
        {
          "Start": 115,
          "End": 119,
          "Text": "{They do not pay attention}",
          "Ruby": "ðe du nɑt pe əˈtɛnʃən",
          "Lang": "en",
          "ProblemNo": 2,
          "Kind": 3
        },
        {
          "Start": 119,
          "End": 124,
          "Text": "{They do not pay attention}",
          "Ruby": "ðe du nɑt pe əˈtɛnʃən",
          "Lang": "en",
          "ProblemNo": 2,
          "Kind": 4
        },
        {
          "Start": 124,
          "End": 127,
          "Text": "{They do not pay attention}",
          "Ruby": "ðe du nɑt pe əˈtɛnʃən",
          "Lang": "en",
          "ProblemNo": 3,
          "Kind": 1
        },
        {
          "Start": 127,
          "End": 129,
          "Text": "{My sister}",
          "Ruby": "maɪ ˈsɪstər",
          "Lang": "en",
          "ProblemNo": 3,
          "Kind": 2
        },
        {
          "Start": 129,
          "End": 134,
          "Text": "{My sister does not pay attention}",
          "Ruby": "maɪ ˈsɪstər dɪz nɑt pe əˈtɛnʃən",
          "Lang": "en",
          "ProblemNo": 3,
          "Kind": 3
        },
        {
          "Start": 134,
          "End": 140,
          "Text": "{My sister does not pay attention}",
          "Ruby": "maɪ ˈsɪstər dɪz nɑt pe əˈtɛnʃən",
          "Lang": "en",
          "ProblemNo": 3,
          "Kind": 4
        },
        {
          "Start": 140,
          "End": 144,
          "Text": "{My sister does not pay attention}",
          "Ruby": "maɪ ˈsɪstər dɪz nɑt pe əˈtɛnʃən",
          "Lang": "en",
          "ProblemNo": 4,
          "Kind": 1
        },
        {
          "Start": 144,
          "End": 145,
          "Text": "{My brother}",
          "Ruby": "maɪ ˈbrəðər",
          "Lang": "en",
          "ProblemNo": 4,
          "Kind": 2
        },
        {
          "Start": 145,
          "End": 150,
          "Text": "{My brother does not pay attention}",
          "Ruby": "maɪ ˈbrəðər dɪz nɑt pe əˈtɛnʃən",
          "Lang": "en",
          "ProblemNo": 4,
          "Kind": 3
        },
        {
          "Start": 150,
          "End": 156,
          "Text": "{My brother does not pay attention}",
          "Ruby": "maɪ ˈbrəðər dɪz nɑt pe əˈtɛnʃən",
          "Lang": "en",
          "ProblemNo": 4,
          "Kind": 4
        },
        {
          "Start": 156,
          "End": 159,
          "Text": "",
          "Ruby": "",
          "Lang": "",
          "ProblemNo": 0,
          "Kind": 5
        },
        {
          "Start": 159,
          "End": 162,
          "Text": "{I do not smoke}",
          "Ruby": "aɪ du nɑt smoʊk",
          "Lang": "en",
          "ProblemNo": 0,
          "Kind": 1
        },
        {
          "Start": 162,
          "End": 163,
          "Text": "{My brother}",
          "Ruby": "maɪ ˈbrəðər",
          "Lang": "en",
          "ProblemNo": 0,
          "Kind": 2
        },
        {
          "Start": 163,
          "End": 167,
          "Text": "{My brother does not smoke}",
          "Ruby": "maɪ ˈbrəðər dɪz nɑt smoʊk",
          "Lang": "en",
          "ProblemNo": 0,
          "Kind": 3
        },
        {
          "Start": 167,
          "End": 172,
          "Text": "{My brother does not smoke}",
          "Ruby": "maɪ ˈbrəðər dɪz nɑt smoʊk",
          "Lang": "en",
          "ProblemNo": 0,
          "Kind": 4
        },
        {
          "Start": 172,
          "End": 175,
          "Text": "{My brother does not smoke}",
          "Ruby": "maɪ ˈbrəðər dɪz nɑt smoʊk",
          "Lang": "en",
          "ProblemNo": 1,
          "Kind": 1
        },
        {
          "Start": 175,
          "End": 176,
          "Text": "{They}",
          "Ruby": "ðe",
          "Lang": "en",
          "ProblemNo": 1,
          "Kind": 2
        },
        {
          "Start": 176,
          "End": 180,
          "Text": "{They do not smoke}",
          "Ruby": "ðe du nɑt smoʊk",
          "Lang": "en",
          "ProblemNo": 1,
          "Kind": 3
        },
        {
          "Start": 180,
          "End": 185,
          "Text": "{They do not smoke}",
          "Ruby": "ðe du nɑt smoʊk",
          "Lang": "en",
          "ProblemNo": 1,
          "Kind": 4
        },
        {
          "Start": 185,
          "End": 188,
          "Text": "{They do not smoke}",
          "Ruby": "ðe du nɑt smoʊk",
          "Lang": "en",
          "ProblemNo": 2,
          "Kind": 1
        },
        {
          "Start": 188,
          "End": 190,
          "Text": "{pay attention}",
          "Ruby": "pe əˈtɛnʃən",
          "Lang": "en",
          "ProblemNo": 2,
          "Kind": 2
        },
        {
          "Start": 190,
          "End": 194,
          "Text": "{They do not pay attention}",
          "Ruby": "ðe du nɑt pe əˈtɛnʃən",
          "Lang": "en",
          "ProblemNo": 2,
          "Kind": 3
        },
        {
          "Start": 194,
          "End": 199,
          "Text": "{They do not pay attention}",
          "Ruby": "ðe du nɑt pe əˈtɛnʃən",
          "Lang": "en",
          "ProblemNo": 2,
          "Kind": 4
        },
        {
          "Start": 199,
          "End": 202,
          "Text": "{They do not pay attention}",
          "Ruby": "ðe du nɑt pe əˈtɛnʃən",
          "Lang": "en",
          "ProblemNo": 3,
          "Kind": 1
        },
        {
          "Start": 202,
          "End": 204,
          "Text": "{My sister}",
          "Ruby": "maɪ ˈsɪstər",
          "Lang": "en",
          "ProblemNo": 3,
          "Kind": 2
        },
        {
          "Start": 204,
          "End": 209,
          "Text": "{My sister does not pay attention}",
          "Ruby": "maɪ ˈsɪstər dɪz nɑt pe əˈtɛnʃən",
          "Lang": "en",
          "ProblemNo": 3,
          "Kind": 3
        },
        {
          "Start": 209,
          "End": 215,
          "Text": "{My sister does not pay attention}",
          "Ruby": "maɪ ˈsɪstər dɪz nɑt pe əˈtɛnʃən",
          "Lang": "en",
          "ProblemNo": 3,
          "Kind": 4
        },
        {
          "Start": 215,
          "End": 219,
          "Text": "{My sister does not pay attention}",
          "Ruby": "maɪ ˈsɪstər dɪz nɑt pe əˈtɛnʃən",
          "Lang": "en",
          "ProblemNo": 4,
          "Kind": 1
        },
        {
          "Start": 219,
          "End": 220,
          "Text": "{My brother}",
          "Ruby": "maɪ ˈbrəðər",
          "Lang": "en",
          "ProblemNo": 4,
          "Kind": 2
        },
        {
          "Start": 220,
          "End": 225,
          "Text": "{My brother does not pay attention}",
          "Ruby": "maɪ ˈbrəðər dɪz nɑt pe əˈtɛnʃən",
          "Lang": "en",
          "ProblemNo": 4,
          "Kind": 3
        },
        {
          "Start": 225,
          "End": 231,
          "Text": "{My brother does not pay attention}",
          "Ruby": "maɪ ˈbrəðər dɪz nɑt pe əˈtɛnʃən",
          "Lang": "en",
          "ProblemNo": 4,
          "Kind": 4
        },
        {
          "Start": 231,
          "End": 234,
          "Text": "",
          "Ruby": "",
          "Lang": "",
          "ProblemNo": 0,
          "Kind": 5
        },
        {
          "Start": 234,
          "End": 254,
          "Text": "{Please subscribe!}",
          "Ruby": "",
          "Lang": "en",
          "ProblemNo": 0,
          "Kind": 7
        }
      ]
    }
  ],
  "CannotChange": true
}