{
  "SerieName": "grammar-en-beginner-simple",
  "No": 77,
  "VideoTitle": "Could you?",
  "ThumbnailTitle": "",
  "YoutubeDescription": "",
  "YoutubeTitle": "",
  "Boxes": [
    {
      "Pos": 0,
      "PersonName": "x",
      "Candidates": [
        {
          "Word": "Could you",
          "Root": "",
          "FeatureSet": null,
          "Conditions": null,
          "PersonConditions": null
        }
      ]
    },
    {
      "Pos": 1,
      "PersonName": "x",
      "Candidates": [
        {
          "Word": "open the door",
          "Root": "",
          "FeatureSet": null,
          "Conditions": null,
          "PersonConditions": null
        },
        {
          "Word": "play music",
          "Root": "",
          "FeatureSet": null,
          "Conditions": null,
          "PersonConditions": null
        },
        {
          "Word": "wait a moment",
          "Root": "",
          "FeatureSet": null,
          "Conditions": null,
          "PersonConditions": null
        },
        {
          "Word": "phone me tomorrow",
          "Root": "",
          "FeatureSet": null,
          "Conditions": null,
          "PersonConditions": null
        },
        {
          "Word": "open the window",
          "Root": "",
          "FeatureSet": null,
          "Conditions": null,
          "PersonConditions": null
        },
        {
          "Word": "sing a song",
          "Root": "",
          "FeatureSet": null,
          "Conditions": null,
          "PersonConditions": null
        }
      ]
    },
    {
      "Pos": 2,
      "PersonName": "x",
      "Candidates": [
        {
          "Word": "?",
          "Root": "",
          "FeatureSet": null,
          "Conditions": null,
          "PersonConditions": null
        }
      ]
    }
  ],
  "Pars": [
    {
      "Header": "",
      "Poses": [
        0,
        1,
        2
      ]
    }
  ],
  "Exercises": [
    {
      "Name": "A",
      "Problems": [
        {
          "ProblemNo": 0,
          "OriginalCandidates": [
            {
              "Word": "Could you",
              "Ruby": "kʊd ju"
            },
            {
              "Word": "play music",
              "Ruby": "ple mˈjuzɪk"
            },
            {
              "Word": "?",
              "Ruby": ""
            }
          ],
          "ChangeCandidatePos": 1,
          "ChangeCandidates": [
            {
              "Word": "",
              "Ruby": ""
            },
            {
              "Word": "open the window",
              "Ruby": "ˈoʊpən ðə ˈwɪndoʊ"
            },
            {
              "Word": "",
              "Ruby": ""
            }
          ],
          "ChangeMorphemes": [
            {
              "Word": "",
              "Root": "",
              "FeatureSet": null
            },
            {
              "Word": "open the window",
              "Root": "",
              "FeatureSet": null
            },
            {
              "Word": "",
              "Root": "",
              "FeatureSet": null
            }
          ],
          "AnswerCandidates": [
            {
              "Word": "Could you",
              "Ruby": "kʊd ju"
            },
            {
              "Word": "open the window",
              "Ruby": "ˈoʊpən ðə ˈwɪndoʊ"
            },
            {
              "Word": "?",
              "Ruby": ""
            }
          ]
        },
        {
          "ProblemNo": 1,
          "OriginalCandidates": [
            {
              "Word": "Could you",
              "Ruby": "kʊd ju"
            },
            {
              "Word": "open the window",
              "Ruby": "ˈoʊpən ðə ˈwɪndoʊ"
            },
            {
              "Word": "?",
              "Ruby": ""
            }
          ],
          "ChangeCandidatePos": 1,
          "ChangeCandidates": [
            {
              "Word": "",
              "Ruby": ""
            },
            {
              "Word": "open the door",
              "Ruby": "ˈoʊpən ðə dɔr"
            },
            {
              "Word": "",
              "Ruby": ""
            }
          ],
          "ChangeMorphemes": [
            {
              "Word": "",
              "Root": "",
              "FeatureSet": null
            },
            {
              "Word": "open the door",
              "Root": "",
              "FeatureSet": null
            },
            {
              "Word": "",
              "Root": "",
              "FeatureSet": null
            }
          ],
          "AnswerCandidates": [
            {
              "Word": "Could you",
              "Ruby": "kʊd ju"
            },
            {
              "Word": "open the door",
              "Ruby": "ˈoʊpən ðə dɔr"
            },
            {
              "Word": "?",
              "Ruby": ""
            }
          ]
        },
        {
          "ProblemNo": 2,
          "OriginalCandidates": [
            {
              "Word": "Could you",
              "Ruby": "kʊd ju"
            },
            {
              "Word": "open the door",
              "Ruby": "ˈoʊpən ðə dɔr"
            },
            {
              "Word": "?",
              "Ruby": ""
            }
          ],
          "ChangeCandidatePos": 1,
          "ChangeCandidates": [
            {
              "Word": "",
              "Ruby": ""
            },
            {
              "Word": "sing a song",
              "Ruby": "sɪŋ ə sɔŋ"
            },
            {
              "Word": "",
              "Ruby": ""
            }
          ],
          "ChangeMorphemes": [
            {
              "Word": "",
              "Root": "",
              "FeatureSet": null
            },
            {
              "Word": "sing a song",
              "Root": "",
              "FeatureSet": null
            },
            {
              "Word": "",
              "Root": "",
              "FeatureSet": null
            }
          ],
          "AnswerCandidates": [
            {
              "Word": "Could you",
              "Ruby": "kʊd ju"
            },
            {
              "Word": "sing a song",
              "Ruby": "sɪŋ ə sɔŋ"
            },
            {
              "Word": "?",
              "Ruby": ""
            }
          ]
        },
        {
          "ProblemNo": 3,
          "OriginalCandidates": [
            {
              "Word": "Could you",
              "Ruby": "kʊd ju"
            },
            {
              "Word": "sing a song",
              "Ruby": "sɪŋ ə sɔŋ"
            },
            {
              "Word": "?",
              "Ruby": ""
            }
          ],
          "ChangeCandidatePos": 1,
          "ChangeCandidates": [
            {
              "Word": "",
              "Ruby": ""
            },
            {
              "Word": "phone me tomorrow",
              "Ruby": "foʊn mi təˈmɑˌroʊ"
            },
            {
              "Word": "",
              "Ruby": ""
            }
          ],
          "ChangeMorphemes": [
            {
              "Word": "",
              "Root": "",
              "FeatureSet": null
            },
            {
              "Word": "phone me tomorrow",
              "Root": "",
              "FeatureSet": null
            },
            {
              "Word": "",
              "Root": "",
              "FeatureSet": null
            }
          ],
          "AnswerCandidates": [
            {
              "Word": "Could you",
              "Ruby": "kʊd ju"
            },
            {
              "Word": "phone me tomorrow",
              "Ruby": "foʊn mi təˈmɑˌroʊ"
            },
            {
              "Word": "?",
              "Ruby": ""
            }
          ]
        },
        {
          "ProblemNo": 4,
          "OriginalCandidates": [
            {
              "Word": "Could you",
              "Ruby": "kʊd ju"
            },
            {
              "Word": "phone me tomorrow",
              "Ruby": "foʊn mi təˈmɑˌroʊ"
            },
            {
              "Word": "?",
              "Ruby": ""
            }
          ],
          "ChangeCandidatePos": 1,
          "ChangeCandidates": [
            {
              "Word": "",
              "Ruby": ""
            },
            {
              "Word": "wait a moment",
              "Ruby": "wet ə ˈmoʊmənt"
            },
            {
              "Word": "",
              "Ruby": ""
            }
          ],
          "ChangeMorphemes": [
            {
              "Word": "",
              "Root": "",
              "FeatureSet": null
            },
            {
              "Word": "wait a moment",
              "Root": "",
              "FeatureSet": null
            },
            {
              "Word": "",
              "Root": "",
              "FeatureSet": null
            }
          ],
          "AnswerCandidates": [
            {
              "Word": "Could you",
              "Ruby": "kʊd ju"
            },
            {
              "Word": "wait a moment",
              "Ruby": "wet ə ˈmoʊmənt"
            },
            {
              "Word": "?",
              "Ruby": ""
            }
          ]
        }
      ],
      "VideoFile": "grammar-en-beginner-simple_77_A.mp4",
      "AnimeticCaptions": [
        {
          "Start": 0,
          "End": 2,
          "Text": "{phone me tomorrow}",
          "Ruby": "foʊn mi təˈmɑˌroʊ",
          "Lang": "en",
          "ProblemNo": 3,
          "Kind": 2
        },
        {
          "Start": 2,
          "End": 5,
          "Text": "English grammar exercises #77 Could you?",
          "Ruby": "",
          "Lang": "",
          "ProblemNo": 0,
          "Kind": 0
        },
        {
          "Start": 5,
          "End": 8,
          "Text": "{Could you play music ?}",
          "Ruby": "kʊd ju ple mˈjuzɪk ",
          "Lang": "en",
          "ProblemNo": 0,
          "Kind": 1
        },
        {
          "Start": 8,
          "End": 10,
          "Text": "{open the window}",
          "Ruby": "ˈoʊpən ðə ˈwɪndoʊ",
          "Lang": "en",
          "ProblemNo": 0,
          "Kind": 2
        },
        {
          "Start": 10,
          "End": 14,
          "Text": "{Could you open the window ?}",
          "Ruby": "kʊd ju ˈoʊpən ðə ˈwɪndoʊ ",
          "Lang": "en",
          "ProblemNo": 0,
          "Kind": 3
        },
        {
          "Start": 14,
          "End": 19,
          "Text": "{Could you open the window ?}",
          "Ruby": "kʊd ju ˈoʊpən ðə ˈwɪndoʊ ",
          "Lang": "en",
          "ProblemNo": 0,
          "Kind": 4
        },
        {
          "Start": 19,
          "End": 22,
          "Text": "{Could you open the window ?}",
          "Ruby": "kʊd ju ˈoʊpən ðə ˈwɪndoʊ ",
          "Lang": "en",
          "ProblemNo": 1,
          "Kind": 1
        },
        {
          "Start": 22,
          "End": 24,
          "Text": "{open the door}",
          "Ruby": "ˈoʊpən ðə dɔr",
          "Lang": "en",
          "ProblemNo": 1,
          "Kind": 2
        },
        {
          "Start": 24,
          "End": 28,
          "Text": "{Could you open the door ?}",
          "Ruby": "kʊd ju ˈoʊpən ðə dɔr ",
          "Lang": "en",
          "ProblemNo": 1,
          "Kind": 3
        },
        {
          "Start": 28,
          "End": 33,
          "Text": "{Could you open the door ?}",
          "Ruby": "kʊd ju ˈoʊpən ðə dɔr ",
          "Lang": "en",
          "ProblemNo": 1,
          "Kind": 4
        },
        {
          "Start": 33,
          "End": 36,
          "Text": "{Could you open the door ?}",
          "Ruby": "kʊd ju ˈoʊpən ðə dɔr ",
          "Lang": "en",
          "ProblemNo": 2,
          "Kind": 1
        },
        {
          "Start": 36,
          "End": 38,
          "Text": "{sing a song}",
          "Ruby": "sɪŋ ə sɔŋ",
          "Lang": "en",
          "ProblemNo": 2,
          "Kind": 2
        },
        {
          "Start": 38,
          "End": 42,
          "Text": "{Could you sing a song ?}",
          "Ruby": "kʊd ju sɪŋ ə sɔŋ ",
          "Lang": "en",
          "ProblemNo": 2,
          "Kind": 3
        },
        {
          "Start": 42,
          "End": 47,
          "Text": "{Could you sing a song ?}",
          "Ruby": "kʊd ju sɪŋ ə sɔŋ ",
          "Lang": "en",
          "ProblemNo": 2,
          "Kind": 4
        },
        {
          "Start": 47,
          "End": 50,
          "Text": "{Could you sing a song ?}",
          "Ruby": "kʊd ju sɪŋ ə sɔŋ ",
          "Lang": "en",
          "ProblemNo": 3,
          "Kind": 1
        },
        {
          "Start": 50,
          "End": 52,
          "Text": "{phone me tomorrow}",
          "Ruby": "foʊn mi təˈmɑˌroʊ",
          "Lang": "en",
          "ProblemNo": 3,
          "Kind": 2
        },
        {
          "Start": 52,
          "End": 56,
          "Text": "{Could you phone me tomorrow ?}",
          "Ruby": "kʊd ju foʊn mi təˈmɑˌroʊ ",
          "Lang": "en",
          "ProblemNo": 3,
          "Kind": 3
        },
        {
          "Start": 56,
          "End": 61,
          "Text": "{Could you phone me tomorrow ?}",
          "Ruby": "kʊd ju foʊn mi təˈmɑˌroʊ ",
          "Lang": "en",
          "ProblemNo": 3,
          "Kind": 4
        },
        {
          "Start": 61,
          "End": 64,
          "Text": "{Could you phone me tomorrow ?}",
          "Ruby": "kʊd ju foʊn mi təˈmɑˌroʊ ",
          "Lang": "en",
          "ProblemNo": 4,
          "Kind": 1
        },
        {
          "Start": 64,
          "End": 66,
          "Text": "{wait a moment}",
          "Ruby": "wet ə ˈmoʊmənt",
          "Lang": "en",
          "ProblemNo": 4,
          "Kind": 2
        },
        {
          "Start": 66,
          "End": 70,
          "Text": "{Could you wait a moment ?}",
          "Ruby": "kʊd ju wet ə ˈmoʊmənt ",
          "Lang": "en",
          "ProblemNo": 4,
          "Kind": 3
        },
        {
          "Start": 70,
          "End": 75,
          "Text": "{Could you wait a moment ?}",
          "Ruby": "kʊd ju wet ə ˈmoʊmənt ",
          "Lang": "en",
          "ProblemNo": 4,
          "Kind": 4
        },
        {
          "Start": 75,
          "End": 78,
          "Text": "",
          "Ruby": "",
          "Lang": "",
          "ProblemNo": 0,
          "Kind": 5
        },
        {
          "Start": 78,
          "End": 81,
          "Text": "{Could you play music ?}",
          "Ruby": "kʊd ju ple mˈjuzɪk ",
          "Lang": "en",
          "ProblemNo": 0,
          "Kind": 1
        },
        {
          "Start": 81,
          "End": 83,
          "Text": "{open the window}",
          "Ruby": "ˈoʊpən ðə ˈwɪndoʊ",
          "Lang": "en",
          "ProblemNo": 0,
          "Kind": 2
        },
        {
          "Start": 83,
          "End": 87,
          "Text": "{Could you open the window ?}",
          "Ruby": "kʊd ju ˈoʊpən ðə ˈwɪndoʊ ",
          "Lang": "en",
          "ProblemNo": 0,
          "Kind": 3
        },
        {
          "Start": 87,
          "End": 92,
          "Text": "{Could you open the window ?}",
          "Ruby": "kʊd ju ˈoʊpən ðə ˈwɪndoʊ ",
          "Lang": "en",
          "ProblemNo": 0,
          "Kind": 4
        },
        {
          "Start": 92,
          "End": 95,
          "Text": "{Could you open the window ?}",
          "Ruby": "kʊd ju ˈoʊpən ðə ˈwɪndoʊ ",
          "Lang": "en",
          "ProblemNo": 1,
          "Kind": 1
        },
        {
          "Start": 95,
          "End": 97,
          "Text": "{open the door}",
          "Ruby": "ˈoʊpən ðə dɔr",
          "Lang": "en",
          "ProblemNo": 1,
          "Kind": 2
        },
        {
          "Start": 97,
          "End": 101,
          "Text": "{Could you open the door ?}",
          "Ruby": "kʊd ju ˈoʊpən ðə dɔr ",
          "Lang": "en",
          "ProblemNo": 1,
          "Kind": 3
        },
        {
          "Start": 101,
          "End": 106,
          "Text": "{Could you open the door ?}",
          "Ruby": "kʊd ju ˈoʊpən ðə dɔr ",
          "Lang": "en",
          "ProblemNo": 1,
          "Kind": 4
        },
        {
          "Start": 106,
          "End": 109,
          "Text": "{Could you open the door ?}",
          "Ruby": "kʊd ju ˈoʊpən ðə dɔr ",
          "Lang": "en",
          "ProblemNo": 2,
          "Kind": 1
        },
        {
          "Start": 109,
          "End": 111,
          "Text": "{sing a song}",
          "Ruby": "sɪŋ ə sɔŋ",
          "Lang": "en",
          "ProblemNo": 2,
          "Kind": 2
        },
        {
          "Start": 111,
          "End": 115,
          "Text": "{Could you sing a song ?}",
          "Ruby": "kʊd ju sɪŋ ə sɔŋ ",
          "Lang": "en",
          "ProblemNo": 2,
          "Kind": 3
        },
        {
          "Start": 115,
          "End": 120,
          "Text": "{Could you sing a song ?}",
          "Ruby": "kʊd ju sɪŋ ə sɔŋ ",
          "Lang": "en",
          "ProblemNo": 2,
          "Kind": 4
        },
        {
          "Start": 120,
          "End": 123,
          "Text": "{Could you sing a song ?}",
          "Ruby": "kʊd ju sɪŋ ə sɔŋ ",
          "Lang": "en",
          "ProblemNo": 3,
          "Kind": 1
        },
        {
          "Start": 123,
          "End": 125,
          "Text": "{phone me tomorrow}",
          "Ruby": "foʊn mi təˈmɑˌroʊ",
          "Lang": "en",
          "ProblemNo": 3,
          "Kind": 2
        },
        {
          "Start": 125,
          "End": 129,
          "Text": "{Could you phone me tomorrow ?}",
          "Ruby": "kʊd ju foʊn mi təˈmɑˌroʊ ",
          "Lang": "en",
          "ProblemNo": 3,
          "Kind": 3
        },
        {
          "Start": 129,
          "End": 134,
          "Text": "{Could you phone me tomorrow ?}",
          "Ruby": "kʊd ju foʊn mi təˈmɑˌroʊ ",
          "Lang": "en",
          "ProblemNo": 3,
          "Kind": 4
        },
        {
          "Start": 134,
          "End": 137,
          "Text": "{Could you phone me tomorrow ?}",
          "Ruby": "kʊd ju foʊn mi təˈmɑˌroʊ ",
          "Lang": "en",
          "ProblemNo": 4,
          "Kind": 1
        },
        {
          "Start": 137,
          "End": 139,
          "Text": "{wait a moment}",
          "Ruby": "wet ə ˈmoʊmənt",
          "Lang": "en",
          "ProblemNo": 4,
          "Kind": 2
        },
        {
          "Start": 139,
          "End": 143,
          "Text": "{Could you wait a moment ?}",
          "Ruby": "kʊd ju wet ə ˈmoʊmənt ",
          "Lang": "en",
          "ProblemNo": 4,
          "Kind": 3
        },
        {
          "Start": 143,
          "End": 148,
          "Text": "{Could you wait a moment ?}",
          "Ruby": "kʊd ju wet ə ˈmoʊmənt ",
          "Lang": "en",
          "ProblemNo": 4,
          "Kind": 4
        },
        {
          "Start": 148,
          "End": 151,
          "Text": "",
          "Ruby": "",
          "Lang": "",
          "ProblemNo": 0,
          "Kind": 5
        },
        {
          "Start": 151,
          "End": 154,
          "Text": "{Could you play music ?}",
          "Ruby": "kʊd ju ple mˈjuzɪk ",
          "Lang": "en",
          "ProblemNo": 0,
          "Kind": 1
        },
        {
          "Start": 154,
          "End": 156,
          "Text": "{open the window}",
          "Ruby": "ˈoʊpən ðə ˈwɪndoʊ",
          "Lang": "en",
          "ProblemNo": 0,
          "Kind": 2
        },
        {
          "Start": 156,
          "End": 160,
          "Text": "{Could you open the window ?}",
          "Ruby": "kʊd ju ˈoʊpən ðə ˈwɪndoʊ ",
          "Lang": "en",
          "ProblemNo": 0,
          "Kind": 3
        },
        {
          "Start": 160,
          "End": 165,
          "Text": "{Could you open the window ?}",
          "Ruby": "kʊd ju ˈoʊpən ðə ˈwɪndoʊ ",
          "Lang": "en",
          "ProblemNo": 0,
          "Kind": 4
        },
        {
          "Start": 165,
          "End": 168,
          "Text": "{Could you open the window ?}",
          "Ruby": "kʊd ju ˈoʊpən ðə ˈwɪndoʊ ",
          "Lang": "en",
          "ProblemNo": 1,
          "Kind": 1
        },
        {
          "Start": 168,
          "End": 170,
          "Text": "{open the door}",
          "Ruby": "ˈoʊpən ðə dɔr",
          "Lang": "en",
          "ProblemNo": 1,
          "Kind": 2
        },
        {
          "Start": 170,
          "End": 174,
          "Text": "{Could you open the door ?}",
          "Ruby": "kʊd ju ˈoʊpən ðə dɔr ",
          "Lang": "en",
          "ProblemNo": 1,
          "Kind": 3
        },
        {
          "Start": 174,
          "End": 179,
          "Text": "{Could you open the door ?}",
          "Ruby": "kʊd ju ˈoʊpən ðə dɔr ",
          "Lang": "en",
          "ProblemNo": 1,
          "Kind": 4
        },
        {
          "Start": 179,
          "End": 182,
          "Text": "{Could you open the door ?}",
          "Ruby": "kʊd ju ˈoʊpən ðə dɔr ",
          "Lang": "en",
          "ProblemNo": 2,
          "Kind": 1
        },
        {
          "Start": 182,
          "End": 184,
          "Text": "{sing a song}",
          "Ruby": "sɪŋ ə sɔŋ",
          "Lang": "en",
          "ProblemNo": 2,
          "Kind": 2
        },
        {
          "Start": 184,
          "End": 188,
          "Text": "{Could you sing a song ?}",
          "Ruby": "kʊd ju sɪŋ ə sɔŋ ",
          "Lang": "en",
          "ProblemNo": 2,
          "Kind": 3
        },
        {
          "Start": 188,
          "End": 193,
          "Text": "{Could you sing a song ?}",
          "Ruby": "kʊd ju sɪŋ ə sɔŋ ",
          "Lang": "en",
          "ProblemNo": 2,
          "Kind": 4
        },
        {
          "Start": 193,
          "End": 196,
          "Text": "{Could you sing a song ?}",
          "Ruby": "kʊd ju sɪŋ ə sɔŋ ",
          "Lang": "en",
          "ProblemNo": 3,
          "Kind": 1
        },
        {
          "Start": 196,
          "End": 198,
          "Text": "{phone me tomorrow}",
          "Ruby": "foʊn mi təˈmɑˌroʊ",
          "Lang": "en",
          "ProblemNo": 3,
          "Kind": 2
        },
        {
          "Start": 198,
          "End": 202,
          "Text": "{Could you phone me tomorrow ?}",
          "Ruby": "kʊd ju foʊn mi təˈmɑˌroʊ ",
          "Lang": "en",
          "ProblemNo": 3,
          "Kind": 3
        },
        {
          "Start": 202,
          "End": 207,
          "Text": "{Could you phone me tomorrow ?}",
          "Ruby": "kʊd ju foʊn mi təˈmɑˌroʊ ",
          "Lang": "en",
          "ProblemNo": 3,
          "Kind": 4
        },
        {
          "Start": 207,
          "End": 210,
          "Text": "{Could you phone me tomorrow ?}",
          "Ruby": "kʊd ju foʊn mi təˈmɑˌroʊ ",
          "Lang": "en",
          "ProblemNo": 4,
          "Kind": 1
        },
        {
          "Start": 210,
          "End": 212,
          "Text": "{wait a moment}",
          "Ruby": "wet ə ˈmoʊmənt",
          "Lang": "en",
          "ProblemNo": 4,
          "Kind": 2
        },
        {
          "Start": 212,
          "End": 216,
          "Text": "{Could you wait a moment ?}",
          "Ruby": "kʊd ju wet ə ˈmoʊmənt ",
          "Lang": "en",
          "ProblemNo": 4,
          "Kind": 3
        },
        {
          "Start": 216,
          "End": 221,
          "Text": "{Could you wait a moment ?}",
          "Ruby": "kʊd ju wet ə ˈmoʊmənt ",
          "Lang": "en",
          "ProblemNo": 4,
          "Kind": 4
        },
        {
          "Start": 221,
          "End": 224,
          "Text": "",
          "Ruby": "",
          "Lang": "",
          "ProblemNo": 0,
          "Kind": 5
        },
        {
          "Start": 224,
          "End": 244,
          "Text": "{Please subscribe!}",
          "Ruby": "",
          "Lang": "en",
          "ProblemNo": 0,
          "Kind": 7
        }
      ]
    },
    {
      "Name": "AU",
      "Problems": [
        {
          "ProblemNo": 0,
          "OriginalCandidates": [
            {
              "Word": "Could you",
              "Ruby": "kʊd ju"
            },
            {
              "Word": "wait a moment",
              "Ruby": "wet ə ˈmoʊmənt"
            },
            {
              "Word": "?",
              "Ruby": ""
            }
          ],
          "ChangeCandidatePos": 1,
          "ChangeCandidates": [
            {
              "Word": "",
              "Ruby": ""
            },
            {
              "Word": "open the window",
              "Ruby": "ˈoʊpən ðə ˈwɪndoʊ"
            },
            {
              "Word": "",
              "Ruby": ""
            }
          ],
          "ChangeMorphemes": [
            {
              "Word": "",
              "Root": "",
              "FeatureSet": null
            },
            {
              "Word": "open the window",
              "Root": "",
              "FeatureSet": null
            },
            {
              "Word": "",
              "Root": "",
              "FeatureSet": null
            }
          ],
          "AnswerCandidates": [
            {
              "Word": "Could you",
              "Ruby": "kʊd ju"
            },
            {
              "Word": "open the window",
              "Ruby": "ˈoʊpən ðə ˈwɪndoʊ"
            },
            {
              "Word": "?",
              "Ruby": ""
            }
          ]
        },
        {
          "ProblemNo": 1,
          "OriginalCandidates": [
            {
              "Word": "Could you",
              "Ruby": "kʊd ju"
            },
            {
              "Word": "open the window",
              "Ruby": "ˈoʊpən ðə ˈwɪndoʊ"
            },
            {
              "Word": "?",
              "Ruby": ""
            }
          ],
          "ChangeCandidatePos": 1,
          "ChangeCandidates": [
            {
              "Word": "",
              "Ruby": ""
            },
            {
              "Word": "phone me tomorrow",
              "Ruby": "foʊn mi təˈmɑˌroʊ"
            },
            {
              "Word": "",
              "Ruby": ""
            }
          ],
          "ChangeMorphemes": [
            {
              "Word": "",
              "Root": "",
              "FeatureSet": null
            },
            {
              "Word": "phone me tomorrow",
              "Root": "",
              "FeatureSet": null
            },
            {
              "Word": "",
              "Root": "",
              "FeatureSet": null
            }
          ],
          "AnswerCandidates": [
            {
              "Word": "Could you",
              "Ruby": "kʊd ju"
            },
            {
              "Word": "phone me tomorrow",
              "Ruby": "foʊn mi təˈmɑˌroʊ"
            },
            {
              "Word": "?",
              "Ruby": ""
            }
          ]
        },
        {
          "ProblemNo": 2,
          "OriginalCandidates": [
            {
              "Word": "Could you",
              "Ruby": "kʊd ju"
            },
            {
              "Word": "phone me tomorrow",
              "Ruby": "foʊn mi təˈmɑˌroʊ"
            },
            {
              "Word": "?",
              "Ruby": ""
            }
          ],
          "ChangeCandidatePos": 1,
          "ChangeCandidates": [
            {
              "Word": "",
              "Ruby": ""
            },
            {
              "Word": "sing a song",
              "Ruby": "sɪŋ ə sɔŋ"
            },
            {
              "Word": "",
              "Ruby": ""
            }
          ],
          "ChangeMorphemes": [
            {
              "Word": "",
              "Root": "",
              "FeatureSet": null
            },
            {
              "Word": "sing a song",
              "Root": "",
              "FeatureSet": null
            },
            {
              "Word": "",
              "Root": "",
              "FeatureSet": null
            }
          ],
          "AnswerCandidates": [
            {
              "Word": "Could you",
              "Ruby": "kʊd ju"
            },
            {
              "Word": "sing a song",
              "Ruby": "sɪŋ ə sɔŋ"
            },
            {
              "Word": "?",
              "Ruby": ""
            }
          ]
        },
        {
          "ProblemNo": 3,
          "OriginalCandidates": [
            {
              "Word": "Could you",
              "Ruby": "kʊd ju"
            },
            {
              "Word": "sing a song",
              "Ruby": "sɪŋ ə sɔŋ"
            },
            {
              "Word": "?",
              "Ruby": ""
            }
          ],
          "ChangeCandidatePos": 1,
          "ChangeCandidates": [
            {
              "Word": "",
              "Ruby": ""
            },
            {
              "Word": "play music",
              "Ruby": "ple mˈjuzɪk"
            },
            {
              "Word": "",
              "Ruby": ""
            }
          ],
          "ChangeMorphemes": [
            {
              "Word": "",
              "Root": "",
              "FeatureSet": null
            },
            {
              "Word": "play music",
              "Root": "",
              "FeatureSet": null
            },
            {
              "Word": "",
              "Root": "",
              "FeatureSet": null
            }
          ],
          "AnswerCandidates": [
            {
              "Word": "Could you",
              "Ruby": "kʊd ju"
            },
            {
              "Word": "play music",
              "Ruby": "ple mˈjuzɪk"
            },
            {
              "Word": "?",
              "Ruby": ""
            }
          ]
        },
        {
          "ProblemNo": 4,
          "OriginalCandidates": [
            {
              "Word": "Could you",
              "Ruby": "kʊd ju"
            },
            {
              "Word": "play music",
              "Ruby": "ple mˈjuzɪk"
            },
            {
              "Word": "?",
              "Ruby": ""
            }
          ],
          "ChangeCandidatePos": 1,
          "ChangeCandidates": [
            {
              "Word": "",
              "Ruby": ""
            },
            {
              "Word": "open the door",
              "Ruby": "ˈoʊpən ðə dɔr"
            },
            {
              "Word": "",
              "Ruby": ""
            }
          ],
          "ChangeMorphemes": [
            {
              "Word": "",
              "Root": "",
              "FeatureSet": null
            },
            {
              "Word": "open the door",
              "Root": "",
              "FeatureSet": null
            },
            {
              "Word": "",
              "Root": "",
              "FeatureSet": null
            }
          ],
          "AnswerCandidates": [
            {
              "Word": "Could you",
              "Ruby": "kʊd ju"
            },
            {
              "Word": "open the door",
              "Ruby": "ˈoʊpən ðə dɔr"
            },
            {
              "Word": "?",
              "Ruby": ""
            }
          ]
        }
      ],
      "VideoFile": "grammar-en-beginner-simple_77_AU.mp4",
      "AnimeticCaptions": [
        {
          "Start": 0,
          "End": 2,
          "Text": "{play music}",
          "Ruby": "ple mˈjuzɪk",
          "Lang": "en",
          "ProblemNo": 3,
          "Kind": 2
        },
        {
          "Start": 2,
          "End": 5,
          "Text": "English grammar exercises (Australia) #77 Could you?",
          "Ruby": "",
          "Lang": "",
          "ProblemNo": 0,
          "Kind": 0
        },
        {
          "Start": 5,
          "End": 8,
          "Text": "{Could you wait a moment ?}",
          "Ruby": "kʊd ju wet ə ˈmoʊmənt ",
          "Lang": "en",
          "ProblemNo": 0,
          "Kind": 1
        },
        {
          "Start": 8,
          "End": 10,
          "Text": "{open the window}",
          "Ruby": "ˈoʊpən ðə ˈwɪndoʊ",
          "Lang": "en",
          "ProblemNo": 0,
          "Kind": 2
        },
        {
          "Start": 10,
          "End": 14,
          "Text": "{Could you open the window ?}",
          "Ruby": "kʊd ju ˈoʊpən ðə ˈwɪndoʊ ",
          "Lang": "en",
          "ProblemNo": 0,
          "Kind": 3
        },
        {
          "Start": 14,
          "End": 19,
          "Text": "{Could you open the window ?}",
          "Ruby": "kʊd ju ˈoʊpən ðə ˈwɪndoʊ ",
          "Lang": "en",
          "ProblemNo": 0,
          "Kind": 4
        },
        {
          "Start": 19,
          "End": 22,
          "Text": "{Could you open the window ?}",
          "Ruby": "kʊd ju ˈoʊpən ðə ˈwɪndoʊ ",
          "Lang": "en",
          "ProblemNo": 1,
          "Kind": 1
        },
        {
          "Start": 22,
          "End": 24,
          "Text": "{phone me tomorrow}",
          "Ruby": "foʊn mi təˈmɑˌroʊ",
          "Lang": "en",
          "ProblemNo": 1,
          "Kind": 2
        },
        {
          "Start": 24,
          "End": 28,
          "Text": "{Could you phone me tomorrow ?}",
          "Ruby": "kʊd ju foʊn mi təˈmɑˌroʊ ",
          "Lang": "en",
          "ProblemNo": 1,
          "Kind": 3
        },
        {
          "Start": 28,
          "End": 33,
          "Text": "{Could you phone me tomorrow ?}",
          "Ruby": "kʊd ju foʊn mi təˈmɑˌroʊ ",
          "Lang": "en",
          "ProblemNo": 1,
          "Kind": 4
        },
        {
          "Start": 33,
          "End": 36,
          "Text": "{Could you phone me tomorrow ?}",
          "Ruby": "kʊd ju foʊn mi təˈmɑˌroʊ ",
          "Lang": "en",
          "ProblemNo": 2,
          "Kind": 1
        },
        {
          "Start": 36,
          "End": 38,
          "Text": "{sing a song}",
          "Ruby": "sɪŋ ə sɔŋ",
          "Lang": "en",
          "ProblemNo": 2,
          "Kind": 2
        },
        {
          "Start": 38,
          "End": 42,
          "Text": "{Could you sing a song ?}",
          "Ruby": "kʊd ju sɪŋ ə sɔŋ ",
          "Lang": "en",
          "ProblemNo": 2,
          "Kind": 3
        },
        {
          "Start": 42,
          "End": 47,
          "Text": "{Could you sing a song ?}",
          "Ruby": "kʊd ju sɪŋ ə sɔŋ ",
          "Lang": "en",
          "ProblemNo": 2,
          "Kind": 4
        },
        {
          "Start": 47,
          "End": 50,
          "Text": "{Could you sing a song ?}",
          "Ruby": "kʊd ju sɪŋ ə sɔŋ ",
          "Lang": "en",
          "ProblemNo": 3,
          "Kind": 1
        },
        {
          "Start": 50,
          "End": 52,
          "Text": "{play music}",
          "Ruby": "ple mˈjuzɪk",
          "Lang": "en",
          "ProblemNo": 3,
          "Kind": 2
        },
        {
          "Start": 52,
          "End": 56,
          "Text": "{Could you play music ?}",
          "Ruby": "kʊd ju ple mˈjuzɪk ",
          "Lang": "en",
          "ProblemNo": 3,
          "Kind": 3
        },
        {
          "Start": 56,
          "End": 61,
          "Text": "{Could you play music ?}",
          "Ruby": "kʊd ju ple mˈjuzɪk ",
          "Lang": "en",
          "ProblemNo": 3,
          "Kind": 4
        },
        {
          "Start": 61,
          "End": 64,
          "Text": "{Could you play music ?}",
          "Ruby": "kʊd ju ple mˈjuzɪk ",
          "Lang": "en",
          "ProblemNo": 4,
          "Kind": 1
        },
        {
          "Start": 64,
          "End": 66,
          "Text": "{open the door}",
          "Ruby": "ˈoʊpən ðə dɔr",
          "Lang": "en",
          "ProblemNo": 4,
          "Kind": 2
        },
        {
          "Start": 66,
          "End": 70,
          "Text": "{Could you open the door ?}",
          "Ruby": "kʊd ju ˈoʊpən ðə dɔr ",
          "Lang": "en",
          "ProblemNo": 4,
          "Kind": 3
        },
        {
          "Start": 70,
          "End": 75,
          "Text": "{Could you open the door ?}",
          "Ruby": "kʊd ju ˈoʊpən ðə dɔr ",
          "Lang": "en",
          "ProblemNo": 4,
          "Kind": 4
        },
        {
          "Start": 75,
          "End": 78,
          "Text": "",
          "Ruby": "",
          "Lang": "",
          "ProblemNo": 0,
          "Kind": 5
        },
        {
          "Start": 78,
          "End": 81,
          "Text": "{Could you wait a moment ?}",
          "Ruby": "kʊd ju wet ə ˈmoʊmənt ",
          "Lang": "en",
          "ProblemNo": 0,
          "Kind": 1
        },
        {
          "Start": 81,
          "End": 83,
          "Text": "{open the window}",
          "Ruby": "ˈoʊpən ðə ˈwɪndoʊ",
          "Lang": "en",
          "ProblemNo": 0,
          "Kind": 2
        },
        {
          "Start": 83,
          "End": 87,
          "Text": "{Could you open the window ?}",
          "Ruby": "kʊd ju ˈoʊpən ðə ˈwɪndoʊ ",
          "Lang": "en",
          "ProblemNo": 0,
          "Kind": 3
        },
        {
          "Start": 87,
          "End": 92,
          "Text": "{Could you open the window ?}",
          "Ruby": "kʊd ju ˈoʊpən ðə ˈwɪndoʊ ",
          "Lang": "en",
          "ProblemNo": 0,
          "Kind": 4
        },
        {
          "Start": 92,
          "End": 95,
          "Text": "{Could you open the window ?}",
          "Ruby": "kʊd ju ˈoʊpən ðə ˈwɪndoʊ ",
          "Lang": "en",
          "ProblemNo": 1,
          "Kind": 1
        },
        {
          "Start": 95,
          "End": 97,
          "Text": "{phone me tomorrow}",
          "Ruby": "foʊn mi təˈmɑˌroʊ",
          "Lang": "en",
          "ProblemNo": 1,
          "Kind": 2
        },
        {
          "Start": 97,
          "End": 101,
          "Text": "{Could you phone me tomorrow ?}",
          "Ruby": "kʊd ju foʊn mi təˈmɑˌroʊ ",
          "Lang": "en",
          "ProblemNo": 1,
          "Kind": 3
        },
        {
          "Start": 101,
          "End": 106,
          "Text": "{Could you phone me tomorrow ?}",
          "Ruby": "kʊd ju foʊn mi təˈmɑˌroʊ ",
          "Lang": "en",
          "ProblemNo": 1,
          "Kind": 4
        },
        {
          "Start": 106,
          "End": 109,
          "Text": "{Could you phone me tomorrow ?}",
          "Ruby": "kʊd ju foʊn mi təˈmɑˌroʊ ",
          "Lang": "en",
          "ProblemNo": 2,
          "Kind": 1
        },
        {
          "Start": 109,
          "End": 111,
          "Text": "{sing a song}",
          "Ruby": "sɪŋ ə sɔŋ",
          "Lang": "en",
          "ProblemNo": 2,
          "Kind": 2
        },
        {
          "Start": 111,
          "End": 115,
          "Text": "{Could you sing a song ?}",
          "Ruby": "kʊd ju sɪŋ ə sɔŋ ",
          "Lang": "en",
          "ProblemNo": 2,
          "Kind": 3
        },
        {
          "Start": 115,
          "End": 120,
          "Text": "{Could you sing a song ?}",
          "Ruby": "kʊd ju sɪŋ ə sɔŋ ",
          "Lang": "en",
          "ProblemNo": 2,
          "Kind": 4
        },
        {
          "Start": 120,
          "End": 123,
          "Text": "{Could you sing a song ?}",
          "Ruby": "kʊd ju sɪŋ ə sɔŋ ",
          "Lang": "en",
          "ProblemNo": 3,
          "Kind": 1
        },
        {
          "Start": 123,
          "End": 125,
          "Text": "{play music}",
          "Ruby": "ple mˈjuzɪk",
          "Lang": "en",
          "ProblemNo": 3,
          "Kind": 2
        },
        {
          "Start": 125,
          "End": 129,
          "Text": "{Could you play music ?}",
          "Ruby": "kʊd ju ple mˈjuzɪk ",
          "Lang": "en",
          "ProblemNo": 3,
          "Kind": 3
        },
        {
          "Start": 129,
          "End": 134,
          "Text": "{Could you play music ?}",
          "Ruby": "kʊd ju ple mˈjuzɪk ",
          "Lang": "en",
          "ProblemNo": 3,
          "Kind": 4
        },
        {
          "Start": 134,
          "End": 137,
          "Text": "{Could you play music ?}",
          "Ruby": "kʊd ju ple mˈjuzɪk ",
          "Lang": "en",
          "ProblemNo": 4,
          "Kind": 1
        },
        {
          "Start": 137,
          "End": 139,
          "Text": "{open the door}",
          "Ruby": "ˈoʊpən ðə dɔr",
          "Lang": "en",
          "ProblemNo": 4,
          "Kind": 2
        },
        {
          "Start": 139,
          "End": 143,
          "Text": "{Could you open the door ?}",
          "Ruby": "kʊd ju ˈoʊpən ðə dɔr ",
          "Lang": "en",
          "ProblemNo": 4,
          "Kind": 3
        },
        {
          "Start": 143,
          "End": 148,
          "Text": "{Could you open the door ?}",
          "Ruby": "kʊd ju ˈoʊpən ðə dɔr ",
          "Lang": "en",
          "ProblemNo": 4,
          "Kind": 4
        },
        {
          "Start": 148,
          "End": 151,
          "Text": "",
          "Ruby": "",
          "Lang": "",
          "ProblemNo": 0,
          "Kind": 5
        },
        {
          "Start": 151,
          "End": 154,
          "Text": "{Could you wait a moment ?}",
          "Ruby": "kʊd ju wet ə ˈmoʊmənt ",
          "Lang": "en",
          "ProblemNo": 0,
          "Kind": 1
        },
        {
          "Start": 154,
          "End": 156,
          "Text": "{open the window}",
          "Ruby": "ˈoʊpən ðə ˈwɪndoʊ",
          "Lang": "en",
          "ProblemNo": 0,
          "Kind": 2
        },
        {
          "Start": 156,
          "End": 160,
          "Text": "{Could you open the window ?}",
          "Ruby": "kʊd ju ˈoʊpən ðə ˈwɪndoʊ ",
          "Lang": "en",
          "ProblemNo": 0,
          "Kind": 3
        },
        {
          "Start": 160,
          "End": 165,
          "Text": "{Could you open the window ?}",
          "Ruby": "kʊd ju ˈoʊpən ðə ˈwɪndoʊ ",
          "Lang": "en",
          "ProblemNo": 0,
          "Kind": 4
        },
        {
          "Start": 165,
          "End": 168,
          "Text": "{Could you open the window ?}",
          "Ruby": "kʊd ju ˈoʊpən ðə ˈwɪndoʊ ",
          "Lang": "en",
          "ProblemNo": 1,
          "Kind": 1
        },
        {
          "Start": 168,
          "End": 170,
          "Text": "{phone me tomorrow}",
          "Ruby": "foʊn mi təˈmɑˌroʊ",
          "Lang": "en",
          "ProblemNo": 1,
          "Kind": 2
        },
        {
          "Start": 170,
          "End": 174,
          "Text": "{Could you phone me tomorrow ?}",
          "Ruby": "kʊd ju foʊn mi təˈmɑˌroʊ ",
          "Lang": "en",
          "ProblemNo": 1,
          "Kind": 3
        },
        {
          "Start": 174,
          "End": 179,
          "Text": "{Could you phone me tomorrow ?}",
          "Ruby": "kʊd ju foʊn mi təˈmɑˌroʊ ",
          "Lang": "en",
          "ProblemNo": 1,
          "Kind": 4
        },
        {
          "Start": 179,
          "End": 182,
          "Text": "{Could you phone me tomorrow ?}",
          "Ruby": "kʊd ju foʊn mi təˈmɑˌroʊ ",
          "Lang": "en",
          "ProblemNo": 2,
          "Kind": 1
        },
        {
          "Start": 182,
          "End": 184,
          "Text": "{sing a song}",
          "Ruby": "sɪŋ ə sɔŋ",
          "Lang": "en",
          "ProblemNo": 2,
          "Kind": 2
        },
        {
          "Start": 184,
          "End": 188,
          "Text": "{Could you sing a song ?}",
          "Ruby": "kʊd ju sɪŋ ə sɔŋ ",
          "Lang": "en",
          "ProblemNo": 2,
          "Kind": 3
        },
        {
          "Start": 188,
          "End": 193,
          "Text": "{Could you sing a song ?}",
          "Ruby": "kʊd ju sɪŋ ə sɔŋ ",
          "Lang": "en",
          "ProblemNo": 2,
          "Kind": 4
        },
        {
          "Start": 193,
          "End": 196,
          "Text": "{Could you sing a song ?}",
          "Ruby": "kʊd ju sɪŋ ə sɔŋ ",
          "Lang": "en",
          "ProblemNo": 3,
          "Kind": 1
        },
        {
          "Start": 196,
          "End": 198,
          "Text": "{play music}",
          "Ruby": "ple mˈjuzɪk",
          "Lang": "en",
          "ProblemNo": 3,
          "Kind": 2
        },
        {
          "Start": 198,
          "End": 202,
          "Text": "{Could you play music ?}",
          "Ruby": "kʊd ju ple mˈjuzɪk ",
          "Lang": "en",
          "ProblemNo": 3,
          "Kind": 3
        },
        {
          "Start": 202,
          "End": 207,
          "Text": "{Could you play music ?}",
          "Ruby": "kʊd ju ple mˈjuzɪk ",
          "Lang": "en",
          "ProblemNo": 3,
          "Kind": 4
        },
        {
          "Start": 207,
          "End": 210,
          "Text": "{Could you play music ?}",
          "Ruby": "kʊd ju ple mˈjuzɪk ",
          "Lang": "en",
          "ProblemNo": 4,
          "Kind": 1
        },
        {
          "Start": 210,
          "End": 212,
          "Text": "{open the door}",
          "Ruby": "ˈoʊpən ðə dɔr",
          "Lang": "en",
          "ProblemNo": 4,
          "Kind": 2
        },
        {
          "Start": 212,
          "End": 216,
          "Text": "{Could you open the door ?}",
          "Ruby": "kʊd ju ˈoʊpən ðə dɔr ",
          "Lang": "en",
          "ProblemNo": 4,
          "Kind": 3
        },
        {
          "Start": 216,
          "End": 221,
          "Text": "{Could you open the door ?}",
          "Ruby": "kʊd ju ˈoʊpən ðə dɔr ",
          "Lang": "en",
          "ProblemNo": 4,
          "Kind": 4
        },
        {
          "Start": 221,
          "End": 224,
          "Text": "",
          "Ruby": "",
          "Lang": "",
          "ProblemNo": 0,
          "Kind": 5
        },
        {
          "Start": 224,
          "End": 244,
          "Text": "{Please subscribe!}",
          "Ruby": "",
          "Lang": "en",
          "ProblemNo": 0,
          "Kind": 7
        }
      ]
    },
    {
      "Name": "IN",
      "Problems": [
        {
          "ProblemNo": 0,
          "OriginalCandidates": [
            {
              "Word": "Could you",
              "Ruby": "kʊd ju"
            },
            {
              "Word": "sing a song",
              "Ruby": "sɪŋ ə sɔŋ"
            },
            {
              "Word": "?",
              "Ruby": ""
            }
          ],
          "ChangeCandidatePos": 1,
          "ChangeCandidates": [
            {
              "Word": "",
              "Ruby": ""
            },
            {
              "Word": "wait a moment",
              "Ruby": "wet ə ˈmoʊmənt"
            },
            {
              "Word": "",
              "Ruby": ""
            }
          ],
          "ChangeMorphemes": [
            {
              "Word": "",
              "Root": "",
              "FeatureSet": null
            },
            {
              "Word": "wait a moment",
              "Root": "",
              "FeatureSet": null
            },
            {
              "Word": "",
              "Root": "",
              "FeatureSet": null
            }
          ],
          "AnswerCandidates": [
            {
              "Word": "Could you",
              "Ruby": "kʊd ju"
            },
            {
              "Word": "wait a moment",
              "Ruby": "wet ə ˈmoʊmənt"
            },
            {
              "Word": "?",
              "Ruby": ""
            }
          ]
        },
        {
          "ProblemNo": 1,
          "OriginalCandidates": [
            {
              "Word": "Could you",
              "Ruby": "kʊd ju"
            },
            {
              "Word": "wait a moment",
              "Ruby": "wet ə ˈmoʊmənt"
            },
            {
              "Word": "?",
              "Ruby": ""
            }
          ],
          "ChangeCandidatePos": 1,
          "ChangeCandidates": [
            {
              "Word": "",
              "Ruby": ""
            },
            {
              "Word": "open the window",
              "Ruby": "ˈoʊpən ðə ˈwɪndoʊ"
            },
            {
              "Word": "",
              "Ruby": ""
            }
          ],
          "ChangeMorphemes": [
            {
              "Word": "",
              "Root": "",
              "FeatureSet": null
            },
            {
              "Word": "open the window",
              "Root": "",
              "FeatureSet": null
            },
            {
              "Word": "",
              "Root": "",
              "FeatureSet": null
            }
          ],
          "AnswerCandidates": [
            {
              "Word": "Could you",
              "Ruby": "kʊd ju"
            },
            {
              "Word": "open the window",
              "Ruby": "ˈoʊpən ðə ˈwɪndoʊ"
            },
            {
              "Word": "?",
              "Ruby": ""
            }
          ]
        },
        {
          "ProblemNo": 2,
          "OriginalCandidates": [
            {
              "Word": "Could you",
              "Ruby": "kʊd ju"
            },
            {
              "Word": "open the window",
              "Ruby": "ˈoʊpən ðə ˈwɪndoʊ"
            },
            {
              "Word": "?",
              "Ruby": ""
            }
          ],
          "ChangeCandidatePos": 1,
          "ChangeCandidates": [
            {
              "Word": "",
              "Ruby": ""
            },
            {
              "Word": "play music",
              "Ruby": "ple mˈjuzɪk"
            },
            {
              "Word": "",
              "Ruby": ""
            }
          ],
          "ChangeMorphemes": [
            {
              "Word": "",
              "Root": "",
              "FeatureSet": null
            },
            {
              "Word": "play music",
              "Root": "",
              "FeatureSet": null
            },
            {
              "Word": "",
              "Root": "",
              "FeatureSet": null
            }
          ],
          "AnswerCandidates": [
            {
              "Word": "Could you",
              "Ruby": "kʊd ju"
            },
            {
              "Word": "play music",
              "Ruby": "ple mˈjuzɪk"
            },
            {
              "Word": "?",
              "Ruby": ""
            }
          ]
        },
        {
          "ProblemNo": 3,
          "OriginalCandidates": [
            {
              "Word": "Could you",
              "Ruby": "kʊd ju"
            },
            {
              "Word": "play music",
              "Ruby": "ple mˈjuzɪk"
            },
            {
              "Word": "?",
              "Ruby": ""
            }
          ],
          "ChangeCandidatePos": 1,
          "ChangeCandidates": [
            {
              "Word": "",
              "Ruby": ""
            },
            {
              "Word": "open the door",
              "Ruby": "ˈoʊpən ðə dɔr"
            },
            {
              "Word": "",
              "Ruby": ""
            }
          ],
          "ChangeMorphemes": [
            {
              "Word": "",
              "Root": "",
              "FeatureSet": null
            },
            {
              "Word": "open the door",
              "Root": "",
              "FeatureSet": null
            },
            {
              "Word": "",
              "Root": "",
              "FeatureSet": null
            }
          ],
          "AnswerCandidates": [
            {
              "Word": "Could you",
              "Ruby": "kʊd ju"
            },
            {
              "Word": "open the door",
              "Ruby": "ˈoʊpən ðə dɔr"
            },
            {
              "Word": "?",
              "Ruby": ""
            }
          ]
        },
        {
          "ProblemNo": 4,
          "OriginalCandidates": [
            {
              "Word": "Could you",
              "Ruby": "kʊd ju"
            },
            {
              "Word": "open the door",
              "Ruby": "ˈoʊpən ðə dɔr"
            },
            {
              "Word": "?",
              "Ruby": ""
            }
          ],
          "ChangeCandidatePos": 1,
          "ChangeCandidates": [
            {
              "Word": "",
              "Ruby": ""
            },
            {
              "Word": "phone me tomorrow",
              "Ruby": "foʊn mi təˈmɑˌroʊ"
            },
            {
              "Word": "",
              "Ruby": ""
            }
          ],
          "ChangeMorphemes": [
            {
              "Word": "",
              "Root": "",
              "FeatureSet": null
            },
            {
              "Word": "phone me tomorrow",
              "Root": "",
              "FeatureSet": null
            },
            {
              "Word": "",
              "Root": "",
              "FeatureSet": null
            }
          ],
          "AnswerCandidates": [
            {
              "Word": "Could you",
              "Ruby": "kʊd ju"
            },
            {
              "Word": "phone me tomorrow",
              "Ruby": "foʊn mi təˈmɑˌroʊ"
            },
            {
              "Word": "?",
              "Ruby": ""
            }
          ]
        }
      ],
      "VideoFile": "grammar-en-beginner-simple_77_IN.mp4",
      "AnimeticCaptions": [
        {
          "Start": 0,
          "End": 2,
          "Text": "{open the door}",
          "Ruby": "ˈoʊpən ðə dɔr",
          "Lang": "en",
          "ProblemNo": 3,
          "Kind": 2
        },
        {
          "Start": 2,
          "End": 5,
          "Text": "English grammar exercises (India) #77 Could you?",
          "Ruby": "",
          "Lang": "",
          "ProblemNo": 0,
          "Kind": 0
        },
        {
          "Start": 5,
          "End": 8,
          "Text": "{Could you sing a song ?}",
          "Ruby": "kʊd ju sɪŋ ə sɔŋ ",
          "Lang": "en",
          "ProblemNo": 0,
          "Kind": 1
        },
        {
          "Start": 8,
          "End": 10,
          "Text": "{wait a moment}",
          "Ruby": "wet ə ˈmoʊmənt",
          "Lang": "en",
          "ProblemNo": 0,
          "Kind": 2
        },
        {
          "Start": 10,
          "End": 14,
          "Text": "{Could you wait a moment ?}",
          "Ruby": "kʊd ju wet ə ˈmoʊmənt ",
          "Lang": "en",
          "ProblemNo": 0,
          "Kind": 3
        },
        {
          "Start": 14,
          "End": 19,
          "Text": "{Could you wait a moment ?}",
          "Ruby": "kʊd ju wet ə ˈmoʊmənt ",
          "Lang": "en",
          "ProblemNo": 0,
          "Kind": 4
        },
        {
          "Start": 19,
          "End": 22,
          "Text": "{Could you wait a moment ?}",
          "Ruby": "kʊd ju wet ə ˈmoʊmənt ",
          "Lang": "en",
          "ProblemNo": 1,
          "Kind": 1
        },
        {
          "Start": 22,
          "End": 24,
          "Text": "{open the window}",
          "Ruby": "ˈoʊpən ðə ˈwɪndoʊ",
          "Lang": "en",
          "ProblemNo": 1,
          "Kind": 2
        },
        {
          "Start": 24,
          "End": 28,
          "Text": "{Could you open the window ?}",
          "Ruby": "kʊd ju ˈoʊpən ðə ˈwɪndoʊ ",
          "Lang": "en",
          "ProblemNo": 1,
          "Kind": 3
        },
        {
          "Start": 28,
          "End": 33,
          "Text": "{Could you open the window ?}",
          "Ruby": "kʊd ju ˈoʊpən ðə ˈwɪndoʊ ",
          "Lang": "en",
          "ProblemNo": 1,
          "Kind": 4
        },
        {
          "Start": 33,
          "End": 36,
          "Text": "{Could you open the window ?}",
          "Ruby": "kʊd ju ˈoʊpən ðə ˈwɪndoʊ ",
          "Lang": "en",
          "ProblemNo": 2,
          "Kind": 1
        },
        {
          "Start": 36,
          "End": 38,
          "Text": "{play music}",
          "Ruby": "ple mˈjuzɪk",
          "Lang": "en",
          "ProblemNo": 2,
          "Kind": 2
        },
        {
          "Start": 38,
          "End": 42,
          "Text": "{Could you play music ?}",
          "Ruby": "kʊd ju ple mˈjuzɪk ",
          "Lang": "en",
          "ProblemNo": 2,
          "Kind": 3
        },
        {
          "Start": 42,
          "End": 47,
          "Text": "{Could you play music ?}",
          "Ruby": "kʊd ju ple mˈjuzɪk ",
          "Lang": "en",
          "ProblemNo": 2,
          "Kind": 4
        },
        {
          "Start": 47,
          "End": 50,
          "Text": "{Could you play music ?}",
          "Ruby": "kʊd ju ple mˈjuzɪk ",
          "Lang": "en",
          "ProblemNo": 3,
          "Kind": 1
        },
        {
          "Start": 50,
          "End": 52,
          "Text": "{open the door}",
          "Ruby": "ˈoʊpən ðə dɔr",
          "Lang": "en",
          "ProblemNo": 3,
          "Kind": 2
        },
        {
          "Start": 52,
          "End": 56,
          "Text": "{Could you open the door ?}",
          "Ruby": "kʊd ju ˈoʊpən ðə dɔr ",
          "Lang": "en",
          "ProblemNo": 3,
          "Kind": 3
        },
        {
          "Start": 56,
          "End": 61,
          "Text": "{Could you open the door ?}",
          "Ruby": "kʊd ju ˈoʊpən ðə dɔr ",
          "Lang": "en",
          "ProblemNo": 3,
          "Kind": 4
        },
        {
          "Start": 61,
          "End": 64,
          "Text": "{Could you open the door ?}",
          "Ruby": "kʊd ju ˈoʊpən ðə dɔr ",
          "Lang": "en",
          "ProblemNo": 4,
          "Kind": 1
        },
        {
          "Start": 64,
          "End": 66,
          "Text": "{phone me tomorrow}",
          "Ruby": "foʊn mi təˈmɑˌroʊ",
          "Lang": "en",
          "ProblemNo": 4,
          "Kind": 2
        },
        {
          "Start": 66,
          "End": 70,
          "Text": "{Could you phone me tomorrow ?}",
          "Ruby": "kʊd ju foʊn mi təˈmɑˌroʊ ",
          "Lang": "en",
          "ProblemNo": 4,
          "Kind": 3
        },
        {
          "Start": 70,
          "End": 75,
          "Text": "{Could you phone me tomorrow ?}",
          "Ruby": "kʊd ju foʊn mi təˈmɑˌroʊ ",
          "Lang": "en",
          "ProblemNo": 4,
          "Kind": 4
        },
        {
          "Start": 75,
          "End": 78,
          "Text": "",
          "Ruby": "",
          "Lang": "",
          "ProblemNo": 0,
          "Kind": 5
        },
        {
          "Start": 78,
          "End": 81,
          "Text": "{Could you sing a song ?}",
          "Ruby": "kʊd ju sɪŋ ə sɔŋ ",
          "Lang": "en",
          "ProblemNo": 0,
          "Kind": 1
        },
        {
          "Start": 81,
          "End": 83,
          "Text": "{wait a moment}",
          "Ruby": "wet ə ˈmoʊmənt",
          "Lang": "en",
          "ProblemNo": 0,
          "Kind": 2
        },
        {
          "Start": 83,
          "End": 87,
          "Text": "{Could you wait a moment ?}",
          "Ruby": "kʊd ju wet ə ˈmoʊmənt ",
          "Lang": "en",
          "ProblemNo": 0,
          "Kind": 3
        },
        {
          "Start": 87,
          "End": 92,
          "Text": "{Could you wait a moment ?}",
          "Ruby": "kʊd ju wet ə ˈmoʊmənt ",
          "Lang": "en",
          "ProblemNo": 0,
          "Kind": 4
        },
        {
          "Start": 92,
          "End": 95,
          "Text": "{Could you wait a moment ?}",
          "Ruby": "kʊd ju wet ə ˈmoʊmənt ",
          "Lang": "en",
          "ProblemNo": 1,
          "Kind": 1
        },
        {
          "Start": 95,
          "End": 97,
          "Text": "{open the window}",
          "Ruby": "ˈoʊpən ðə ˈwɪndoʊ",
          "Lang": "en",
          "ProblemNo": 1,
          "Kind": 2
        },
        {
          "Start": 97,
          "End": 101,
          "Text": "{Could you open the window ?}",
          "Ruby": "kʊd ju ˈoʊpən ðə ˈwɪndoʊ ",
          "Lang": "en",
          "ProblemNo": 1,
          "Kind": 3
        },
        {
          "Start": 101,
          "End": 106,
          "Text": "{Could you open the window ?}",
          "Ruby": "kʊd ju ˈoʊpən ðə ˈwɪndoʊ ",
          "Lang": "en",
          "ProblemNo": 1,
          "Kind": 4
        },
        {
          "Start": 106,
          "End": 109,
          "Text": "{Could you open the window ?}",
          "Ruby": "kʊd ju ˈoʊpən ðə ˈwɪndoʊ ",
          "Lang": "en",
          "ProblemNo": 2,
          "Kind": 1
        },
        {
          "Start": 109,
          "End": 111,
          "Text": "{play music}",
          "Ruby": "ple mˈjuzɪk",
          "Lang": "en",
          "ProblemNo": 2,
          "Kind": 2
        },
        {
          "Start": 111,
          "End": 115,
          "Text": "{Could you play music ?}",
          "Ruby": "kʊd ju ple mˈjuzɪk ",
          "Lang": "en",
          "ProblemNo": 2,
          "Kind": 3
        },
        {
          "Start": 115,
          "End": 120,
          "Text": "{Could you play music ?}",
          "Ruby": "kʊd ju ple mˈjuzɪk ",
          "Lang": "en",
          "ProblemNo": 2,
          "Kind": 4
        },
        {
          "Start": 120,
          "End": 123,
          "Text": "{Could you play music ?}",
          "Ruby": "kʊd ju ple mˈjuzɪk ",
          "Lang": "en",
          "ProblemNo": 3,
          "Kind": 1
        },
        {
          "Start": 123,
          "End": 125,
          "Text": "{open the door}",
          "Ruby": "ˈoʊpən ðə dɔr",
          "Lang": "en",
          "ProblemNo": 3,
          "Kind": 2
        },
        {
          "Start": 125,
          "End": 129,
          "Text": "{Could you open the door ?}",
          "Ruby": "kʊd ju ˈoʊpən ðə dɔr ",
          "Lang": "en",
          "ProblemNo": 3,
          "Kind": 3
        },
        {
          "Start": 129,
          "End": 134,
          "Text": "{Could you open the door ?}",
          "Ruby": "kʊd ju ˈoʊpən ðə dɔr ",
          "Lang": "en",
          "ProblemNo": 3,
          "Kind": 4
        },
        {
          "Start": 134,
          "End": 137,
          "Text": "{Could you open the door ?}",
          "Ruby": "kʊd ju ˈoʊpən ðə dɔr ",
          "Lang": "en",
          "ProblemNo": 4,
          "Kind": 1
        },
        {
          "Start": 137,
          "End": 139,
          "Text": "{phone me tomorrow}",
          "Ruby": "foʊn mi təˈmɑˌroʊ",
          "Lang": "en",
          "ProblemNo": 4,
          "Kind": 2
        },
        {
          "Start": 139,
          "End": 143,
          "Text": "{Could you phone me tomorrow ?}",
          "Ruby": "kʊd ju foʊn mi təˈmɑˌroʊ ",
          "Lang": "en",
          "ProblemNo": 4,
          "Kind": 3
        },
        {
          "Start": 143,
          "End": 148,
          "Text": "{Could you phone me tomorrow ?}",
          "Ruby": "kʊd ju foʊn mi təˈmɑˌroʊ ",
          "Lang": "en",
          "ProblemNo": 4,
          "Kind": 4
        },
        {
          "Start": 148,
          "End": 151,
          "Text": "",
          "Ruby": "",
          "Lang": "",
          "ProblemNo": 0,
          "Kind": 5
        },
        {
          "Start": 151,
          "End": 154,
          "Text": "{Could you sing a song ?}",
          "Ruby": "kʊd ju sɪŋ ə sɔŋ ",
          "Lang": "en",
          "ProblemNo": 0,
          "Kind": 1
        },
        {
          "Start": 154,
          "End": 156,
          "Text": "{wait a moment}",
          "Ruby": "wet ə ˈmoʊmənt",
          "Lang": "en",
          "ProblemNo": 0,
          "Kind": 2
        },
        {
          "Start": 156,
          "End": 160,
          "Text": "{Could you wait a moment ?}",
          "Ruby": "kʊd ju wet ə ˈmoʊmənt ",
          "Lang": "en",
          "ProblemNo": 0,
          "Kind": 3
        },
        {
          "Start": 160,
          "End": 165,
          "Text": "{Could you wait a moment ?}",
          "Ruby": "kʊd ju wet ə ˈmoʊmənt ",
          "Lang": "en",
          "ProblemNo": 0,
          "Kind": 4
        },
        {
          "Start": 165,
          "End": 168,
          "Text": "{Could you wait a moment ?}",
          "Ruby": "kʊd ju wet ə ˈmoʊmənt ",
          "Lang": "en",
          "ProblemNo": 1,
          "Kind": 1
        },
        {
          "Start": 168,
          "End": 170,
          "Text": "{open the window}",
          "Ruby": "ˈoʊpən ðə ˈwɪndoʊ",
          "Lang": "en",
          "ProblemNo": 1,
          "Kind": 2
        },
        {
          "Start": 170,
          "End": 174,
          "Text": "{Could you open the window ?}",
          "Ruby": "kʊd ju ˈoʊpən ðə ˈwɪndoʊ ",
          "Lang": "en",
          "ProblemNo": 1,
          "Kind": 3
        },
        {
          "Start": 174,
          "End": 179,
          "Text": "{Could you open the window ?}",
          "Ruby": "kʊd ju ˈoʊpən ðə ˈwɪndoʊ ",
          "Lang": "en",
          "ProblemNo": 1,
          "Kind": 4
        },
        {
          "Start": 179,
          "End": 182,
          "Text": "{Could you open the window ?}",
          "Ruby": "kʊd ju ˈoʊpən ðə ˈwɪndoʊ ",
          "Lang": "en",
          "ProblemNo": 2,
          "Kind": 1
        },
        {
          "Start": 182,
          "End": 184,
          "Text": "{play music}",
          "Ruby": "ple mˈjuzɪk",
          "Lang": "en",
          "ProblemNo": 2,
          "Kind": 2
        },
        {
          "Start": 184,
          "End": 188,
          "Text": "{Could you play music ?}",
          "Ruby": "kʊd ju ple mˈjuzɪk ",
          "Lang": "en",
          "ProblemNo": 2,
          "Kind": 3
        },
        {
          "Start": 188,
          "End": 193,
          "Text": "{Could you play music ?}",
          "Ruby": "kʊd ju ple mˈjuzɪk ",
          "Lang": "en",
          "ProblemNo": 2,
          "Kind": 4
        },
        {
          "Start": 193,
          "End": 196,
          "Text": "{Could you play music ?}",
          "Ruby": "kʊd ju ple mˈjuzɪk ",
          "Lang": "en",
          "ProblemNo": 3,
          "Kind": 1
        },
        {
          "Start": 196,
          "End": 198,
          "Text": "{open the door}",
          "Ruby": "ˈoʊpən ðə dɔr",
          "Lang": "en",
          "ProblemNo": 3,
          "Kind": 2
        },
        {
          "Start": 198,
          "End": 202,
          "Text": "{Could you open the door ?}",
          "Ruby": "kʊd ju ˈoʊpən ðə dɔr ",
          "Lang": "en",
          "ProblemNo": 3,
          "Kind": 3
        },
        {
          "Start": 202,
          "End": 207,
          "Text": "{Could you open the door ?}",
          "Ruby": "kʊd ju ˈoʊpən ðə dɔr ",
          "Lang": "en",
          "ProblemNo": 3,
          "Kind": 4
        },
        {
          "Start": 207,
          "End": 210,
          "Text": "{Could you open the door ?}",
          "Ruby": "kʊd ju ˈoʊpən ðə dɔr ",
          "Lang": "en",
          "ProblemNo": 4,
          "Kind": 1
        },
        {
          "Start": 210,
          "End": 212,
          "Text": "{phone me tomorrow}",
          "Ruby": "foʊn mi təˈmɑˌroʊ",
          "Lang": "en",
          "ProblemNo": 4,
          "Kind": 2
        },
        {
          "Start": 212,
          "End": 216,
          "Text": "{Could you phone me tomorrow ?}",
          "Ruby": "kʊd ju foʊn mi təˈmɑˌroʊ ",
          "Lang": "en",
          "ProblemNo": 4,
          "Kind": 3
        },
        {
          "Start": 216,
          "End": 221,
          "Text": "{Could you phone me tomorrow ?}",
          "Ruby": "kʊd ju foʊn mi təˈmɑˌroʊ ",
          "Lang": "en",
          "ProblemNo": 4,
          "Kind": 4
        },
        {
          "Start": 221,
          "End": 224,
          "Text": "",
          "Ruby": "",
          "Lang": "",
          "ProblemNo": 0,
          "Kind": 5
        },
        {
          "Start": 224,
          "End": 244,
          "Text": "{Please subscribe!}",
          "Ruby": "",
          "Lang": "en",
          "ProblemNo": 0,
          "Kind": 7
        }
      ]
    },
    {
      "Name": "UK",
      "Problems": [
        {
          "ProblemNo": 0,
          "OriginalCandidates": [
            {
              "Word": "Could you",
              "Ruby": "kʊd ju"
            },
            {
              "Word": "play music",
              "Ruby": "ple mˈjuzɪk"
            },
            {
              "Word": "?",
              "Ruby": ""
            }
          ],
          "ChangeCandidatePos": 1,
          "ChangeCandidates": [
            {
              "Word": "",
              "Ruby": ""
            },
            {
              "Word": "sing a song",
              "Ruby": "sɪŋ ə sɔŋ"
            },
            {
              "Word": "",
              "Ruby": ""
            }
          ],
          "ChangeMorphemes": [
            {
              "Word": "",
              "Root": "",
              "FeatureSet": null
            },
            {
              "Word": "sing a song",
              "Root": "",
              "FeatureSet": null
            },
            {
              "Word": "",
              "Root": "",
              "FeatureSet": null
            }
          ],
          "AnswerCandidates": [
            {
              "Word": "Could you",
              "Ruby": "kʊd ju"
            },
            {
              "Word": "sing a song",
              "Ruby": "sɪŋ ə sɔŋ"
            },
            {
              "Word": "?",
              "Ruby": ""
            }
          ]
        },
        {
          "ProblemNo": 1,
          "OriginalCandidates": [
            {
              "Word": "Could you",
              "Ruby": "kʊd ju"
            },
            {
              "Word": "sing a song",
              "Ruby": "sɪŋ ə sɔŋ"
            },
            {
              "Word": "?",
              "Ruby": ""
            }
          ],
          "ChangeCandidatePos": 1,
          "ChangeCandidates": [
            {
              "Word": "",
              "Ruby": ""
            },
            {
              "Word": "open the door",
              "Ruby": "ˈoʊpən ðə dɔr"
            },
            {
              "Word": "",
              "Ruby": ""
            }
          ],
          "ChangeMorphemes": [
            {
              "Word": "",
              "Root": "",
              "FeatureSet": null
            },
            {
              "Word": "open the door",
              "Root": "",
              "FeatureSet": null
            },
            {
              "Word": "",
              "Root": "",
              "FeatureSet": null
            }
          ],
          "AnswerCandidates": [
            {
              "Word": "Could you",
              "Ruby": "kʊd ju"
            },
            {
              "Word": "open the door",
              "Ruby": "ˈoʊpən ðə dɔr"
            },
            {
              "Word": "?",
              "Ruby": ""
            }
          ]
        },
        {
          "ProblemNo": 2,
          "OriginalCandidates": [
            {
              "Word": "Could you",
              "Ruby": "kʊd ju"
            },
            {
              "Word": "open the door",
              "Ruby": "ˈoʊpən ðə dɔr"
            },
            {
              "Word": "?",
              "Ruby": ""
            }
          ],
          "ChangeCandidatePos": 1,
          "ChangeCandidates": [
            {
              "Word": "",
              "Ruby": ""
            },
            {
              "Word": "open the window",
              "Ruby": "ˈoʊpən ðə ˈwɪndoʊ"
            },
            {
              "Word": "",
              "Ruby": ""
            }
          ],
          "ChangeMorphemes": [
            {
              "Word": "",
              "Root": "",
              "FeatureSet": null
            },
            {
              "Word": "open the window",
              "Root": "",
              "FeatureSet": null
            },
            {
              "Word": "",
              "Root": "",
              "FeatureSet": null
            }
          ],
          "AnswerCandidates": [
            {
              "Word": "Could you",
              "Ruby": "kʊd ju"
            },
            {
              "Word": "open the window",
              "Ruby": "ˈoʊpən ðə ˈwɪndoʊ"
            },
            {
              "Word": "?",
              "Ruby": ""
            }
          ]
        },
        {
          "ProblemNo": 3,
          "OriginalCandidates": [
            {
              "Word": "Could you",
              "Ruby": "kʊd ju"
            },
            {
              "Word": "open the window",
              "Ruby": "ˈoʊpən ðə ˈwɪndoʊ"
            },
            {
              "Word": "?",
              "Ruby": ""
            }
          ],
          "ChangeCandidatePos": 1,
          "ChangeCandidates": [
            {
              "Word": "",
              "Ruby": ""
            },
            {
              "Word": "phone me tomorrow",
              "Ruby": "foʊn mi təˈmɑˌroʊ"
            },
            {
              "Word": "",
              "Ruby": ""
            }
          ],
          "ChangeMorphemes": [
            {
              "Word": "",
              "Root": "",
              "FeatureSet": null
            },
            {
              "Word": "phone me tomorrow",
              "Root": "",
              "FeatureSet": null
            },
            {
              "Word": "",
              "Root": "",
              "FeatureSet": null
            }
          ],
          "AnswerCandidates": [
            {
              "Word": "Could you",
              "Ruby": "kʊd ju"
            },
            {
              "Word": "phone me tomorrow",
              "Ruby": "foʊn mi təˈmɑˌroʊ"
            },
            {
              "Word": "?",
              "Ruby": ""
            }
          ]
        },
        {
          "ProblemNo": 4,
          "OriginalCandidates": [
            {
              "Word": "Could you",
              "Ruby": "kʊd ju"
            },
            {
              "Word": "phone me tomorrow",
              "Ruby": "foʊn mi təˈmɑˌroʊ"
            },
            {
              "Word": "?",
              "Ruby": ""
            }
          ],
          "ChangeCandidatePos": 1,
          "ChangeCandidates": [
            {
              "Word": "",
              "Ruby": ""
            },
            {
              "Word": "wait a moment",
              "Ruby": "wet ə ˈmoʊmənt"
            },
            {
              "Word": "",
              "Ruby": ""
            }
          ],
          "ChangeMorphemes": [
            {
              "Word": "",
              "Root": "",
              "FeatureSet": null
            },
            {
              "Word": "wait a moment",
              "Root": "",
              "FeatureSet": null
            },
            {
              "Word": "",
              "Root": "",
              "FeatureSet": null
            }
          ],
          "AnswerCandidates": [
            {
              "Word": "Could you",
              "Ruby": "kʊd ju"
            },
            {
              "Word": "wait a moment",
              "Ruby": "wet ə ˈmoʊmənt"
            },
            {
              "Word": "?",
              "Ruby": ""
            }
          ]
        }
      ],
      "VideoFile": "grammar-en-beginner-simple_77_UK.mp4",
      "AnimeticCaptions": [
        {
          "Start": 0,
          "End": 2,
          "Text": "{phone me tomorrow}",
          "Ruby": "foʊn mi təˈmɑˌroʊ",
          "Lang": "en",
          "ProblemNo": 3,
          "Kind": 2
        },
        {
          "Start": 2,
          "End": 5,
          "Text": "English grammar exercises (British) #77 Could you?",
          "Ruby": "",
          "Lang": "",
          "ProblemNo": 0,
          "Kind": 0
        },
        {
          "Start": 5,
          "End": 8,
          "Text": "{Could you play music ?}",
          "Ruby": "kʊd ju ple mˈjuzɪk ",
          "Lang": "en",
          "ProblemNo": 0,
          "Kind": 1
        },
        {
          "Start": 8,
          "End": 10,
          "Text": "{sing a song}",
          "Ruby": "sɪŋ ə sɔŋ",
          "Lang": "en",
          "ProblemNo": 0,
          "Kind": 2
        },
        {
          "Start": 10,
          "End": 14,
          "Text": "{Could you sing a song ?}",
          "Ruby": "kʊd ju sɪŋ ə sɔŋ ",
          "Lang": "en",
          "ProblemNo": 0,
          "Kind": 3
        },
        {
          "Start": 14,
          "End": 19,
          "Text": "{Could you sing a song ?}",
          "Ruby": "kʊd ju sɪŋ ə sɔŋ ",
          "Lang": "en",
          "ProblemNo": 0,
          "Kind": 4
        },
        {
          "Start": 19,
          "End": 22,
          "Text": "{Could you sing a song ?}",
          "Ruby": "kʊd ju sɪŋ ə sɔŋ ",
          "Lang": "en",
          "ProblemNo": 1,
          "Kind": 1
        },
        {
          "Start": 22,
          "End": 24,
          "Text": "{open the door}",
          "Ruby": "ˈoʊpən ðə dɔr",
          "Lang": "en",
          "ProblemNo": 1,
          "Kind": 2
        },
        {
          "Start": 24,
          "End": 28,
          "Text": "{Could you open the door ?}",
          "Ruby": "kʊd ju ˈoʊpən ðə dɔr ",
          "Lang": "en",
          "ProblemNo": 1,
          "Kind": 3
        },
        {
          "Start": 28,
          "End": 33,
          "Text": "{Could you open the door ?}",
          "Ruby": "kʊd ju ˈoʊpən ðə dɔr ",
          "Lang": "en",
          "ProblemNo": 1,
          "Kind": 4
        },
        {
          "Start": 33,
          "End": 36,
          "Text": "{Could you open the door ?}",
          "Ruby": "kʊd ju ˈoʊpən ðə dɔr ",
          "Lang": "en",
          "ProblemNo": 2,
          "Kind": 1
        },
        {
          "Start": 36,
          "End": 38,
          "Text": "{open the window}",
          "Ruby": "ˈoʊpən ðə ˈwɪndoʊ",
          "Lang": "en",
          "ProblemNo": 2,
          "Kind": 2
        },
        {
          "Start": 38,
          "End": 42,
          "Text": "{Could you open the window ?}",
          "Ruby": "kʊd ju ˈoʊpən ðə ˈwɪndoʊ ",
          "Lang": "en",
          "ProblemNo": 2,
          "Kind": 3
        },
        {
          "Start": 42,
          "End": 47,
          "Text": "{Could you open the window ?}",
          "Ruby": "kʊd ju ˈoʊpən ðə ˈwɪndoʊ ",
          "Lang": "en",
          "ProblemNo": 2,
          "Kind": 4
        },
        {
          "Start": 47,
          "End": 50,
          "Text": "{Could you open the window ?}",
          "Ruby": "kʊd ju ˈoʊpən ðə ˈwɪndoʊ ",
          "Lang": "en",
          "ProblemNo": 3,
          "Kind": 1
        },
        {
          "Start": 50,
          "End": 52,
          "Text": "{phone me tomorrow}",
          "Ruby": "foʊn mi təˈmɑˌroʊ",
          "Lang": "en",
          "ProblemNo": 3,
          "Kind": 2
        },
        {
          "Start": 52,
          "End": 56,
          "Text": "{Could you phone me tomorrow ?}",
          "Ruby": "kʊd ju foʊn mi təˈmɑˌroʊ ",
          "Lang": "en",
          "ProblemNo": 3,
          "Kind": 3
        },
        {
          "Start": 56,
          "End": 61,
          "Text": "{Could you phone me tomorrow ?}",
          "Ruby": "kʊd ju foʊn mi təˈmɑˌroʊ ",
          "Lang": "en",
          "ProblemNo": 3,
          "Kind": 4
        },
        {
          "Start": 61,
          "End": 64,
          "Text": "{Could you phone me tomorrow ?}",
          "Ruby": "kʊd ju foʊn mi təˈmɑˌroʊ ",
          "Lang": "en",
          "ProblemNo": 4,
          "Kind": 1
        },
        {
          "Start": 64,
          "End": 66,
          "Text": "{wait a moment}",
          "Ruby": "wet ə ˈmoʊmənt",
          "Lang": "en",
          "ProblemNo": 4,
          "Kind": 2
        },
        {
          "Start": 66,
          "End": 70,
          "Text": "{Could you wait a moment ?}",
          "Ruby": "kʊd ju wet ə ˈmoʊmənt ",
          "Lang": "en",
          "ProblemNo": 4,
          "Kind": 3
        },
        {
          "Start": 70,
          "End": 75,
          "Text": "{Could you wait a moment ?}",
          "Ruby": "kʊd ju wet ə ˈmoʊmənt ",
          "Lang": "en",
          "ProblemNo": 4,
          "Kind": 4
        },
        {
          "Start": 75,
          "End": 78,
          "Text": "",
          "Ruby": "",
          "Lang": "",
          "ProblemNo": 0,
          "Kind": 5
        },
        {
          "Start": 78,
          "End": 81,
          "Text": "{Could you play music ?}",
          "Ruby": "kʊd ju ple mˈjuzɪk ",
          "Lang": "en",
          "ProblemNo": 0,
          "Kind": 1
        },
        {
          "Start": 81,
          "End": 83,
          "Text": "{sing a song}",
          "Ruby": "sɪŋ ə sɔŋ",
          "Lang": "en",
          "ProblemNo": 0,
          "Kind": 2
        },
        {
          "Start": 83,
          "End": 87,
          "Text": "{Could you sing a song ?}",
          "Ruby": "kʊd ju sɪŋ ə sɔŋ ",
          "Lang": "en",
          "ProblemNo": 0,
          "Kind": 3
        },
        {
          "Start": 87,
          "End": 92,
          "Text": "{Could you sing a song ?}",
          "Ruby": "kʊd ju sɪŋ ə sɔŋ ",
          "Lang": "en",
          "ProblemNo": 0,
          "Kind": 4
        },
        {
          "Start": 92,
          "End": 95,
          "Text": "{Could you sing a song ?}",
          "Ruby": "kʊd ju sɪŋ ə sɔŋ ",
          "Lang": "en",
          "ProblemNo": 1,
          "Kind": 1
        },
        {
          "Start": 95,
          "End": 97,
          "Text": "{open the door}",
          "Ruby": "ˈoʊpən ðə dɔr",
          "Lang": "en",
          "ProblemNo": 1,
          "Kind": 2
        },
        {
          "Start": 97,
          "End": 101,
          "Text": "{Could you open the door ?}",
          "Ruby": "kʊd ju ˈoʊpən ðə dɔr ",
          "Lang": "en",
          "ProblemNo": 1,
          "Kind": 3
        },
        {
          "Start": 101,
          "End": 106,
          "Text": "{Could you open the door ?}",
          "Ruby": "kʊd ju ˈoʊpən ðə dɔr ",
          "Lang": "en",
          "ProblemNo": 1,
          "Kind": 4
        },
        {
          "Start": 106,
          "End": 109,
          "Text": "{Could you open the door ?}",
          "Ruby": "kʊd ju ˈoʊpən ðə dɔr ",
          "Lang": "en",
          "ProblemNo": 2,
          "Kind": 1
        },
        {
          "Start": 109,
          "End": 111,
          "Text": "{open the window}",
          "Ruby": "ˈoʊpən ðə ˈwɪndoʊ",
          "Lang": "en",
          "ProblemNo": 2,
          "Kind": 2
        },
        {
          "Start": 111,
          "End": 115,
          "Text": "{Could you open the window ?}",
          "Ruby": "kʊd ju ˈoʊpən ðə ˈwɪndoʊ ",
          "Lang": "en",
          "ProblemNo": 2,
          "Kind": 3
        },
        {
          "Start": 115,
          "End": 120,
          "Text": "{Could you open the window ?}",
          "Ruby": "kʊd ju ˈoʊpən ðə ˈwɪndoʊ ",
          "Lang": "en",
          "ProblemNo": 2,
          "Kind": 4
        },
        {
          "Start": 120,
          "End": 123,
          "Text": "{Could you open the window ?}",
          "Ruby": "kʊd ju ˈoʊpən ðə ˈwɪndoʊ ",
          "Lang": "en",
          "ProblemNo": 3,
          "Kind": 1
        },
        {
          "Start": 123,
          "End": 125,
          "Text": "{phone me tomorrow}",
          "Ruby": "foʊn mi təˈmɑˌroʊ",
          "Lang": "en",
          "ProblemNo": 3,
          "Kind": 2
        },
        {
          "Start": 125,
          "End": 129,
          "Text": "{Could you phone me tomorrow ?}",
          "Ruby": "kʊd ju foʊn mi təˈmɑˌroʊ ",
          "Lang": "en",
          "ProblemNo": 3,
          "Kind": 3
        },
        {
          "Start": 129,
          "End": 134,
          "Text": "{Could you phone me tomorrow ?}",
          "Ruby": "kʊd ju foʊn mi təˈmɑˌroʊ ",
          "Lang": "en",
          "ProblemNo": 3,
          "Kind": 4
        },
        {
          "Start": 134,
          "End": 137,
          "Text": "{Could you phone me tomorrow ?}",
          "Ruby": "kʊd ju foʊn mi təˈmɑˌroʊ ",
          "Lang": "en",
          "ProblemNo": 4,
          "Kind": 1
        },
        {
          "Start": 137,
          "End": 139,
          "Text": "{wait a moment}",
          "Ruby": "wet ə ˈmoʊmənt",
          "Lang": "en",
          "ProblemNo": 4,
          "Kind": 2
        },
        {
          "Start": 139,
          "End": 143,
          "Text": "{Could you wait a moment ?}",
          "Ruby": "kʊd ju wet ə ˈmoʊmənt ",
          "Lang": "en",
          "ProblemNo": 4,
          "Kind": 3
        },
        {
          "Start": 143,
          "End": 148,
          "Text": "{Could you wait a moment ?}",
          "Ruby": "kʊd ju wet ə ˈmoʊmənt ",
          "Lang": "en",
          "ProblemNo": 4,
          "Kind": 4
        },
        {
          "Start": 148,
          "End": 151,
          "Text": "",
          "Ruby": "",
          "Lang": "",
          "ProblemNo": 0,
          "Kind": 5
        },
        {
          "Start": 151,
          "End": 154,
          "Text": "{Could you play music ?}",
          "Ruby": "kʊd ju ple mˈjuzɪk ",
          "Lang": "en",
          "ProblemNo": 0,
          "Kind": 1
        },
        {
          "Start": 154,
          "End": 156,
          "Text": "{sing a song}",
          "Ruby": "sɪŋ ə sɔŋ",
          "Lang": "en",
          "ProblemNo": 0,
          "Kind": 2
        },
        {
          "Start": 156,
          "End": 160,
          "Text": "{Could you sing a song ?}",
          "Ruby": "kʊd ju sɪŋ ə sɔŋ ",
          "Lang": "en",
          "ProblemNo": 0,
          "Kind": 3
        },
        {
          "Start": 160,
          "End": 165,
          "Text": "{Could you sing a song ?}",
          "Ruby": "kʊd ju sɪŋ ə sɔŋ ",
          "Lang": "en",
          "ProblemNo": 0,
          "Kind": 4
        },
        {
          "Start": 165,
          "End": 168,
          "Text": "{Could you sing a song ?}",
          "Ruby": "kʊd ju sɪŋ ə sɔŋ ",
          "Lang": "en",
          "ProblemNo": 1,
          "Kind": 1
        },
        {
          "Start": 168,
          "End": 170,
          "Text": "{open the door}",
          "Ruby": "ˈoʊpən ðə dɔr",
          "Lang": "en",
          "ProblemNo": 1,
          "Kind": 2
        },
        {
          "Start": 170,
          "End": 174,
          "Text": "{Could you open the door ?}",
          "Ruby": "kʊd ju ˈoʊpən ðə dɔr ",
          "Lang": "en",
          "ProblemNo": 1,
          "Kind": 3
        },
        {
          "Start": 174,
          "End": 179,
          "Text": "{Could you open the door ?}",
          "Ruby": "kʊd ju ˈoʊpən ðə dɔr ",
          "Lang": "en",
          "ProblemNo": 1,
          "Kind": 4
        },
        {
          "Start": 179,
          "End": 182,
          "Text": "{Could you open the door ?}",
          "Ruby": "kʊd ju ˈoʊpən ðə dɔr ",
          "Lang": "en",
          "ProblemNo": 2,
          "Kind": 1
        },
        {
          "Start": 182,
          "End": 184,
          "Text": "{open the window}",
          "Ruby": "ˈoʊpən ðə ˈwɪndoʊ",
          "Lang": "en",
          "ProblemNo": 2,
          "Kind": 2
        },
        {
          "Start": 184,
          "End": 188,
          "Text": "{Could you open the window ?}",
          "Ruby": "kʊd ju ˈoʊpən ðə ˈwɪndoʊ ",
          "Lang": "en",
          "ProblemNo": 2,
          "Kind": 3
        },
        {
          "Start": 188,
          "End": 193,
          "Text": "{Could you open the window ?}",
          "Ruby": "kʊd ju ˈoʊpən ðə ˈwɪndoʊ ",
          "Lang": "en",
          "ProblemNo": 2,
          "Kind": 4
        },
        {
          "Start": 193,
          "End": 196,
          "Text": "{Could you open the window ?}",
          "Ruby": "kʊd ju ˈoʊpən ðə ˈwɪndoʊ ",
          "Lang": "en",
          "ProblemNo": 3,
          "Kind": 1
        },
        {
          "Start": 196,
          "End": 198,
          "Text": "{phone me tomorrow}",
          "Ruby": "foʊn mi təˈmɑˌroʊ",
          "Lang": "en",
          "ProblemNo": 3,
          "Kind": 2
        },
        {
          "Start": 198,
          "End": 202,
          "Text": "{Could you phone me tomorrow ?}",
          "Ruby": "kʊd ju foʊn mi təˈmɑˌroʊ ",
          "Lang": "en",
          "ProblemNo": 3,
          "Kind": 3
        },
        {
          "Start": 202,
          "End": 207,
          "Text": "{Could you phone me tomorrow ?}",
          "Ruby": "kʊd ju foʊn mi təˈmɑˌroʊ ",
          "Lang": "en",
          "ProblemNo": 3,
          "Kind": 4
        },
        {
          "Start": 207,
          "End": 210,
          "Text": "{Could you phone me tomorrow ?}",
          "Ruby": "kʊd ju foʊn mi təˈmɑˌroʊ ",
          "Lang": "en",
          "ProblemNo": 4,
          "Kind": 1
        },
        {
          "Start": 210,
          "End": 212,
          "Text": "{wait a moment}",
          "Ruby": "wet ə ˈmoʊmənt",
          "Lang": "en",
          "ProblemNo": 4,
          "Kind": 2
        },
        {
          "Start": 212,
          "End": 216,
          "Text": "{Could you wait a moment ?}",
          "Ruby": "kʊd ju wet ə ˈmoʊmənt ",
          "Lang": "en",
          "ProblemNo": 4,
          "Kind": 3
        },
        {
          "Start": 216,
          "End": 221,
          "Text": "{Could you wait a moment ?}",
          "Ruby": "kʊd ju wet ə ˈmoʊmənt ",
          "Lang": "en",
          "ProblemNo": 4,
          "Kind": 4
        },
        {
          "Start": 221,
          "End": 224,
          "Text": "",
          "Ruby": "",
          "Lang": "",
          "ProblemNo": 0,
          "Kind": 5
        },
        {
          "Start": 224,
          "End": 244,
          "Text": "{Please subscribe!}",
          "Ruby": "",
          "Lang": "en",
          "ProblemNo": 0,
          "Kind": 7
        }
      ]
    }
  ],
  "CannotChange": true
}