{
  "SerieName": "math-e-div-r-1",
  "No": 21,
  "VideoTitle": "38 \\div 5 = 7 ⋯ 3",
  "YoutubeDescription": "",
  "YoutubeTitle": "{division with remainder}",
  "Time": 6,
  "Explanations": [
    "\n\\begin{align}\n38 \u0026= 5 + 5 + 5 + 5 + 5 + 5 + 5 + 3\\\\\n38 \\div 5 \u0026= 7 ⋯ 3\n\\end{align}"
  ],
  "Equations": [
    "7 \\div 3 = 2 ⋯ [1:1]",
    "41 \\div 5 = 8 ⋯ [1:1]",
    "38 \\div 5 = [7:6] ⋯ 3",
    "48 \\div [7:5] = 6 ⋯ 6",
    "74 \\div 10 = [7:7] ⋯ 4",
    "21 \\div 4 = [5:5] ⋯ 1",
    "25 \\div [7:7] = 3 ⋯ 4"
  ],
  "FormulaExercises": [
    {
      "Name": "A",
      "VideoFile": "math-e-div-r-1_21_A.mp4",
      "AnimeticCaptions": [
        {
          "Start": 0,
          "End": 2,
          "Text": "",
          "Ruby": "",
          "Lang": "",
          "ProblemNo": 3,
          "Kind": 9
        },
        {
          "Start": 2,
          "End": 5,
          "Text": "Math grade 3 | {division with remainder} #21 38 \\div 5 = 7 ⋯ 3",
          "Ruby": "",
          "Lang": "",
          "ProblemNo": 0,
          "Kind": 0
        },
        {
          "Start": 5,
          "End": 11,
          "Text": "",
          "Ruby": "",
          "Lang": "",
          "ProblemNo": 0,
          "Kind": 8
        },
        {
          "Start": 11,
          "End": 14,
          "Text": "",
          "Ruby": "",
          "Lang": "",
          "ProblemNo": 0,
          "Kind": 5
        },
        {
          "Start": 14,
          "End": 20,
          "Text": "",
          "Ruby": "",
          "Lang": "",
          "ProblemNo": 0,
          "Kind": 9
        },
        {
          "Start": 20,
          "End": 23,
          "Text": "",
          "Ruby": "",
          "Lang": "",
          "ProblemNo": 0,
          "Kind": 9
        },
        {
          "Start": 23,
          "End": 29,
          "Text": "",
          "Ruby": "",
          "Lang": "",
          "ProblemNo": 1,
          "Kind": 9
        },
        {
          "Start": 29,
          "End": 32,
          "Text": "",
          "Ruby": "",
          "Lang": "",
          "ProblemNo": 1,
          "Kind": 9
        },
        {
          "Start": 32,
          "End": 38,
          "Text": "",
          "Ruby": "",
          "Lang": "",
          "ProblemNo": 2,
          "Kind": 9
        },
        {
          "Start": 38,
          "End": 41,
          "Text": "",
          "Ruby": "",
          "Lang": "",
          "ProblemNo": 2,
          "Kind": 9
        },
        {
          "Start": 41,
          "End": 47,
          "Text": "",
          "Ruby": "",
          "Lang": "",
          "ProblemNo": 3,
          "Kind": 9
        },
        {
          "Start": 47,
          "End": 50,
          "Text": "",
          "Ruby": "",
          "Lang": "",
          "ProblemNo": 3,
          "Kind": 9
        },
        {
          "Start": 50,
          "End": 56,
          "Text": "",
          "Ruby": "",
          "Lang": "",
          "ProblemNo": 4,
          "Kind": 9
        },
        {
          "Start": 56,
          "End": 59,
          "Text": "",
          "Ruby": "",
          "Lang": "",
          "ProblemNo": 4,
          "Kind": 9
        },
        {
          "Start": 59,
          "End": 65,
          "Text": "",
          "Ruby": "",
          "Lang": "",
          "ProblemNo": 5,
          "Kind": 9
        },
        {
          "Start": 65,
          "End": 68,
          "Text": "",
          "Ruby": "",
          "Lang": "",
          "ProblemNo": 5,
          "Kind": 9
        },
        {
          "Start": 68,
          "End": 74,
          "Text": "",
          "Ruby": "",
          "Lang": "",
          "ProblemNo": 6,
          "Kind": 9
        },
        {
          "Start": 74,
          "End": 77,
          "Text": "",
          "Ruby": "",
          "Lang": "",
          "ProblemNo": 6,
          "Kind": 9
        },
        {
          "Start": 77,
          "End": 80,
          "Text": "",
          "Ruby": "",
          "Lang": "",
          "ProblemNo": 0,
          "Kind": 5
        },
        {
          "Start": 80,
          "End": 86,
          "Text": "",
          "Ruby": "",
          "Lang": "",
          "ProblemNo": 0,
          "Kind": 9
        },
        {
          "Start": 86,
          "End": 89,
          "Text": "",
          "Ruby": "",
          "Lang": "",
          "ProblemNo": 0,
          "Kind": 9
        },
        {
          "Start": 89,
          "End": 95,
          "Text": "",
          "Ruby": "",
          "Lang": "",
          "ProblemNo": 1,
          "Kind": 9
        },
        {
          "Start": 95,
          "End": 98,
          "Text": "",
          "Ruby": "",
          "Lang": "",
          "ProblemNo": 1,
          "Kind": 9
        },
        {
          "Start": 98,
          "End": 104,
          "Text": "",
          "Ruby": "",
          "Lang": "",
          "ProblemNo": 2,
          "Kind": 9
        },
        {
          "Start": 104,
          "End": 107,
          "Text": "",
          "Ruby": "",
          "Lang": "",
          "ProblemNo": 2,
          "Kind": 9
        },
        {
          "Start": 107,
          "End": 113,
          "Text": "",
          "Ruby": "",
          "Lang": "",
          "ProblemNo": 3,
          "Kind": 9
        },
        {
          "Start": 113,
          "End": 116,
          "Text": "",
          "Ruby": "",
          "Lang": "",
          "ProblemNo": 3,
          "Kind": 9
        },
        {
          "Start": 116,
          "End": 122,
          "Text": "",
          "Ruby": "",
          "Lang": "",
          "ProblemNo": 4,
          "Kind": 9
        },
        {
          "Start": 122,
          "End": 125,
          "Text": "",
          "Ruby": "",
          "Lang": "",
          "ProblemNo": 4,
          "Kind": 9
        },
        {
          "Start": 125,
          "End": 131,
          "Text": "",
          "Ruby": "",
          "Lang": "",
          "ProblemNo": 5,
          "Kind": 9
        },
        {
          "Start": 131,
          "End": 134,
          "Text": "",
          "Ruby": "",
          "Lang": "",
          "ProblemNo": 5,
          "Kind": 9
        },
        {
          "Start": 134,
          "End": 140,
          "Text": "",
          "Ruby": "",
          "Lang": "",
          "ProblemNo": 6,
          "Kind": 9
        },
        {
          "Start": 140,
          "End": 143,
          "Text": "",
          "Ruby": "",
          "Lang": "",
          "ProblemNo": 6,
          "Kind": 9
        },
        {
          "Start": 143,
          "End": 146,
          "Text": "",
          "Ruby": "",
          "Lang": "",
          "ProblemNo": 0,
          "Kind": 5
        },
        {
          "Start": 146,
          "End": 166,
          "Text": "{Please subscribe!}",
          "Ruby": "",
          "Lang": "en",
          "ProblemNo": 0,
          "Kind": 7
        }
      ]
    }
  ]
}