{
  "VideoFile": "grammar-ja-tk_29_A.mp4",
  "Captions": [
    {
      "ID": "9cNM9ksUAaIqd9c-9Lhwbdj4gngNGxOgGFwA1uyE1OS7Jc-Zkv2cnA==",
      "Lang": "af",
      "CaptionKey": "translation",
      "CaptionName": "vertaling",
      "YoutubeSynced": true
    },
    {
      "ID": "-mGZv1WaRwbD8QbXtLxEUBfwPFF6mB8s6VZiMjmzm9leLuHbzX_gaQ==",
      "Lang": "am",
      "CaptionKey": "translation",
      "CaptionName": "ትርጉም",
      "YoutubeSynced": true
    },
    {
      "ID": "yF8Jre8lxt8iSLmPMtUCSCwN8ypWiGXqWSjrglzlCisHN7TtTavG5g==",
      "Lang": "ar",
      "CaptionKey": "translation",
      "CaptionName": "ترجمة",
      "YoutubeSynced": true
    },
    {
      "ID": "yF8Jre8lxt8e7h9SD5t-iXzfdW-DV781Tqy5xHtqB7eoM6Urh3ePfw==",
      "Lang": "az",
      "CaptionKey": "translation",
      "CaptionName": "Tərcümə",
      "YoutubeSynced": true
    },
    {
      "ID": "Z8aulH3dZSGzGhiX_-cM3RiZDNQR-qtYa34E_0_Hzq13B_9b--6-CFBjH9SA2K0a",
      "Lang": "be",
      "CaptionKey": "translation",
      "CaptionName": "Пераклад",
      "YoutubeSynced": true
    },
    {
      "ID": "-mGZv1WaRwYn21XJ2_0SYTAZkHpUffIQbBgyB7R1SuRpl9x-No8sVw==",
      "Lang": "bg",
      "CaptionKey": "translation",
      "CaptionName": "превод",
      "YoutubeSynced": true
    },
    {
      "ID": "hZ4MTdcDIS9k_pOrgPqLDVFdGvDg6IXix0b1EvXO4-NWcAYQfA-ZZ3xQ738Ak_F7",
      "Lang": "bn",
      "CaptionKey": "translation",
      "CaptionName": "অনুবাদ",
      "YoutubeSynced": true
    },
    {
      "ID": "9qigsG3wdZlL71volLeVjPQCAsoLmtE3XGyE1-cvGM4=",
      "Lang": "bs",
      "CaptionKey": "translation",
      "CaptionName": "Prevod",
      "YoutubeSynced": true
    },
    {
      "ID": "yF8Jre8lxt-EKwsmal2lhX7FZfieney8Sf6Sjl4s7o2nQ0pzB56ctQ==",
      "Lang": "ca",
      "CaptionKey": "translation",
      "CaptionName": "Traducció",
      "YoutubeSynced": true
    },
    {
      "ID": "yF8Jre8lxt8ty3Ug1Wj74CRtNDNJ1yxOBzx_VpgVo4qVC6NsVR8P2A==",
      "Lang": "co",
      "CaptionKey": "translation",
      "CaptionName": "Traduzione",
      "YoutubeSynced": true
    },
    {
      "ID": "nwZ3eePzvXBlslvHFlpyEh_qyEVBZ-x5h7qJmA1JBMkubB6oJfn4eg==",
      "Lang": "cs",
      "CaptionKey": "translation",
      "CaptionName": "Překlad",
      "YoutubeSynced": true
    },
    {
      "ID": "QuTEDOtj7HcYFBL1DD4NcmETFwmPIG2lYS8FTSa9VGwWZ9Rlu1yAJg==",
      "Lang": "cy",
      "CaptionKey": "translation",
      "CaptionName": "Cyfieithiad",
      "YoutubeSynced": true
    },
    {
      "ID": "GJF6fOBAhS5CPV9h1dU4XCYhNJdNJRYkFoQMxW2vr3fYQUoKPb8y4w==",
      "Lang": "da",
      "CaptionKey": "translation",
      "CaptionName": "Oversættelse",
      "YoutubeSynced": true
    },
    {
      "ID": "-mGZv1WaRwafq-cJqLnX5J67wUlBstDEfOze-Na95tsADVZGhyB6sw==",
      "Lang": "de",
      "CaptionKey": "translation",
      "CaptionName": "Übersetzung",
      "YoutubeSynced": true
    },
    {
      "ID": "hZ4MTdcDIS_pqptmxlQuP829Z6aP5f2rqPfigtuSSVKVNGPYI3OQTCiWrqpH4nPV",
      "Lang": "el",
      "CaptionKey": "translation",
      "CaptionName": "Μετάφραση",
      "YoutubeSynced": true
    },
    {
      "ID": "QuTEDOtj7HcYWBOTYgeA-EXZ2r2JaH8D4TCnl81cpKszB43LgR-f4g==",
      "Lang": "en",
      "CaptionKey": "translation",
      "CaptionName": "Translation",
      "YoutubeSynced": true
    },
    {
      "ID": "QuTEDOtj7HeGYZfdWvg3uece6Hq8Zb6EnC176N75rWEa0cO6WA6N7Q==",
      "Lang": "es",
      "CaptionKey": "translation",
      "CaptionName": "Traducción",
      "YoutubeSynced": true
    },
    {
      "ID": "9qigsG3wdZnFwN6NjhoHbMNINxkA3BmMkZjW19uVTWs=",
      "Lang": "et",
      "CaptionKey": "translation",
      "CaptionName": "Tõlge",
      "YoutubeSynced": true
    },
    {
      "ID": "9cNM9ksUAaK5xdKxGKYsGZutjah3PydqiYjWL99r6Z8tuai_wIOtCQ==",
      "Lang": "eu",
      "CaptionKey": "translation",
      "CaptionName": "Itzulpena",
      "YoutubeSynced": true
    },
    {
      "ID": "yF8Jre8lxt8hjuokJhB1E7QFngChBOldYHY5iefIzLpPF-OlqrILRQ==",
      "Lang": "fa",
      "CaptionKey": "translation",
      "CaptionName": "ترجمه",
      "YoutubeSynced": true
    },
    {
      "ID": "yF8Jre8lxt9QuUEostdfndnXAv0Bn4ndCkM4GSoUED4-Y2scHOnPmg==",
      "Lang": "fi",
      "CaptionKey": "translation",
      "CaptionName": "Käännös",
      "YoutubeSynced": true
    },
    {
      "ID": "QuTEDOtj7HfdKgYAsOYDRftMnK5OoV9KtoSIXXvS57KlGTXImfy3kw==",
      "Lang": "fil",
      "CaptionKey": "translation",
      "CaptionName": "Pagsasalin",
      "YoutubeSynced": true
    },
    {
      "ID": "yF8Jre8lxt8XPWs9Wzp_bOD1Y03_S_T49NMtMdSQwxBJAtXSScz3dw==",
      "Lang": "fr",
      "CaptionKey": "translation",
      "CaptionName": "Traduction",
      "YoutubeSynced": true
    },
    {
      "ID": "yF8Jre8lxt9S24OdIbGW_h2zkgHsyXoWAk9JdjuW_ngZwHYX1K004A==",
      "Lang": "fy",
      "CaptionKey": "translation",
      "CaptionName": "Oersetting",
      "YoutubeSynced": true
    },
    {
      "ID": "hZ4MTdcDIS-ibQjcSqXDXnia_McIZvHWM56KxC9ADz1DbghbO3dNnzeVMoc0o_m0",
      "Lang": "gd",
      "CaptionKey": "translation",
      "CaptionName": "Eadar-theangachadh",
      "YoutubeSynced": true
    },
    {
      "ID": "yF8Jre8lxt_b1OUf7Dm4yceIY3p0beeOh4W2BofLVvIZPv2KUnVaeg==",
      "Lang": "gl",
      "CaptionKey": "translation",
      "CaptionName": "Tradución",
      "YoutubeSynced": true
    },
    {
      "ID": "hZ4MTdcDIS_CI2niZM8RmONpQHZq0kedqud4dszy3XsJe5bo8VXq5wTH6ih1bNco",
      "Lang": "gu",
      "CaptionKey": "translation",
      "CaptionName": "અનુવાદ",
      "YoutubeSynced": true
    },
    {
      "ID": "LlaLyLzj7V3513vlbhMdnjIm7giOLfEnMQxScWHS3JSLuBRQ6cGJyg==",
      "Lang": "ha",
      "CaptionKey": "translation",
      "CaptionName": "Fassara",
      "YoutubeSynced": true
    },
    {
      "ID": "hZ4MTdcDIS9d5vR_M14J2DVYvUtO6jOpxJZ9VznoJdm2SPDB8hLELkpaVXe9KenQ",
      "Lang": "hi",
      "CaptionKey": "translation",
      "CaptionName": "अनुवाद",
      "YoutubeSynced": true
    },
    {
      "ID": "nwZ3eePzvXBvN_NuVxvsziNIXWOV1uVfiGN3YwGtm2tcMLed1UXO0Q==",
      "Lang": "hr",
      "CaptionKey": "translation",
      "CaptionName": "Prijevod",
      "YoutubeSynced": true
    },
    {
      "ID": "yF8Jre8lxt_eORMgL1sqHXrkWC9xGnnjNwyZc2dZ6O2b92H5eVXBEQ==",
      "Lang": "hu",
      "CaptionKey": "translation",
      "CaptionName": "Fordítás",
      "YoutubeSynced": true
    },
    {
      "ID": "Jw6ZLgh-AhYwuZF8ogcvmJ6Savnj9zLhj6S3UwlA-2WSzlxjweEl9JjcP3Pkkn09Zx6xLoWwXS8=",
      "Lang": "hy",
      "CaptionKey": "translation",
      "CaptionName": "Թարգմանություն",
      "YoutubeSynced": true
    },
    {
      "ID": "yF8Jre8lxt_AT05_IdzvNGm2_P1RSzudpF-uZvBmNyzSe_635uSWWQ==",
      "Lang": "id",
      "CaptionKey": "translation",
      "CaptionName": "Terjemahan",
      "YoutubeSynced": true
    },
    {
      "ID": "nwZ3eePzvXAIPA3Nt-u0Ao8KkG-L31zdEFPAJpJmSS-GCJKYIiOkcw==",
      "Lang": "ig",
      "CaptionKey": "translation",
      "CaptionName": "Ntughari",
      "YoutubeSynced": true
    },
    {
      "ID": "9cNM9ksUAaJBs-XEn_cHbFO5uwEHKnGARTWV2JERKvh5UsljIOkeOA==",
      "Lang": "is",
      "CaptionKey": "translation",
      "CaptionName": "Þýðing",
      "YoutubeSynced": true
    },
    {
      "ID": "yF8Jre8lxt_86EFZQoHtF6okkYUVKxfPdxnJyp_B2_uPvZPzJTF0nw==",
      "Lang": "it",
      "CaptionKey": "translation",
      "CaptionName": "Traduzione",
      "YoutubeSynced": true
    },
    {
      "ID": "yF8Jre8lxt9XaQmzofUmk-uL__R7PMeHKr7WTBQh9QDC_qS5yxaYxA==",
      "Lang": "iw",
      "CaptionKey": "translation",
      "CaptionName": "תרגום",
      "YoutubeSynced": true
    },
    {
      "ID": "9qigsG3wdZlGSTd3FVVWvDS7UCRml504LLVi227qSxk=",
      "Lang": "ja",
      "CaptionKey": "translation",
      "CaptionName": "翻訳",
      "YoutubeSynced": true
    },
    {
      "ID": "9cNM9ksUAaIDRuJb31ayuQq9zpuDEafAXRNkxy9hGP36IS15p-wCpg==",
      "Lang": "jv",
      "CaptionKey": "translation",
      "CaptionName": "Ngartekne",
      "YoutubeSynced": true
    },
    {
      "ID": "lx9t1PFg3bCvR2casiArbxpCEsLAijbWi1mnqwveMHxS3tTwcTL_-Ash27hY_6OqHvFYuFSOPeU=",
      "Lang": "ka",
      "CaptionKey": "translation",
      "CaptionName": "თარგმანი",
      "YoutubeSynced": true
    },
    {
      "ID": "BeUHs5cJy-vfpu2fCoWqoQ1XYbSSvYybLYaT30CWEROu8KmOeBCHCA==",
      "Lang": "kk",
      "CaptionKey": "translation",
      "CaptionName": "Аударма",
      "YoutubeSynced": true
    },
    {
      "ID": "8VVTqLhzrEWzJNo2xkPl6DAym5Ok5yZG54Jf_gaAKvGC2f16P9CwwvKnXpOFM8cBeEB41lekUTU=",
      "Lang": "km",
      "CaptionKey": "translation",
      "CaptionName": "ការបកប្រែ",
      "YoutubeSynced": true
    },
    {
      "ID": "hZ4MTdcDIS_hQniK5_bGhN5MiRdVOjuBHbeU_kG0PYjDvzR2SrfpY_GhKqnR_H0q",
      "Lang": "kn",
      "CaptionKey": "translation",
      "CaptionName": "ಅನುವಾದ",
      "YoutubeSynced": true
    },
    {
      "ID": "9qigsG3wdZngc3lLNAxiAUmcXAjXsO1LKCkaBkDUTsE=",
      "Lang": "ko",
      "CaptionKey": "translation",
      "CaptionName": "번역",
      "YoutubeSynced": true
    },
    {
      "ID": "9qigsG3wdZmY6JA6F3_husRQ4xqw28isUCU0ZPXbrWQ=",
      "Lang": "ku",
      "CaptionKey": "translation",
      "CaptionName": "Werger",
      "YoutubeSynced": true
    },
    {
      "ID": "BeUHs5cJy-vFtyguUPZUso8bIDA7fx8agbLAANAb3em36pTKkIYe2Q==",
      "Lang": "ky",
      "CaptionKey": "translation",
      "CaptionName": "котормо",
      "YoutubeSynced": true
    },
    {
      "ID": "-mGZv1WaRwaUotb9xQikQGXqGC45S6-t8DTGZCIKCM-vD2ycm6QAJA==",
      "Lang": "lb",
      "CaptionKey": "translation",
      "CaptionName": "Iwwersetzung",
      "YoutubeSynced": true
    },
    {
      "ID": "8VVTqLhzrEVu4eMI_NeDNJnv_CGXKDtWl5yR3HkfB3-A-X_6mc8kwWPDqOOf1pOOLM_vOg9VJ1I=",
      "Lang": "lo",
      "CaptionKey": "translation",
      "CaptionName": "ການແປພາສາ",
      "YoutubeSynced": true
    },
    {
      "ID": "nwZ3eePzvXBGD9Cgimzmrwn_PkuH505kPZ2yls8j4i6vXw6DrK121Q==",
      "Lang": "lt",
      "CaptionKey": "translation",
      "CaptionName": "Vertimas",
      "YoutubeSynced": true
    },
    {
      "ID": "yF8Jre8lxt89HD4PGe8ooUYUunKXEEmmH7G3JKyZXs6dRbFq3HEPAQ==",
      "Lang": "lv",
      "CaptionKey": "translation",
      "CaptionName": "Tulkošana",
      "YoutubeSynced": true
    },
    {
      "ID": "QuTEDOtj7HdegWz7olis0Hpyb6nhCd8P6ATkfrBfOWb3MZfsAvr1RA==",
      "Lang": "mg",
      "CaptionKey": "translation",
      "CaptionName": "Translation",
      "YoutubeSynced": true
    },
    {
      "ID": "XRsMgOhD2fxti36Fr8ozHtPMyktqZJ1cH3mMvR_h40IfhW98_JxaeJtzH2C3-kNY",
      "Lang": "mi",
      "CaptionKey": "translation",
      "CaptionName": "Whakamaoritanga",
      "YoutubeSynced": true
    },
    {
      "ID": "-mGZv1WaRwZfEfTUK5jVPvrUQ95l-VUia__pDHvLDnRUwcnOL6LcxA==",
      "Lang": "mk",
      "CaptionKey": "translation",
      "CaptionName": "Превод",
      "YoutubeSynced": true
    },
    {
      "ID": "8VVTqLhzrEWSNLz4jbJaE6LP6C9f7lEBBg_9o8uhAf1WInIIPgxKBEaCeDNjkv6iqcmYaQUkvWE=",
      "Lang": "ml",
      "CaptionKey": "translation",
      "CaptionName": "വിവർത്തനം",
      "YoutubeSynced": true
    },
    {
      "ID": "Z8aulH3dZSGsFzG_BY0J9wkBCm_psjEJU8cnG2IKyigfEdTwaSujLMNXwAvUtZbh",
      "Lang": "mn",
      "CaptionKey": "translation",
      "CaptionName": "Орчуулга",
      "YoutubeSynced": true
    },
    {
      "ID": "pA7PNh6owEyjGIoxkIc54YQd1Jb7uWdHwXstathd7OO7bFh3G8Ci_SsvL9g0AfEm",
      "Lang": "mr",
      "CaptionKey": "translation",
      "CaptionName": "भाषांतर",
      "YoutubeSynced": true
    },
    {
      "ID": "yF8Jre8lxt_b3G-3Xgs0KFEL6Y_dkkWcrlg1DsmWvCUD-JqVk8trfQ==",
      "Lang": "ms",
      "CaptionKey": "translation",
      "CaptionName": "Terjemahan",
      "YoutubeSynced": true
    },
    {
      "ID": "QuTEDOtj7HfyzFZVzxiWB-0ULqtWpltKxrDgmAWQi3halSwkn5HfMw==",
      "Lang": "mt",
      "CaptionKey": "translation",
      "CaptionName": "Traduzzjoni",
      "YoutubeSynced": true
    },
    {
      "ID": "lx9t1PFg3bCEURQQIkYaxlVJvMZVo9xPWpgwX7_ozvmV1rEbYvHtCsmTQirfwdJyvD1ZogFBQ40=",
      "Lang": "my",
      "CaptionKey": "translation",
      "CaptionName": "ဘာသာပြန်",
      "YoutubeSynced": true
    },
    {
      "ID": "hZ4MTdcDIS_ukOaiikqV_s-I7RTmh7JYRP3h7PaBh-FvmKVQCbh_0EGi38pGl5Qu",
      "Lang": "ne",
      "CaptionKey": "translation",
      "CaptionName": "अनुवाद",
      "YoutubeSynced": true
    },
    {
      "ID": "9cNM9ksUAaKbNxKVXzMm6S159ocY40a2Lhfs-limWEBpp0eWCrHvcQ==",
      "Lang": "nl",
      "CaptionKey": "translation",
      "CaptionName": "Vertaling",
      "YoutubeSynced": true
    },
    {
      "ID": "-mGZv1WaRwbWOOiZilBIoMfCYdCcE3GELS9ZdXNctNQ0YHxbuaH7Yg==",
      "Lang": "no",
      "CaptionKey": "translation",
      "CaptionName": "Oversettelse",
      "YoutubeSynced": true
    },
    {
      "ID": "hZ4MTdcDIS_PGdkqqGY8XbiLl6wMla1yF-wV9NP6Wjccp1SGI-GcypAVMePm_ejO",
      "Lang": "pa",
      "CaptionKey": "translation",
      "CaptionName": "ਅਨੁਵਾਦ",
      "YoutubeSynced": true
    },
    {
      "ID": "-mGZv1WaRwbUWEmZitrAsZsYV-nz2qUXUCDQxRok8KEztvEVu4-6NQ==",
      "Lang": "pl",
      "CaptionKey": "translation",
      "CaptionName": "Tłumaczenie",
      "YoutubeSynced": true
    },
    {
      "ID": "yF8Jre8lxt_k2scSaJRce8kFWddQRQIh61WckvT62KOFKTrWNIZcow==",
      "Lang": "ps",
      "CaptionKey": "translation",
      "CaptionName": "ژباړه",
      "YoutubeSynced": true
    },
    {
      "ID": "yF8Jre8lxt-pMDE0OYquxMrP9u05p7wFAUpKIR-QVgd-5DhTp1tMzw==",
      "Lang": "pt",
      "CaptionKey": "translation",
      "CaptionName": "Tradução",
      "YoutubeSynced": true
    },
    {
      "ID": "9cNM9ksUAaKs4ZC-KpnZgTEiMb9NBkvxV5SFC7RaiPfcg8G19JsbPA==",
      "Lang": "ro",
      "CaptionKey": "translation",
      "CaptionName": "Traducere",
      "YoutubeSynced": true
    },
    {
      "ID": "BeUHs5cJy-tTG6X8N8Yo8l73u2-sJHijQZ5phjPzJYXWAanKCM6l6w==",
      "Lang": "ru",
      "CaptionKey": "translation",
      "CaptionName": "Перевод",
      "YoutubeSynced": true
    },
    {
      "ID": "yF8Jre8lxt-HwSWipRCjHn6flvkKUPN3GWxsnJTQdg2GEng2pEF41g==",
      "Lang": "sd",
      "CaptionKey": "translation",
      "CaptionName": "ترجمو",
      "YoutubeSynced": true
    },
    {
      "ID": "8VVTqLhzrEVNnr3TQDpPoxWxCLfc_XMZKkeyFGXJQL4UzyhA9tuhrQm1GDhftLyXVZVd1x3fNMY=",
      "Lang": "si",
      "CaptionKey": "translation",
      "CaptionName": "පරිවර්තනය",
      "YoutubeSynced": true
    },
    {
      "ID": "LlaLyLzj7V1YiD-AzY8d63yFeKPpIRHtkbDlN5ZIAVAvXGMpMei9-w==",
      "Lang": "sk",
      "CaptionKey": "translation",
      "CaptionName": "preklad",
      "YoutubeSynced": true
    },
    {
      "ID": "9qigsG3wdZmKW_E7KUmURT7IZWiOl4shKqyUqFvu_8Y=",
      "Lang": "sl",
      "CaptionKey": "translation",
      "CaptionName": "Prevod",
      "YoutubeSynced": true
    },
    {
      "ID": "-mGZv1WaRwbe__1dKIUv5Q7SOaN4NT52cksXjT9Ky-Ta8-tvvM_6iQ==",
      "Lang": "sm",
      "CaptionKey": "translation",
      "CaptionName": "Faʻaliliuga",
      "YoutubeSynced": true
    },
    {
      "ID": "LlaLyLzj7V1AN_ac2UOc163rxoHqZyIgow2tzN4UmgVY1-pEIyVJtg==",
      "Lang": "sn",
      "CaptionKey": "translation",
      "CaptionName": "Dudziro",
      "YoutubeSynced": true
    },
    {
      "ID": "9cNM9ksUAaIvuyzrc8VEorA7t1DCALGs5x9aNzyr5E5TcCFfoHpa5w==",
      "Lang": "so",
      "CaptionKey": "translation",
      "CaptionName": "Tarjumida",
      "YoutubeSynced": true
    },
    {
      "ID": "9cNM9ksUAaKtB9-OvRCANdEIbDUnv3tcLOo-FXiucXZm2yfaZLE67w==",
      "Lang": "sq",
      "CaptionKey": "translation",
      "CaptionName": "përkthim",
      "YoutubeSynced": true
    },
    {
      "ID": "-mGZv1WaRwZZkbgt3Q1qgJt0YcnzpOd8i3EiNPMQS0J5HHmHh5ctCQ==",
      "Lang": "sr",
      "CaptionKey": "translation",
      "CaptionName": "Превод",
      "YoutubeSynced": true
    },
    {
      "ID": "9cNM9ksUAaJteN4ZQTww_X3d1wcuD_1xHvGSt5vyMtfadFA_8bro8Q==",
      "Lang": "st",
      "CaptionKey": "translation",
      "CaptionName": "Phetolelo",
      "YoutubeSynced": true
    },
    {
      "ID": "yF8Jre8lxt_JmG2HxyJNxu7wSX3ZQDC0QJG6B4PfPFC8hB_3SyYtOQ==",
      "Lang": "su",
      "CaptionKey": "translation",
      "CaptionName": "Tarjamahan",
      "YoutubeSynced": true
    },
    {
      "ID": "BeUHs5cJy-twJNInh7jWJ86VJcPcXU9JmANXWBsSx1mYnMHw4RrucA==",
      "Lang": "sv",
      "CaptionKey": "translation",
      "CaptionName": "Översättning",
      "YoutubeSynced": true
    },
    {
      "ID": "LlaLyLzj7V2T1LijPEFS4P7NdMMdL4PqWKFcnUi3TxfK8a-XdMdHUQ==",
      "Lang": "sw",
      "CaptionKey": "translation",
      "CaptionName": "Tafsiri",
      "YoutubeSynced": true
    },
    {
      "ID": "eY0-pnfOzNMctgoY_PjTqxTxXbXduFklzT0KzfrI-q8LLBH6GjOnB5N2G72TG-XJ9iTvPXV2BuvZozPTIN3Lm7tcMxHg52PQ",
      "Lang": "ta",
      "CaptionKey": "translation",
      "CaptionName": "மொழிபெயர்ப்பு",
      "YoutubeSynced": true
    },
    {
      "ID": "pA7PNh6owExKSrQSFQ4GwGJsRf1jsThGtkiizL5Hu1aeQJsgSU3oWMA6xFRGCPnp",
      "Lang": "te",
      "CaptionKey": "translation",
      "CaptionName": "అనువాదం",
      "YoutubeSynced": true
    },
    {
      "ID": "BeUHs5cJy-veyfoyBQA7--qWsPx1yyojrfjq9eN7xlslBz7qhJBYJA==",
      "Lang": "tg",
      "CaptionKey": "translation",
      "CaptionName": "Тарҷума",
      "YoutubeSynced": true
    },
    {
      "ID": "hZ4MTdcDIS_B4Jb88WH7N55_Cg0tAlQtJkZ3c03UPGYMzl_KdWZSSri4x_kaOTP5",
      "Lang": "th",
      "CaptionKey": "translation",
      "CaptionName": "การแปล",
      "YoutubeSynced": true
    },
    {
      "ID": "nwZ3eePzvXC_L0uX1ZWRfPoZUWZM7e5GO2US1s-G4NsXBSaZ9h2oqQ==",
      "Lang": "tr",
      "CaptionKey": "translation",
      "CaptionName": "Tercüme",
      "YoutubeSynced": true
    },
    {
      "ID": "Z8aulH3dZSH3PNCpOalo289FWmF1_xQgMmHFBg7OW0lpm95kqLYVvEWo6E1a3rM8",
      "Lang": "uk",
      "CaptionKey": "translation",
      "CaptionName": "Переклад",
      "YoutubeSynced": true
    },
    {
      "ID": "yF8Jre8lxt8p4Mjn_CCkd7F_H1PpwwIdrRzoSOwYGdfbfn58tqt_Zw==",
      "Lang": "ur",
      "CaptionKey": "translation",
      "CaptionName": "ترجمہ",
      "YoutubeSynced": true
    },
    {
      "ID": "LlaLyLzj7V2OXq4gbkAx-VaOJpjoryNqOKWf6hU7LqsrEe9NRAPp5Q==",
      "Lang": "uz",
      "CaptionKey": "translation",
      "CaptionName": "Tarjima",
      "YoutubeSynced": true
    },
    {
      "ID": "9qigsG3wdZlj4f754sr6XPx-VTV4hzbik7i97oUUdGs=",
      "Lang": "vi",
      "CaptionKey": "translation",
      "CaptionName": "Dịch",
      "YoutubeSynced": true
    },
    {
      "ID": "yF8Jre8lxt_Fcp_Uf30poO8hpqLE4dHzRQIVZQy7bgk2dgJ3yZGkPw==",
      "Lang": "xh",
      "CaptionKey": "translation",
      "CaptionName": "Inguqulelo",
      "YoutubeSynced": true
    },
    {
      "ID": "0Dlcb4Z9IZYEAvj5l40kr-nopVLB4lvmwp9PjSnlPPGSXlojXYMBU6JH0cG3TbA7",
      "Lang": "yi",
      "CaptionKey": "translation",
      "CaptionName": "איבערזעצונג",
      "YoutubeSynced": true
    },
    {
      "ID": "LlaLyLzj7V1o-Ezhg9wZPDnNk1zrsSeLYLvDB96wXo_vKG84xm3H8Q==",
      "Lang": "yo",
      "CaptionKey": "translation",
      "CaptionName": "Itumọ",
      "YoutubeSynced": true
    },
    {
      "ID": "QuTEDOtj7HdM6h02yoV3A7cerFeUEdgj76Wyqxy2m5ChNMNdfTKwcQ==",
      "Lang": "zh-Hans",
      "CaptionKey": "translation",
      "CaptionName": "翻译",
      "YoutubeSynced": true
    },
    {
      "ID": "QuTEDOtj7HdM6h02yoV3A6pYHfiblusSnNKafnUngYoMUQI8bX-_3A==",
      "Lang": "zh-Hant",
      "CaptionKey": "translation",
      "CaptionName": "翻譯",
      "YoutubeSynced": true
    },
    {
      "ID": "yF8Jre8lxt-VFz0jBV7I9SVF9jSDBfgVkq2HJd2vBGWWqo0h30QHzQ==",
      "Lang": "zu",
      "CaptionKey": "translation",
      "CaptionName": "Ukuhumusha",
      "YoutubeSynced": true
    }
  ]
}