{
  "VideoFile": "grammar-ja-tk_14_A.mp4",
  "Captions": [
    {
      "ID": "sFg4zo5NwQWa0vpI4EWaGlV7Lasfb4VwSq7XO3wo0MppBTL67rJorQ==",
      "Lang": "af",
      "CaptionKey": "translation",
      "CaptionName": "vertaling",
      "YoutubeSynced": true
    },
    {
      "ID": "lp_WPH-O6n07HW8auuYiXwG95vTUsPoMKOSGYk83HHSve--CdXPORg==",
      "Lang": "am",
      "CaptionKey": "translation",
      "CaptionName": "ትርጉም",
      "YoutubeSynced": true
    },
    {
      "ID": "llyKrHtMlvqjhs5VBrr-FdX9U9rsQrbb3AicK6G3ug704NxCTOr_mg==",
      "Lang": "ar",
      "CaptionKey": "translation",
      "CaptionName": "ترجمة",
      "YoutubeSynced": true
    },
    {
      "ID": "llyKrHtMlvoMb3rtuuLx0pRSunrqBe9vmgIzuMgCMIEOTUnLLAzrVQ==",
      "Lang": "az",
      "CaptionKey": "translation",
      "CaptionName": "Tərcümə",
      "YoutubeSynced": true
    },
    {
      "ID": "X7voDB7Xr194rrqhBIZ8Ma37HdzlzqX19ml-iknsiutWrHW_hvpBHL7muTteRC1z",
      "Lang": "be",
      "CaptionKey": "translation",
      "CaptionName": "Пераклад",
      "YoutubeSynced": true
    },
    {
      "ID": "lp_WPH-O6n1HjH136mgVigh0cmFxmL8kpefXDFTMzq3__6aYIqqnoQ==",
      "Lang": "bg",
      "CaptionKey": "translation",
      "CaptionName": "превод",
      "YoutubeSynced": true
    },
    {
      "ID": "EtJa8MLFZXsXHnqwVSo4wxnXMflYkJU9Q2WhfdLvnhjL48YfIY2O8ZIrg97o69Mk",
      "Lang": "bn",
      "CaptionKey": "translation",
      "CaptionName": "অনুবাদ",
      "YoutubeSynced": true
    },
    {
      "ID": "f1bVXPhdHe5w5n4YjXJuNP5wYL0yLcS458VOvsq4hPI=",
      "Lang": "bs",
      "CaptionKey": "translation",
      "CaptionName": "Prevod",
      "YoutubeSynced": true
    },
    {
      "ID": "llyKrHtMlvpVh2YQfiOd427V4xV5u3t712YTrrrvCgJ9iTEJ129oqQ==",
      "Lang": "ca",
      "CaptionKey": "translation",
      "CaptionName": "Traducció",
      "YoutubeSynced": true
    },
    {
      "ID": "llyKrHtMlvppFTfV6JK0TbWKfWYrdW6N2D_GJwYEF9ZePWxXRhQbEw==",
      "Lang": "co",
      "CaptionKey": "translation",
      "CaptionName": "Traduzione",
      "YoutubeSynced": true
    },
    {
      "ID": "IDVEQNn6-_yXQrFPbY8BQK-rJ96GzBdWCICaa9OR36_tW2tF7mcjjw==",
      "Lang": "cs",
      "CaptionKey": "translation",
      "CaptionName": "Překlad",
      "YoutubeSynced": true
    },
    {
      "ID": "KouB4wKy14Pxg8rESTqeB_XHrL0XbAK_dz5zLhA595uZser6pItzFw==",
      "Lang": "cy",
      "CaptionKey": "translation",
      "CaptionName": "Cyfieithiad",
      "YoutubeSynced": true
    },
    {
      "ID": "x17f9gJq7okQGF0luX7eHo-thhVmKE0FwZm3rqdkKB7WU8b_vec8Kg==",
      "Lang": "da",
      "CaptionKey": "translation",
      "CaptionName": "Oversættelse",
      "YoutubeSynced": true
    },
    {
      "ID": "lp_WPH-O6n1cm9Lcfys8Cyxu_Fsn401Q4RiusSHnD752NRtwN6kAAg==",
      "Lang": "de",
      "CaptionKey": "translation",
      "CaptionName": "Übersetzung",
      "YoutubeSynced": true
    },
    {
      "ID": "EtJa8MLFZXvMmHOGZ417pFE8ITyoTukj6ihUiPc461ncbRcldTAuubSZSe7C0TR_",
      "Lang": "el",
      "CaptionKey": "translation",
      "CaptionName": "Μετάφραση",
      "YoutubeSynced": true
    },
    {
      "ID": "KouB4wKy14OlR6zRm-442cEVWaC4HEbI5gS2eK8wvQLHMXOZyUmNvg==",
      "Lang": "en",
      "CaptionKey": "translation",
      "CaptionName": "Translation",
      "YoutubeSynced": true
    },
    {
      "ID": "KouB4wKy14P6EB3Un8DIypngykykbjooCe7u2s-k0-fzPk5kSkd8Mg==",
      "Lang": "es",
      "CaptionKey": "translation",
      "CaptionName": "Traducción",
      "YoutubeSynced": true
    },
    {
      "ID": "f1bVXPhdHe7wOlOpLvl6Lgp4M3k8Ecz_atLbwaJZArc=",
      "Lang": "et",
      "CaptionKey": "translation",
      "CaptionName": "Tõlge",
      "YoutubeSynced": true
    },
    {
      "ID": "sFg4zo5NwQXzZZMumLV3xuGdE8eAxIcvvaLygcr8FQ5Iky6sAUzXsg==",
      "Lang": "eu",
      "CaptionKey": "translation",
      "CaptionName": "Itzulpena",
      "YoutubeSynced": true
    },
    {
      "ID": "llyKrHtMlvo6xgldIu3_ifzQUAmeBbiA7kg1CdqBkTkou_k1LuPk-w==",
      "Lang": "fa",
      "CaptionKey": "translation",
      "CaptionName": "ترجمه",
      "YoutubeSynced": true
    },
    {
      "ID": "llyKrHtMlvp7w0u8tlGsB_xL5_0qxDypI3xrxQyVAvarep_GDeP0oA==",
      "Lang": "fi",
      "CaptionKey": "translation",
      "CaptionName": "Käännös",
      "YoutubeSynced": true
    },
    {
      "ID": "KouB4wKy14PfA5lJozSfDBtPnDoh6gwc2yg7o1TaJCMj9buRJYxvpw==",
      "Lang": "fil",
      "CaptionKey": "translation",
      "CaptionName": "Pagsasalin",
      "YoutubeSynced": true
    },
    {
      "ID": "llyKrHtMlvqjIvZs7_TpN8D9HMSwy4kPcly0gVWtJ1ClCu7B6aTpsQ==",
      "Lang": "fr",
      "CaptionKey": "translation",
      "CaptionName": "Traduction",
      "YoutubeSynced": true
    },
    {
      "ID": "llyKrHtMlvoaHJOI-QaTRprUSdy10Hb2KlzjPlGpKDoIwXdkDTjNDg==",
      "Lang": "fy",
      "CaptionKey": "translation",
      "CaptionName": "Oersetting",
      "YoutubeSynced": true
    },
    {
      "ID": "EtJa8MLFZXtAoPAwUp6OQy-TM_PLcM8ESpoXr8HhGixlswgQOCMzfdKFVdMXv0mE",
      "Lang": "gd",
      "CaptionKey": "translation",
      "CaptionName": "Eadar-theangachadh",
      "YoutubeSynced": true
    },
    {
      "ID": "llyKrHtMlvrYV_Y3TBGFkoI2ZelvMweJ5c2C4AyOAJ9U4QdvqzEY1w==",
      "Lang": "gl",
      "CaptionKey": "translation",
      "CaptionName": "Tradución",
      "YoutubeSynced": true
    },
    {
      "ID": "EtJa8MLFZXsgstasRjy9Kr5VO8EQUFUezLmBuKlLgho-dwpVwuqC5FRU9WwCoSb8",
      "Lang": "gu",
      "CaptionKey": "translation",
      "CaptionName": "અનુવાદ",
      "YoutubeSynced": true
    },
    {
      "ID": "C_xZ7xknugsUhLgxY7Q3cFLJADrm7jfz0PsRxSiABJWqk6oiwgMDyA==",
      "Lang": "ha",
      "CaptionKey": "translation",
      "CaptionName": "Fassara",
      "YoutubeSynced": true
    },
    {
      "ID": "EtJa8MLFZXtVbaeU3tPCdThB7TBdkGeu8ld3Z_khPm9NF5qy3u9HHkDEgYGfc1i1",
      "Lang": "hi",
      "CaptionKey": "translation",
      "CaptionName": "अनुवाद",
      "YoutubeSynced": true
    },
    {
      "ID": "IDVEQNn6-_xo4K5AfAu9omzG9CVzPF-ZxKPCcEPKQD58jndksbgHQg==",
      "Lang": "hr",
      "CaptionKey": "translation",
      "CaptionName": "Prijevod",
      "YoutubeSynced": true
    },
    {
      "ID": "llyKrHtMlvqIwudgXgDdAEk6NOQc7znGX3t7jaLjHk_D58X2GckiCQ==",
      "Lang": "hu",
      "CaptionKey": "translation",
      "CaptionName": "Fordítás",
      "YoutubeSynced": true
    },
    {
      "ID": "rI-ljI2cpJbw8k5xy28u1n_3CXDkmsiB6zFwICYE35_QvTwMRrMMiGiKMXkhrYmPiDKmfZnAu8A=",
      "Lang": "hy",
      "CaptionKey": "translation",
      "CaptionName": "Թարգմանություն",
      "YoutubeSynced": true
    },
    {
      "ID": "llyKrHtMlvrTILJ0IYM8LgLwEBGErrDwUT5-8n-diy4FKbwPn6uVzw==",
      "Lang": "id",
      "CaptionKey": "translation",
      "CaptionName": "Terjemahan",
      "YoutubeSynced": true
    },
    {
      "ID": "IDVEQNn6-_zeLtsxOAKSBJpaen_FERdsqDtea6LUG77pcr0egJCh4A==",
      "Lang": "ig",
      "CaptionKey": "translation",
      "CaptionName": "Ntughari",
      "YoutubeSynced": true
    },
    {
      "ID": "sFg4zo5NwQXJw5bYI8p5zg8hpWg5OTD4mCKBCPuR8xPlTY_2vojFow==",
      "Lang": "is",
      "CaptionKey": "translation",
      "CaptionName": "Þýðing",
      "YoutubeSynced": true
    },
    {
      "ID": "llyKrHtMlvrXaozwewm552Xzbnve9h2bn5LE-IMPl9ML8L3eKHwuDg==",
      "Lang": "it",
      "CaptionKey": "translation",
      "CaptionName": "Traduzione",
      "YoutubeSynced": true
    },
    {
      "ID": "llyKrHtMlvrEloRGpX2UEgi6B4PtL59RcOeYGdsItJ2h20_UZSOesQ==",
      "Lang": "iw",
      "CaptionKey": "translation",
      "CaptionName": "תרגום",
      "YoutubeSynced": true
    },
    {
      "ID": "f1bVXPhdHe5H4-dAfXf5GwZCIShAfFehCiigwfmgDUM=",
      "Lang": "ja",
      "CaptionKey": "translation",
      "CaptionName": "翻訳",
      "YoutubeSynced": true
    },
    {
      "ID": "sFg4zo5NwQVs7NDubC8wpIkWZfJZK58mc35-KXn6wFEYoSHWMfx38w==",
      "Lang": "jv",
      "CaptionKey": "translation",
      "CaptionName": "Ngartekne",
      "YoutubeSynced": true
    },
    {
      "ID": "VhuqDrNwxJdgo-ld7qupSLSxg7n0HDQhQrAOYGHDXJss057YoKSJUtZtJx_9NIEZKAqgOtJH11k=",
      "Lang": "ka",
      "CaptionKey": "translation",
      "CaptionName": "თარგმანი",
      "YoutubeSynced": true
    },
    {
      "ID": "1a8KMMyAUZ4TRsFb3jEFkQpWgkGkL8C1fdv3SPguMvpGyWsfyEJotQ==",
      "Lang": "kk",
      "CaptionKey": "translation",
      "CaptionName": "Аударма",
      "YoutubeSynced": true
    },
    {
      "ID": "DMagyJeR9GaCb0FbTYFHORGb9qQB52Ns1iji981uRs4_3EerhAF3eW0pbGfrWqskWjPC6ELBxL0=",
      "Lang": "km",
      "CaptionKey": "translation",
      "CaptionName": "ការបកប្រែ",
      "YoutubeSynced": true
    },
    {
      "ID": "EtJa8MLFZXuwg0awoJ4CCE1OUM5bjj7iRSMMI2zpcY5a0XosqcQSdPNDXbz_CQun",
      "Lang": "kn",
      "CaptionKey": "translation",
      "CaptionName": "ಅನುವಾದ",
      "YoutubeSynced": true
    },
    {
      "ID": "f1bVXPhdHe5uvVfxd_5bxRCNSIRPh8vVmoSQRUFSAp8=",
      "Lang": "ko",
      "CaptionKey": "translation",
      "CaptionName": "번역",
      "YoutubeSynced": true
    },
    {
      "ID": "f1bVXPhdHe7vIPB9F-LciCHUhHFu2Q7dK9aNjWkR6v4=",
      "Lang": "ku",
      "CaptionKey": "translation",
      "CaptionName": "Werger",
      "YoutubeSynced": true
    },
    {
      "ID": "1a8KMMyAUZ7sBGIiecZP_3D5bXDU3WBuT-KkIqoPnMPETeNNXvLtMw==",
      "Lang": "ky",
      "CaptionKey": "translation",
      "CaptionName": "котормо",
      "YoutubeSynced": true
    },
    {
      "ID": "lp_WPH-O6n3aNBzc2hAMW86SkTQhBguaO1u3DIRb9ieXik-axtpAZw==",
      "Lang": "lb",
      "CaptionKey": "translation",
      "CaptionName": "Iwwersetzung",
      "YoutubeSynced": true
    },
    {
      "ID": "DMagyJeR9GZW3RwH3Xqz0vMe6TuY9mTOqSm6LvRnwcMYrqLQa7b6v1SzmHO7wLEU39tGFTbIfXs=",
      "Lang": "lo",
      "CaptionKey": "translation",
      "CaptionName": "ການແປພາສາ",
      "YoutubeSynced": true
    },
    {
      "ID": "IDVEQNn6-_x4N52RbI7WGg7juyRDXuFo17IpmCpWBPCnGFlZlDL94Q==",
      "Lang": "lt",
      "CaptionKey": "translation",
      "CaptionName": "Vertimas",
      "YoutubeSynced": true
    },
    {
      "ID": "llyKrHtMlvqpnGb8BCTiW7nHNBgz4XZznT7zwhltLdGQP8RXQ4Gvgg==",
      "Lang": "lv",
      "CaptionKey": "translation",
      "CaptionName": "Tulkošana",
      "YoutubeSynced": true
    },
    {
      "ID": "KouB4wKy14MhOHa9jBB41WcwHHP0CbZ7k3yqM3WxrZftjvbeq8OL0Q==",
      "Lang": "mg",
      "CaptionKey": "translation",
      "CaptionName": "Translation",
      "YoutubeSynced": true
    },
    {
      "ID": "NAlDKywqdTmuRvm7OA0Ux0re1GlKgZuhTnZgEPjarpQzFEr_mGRPQg-EFqfx_J15",
      "Lang": "mi",
      "CaptionKey": "translation",
      "CaptionName": "Whakamaoritanga",
      "YoutubeSynced": true
    },
    {
      "ID": "lp_WPH-O6n0emZmRfnP9LNUr2onc1zh7dKZ5TXtU1s1RnchwQ-AUXQ==",
      "Lang": "mk",
      "CaptionKey": "translation",
      "CaptionName": "Превод",
      "YoutubeSynced": true
    },
    {
      "ID": "DMagyJeR9GaMEu0FUK8bJ1Qfj1hqbt1wrR7baivvQNHSZnhzab6qTOK6pMwXeEX3BZaICUNkAhM=",
      "Lang": "ml",
      "CaptionKey": "translation",
      "CaptionName": "വിവർത്തനം",
      "YoutubeSynced": true
    },
    {
      "ID": "X7voDB7Xr1-000MR8GVKbe2GEjLjKlVBlDq1e2WI7ydoS-CFdsIo1A43BexWxUSd",
      "Lang": "mn",
      "CaptionKey": "translation",
      "CaptionName": "Орчуулга",
      "YoutubeSynced": true
    },
    {
      "ID": "x4spI4s4whKmArLw-GUerYGAF_0LhlFfohsxNb7eCo8yuH_BXT_gyw7O0LyTg8Mh",
      "Lang": "mr",
      "CaptionKey": "translation",
      "CaptionName": "भाषांतर",
      "YoutubeSynced": true
    },
    {
      "ID": "llyKrHtMlvq86oX_600ak813Wzt81SzmIi8vatwRGluGi2lMG-nVFQ==",
      "Lang": "ms",
      "CaptionKey": "translation",
      "CaptionName": "Terjemahan",
      "YoutubeSynced": true
    },
    {
      "ID": "KouB4wKy14NDHWqXZoGgs5rMvBx4tro2rDkAIK1KVbvzmS1oHl17Ng==",
      "Lang": "mt",
      "CaptionKey": "translation",
      "CaptionName": "Traduzzjoni",
      "YoutubeSynced": true
    },
    {
      "ID": "VhuqDrNwxJe5N5U2jGC8vGqKn9el093ajNxO-ILfOqt6vvyQSQN-MHgiI-gAnEGfXWe_HDSz--4=",
      "Lang": "my",
      "CaptionKey": "translation",
      "CaptionName": "ဘာသာပြန်",
      "YoutubeSynced": true
    },
    {
      "ID": "EtJa8MLFZXsYw7gnTp8EEB3C-tqB5DmPJz1PIJG35Rdxqy5jEfmOWjfxwAGshI0h",
      "Lang": "ne",
      "CaptionKey": "translation",
      "CaptionName": "अनुवाद",
      "YoutubeSynced": true
    },
    {
      "ID": "sFg4zo5NwQWnoxp1FaEszjqnPuCUqpPG9qnDtZjwkBOznYhZ-jsV3g==",
      "Lang": "nl",
      "CaptionKey": "translation",
      "CaptionName": "Vertaling",
      "YoutubeSynced": true
    },
    {
      "ID": "lp_WPH-O6n07dHwvIM1xg8pU8nG0mmjO26UIzgqKjz8tc1epxBVHiw==",
      "Lang": "no",
      "CaptionKey": "translation",
      "CaptionName": "Oversettelse",
      "YoutubeSynced": true
    },
    {
      "ID": "EtJa8MLFZXunLk5cCCUerhkCm4H1rdyXTmCTWUWuo9ivZPeW6lTZWufQFbwmgmnV",
      "Lang": "pa",
      "CaptionKey": "translation",
      "CaptionName": "ਅਨੁਵਾਦ",
      "YoutubeSynced": true
    },
    {
      "ID": "lp_WPH-O6n2PhBdyS3w29s7eHU4eK7OLsINiX2KbrH_d0-LsBTQkAA==",
      "Lang": "pl",
      "CaptionKey": "translation",
      "CaptionName": "Tłumaczenie",
      "YoutubeSynced": true
    },
    {
      "ID": "llyKrHtMlvoPZNXIlAsKFS0hLNBhBZIR5WYO-jK5dYnbV5oH3jnQmQ==",
      "Lang": "ps",
      "CaptionKey": "translation",
      "CaptionName": "ژباړه",
      "YoutubeSynced": true
    },
    {
      "ID": "llyKrHtMlvqUKMaNY6MHx-lIGOeKZ0PdUl9RDYUE4f0mUSByigG1zA==",
      "Lang": "pt",
      "CaptionKey": "translation",
      "CaptionName": "Tradução",
      "YoutubeSynced": true
    },
    {
      "ID": "sFg4zo5NwQVz4eDOReVvm1RyFaWELbo3fV0OzApmbiCr_PqTpwV-Zg==",
      "Lang": "ro",
      "CaptionKey": "translation",
      "CaptionName": "Traducere",
      "YoutubeSynced": true
    },
    {
      "ID": "1a8KMMyAUZ4YcCCDB8J-nPzliJT3Jj5lBhQS3ISO3dkTdqYi7-D8Yg==",
      "Lang": "ru",
      "CaptionKey": "translation",
      "CaptionName": "Перевод",
      "YoutubeSynced": true
    },
    {
      "ID": "llyKrHtMlvoKXANf1M9oguQIprGK9TFjPVmCNdaJVReqjPWLtXV9bA==",
      "Lang": "sd",
      "CaptionKey": "translation",
      "CaptionName": "ترجمو",
      "YoutubeSynced": true
    },
    {
      "ID": "DMagyJeR9GaH6ehqXWhFHYdHTYo1hY3vaEiS34seu5QXH52h4nolScmptvLTvylLrz2GJcU_A9E=",
      "Lang": "si",
      "CaptionKey": "translation",
      "CaptionName": "පරිවර්තනය",
      "YoutubeSynced": true
    },
    {
      "ID": "C_xZ7xknuguOMKCs354rwfs6I5rfNul4QLhoNd9uQN1L3u6Gsfw4_Q==",
      "Lang": "sk",
      "CaptionKey": "translation",
      "CaptionName": "preklad",
      "YoutubeSynced": true
    },
    {
      "ID": "f1bVXPhdHe6ywDFZEfNHs825ZGNHcvAxYokHB3meNOc=",
      "Lang": "sl",
      "CaptionKey": "translation",
      "CaptionName": "Prevod",
      "YoutubeSynced": true
    },
    {
      "ID": "lp_WPH-O6n0LHqYdvP-8iAan1zaTdfGl7NuqWvwIF1VBDVnhCXN-gA==",
      "Lang": "sm",
      "CaptionKey": "translation",
      "CaptionName": "Faʻaliliuga",
      "YoutubeSynced": true
    },
    {
      "ID": "C_xZ7xknugsTgeXzhhV7hYWpRxhyI9FtcGMDerBy51aPUVHaj00lKQ==",
      "Lang": "sn",
      "CaptionKey": "translation",
      "CaptionName": "Dudziro",
      "YoutubeSynced": true
    },
    {
      "ID": "sFg4zo5NwQU1X_8iTbq8cbBLpsmovR-ctSleNQ9phacLULoD3JSP4Q==",
      "Lang": "so",
      "CaptionKey": "translation",
      "CaptionName": "Tarjumida",
      "YoutubeSynced": true
    },
    {
      "ID": "sFg4zo5NwQWiBwfZOMqXkxop5N3y3HeQIt_AsOY-xs0Et7oEi9O75w==",
      "Lang": "sq",
      "CaptionKey": "translation",
      "CaptionName": "përkthim",
      "YoutubeSynced": true
    },
    {
      "ID": "lp_WPH-O6n1fNI2GwWR_H1H9ydzi5hWii9dFwPtl0AxOKI-bm3Uqvg==",
      "Lang": "sr",
      "CaptionKey": "translation",
      "CaptionName": "Превод",
      "YoutubeSynced": true
    },
    {
      "ID": "sFg4zo5NwQXSubCu6yVGK7uX2RB8oRTh1ugl6GYjDf-wL9Ks1gaovA==",
      "Lang": "st",
      "CaptionKey": "translation",
      "CaptionName": "Phetolelo",
      "YoutubeSynced": true
    },
    {
      "ID": "llyKrHtMlvrtHSoin_7nHjFoIhRjn_b8mV0Gv_TjWpoyvCOK5P17NQ==",
      "Lang": "su",
      "CaptionKey": "translation",
      "CaptionName": "Tarjamahan",
      "YoutubeSynced": true
    },
    {
      "ID": "1a8KMMyAUZ610_bzRn8YRNeyYHwETY-E6zmyzLr4wWRuKFMi4Mnfcg==",
      "Lang": "sv",
      "CaptionKey": "translation",
      "CaptionName": "Översättning",
      "YoutubeSynced": true
    },
    {
      "ID": "C_xZ7xknugtHSXVEerF8PowuKYNAXf2qOCuYyQJKhyynWk_3T8xAJA==",
      "Lang": "sw",
      "CaptionKey": "translation",
      "CaptionName": "Tafsiri",
      "YoutubeSynced": true
    },
    {
      "ID": "pTpR2vP9XVu1u6pYNSTr15q4S-rRr0R-58PZ56wDHZHRFJQbhg568v3N9hHELcMvH5MOOYyXtCy2wblyGC8JOMwJ3ZPEu99v",
      "Lang": "ta",
      "CaptionKey": "translation",
      "CaptionName": "மொழிபெயர்ப்பு",
      "YoutubeSynced": true
    },
    {
      "ID": "x4spI4s4whJwYVlB3DOG27AnYxo6JgGkpkp5sZ1I7hcgyyqyS40kZbLItrTsqbp8",
      "Lang": "te",
      "CaptionKey": "translation",
      "CaptionName": "అనువాదం",
      "YoutubeSynced": true
    },
    {
      "ID": "1a8KMMyAUZ6nMw42WOgE5Pw6PepqmxDLtcPjmR2DhrMXEnKAdxpx3g==",
      "Lang": "tg",
      "CaptionKey": "translation",
      "CaptionName": "Тарҷума",
      "YoutubeSynced": true
    },
    {
      "ID": "EtJa8MLFZXv23XB6ZmUZxqL3PABdn04EY2xWO2grGvKs-Z3E1tM4FSbLK_sontV2",
      "Lang": "th",
      "CaptionKey": "translation",
      "CaptionName": "การแปล",
      "YoutubeSynced": true
    },
    {
      "ID": "IDVEQNn6-_wo_usWRuIiQvIBDzr-gbcaiUUIv93nnrHBOfT6RgVMlg==",
      "Lang": "tr",
      "CaptionKey": "translation",
      "CaptionName": "Tercüme",
      "YoutubeSynced": true
    },
    {
      "ID": "X7voDB7Xr18tLUO_244kSr9KdhfhjMiQ5sUdhkdVxnq4iar5CApSMTnFTtP_A1Zh",
      "Lang": "uk",
      "CaptionKey": "translation",
      "CaptionName": "Переклад",
      "YoutubeSynced": true
    },
    {
      "ID": "llyKrHtMlvq-_qpE_VASBdo8eRGyk7ur71xrmit3pF61VQb_QesK5w==",
      "Lang": "ur",
      "CaptionKey": "translation",
      "CaptionName": "ترجمہ",
      "YoutubeSynced": true
    },
    {
      "ID": "C_xZ7xknugvPt5aJBGwhXxaV3TdCMXmXkSG1t822Fs8ocfWWWbt_3Q==",
      "Lang": "uz",
      "CaptionKey": "translation",
      "CaptionName": "Tarjima",
      "YoutubeSynced": true
    },
    {
      "ID": "f1bVXPhdHe4pQfuLLLCMTpkrv0PJVjuYeU4J_VRyCy8=",
      "Lang": "vi",
      "CaptionKey": "translation",
      "CaptionName": "Dịch",
      "YoutubeSynced": true
    },
    {
      "ID": "llyKrHtMlvrTD6zfDNgkv15MNnrovciDygjPwNew1YWADfjVwUNGbQ==",
      "Lang": "xh",
      "CaptionKey": "translation",
      "CaptionName": "Inguqulelo",
      "YoutubeSynced": true
    },
    {
      "ID": "JUvicIsyBsP8gzNlOqDjxuuxTp90Ig5zpde3YCyi6Nvq8C59YUt-0Qb9pKN8iv3t",
      "Lang": "yi",
      "CaptionKey": "translation",
      "CaptionName": "איבערזעצונג",
      "YoutubeSynced": true
    },
    {
      "ID": "C_xZ7xknugurhwpOXNaEPl_GMn8p8XGvJva65OsaY-yyyXDLy75OLA==",
      "Lang": "yo",
      "CaptionKey": "translation",
      "CaptionName": "Itumọ",
      "YoutubeSynced": true
    },
    {
      "ID": "KouB4wKy14OK7YfZ0j13_tTN22-AaMEGd5EGPBRasDYiNO15RvC_yg==",
      "Lang": "zh-Hans",
      "CaptionKey": "translation",
      "CaptionName": "翻译",
      "YoutubeSynced": true
    },
    {
      "ID": "KouB4wKy14OK7YfZ0j13_gQ1ilBcGJtWc1OvjvqNeJSpWL7p3dN3aA==",
      "Lang": "zh-Hant",
      "CaptionKey": "translation",
      "CaptionName": "翻譯",
      "YoutubeSynced": true
    },
    {
      "ID": "llyKrHtMlvrZpTeNrwCRCwTraqenYP2oeFToxtH-e-_f_e6s8-cx4Q==",
      "Lang": "zu",
      "CaptionKey": "translation",
      "CaptionName": "Ukuhumusha",
      "YoutubeSynced": true
    }
  ]
}