{
  "VideoFile": "grammar-ja-tk_50_A.mp4",
  "Captions": [
    {
      "ID": "3mHhicLJFNrpsT4yLBcZctNxp54ApndCm6D7a4UjygtI8cGMBRHzGw==",
      "Lang": "af",
      "CaptionKey": "translation",
      "CaptionName": "vertaling",
      "YoutubeSynced": true
    },
    {
      "ID": "nwZf8CTF97foiwWwUY2eAvL68ZdbJbfWvPQ5ynsZJ0M_CSXo_cibeg==",
      "Lang": "am",
      "CaptionKey": "translation",
      "CaptionName": "ትርጉም",
      "YoutubeSynced": true
    },
    {
      "ID": "rJFQ5TOE8DI3QQpJ1S_jlCjaRPI0AzaqQ_aEZO_uLelrX_cyNQBgxQ==",
      "Lang": "ar",
      "CaptionKey": "translation",
      "CaptionName": "ترجمة",
      "YoutubeSynced": true
    },
    {
      "ID": "rJFQ5TOE8DJ6LVm8fbbFe6E7QgNivy4ZF297zws6Rn3_BHAQuUFCbw==",
      "Lang": "az",
      "CaptionKey": "translation",
      "CaptionName": "Tərcümə",
      "YoutubeSynced": true
    },
    {
      "ID": "5yLbF41EIvxc8qQPlkABkMuNIRtyrtGRoTQBal7BEdWHAaBMY72d34RLaJ_HE5Nz",
      "Lang": "be",
      "CaptionKey": "translation",
      "CaptionName": "Пераклад",
      "YoutubeSynced": true
    },
    {
      "ID": "nwZf8CTF97fWnIFJ-R0QNJ18myvd0oiMPx97J80eQEBdYvDxbKNttg==",
      "Lang": "bg",
      "CaptionKey": "translation",
      "CaptionName": "превод",
      "YoutubeSynced": true
    },
    {
      "ID": "gOM-P_jcNalgHyottO1EtBxV9RSKts04VkWUUwW7lLU5G_2mroabP-5UVFjg-1na",
      "Lang": "bn",
      "CaptionKey": "translation",
      "CaptionName": "অনুবাদ",
      "YoutubeSynced": true
    },
    {
      "ID": "KP4Zb1Ohc-r5w7q8jTm6zCebNUEr-Z0NOSidn_XIPZo=",
      "Lang": "bs",
      "CaptionKey": "translation",
      "CaptionName": "Prevod",
      "YoutubeSynced": true
    },
    {
      "ID": "rJFQ5TOE8DK800h1xGN9rCESrftAWSO94QxbB4glaFk4NYETAjQnuQ==",
      "Lang": "ca",
      "CaptionKey": "translation",
      "CaptionName": "Traducció",
      "YoutubeSynced": true
    },
    {
      "ID": "rJFQ5TOE8DKGcCRKHs5g8Wy2jghYoNuum8-M6DCvwQua9LKHTEfqTA==",
      "Lang": "co",
      "CaptionKey": "translation",
      "CaptionName": "Traduzione",
      "YoutubeSynced": true
    },
    {
      "ID": "GAO3zSupS1XH9yWTmmv6DY-lEeTee4VaUTNVZXOjfmJAX3tjaMAHrA==",
      "Lang": "cs",
      "CaptionKey": "translation",
      "CaptionName": "Překlad",
      "YoutubeSynced": true
    },
    {
      "ID": "1WPlvYyGLLCMEnf_J23U_fyAuYlq5KvswO9Uc94pI5lQwIbESIRqdQ==",
      "Lang": "cy",
      "CaptionKey": "translation",
      "CaptionName": "Cyfieithiad",
      "YoutubeSynced": true
    },
    {
      "ID": "ksk7d7N-n1TSxn1mQmvvqDgd6OJmV9wnK8mGavXqCr1gLQRkuU4HeA==",
      "Lang": "da",
      "CaptionKey": "translation",
      "CaptionName": "Oversættelse",
      "YoutubeSynced": true
    },
    {
      "ID": "nwZf8CTF97f3X_xXu8oZSt1w1sEicMyixpxsDMVzC3uwsAseMvzatA==",
      "Lang": "de",
      "CaptionKey": "translation",
      "CaptionName": "Übersetzung",
      "YoutubeSynced": true
    },
    {
      "ID": "gOM-P_jcNan0SPW7FO7dnY5SLwWIXUs48fbFyR0unrS6vk67bua2MehXhIxejYHM",
      "Lang": "el",
      "CaptionKey": "translation",
      "CaptionName": "Μετάφραση",
      "YoutubeSynced": true
    },
    {
      "ID": "1WPlvYyGLLDQ3uNuqvSktSWc7411nUoNhLi3ip_p8Rgl8JBCeMPOxQ==",
      "Lang": "en",
      "CaptionKey": "translation",
      "CaptionName": "Translation",
      "YoutubeSynced": true
    },
    {
      "ID": "1WPlvYyGLLAuEEjPVVyn2f2vI9ODqlJ-uHNtgfP6qWBLKgnVq-7A_Q==",
      "Lang": "es",
      "CaptionKey": "translation",
      "CaptionName": "Traducción",
      "YoutubeSynced": true
    },
    {
      "ID": "KP4Zb1Ohc-qbQmVasBZGX-5wiIhMBPbaBnoTFJ4Au3w=",
      "Lang": "et",
      "CaptionKey": "translation",
      "CaptionName": "Tõlge",
      "YoutubeSynced": true
    },
    {
      "ID": "3mHhicLJFNqu0t1SRx-lTKvBLI5Ph7RiqxHlYdDTeqncM1-lhqZMiw==",
      "Lang": "eu",
      "CaptionKey": "translation",
      "CaptionName": "Itzulpena",
      "YoutubeSynced": true
    },
    {
      "ID": "rJFQ5TOE8DLOqGVlVSOdd3-EJtrHh-I7ZWOE_-EvKWPHvy44NZ223g==",
      "Lang": "fa",
      "CaptionKey": "translation",
      "CaptionName": "ترجمه",
      "YoutubeSynced": true
    },
    {
      "ID": "rJFQ5TOE8DL98JTOlBqkVQTFqGdh9aGxc8v2RlacWnxbqC_d0QUeVA==",
      "Lang": "fi",
      "CaptionKey": "translation",
      "CaptionName": "Käännös",
      "YoutubeSynced": true
    },
    {
      "ID": "1WPlvYyGLLDld09RjiQH1O3havm1ZBP-l3COKjiPthJFAE8j6bT3eA==",
      "Lang": "fil",
      "CaptionKey": "translation",
      "CaptionName": "Pagsasalin",
      "YoutubeSynced": true
    },
    {
      "ID": "rJFQ5TOE8DL1EJ7KuwHrvZ7Nz3tQY3p74WGS8zB_KG-_cZ9MJ3Nv8g==",
      "Lang": "fr",
      "CaptionKey": "translation",
      "CaptionName": "Traduction",
      "YoutubeSynced": true
    },
    {
      "ID": "rJFQ5TOE8DKpNfxyst2VDtTrpc9WdbkGki_n1Z2XCJ7SwEXnpzJjKA==",
      "Lang": "fy",
      "CaptionKey": "translation",
      "CaptionName": "Oersetting",
      "YoutubeSynced": true
    },
    {
      "ID": "gOM-P_jcNakkObKFCFYGau4iXP5E69cjR4IFapEn6j-oJC1_ZeBgcwMfyoBsezbN",
      "Lang": "gd",
      "CaptionKey": "translation",
      "CaptionName": "Eadar-theangachadh",
      "YoutubeSynced": true
    },
    {
      "ID": "rJFQ5TOE8DJCpqcMtYq-XK3vfaqOok0wAjmoD3zRcOUtwXu0_jjZjg==",
      "Lang": "gl",
      "CaptionKey": "translation",
      "CaptionName": "Tradución",
      "YoutubeSynced": true
    },
    {
      "ID": "gOM-P_jcNamVY_Q7xWlg6Xw-cngkmRbBmg-H4PJ-dWx3JbZuePn-reyb17-fhJjK",
      "Lang": "gu",
      "CaptionKey": "translation",
      "CaptionName": "અનુવાદ",
      "YoutubeSynced": true
    },
    {
      "ID": "WbrEB5OsMd85qlZ_mfX6gisjuqK3qz_ljjOOz8iYuyO7DcjO4yBrLQ==",
      "Lang": "ha",
      "CaptionKey": "translation",
      "CaptionName": "Fassara",
      "YoutubeSynced": true
    },
    {
      "ID": "gOM-P_jcNalpQujk_HkKXlY4Lfm8DU9r-pVoi4BWvugjz7tIkUqqhamcOk47HW3g",
      "Lang": "hi",
      "CaptionKey": "translation",
      "CaptionName": "अनुवाद",
      "YoutubeSynced": true
    },
    {
      "ID": "GAO3zSupS1USSJLrNPHdmRvi0R_xnBUSJF1Jbmr1ZlxovE4aq8G0ug==",
      "Lang": "hr",
      "CaptionKey": "translation",
      "CaptionName": "Prijevod",
      "YoutubeSynced": true
    },
    {
      "ID": "rJFQ5TOE8DIkHFRogHHftsk39v2iy8kw_3Bn5Wjx037x17RuOTly1A==",
      "Lang": "hu",
      "CaptionKey": "translation",
      "CaptionName": "Fordítás",
      "YoutubeSynced": true
    },
    {
      "ID": "LbLYcJp58Yl2RYy1X8VSgfMxYrbrRsoN466j4wsB1_F8oJDZj34HHOUovufO-vFZli8lRmgMJVU=",
      "Lang": "hy",
      "CaptionKey": "translation",
      "CaptionName": "Թարգմանություն",
      "YoutubeSynced": true
    },
    {
      "ID": "rJFQ5TOE8DJKNkqLfWW0GGlcTX1UlikQF3Cz5K4laMccVygYzgVPUw==",
      "Lang": "id",
      "CaptionKey": "translation",
      "CaptionName": "Terjemahan",
      "YoutubeSynced": true
    },
    {
      "ID": "GAO3zSupS1UVhXSLIsoxsagLIUSJ_gGxiAvEJSmeEJ0XbW4ol8bnCA==",
      "Lang": "ig",
      "CaptionKey": "translation",
      "CaptionName": "Ntughari",
      "YoutubeSynced": true
    },
    {
      "ID": "3mHhicLJFNqr4TD6Tn-KncYyQ1D6K-pZZ6Crt9uUR8qWY0JInM9RWw==",
      "Lang": "is",
      "CaptionKey": "translation",
      "CaptionName": "Þýðing",
      "YoutubeSynced": true
    },
    {
      "ID": "rJFQ5TOE8DLVkaWKt11KjldeRx45Uw7u6BwRYGy45_DipsDQkXO8jg==",
      "Lang": "it",
      "CaptionKey": "translation",
      "CaptionName": "Traduzione",
      "YoutubeSynced": true
    },
    {
      "ID": "rJFQ5TOE8DK4d28SjQWDybLI0RrXXeqAId43IeaF5zvXhf2SY_hL8Q==",
      "Lang": "iw",
      "CaptionKey": "translation",
      "CaptionName": "תרגום",
      "YoutubeSynced": true
    },
    {
      "ID": "KP4Zb1Ohc-p0OdUGot0od9_QGmB1StTtssqOQhtgAxM=",
      "Lang": "ja",
      "CaptionKey": "translation",
      "CaptionName": "翻訳",
      "YoutubeSynced": true
    },
    {
      "ID": "3mHhicLJFNrkOzFmQcdnL1HCRFfb1kt-3ZdSk76DSWR9fseuoRXFww==",
      "Lang": "jv",
      "CaptionKey": "translation",
      "CaptionName": "Ngartekne",
      "YoutubeSynced": true
    },
    {
      "ID": "rnFuaFEyLFjglq0auGJUFEXPLnf_Addgu3twogEpI8mCkxZQSaW0J8pSF8BD0F1D_1Zo1PE7ngM=",
      "Lang": "ka",
      "CaptionKey": "translation",
      "CaptionName": "თარგმანი",
      "YoutubeSynced": true
    },
    {
      "ID": "aZbVmu_oFe45xTHZdfMroOkU5-8qG-odwb7KIzLYHPYh8PHyZQHbKQ==",
      "Lang": "kk",
      "CaptionKey": "translation",
      "CaptionName": "Аударма",
      "YoutubeSynced": true
    },
    {
      "ID": "9uWPT5kfR2ZFjS228gsNykn-DP9aP7XYG3wSBtAY0x77hg-kgbseEDfi2gNA92F5LcLB8PVAhUk=",
      "Lang": "km",
      "CaptionKey": "translation",
      "CaptionName": "ការបកប្រែ",
      "YoutubeSynced": true
    },
    {
      "ID": "gOM-P_jcNakKdCHWHgarY-N4JZSwaoEwZH6BY9MHfuwBdE1yLJGyfxDNtuPx0_kG",
      "Lang": "kn",
      "CaptionKey": "translation",
      "CaptionName": "ಅನುವಾದ",
      "YoutubeSynced": true
    },
    {
      "ID": "KP4Zb1Ohc-pTLkzN8kNHnwvWAIplFo89B10KJwlfGp4=",
      "Lang": "ko",
      "CaptionKey": "translation",
      "CaptionName": "번역",
      "YoutubeSynced": true
    },
    {
      "ID": "KP4Zb1Ohc-pDktCueSeOpDJlJnhVL2N3V4GKWtkF8Mo=",
      "Lang": "ku",
      "CaptionKey": "translation",
      "CaptionName": "Werger",
      "YoutubeSynced": true
    },
    {
      "ID": "aZbVmu_oFe4FVFYRam8PgjYzn_-oU7QAPQt-OB38dyUQpLaY9VU3kQ==",
      "Lang": "ky",
      "CaptionKey": "translation",
      "CaptionName": "котормо",
      "YoutubeSynced": true
    },
    {
      "ID": "nwZf8CTF97ckR8BUkcJuKzMLfBpeGxL0yNE_3ru157pUS0eqjyY2Bg==",
      "Lang": "lb",
      "CaptionKey": "translation",
      "CaptionName": "Iwwersetzung",
      "YoutubeSynced": true
    },
    {
      "ID": "9uWPT5kfR2YIxBy-UVGbJ4IzIUtNLjQcmqEJK93DQ0h_lqJWBN2Jd_lU72WFCUHrgkkxkTsduAo=",
      "Lang": "lo",
      "CaptionKey": "translation",
      "CaptionName": "ການແປພາສາ",
      "YoutubeSynced": true
    },
    {
      "ID": "GAO3zSupS1VGcHYV7bWt4igfdq6KHIsX7WcUw3StDwIvBQOzPg1ang==",
      "Lang": "lt",
      "CaptionKey": "translation",
      "CaptionName": "Vertimas",
      "YoutubeSynced": true
    },
    {
      "ID": "rJFQ5TOE8DJwTMTU_qW3MFswJMEgfoi_w0RcjDs6G3rDQWeuPuzQaw==",
      "Lang": "lv",
      "CaptionKey": "translation",
      "CaptionName": "Tulkošana",
      "YoutubeSynced": true
    },
    {
      "ID": "1WPlvYyGLLARslsf7KVJjqaz8IMbkCZkjaE23peWpJ6WlbRGTmQQ6w==",
      "Lang": "mg",
      "CaptionKey": "translation",
      "CaptionName": "Translation",
      "YoutubeSynced": true
    },
    {
      "ID": "e8z2Id1bPMCuSZUFAW3hKrtMAduVC52AIXTSI2PgSox7z00xubmH9S6tu22Yhb0R",
      "Lang": "mi",
      "CaptionKey": "translation",
      "CaptionName": "Whakamaoritanga",
      "YoutubeSynced": true
    },
    {
      "ID": "nwZf8CTF97c4pTrLHXemr9nKB6sF9ArWg0w6uvtHLCkKrOsA6tig8g==",
      "Lang": "mk",
      "CaptionKey": "translation",
      "CaptionName": "Превод",
      "YoutubeSynced": true
    },
    {
      "ID": "9uWPT5kfR2ZBKfuJ_sfdYP39050pySWGc5b8Wx_zarS6xPa6rlsZi1utcUWrQelec9JAJqHVEYU=",
      "Lang": "ml",
      "CaptionKey": "translation",
      "CaptionName": "വിവർത്തനം",
      "YoutubeSynced": true
    },
    {
      "ID": "5yLbF41EIvzLQK0THT-uUbfMgaSJc-6WNY-tx7C3bi64jjVfBI-VHOBjb36By7rI",
      "Lang": "mn",
      "CaptionKey": "translation",
      "CaptionName": "Орчуулга",
      "YoutubeSynced": true
    },
    {
      "ID": "RZPuJmXqS-pogTjR51s4ST4bqiXAHOF-958wS8cTmmNpnzqfB8K-PIw2McxcDtHk",
      "Lang": "mr",
      "CaptionKey": "translation",
      "CaptionName": "भाषांतर",
      "YoutubeSynced": true
    },
    {
      "ID": "rJFQ5TOE8DKNcUexcxtJhqU17ZLb-z-thzm1bbSux3EpszdKtNEj6Q==",
      "Lang": "ms",
      "CaptionKey": "translation",
      "CaptionName": "Terjemahan",
      "YoutubeSynced": true
    },
    {
      "ID": "1WPlvYyGLLAzUpl0TyhurD6MEYZftsg8StJJBlbxNJlw7RUiCG0geg==",
      "Lang": "mt",
      "CaptionKey": "translation",
      "CaptionName": "Traduzzjoni",
      "YoutubeSynced": true
    },
    {
      "ID": "rnFuaFEyLFiyC5uD9JlMxlZ3LE6RaYnI015-mrYIOgt91hzbfgutn18RCt1QWRyC0Y-hMcVTooc=",
      "Lang": "my",
      "CaptionKey": "translation",
      "CaptionName": "ဘာသာပြန်",
      "YoutubeSynced": true
    },
    {
      "ID": "gOM-P_jcNalRdR-DvIF9_XuDcSUu7NcPEKqVcqQpNecvKVv7XsyvX4sYjedoib-X",
      "Lang": "ne",
      "CaptionKey": "translation",
      "CaptionName": "अनुवाद",
      "YoutubeSynced": true
    },
    {
      "ID": "3mHhicLJFNowk68T-ceQLJygiRtI3kdBYg7oKHaTWS7OFI3k2dUwSg==",
      "Lang": "nl",
      "CaptionKey": "translation",
      "CaptionName": "Vertaling",
      "YoutubeSynced": true
    },
    {
      "ID": "nwZf8CTF97cmZLC7bUYxOFA6yDFEtxs7UZ_scUZtsh3Y_r3sLAteiA==",
      "Lang": "no",
      "CaptionKey": "translation",
      "CaptionName": "Oversettelse",
      "YoutubeSynced": true
    },
    {
      "ID": "gOM-P_jcNaksnNGPKaSR5qOFUjU5IgHXtHd5lbc6CqKl3h0DC-tDZ2NMt7md4ffG",
      "Lang": "pa",
      "CaptionKey": "translation",
      "CaptionName": "ਅਨੁਵਾਦ",
      "YoutubeSynced": true
    },
    {
      "ID": "nwZf8CTF97dvMCNpuCAc2F1ZwMnraAyVsqsHcHGqHULx7YYpXY-JBQ==",
      "Lang": "pl",
      "CaptionKey": "translation",
      "CaptionName": "Tłumaczenie",
      "YoutubeSynced": true
    },
    {
      "ID": "rJFQ5TOE8DKn2m_toZuPhNHV3PWLlAYRLBVXF3LA-PLfqyhNA4U53Q==",
      "Lang": "ps",
      "CaptionKey": "translation",
      "CaptionName": "ژباړه",
      "YoutubeSynced": true
    },
    {
      "ID": "rJFQ5TOE8DLGo1B-st59a92OBvRs6nQzukNEoDDLyCTAtPb6eTTqfw==",
      "Lang": "pt",
      "CaptionKey": "translation",
      "CaptionName": "Tradução",
      "YoutubeSynced": true
    },
    {
      "ID": "3mHhicLJFNoszrT6sVvk9KZRY5tI2axQpIt2vwY0_4nrf41AlNrvUw==",
      "Lang": "ro",
      "CaptionKey": "translation",
      "CaptionName": "Traducere",
      "YoutubeSynced": true
    },
    {
      "ID": "aZbVmu_oFe7xBsNznDv1-NiihiMjh5o5Te39LjHBWqpQwX6XtR7UCg==",
      "Lang": "ru",
      "CaptionKey": "translation",
      "CaptionName": "Перевод",
      "YoutubeSynced": true
    },
    {
      "ID": "rJFQ5TOE8DIJehLVEUj1XZd5iFj5vA124cgi3g-g39nz8ylvRq_I5Q==",
      "Lang": "sd",
      "CaptionKey": "translation",
      "CaptionName": "ترجمو",
      "YoutubeSynced": true
    },
    {
      "ID": "9uWPT5kfR2atsAu8wXnXgyZL6xBD2d6cykYCpczOOuOKiIy-S5soBXHL-5KWLFqI2LvnAVoICsw=",
      "Lang": "si",
      "CaptionKey": "translation",
      "CaptionName": "පරිවර්තනය",
      "YoutubeSynced": true
    },
    {
      "ID": "WbrEB5OsMd-bVjbOkjBokzhUp2nFmXGl2EH-rG6ZmG1_O8F_zy0hmA==",
      "Lang": "sk",
      "CaptionKey": "translation",
      "CaptionName": "preklad",
      "YoutubeSynced": true
    },
    {
      "ID": "KP4Zb1Ohc-rod9L9Bc3_ibd8alYlFv_FVWa5BnnVPmg=",
      "Lang": "sl",
      "CaptionKey": "translation",
      "CaptionName": "Prevod",
      "YoutubeSynced": true
    },
    {
      "ID": "nwZf8CTF97ecN9k82qRlMCQO91kOpydm1m4gyJl098XnVSpLwq1-Jw==",
      "Lang": "sm",
      "CaptionKey": "translation",
      "CaptionName": "Faʻaliliuga",
      "YoutubeSynced": true
    },
    {
      "ID": "WbrEB5OsMd9_FbiVdD4SjMv-o4j8OlfGPaSW9PKX59zQLVjvju688g==",
      "Lang": "sn",
      "CaptionKey": "translation",
      "CaptionName": "Dudziro",
      "YoutubeSynced": true
    },
    {
      "ID": "3mHhicLJFNpFeEuTOGdvJfkuF1Vr1F7aFWHI4vbaCf7rlzOkLMBcWA==",
      "Lang": "so",
      "CaptionKey": "translation",
      "CaptionName": "Tarjumida",
      "YoutubeSynced": true
    },
    {
      "ID": "3mHhicLJFNrixNJgc_sQFi1OYOCHlXJxvLyTeYC3LYKmmJ-AyO7VpQ==",
      "Lang": "sq",
      "CaptionKey": "translation",
      "CaptionName": "përkthim",
      "YoutubeSynced": true
    },
    {
      "ID": "nwZf8CTF97edf3RMEqfRIre1--QazC4ut2dbAh7xoE1xjz3rpPTpOw==",
      "Lang": "sr",
      "CaptionKey": "translation",
      "CaptionName": "Превод",
      "YoutubeSynced": true
    },
    {
      "ID": "3mHhicLJFNp4OQZgKUbzMWNVZ_GMDFMNRGnvKgDasfY7N69lkyBY9w==",
      "Lang": "st",
      "CaptionKey": "translation",
      "CaptionName": "Phetolelo",
      "YoutubeSynced": true
    },
    {
      "ID": "rJFQ5TOE8DLa4aH0YTRSQUfwBCDG3FpYfIyY7_LogMppQXHmpv1K4w==",
      "Lang": "su",
      "CaptionKey": "translation",
      "CaptionName": "Tarjamahan",
      "YoutubeSynced": true
    },
    {
      "ID": "aZbVmu_oFe7n4QwOqYhSw-9Q41pb8D7p1Ihvoci9Ovh3UG40kqoWFA==",
      "Lang": "sv",
      "CaptionKey": "translation",
      "CaptionName": "Översättning",
      "YoutubeSynced": true
    },
    {
      "ID": "WbrEB5OsMd_g4OT06S_to0DTvuxELmCTk_kcjGF60oGxNbYMkSQhjQ==",
      "Lang": "sw",
      "CaptionKey": "translation",
      "CaptionName": "Tafsiri",
      "YoutubeSynced": true
    },
    {
      "ID": "Fv5KfQN082gTy47r-lIyRvrES6QkYdqYISpNS2xlQOewwG7gbKnbWo2d0sd4ZivP-uHimhsrw9oO4eHKGtRTM0UhFDP8Ho7F",
      "Lang": "ta",
      "CaptionKey": "translation",
      "CaptionName": "மொழிபெயர்ப்பு",
      "YoutubeSynced": true
    },
    {
      "ID": "RZPuJmXqS-oorz7Fuj1Go95mHwRjruRE6KQyef5HlSVr_8F5KrouH6WvyOY09IKS",
      "Lang": "te",
      "CaptionKey": "translation",
      "CaptionName": "అనువాదం",
      "YoutubeSynced": true
    },
    {
      "ID": "aZbVmu_oFe4wDoWBPfHX9JwwNBh9ZVKa6MZm1JuMSqb5CmLDDo2LrQ==",
      "Lang": "tg",
      "CaptionKey": "translation",
      "CaptionName": "Тарҷума",
      "YoutubeSynced": true
    },
    {
      "ID": "gOM-P_jcNalI23SQwQ7Jmk4_3ox2gBEP2GI00hBA4162OWFbabPA_gD-meTECz1E",
      "Lang": "th",
      "CaptionKey": "translation",
      "CaptionName": "การแปล",
      "YoutubeSynced": true
    },
    {
      "ID": "GAO3zSupS1U1FhEpQIpGMsThjF8_XrIxvIowr09nSrMaagh2Q4dkYw==",
      "Lang": "tr",
      "CaptionKey": "translation",
      "CaptionName": "Tercüme",
      "YoutubeSynced": true
    },
    {
      "ID": "5yLbF41EIvwxE-JId8FsPDu5wC2yHUeT_YNaOGw6V-UmP-PnMmd3HbuG100Gus7n",
      "Lang": "uk",
      "CaptionKey": "translation",
      "CaptionName": "Переклад",
      "YoutubeSynced": true
    },
    {
      "ID": "rJFQ5TOE8DLRPDFXK9CslL3pRcKnPP24Mye6hTmtx4DOb7QmUYWquw==",
      "Lang": "ur",
      "CaptionKey": "translation",
      "CaptionName": "ترجمہ",
      "YoutubeSynced": true
    },
    {
      "ID": "WbrEB5OsMd_YfFuD6YNTpCjyoruHBZf31ZZKQJrQRuZE-SqIIBjl4w==",
      "Lang": "uz",
      "CaptionKey": "translation",
      "CaptionName": "Tarjima",
      "YoutubeSynced": true
    },
    {
      "ID": "KP4Zb1Ohc-pkTTrX0klU0m3T8wde1DlSZAoHsblU6rU=",
      "Lang": "vi",
      "CaptionKey": "translation",
      "CaptionName": "Dịch",
      "YoutubeSynced": true
    },
    {
      "ID": "rJFQ5TOE8DKIGmJleduXGJMZAkjd-PhxUmyob49c2ZxB4wIooRYNPQ==",
      "Lang": "xh",
      "CaptionKey": "translation",
      "CaptionName": "Inguqulelo",
      "YoutubeSynced": true
    },
    {
      "ID": "QN10F5q9nvoICZwxjvz-RZKM66nmjQIBGDnulLfpAdZv9IqpE84O1jxeqwIXKotb",
      "Lang": "yi",
      "CaptionKey": "translation",
      "CaptionName": "איבערזעצונג",
      "YoutubeSynced": true
    },
    {
      "ID": "WbrEB5OsMd-LgKs9yUNucYjW3L4ZcyVMFqhQIiYw3Z44fWG_wvM3xA==",
      "Lang": "yo",
      "CaptionKey": "translation",
      "CaptionName": "Itumọ",
      "YoutubeSynced": true
    },
    {
      "ID": "1WPlvYyGLLBsLp_xnZTTY_KE-u7HACzcw1wwhqMvfEHL-sqncQ7U4Q==",
      "Lang": "zh-Hans",
      "CaptionKey": "translation",
      "CaptionName": "翻译",
      "YoutubeSynced": true
    },
    {
      "ID": "1WPlvYyGLLBsLp_xnZTTYzGGHgBxZkMKwo4uzbUIsf6rmV3oYM-wxw==",
      "Lang": "zh-Hant",
      "CaptionKey": "translation",
      "CaptionName": "翻譯",
      "YoutubeSynced": true
    },
    {
      "ID": "rJFQ5TOE8DIfuFNP-1JAgAuNOK4f1YMKWSfsbAQt4Vob4Nana3bh0Q==",
      "Lang": "zu",
      "CaptionKey": "translation",
      "CaptionName": "Ukuhumusha",
      "YoutubeSynced": true
    }
  ]
}