{
  "Name": "math-addition",
  "ID": "PLfI6UBkxvOTltCJsi_UnQDp-le0nTUwEM",
  "DefaultLang": "zh-Hans",
  "Title": "1➕成为数学大师！ 💯 一年级 数学 | 加法",
  "Description": "请大声说出答案！ 🗣",
  "Localizations": null,
  "PlaylistTags": "math,1st grade,addition,一年级,小学,数学,加法",
  "Updated": true,
  "PlaylistItems": [
    {
      "ID": "UExmSTZVQmt4dk9UbHRDSnNpX1VuUURwLWxlMG5UVXdFTS41NkI0NEY2RDEwNTU3Q0M2",
      "VideoID": "5BBWh2Meo0A",
      "VideoFile": "math-addition_1.webm"
    },
    {
      "ID": "UExmSTZVQmt4dk9UbHRDSnNpX1VuUURwLWxlMG5UVXdFTS4yODlGNEE0NkRGMEEzMEQy",
      "VideoID": "SWDz90gyKoY",
      "VideoFile": "math-addition_10.webm"
    },
    {
      "ID": "UExmSTZVQmt4dk9UbHRDSnNpX1VuUURwLWxlMG5UVXdFTS4wMTcyMDhGQUE4NTIzM0Y5",
      "VideoID": "Kny1HN2BwK4",
      "VideoFile": "math-addition_11.webm"
    },
    {
      "ID": "UExmSTZVQmt4dk9UbHRDSnNpX1VuUURwLWxlMG5UVXdFTS41MjE1MkI0OTQ2QzJGNzNG",
      "VideoID": "jpd2Y5vM5rg",
      "VideoFile": "math-addition_12.webm"
    },
    {
      "ID": "UExmSTZVQmt4dk9UbHRDSnNpX1VuUURwLWxlMG5UVXdFTS4wOTA3OTZBNzVEMTUzOTMy",
      "VideoID": "g7H_0lKbK-4",
      "VideoFile": "math-addition_13.webm"
    },
    {
      "ID": "UExmSTZVQmt4dk9UbHRDSnNpX1VuUURwLWxlMG5UVXdFTS4xMkVGQjNCMUM1N0RFNEUx",
      "VideoID": "a9U5KaxvcuQ",
      "VideoFile": "math-addition_14.webm"
    },
    {
      "ID": "UExmSTZVQmt4dk9UbHRDSnNpX1VuUURwLWxlMG5UVXdFTS41MzJCQjBCNDIyRkJDN0VD",
      "VideoID": "g_mU7eYCBvg",
      "VideoFile": "math-addition_15.webm"
    },
    {
      "ID": "UExmSTZVQmt4dk9UbHRDSnNpX1VuUURwLWxlMG5UVXdFTS5DQUNERDQ2NkIzRUQxNTY1",
      "VideoID": "x33X720jbAY",
      "VideoFile": "math-addition_16.webm"
    },
    {
      "ID": "UExmSTZVQmt4dk9UbHRDSnNpX1VuUURwLWxlMG5UVXdFTS45NDk1REZENzhEMzU5MDQz",
      "VideoID": "LgO9LcKQHYQ",
      "VideoFile": "math-addition_17.webm"
    },
    {
      "ID": "UExmSTZVQmt4dk9UbHRDSnNpX1VuUURwLWxlMG5UVXdFTS5GNjNDRDREMDQxOThCMDQ2",
      "VideoID": "StqIkzTZp2A",
      "VideoFile": "math-addition_18.webm"
    },
    {
      "ID": "UExmSTZVQmt4dk9UbHRDSnNpX1VuUURwLWxlMG5UVXdFTS40NzZCMERDMjVEN0RFRThB",
      "VideoID": "f7e_SYzulrY",
      "VideoFile": "math-addition_19.webm"
    },
    {
      "ID": "UExmSTZVQmt4dk9UbHRDSnNpX1VuUURwLWxlMG5UVXdFTS5EMEEwRUY5M0RDRTU3NDJC",
      "VideoID": "aXRyZyn5e7E",
      "VideoFile": "math-addition_2.webm"
    },
    {
      "ID": "UExmSTZVQmt4dk9UbHRDSnNpX1VuUURwLWxlMG5UVXdFTS45ODRDNTg0QjA4NkFBNkQy",
      "VideoID": "h5t08-3TflU",
      "VideoFile": "math-addition_20.webm"
    },
    {
      "ID": "UExmSTZVQmt4dk9UbHRDSnNpX1VuUURwLWxlMG5UVXdFTS4zMDg5MkQ5MEVDMEM1NTg2",
      "VideoID": "Q89TvdHyJqA",
      "VideoFile": "math-addition_21.webm"
    },
    {
      "ID": "UExmSTZVQmt4dk9UbHRDSnNpX1VuUURwLWxlMG5UVXdFTS41Mzk2QTAxMTkzNDk4MDhF",
      "VideoID": "rGyJuio-ay4",
      "VideoFile": "math-addition_22.webm"
    },
    {
      "ID": "UExmSTZVQmt4dk9UbHRDSnNpX1VuUURwLWxlMG5UVXdFTS5EQUE1NTFDRjcwMDg0NEMz",
      "VideoID": "tEuKhP8duQI",
      "VideoFile": "math-addition_23.webm"
    },
    {
      "ID": "UExmSTZVQmt4dk9UbHRDSnNpX1VuUURwLWxlMG5UVXdFTS41QTY1Q0UxMTVCODczNThE",
      "VideoID": "mcldQxFpKeo",
      "VideoFile": "math-addition_24.webm"
    },
    {
      "ID": "UExmSTZVQmt4dk9UbHRDSnNpX1VuUURwLWxlMG5UVXdFTS4yMUQyQTQzMjRDNzMyQTMy",
      "VideoID": "kWLUPKbKs3c",
      "VideoFile": "math-addition_25.webm"
    },
    {
      "ID": "UExmSTZVQmt4dk9UbHRDSnNpX1VuUURwLWxlMG5UVXdFTS45RTgxNDRBMzUwRjQ0MDhC",
      "VideoID": "BFHlISfIWAA",
      "VideoFile": "math-addition_26.webm"
    },
    {
      "ID": "UExmSTZVQmt4dk9UbHRDSnNpX1VuUURwLWxlMG5UVXdFTS5ENDU4Q0M4RDExNzM1Mjcy",
      "VideoID": "ZX5i4pE74eM",
      "VideoFile": "math-addition_27.webm"
    },
    {
      "ID": "UExmSTZVQmt4dk9UbHRDSnNpX1VuUURwLWxlMG5UVXdFTS4yMDhBMkNBNjRDMjQxQTg1",
      "VideoID": "Dg-G-4IaXN4",
      "VideoFile": "math-addition_28.webm"
    },
    {
      "ID": "UExmSTZVQmt4dk9UbHRDSnNpX1VuUURwLWxlMG5UVXdFTS5GM0Q3M0MzMzY5NTJFNTdE",
      "VideoID": "BgpHUBKM1_E",
      "VideoFile": "math-addition_29.webm"
    },
    {
      "ID": "UExmSTZVQmt4dk9UbHRDSnNpX1VuUURwLWxlMG5UVXdFTS4zRjM0MkVCRTg0MkYyQTM0",
      "VideoID": "4KgDdlmJytI",
      "VideoFile": "math-addition_3.webm"
    },
    {
      "ID": "UExmSTZVQmt4dk9UbHRDSnNpX1VuUURwLWxlMG5UVXdFTS45NzUwQkI1M0UxNThBMkU0",
      "VideoID": "7DVDgBsffj8",
      "VideoFile": "math-addition_30.webm"
    },
    {
      "ID": "UExmSTZVQmt4dk9UbHRDSnNpX1VuUURwLWxlMG5UVXdFTS5DNzE1RjZEMUZCMjA0RDBB",
      "VideoID": "-cL1mWaWLrw",
      "VideoFile": "math-addition_31.webm"
    },
    {
      "ID": "UExmSTZVQmt4dk9UbHRDSnNpX1VuUURwLWxlMG5UVXdFTS43MTI1NDIwOTMwQjIxMzNG",
      "VideoID": "kPZYh-5Cl6A",
      "VideoFile": "math-addition_32.webm"
    },
    {
      "ID": "UExmSTZVQmt4dk9UbHRDSnNpX1VuUURwLWxlMG5UVXdFTS5DQ0MyQ0Y4Mzg0M0VGOEYw",
      "VideoID": "pp0-Je-Ll-M",
      "VideoFile": "math-addition_33.webm"
    },
    {
      "ID": "UExmSTZVQmt4dk9UbHRDSnNpX1VuUURwLWxlMG5UVXdFTS4yQUE2Q0JEMTk4NTM3RTZC",
      "VideoID": "tSZDMFJVfhE",
      "VideoFile": "math-addition_34.webm"
    },
    {
      "ID": "UExmSTZVQmt4dk9UbHRDSnNpX1VuUURwLWxlMG5UVXdFTS5DMkU4NTY1QUFGQTYwMDE3",
      "VideoID": "Q0cqMt5oW7Y",
      "VideoFile": "math-addition_35.webm"
    },
    {
      "ID": "UExmSTZVQmt4dk9UbHRDSnNpX1VuUURwLWxlMG5UVXdFTS44Mjc5REFBRUE2MTdFRDU0",
      "VideoID": "lrCVs2XTerw",
      "VideoFile": "math-addition_36.webm"
    },
    {
      "ID": "UExmSTZVQmt4dk9UbHRDSnNpX1VuUURwLWxlMG5UVXdFTS43NDhFRTgwOTRERTU4Rjg3",
      "VideoID": "WXcMiPVb0tg",
      "VideoFile": "math-addition_37.webm"
    },
    {
      "ID": "UExmSTZVQmt4dk9UbHRDSnNpX1VuUURwLWxlMG5UVXdFTS41QUZGQTY5OTE4QTREQUU4",
      "VideoID": "j6A8FrOuq_I",
      "VideoFile": "math-addition_38.webm"
    },
    {
      "ID": "UExmSTZVQmt4dk9UbHRDSnNpX1VuUURwLWxlMG5UVXdFTS4zRDBDOEZDOUM0MDY5NEEz",
      "VideoID": "_eQcO8mWy-I",
      "VideoFile": "math-addition_39.webm"
    },
    {
      "ID": "UExmSTZVQmt4dk9UbHRDSnNpX1VuUURwLWxlMG5UVXdFTS5CMEQ2Mjk5NTc3NDZFRUNB",
      "VideoID": "Gb6_3eOyWko",
      "VideoFile": "math-addition_4.webm"
    },
    {
      "ID": "UExmSTZVQmt4dk9UbHRDSnNpX1VuUURwLWxlMG5UVXdFTS42MTI4Njc2QjM1RjU1MjlG",
      "VideoID": "1kB5u_RFlio",
      "VideoFile": "math-addition_40.webm"
    },
    {
      "ID": "UExmSTZVQmt4dk9UbHRDSnNpX1VuUURwLWxlMG5UVXdFTS45RjNFMDhGQ0Q2RkFCQTc1",
      "VideoID": "FtMieWUkWmE",
      "VideoFile": "math-addition_41.webm"
    },
    {
      "ID": "UExmSTZVQmt4dk9UbHRDSnNpX1VuUURwLWxlMG5UVXdFTS40QTA3NTU2RkM1QzlCMzYx",
      "VideoID": "DmDPzi9oP-8",
      "VideoFile": "math-addition_42.webm"
    },
    {
      "ID": "UExmSTZVQmt4dk9UbHRDSnNpX1VuUURwLWxlMG5UVXdFTS5BRjJDODk5REM0NjkzMUIy",
      "VideoID": "YC6YJQUXCsU",
      "VideoFile": "math-addition_43.webm"
    },
    {
      "ID": "UExmSTZVQmt4dk9UbHRDSnNpX1VuUURwLWxlMG5UVXdFTS4xOTEzQzhBQzU3MDNDNjcz",
      "VideoID": "wcSMkcUmjLY",
      "VideoFile": "math-addition_44.webm"
    },
    {
      "ID": "UExmSTZVQmt4dk9UbHRDSnNpX1VuUURwLWxlMG5UVXdFTS5GNDg1Njc1QzZERjlFRjE5",
      "VideoID": "3QIOVHTfr3k",
      "VideoFile": "math-addition_45.webm"
    },
    {
      "ID": "UExmSTZVQmt4dk9UbHRDSnNpX1VuUURwLWxlMG5UVXdFTS4zQzFBN0RGNzNFREFCMjBE",
      "VideoID": "1S1U42CT8ek",
      "VideoFile": "math-addition_46.webm"
    },
    {
      "ID": "UExmSTZVQmt4dk9UbHRDSnNpX1VuUURwLWxlMG5UVXdFTS45NkVENTkxRDdCQUFBMDY4",
      "VideoID": "rgePAJHZLbw",
      "VideoFile": "math-addition_47.webm"
    },
    {
      "ID": "UExmSTZVQmt4dk9UbHRDSnNpX1VuUURwLWxlMG5UVXdFTS5DNkMwRUI2MkI4QkI4NDFG",
      "VideoID": "DNcI5St3D2I",
      "VideoFile": "math-addition_48.webm"
    },
    {
      "ID": "UExmSTZVQmt4dk9UbHRDSnNpX1VuUURwLWxlMG5UVXdFTS5DRUQwODMxQzUyRTlGRkY3",
      "VideoID": "E3qMsSJ1dGk",
      "VideoFile": "math-addition_49.webm"
    },
    {
      "ID": "UExmSTZVQmt4dk9UbHRDSnNpX1VuUURwLWxlMG5UVXdFTS41MzY4MzcwOUFFRUU3QzEx",
      "VideoID": "yPGB1jljkDE",
      "VideoFile": "math-addition_5.webm"
    },
    {
      "ID": "UExmSTZVQmt4dk9UbHRDSnNpX1VuUURwLWxlMG5UVXdFTS4yQjZFRkExQjFGODk3RUFD",
      "VideoID": "VbRlWLxM474",
      "VideoFile": "math-addition_50.webm"
    },
    {
      "ID": "UExmSTZVQmt4dk9UbHRDSnNpX1VuUURwLWxlMG5UVXdFTS4yQUJFNUVCMzVDNjcxRTlF",
      "VideoID": "Ksjm8q7VxJY",
      "VideoFile": "math-addition_51.webm"
    },
    {
      "ID": "UExmSTZVQmt4dk9UbHRDSnNpX1VuUURwLWxlMG5UVXdFTS40QzRDOEU0QUYwNUIxN0M1",
      "VideoID": "6Jn9-Dx2org",
      "VideoFile": "math-addition_52.webm"
    },
    {
      "ID": "UExmSTZVQmt4dk9UbHRDSnNpX1VuUURwLWxlMG5UVXdFTS41RTNBREYwMkI5QzU3RkY2",
      "VideoID": "yOJsOLSrRgo",
      "VideoFile": "math-addition_53.webm"
    },
    {
      "ID": "UExmSTZVQmt4dk9UbHRDSnNpX1VuUURwLWxlMG5UVXdFTS5ENjI1QUI0MDI5NEQzODFE",
      "VideoID": "ZA7TGvqyZHo",
      "VideoFile": "math-addition_54.webm"
    },
    {
      "ID": "UExmSTZVQmt4dk9UbHRDSnNpX1VuUURwLWxlMG5UVXdFTS44QzVGQUU2QjE2NDgxM0M4",
      "VideoID": "jIZ1L8brg1U",
      "VideoFile": "math-addition_55.webm"
    },
    {
      "ID": "UExmSTZVQmt4dk9UbHRDSnNpX1VuUURwLWxlMG5UVXdFTS4xMzgwMzBERjQ4NjEzNUE5",
      "VideoID": "i4ApwN72yJ8",
      "VideoFile": "math-addition_56.webm"
    },
    {
      "ID": "UExmSTZVQmt4dk9UbHRDSnNpX1VuUURwLWxlMG5UVXdFTS4zMEQ1MEIyRTFGNzhDQzFB",
      "VideoID": "FYIBYHStts0",
      "VideoFile": "math-addition_57.webm"
    },
    {
      "ID": "UExmSTZVQmt4dk9UbHRDSnNpX1VuUURwLWxlMG5UVXdFTS42Qzk5MkEzQjVFQjYwRDA4",
      "VideoID": "3MDnU9pr-a0",
      "VideoFile": "math-addition_58.webm"
    },
    {
      "ID": "UExmSTZVQmt4dk9UbHRDSnNpX1VuUURwLWxlMG5UVXdFTS41NTZEOThBNThFOUVGQkVB",
      "VideoID": "-4b7lJ9lPNA",
      "VideoFile": "math-addition_59.webm"
    },
    {
      "ID": "UExmSTZVQmt4dk9UbHRDSnNpX1VuUURwLWxlMG5UVXdFTS43NERCMDIzQzFBMERCMEE3",
      "VideoID": "2SGHUzi9_y8",
      "VideoFile": "math-addition_6.webm"
    },
    {
      "ID": "UExmSTZVQmt4dk9UbHRDSnNpX1VuUURwLWxlMG5UVXdFTS5GNjAwN0Y0QTFGOTVDMEMy",
      "VideoID": "FGe5d4ztgj0",
      "VideoFile": "math-addition_60.webm"
    },
    {
      "ID": "UExmSTZVQmt4dk9UbHRDSnNpX1VuUURwLWxlMG5UVXdFTS5CQkEwRDA0MDkwNUM2MDY1",
      "VideoID": "47ybyiLwS30",
      "VideoFile": "math-addition_61.webm"
    },
    {
      "ID": "UExmSTZVQmt4dk9UbHRDSnNpX1VuUURwLWxlMG5UVXdFTS4wNEU1MTI4NkZEMzVBN0JF",
      "VideoID": "oNwWmf_aht8",
      "VideoFile": "math-addition_62.webm"
    },
    {
      "ID": "UExmSTZVQmt4dk9UbHRDSnNpX1VuUURwLWxlMG5UVXdFTS4wMTYxQzVBRDI1NEVDQUZE",
      "VideoID": "N1BSw6vgOTI",
      "VideoFile": "math-addition_63.webm"
    },
    {
      "ID": "UExmSTZVQmt4dk9UbHRDSnNpX1VuUURwLWxlMG5UVXdFTS4zMUEyMkQwOTk0NTg4MDgw",
      "VideoID": "w3DxQKro9J4",
      "VideoFile": "math-addition_64.webm"
    },
    {
      "ID": "UExmSTZVQmt4dk9UbHRDSnNpX1VuUURwLWxlMG5UVXdFTS42QzdBMzlBQzQzRjQ0QkQy",
      "VideoID": "lmqWD3r9M7I",
      "VideoFile": "math-addition_65.webm"
    },
    {
      "ID": "UExmSTZVQmt4dk9UbHRDSnNpX1VuUURwLWxlMG5UVXdFTS41OURENDc2NEM1MDI5Mjky",
      "VideoID": "sMwxVHY7SD0",
      "VideoFile": "math-addition_66.webm"
    },
    {
      "ID": "UExmSTZVQmt4dk9UbHRDSnNpX1VuUURwLWxlMG5UVXdFTS4wRjhFM0MxMTU1MEUzQ0VB",
      "VideoID": "H7wcpg8A0Wo",
      "VideoFile": "math-addition_67.webm"
    },
    {
      "ID": "UExmSTZVQmt4dk9UbHRDSnNpX1VuUURwLWxlMG5UVXdFTS5CNTZFOTNGQzZEODg1RUQx",
      "VideoID": "9S7Yujr-IN0",
      "VideoFile": "math-addition_68.webm"
    },
    {
      "ID": "UExmSTZVQmt4dk9UbHRDSnNpX1VuUURwLWxlMG5UVXdFTS5CNTcxMDQ0NThBNzMxODYz",
      "VideoID": "5_nBB6FJpNM",
      "VideoFile": "math-addition_69.webm"
    },
    {
      "ID": "UExmSTZVQmt4dk9UbHRDSnNpX1VuUURwLWxlMG5UVXdFTS5ERkUyQTM0MzEwQjZCMTY5",
      "VideoID": "Sk0TIJWYZxg",
      "VideoFile": "math-addition_7.webm"
    },
    {
      "ID": "UExmSTZVQmt4dk9UbHRDSnNpX1VuUURwLWxlMG5UVXdFTS4xM0YyM0RDNDE4REQ1NDA0",
      "VideoID": "2VhQe1gaqlA",
      "VideoFile": "math-addition_70.webm"
    },
    {
      "ID": "UExmSTZVQmt4dk9UbHRDSnNpX1VuUURwLWxlMG5UVXdFTS42MjYzMTMyQjA0QURCN0JF",
      "VideoID": "Q-Q8-lBu9SM",
      "VideoFile": "math-addition_71.webm"
    },
    {
      "ID": "UExmSTZVQmt4dk9UbHRDSnNpX1VuUURwLWxlMG5UVXdFTS40MDNEMzA0QTBFRThFMzBE",
      "VideoID": "7RC9L80OKPw",
      "VideoFile": "math-addition_72.webm"
    },
    {
      "ID": "UExmSTZVQmt4dk9UbHRDSnNpX1VuUURwLWxlMG5UVXdFTS42RTNCOEMxREI3Q0VDMjU2",
      "VideoID": "tyxhvLvf_Wg",
      "VideoFile": "math-addition_73.webm"
    },
    {
      "ID": "UExmSTZVQmt4dk9UbHRDSnNpX1VuUURwLWxlMG5UVXdFTS43QzNCNkZENzIyMDY2MjZB",
      "VideoID": "rAvOeG9OW8s",
      "VideoFile": "math-addition_74.webm"
    },
    {
      "ID": "UExmSTZVQmt4dk9UbHRDSnNpX1VuUURwLWxlMG5UVXdFTS5EQkE3RTJCQTJEQkFBQTcz",
      "VideoID": "2nHY6UpFmTk",
      "VideoFile": "math-addition_75.webm"
    },
    {
      "ID": "UExmSTZVQmt4dk9UbHRDSnNpX1VuUURwLWxlMG5UVXdFTS4yQzk4QTA5QjkzMTFFOEI1",
      "VideoID": "yf4KtxNGik0",
      "VideoFile": "math-addition_76.webm"
    },
    {
      "ID": "UExmSTZVQmt4dk9UbHRDSnNpX1VuUURwLWxlMG5UVXdFTS45NDlDQUFFOThDMTAxQjUw",
      "VideoID": "ulU3Nh9uVZw",
      "VideoFile": "math-addition_77.webm"
    },
    {
      "ID": "UExmSTZVQmt4dk9UbHRDSnNpX1VuUURwLWxlMG5UVXdFTS4xN0Y2QjVBOEI2MzQ5OUM5",
      "VideoID": "zik5WvSjEvk",
      "VideoFile": "math-addition_78.webm"
    },
    {
      "ID": "UExmSTZVQmt4dk9UbHRDSnNpX1VuUURwLWxlMG5UVXdFTS5FQUY2Qzk4RUFDN0ZFRkZF",
      "VideoID": "5yQb_ARFOz4",
      "VideoFile": "math-addition_79.webm"
    },
    {
      "ID": "UExmSTZVQmt4dk9UbHRDSnNpX1VuUURwLWxlMG5UVXdFTS5CMEVBRUJERkUyNTBENTkz",
      "VideoID": "M7JXCMUyG_A",
      "VideoFile": "math-addition_8.webm"
    },
    {
      "ID": "UExmSTZVQmt4dk9UbHRDSnNpX1VuUURwLWxlMG5UVXdFTS4xNjIyNEE0MDEyRDlCMjBE",
      "VideoID": "rIPUcb_u4J4",
      "VideoFile": "math-addition_80.webm"
    },
    {
      "ID": "UExmSTZVQmt4dk9UbHRDSnNpX1VuUURwLWxlMG5UVXdFTS44QTY2MEEzNzBFQUJCMUQ2",
      "VideoID": "yxKoHQ4mssg",
      "VideoFile": "math-addition_81.webm"
    },
    {
      "ID": "UExmSTZVQmt4dk9UbHRDSnNpX1VuUURwLWxlMG5UVXdFTS4zQTkzRjgxRTY0OEU0MkM3",
      "VideoID": "BlgkjOlsiSo",
      "VideoFile": "math-addition_82.webm"
    },
    {
      "ID": "UExmSTZVQmt4dk9UbHRDSnNpX1VuUURwLWxlMG5UVXdFTS4xNTZBNUQxMDZBQzFGMjkw",
      "VideoID": "x39rCOXYgNI",
      "VideoFile": "math-addition_83.webm"
    },
    {
      "ID": "UExmSTZVQmt4dk9UbHRDSnNpX1VuUURwLWxlMG5UVXdFTS4wMDFGNzBEOTU4Q0Y1Q0RG",
      "VideoID": "3JrEadds90M",
      "VideoFile": "math-addition_84.webm"
    },
    {
      "ID": "UExmSTZVQmt4dk9UbHRDSnNpX1VuUURwLWxlMG5UVXdFTS44QTA1QTQyRTc3M0VGQzYx",
      "VideoID": "Sgp_HCcROq0",
      "VideoFile": "math-addition_85.webm"
    },
    {
      "ID": "UExmSTZVQmt4dk9UbHRDSnNpX1VuUURwLWxlMG5UVXdFTS44MkM2RjVEQkQ5N0I2MjVE",
      "VideoID": "UPx5f_Vx_Aw",
      "VideoFile": "math-addition_86.webm"
    },
    {
      "ID": "UExmSTZVQmt4dk9UbHRDSnNpX1VuUURwLWxlMG5UVXdFTS40NzE2MTY1QTM3RUI3QkU3",
      "VideoID": "tYf7zWddl7I",
      "VideoFile": "math-addition_87.webm"
    },
    {
      "ID": "UExmSTZVQmt4dk9UbHRDSnNpX1VuUURwLWxlMG5UVXdFTS5EMzJDRTUwQjBEOUVFQzAw",
      "VideoID": "jUFNf73Zt6k",
      "VideoFile": "math-addition_88.webm"
    },
    {
      "ID": "UExmSTZVQmt4dk9UbHRDSnNpX1VuUURwLWxlMG5UVXdFTS5CMUM0NzY5NzdEQzlGRjAx",
      "VideoID": "jAr5fU8A8YQ",
      "VideoFile": "math-addition_89.webm"
    },
    {
      "ID": "UExmSTZVQmt4dk9UbHRDSnNpX1VuUURwLWxlMG5UVXdFTS5GMDBDNkJGMzYzREUyMTYw",
      "VideoID": "fss5SFZeeMA",
      "VideoFile": "math-addition_9.webm"
    },
    {
      "ID": "UExmSTZVQmt4dk9UbHRDSnNpX1VuUURwLWxlMG5UVXdFTS4wQUE0QzM4MkJGQ0YwQjUx",
      "VideoID": "brDm_OEn_xE",
      "VideoFile": "math-addition_90.webm"
    },
    {
      "ID": "UExmSTZVQmt4dk9UbHRDSnNpX1VuUURwLWxlMG5UVXdFTS5DQjg2RDQyMEVGQkZFOEVF",
      "VideoID": "qVQVlSiWCEg",
      "VideoFile": "math-addition_91,92.webm"
    },
    {
      "ID": "UExmSTZVQmt4dk9UbHRDSnNpX1VuUURwLWxlMG5UVXdFTS4yM0EyQ0U1M0I2RkIwNTQ0",
      "VideoID": "MFvts-e0o_o",
      "VideoFile": "math-addition_93,94.webm"
    },
    {
      "ID": "UExmSTZVQmt4dk9UbHRDSnNpX1VuUURwLWxlMG5UVXdFTS5ERENFNTk4Q0Q2MTZDMTA5",
      "VideoID": "xKZKuE2m_No",
      "VideoFile": "math-addition_95,96,97.webm"
    }
  ]
}