{
  "File": "grammar-en-beginner-simple_53_UK.mp4",
  "ID": "MZyZ8f1_Qio",
  "AudioLang": "en",
  "DefaultLang": "ro",
  "Title": "Exerciții de gramatică engleză | Simplu britanic ⭐️ #53 was born",
  "Description": "Învață gramatica engleză! Schimbă un cuvânt într-o propoziție.\n\n\n\n0:04 1:29 2:51 \nHe was born in 2001\nhi wɑz bɔrn ɪn 2001\nS-a născut în 2001\n\n0:21 1:46 3:08 \nHe was born 20 years ago\nhi wɑz bɔrn 20 jɪrz əˈgoʊ\nS-a născut acum 20 de ani\n\n0:36 2:00 3:22 \nYou were born 20 years ago\nju wər bɔrn 20 jɪrz əˈgoʊ\nTe-ai născut acum 20 de ani\n\n0:52 2:16 3:38 \nYou were born in 2001\nju wər bɔrn ɪn 2001\nTe-ai născut în 2001\n\n1:09 2:32 3:54 \nI was born in 2001\naɪ wɑz bɔrn ɪn 2001\nM-am născut în 2001\n\n\n\nPentru profesori și școli:\nAcest videoclip este publicat sub licență Creative Commons.\n  CC BY 3.0 https://creativecommons.org/licenses/by/3.0/ \nSimte-te liber să folosești acest videoclip în orele tale!\n\nFolosim serviciul Google Translate pentru localizare. Dacă găsiți unele greșeli, vă rugăm să ne informați.\n",
  "VideoTags": "gramatica engleza,engelsk grammatik,Ағылшын грамматикасы,αγγλική γραμματική,अंग्रेजी व्याकरण,ஆங்கில இலக்கணம்,ໄວຍາກອນພາສາອັງກິດ,英語語法,Grammar Inggris,انګلیسي ګرامر,Naxwaha Ingiriisiga,Èdè Gẹẹsi,tatabahasa Inggeris,inglise keele grammatika,engleska gramatika",
  "YoutubeSynced": true,
  "ThumbnailUploaded": true,
  "Localizations": [
    {
      "Lang": "af",
      "Title": "Engelse grammatika-oefeninge | eenvoudige Britse ⭐️ #53 was born",
      "Description": "Leer Engelse grammatika! Verander 'n woord in 'n sin.\n\n\n\n0:04 1:29 2:51 \nHe was born in 2001\nhi wɑz bɔrn ɪn 2001\nHy is in 2001 gebore\n\n0:21 1:46 3:08 \nHe was born 20 years ago\nhi wɑz bɔrn 20 jɪrz əˈgoʊ\nHy is 20 jaar gelede gebore\n\n0:36 2:00 3:22 \nYou were born 20 years ago\nju wər bɔrn 20 jɪrz əˈgoʊ\nU is 20 jaar gelede gebore\n\n0:52 2:16 3:38 \nYou were born in 2001\nju wər bɔrn ɪn 2001\nU is in 2001 gebore\n\n1:09 2:32 3:54 \nI was born in 2001\naɪ wɑz bɔrn ɪn 2001\nEk is in 2001 gebore\n\n\n\nAan onderwysers en skole:\nHierdie video word onder Creative Commons-lisensie gepubliseer.\n  CC BY 3.0 https://creativecommons.org/licenses/by/3.0/ \nGebruik gerus hierdie video in u klasse!\n\nOns gebruik Google Translate-diens vir lokalisering. Laat weet ons as u foute ervaar.\n"
    },
    {
      "Lang": "am",
      "Title": "የእንግሊዝኛ ሰዋሰው ልምምዶች | ቀላል ብሪቲሽ ⭐️ #53 was born",
      "Description": "የእንግሊዝኛ ሰዋስው ይማሩ! በአረፍተ ነገር ውስጥ አንድ ቃል ይለውጡ ፡፡\n\n\n\n0:04 1:29 2:51 \nHe was born in 2001\nhi wɑz bɔrn ɪn 2001\nየተወለደው በ 2001 ነው\n\n0:21 1:46 3:08 \nHe was born 20 years ago\nhi wɑz bɔrn 20 jɪrz əˈgoʊ\nእሱ የተወለደው ከ 20 ዓመታት በፊት ነው\n\n0:36 2:00 3:22 \nYou were born 20 years ago\nju wər bɔrn 20 jɪrz əˈgoʊ\nየተወለዱት ከ 20 ዓመታት በፊት ነው\n\n0:52 2:16 3:38 \nYou were born in 2001\nju wər bɔrn ɪn 2001\nየተወለዱት በ 2001 ነው\n\n1:09 2:32 3:54 \nI was born in 2001\naɪ wɑz bɔrn ɪn 2001\nየተወለድኩት በ 2001 ነው\n\n\n\nለመምህራን እና ለት / ቤቶች\nይህ ቪዲዮ በ Creative Commons ፈቃድ ስር ታትሟል ፡፡\n  CC BY 3.0 https://creativecommons.org/licenses/by/3.0/ \nይህንን ቪዲዮ በትምህርቶችዎ ውስጥ ለመጠቀም ነፃ ይሁኑ!\n\nለትርጉም የ Google ትርጉም አገልግሎትን እንጠቀማለን። አንዳንድ ስህተቶች ካገኙ እባክዎ ያሳውቁን።\n"
    },
    {
      "Lang": "ar",
      "Title": "تمارين قواعد اللغة الإنجليزية | بسيط بريطاني ⭐️ #53 was born",
      "Description": "تعلم قواعد اللغة الإنجليزية! تغيير كلمة في جملة.\n\n\n\n0:04 1:29 2:51 \nHe was born in 2001\nhi wɑz bɔrn ɪn 2001\nولد عام 2001\n\n0:21 1:46 3:08 \nHe was born 20 years ago\nhi wɑz bɔrn 20 jɪrz əˈgoʊ\nولد قبل 20 سنة\n\n0:36 2:00 3:22 \nYou were born 20 years ago\nju wər bɔrn 20 jɪrz əˈgoʊ\nلقد ولدت قبل 20 عامًا\n\n0:52 2:16 3:38 \nYou were born in 2001\nju wər bɔrn ɪn 2001\nلقد ولدت في عام 2001\n\n1:09 2:32 3:54 \nI was born in 2001\naɪ wɑz bɔrn ɪn 2001\nلقد ولدت في عام 2001\n\n\n\nللمعلمين والمدارس:\nتم نشر هذا الفيديو تحت رخصة المشاع الإبداعي.\n  CC BY 3.0 https://creativecommons.org/licenses/by/3.0/ \nلا تتردد في استخدام هذا الفيديو في الفصول الدراسية!\n\nنستخدم خدمة الترجمة من Google للترجمة. إذا وجدت بعض الأخطاء ، يرجى إعلامنا.\n"
    },
    {
      "Lang": "az",
      "Title": "İngilis qrammatikası təlimləri | Sadə İngilis ⭐️ #53 was born",
      "Description": "İngilis dili qrammatikasını öyrənin! Bir cümlədə bir söz dəyişdirin.\n\n\n\n0:04 1:29 2:51 \nHe was born in 2001\nhi wɑz bɔrn ɪn 2001\n2001-ci ildə anadan olub\n\n0:21 1:46 3:08 \nHe was born 20 years ago\nhi wɑz bɔrn 20 jɪrz əˈgoʊ\n20 il əvvəl anadan olub\n\n0:36 2:00 3:22 \nYou were born 20 years ago\nju wər bɔrn 20 jɪrz əˈgoʊ\n20 il əvvəl anadan olmusunuz\n\n0:52 2:16 3:38 \nYou were born in 2001\nju wər bɔrn ɪn 2001\n2001-ci ildə anadan olmusunuz\n\n1:09 2:32 3:54 \nI was born in 2001\naɪ wɑz bɔrn ɪn 2001\n2001-ci ildə anadan olmuşam\n\n\n\nMüəllimlərə və məktəblərə:\nBu video Creative Commons lisenziyası altında yayımlanıb.\n  CC BY 3.0 https://creativecommons.org/licenses/by/3.0/ \nBu videonu dərslərinizdə istifadə etməkdən çekinmeyin!\n\nLokallaşdırma üçün Google Translate xidmətindən istifadə edirik. Bəzi səhvlər taparsanız, bizə bildirin.\n"
    },
    {
      "Lang": "be",
      "Title": "Граматычныя практыкаванні на англійскай мове | Просты Брытанцы ⭐️ #53 was born",
      "Description": "Вывучайце англійскую граматыку! Змяніце слова ў сказе.\n\n\n\n0:04 1:29 2:51 \nHe was born in 2001\nhi wɑz bɔrn ɪn 2001\nЁн нарадзіўся ў 2001 годзе\n\n0:21 1:46 3:08 \nHe was born 20 years ago\nhi wɑz bɔrn 20 jɪrz əˈgoʊ\nЁн нарадзіўся 20 гадоў таму\n\n0:36 2:00 3:22 \nYou were born 20 years ago\nju wər bɔrn 20 jɪrz əˈgoʊ\nВы нарадзіліся 20 гадоў таму\n\n0:52 2:16 3:38 \nYou were born in 2001\nju wər bɔrn ɪn 2001\nВы нарадзіліся ў 2001 годзе\n\n1:09 2:32 3:54 \nI was born in 2001\naɪ wɑz bɔrn ɪn 2001\nЯ нарадзіўся ў 2001 годзе\n\n\n\nДля настаўнікаў і школ:\nГэта відэа публікуецца пад ліцэнзіяй Creative Commons.\n  CC BY 3.0 https://creativecommons.org/licenses/by/3.0/ \nНе саромейцеся выкарыстоўваць гэта відэа ў сваіх класах!\n\nМы выкарыстоўваем паслугу Google Translate для лакалізацыі. Калі вы выявілі некаторыя памылкі, калі ласка, паведаміце нам пра гэта.\n"
    },
    {
      "Lang": "bg",
      "Title": "Английски граматически упражнения | прост британски ⭐️ #53 was born",
      "Description": "Научете английска граматика! Промяна на дума в изречение.\n\n\n\n0:04 1:29 2:51 \nHe was born in 2001\nhi wɑz bɔrn ɪn 2001\nТой е роден през 2001 година\n\n0:21 1:46 3:08 \nHe was born 20 years ago\nhi wɑz bɔrn 20 jɪrz əˈgoʊ\nТой е роден преди 20 години\n\n0:36 2:00 3:22 \nYou were born 20 years ago\nju wər bɔrn 20 jɪrz əˈgoʊ\nВие сте родени преди 20 години\n\n0:52 2:16 3:38 \nYou were born in 2001\nju wər bɔrn ɪn 2001\nВие сте родени през 2001 г.\n\n1:09 2:32 3:54 \nI was born in 2001\naɪ wɑz bɔrn ɪn 2001\nРоден съм през 2001 г.\n\n\n\nЗа учители и училища:\nТози видеоклип е публикуван под Creative Commons License.\n  CC BY 3.0 https://creativecommons.org/licenses/by/3.0/ \nЧувствайте се свободни да използвате това видео в класовете си!\n\nНие използваме услугата Google Translate за локализация. Ако откриете някои грешки, моля, уведомете ни.\n"
    },
    {
      "Lang": "bn",
      "Title": "ইংরেজি ব্যাকরণ অনুশীলন | সহজ ব্রিটিশ ⭐️ #53 was born",
      "Description": "ইংরেজি ব্যাকরণ শিখুন! একটি বাক্যে একটি শব্দ পরিবর্তন করুন।\n\n\n\n0:04 1:29 2:51 \nHe was born in 2001\nhi wɑz bɔrn ɪn 2001\nতিনি 2001 সালে জন্মগ্রহণ করেন\n\n0:21 1:46 3:08 \nHe was born 20 years ago\nhi wɑz bɔrn 20 jɪrz əˈgoʊ\nতিনি 20 বছর আগে জন্মগ্রহণ করেছিলেন\n\n0:36 2:00 3:22 \nYou were born 20 years ago\nju wər bɔrn 20 jɪrz əˈgoʊ\nআপনার জন্ম 20 বছর আগে হয়েছিল\n\n0:52 2:16 3:38 \nYou were born in 2001\nju wər bɔrn ɪn 2001\nআপনি 2001 সালে জন্মগ্রহণ করেছেন\n\n1:09 2:32 3:54 \nI was born in 2001\naɪ wɑz bɔrn ɪn 2001\nআমি 2001 সালে জন্মগ্রহণ করেছি\n\n\n\nশিক্ষক এবং বিদ্যালয়ের কাছে:\nএই ভিডিওটি ক্রিয়েটিভ কমন্স লাইসেন্সের আওতায় প্রকাশিত হয়েছে।\n  CC BY 3.0 https://creativecommons.org/licenses/by/3.0/ \nআপনার ক্লাসে এই ভিডিওটি নির্দ্বিধায় ব্যবহার করুন!\n\nআমরা স্থানীয়করণের জন্য গুগল অনুবাদ পরিষেবা ব্যবহার করি। আপনি যদি কিছু ভুল খুঁজে পান তবে দয়া করে আমাদের জানান।\n"
    },
    {
      "Lang": "bs",
      "Title": "Engleske gramatičke vježbe | Jednostavno Britanski ⭐️ #53 was born",
      "Description": "Naučite englesku gramatiku! Promenite reč u rečenici.\n\n\n\n0:04 1:29 2:51 \nHe was born in 2001\nhi wɑz bɔrn ɪn 2001\nRođen je 2001. godine\n\n0:21 1:46 3:08 \nHe was born 20 years ago\nhi wɑz bɔrn 20 jɪrz əˈgoʊ\nRođen je pre 20 godina\n\n0:36 2:00 3:22 \nYou were born 20 years ago\nju wər bɔrn 20 jɪrz əˈgoʊ\nRođeni ste pre 20 godina\n\n0:52 2:16 3:38 \nYou were born in 2001\nju wər bɔrn ɪn 2001\nRođeni ste 2001. godine\n\n1:09 2:32 3:54 \nI was born in 2001\naɪ wɑz bɔrn ɪn 2001\nRođena sam 2001. godine\n\n\n\nNastavnicima i školama:\nOvaj video je objavljen pod Creative Commons licencom.\n  CC BY 3.0 https://creativecommons.org/licenses/by/3.0/ \nSlobodno koristite ovaj videozapis u svojim predavanjima!\n\nZa lokalizaciju koristimo uslugu Google Translate. Ako pronađete neke greške, javite nam se.\n"
    },
    {
      "Lang": "ca",
      "Title": "Exercicis de gramàtica anglesa | Senzill Britànic ⭐️ #53 was born",
      "Description": "Apreneu gramàtica anglesa! Canvia una paraula en una frase.\n\n\n\n0:04 1:29 2:51 \nHe was born in 2001\nhi wɑz bɔrn ɪn 2001\nVa néixer el 2001\n\n0:21 1:46 3:08 \nHe was born 20 years ago\nhi wɑz bɔrn 20 jɪrz əˈgoʊ\nVa néixer fa vint anys\n\n0:36 2:00 3:22 \nYou were born 20 years ago\nju wər bɔrn 20 jɪrz əˈgoʊ\nVau néixer fa 20 anys\n\n0:52 2:16 3:38 \nYou were born in 2001\nju wər bɔrn ɪn 2001\nVostè va néixer el 2001\n\n1:09 2:32 3:54 \nI was born in 2001\naɪ wɑz bɔrn ɪn 2001\nVaig néixer el 2001\n\n\n\nA professors i escoles:\nAquest vídeo es publica sota llicència Creative Commons.\n  CC BY 3.0 https://creativecommons.org/licenses/by/3.0/ \nNo dubteu a utilitzar aquest vídeo a les vostres classes.\n\nUtilitzem el servei de Google Translate per a la localització. Si trobeu alguns errors, feu-nos-ho saber.\n"
    },
    {
      "Lang": "co",
      "Title": "Esercizii di grammatica inglese | Semplice Britannicu ⭐️ #53 was born",
      "Description": "Amparate a grammatica inglese! Cambia una parolla in una frase.\n\n\n\n0:04 1:29 2:51 \nHe was born in 2001\nhi wɑz bɔrn ɪn 2001\nHè natu in u 2001\n\n0:21 1:46 3:08 \nHe was born 20 years ago\nhi wɑz bɔrn 20 jɪrz əˈgoʊ\nHè natu vinti anni fà\n\n0:36 2:00 3:22 \nYou were born 20 years ago\nju wər bɔrn 20 jɪrz əˈgoʊ\nAvete natu 20 anni fà\n\n0:52 2:16 3:38 \nYou were born in 2001\nju wər bɔrn ɪn 2001\nAvete natu in u 2001\n\n1:09 2:32 3:54 \nI was born in 2001\naɪ wɑz bɔrn ɪn 2001\nSò natu in u 2001\n\n\n\nÀ i prufessori è à e scole:\nStu video hè publicatu sottu licenza Creative Commons.\n  CC BY 3.0 https://creativecommons.org/licenses/by/3.0/ \nSentitevi liberi d'utilizà stu video in i vostri classi!\n\nUsu u serviziu di Google Translate per a localizazione. Se truvate qualchì sbagli, per piaceci di sapè.\n"
    },
    {
      "Lang": "cs",
      "Title": "Cvičení anglické gramatiky | Jednoduchý britský ⭐️ #53 was born",
      "Description": "Naučte se anglickou gramatiku! Změňte slovo ve větě.\n\n\n\n0:04 1:29 2:51 \nHe was born in 2001\nhi wɑz bɔrn ɪn 2001\nNarodil se v roce 2001\n\n0:21 1:46 3:08 \nHe was born 20 years ago\nhi wɑz bɔrn 20 jɪrz əˈgoʊ\nNarodil se před 20 lety\n\n0:36 2:00 3:22 \nYou were born 20 years ago\nju wər bɔrn 20 jɪrz əˈgoʊ\nNarodili jste se před 20 lety\n\n0:52 2:16 3:38 \nYou were born in 2001\nju wər bɔrn ɪn 2001\nNarodili jste se v roce 2001\n\n1:09 2:32 3:54 \nI was born in 2001\naɪ wɑz bɔrn ɪn 2001\nNarodil jsem se v roce 2001\n\n\n\nUčitelům a školám:\nToto video je publikováno pod licencí Creative Commons License.\n  CC BY 3.0 https://creativecommons.org/licenses/by/3.0/ \nNeváhejte použít toto video ve svých třídách!\n\nK lokalizaci používáme službu Google Translate. Pokud narazíte na nějaké chyby, dejte nám prosím vědět.\n"
    },
    {
      "Lang": "cy",
      "Title": "Ymarferion gramadeg Saesneg | Syml Prydeinig ⭐️ #53 was born",
      "Description": "Dysgu gramadeg Saesneg! Newid gair mewn brawddeg.\n\n\n\n0:04 1:29 2:51 \nHe was born in 2001\nhi wɑz bɔrn ɪn 2001\nFe'i ganed yn 2001\n\n0:21 1:46 3:08 \nHe was born 20 years ago\nhi wɑz bɔrn 20 jɪrz əˈgoʊ\nFe'i ganed 20 mlynedd yn ôl\n\n0:36 2:00 3:22 \nYou were born 20 years ago\nju wər bɔrn 20 jɪrz əˈgoʊ\nFe'ch ganwyd 20 mlynedd yn ôl\n\n0:52 2:16 3:38 \nYou were born in 2001\nju wər bɔrn ɪn 2001\nFe'ch ganwyd yn 2001\n\n1:09 2:32 3:54 \nI was born in 2001\naɪ wɑz bɔrn ɪn 2001\nCefais fy ngeni yn 2001\n\n\n\nI athrawon ac ysgolion:\nCyhoeddir y fideo hon o dan Creative Commons License.\n  CC BY 3.0 https://creativecommons.org/licenses/by/3.0/ \nMae croeso i chi ddefnyddio'r fideo hon yn eich dosbarthiadau!\n\nRydym yn defnyddio gwasanaeth Google Translate ar gyfer lleoleiddio. Os dewch chi o hyd i rai camgymeriadau, rhowch wybod i ni.\n"
    },
    {
      "Lang": "da",
      "Title": "Engelsk grammatikøvelser | Enkel britisk ⭐️ #53 was born",
      "Description": "Lær engelsk grammatik! Skift et ord i en sætning.\n\n\n\n0:04 1:29 2:51 \nHe was born in 2001\nhi wɑz bɔrn ɪn 2001\nHan blev født i 2001\n\n0:21 1:46 3:08 \nHe was born 20 years ago\nhi wɑz bɔrn 20 jɪrz əˈgoʊ\nHan blev født for 20 år siden\n\n0:36 2:00 3:22 \nYou were born 20 years ago\nju wər bɔrn 20 jɪrz əˈgoʊ\nDu blev født for 20 år siden\n\n0:52 2:16 3:38 \nYou were born in 2001\nju wər bɔrn ɪn 2001\nDu blev født i 2001\n\n1:09 2:32 3:54 \nI was born in 2001\naɪ wɑz bɔrn ɪn 2001\nJeg blev født i 2001\n\n\n\nTil lærere og skoler:\nDenne video er offentliggjort under Creative Commons License.\n  CC BY 3.0 https://creativecommons.org/licenses/by/3.0/ \nBrug gjerne denne video i dine klasser!\n\nVi bruger Google Translate-tjenesten til lokalisering. Hvis du finder nogle fejl, så lad os vide det.\n"
    },
    {
      "Lang": "de",
      "Title": "Englische Grammatikübungen | Einfach britisch ⭐️ #53 was born",
      "Description": "Lerne englische Grammatik! Ändern Sie ein Wort in einem Satz.\n\n\n\n0:04 1:29 2:51 \nHe was born in 2001\nhi wɑz bɔrn ɪn 2001\nEr wurde 2001 geboren\n\n0:21 1:46 3:08 \nHe was born 20 years ago\nhi wɑz bɔrn 20 jɪrz əˈgoʊ\nEr wurde vor 20 Jahren geboren\n\n0:36 2:00 3:22 \nYou were born 20 years ago\nju wər bɔrn 20 jɪrz əˈgoʊ\nSie wurden vor 20 Jahren geboren\n\n0:52 2:16 3:38 \nYou were born in 2001\nju wər bɔrn ɪn 2001\nSie wurden 2001 geboren\n\n1:09 2:32 3:54 \nI was born in 2001\naɪ wɑz bɔrn ɪn 2001\nIch wurde 2001 geboren\n\n\n\nAn Lehrer und Schulen:\nDieses Video wird unter der Creative Commons License veröffentlicht.\n  CC BY 3.0 https://creativecommons.org/licenses/by/3.0/ \nFühlen Sie sich frei, dieses Video in Ihren Klassen zu verwenden!\n\nWir verwenden den Google Translate-Dienst zur Lokalisierung. Wenn Sie Fehler finden, teilen Sie uns dies bitte mit.\n"
    },
    {
      "Lang": "el",
      "Title": "Αγγλικές ασκήσεις γραμματικής | Απλός Βρετανοί ⭐️ #53 was born",
      "Description": "Μάθετε αγγλική γραμματική! Αλλάξτε μια λέξη σε μια πρόταση.\n\n\n\n0:04 1:29 2:51 \nHe was born in 2001\nhi wɑz bɔrn ɪn 2001\nΓεννήθηκε το 2001\n\n0:21 1:46 3:08 \nHe was born 20 years ago\nhi wɑz bɔrn 20 jɪrz əˈgoʊ\nΓεννήθηκε πριν από 20 χρόνια\n\n0:36 2:00 3:22 \nYou were born 20 years ago\nju wər bɔrn 20 jɪrz əˈgoʊ\nΓεννήθηκες πριν από 20 χρόνια\n\n0:52 2:16 3:38 \nYou were born in 2001\nju wər bɔrn ɪn 2001\nΓεννήθηκες το 2001\n\n1:09 2:32 3:54 \nI was born in 2001\naɪ wɑz bɔrn ɪn 2001\nΓεννήθηκα το 2001\n\n\n\nΣτους εκπαιδευτικούς και τα σχολεία:\nΑυτό το βίντεο δημοσιεύεται υπό Creative Commons License.\n  CC BY 3.0 https://creativecommons.org/licenses/by/3.0/ \nΜπορείτε να χρησιμοποιήσετε αυτό το βίντεο στις τάξεις σας!\n\nΧρησιμοποιούμε την υπηρεσία Google Translate για εντοπισμό. Αν βρείτε κάποια λάθη, ενημερώστε μας.\n"
    },
    {
      "Lang": "en",
      "Title": "English grammar exercises | Simple British ⭐️ #53 was born",
      "Description": "Learn English grammar! Change a word in a sentence.\n\n\n\n0:04 1:29 2:51 \nHe was born in 2001\nhi wɑz bɔrn ɪn 2001\nHe was born in 2001\n\n0:21 1:46 3:08 \nHe was born 20 years ago\nhi wɑz bɔrn 20 jɪrz əˈgoʊ\nHe was born 20 years ago\n\n0:36 2:00 3:22 \nYou were born 20 years ago\nju wər bɔrn 20 jɪrz əˈgoʊ\nYou were born 20 years ago\n\n0:52 2:16 3:38 \nYou were born in 2001\nju wər bɔrn ɪn 2001\nYou were born in 2001\n\n1:09 2:32 3:54 \nI was born in 2001\naɪ wɑz bɔrn ɪn 2001\nI was born in 2001\n\n\n\nTo teachers and schools:\nThis video is published under Creative Commons License.\n  CC BY 3.0 https://creativecommons.org/licenses/by/3.0/ \nFeel free to use this video in your classes!\n\nWe use Google Translate service for localization. If you find some mistakes, please let us know.\n"
    },
    {
      "Lang": "es",
      "Title": "Ejercicios de gramática inglesa | Sencillo británico ⭐️ #53 was born",
      "Description": "¡Aprende gramática inglesa! Cambiar una palabra en una oración.\n\n\n\n0:04 1:29 2:51 \nHe was born in 2001\nhi wɑz bɔrn ɪn 2001\nNació en 2001\n\n0:21 1:46 3:08 \nHe was born 20 years ago\nhi wɑz bɔrn 20 jɪrz əˈgoʊ\nNació hace 20 años\n\n0:36 2:00 3:22 \nYou were born 20 years ago\nju wər bɔrn 20 jɪrz əˈgoʊ\nNaciste hace 20 años\n\n0:52 2:16 3:38 \nYou were born in 2001\nju wər bɔrn ɪn 2001\nNaciste en 2001\n\n1:09 2:32 3:54 \nI was born in 2001\naɪ wɑz bɔrn ɪn 2001\nNaci en 2001\n\n\n\nA profesores y escuelas:\nEste video se publica bajo licencia Creative Commons.\n  CC BY 3.0 https://creativecommons.org/licenses/by/3.0/ \n¡Siéntete libre de usar este video en tus clases!\n\nUtilizamos el servicio Google Translate para la localización. Si encuentra algunos errores, háganoslo saber.\n"
    },
    {
      "Lang": "et",
      "Title": "Inglise keele grammatika harjutused | Lihtne Briti ⭐️ #53 was born",
      "Description": "Õpi inglise keele grammatikat! Muutke lauses sõna.\n\n\n\n0:04 1:29 2:51 \nHe was born in 2001\nhi wɑz bɔrn ɪn 2001\nTa sündis 2001. aastal\n\n0:21 1:46 3:08 \nHe was born 20 years ago\nhi wɑz bɔrn 20 jɪrz əˈgoʊ\nTa sündis 20 aastat tagasi\n\n0:36 2:00 3:22 \nYou were born 20 years ago\nju wər bɔrn 20 jɪrz əˈgoʊ\nSa sündisid 20 aastat tagasi\n\n0:52 2:16 3:38 \nYou were born in 2001\nju wər bɔrn ɪn 2001\nSa oled sündinud 2001. aastal\n\n1:09 2:32 3:54 \nI was born in 2001\naɪ wɑz bɔrn ɪn 2001\nOlen sündinud 2001. aastal\n\n\n\nÕpetajatele ja koolidele:\nSee video on avaldatud Creative Commonsi litsentsi all.\n  CC BY 3.0 https://creativecommons.org/licenses/by/3.0/ \nKasutage seda videot julgelt oma tundides!\n\nLokaliseerimiseks kasutame Google'i tõlke teenust. Kui leiate vigu, palun andke meile sellest teada.\n"
    },
    {
      "Lang": "eu",
      "Title": "Ingelesezko gramatika ariketak | simple British ⭐️ #53 was born",
      "Description": "Ikasi ingelesezko gramatika! Aldatu esaldi batean hitzak.\n\n\n\n0:04 1:29 2:51 \nHe was born in 2001\nhi wɑz bɔrn ɪn 2001\n2001ean jaio zen\n\n0:21 1:46 3:08 \nHe was born 20 years ago\nhi wɑz bɔrn 20 jɪrz əˈgoʊ\nDuela 20 urte jaio zen\n\n0:36 2:00 3:22 \nYou were born 20 years ago\nju wər bɔrn 20 jɪrz əˈgoʊ\nDuela 20 urte jaio zinen\n\n0:52 2:16 3:38 \nYou were born in 2001\nju wər bɔrn ɪn 2001\n2001ean jaio zinen\n\n1:09 2:32 3:54 \nI was born in 2001\naɪ wɑz bɔrn ɪn 2001\n2001ean jaio nintzen\n\n\n\nIrakasleei eta ikastetxeei:\nBideo hau Creative Commons lizentziapean argitaratzen da.\n  CC BY 3.0 https://creativecommons.org/licenses/by/3.0/ \nEz ahaztu bideo hau zure klaseetan erabiltzeko!\n\nGoogle Translate zerbitzua erabiltzen dugu lokalizaziorako. Akats batzuk aurkitzen badituzu, adierazi iezaguzu\n"
    },
    {
      "Lang": "fa",
      "Title": "تمرین های دستور زبان انگلیسی | ساده انگلیسی ⭐️ #53 was born",
      "Description": "گرامر انگلیسی را بیاموزید! یک کلمه را در یک جمله تغییر دهید.\n\n\n\n0:04 1:29 2:51 \nHe was born in 2001\nhi wɑz bɔrn ɪn 2001\nوی در سال 2001 به دنیا آمد\n\n0:21 1:46 3:08 \nHe was born 20 years ago\nhi wɑz bɔrn 20 jɪrz əˈgoʊ\nاو 20 سال پیش به دنیا آمد\n\n0:36 2:00 3:22 \nYou were born 20 years ago\nju wər bɔrn 20 jɪrz əˈgoʊ\nشما 20 سال پیش متولد شده اید\n\n0:52 2:16 3:38 \nYou were born in 2001\nju wər bɔrn ɪn 2001\nشما در سال 2001 متولد شده اید\n\n1:09 2:32 3:54 \nI was born in 2001\naɪ wɑz bɔrn ɪn 2001\nمن متولد سال 2001 هستم\n\n\n\nبه معلمان و مدارس:\nاین ویدیو تحت مجوز Creative Commons منتشر شده است.\n  CC BY 3.0 https://creativecommons.org/licenses/by/3.0/ \nدر استفاده از این فیلم در کلاس های خود احساس راحتی کنید!\n\nما از خدمات Google Translate برای محلی سازی استفاده می کنیم. اگر شما برخی از اشتباهات ، لطفا به ما اطلاع دهید.\n"
    },
    {
      "Lang": "fi",
      "Title": "Englannin kieliopin harjoitukset | Yksinkertainen brittiläinen ⭐️ #53 was born",
      "Description": "Opi englannin kielioppi! Vaihda sana lauseessa.\n\n\n\n0:04 1:29 2:51 \nHe was born in 2001\nhi wɑz bɔrn ɪn 2001\nHän syntyi vuonna 2001\n\n0:21 1:46 3:08 \nHe was born 20 years ago\nhi wɑz bɔrn 20 jɪrz əˈgoʊ\nHän syntyi 20 vuotta sitten\n\n0:36 2:00 3:22 \nYou were born 20 years ago\nju wər bɔrn 20 jɪrz əˈgoʊ\nSinä olet syntynyt 20 vuotta sitten\n\n0:52 2:16 3:38 \nYou were born in 2001\nju wər bɔrn ɪn 2001\nOlet syntynyt vuonna 2001\n\n1:09 2:32 3:54 \nI was born in 2001\naɪ wɑz bɔrn ɪn 2001\nOlen syntynyt vuonna 2001\n\n\n\nOpettajille ja kouluille:\nTämä video on julkaistu Creative Commons -lisenssillä.\n  CC BY 3.0 https://creativecommons.org/licenses/by/3.0/ \nVoit vapaasti käyttää tätä videota luokissa!\n\nKäytämme lokalisointiin Google Translate -palvelua. Jos löydät virheitä, ota meihin yhteyttä.\n"
    },
    {
      "Lang": "fil",
      "Title": "Pagsasanay sa grammar ng Ingles | Simple British ⭐️ #53 was born",
      "Description": "Alamin ang grammar ng Ingles! Baguhin ang isang salita sa isang pangungusap.\n\n\n\n0:04 1:29 2:51 \nHe was born in 2001\nhi wɑz bɔrn ɪn 2001\nIpinanganak siya noong 2001\n\n0:21 1:46 3:08 \nHe was born 20 years ago\nhi wɑz bɔrn 20 jɪrz əˈgoʊ\nIpinanganak siya 20 taon na ang nakalilipas\n\n0:36 2:00 3:22 \nYou were born 20 years ago\nju wər bɔrn 20 jɪrz əˈgoʊ\nIpinanganak ka 20 taon na ang nakalilipas\n\n0:52 2:16 3:38 \nYou were born in 2001\nju wər bɔrn ɪn 2001\nIpinanganak ka noong 2001\n\n1:09 2:32 3:54 \nI was born in 2001\naɪ wɑz bɔrn ɪn 2001\nIpinanganak ako noong 2001\n\n\n\nSa mga guro at paaralan:\nAng video na ito ay nai-publish sa ilalim ng Lisensya ng Creative Commons.\n  CC BY 3.0 https://creativecommons.org/licenses/by/3.0/ \nHuwag mag-atubiling gamitin ang video na ito sa iyong mga klase!\n\nWe use Google Translate service for localization. If you find some mistakes, please let us know.\n"
    },
    {
      "Lang": "fr",
      "Title": "Exercices de grammaire anglaise | Facile Britanique ⭐️ #53 was born",
      "Description": "Apprenez la grammaire anglaise! Changer un mot dans une phrase.\n\n\n\n0:04 1:29 2:51 \nHe was born in 2001\nhi wɑz bɔrn ɪn 2001\nIl est né en 2001\n\n0:21 1:46 3:08 \nHe was born 20 years ago\nhi wɑz bɔrn 20 jɪrz əˈgoʊ\nIl est né il y a 20 ans\n\n0:36 2:00 3:22 \nYou were born 20 years ago\nju wər bɔrn 20 jɪrz əˈgoʊ\nTu es né il y a 20 ans\n\n0:52 2:16 3:38 \nYou were born in 2001\nju wər bɔrn ɪn 2001\nVous êtes né en 2001\n\n1:09 2:32 3:54 \nI was born in 2001\naɪ wɑz bɔrn ɪn 2001\nJe suis né en 2001\n\n\n\nAux enseignants et aux écoles:\nCette vidéo est publiée sous licence Creative Commons.\n  CC BY 3.0 https://creativecommons.org/licenses/by/3.0/ \nN'hésitez pas à utiliser cette vidéo dans vos cours!\n\nNous utilisons le service Google Translate pour la localisation. Si vous trouvez des erreurs, veuillez nous en informer.\n"
    },
    {
      "Lang": "fy",
      "Title": "Ingelske oefeningen foar grammatika | Ienfâldich Britsk ⭐️ #53 was born",
      "Description": "Learje Ingelske grammatika! Feroarje in wurd yn in sin.\n\n\n\n0:04 1:29 2:51 \nHe was born in 2001\nhi wɑz bɔrn ɪn 2001\nHy waard berne yn 2001\n\n0:21 1:46 3:08 \nHe was born 20 years ago\nhi wɑz bɔrn 20 jɪrz əˈgoʊ\nHy waard 20 jier lyn berne\n\n0:36 2:00 3:22 \nYou were born 20 years ago\nju wər bɔrn 20 jɪrz əˈgoʊ\nJo binne 20 jier lyn berne\n\n0:52 2:16 3:38 \nYou were born in 2001\nju wər bɔrn ɪn 2001\nJo binne berne yn 2001\n\n1:09 2:32 3:54 \nI was born in 2001\naɪ wɑz bɔrn ɪn 2001\nIk bin berne yn 2001\n\n\n\nOan dosinten en skoallen:\nDizze fideo wurdt publisearre ûnder Creative Commons License.\n  CC BY 3.0 https://creativecommons.org/licenses/by/3.0/ \nFiel jo frij om dizze fideo te brûken yn jo klassen!\n\nWy brûke Google Translate tsjinst foar lokalisaasje. As jo wat flaters fine, lit it ús dan witte.\n"
    },
    {
      "Lang": "gd",
      "Title": "Eacarsaichean gràmair Beurla | Gu sìmplidh Breatannach ⭐️ #53 was born",
      "Description": "Ionnsaich gràmar Beurla! Atharraich facal ann an seantans.\n\n\n\n0:04 1:29 2:51 \nHe was born in 2001\nhi wɑz bɔrn ɪn 2001\nRugadh e ann an 2001\n\n0:21 1:46 3:08 \nHe was born 20 years ago\nhi wɑz bɔrn 20 jɪrz əˈgoʊ\nRugadh e 20 bliadhna air ais\n\n0:36 2:00 3:22 \nYou were born 20 years ago\nju wər bɔrn 20 jɪrz əˈgoʊ\nRugadh tu 20 bliadhna air ais\n\n0:52 2:16 3:38 \nYou were born in 2001\nju wər bɔrn ɪn 2001\nRugadh tu ann an 2001\n\n1:09 2:32 3:54 \nI was born in 2001\naɪ wɑz bɔrn ɪn 2001\nRugadh mi ann an 2001\n\n\n\nDo thidsearan agus sgoiltean:\nTha a ’bhidio seo air fhoillseachadh fo Creative Commons License.\n  CC BY 3.0 https://creativecommons.org/licenses/by/3.0/ \nFaodaidh tu am bhidio seo a chleachdadh anns na clasaichean agad!\n\nBidh sinn a ’cleachdadh seirbheis Google Translate airson sgìreachadh. Ma lorgas tu cuid de mhearachdan, feuch an innis thu dhuinn.\n"
    },
    {
      "Lang": "gl",
      "Title": "Exercicios de gramática inglesa | Sinxelo Británico ⭐️ #53 was born",
      "Description": "Aprende gramática inglesa! Cambia unha palabra nunha frase.\n\n\n\n0:04 1:29 2:51 \nHe was born in 2001\nhi wɑz bɔrn ɪn 2001\nNaceu no 2001\n\n0:21 1:46 3:08 \nHe was born 20 years ago\nhi wɑz bɔrn 20 jɪrz əˈgoʊ\nNaceu hai 20 anos\n\n0:36 2:00 3:22 \nYou were born 20 years ago\nju wər bɔrn 20 jɪrz əˈgoʊ\nNaceu hai 20 anos\n\n0:52 2:16 3:38 \nYou were born in 2001\nju wər bɔrn ɪn 2001\nNaceu no 2001\n\n1:09 2:32 3:54 \nI was born in 2001\naɪ wɑz bɔrn ɪn 2001\nNacín no 2001\n\n\n\nPara profesores e colexios:\nEste vídeo está publicado baixo a licenza Creative Commons.\n  CC BY 3.0 https://creativecommons.org/licenses/by/3.0/ \nNon dubides en usar este vídeo nas túas clases.\n\nUsamos o servizo Google Translate para a súa localización. Se atopas algún erro, comunícanos.\n"
    },
    {
      "Lang": "gu",
      "Title": "અંગ્રેજી વ્યાકરણ વ્યાયામ | સરળ બ્રિટિશ ⭐️ #53 was born",
      "Description": "અંગ્રેજી વ્યાકરણ શીખો! એક વાક્યમાં એક શબ્દ બદલો.\n\n\n\n0:04 1:29 2:51 \nHe was born in 2001\nhi wɑz bɔrn ɪn 2001\nતેનો જન્મ 2001 માં થયો હતો\n\n0:21 1:46 3:08 \nHe was born 20 years ago\nhi wɑz bɔrn 20 jɪrz əˈgoʊ\nતેનો જન્મ 20 વર્ષ પહેલા થયો હતો\n\n0:36 2:00 3:22 \nYou were born 20 years ago\nju wər bɔrn 20 jɪrz əˈgoʊ\nતમારો જન્મ 20 વર્ષ પહેલા થયો હતો\n\n0:52 2:16 3:38 \nYou were born in 2001\nju wər bɔrn ɪn 2001\nતમારો જન્મ 2001 માં થયો હતો\n\n1:09 2:32 3:54 \nI was born in 2001\naɪ wɑz bɔrn ɪn 2001\nમારો જન્મ 2001 માં થયો હતો\n\n\n\nશિક્ષકો અને શાળાઓને:\nઆ વિડિઓ ક્રિએટિવ કonsમન્સ લાઇસન્સ હેઠળ પ્રકાશિત છે.\n  CC BY 3.0 https://creativecommons.org/licenses/by/3.0/ \nતમારા વર્ગોમાં આ વિડિઓનો ઉપયોગ કરવા માટે મફત લાગે!\n\nઅમે સ્થાનિકીકરણ માટે Google ભાષાંતર સેવાનો ઉપયોગ કરીએ છીએ. જો તમને કેટલીક ભૂલો લાગે છે, તો કૃપા કરીને અમને જણાવો.\n"
    },
    {
      "Lang": "ha",
      "Title": "Darasi na ilimin nahawu na Turanci | Mai sauki Birtaniya ⭐️ #53 was born",
      "Description": "Koyi ilimin nahawu Turanci! Canja kalma a cikin jumla.\n\n\n\n0:04 1:29 2:51 \nHe was born in 2001\nhi wɑz bɔrn ɪn 2001\nAn haifeshi a shekara ta 2001\n\n0:21 1:46 3:08 \nHe was born 20 years ago\nhi wɑz bɔrn 20 jɪrz əˈgoʊ\nAn haifeshi shekaru 20 da suka gabata\n\n0:36 2:00 3:22 \nYou were born 20 years ago\nju wər bɔrn 20 jɪrz əˈgoʊ\nAn haife ku shekaru 20 da suka gabata\n\n0:52 2:16 3:38 \nYou were born in 2001\nju wər bɔrn ɪn 2001\nAn haife ku ne a shekara ta 2001\n\n1:09 2:32 3:54 \nI was born in 2001\naɪ wɑz bɔrn ɪn 2001\nAn haife ni a shekara ta 2001\n\n\n\nGa malamai da makarantu:\nWannan bidiyon an buga shi a ƙarƙashin lasisin Creative Commons.\n  CC BY 3.0 https://creativecommons.org/licenses/by/3.0/ \nJin kyauta don amfani da wannan bidiyon a cikin azuzuwanku!\n\nMuna amfani da sabis na Google Fassara don fassarar. Idan ka sami wasu kurakurai, da fatan za a sanar da mu.\n"
    },
    {
      "Lang": "hi",
      "Title": "अंग्रेजी व्याकरण अभ्यास | सरल अंग्रेजों ⭐️ #53 was born",
      "Description": "अंग्रेजी व्याकरण जानें! एक वाक्य में एक शब्द बदलें।\n\n\n\n0:04 1:29 2:51 \nHe was born in 2001\nhi wɑz bɔrn ɪn 2001\nउनका जन्म 2001 में हुआ था\n\n0:21 1:46 3:08 \nHe was born 20 years ago\nhi wɑz bɔrn 20 jɪrz əˈgoʊ\nउनका जन्म 20 साल पहले हुआ था\n\n0:36 2:00 3:22 \nYou were born 20 years ago\nju wər bɔrn 20 jɪrz əˈgoʊ\nआपका जन्म 20 साल पहले हुआ था\n\n0:52 2:16 3:38 \nYou were born in 2001\nju wər bɔrn ɪn 2001\nआपका जन्म 2001 में हुआ था\n\n1:09 2:32 3:54 \nI was born in 2001\naɪ wɑz bɔrn ɪn 2001\nमेरा जन्म 2001 में हुआ था\n\n\n\nशिक्षकों और स्कूलों के लिए:\nयह वीडियो क्रिएटिव कॉमन्स लाइसेंस के तहत प्रकाशित हुआ है।\n  CC BY 3.0 https://creativecommons.org/licenses/by/3.0/ \nअपनी कक्षाओं में इस वीडियो का उपयोग करने के लिए स्वतंत्र महसूस करें!\n\nहम स्थानीयकरण के लिए Google अनुवाद सेवा का उपयोग करते हैं। यदि आप कुछ गलतियाँ पाते हैं, तो कृपया हमें बताएँ।\n"
    },
    {
      "Lang": "hr",
      "Title": "Gramatičke vježbe engleskog jezika | Jednostavan britanski ⭐️ #53 was born",
      "Description": "Naučite englesku gramatiku! Promijenite riječ u rečenici.\n\n\n\n0:04 1:29 2:51 \nHe was born in 2001\nhi wɑz bɔrn ɪn 2001\nRođen je 2001. godine\n\n0:21 1:46 3:08 \nHe was born 20 years ago\nhi wɑz bɔrn 20 jɪrz əˈgoʊ\nRođen je prije 20 godina\n\n0:36 2:00 3:22 \nYou were born 20 years ago\nju wər bɔrn 20 jɪrz əˈgoʊ\nRođeni ste prije 20 godina\n\n0:52 2:16 3:38 \nYou were born in 2001\nju wər bɔrn ɪn 2001\nRođeni ste 2001. godine\n\n1:09 2:32 3:54 \nI was born in 2001\naɪ wɑz bɔrn ɪn 2001\nRođena sam 2001. godine\n\n\n\nNastavnicima i školama:\nOvaj videozapis objavljen je pod licencom Creative Commons.\n  CC BY 3.0 https://creativecommons.org/licenses/by/3.0/ \nSlobodno upotrijebite ovaj videozapis u svojim predavanjima!\n\nZa lokalizaciju koristimo uslugu Google Translate. Ako pronađete neke pogreške, javite nam se.\n"
    },
    {
      "Lang": "hu",
      "Title": "Angol nyelvtan gyakorlatok | Egyszerű angol ⭐️ #53 was born",
      "Description": "Tanulj angol nyelvtant! Változtasson egy szót egy mondatban.\n\n\n\n0:04 1:29 2:51 \nHe was born in 2001\nhi wɑz bɔrn ɪn 2001\n2001-ben született\n\n0:21 1:46 3:08 \nHe was born 20 years ago\nhi wɑz bɔrn 20 jɪrz əˈgoʊ\n20 évvel ezelőtt született\n\n0:36 2:00 3:22 \nYou were born 20 years ago\nju wər bɔrn 20 jɪrz əˈgoʊ\n20 évvel ezelőtt született\n\n0:52 2:16 3:38 \nYou were born in 2001\nju wər bɔrn ɪn 2001\n2001-ben született\n\n1:09 2:32 3:54 \nI was born in 2001\naɪ wɑz bɔrn ɪn 2001\n2001-ben születtem\n\n\n\nTanároknak és iskoláknak:\nEz a videó a Creative Commons License alatt jelenik meg.\n  CC BY 3.0 https://creativecommons.org/licenses/by/3.0/ \nNyugodtan használja ezt a videót az osztályokban!\n\nA lokalizációhoz a Google Translate szolgáltatást használjuk. Ha hibát talál, kérjük, ossza meg velünk.\n"
    },
    {
      "Lang": "hy",
      "Title": "Անգլերենի քերականական վարժություններ | Պարզ Բրիտանական ⭐️ #53 was born",
      "Description": "Իմացեք անգլերեն քերականությունը: Մի նախադասությամբ մի բառ փոխեք:\n\n\n\n0:04 1:29 2:51 \nHe was born in 2001\nhi wɑz bɔrn ɪn 2001\nՆա ծնվել է 2001 թ\n\n0:21 1:46 3:08 \nHe was born 20 years ago\nhi wɑz bɔrn 20 jɪrz əˈgoʊ\nՆա ծնվել է 20 տարի առաջ\n\n0:36 2:00 3:22 \nYou were born 20 years ago\nju wər bɔrn 20 jɪrz əˈgoʊ\nԴուք ծնվել եք 20 տարի առաջ\n\n0:52 2:16 3:38 \nYou were born in 2001\nju wər bɔrn ɪn 2001\nԴուք ծնվել եք 2001 թվականին\n\n1:09 2:32 3:54 \nI was born in 2001\naɪ wɑz bɔrn ɪn 2001\nԵս ծնվել եմ 2001-ին\n\n\n\nՈւսուցիչներին և դպրոցներին.\nԱյս տեսանյութը հրապարակված է Creative Commons արտոնագրի ներքո:\n  CC BY 3.0 https://creativecommons.org/licenses/by/3.0/ \nԱզատորեն օգտվեք այս տեսանյութից ձեր դասերից:\n\nՄենք օգտագործում ենք Google Translate ծառայությունը տեղայնացման համար: Եթե որոշ սխալներ եք գտնում, խնդրում ենք տեղեկացնել մեզ:\n"
    },
    {
      "Lang": "id",
      "Title": "Latihan tata bahasa Inggris | Sederhana Inggris ⭐️ #53 was born",
      "Description": "Belajar tata bahasa Inggris! Ubah kata dalam kalimat.\n\n\n\n0:04 1:29 2:51 \nHe was born in 2001\nhi wɑz bɔrn ɪn 2001\nIa lahir pada tahun 2001\n\n0:21 1:46 3:08 \nHe was born 20 years ago\nhi wɑz bɔrn 20 jɪrz əˈgoʊ\nIa dilahirkan 20 tahun lalu\n\n0:36 2:00 3:22 \nYou were born 20 years ago\nju wər bɔrn 20 jɪrz əˈgoʊ\nAnda dilahirkan 20 tahun yang lalu\n\n0:52 2:16 3:38 \nYou were born in 2001\nju wər bɔrn ɪn 2001\nAnda dilahirkan pada tahun 2001\n\n1:09 2:32 3:54 \nI was born in 2001\naɪ wɑz bɔrn ɪn 2001\nSaya lahir pada tahun 2001\n\n\n\nKepada guru dan sekolah:\nVideo ini diterbitkan di bawah Lisensi Creative Commons.\n  CC BY 3.0 https://creativecommons.org/licenses/by/3.0/ \nJangan ragu untuk menggunakan video ini di kelas Anda!\n\nKami menggunakan layanan Google Terjemahan untuk pelokalan. Jika Anda menemukan beberapa kesalahan, beri tahu kami.\n"
    },
    {
      "Lang": "ig",
      "Title": "Ọmụmụ asụsụ ụtọ asụsụ Bekee | Dị Mfe Onye Britain ⭐️ #53 was born",
      "Description": "Muta asusu bekee! Gbanwee okwu na ahịrịokwu.\n\n\n\n0:04 1:29 2:51 \nHe was born in 2001\nhi wɑz bɔrn ɪn 2001\nAmuru ya n’aho 2001\n\n0:21 1:46 3:08 \nHe was born 20 years ago\nhi wɑz bɔrn 20 jɪrz əˈgoʊ\nAmụrụ ya afọ 20 gara aga\n\n0:36 2:00 3:22 \nYou were born 20 years ago\nju wər bɔrn 20 jɪrz əˈgoʊ\nA mụrụ gị afọ iri abụọ gara aga\n\n0:52 2:16 3:38 \nYou were born in 2001\nju wər bɔrn ɪn 2001\nA mụrụ gị n’afọ 2001\n\n1:09 2:32 3:54 \nI was born in 2001\naɪ wɑz bɔrn ɪn 2001\nAmụrụ m n’afọ 2001\n\n\n\nMaka ndị nkuzi na ụlọ akwụkwọ:\nEdere vidiyo a n'okpuru ikikere Creative Commons.\n  CC BY 3.0 https://creativecommons.org/licenses/by/3.0/ \nNwere onwe gị iji vidiyo a na klaasị gị!\n\nAnyị na-eji ọrụ ntụgharị Google emegharị. Ọ bụrụ n’ịhụ ụfọdụ mmejọ, biko mee ka anyị mara.\n"
    },
    {
      "Lang": "is",
      "Title": "Enskar málfræðiæfingar | Einfalt Bretar ⭐️ #53 was born",
      "Description": "Lærðu ensku málfræði! Skiptu um orð í setningu.\n\n\n\n0:04 1:29 2:51 \nHe was born in 2001\nhi wɑz bɔrn ɪn 2001\nHann fæddist árið 2001\n\n0:21 1:46 3:08 \nHe was born 20 years ago\nhi wɑz bɔrn 20 jɪrz əˈgoʊ\nHann fæddist fyrir 20 árum\n\n0:36 2:00 3:22 \nYou were born 20 years ago\nju wər bɔrn 20 jɪrz əˈgoʊ\nÞú fæddist fyrir 20 árum\n\n0:52 2:16 3:38 \nYou were born in 2001\nju wər bɔrn ɪn 2001\nÞú fæddist árið 2001\n\n1:09 2:32 3:54 \nI was born in 2001\naɪ wɑz bɔrn ɪn 2001\nÉg fæddist árið 2001\n\n\n\nTil kennara og skóla:\nÞetta myndband er birt undir Creative Commons leyfi.\n  CC BY 3.0 https://creativecommons.org/licenses/by/3.0/ \nEkki hika við að nota þetta myndband í bekkjum þínum!\n\nVið notum Google Translate þjónustu til að staðsetja. Láttu okkur vita ef þú finnur fyrir einhverjum mistökum.\n"
    },
    {
      "Lang": "it",
      "Title": "Esercizi di grammatica inglese | Semplice Britannico ⭐️ #53 was born",
      "Description": "Impara la grammatica inglese! Cambia una parola in una frase.\n\n\n\n0:04 1:29 2:51 \nHe was born in 2001\nhi wɑz bɔrn ɪn 2001\nÈ nato nel 2001\n\n0:21 1:46 3:08 \nHe was born 20 years ago\nhi wɑz bɔrn 20 jɪrz əˈgoʊ\nÈ nato 20 anni fa\n\n0:36 2:00 3:22 \nYou were born 20 years ago\nju wər bɔrn 20 jɪrz əˈgoʊ\nSei nato 20 anni fa\n\n0:52 2:16 3:38 \nYou were born in 2001\nju wər bɔrn ɪn 2001\nSei nato nel 2001\n\n1:09 2:32 3:54 \nI was born in 2001\naɪ wɑz bɔrn ɪn 2001\nSono nato nel 2001\n\n\n\nPer insegnanti e scuole:\nQuesto video è pubblicato sotto la licenza Creative Commons.\n  CC BY 3.0 https://creativecommons.org/licenses/by/3.0/ \nSentiti libero di usare questo video nelle tue lezioni!\n\nUtilizziamo il servizio Google Translate per la localizzazione. Se trovi qualche errore, faccelo sapere.\n"
    },
    {
      "Lang": "iw",
      "Title": "תרגילי דקדוק באנגלית | פשוט בריטי ⭐️ #53 was born",
      "Description": "למד דקדוק באנגלית! שנה מילה במשפט.\n\n\n\n0:04 1:29 2:51 \nHe was born in 2001\nhi wɑz bɔrn ɪn 2001\nהוא נולד בשנת 2001\n\n0:21 1:46 3:08 \nHe was born 20 years ago\nhi wɑz bɔrn 20 jɪrz əˈgoʊ\nהוא נולד לפני 20 שנה\n\n0:36 2:00 3:22 \nYou were born 20 years ago\nju wər bɔrn 20 jɪrz əˈgoʊ\nנולדת לפני 20 שנה\n\n0:52 2:16 3:38 \nYou were born in 2001\nju wər bɔrn ɪn 2001\nנולדת בשנת 2001\n\n1:09 2:32 3:54 \nI was born in 2001\naɪ wɑz bɔrn ɪn 2001\nנולדתי בשנת 2001\n\n\n\nלמורים ובתי ספר:\nסרטון זה מתפרסם תחת רישיון Creative Commons.\n  CC BY 3.0 https://creativecommons.org/licenses/by/3.0/ \nאל תהסס להשתמש בסרטון זה בשיעורים שלך!\n\nאנו משתמשים בשירות Google Translate לצורך לוקליזציה. אם אתה מוצא טעויות, אנא הודע לנו על כך.\n"
    },
    {
      "Lang": "ja",
      "Title": "英文法練習 | シンプル イギリス ⭐️ #53 was born",
      "Description": "英語の文法を学びましょう！ 文中の単語を変更します。\n\n\n\n0:04 1:29 2:51 \nHe was born in 2001\nhi wɑz bɔrn ɪn 2001\n彼は2001年に生まれました\n\n0:21 1:46 3:08 \nHe was born 20 years ago\nhi wɑz bɔrn 20 jɪrz əˈgoʊ\n彼は20年前に生まれました\n\n0:36 2:00 3:22 \nYou were born 20 years ago\nju wər bɔrn 20 jɪrz əˈgoʊ\nあなたは20年前に生まれました\n\n0:52 2:16 3:38 \nYou were born in 2001\nju wər bɔrn ɪn 2001\nあなたは2001年に生まれました\n\n1:09 2:32 3:54 \nI was born in 2001\naɪ wɑz bɔrn ɪn 2001\n私は2001年に生まれました\n\n\n\n先生と学校へ：\nこのビデオは、クリエイティブコモンズライセンスの下で公開されています。\n  CC BY 3.0 https://creativecommons.org/licenses/by/3.0/ \nこのビデオをクラスで自由に使用してください！\n\nローカライズにはGoogle翻訳サービスを使用しています。間違いを見つけた場合はお知らせください。\n"
    },
    {
      "Lang": "jv",
      "Title": "Latihan grammar Inggris | Prasaja Inggris ⭐️ #53 was born",
      "Description": "Sinau tata basa Inggris! Ngganti tembung sajrone ukara.\n\n\n\n0:04 1:29 2:51 \nHe was born in 2001\nhi wɑz bɔrn ɪn 2001\nDheweke lair ing taun 2001\n\n0:21 1:46 3:08 \nHe was born 20 years ago\nhi wɑz bɔrn 20 jɪrz əˈgoʊ\nDheweke lair 20 taun kepungkur\n\n0:36 2:00 3:22 \nYou were born 20 years ago\nju wər bɔrn 20 jɪrz əˈgoʊ\nSampeyan lair 20 taun kepungkur\n\n0:52 2:16 3:38 \nYou were born in 2001\nju wər bɔrn ɪn 2001\nSampeyan lair taun 2001\n\n1:09 2:32 3:54 \nI was born in 2001\naɪ wɑz bɔrn ɪn 2001\nKula lair taun 2001\n\n\n\nTumrap guru lan sekolah:\nVideo iki diterbitake ing lisensi Creative Commons.\n  CC BY 3.0 https://creativecommons.org/licenses/by/3.0/ \nOjo nggunakake video iki ing kelas sampeyan!\n\nKita nggunakake layanan Google Translate kanggo lokalisasi. Yen sampeyan nemokake sawetara kesalahan, kabari.\n"
    },
    {
      "Lang": "ka",
      "Title": "ინგლისური გრამატიკის სავარჯიშოები | მარტივი ბრიტანული ⭐️ #53 was born",
      "Description": "შეიტყვეთ ინგლისური ენის გრამატიკა! წინადადებაში შეცვალეთ სიტყვა.\n\n\n\n0:04 1:29 2:51 \nHe was born in 2001\nhi wɑz bɔrn ɪn 2001\nიგი დაიბადა 2001 წელს\n\n0:21 1:46 3:08 \nHe was born 20 years ago\nhi wɑz bɔrn 20 jɪrz əˈgoʊ\nის 20 წლის წინ დაიბადა\n\n0:36 2:00 3:22 \nYou were born 20 years ago\nju wər bɔrn 20 jɪrz əˈgoʊ\nთქვენ დაიბადეთ 20 წლის წინ\n\n0:52 2:16 3:38 \nYou were born in 2001\nju wər bɔrn ɪn 2001\nთქვენ დაიბადა 2001 წელს\n\n1:09 2:32 3:54 \nI was born in 2001\naɪ wɑz bɔrn ɪn 2001\nმე 2001 წელს დავიბადე\n\n\n\nმასწავლებლებსა და სკოლებს:\nეს ვიდეო გამოქვეყნებულია Creative Commons- ის ლიცენზიით.\n  CC BY 3.0 https://creativecommons.org/licenses/by/3.0/ \nშეგიძლიათ გამოიყენოთ ეს ვიდეო თქვენს კლასებში!\n\nჩვენ ვიყენებთ Google Translate სერვისს ლოკალიზაციისთვის. თუ შეცდომებს იპოვნით, გთხოვთ, შეგვატყობინოთ.\n"
    },
    {
      "Lang": "kk",
      "Title": "Ағылшын грамматикалық жаттығулары | Қарапайым Британдық ⭐️ #53 was born",
      "Description": "Ағылшын грамматикасын үйрен! Сөйлемдегі сөзді өзгертіңіз.\n\n\n\n0:04 1:29 2:51 \nHe was born in 2001\nhi wɑz bɔrn ɪn 2001\nОл 2001 жылы туған\n\n0:21 1:46 3:08 \nHe was born 20 years ago\nhi wɑz bɔrn 20 jɪrz əˈgoʊ\nОл 20 жыл бұрын дүниеге келген\n\n0:36 2:00 3:22 \nYou were born 20 years ago\nju wər bɔrn 20 jɪrz əˈgoʊ\nСіз 20 жыл бұрын дүниеге келгенсіз\n\n0:52 2:16 3:38 \nYou were born in 2001\nju wər bɔrn ɪn 2001\nСіз 2001 жылы туғансыз\n\n1:09 2:32 3:54 \nI was born in 2001\naɪ wɑz bɔrn ɪn 2001\nМен 2001 жылы тудым\n\n\n\nОқытушылар мен мектептерге:\nБұл бейне Creative Commons лицензиясы бойынша жарияланған.\n  CC BY 3.0 https://creativecommons.org/licenses/by/3.0/ \nБұл бейнені өз сабақтарыңызда қолдануға болады!\n\nGoogle Translate қызметін локализациялау үшін қолданамыз. Егер сіз қате тапсаңыз, бізге хабарлаңыз.\n"
    },
    {
      "Lang": "km",
      "Title": "លំហាត់វេយ្យាករណ៍អង់គ្លេស | សាមញ្ញ អង់គ្លេស ⭐️ #53 was born",
      "Description": "រៀនវេយ្យាករណ៍អង់គ្លេស! ផ្លាស់ប្តូរពាក្យនៅក្នុងប្រយោគមួយ។\n\n\n\n0:04 1:29 2:51 \nHe was born in 2001\nhi wɑz bɔrn ɪn 2001\nគាត់កើតនៅឆ្នាំ ២០០១\n\n0:21 1:46 3:08 \nHe was born 20 years ago\nhi wɑz bɔrn 20 jɪrz əˈgoʊ\nគាត់បានកើតកាលពី ២០ ឆ្នាំមុន\n\n0:36 2:00 3:22 \nYou were born 20 years ago\nju wər bɔrn 20 jɪrz əˈgoʊ\nអ្នកបានកើតកាលពី ២០ ឆ្នាំមុន\n\n0:52 2:16 3:38 \nYou were born in 2001\nju wər bɔrn ɪn 2001\nអ្នកកើតនៅឆ្នាំ ២០០១\n\n1:09 2:32 3:54 \nI was born in 2001\naɪ wɑz bɔrn ɪn 2001\nខ្ញុំកើតនៅឆ្នាំ ២០០១\n\n\n\nជូនដល់គ្រូនិងសាលា៖\nវីដេអូនេះត្រូវបានផ្សព្វផ្សាយក្រោមអាជ្ញាប័ណ្ណច្នៃប្រឌិត។\n  CC BY 3.0 https://creativecommons.org/licenses/by/3.0/ \nសូមប្រើវីដេអូនេះនៅក្នុងថ្នាក់របស់អ្នកដោយឥតគិតថ្លៃ!\n\nយើងប្រើសេវាកម្មបកប្រែហ្គូហ្គលសម្រាប់ការធ្វើមូលដ្ឋានីយកម្ម។ ប្រសិនបើអ្នករកឃើញកំហុសខ្លះសូមប្រាប់ឱ្យយើងដឹង។\n"
    },
    {
      "Lang": "kn",
      "Title": "ಇಂಗ್ಲಿಷ್ ವ್ಯಾಕರಣ ವ್ಯಾಯಾಮ | ಸರಳ ಬ್ರಿಟಿಷ್ ⭐️ #53 was born",
      "Description": "ಇಂಗ್ಲಿಷ್ ವ್ಯಾಕರಣ ಕಲಿಯಿರಿ! ಒಂದು ವಾಕ್ಯದಲ್ಲಿ ಪದವನ್ನು ಬದಲಾಯಿಸಿ.\n\n\n\n0:04 1:29 2:51 \nHe was born in 2001\nhi wɑz bɔrn ɪn 2001\nಅವರು 2001 ರಲ್ಲಿ ಜನಿಸಿದರು\n\n0:21 1:46 3:08 \nHe was born 20 years ago\nhi wɑz bɔrn 20 jɪrz əˈgoʊ\nಅವರು 20 ವರ್ಷಗಳ ಹಿಂದೆ ಜನಿಸಿದರು\n\n0:36 2:00 3:22 \nYou were born 20 years ago\nju wər bɔrn 20 jɪrz əˈgoʊ\nನೀವು 20 ವರ್ಷಗಳ ಹಿಂದೆ ಜನಿಸಿದ್ದೀರಿ\n\n0:52 2:16 3:38 \nYou were born in 2001\nju wər bɔrn ɪn 2001\nನೀವು 2001 ರಲ್ಲಿ ಜನಿಸಿದ್ದೀರಿ\n\n1:09 2:32 3:54 \nI was born in 2001\naɪ wɑz bɔrn ɪn 2001\nನಾನು 2001 ರಲ್ಲಿ ಜನಿಸಿದೆ\n\n\n\nಶಿಕ್ಷಕರು ಮತ್ತು ಶಾಲೆಗಳಿಗೆ:\nಈ ವೀಡಿಯೊವನ್ನು ಕ್ರಿಯೇಟಿವ್ ಕಾಮನ್ಸ್ ಪರವಾನಗಿ ಅಡಿಯಲ್ಲಿ ಪ್ರಕಟಿಸಲಾಗಿದೆ.\n  CC BY 3.0 https://creativecommons.org/licenses/by/3.0/ \nನಿಮ್ಮ ತರಗತಿಗಳಲ್ಲಿ ಈ ವೀಡಿಯೊವನ್ನು ಬಳಸಲು ಹಿಂಜರಿಯಬೇಡಿ!\n\nಸ್ಥಳೀಕರಣಕ್ಕಾಗಿ ನಾವು Google ಅನುವಾದ ಸೇವೆಯನ್ನು ಬಳಸುತ್ತೇವೆ. ನೀವು ಕೆಲವು ತಪ್ಪುಗಳನ್ನು ಕಂಡುಕೊಂಡರೆ, ದಯವಿಟ್ಟು ನಮಗೆ ತಿಳಿಸಿ.\n"
    },
    {
      "Lang": "ko",
      "Title": "영어 문법 연습 | 단순한 영국인 ⭐️ #53 was born",
      "Description": "영어 문법 배우기! 문장에서 단어를 변경하십시오.\n\n\n\n0:04 1:29 2:51 \nHe was born in 2001\nhi wɑz bɔrn ɪn 2001\n그는 2001 년에 태어났다\n\n0:21 1:46 3:08 \nHe was born 20 years ago\nhi wɑz bɔrn 20 jɪrz əˈgoʊ\n그는 20 년 전에 태어났다\n\n0:36 2:00 3:22 \nYou were born 20 years ago\nju wər bɔrn 20 jɪrz əˈgoʊ\n당신은 20 년 전에 태어났습니다\n\n0:52 2:16 3:38 \nYou were born in 2001\nju wər bɔrn ɪn 2001\n당신은 2001 년에 태어났습니다\n\n1:09 2:32 3:54 \nI was born in 2001\naɪ wɑz bɔrn ɪn 2001\n2001 년에 태어났습니다\n\n\n\n교사와 학교 :\n이 비디오는 Creative Commons License에 따라 게시됩니다.\n  CC BY 3.0 https://creativecommons.org/licenses/by/3.0/ \n이 비디오를 수업에 자유롭게 사용하십시오!\n\n현지화를 위해 Google 번역 서비스를 사용합니다. 실수가 있으면 알려주세요.\n"
    },
    {
      "Lang": "ku",
      "Title": "Pratîkên rêzimanê Englishngilîzî | Asan Brîtanî ⭐️ #53 was born",
      "Description": "Gramera Englishngilîzî fêr bibin! Di hevokan de peyvek diguhezin.\n\n\n\n0:04 1:29 2:51 \nHe was born in 2001\nhi wɑz bɔrn ɪn 2001\nEw di 2001-an de hat dinê\n\n0:21 1:46 3:08 \nHe was born 20 years ago\nhi wɑz bɔrn 20 jɪrz əˈgoʊ\nEw 20 sal berê hate dinê\n\n0:36 2:00 3:22 \nYou were born 20 years ago\nju wər bɔrn 20 jɪrz əˈgoʊ\nHûn 20 sal berê çêbûn\n\n0:52 2:16 3:38 \nYou were born in 2001\nju wər bɔrn ɪn 2001\nHûn di 2001-an de çê bûn\n\n1:09 2:32 3:54 \nI was born in 2001\naɪ wɑz bɔrn ɪn 2001\nEz di sala 2001-an de hatim dinê\n\n\n\nJi mamoste û dibistanan re:\nEv vîdyoyê di bin lîsansa Creative Commons-ê de hatî weşandin.\n  CC BY 3.0 https://creativecommons.org/licenses/by/3.0/ \nHêsan e ku hûn vê vîdyoyê di sinifên xwe de bikar bînin!\n\nEm ji bo herêmbûnê karûbarê Google Translate kar dikin. Heke hûn hin xeletiyan bibînin, ji kerema xwe ji me re agahdar bikin.\n"
    },
    {
      "Lang": "ky",
      "Title": "Англис тилинин грамматикасы боюнча көнүгүүлөр | жөнөкөй Британдык ⭐️ #53 was born",
      "Description": "Үйрөнүү Англис тилинин грамматикасы! Сүйлөмдөгү Сөздү өзгөртүү.\n\n\n\n0:04 1:29 2:51 \nHe was born in 2001\nhi wɑz bɔrn ɪn 2001\nАл 2001-жылы туулган\n\n0:21 1:46 3:08 \nHe was born 20 years ago\nhi wɑz bɔrn 20 jɪrz əˈgoʊ\nАл 20 жыл мурун пайда болгон\n\n0:36 2:00 3:22 \nYou were born 20 years ago\nju wər bɔrn 20 jɪrz əˈgoʊ\n20 жыл мурда төрөлгөн\n\n0:52 2:16 3:38 \nYou were born in 2001\nju wər bɔrn ɪn 2001\nСиз 2001-жылы төрөлгөн\n\n1:09 2:32 3:54 \nI was born in 2001\naɪ wɑz bɔrn ɪn 2001\nМен 2001-жылы төрөлгөм\n\n\n\nмугалимдер жана мектептер үчүн:\nБул көргөзмө Creative Commons лиссиэнсийэ усулуобуйатынан жарыяланат.\n  CC BY 3.0 https://creativecommons.org/licenses/by/3.0/ \nСиздин класстары колдонсо болот!\n\nБиз Google локалдаштыруу үчүн Котормо кызматын пайдаланышат. Эгер кээ бир ката болсо, бизге айтып койуу.\n"
    },
    {
      "Lang": "lb",
      "Title": "Englesch Grammatikübungen | Einfach Britesch ⭐️ #53 was born",
      "Description": "Léiert Englesch Grammatik! Ännert e Wuert an engem Saz.\n\n\n\n0:04 1:29 2:51 \nHe was born in 2001\nhi wɑz bɔrn ɪn 2001\nHie gouf 2001 gebuer\n\n0:21 1:46 3:08 \nHe was born 20 years ago\nhi wɑz bɔrn 20 jɪrz əˈgoʊ\nHie gouf virun 20 Joer gebuer\n\n0:36 2:00 3:22 \nYou were born 20 years ago\nju wər bɔrn 20 jɪrz əˈgoʊ\nDir sidd virun 20 Joer gebuer\n\n0:52 2:16 3:38 \nYou were born in 2001\nju wər bɔrn ɪn 2001\nDir sidd 2001 gebuer\n\n1:09 2:32 3:54 \nI was born in 2001\naɪ wɑz bɔrn ɪn 2001\nEch sinn 2001 gebuer\n\n\n\nUn de Schoulmeeschteren an d'Schoulen:\nDëse Video ass ënner der Creative Commons Lizenz verëffentlecht.\n  CC BY 3.0 https://creativecommons.org/licenses/by/3.0/ \nFillt gratis dësen Video zu Ären Klassen ze benotzen!\n\nMir benotzen den Google Translate Service fir d'Lokalisatioun. Wann Dir e puer Feeler fannt, da sot eis w.e.g.\n"
    },
    {
      "Lang": "lo",
      "Title": "ບົດເຝິກຫັດໄວຍາກອນພາສາອັງກິດ | ງ່າຍດາຍ ອັງກິດ ⭐️ #53 was born",
      "Description": "ຮຽນຮູ້ຫລັກໄວຍາກອນພາສາອັງກິດ! ປ່ຽນ ຄຳ ສັບໃນປະໂຫຍກ.\n\n\n\n0:04 1:29 2:51 \nHe was born in 2001\nhi wɑz bɔrn ɪn 2001\nລາວເກີດໃນປີ 2001\n\n0:21 1:46 3:08 \nHe was born 20 years ago\nhi wɑz bɔrn 20 jɪrz əˈgoʊ\nລາວເກີດເມື່ອ 20 ປີກ່ອນ\n\n0:36 2:00 3:22 \nYou were born 20 years ago\nju wər bɔrn 20 jɪrz əˈgoʊ\nທ່ານເກີດເມື່ອ 20 ປີກ່ອນ\n\n0:52 2:16 3:38 \nYou were born in 2001\nju wər bɔrn ɪn 2001\nທ່ານເກີດປີ 2001\n\n1:09 2:32 3:54 \nI was born in 2001\naɪ wɑz bɔrn ɪn 2001\nຂ້ອຍເກີດໃນປີ 2001\n\n\n\nເຖິງຄູອາຈານແລະໂຮງຮຽນ:\nວິດີໂອນີ້ລົງພາຍໃຕ້ໃບອະນຸຍາດສ້າງສັນ.\n  CC BY 3.0 https://creativecommons.org/licenses/by/3.0/ \nຮູ້ສຶກວ່າບໍ່ເສຍຄ່າທີ່ຈະໃຊ້ວິດີໂອນີ້ໃນຫ້ອງຮຽນຂອງທ່ານ!\n\nພວກເຮົາໃຊ້ບໍລິການ Google Translate ສຳ ລັບການແປພາສາທ້ອງຖິ່ນ. ຖ້າທ່ານພົບຂໍ້ຜິດພາດບາງຢ່າງ, ກະລຸນາແຈ້ງພວກເຮົາ.\n"
    },
    {
      "Lang": "lt",
      "Title": "Anglų kalbos gramatikos pratimai | Paprasta Britai ⭐️ #53 was born",
      "Description": "Išmokite anglų kalbos gramatiką! Pakeiskite žodį sakinyje.\n\n\n\n0:04 1:29 2:51 \nHe was born in 2001\nhi wɑz bɔrn ɪn 2001\nJis gimė 2001 m\n\n0:21 1:46 3:08 \nHe was born 20 years ago\nhi wɑz bɔrn 20 jɪrz əˈgoʊ\nJis gimė prieš 20 metų\n\n0:36 2:00 3:22 \nYou were born 20 years ago\nju wər bɔrn 20 jɪrz əˈgoʊ\nJūs gimėte prieš 20 metų\n\n0:52 2:16 3:38 \nYou were born in 2001\nju wər bɔrn ɪn 2001\nGimėte 2001 m\n\n1:09 2:32 3:54 \nI was born in 2001\naɪ wɑz bɔrn ɪn 2001\nAš gimiau 2001 m\n\n\n\nMokytojams ir mokykloms:\nŠis vaizdo įrašas paskelbtas naudojant „Creative Commons“ licenciją.\n  CC BY 3.0 https://creativecommons.org/licenses/by/3.0/ \nNesivaržykite naudotis šiuo vaizdo įrašu savo klasėse!\n\nLokalizavimui naudojame „Google Translate“ paslaugą. Jei radote klaidų, praneškite mums.\n"
    },
    {
      "Lang": "lv",
      "Title": "Angļu valodas gramatikas vingrinājumi | Vienkārši Britu ⭐️ #53 was born",
      "Description": "Mācieties angļu valodas gramatiku! Mainiet vārdu teikumā.\n\n\n\n0:04 1:29 2:51 \nHe was born in 2001\nhi wɑz bɔrn ɪn 2001\nViņš dzimis 2001. gadā\n\n0:21 1:46 3:08 \nHe was born 20 years ago\nhi wɑz bɔrn 20 jɪrz əˈgoʊ\nViņš ir dzimis pirms 20 gadiem\n\n0:36 2:00 3:22 \nYou were born 20 years ago\nju wər bɔrn 20 jɪrz əˈgoʊ\nJūs esat dzimis pirms 20 gadiem\n\n0:52 2:16 3:38 \nYou were born in 2001\nju wər bɔrn ɪn 2001\nJūs esat dzimis 2001. gadā\n\n1:09 2:32 3:54 \nI was born in 2001\naɪ wɑz bɔrn ɪn 2001\nEsmu dzimis 2001. gadā\n\n\n\nSkolotājiem un skolām:\nŠis video ir publicēts saskaņā ar Creative Commons licenci.\n  CC BY 3.0 https://creativecommons.org/licenses/by/3.0/ \nJūtieties brīvi izmantot šo video savās nodarbībās!\n\nLokalizācijai mēs izmantojam Google Translate pakalpojumu. Ja atrodat dažas kļūdas, lūdzu, paziņojiet mums.\n"
    },
    {
      "Lang": "mg",
      "Title": "Fanatanjahantena anglisy | Simple British ⭐️ #53 was born",
      "Description": "Ianaro ny fitsipi-pitenenana anglisy! Manova teny amin'ny fehezanteny iray.\n\n\n\n0:04 1:29 2:51 \nHe was born in 2001\nhi wɑz bɔrn ɪn 2001\nTeraka tamin'ny 2001 izy\n\n0:21 1:46 3:08 \nHe was born 20 years ago\nhi wɑz bɔrn 20 jɪrz əˈgoʊ\nTeraka 20 taona lasa izy\n\n0:36 2:00 3:22 \nYou were born 20 years ago\nju wər bɔrn 20 jɪrz əˈgoʊ\nTeraka 20 taona lasa ianao\n\n0:52 2:16 3:38 \nYou were born in 2001\nju wər bɔrn ɪn 2001\nTeraka tamin'ny 2001 ianao\n\n1:09 2:32 3:54 \nI was born in 2001\naɪ wɑz bɔrn ɪn 2001\nTeraka tamin'ny 2001 aho\n\n\n\nHo an'ireo mpampianatra sy sekoly:\nIty horonantsary ity dia navoaka eo ambanin'ny lisansa Creative Commons.\n  CC BY 3.0 https://creativecommons.org/licenses/by/3.0/ \nAza misalasala mampiasa an'io horonantsary io amin'ny kilasinao!\n\nMampiasa ny serivisy Google Translate izahay amin'ny fananganana toerana. Raha mahita hadisoana vitsivitsy ianao dia mba ampahafantaro anay.\n"
    },
    {
      "Lang": "mi",
      "Title": "Mahi whakangungu Ingarihi | He ngawari Pakeha ⭐️ #53 was born",
      "Description": "Akohia te paanui Ingarihi! Hurihia he kupu ki tetahi rerenga rerenga.\n\n\n\n0:04 1:29 2:51 \nHe was born in 2001\nhi wɑz bɔrn ɪn 2001\nI whanau ia i te 2001\n\n0:21 1:46 3:08 \nHe was born 20 years ago\nhi wɑz bɔrn 20 jɪrz əˈgoʊ\nI whanau ia i nga tau 20\n\n0:36 2:00 3:22 \nYou were born 20 years ago\nju wər bɔrn 20 jɪrz əˈgoʊ\nI whanau koe i te 20 tau ki muri\n\n0:52 2:16 3:38 \nYou were born in 2001\nju wər bɔrn ɪn 2001\nI whanau koe i te 2001\n\n1:09 2:32 3:54 \nI was born in 2001\naɪ wɑz bɔrn ɪn 2001\nI whanau ahau i te 2001\n\n\n\nKi nga kaiako me nga kura:\nKei te whakaputaina tenei ataata i raro i te Raihana Hoahoatanga.\n  CC BY 3.0 https://creativecommons.org/licenses/by/3.0/ \nKia kore e pai ki te whakamahi i tenei ataata i roto i o akomanga!\n\nKa whakamahia e matou he whakamaoritanga a Google mo te whakangao. Mena ka kitea e koe etahi he, tena koa kia mohio.\n"
    },
    {
      "Lang": "mk",
      "Title": "Вежби за граматика на англиски јазик | Едноставно Британски ⭐️ #53 was born",
      "Description": "Дознајте англиска граматика! Променете збор во реченица.\n\n\n\n0:04 1:29 2:51 \nHe was born in 2001\nhi wɑz bɔrn ɪn 2001\nРоден е во 2001 година\n\n0:21 1:46 3:08 \nHe was born 20 years ago\nhi wɑz bɔrn 20 jɪrz əˈgoʊ\nРоден е пред 20 години\n\n0:36 2:00 3:22 \nYou were born 20 years ago\nju wər bɔrn 20 jɪrz əˈgoʊ\nВие сте родени пред 20 години\n\n0:52 2:16 3:38 \nYou were born in 2001\nju wər bɔrn ɪn 2001\nВие сте родени во 2001 година\n\n1:09 2:32 3:54 \nI was born in 2001\naɪ wɑz bɔrn ɪn 2001\nРоден сум во 2001 година\n\n\n\nДо наставниците и училиштата:\nОва видео е објавено под лиценца Криејтив комонс.\n  CC BY 3.0 https://creativecommons.org/licenses/by/3.0/ \nСлободно можете да го користите ова видео во вашите часови!\n\nНие користиме услуга Google Translate за локализација. Ако најдете некои грешки, ве молиме кажете ни.\n"
    },
    {
      "Lang": "ml",
      "Title": "ഇംഗ്ലീഷ് വ്യാകരണ വ്യായാമങ്ങൾ | ലളിതം ബ്രിട്ടീഷ് ⭐️ #53 was born",
      "Description": "ഇംഗ്ലീഷ് വ്യാകരണം പഠിക്കൂ! ഒരു വാക്യത്തിൽ ഒരു വാക്ക് മാറ്റുക.\n\n\n\n0:04 1:29 2:51 \nHe was born in 2001\nhi wɑz bɔrn ɪn 2001\n2001 ലാണ് അദ്ദേഹം ജനിച്ചത്\n\n0:21 1:46 3:08 \nHe was born 20 years ago\nhi wɑz bɔrn 20 jɪrz əˈgoʊ\n20 വർഷം മുമ്പാണ് അദ്ദേഹം ജനിച്ചത്\n\n0:36 2:00 3:22 \nYou were born 20 years ago\nju wər bɔrn 20 jɪrz əˈgoʊ\nനിങ്ങൾ 20 വർഷം മുമ്പാണ് ജനിച്ചത്\n\n0:52 2:16 3:38 \nYou were born in 2001\nju wər bɔrn ɪn 2001\nനിങ്ങൾ ജനിച്ചത് 2001 ലാണ്\n\n1:09 2:32 3:54 \nI was born in 2001\naɪ wɑz bɔrn ɪn 2001\nഞാൻ ജനിച്ചത് 2001 ലാണ്\n\n\n\nഅധ്യാപകർക്കും സ്കൂളുകൾക്കും:\nക്രിയേറ്റീവ് കോമൺസ് ലൈസൻസിന് കീഴിൽ ഈ വീഡിയോ പ്രസിദ്ധീകരിച്ചു.\n  CC BY 3.0 https://creativecommons.org/licenses/by/3.0/ \nനിങ്ങളുടെ ക്ലാസുകളിൽ ഈ വീഡിയോ ഉപയോഗിക്കാൻ മടിക്കേണ്ടതില്ല!\n\nപ്രാദേശികവൽക്കരണത്തിനായി ഞങ്ങൾ Google വിവർത്തന സേവനം ഉപയോഗിക്കുന്നു. നിങ്ങൾ ചില തെറ്റുകൾ കണ്ടെത്തുകയാണെങ്കിൽ, ഞങ്ങളെ അറിയിക്കുക.\n"
    },
    {
      "Lang": "mn",
      "Title": "Англи хэлний дүрмийн дасгал | Энгийн Британийн ⭐️ #53 was born",
      "Description": "Англи хэлний дүрмийн мэдлэгийг сур! Үгийг өгүүлбэр болгон өөрчил.\n\n\n\n0:04 1:29 2:51 \nHe was born in 2001\nhi wɑz bɔrn ɪn 2001\nТэр 2001 онд төрсөн\n\n0:21 1:46 3:08 \nHe was born 20 years ago\nhi wɑz bɔrn 20 jɪrz əˈgoʊ\nТэр 20 жилийн өмнө төрсөн\n\n0:36 2:00 3:22 \nYou were born 20 years ago\nju wər bɔrn 20 jɪrz əˈgoʊ\nТа 20 жилийн өмнө төрсөн\n\n0:52 2:16 3:38 \nYou were born in 2001\nju wər bɔrn ɪn 2001\nТа 2001 онд төрсөн\n\n1:09 2:32 3:54 \nI was born in 2001\naɪ wɑz bɔrn ɪn 2001\nБи 2001 онд төрсөн\n\n\n\nБагш, сургуулиудад:\nЭнэ видео нь Creative Commons License лиценз дээр нийтлэгдсэн.\n  CC BY 3.0 https://creativecommons.org/licenses/by/3.0/ \nЭнэ видеог өөрийн ангиудад ашиглах боломжтой шүү!\n\nБид Google Translate үйлчилгээг нутагшуулах зорилгоор ашигладаг. Хэрэв та алдаа олвол бидэнд мэдэгдээрэй.\n"
    },
    {
      "Lang": "mr",
      "Title": "इंग्रजी व्याकरण व्यायाम | सोपे ब्रिटिश ⭐️ #53 was born",
      "Description": "इंग्रजी व्याकरण जाणून घ्या! एका वाक्यात शब्द बदला.\n\n\n\n0:04 1:29 2:51 \nHe was born in 2001\nhi wɑz bɔrn ɪn 2001\nत्यांचा जन्म 2001 मध्ये झाला होता\n\n0:21 1:46 3:08 \nHe was born 20 years ago\nhi wɑz bɔrn 20 jɪrz əˈgoʊ\nत्याचा जन्म 20 वर्षांपूर्वी झाला होता\n\n0:36 2:00 3:22 \nYou were born 20 years ago\nju wər bɔrn 20 jɪrz əˈgoʊ\nआपला जन्म 20 वर्षांपूर्वी झाला होता\n\n0:52 2:16 3:38 \nYou were born in 2001\nju wər bɔrn ɪn 2001\nआपला जन्म 2001 मध्ये झाला होता\n\n1:09 2:32 3:54 \nI was born in 2001\naɪ wɑz bɔrn ɪn 2001\nमाझा जन्म 2001 मध्ये झाला होता\n\n\n\nशिक्षक आणि शाळा यांना:\nहा व्हिडिओ क्रिएटिव्ह कॉमन्स परवान्या अंतर्गत प्रकाशित झाला आहे.\n  CC BY 3.0 https://creativecommons.org/licenses/by/3.0/ \nआपल्या वर्गांमध्ये हा व्हिडिओ वापरण्यास मोकळ्या मनाने!\n\nआम्ही स्थानिकीकरणासाठी Google भाषांतर सेवा वापरतो. आपल्याला काही चुका आढळल्यास कृपया आम्हाला कळवा.\n"
    },
    {
      "Lang": "ms",
      "Title": "Latihan tatabahasa Bahasa Inggeris | Mudah Inggeris ⭐️ #53 was born",
      "Description": "Belajar bahasa Inggeris! Tukar perkataan dalam ayat.\n\n\n\n0:04 1:29 2:51 \nHe was born in 2001\nhi wɑz bɔrn ɪn 2001\nBeliau dilahirkan pada tahun 2001\n\n0:21 1:46 3:08 \nHe was born 20 years ago\nhi wɑz bɔrn 20 jɪrz əˈgoʊ\nDia dilahirkan 20 tahun lalu\n\n0:36 2:00 3:22 \nYou were born 20 years ago\nju wər bɔrn 20 jɪrz əˈgoʊ\nAnda dilahirkan 20 tahun yang lalu\n\n0:52 2:16 3:38 \nYou were born in 2001\nju wər bɔrn ɪn 2001\nAnda dilahirkan pada tahun 2001\n\n1:09 2:32 3:54 \nI was born in 2001\naɪ wɑz bɔrn ɪn 2001\nSaya dilahirkan pada tahun 2001\n\n\n\nKepada guru dan sekolah:\nVideo ini diterbitkan di bawah Lesen Creative Commons.\n  CC BY 3.0 https://creativecommons.org/licenses/by/3.0/ \nJangan ragu untuk menggunakan video ini dalam kelas anda!\n\nKami menggunakan perkhidmatan Terjemahan Google untuk penyetempatan. Jika anda mendapati beberapa kesilapan, sila beritahu kami.\n"
    },
    {
      "Lang": "mt",
      "Title": "Eżerċizzji ta 'grammatika Ingliża | Sempliċi Ingliżi ⭐️ #53 was born",
      "Description": "Tgħallem il-grammatika Ingliża! Ibdel kelma f’sentenza.\n\n\n\n0:04 1:29 2:51 \nHe was born in 2001\nhi wɑz bɔrn ɪn 2001\nHuwa twieled fl-2001\n\n0:21 1:46 3:08 \nHe was born 20 years ago\nhi wɑz bɔrn 20 jɪrz əˈgoʊ\nHuwa twieled 20 sena ilu\n\n0:36 2:00 3:22 \nYou were born 20 years ago\nju wər bɔrn 20 jɪrz əˈgoʊ\nTwelidt 20 sena ilu\n\n0:52 2:16 3:38 \nYou were born in 2001\nju wər bɔrn ɪn 2001\nInt twelidt fl-2001\n\n1:09 2:32 3:54 \nI was born in 2001\naɪ wɑz bɔrn ɪn 2001\nJien twelidt fl-2001\n\n\n\nGħalliema u skejjel:\nDan il-video huwa ppublikat taħt il-Liċenzja Creative Commons.\n  CC BY 3.0 https://creativecommons.org/licenses/by/3.0/ \nĦossok liberu li tuża dan il-video fil-klassijiet tiegħek!\n\nAħna nużaw servizz Google Translate għall-lokalizzazzjoni. Jekk issib xi żbalji, jekk jogħġbok għarrafna.\n"
    },
    {
      "Lang": "my",
      "Title": "အင်္ဂလိပ်သဒ္ဒါလေ့ကျင့်ခန်း | ရိုးရှင်းသော ဗြိတိသျှ ⭐️ #53 was born",
      "Description": "အင်္ဂလိပ်သဒ္ဒါကိုလေ့လာပါ။ ဝါကျတွင်စကားလုံးတစ်လုံးပြောင်းပါ။\n\n\n\n0:04 1:29 2:51 \nHe was born in 2001\nhi wɑz bɔrn ɪn 2001\nသူသည် ၂၀၀၁ ခုနှစ်တွင်မွေးဖွားခဲ့သည်\n\n0:21 1:46 3:08 \nHe was born 20 years ago\nhi wɑz bɔrn 20 jɪrz əˈgoʊ\nသူဟာလွန်ခဲ့တဲ့အနှစ် ၂၀ ကမွေးဖွားခဲ့တယ်\n\n0:36 2:00 3:22 \nYou were born 20 years ago\nju wər bɔrn 20 jɪrz əˈgoʊ\nမင်းကိုလွန်ခဲ့တဲ့အနှစ် ၂၀ ကမွေးဖွားခဲ့တယ်\n\n0:52 2:16 3:38 \nYou were born in 2001\nju wər bɔrn ɪn 2001\nမင်းကို ၂၀၀၁ မှာမွေးဖွားခဲ့တယ်\n\n1:09 2:32 3:54 \nI was born in 2001\naɪ wɑz bɔrn ɪn 2001\nငါ 2001 ခုနှစ်တွင်မွေးဖွားခဲ့သည်\n\n\n\nဆရာများနှင့်ကျောင်းများသို့\nဒီဗီဒီယိုကို Creative Commons လိုင်စင်အောက်မှာထုတ်ဝေထားတယ်။\n  CC BY 3.0 https://creativecommons.org/licenses/by/3.0/ \nဤဗီဒီယိုကိုသင်၏အတန်းများ၌အခမဲ့အသုံးပြုပါ။\n\nကျွန်ုပ်တို့သည်ဒေသခံဘာသာပြန်အတွက် Google Translate ဝန်ဆောင်မှုကိုအသုံးပြုသည်။ သင်အမှားအယွင်းများအချို့ရှိပါကကျွန်ုပ်တို့အားအသိပေးပါ။\n"
    },
    {
      "Lang": "ne",
      "Title": "अंग्रेजी व्याकरण व्यायाम | सरल बेलायती ⭐️ #53 was born",
      "Description": "अंग्रेजी व्याकरण सिक्नुहोस्! एक वाक्य मा एक शब्द बदल्नुहोस्।\n\n\n\n0:04 1:29 2:51 \nHe was born in 2001\nhi wɑz bɔrn ɪn 2001\nउहाँ २००१ मा जन्मनुभएको थियो\n\n0:21 1:46 3:08 \nHe was born 20 years ago\nhi wɑz bɔrn 20 jɪrz əˈgoʊ\nऊ २० वर्ष अगाडि जन्मेको थियो\n\n0:36 2:00 3:22 \nYou were born 20 years ago\nju wər bɔrn 20 jɪrz əˈgoʊ\nतपाईंको जन्म २० बर्ष अघि भएको थियो\n\n0:52 2:16 3:38 \nYou were born in 2001\nju wər bɔrn ɪn 2001\nतपाई २००१ मा जन्मनुभएको थियो\n\n1:09 2:32 3:54 \nI was born in 2001\naɪ wɑz bɔrn ɪn 2001\nमेरो जन्म २००१ मा भएको थियो\n\n\n\nशिक्षक र विद्यालयहरुलाई:\nयो भिडियो क्रिएटिभ कमन्स लाइसेन्स अन्तर्गत प्रकाशित गरिएको छ।\n  CC BY 3.0 https://creativecommons.org/licenses/by/3.0/ \nतपाईंको कक्षामा यो भिडियो प्रयोग गर्न स्वतन्त्र महसुस गर्नुहोस्!\n\nहामी स्थानीयकरणको लागि गुगल अनुवाद सेवा प्रयोग गर्दछौं। यदि तपाईंले केहि गल्तीहरू फेला पार्नुभयो भने, कृपया हामीलाई खबर गर्नुहोस्।\n"
    },
    {
      "Lang": "nl",
      "Title": "Engelse grammatica-oefeningen | Gemakkelijk Brits ⭐️ #53 was born",
      "Description": "Leer Engelse grammatica! Verander een woord in een zin.\n\n\n\n0:04 1:29 2:51 \nHe was born in 2001\nhi wɑz bɔrn ɪn 2001\nHij werd geboren in 2001\n\n0:21 1:46 3:08 \nHe was born 20 years ago\nhi wɑz bɔrn 20 jɪrz əˈgoʊ\nHij werd 20 jaar geleden geboren\n\n0:36 2:00 3:22 \nYou were born 20 years ago\nju wər bɔrn 20 jɪrz əˈgoʊ\nJe bent 20 jaar geleden geboren\n\n0:52 2:16 3:38 \nYou were born in 2001\nju wər bɔrn ɪn 2001\nJe bent geboren in 2001\n\n1:09 2:32 3:54 \nI was born in 2001\naɪ wɑz bɔrn ɪn 2001\nIk ben geboren in 2001\n\n\n\nAan leraren en scholen:\nDeze video is gepubliceerd onder Creative Commons License.\n  CC BY 3.0 https://creativecommons.org/licenses/by/3.0/ \nVoel je vrij om deze video in je lessen te gebruiken!\n\nWe gebruiken de Google Translate-service voor lokalisatie. Laat het ons weten als u fouten ontdekt.\n"
    },
    {
      "Lang": "no",
      "Title": "Engelsk grammatikkøvelser | Enkel British ⭐️ #53 was born",
      "Description": "Lær engelsk grammatikk! Endre et ord i en setning.\n\n\n\n0:04 1:29 2:51 \nHe was born in 2001\nhi wɑz bɔrn ɪn 2001\nHan ble født i 2001\n\n0:21 1:46 3:08 \nHe was born 20 years ago\nhi wɑz bɔrn 20 jɪrz əˈgoʊ\nHan ble født for 20 år siden\n\n0:36 2:00 3:22 \nYou were born 20 years ago\nju wər bɔrn 20 jɪrz əˈgoʊ\nDu ble født for 20 år siden\n\n0:52 2:16 3:38 \nYou were born in 2001\nju wər bɔrn ɪn 2001\nDu ble født i 2001\n\n1:09 2:32 3:54 \nI was born in 2001\naɪ wɑz bɔrn ɪn 2001\nJeg ble født i 2001\n\n\n\nTil lærere og skoler:\nDenne videoen er publisert under Creative Commons License.\n  CC BY 3.0 https://creativecommons.org/licenses/by/3.0/ \nBruk gjerne denne videoen i klassene dine!\n\nVi bruker Google Translate-tjenesten for lokalisering. Gi beskjed hvis du finner noen feil.\n"
    },
    {
      "Lang": "pa",
      "Title": "ਅੰਗਰੇਜ਼ੀ ਵਿਆਕਰਣ ਅਭਿਆਸ | ਆਸਾਨ ਬ੍ਰਿਟਿਸ਼ ⭐️ #53 was born",
      "Description": "ਅੰਗਰੇਜ਼ੀ ਵਿਆਕਰਣ ਸਿੱਖੋ! ਇੱਕ ਵਾਕ ਵਿੱਚ ਇੱਕ ਸ਼ਬਦ ਬਦਲੋ.\n\n\n\n0:04 1:29 2:51 \nHe was born in 2001\nhi wɑz bɔrn ɪn 2001\nਉਹ 2001 ਵਿਚ ਪੈਦਾ ਹੋਇਆ ਸੀ\n\n0:21 1:46 3:08 \nHe was born 20 years ago\nhi wɑz bɔrn 20 jɪrz əˈgoʊ\nਉਹ 20 ਸਾਲ ਪਹਿਲਾਂ ਪੈਦਾ ਹੋਇਆ ਸੀ\n\n0:36 2:00 3:22 \nYou were born 20 years ago\nju wər bɔrn 20 jɪrz əˈgoʊ\nਤੁਹਾਡਾ ਜਨਮ 20 ਸਾਲ ਪਹਿਲਾਂ ਹੋਇਆ ਸੀ\n\n0:52 2:16 3:38 \nYou were born in 2001\nju wər bɔrn ɪn 2001\nਤੁਹਾਡਾ ਜਨਮ 2001 ਵਿੱਚ ਹੋਇਆ ਸੀ\n\n1:09 2:32 3:54 \nI was born in 2001\naɪ wɑz bɔrn ɪn 2001\nਮੇਰਾ ਜਨਮ 2001 ਵਿੱਚ ਹੋਇਆ ਸੀ\n\n\n\nਅਧਿਆਪਕਾਂ ਅਤੇ ਸਕੂਲਾਂ ਨੂੰ:\nਇਹ ਵੀਡੀਓ ਕਰੀਏਟਿਵ ਕਾਮਨਜ਼ ਲਾਇਸੈਂਸ ਅਧੀਨ ਪ੍ਰਕਾਸ਼ਤ ਕੀਤਾ ਗਿਆ ਹੈ.\n  CC BY 3.0 https://creativecommons.org/licenses/by/3.0/ \nਇਸ ਕਲਾਸ ਨੂੰ ਆਪਣੀਆਂ ਕਲਾਸਾਂ ਵਿਚ ਵਰਤਣ ਲਈ ਮੁਫ਼ਤ ਮਹਿਸੂਸ ਕਰੋ!\n\nਅਸੀਂ ਸਥਾਨਕਕਰਨ ਲਈ ਗੂਗਲ ਅਨੁਵਾਦ ਸੇਵਾ ਦੀ ਵਰਤੋਂ ਕਰਦੇ ਹਾਂ. ਜੇ ਤੁਹਾਨੂੰ ਕੁਝ ਗਲਤੀਆਂ ਮਿਲਦੀਆਂ ਹਨ, ਤਾਂ ਕਿਰਪਾ ਕਰਕੇ ਸਾਨੂੰ ਦੱਸੋ.\n"
    },
    {
      "Lang": "pl",
      "Title": "Gramatyka angielska | Prosty brytyjski ⭐️ #53 was born",
      "Description": "Ucz się gramatyki angielskiej! Zmień słowo w zdaniu.\n\n\n\n0:04 1:29 2:51 \nHe was born in 2001\nhi wɑz bɔrn ɪn 2001\nUrodził się w 2001 roku\n\n0:21 1:46 3:08 \nHe was born 20 years ago\nhi wɑz bɔrn 20 jɪrz əˈgoʊ\nUrodził się 20 lat temu\n\n0:36 2:00 3:22 \nYou were born 20 years ago\nju wər bɔrn 20 jɪrz əˈgoʊ\nUrodziłeś się 20 lat temu\n\n0:52 2:16 3:38 \nYou were born in 2001\nju wər bɔrn ɪn 2001\nUrodziłeś się w 2001 roku\n\n1:09 2:32 3:54 \nI was born in 2001\naɪ wɑz bɔrn ɪn 2001\nUrodziłem się w 2001 roku\n\n\n\nDo nauczycieli i szkół:\nTen film jest opublikowany na licencji Creative Commons.\n  CC BY 3.0 https://creativecommons.org/licenses/by/3.0/ \nZachęcamy do korzystania z tego filmu na zajęciach!\n\nDo lokalizacji używamy usługi Tłumacz Google. Jeśli znajdziesz jakieś błędy, daj nam znać.\n"
    },
    {
      "Lang": "ps",
      "Title": "انګلیسي ګرامر تمرینونه | ساده برتانوي ⭐️ #53 was born",
      "Description": "انګلیسي ګرامر زده کړئ! یوه جمله په یوه جمله بدله کړئ.\n\n\n\n0:04 1:29 2:51 \nHe was born in 2001\nhi wɑz bɔrn ɪn 2001\nهغه په 2001 کې زیږیدلی و\n\n0:21 1:46 3:08 \nHe was born 20 years ago\nhi wɑz bɔrn 20 jɪrz əˈgoʊ\nهغه شل کاله دمخه زیږیدلی و\n\n0:36 2:00 3:22 \nYou were born 20 years ago\nju wər bɔrn 20 jɪrz əˈgoʊ\nتاسو شل کاله دمخه زیږیدلی و\n\n0:52 2:16 3:38 \nYou were born in 2001\nju wər bɔrn ɪn 2001\nتاسو په 2001 کې زیږیدلی و\n\n1:09 2:32 3:54 \nI was born in 2001\naɪ wɑz bɔrn ɪn 2001\nزه په 2001 کې زیږیدلی یم\n\n\n\nښوونکو او ښوونځیو ته:\nدا ویډیو د کریټیو کامنز لایسنس لاندې خپره شوې ده.\n  CC BY 3.0 https://creativecommons.org/licenses/by/3.0/ \nپه خپلو ټولګیو کې د دې ویډیو کارولو لپاره وړیا احساس وکړئ!\n\nموږ د ځایی کولو لپاره د ګوګل ژباړن خدمت کاروو. که تاسو ځینې غلطۍ ومومئ ، مهرباني وکړئ موږ ته خبر راکړئ.\n"
    },
    {
      "Lang": "pt",
      "Title": "Exercícios de gramática inglesa | Simples britânico ⭐️ #53 was born",
      "Description": "Aprenda gramática inglesa! Mude uma palavra em uma frase.\n\n\n\n0:04 1:29 2:51 \nHe was born in 2001\nhi wɑz bɔrn ɪn 2001\nEle nasceu em 2001\n\n0:21 1:46 3:08 \nHe was born 20 years ago\nhi wɑz bɔrn 20 jɪrz əˈgoʊ\nEle nasceu há 20 anos\n\n0:36 2:00 3:22 \nYou were born 20 years ago\nju wər bɔrn 20 jɪrz əˈgoʊ\nVocê nasceu há 20 anos\n\n0:52 2:16 3:38 \nYou were born in 2001\nju wər bɔrn ɪn 2001\nVocê nasceu em 2001\n\n1:09 2:32 3:54 \nI was born in 2001\naɪ wɑz bɔrn ɪn 2001\nEu nasci em 2001\n\n\n\nPara professores e escolas:\nEste vídeo é publicado sob licença Creative Commons.\n  CC BY 3.0 https://creativecommons.org/licenses/by/3.0/ \nSinta-se livre para usar este vídeo em suas aulas!\n\nUsamos o serviço Google Translate para localização. Se você encontrar algum erro, informe-nos.\n"
    },
    {
      "Lang": "ro",
      "Title": "Exerciții de gramatică engleză | Simplu britanic ⭐️ #53 was born",
      "Description": "Învață gramatica engleză! Schimbă un cuvânt într-o propoziție.\n\n\n\n0:04 1:29 2:51 \nHe was born in 2001\nhi wɑz bɔrn ɪn 2001\nS-a născut în 2001\n\n0:21 1:46 3:08 \nHe was born 20 years ago\nhi wɑz bɔrn 20 jɪrz əˈgoʊ\nS-a născut acum 20 de ani\n\n0:36 2:00 3:22 \nYou were born 20 years ago\nju wər bɔrn 20 jɪrz əˈgoʊ\nTe-ai născut acum 20 de ani\n\n0:52 2:16 3:38 \nYou were born in 2001\nju wər bɔrn ɪn 2001\nTe-ai născut în 2001\n\n1:09 2:32 3:54 \nI was born in 2001\naɪ wɑz bɔrn ɪn 2001\nM-am născut în 2001\n\n\n\nPentru profesori și școli:\nAcest videoclip este publicat sub licență Creative Commons.\n  CC BY 3.0 https://creativecommons.org/licenses/by/3.0/ \nSimte-te liber să folosești acest videoclip în orele tale!\n\nFolosim serviciul Google Translate pentru localizare. Dacă găsiți unele greșeli, vă rugăm să ne informați.\n"
    },
    {
      "Lang": "ru",
      "Title": "Упражнения по английской грамматике | просто Британская ⭐️ #53 was born",
      "Description": "Изучай английскую грамматику! Изменить слово в предложении.\n\n\n\n0:04 1:29 2:51 \nHe was born in 2001\nhi wɑz bɔrn ɪn 2001\nОн родился в 2001 году\n\n0:21 1:46 3:08 \nHe was born 20 years ago\nhi wɑz bɔrn 20 jɪrz əˈgoʊ\nОн родился 20 лет назад\n\n0:36 2:00 3:22 \nYou were born 20 years ago\nju wər bɔrn 20 jɪrz əˈgoʊ\nВы родились 20 лет назад\n\n0:52 2:16 3:38 \nYou were born in 2001\nju wər bɔrn ɪn 2001\nВы родились в 2001 году\n\n1:09 2:32 3:54 \nI was born in 2001\naɪ wɑz bɔrn ɪn 2001\nЯ родилась в 2001 году\n\n\n\nУчителям и школам:\nЭто видео опубликовано под лицензией Creative Commons.\n  CC BY 3.0 https://creativecommons.org/licenses/by/3.0/ \nНе стесняйтесь использовать это видео в своих классах!\n\nМы используем сервис Google Translate для локализации. Если вы обнаружите ошибки, сообщите нам.\n"
    },
    {
      "Lang": "sd",
      "Title": "سنڌي گرامر مشق | سادو انگريزن ⭐️ #53 was born",
      "Description": "انگريزي گرامر سکو! ھڪ لفظ ۾ ھڪڙي تبديلي آڻيو.\n\n\n\n0:04 1:29 2:51 \nHe was born in 2001\nhi wɑz bɔrn ɪn 2001\nهو 2001 ع ۾ ڄائو هو\n\n0:21 1:46 3:08 \nHe was born 20 years ago\nhi wɑz bɔrn 20 jɪrz əˈgoʊ\nهو 20 سال اڳ پيدا ٿيو\n\n0:36 2:00 3:22 \nYou were born 20 years ago\nju wər bɔrn 20 jɪrz əˈgoʊ\nتوهان 20 سال اڳ ڄائو هو\n\n0:52 2:16 3:38 \nYou were born in 2001\nju wər bɔrn ɪn 2001\nتوهان 2001 ۾ ڄائو هو\n\n1:09 2:32 3:54 \nI was born in 2001\naɪ wɑz bɔrn ɪn 2001\nآء 2001 ۾ ڄائو هو\n\n\n\nاستاد ۽ اسڪولن ڏانهن:\nهيء وڊيو تخليقي العام لائسنس هيٺ شايع ٿيل آهي.\n  CC BY 3.0 https://creativecommons.org/licenses/by/3.0/ \nپنهنجي وڊيوز ۾ هن وڊيو کي استعمال ڪرڻ لاء آزاد ٿيو!\n\nاسان مقامي ڪرڻ لاء گوگل ترجمو سروس استعمال ڪندا آهيون. جيڪڏهن توهان ڪجهه غلطي ڳوليندا آهيو، مهرباني ڪري اسان کي ڄاڻ ڏيو.\n"
    },
    {
      "Lang": "si",
      "Title": "ඉංග්‍රීසි ව්‍යාකරණ අභ්‍යාස | සරල බ්‍රිතාන්‍ය ⭐️ #53 was born",
      "Description": "ඉංග්‍රීසි ව්‍යාකරණ ඉගෙන ගන්න! වාක්‍යයක වචනයක් වෙනස් කරන්න.\n\n\n\n0:04 1:29 2:51 \nHe was born in 2001\nhi wɑz bɔrn ɪn 2001\nඔහු උපන්නේ 2001 දී ය\n\n0:21 1:46 3:08 \nHe was born 20 years ago\nhi wɑz bɔrn 20 jɪrz əˈgoʊ\nඔහු උපත ලැබුවේ මීට වසර 20 කට පෙරය\n\n0:36 2:00 3:22 \nYou were born 20 years ago\nju wər bɔrn 20 jɪrz əˈgoʊ\nඔබ ඉපදුණේ මීට අවුරුදු 20 කට පෙරය\n\n0:52 2:16 3:38 \nYou were born in 2001\nju wər bɔrn ɪn 2001\nඔබ ඉපදුණේ 2001 දී\n\n1:09 2:32 3:54 \nI was born in 2001\naɪ wɑz bɔrn ɪn 2001\nමම ඉපදුණේ 2001 දී\n\n\n\nගුරුවරුන්ට සහ පාසල්වලට:\nමෙම වීඩියෝව නිර්මාණාත්මක පොදු බලපත්‍රය යටතේ ප්‍රකාශයට පත් කෙරේ.\n  CC BY 3.0 https://creativecommons.org/licenses/by/3.0/ \nඔබේ පංතිවල මෙම වීඩියෝව භාවිතා කිරීමට නිදහස් වන්න!\n\nප්‍රාදේශීයකරණය සඳහා අපි ගූගල් පරිවර්තන සේවාව භාවිතා කරමු. ඔබ යම් වැරැද්දක් සොයා ගන්නේ නම්, කරුණාකර අපට දන්වන්න.\n"
    },
    {
      "Lang": "sk",
      "Title": "Anglické gramatické cvičenia | prostý britský ⭐️ #53 was born",
      "Description": "Naučte sa anglickú gramatiku! Zmeniť slovo vo vete.\n\n\n\n0:04 1:29 2:51 \nHe was born in 2001\nhi wɑz bɔrn ɪn 2001\nNarodil sa v roku 2001\n\n0:21 1:46 3:08 \nHe was born 20 years ago\nhi wɑz bɔrn 20 jɪrz əˈgoʊ\nNarodil sa pred 20 rokmi\n\n0:36 2:00 3:22 \nYou were born 20 years ago\nju wər bɔrn 20 jɪrz əˈgoʊ\nNarodili ste sa pred 20 rokmi\n\n0:52 2:16 3:38 \nYou were born in 2001\nju wər bɔrn ɪn 2001\nNarodili ste sa v roku 2001\n\n1:09 2:32 3:54 \nI was born in 2001\naɪ wɑz bɔrn ɪn 2001\nNarodil som sa v roku 2001\n\n\n\nPre učiteľov a školy:\nToto video je publikované pod licenciou Creative Commons License.\n  CC BY 3.0 https://creativecommons.org/licenses/by/3.0/ \nNeváhajte použiť toto video vo svojich triedach!\n\nNa lokalizáciu používame službu Prekladač Google. Ak nájdete nejaké chyby, dajte nám vedieť.\n"
    },
    {
      "Lang": "sl",
      "Title": "Angleške slovnične vaje | Preprosto Britanci ⭐️ #53 was born",
      "Description": "Naučite se angleške slovnice! Spremenite besedo v stavku.\n\n\n\n0:04 1:29 2:51 \nHe was born in 2001\nhi wɑz bɔrn ɪn 2001\nRodil se je leta 2001\n\n0:21 1:46 3:08 \nHe was born 20 years ago\nhi wɑz bɔrn 20 jɪrz əˈgoʊ\nRodil se je pred 20 leti\n\n0:36 2:00 3:22 \nYou were born 20 years ago\nju wər bɔrn 20 jɪrz əˈgoʊ\nRodili ste se pred 20 leti\n\n0:52 2:16 3:38 \nYou were born in 2001\nju wər bɔrn ɪn 2001\nRojeni ste bili leta 2001\n\n1:09 2:32 3:54 \nI was born in 2001\naɪ wɑz bɔrn ɪn 2001\nRodil sem se leta 2001\n\n\n\nUčiteljem in šolam:\nTa videoposnetek je objavljen pod licenco Creative Commons.\n  CC BY 3.0 https://creativecommons.org/licenses/by/3.0/ \nUporabite ta video v svojih razredih!\n\nZa lokalizacijo uporabljamo storitev Google Translate. Če najdete nekaj napak, nas obvestite.\n"
    },
    {
      "Lang": "sm",
      "Title": "Gagana o le gagana Gagana Peretania | Faigofie Peretania ⭐️ #53 was born",
      "Description": "Aoao le gagana Gagana Peretania! Sui se upu i se fuaiupu.\n\n\n\n0:04 1:29 2:51 \nHe was born in 2001\nhi wɑz bɔrn ɪn 2001\nNa fanau o ia i le 2001\n\n0:21 1:46 3:08 \nHe was born 20 years ago\nhi wɑz bɔrn 20 jɪrz əˈgoʊ\nNa soifua mai o ia i le 20 tausaga talu ai\n\n0:36 2:00 3:22 \nYou were born 20 years ago\nju wər bɔrn 20 jɪrz əˈgoʊ\nNa e fanau i le 20 tausaga talu ai\n\n0:52 2:16 3:38 \nYou were born in 2001\nju wər bɔrn ɪn 2001\nNa e fanau i le 2001\n\n1:09 2:32 3:54 \nI was born in 2001\naɪ wɑz bɔrn ɪn 2001\nNa ou fanau i le 2001\n\n\n\nI faiaoga ma aʻoga:\nO lenei vitio ua lomia i lalo o le Creative Commons License.\n  CC BY 3.0 https://creativecommons.org/licenses/by/3.0/ \nLagona le saoloto e faʻaaoga lenei vitio i au vasega!\n\nMatou te faʻaaoga le Google Translate auaunaga mo le faʻasalalauga. Afai e te maua ni mea sese, faʻamolemole ia e iloa.\n"
    },
    {
      "Lang": "sn",
      "Title": "Chirungu grammar Exercise | Nyore Britain ⭐️ #53 was born",
      "Description": "Dzidza mutauro wechirungu! Chinja izwi muchirevo.\n\n\n\n0:04 1:29 2:51 \nHe was born in 2001\nhi wɑz bɔrn ɪn 2001\nIye akazvarwa muna 2001\n\n0:21 1:46 3:08 \nHe was born 20 years ago\nhi wɑz bɔrn 20 jɪrz əˈgoʊ\nIye akazvarwa makore makumi maviri apfuura\n\n0:36 2:00 3:22 \nYou were born 20 years ago\nju wər bɔrn 20 jɪrz əˈgoʊ\nIwe wakazvarwa makore makumi maviri apfuura\n\n0:52 2:16 3:38 \nYou were born in 2001\nju wər bɔrn ɪn 2001\nIwe wakazvarwa muna 2001\n\n1:09 2:32 3:54 \nI was born in 2001\naɪ wɑz bɔrn ɪn 2001\nIni ndakazvarwa muna 2001\n\n\n\nKune vadzidzisi uye zvikoro:\nVhidhiyo iyi inoburitswa pasi peCreative Commons License.\n  CC BY 3.0 https://creativecommons.org/licenses/by/3.0/ \nInzwa wakasununguka kushandisa iyi vhidhiyo mumakirasi ako!\n\nIsu tinoshandisa Google Dhumiro sevhisi. Kana iwe ukawana zvimwe zvikanganiso, tapota titiudze.\n"
    },
    {
      "Lang": "so",
      "Title": "Jimicsiga naxwaha Ingiriisiga | Fudud Ingiriiska ⭐️ #53 was born",
      "Description": "Baro naxwaha Ingiriisiga! U beddelo eray weedh.\n\n\n\n0:04 1:29 2:51 \nHe was born in 2001\nhi wɑz bɔrn ɪn 2001\nWuxuu dhashay 2001\n\n0:21 1:46 3:08 \nHe was born 20 years ago\nhi wɑz bɔrn 20 jɪrz əˈgoʊ\nWuxuu dhashay 20 sano ka hor\n\n0:36 2:00 3:22 \nYou were born 20 years ago\nju wər bɔrn 20 jɪrz əˈgoʊ\nWaxaad dhalatay 20 sano kahor\n\n0:52 2:16 3:38 \nYou were born in 2001\nju wər bɔrn ɪn 2001\nWaxaad dhalatay 2001\n\n1:09 2:32 3:54 \nI was born in 2001\naɪ wɑz bɔrn ɪn 2001\nWaxaan dhashay 2001\n\n\n\nKu socota macallimiinta iyo iskuulada:\nMuuqaalkan fiidiyaha ah waxaa lagu daabacay hoosta hal-abuurnimada Hal-abuurka.\n  CC BY 3.0 https://creativecommons.org/licenses/by/3.0/ \nXor baad u leedahay inaad fiidiyaha u isticmaasho fasalladaaga!\n\nWaxaan u adeegsanaa adeega Google tarjumaha si aan ugu tarjunno. Hadaad khaladaad hesho, fadlan nala socodsii.\n"
    },
    {
      "Lang": "sq",
      "Title": "Ushtrime gramatikore angleze | i thjeshtë britanik ⭐️ #53 was born",
      "Description": "Mësoni gramatikën angleze! Ndryshoni një fjalë në një fjali.\n\n\n\n0:04 1:29 2:51 \nHe was born in 2001\nhi wɑz bɔrn ɪn 2001\nAi lindi në 2001\n\n0:21 1:46 3:08 \nHe was born 20 years ago\nhi wɑz bɔrn 20 jɪrz əˈgoʊ\nAi lindi 20 vjet më parë\n\n0:36 2:00 3:22 \nYou were born 20 years ago\nju wər bɔrn 20 jɪrz əˈgoʊ\nJu keni lindur 20 vjet më parë\n\n0:52 2:16 3:38 \nYou were born in 2001\nju wər bɔrn ɪn 2001\nJu keni lindur në vitin 2001\n\n1:09 2:32 3:54 \nI was born in 2001\naɪ wɑz bɔrn ɪn 2001\nUnë kam lindur në 2001\n\n\n\nPër mësuesit dhe shkollat:\nKjo video është botuar nën licencën Creative Commons.\n  CC BY 3.0 https://creativecommons.org/licenses/by/3.0/ \nMos ngurroni të përdorni këtë video në klasat tuaja!\n\nNe përdorim shërbimin Google Translate për lokalizimin. Nëse gjeni disa gabime, ju lutemi na tregoni.\n"
    },
    {
      "Lang": "sr",
      "Title": "Вежбе енглеске граматике | Једноставно Британци ⭐️ #53 was born",
      "Description": "Научите енглеску граматику! Промените реч у реченици.\n\n\n\n0:04 1:29 2:51 \nHe was born in 2001\nhi wɑz bɔrn ɪn 2001\nРођен је 2001. године\n\n0:21 1:46 3:08 \nHe was born 20 years ago\nhi wɑz bɔrn 20 jɪrz əˈgoʊ\nРођен је пре 20 година\n\n0:36 2:00 3:22 \nYou were born 20 years ago\nju wər bɔrn 20 jɪrz əˈgoʊ\nРођени сте пре 20 година\n\n0:52 2:16 3:38 \nYou were born in 2001\nju wər bɔrn ɪn 2001\nРођени сте 2001. године\n\n1:09 2:32 3:54 \nI was born in 2001\naɪ wɑz bɔrn ɪn 2001\nРођена сам 2001. године\n\n\n\nНаставницима и школама:\nОвај видео је објављен под Цреативе Цоммонс лиценцом.\n  CC BY 3.0 https://creativecommons.org/licenses/by/3.0/ \nСлободно користите овај видеозапис у својим предавањима!\n\nЗа локализацију користимо услугу Гоогле Транслате. Ако нађете неке грешке, јавите нам се.\n"
    },
    {
      "Lang": "st",
      "Title": "Boikoetliso ba puo ea Senyesemane | E bonolo Borithane ⭐️ #53 was born",
      "Description": "Ithute puo ea Senyesemane! Fetola lentsoe polelo.\n\n\n\n0:04 1:29 2:51 \nHe was born in 2001\nhi wɑz bɔrn ɪn 2001\nO hlahile ka 2001\n\n0:21 1:46 3:08 \nHe was born 20 years ago\nhi wɑz bɔrn 20 jɪrz əˈgoʊ\nO hlahile lilemo tse 20 tse fetileng\n\n0:36 2:00 3:22 \nYou were born 20 years ago\nju wər bɔrn 20 jɪrz əˈgoʊ\nO hlahile lilemo tse 20 tse fetileng\n\n0:52 2:16 3:38 \nYou were born in 2001\nju wər bɔrn ɪn 2001\nO hlahile ka 2001\n\n1:09 2:32 3:54 \nI was born in 2001\naɪ wɑz bɔrn ɪn 2001\nKe hlahile ka 2001\n\n\n\nHo matichere le likolo:\nVideo ena e phatlalalitsoe tlas'a Creative Commons License.\n  CC BY 3.0 https://creativecommons.org/licenses/by/3.0/ \nIkutloe u lokolohile ho sebelisa video ena litlelaseng tsa hau!\n\nRe sebelisa tšebeletso ea Google Tafsiri bakeng sa lehae. Haeba u fumana liphoso, ka kopo re tsebise.\n"
    },
    {
      "Lang": "su",
      "Title": "Latihan tata basa Inggris | Basajan Inggris ⭐️ #53 was born",
      "Description": "Diajar grammar Inggris! Ngarobih kecap dina hiji kalimat.\n\n\n\n0:04 1:29 2:51 \nHe was born in 2001\nhi wɑz bɔrn ɪn 2001\nAnjeunna lahir taun 2001\n\n0:21 1:46 3:08 \nHe was born 20 years ago\nhi wɑz bɔrn 20 jɪrz əˈgoʊ\nAnjeunna lahir 20 taun ka pengker\n\n0:36 2:00 3:22 \nYou were born 20 years ago\nju wər bɔrn 20 jɪrz əˈgoʊ\nAnjeun lahir 20 taun ka tukang\n\n0:52 2:16 3:38 \nYou were born in 2001\nju wər bɔrn ɪn 2001\nAnjeun lahir di 2001\n\n1:09 2:32 3:54 \nI was born in 2001\naɪ wɑz bɔrn ɪn 2001\nKuring lahir taun 2001\n\n\n\nPikeun guru sareng sakola:\nPidéo ieu dikaluarkeun dina Lisensi Lisénsi Creative Commons.\n  CC BY 3.0 https://creativecommons.org/licenses/by/3.0/ \nTong ngosongkeun pidéo ieu di kelas!\n\nKami nganggo jasa Google Translate pikeun lokalisasi. Upami anjeun mendakan sababaraha kasalahan, punten terangkeun ka urang.\n"
    },
    {
      "Lang": "sv",
      "Title": "Engelska grammatiska övningar | Enkel British ⭐️ #53 was born",
      "Description": "Lär dig engelska grammatik! Ändra ett ord i en mening.\n\n\n\n0:04 1:29 2:51 \nHe was born in 2001\nhi wɑz bɔrn ɪn 2001\nHan föddes 2001\n\n0:21 1:46 3:08 \nHe was born 20 years ago\nhi wɑz bɔrn 20 jɪrz əˈgoʊ\nHan föddes för 20 år sedan\n\n0:36 2:00 3:22 \nYou were born 20 years ago\nju wər bɔrn 20 jɪrz əˈgoʊ\nDu föddes för 20 år sedan\n\n0:52 2:16 3:38 \nYou were born in 2001\nju wər bɔrn ɪn 2001\nDu föddes 2001\n\n1:09 2:32 3:54 \nI was born in 2001\naɪ wɑz bɔrn ɪn 2001\nJag föddes 2001\n\n\n\nTill lärare och skolor:\nDenna video publiceras under Creative Commons License.\n  CC BY 3.0 https://creativecommons.org/licenses/by/3.0/ \nAnvänd gärna den här videon i dina klasser!\n\nVi använder Google Translate-tjänst för lokalisering. Låt oss veta om du hittar några misstag.\n"
    },
    {
      "Lang": "sw",
      "Title": "Mazoezi ya sarufi ya Kiingereza | Rahisi Briteni ⭐️ #53 was born",
      "Description": "Jifunze sarufi ya Kiingereza! Badilisha neno katika sentensi.\n\n\n\n0:04 1:29 2:51 \nHe was born in 2001\nhi wɑz bɔrn ɪn 2001\nAlizaliwa mnamo 2001\n\n0:21 1:46 3:08 \nHe was born 20 years ago\nhi wɑz bɔrn 20 jɪrz əˈgoʊ\nAlizaliwa miaka 20 iliyopita\n\n0:36 2:00 3:22 \nYou were born 20 years ago\nju wər bɔrn 20 jɪrz əˈgoʊ\nUlizaliwa miaka 20 iliyopita\n\n0:52 2:16 3:38 \nYou were born in 2001\nju wər bɔrn ɪn 2001\nUlizaliwa mnamo 2001\n\n1:09 2:32 3:54 \nI was born in 2001\naɪ wɑz bɔrn ɪn 2001\nNilizaliwa mnamo 2001\n\n\n\nKwa waalimu na shule:\nVideo hii imechapishwa chini ya Leseni ya Creative Commons.\n  CC BY 3.0 https://creativecommons.org/licenses/by/3.0/ \nJisikie huru kutumia video hii kwenye darasa lako!\n\nTunatumia huduma ya Tafsiri ya Google kwa ujanibishaji. Ikiwa utapata makosa, tafadhali tujulishe.\n"
    },
    {
      "Lang": "ta",
      "Title": "ஆங்கில இலக்கண பயிற்சிகள் | எளிய பிரிட்டிஷ் ⭐️ #53 was born",
      "Description": "ஆங்கில இலக்கணம் கற்றுக்கொள்ளுங்கள்! ஒரு வாக்கியத்தில் ஒரு வார்த்தையை மாற்றவும்.\n\n\n\n0:04 1:29 2:51 \nHe was born in 2001\nhi wɑz bɔrn ɪn 2001\nஇவர் 2001 இல் பிறந்தார்\n\n0:21 1:46 3:08 \nHe was born 20 years ago\nhi wɑz bɔrn 20 jɪrz əˈgoʊ\nஇவர் 20 ஆண்டுகளுக்கு முன்பு பிறந்தார்\n\n0:36 2:00 3:22 \nYou were born 20 years ago\nju wər bɔrn 20 jɪrz əˈgoʊ\nநீங்கள் 20 ஆண்டுகளுக்கு முன்பு பிறந்தீர்கள்\n\n0:52 2:16 3:38 \nYou were born in 2001\nju wər bɔrn ɪn 2001\nநீங்கள் 2001 இல் பிறந்தீர்கள்\n\n1:09 2:32 3:54 \nI was born in 2001\naɪ wɑz bɔrn ɪn 2001\nநான் 2001 ல் பிறந்தேன்\n\n\n\nஆசிரியர்கள் மற்றும் பள்ளிகளுக்கு:\nஇந்த வீடியோ கிரியேட்டிவ் காமன்ஸ் உரிமத்தின் கீழ் வெளியிடப்பட்டுள்ளது.\n  CC BY 3.0 https://creativecommons.org/licenses/by/3.0/ \nஉங்கள் வகுப்புகளில் இந்த வீடியோவைப் பயன்படுத்த தயங்காதீர்கள்!\n\nஉள்ளூர்மயமாக்க Google மொழிபெயர்ப்பு சேவையைப் பயன்படுத்துகிறோம். நீங்கள் சில தவறுகளைக் கண்டால், எங்களுக்குத் தெரியப்படுத்துங்கள்.\n"
    },
    {
      "Lang": "te",
      "Title": "ఇంగ్లీష్ వ్యాకరణ వ్యాయామాలు | సాధారణ బ్రిటిష్ ⭐️ #53 was born",
      "Description": "ఇంగ్లీష్ వ్యాకరణం నేర్చుకోండి! ఒక వాక్యంలో ఒక పదాన్ని మార్చండి.\n\n\n\n0:04 1:29 2:51 \nHe was born in 2001\nhi wɑz bɔrn ɪn 2001\nఅతను 2001 లో జన్మించాడు\n\n0:21 1:46 3:08 \nHe was born 20 years ago\nhi wɑz bɔrn 20 jɪrz əˈgoʊ\nఅతను 20 సంవత్సరాల క్రితం జన్మించాడు\n\n0:36 2:00 3:22 \nYou were born 20 years ago\nju wər bɔrn 20 jɪrz əˈgoʊ\nమీరు 20 సంవత్సరాల క్రితం జన్మించారు\n\n0:52 2:16 3:38 \nYou were born in 2001\nju wər bɔrn ɪn 2001\nమీరు 2001 లో జన్మించారు\n\n1:09 2:32 3:54 \nI was born in 2001\naɪ wɑz bɔrn ɪn 2001\nనేను 2001 లో జన్మించాను\n\n\n\nఉపాధ్యాయులకు మరియు పాఠశాలలకు:\nఈ వీడియో క్రియేటివ్ కామన్స్ లైసెన్స్ క్రింద ప్రచురించబడింది.\n  CC BY 3.0 https://creativecommons.org/licenses/by/3.0/ \nమీ తరగతుల్లో ఈ వీడియోను ఉపయోగించడానికి సంకోచించకండి!\n\nస్థానికీకరణ కోసం మేము Google అనువాద సేవను ఉపయోగిస్తాము. మీరు కొన్ని తప్పులు కనుగొంటే, దయచేసి మాకు తెలియజేయండి.\n"
    },
    {
      "Lang": "tg",
      "Title": "Машқҳои грамматикаи забони англисӣ | Оддӣ Бритониё ⭐️ #53 was born",
      "Description": "Грамматикаи забони англисиро омӯзед! Калимаро дар як ҷумла иваз кунед.\n\n\n\n0:04 1:29 2:51 \nHe was born in 2001\nhi wɑz bɔrn ɪn 2001\nВай соли 2001 таваллуд шудааст\n\n0:21 1:46 3:08 \nHe was born 20 years ago\nhi wɑz bɔrn 20 jɪrz əˈgoʊ\nВай 20 сол пеш таваллуд шудааст\n\n0:36 2:00 3:22 \nYou were born 20 years ago\nju wər bɔrn 20 jɪrz əˈgoʊ\nШумо 20 сол пеш таваллуд шудаед\n\n0:52 2:16 3:38 \nYou were born in 2001\nju wər bɔrn ɪn 2001\nШумо соли 2001 таваллуд шудаед\n\n1:09 2:32 3:54 \nI was born in 2001\naɪ wɑz bɔrn ɪn 2001\nМан соли 2001 таваллуд шудам\n\n\n\nБа муаллимон ва мактабҳо:\nИн видео зери иҷозатномаи Creative Commons нашр шудааст.\n  CC BY 3.0 https://creativecommons.org/licenses/by/3.0/ \nИн видеоро дар дарсҳои худ истифода баред!\n\nМо барои локализатсия аз хидмати Google Translate истифода мебарем. Агар шумо ягон хатогӣ дарёфт кунед, лутфан ба мо хабар диҳед.\n"
    },
    {
      "Lang": "th",
      "Title": "แบบฝึกหัดไวยากรณ์ภาษาอังกฤษ | ง่าย อังกฤษ ⭐️ #53 was born",
      "Description": "เรียนรู้ไวยากรณ์ภาษาอังกฤษ! เปลี่ยนคำในประโยค\n\n\n\n0:04 1:29 2:51 \nHe was born in 2001\nhi wɑz bɔrn ɪn 2001\nเขาเกิดในปี 2544\n\n0:21 1:46 3:08 \nHe was born 20 years ago\nhi wɑz bɔrn 20 jɪrz əˈgoʊ\nเขาเกิดเมื่อ 20 ปีที่แล้ว\n\n0:36 2:00 3:22 \nYou were born 20 years ago\nju wər bɔrn 20 jɪrz əˈgoʊ\nคุณเกิดเมื่อ 20 ปีก่อน\n\n0:52 2:16 3:38 \nYou were born in 2001\nju wər bɔrn ɪn 2001\nคุณเกิดในปี 2544\n\n1:09 2:32 3:54 \nI was born in 2001\naɪ wɑz bɔrn ɪn 2001\nฉันเกิดในปี 2544\n\n\n\nถึงครูและโรงเรียน:\nวิดีโอนี้เผยแพร่ภายใต้สัญญาอนุญาตครีเอทีฟคอมมอนส์\n  CC BY 3.0 https://creativecommons.org/licenses/by/3.0/ \nอย่าลังเลที่จะใช้วิดีโอนี้ในชั้นเรียนของคุณ!\n\nเราใช้บริการ Google แปลภาษาเพื่อการแปล หากคุณพบข้อผิดพลาดบางอย่างโปรดแจ้งให้เราทราบ\n"
    },
    {
      "Lang": "tr",
      "Title": "İngilizce gramer çalışmaları | Basit ingiliz ⭐️ #53 was born",
      "Description": "İngilizce gramerini öğren! Bir cümle içindeki bir kelimeyi değiştirin.\n\n\n\n0:04 1:29 2:51 \nHe was born in 2001\nhi wɑz bɔrn ɪn 2001\n2001 yılında doğdu\n\n0:21 1:46 3:08 \nHe was born 20 years ago\nhi wɑz bɔrn 20 jɪrz əˈgoʊ\n20 yıl önce doğdu\n\n0:36 2:00 3:22 \nYou were born 20 years ago\nju wər bɔrn 20 jɪrz əˈgoʊ\n20 yıl önce doğdun\n\n0:52 2:16 3:38 \nYou were born in 2001\nju wər bɔrn ɪn 2001\n2001'de doğdun\n\n1:09 2:32 3:54 \nI was born in 2001\naɪ wɑz bɔrn ɪn 2001\n2001'de doğdum\n\n\n\nÖğretmenlere ve okullara:\nBu video Creative Commons License. Altında yayınlandı.\n  CC BY 3.0 https://creativecommons.org/licenses/by/3.0/ \nBu videoyu derslerinizde kullanmaktan çekinmeyin!\n\nYerelleştirme için Google Çeviri hizmetini kullanıyoruz. Bazı hatalar bulursanız lütfen bize bildirin.\n"
    },
    {
      "Lang": "uk",
      "Title": "Граматичні вправи з англійської мови | Простий Британці ⭐️ #53 was born",
      "Description": "Вивчіть англійську граматику! Змініть слово у реченні.\n\n\n\n0:04 1:29 2:51 \nHe was born in 2001\nhi wɑz bɔrn ɪn 2001\nВін народився в 2001 році\n\n0:21 1:46 3:08 \nHe was born 20 years ago\nhi wɑz bɔrn 20 jɪrz əˈgoʊ\nВін народився 20 років тому\n\n0:36 2:00 3:22 \nYou were born 20 years ago\nju wər bɔrn 20 jɪrz əˈgoʊ\nВи народилися 20 років тому\n\n0:52 2:16 3:38 \nYou were born in 2001\nju wər bɔrn ɪn 2001\nВи народилися в 2001 році\n\n1:09 2:32 3:54 \nI was born in 2001\naɪ wɑz bɔrn ɪn 2001\nЯ народився в 2001 році\n\n\n\nДля вчителів та шкіл:\nЦе відео опубліковане під ліцензією Creative Commons.\n  CC BY 3.0 https://creativecommons.org/licenses/by/3.0/ \nСміливо використовуйте це відео у своїх класах!\n\nМи використовуємо послугу Google Translate для локалізації. Якщо ви виявили деякі помилки, повідомте нас про це.\n"
    },
    {
      "Lang": "ur",
      "Title": "انگریزی گرائمر کی ورزشیں | آسان برطانوی ⭐️ #53 was born",
      "Description": "انگریزی گرائمر سیکھیں! ایک جملے میں ایک لفظ تبدیل کریں۔\n\n\n\n0:04 1:29 2:51 \nHe was born in 2001\nhi wɑz bɔrn ɪn 2001\nوہ 2001 میں پیدا ہوا تھا\n\n0:21 1:46 3:08 \nHe was born 20 years ago\nhi wɑz bɔrn 20 jɪrz əˈgoʊ\nوہ 20 سال پہلے پیدا ہوا تھا\n\n0:36 2:00 3:22 \nYou were born 20 years ago\nju wər bɔrn 20 jɪrz əˈgoʊ\nآپ 20 سال پہلے پیدا ہوئے تھے\n\n0:52 2:16 3:38 \nYou were born in 2001\nju wər bɔrn ɪn 2001\nآپ 2001 میں پیدا ہوئے تھے\n\n1:09 2:32 3:54 \nI was born in 2001\naɪ wɑz bɔrn ɪn 2001\nمیں 2001 میں پیدا ہوا تھا\n\n\n\nاساتذہ اور اسکولوں کے لئے:\nیہ ویڈیو تخلیقی العام لائسنس کے تحت شائع ہوا ہے۔\n  CC BY 3.0 https://creativecommons.org/licenses/by/3.0/ \nاپنی ویڈیو کو اپنی کلاسوں میں آزادانہ طور پر استعمال کریں!\n\nہم لوکلائزیشن کے لئے گوگل ٹرانسلیٹ سروس استعمال کرتے ہیں۔ اگر آپ کو کچھ غلطیاں ملتی ہیں تو ، براہ کرم ہمیں بتائیں۔\n"
    },
    {
      "Lang": "uz",
      "Title": "Ingliz tili grammatik mashqlari | Oddiy Britaniya ⭐️ #53 was born",
      "Description": "Ingliz tilining grammatikasini o'rganing! Bir so'zni jumlada o'zgartiring.\n\n\n\n0:04 1:29 2:51 \nHe was born in 2001\nhi wɑz bɔrn ɪn 2001\nU 2001 yilda tug'ilgan\n\n0:21 1:46 3:08 \nHe was born 20 years ago\nhi wɑz bɔrn 20 jɪrz əˈgoʊ\nU 20 yil oldin tug'ilgan\n\n0:36 2:00 3:22 \nYou were born 20 years ago\nju wər bɔrn 20 jɪrz əˈgoʊ\nSiz 20 yil oldin tug'ilgansiz\n\n0:52 2:16 3:38 \nYou were born in 2001\nju wər bɔrn ɪn 2001\nSiz 2001 yilda tug'ilgansiz\n\n1:09 2:32 3:54 \nI was born in 2001\naɪ wɑz bɔrn ɪn 2001\nMen 2001 yilda tug'ilganman\n\n\n\nO'qituvchilar va maktablarga:\nUshbu video Creative Commons litsenziyasi ostida joylashtirilgan.\n  CC BY 3.0 https://creativecommons.org/licenses/by/3.0/ \nUshbu videoni o'z sinflaringizda ishlatish bepul!\n\nBiz Google Translate xizmatidan lokalizatsiya uchun foydalanamiz. Agar siz biron bir xato topsangiz, iltimos, bizga xabar bering.\n"
    },
    {
      "Lang": "vi",
      "Title": "Bài tập ngữ pháp tiếng anh | Đơn giản người Anh ⭐️ #53 was born",
      "Description": "Học ngữ pháp tiếng Anh! Thay đổi một từ trong một câu.\n\n\n\n0:04 1:29 2:51 \nHe was born in 2001\nhi wɑz bɔrn ɪn 2001\nAnh sinh năm 2001\n\n0:21 1:46 3:08 \nHe was born 20 years ago\nhi wɑz bɔrn 20 jɪrz əˈgoʊ\nAnh ấy được sinh ra cách đây 20 năm\n\n0:36 2:00 3:22 \nYou were born 20 years ago\nju wər bɔrn 20 jɪrz əˈgoʊ\nBạn sinh ra cách đây 20 năm\n\n0:52 2:16 3:38 \nYou were born in 2001\nju wər bɔrn ɪn 2001\nBạn sinh năm 2001\n\n1:09 2:32 3:54 \nI was born in 2001\naɪ wɑz bɔrn ɪn 2001\nTôi sinh năm 2001\n\n\n\nGửi giáo viên và nhà trường:\nVideo này được xuất bản theo Giấy phép Creative Commons.\n  CC BY 3.0 https://creativecommons.org/licenses/by/3.0/ \nHãy sử dụng video này trong các lớp học của bạn!\n\nChúng tôi sử dụng dịch vụ Google Dịch để bản địa hóa. Nếu bạn tìm thấy một số sai lầm, xin vui lòng cho chúng tôi biết.\n"
    },
    {
      "Lang": "xh",
      "Title": "Ukuziqhelanisa negrama yesiNgesi | Elula Bhritane ⭐️ #53 was born",
      "Description": "Funda igrama yesiNgesi! Guqula igama kwisivakalisi.\n\n\n\n0:04 1:29 2:51 \nHe was born in 2001\nhi wɑz bɔrn ɪn 2001\nWazalwa ngo-2001\n\n0:21 1:46 3:08 \nHe was born 20 years ago\nhi wɑz bɔrn 20 jɪrz əˈgoʊ\nWazalwa kwiminyaka engama-20 eyadlulayo\n\n0:36 2:00 3:22 \nYou were born 20 years ago\nju wər bɔrn 20 jɪrz əˈgoʊ\nWazalwa kwiminyaka engama-20 eyadlulayo\n\n0:52 2:16 3:38 \nYou were born in 2001\nju wər bɔrn ɪn 2001\nWazalwa ngo-2001\n\n1:09 2:32 3:54 \nI was born in 2001\naɪ wɑz bɔrn ɪn 2001\nNdazalwa ngo-2001\n\n\n\nKootitshala nakwizikolo:\nLe vidiyo ipapashwa phantsi kwelayisensi yeCreative Commons.\n  CC BY 3.0 https://creativecommons.org/licenses/by/3.0/ \nZive ukhululekile ukusebenzisa le vidiyo kwiiklasi zakho!\n\nSisebenzisa inkonzo yokuTolika kaGoogle ukuze sifumane indawo. Ukuba ufumana iimpazamo ezithile, nceda usazise.\n"
    },
    {
      "Lang": "yi",
      "Title": "ענגליש גראַמאַטיק עקסערסייזיז | פּשוט בריטיש ⭐️ #53 was born",
      "Description": "לערן ענגליש גראַמאַטיק! טוישן אַ וואָרט אין אַ זאַץ.\n\n\n\n0:04 1:29 2:51 \nHe was born in 2001\nhi wɑz bɔrn ɪn 2001\nער איז געבוירן געוואָרן אין 2001\n\n0:21 1:46 3:08 \nHe was born 20 years ago\nhi wɑz bɔrn 20 jɪrz əˈgoʊ\nער איז געבוירן 20 יאָר צוריק\n\n0:36 2:00 3:22 \nYou were born 20 years ago\nju wər bɔrn 20 jɪrz əˈgoʊ\nאיר זענט געבוירן 20 יאָר צוריק\n\n0:52 2:16 3:38 \nYou were born in 2001\nju wər bɔrn ɪn 2001\nדו ביסט געבוירן געוואָרן אין 2001\n\n1:09 2:32 3:54 \nI was born in 2001\naɪ wɑz bɔrn ɪn 2001\nאיך בין געבוירן געוואָרן אין 2001\n\n\n\nצו לערערס און שולן:\nדער ווידעא איז ארויס אונטער Creative Commons License.\n  CC BY 3.0 https://creativecommons.org/licenses/by/3.0/ \nפילן פריי צו נוצן דעם ווידעא אין דיין קלאסן!\n\nמיר נוצן Google Translate דינסט פֿאַר לאָוקאַלאַזיישאַן. אויב איר געפֿינען עטלעכע מיסטייקס, ביטע לאָזן אונדז וויסן.\n"
    },
    {
      "Lang": "yo",
      "Title": "Awọn adaṣe gẹẹsi Gẹẹsi | Rọrun Ara ilu Gẹẹsi ⭐️ #53 was born",
      "Description": "Kọ ẹkọ gẹẹsi Gẹẹsi! Yi ọrọ pada ninu gbolohun ọrọ.\n\n\n\n0:04 1:29 2:51 \nHe was born in 2001\nhi wɑz bɔrn ɪn 2001\nA bi ni ọdun 2001\n\n0:21 1:46 3:08 \nHe was born 20 years ago\nhi wɑz bɔrn 20 jɪrz əˈgoʊ\nA bi i ni ọdun 20 sẹyin\n\n0:36 2:00 3:22 \nYou were born 20 years ago\nju wər bɔrn 20 jɪrz əˈgoʊ\nA bi ọ ni ọdun 20 sẹhin\n\n0:52 2:16 3:38 \nYou were born in 2001\nju wər bɔrn ɪn 2001\nO bi ni ọdun 2001\n\n1:09 2:32 3:54 \nI was born in 2001\naɪ wɑz bɔrn ɪn 2001\nA bi mi ni ọdun 2001\n\n\n\nSi awọn olukọ ati awọn ile-iwe:\nFidio yii ni a tẹjade labẹ Iwe-aṣẹ Creative Commons.\n  CC BY 3.0 https://creativecommons.org/licenses/by/3.0/ \nLero lati lo fidio yii ninu awọn kilasi rẹ!\n\nA lo iṣẹ Google Translate fun agbegbe. Ti o ba rii diẹ ninu awọn aṣiṣe, jọwọ jẹ ki a mọ.\n"
    },
    {
      "Lang": "zh-Hans",
      "Title": "英语语法练习 | 简单 英式 ⭐️ #53 was born",
      "Description": "学习英语语法！ 更改句子中的单词。\n\n\n\n0:04 1:29 2:51 \nHe was born in 2001\nhi wɑz bɔrn ɪn 2001\n他2001年出生\n\n0:21 1:46 3:08 \nHe was born 20 years ago\nhi wɑz bɔrn 20 jɪrz əˈgoʊ\n他二十年前出生\n\n0:36 2:00 3:22 \nYou were born 20 years ago\nju wər bɔrn 20 jɪrz əˈgoʊ\n你是20年前出生的\n\n0:52 2:16 3:38 \nYou were born in 2001\nju wər bɔrn ɪn 2001\n你2001年出生\n\n1:09 2:32 3:54 \nI was born in 2001\naɪ wɑz bɔrn ɪn 2001\n我2001年出生\n\n\n\n致老师和学校：\n该视频是根据知识共享许可发布的。\n  CC BY 3.0 https://creativecommons.org/licenses/by/3.0/ \n随时在您的课程中使用此视频！\n\n我们使用Google翻译服务进行本地化。如果您发现一些错误，请告诉我们。\n"
    },
    {
      "Lang": "zh-Hant",
      "Title": "英語語法練習 | 簡單 英式 ⭐️ #53 was born",
      "Description": "學習英語語法！ 更改句子中的單詞。\n\n\n\n0:04 1:29 2:51 \nHe was born in 2001\nhi wɑz bɔrn ɪn 2001\n他2001年出生\n\n0:21 1:46 3:08 \nHe was born 20 years ago\nhi wɑz bɔrn 20 jɪrz əˈgoʊ\n他二十年前出生\n\n0:36 2:00 3:22 \nYou were born 20 years ago\nju wər bɔrn 20 jɪrz əˈgoʊ\n你是20年前出生的\n\n0:52 2:16 3:38 \nYou were born in 2001\nju wər bɔrn ɪn 2001\n你2001年出生\n\n1:09 2:32 3:54 \nI was born in 2001\naɪ wɑz bɔrn ɪn 2001\n我2001年出生\n\n\n\n致老師和學校：\n該視頻是根據知識共享許可發布的。\n  CC BY 3.0 https://creativecommons.org/licenses/by/3.0/ \n隨時在您的課程中使用此視頻！\n\n我們使用Google翻譯服務進行本地化。如果您發現一些錯誤，請告訴我們。\n"
    },
    {
      "Lang": "zu",
      "Title": "Ukuzivocavoca kolimi lwesiNgisi | Elula IBritish ⭐️ #53 was born",
      "Description": "Funda uhlelo lolimi lwesiNgisi! Shintsha igama emshweni.\n\n\n\n0:04 1:29 2:51 \nHe was born in 2001\nhi wɑz bɔrn ɪn 2001\nWazalwa ngonyaka ka-2001\n\n0:21 1:46 3:08 \nHe was born 20 years ago\nhi wɑz bɔrn 20 jɪrz əˈgoʊ\nWazalwa eminyakeni engama-20 eyedlule\n\n0:36 2:00 3:22 \nYou were born 20 years ago\nju wər bɔrn 20 jɪrz əˈgoʊ\nWazalwa eminyakeni engama-20 eyedlule\n\n0:52 2:16 3:38 \nYou were born in 2001\nju wər bɔrn ɪn 2001\nWazalwa ngonyaka ka-2001\n\n1:09 2:32 3:54 \nI was born in 2001\naɪ wɑz bɔrn ɪn 2001\nNgazalwa ngo-2001\n\n\n\nKothisha nasezikoleni:\nLe vidiyo ishicilelwe ngaphansi kwelayisensi yeCreative Commons.\n  CC BY 3.0 https://creativecommons.org/licenses/by/3.0/ \nZizwe ukhululekile ukusebenzisa le vidiyo emakilasini akho!\n\nSisebenzisa insiza ye-Google Humusha ukwenza okwasendaweni. Uma uthola amanye amaphutha, sicela usazise.\n"
    }
  ]
}