{
  "File": "grammar-en-beginner-simple_4_UK.mp4",
  "ID": "e8_409lAlPg",
  "AudioLang": "en",
  "DefaultLang": "jv",
  "Title": "Latihan grammar Inggris | Prasaja Inggris ⭐️ #4 am/are/is",
  "Description": "Sinau tata basa Inggris! Ngganti tembung sajrone ukara.\n\n\n\n0:04 1:16 2:24 \nKim and I are sleepy\nkɪm ənd aɪ ər sˈlipi\nKim lan aku turu\n\n0:18 1:29 2:37 \nThe cat is sleepy\nðə kæt ɪz sˈlipi\nKucing mau turu\n\n0:32 1:42 2:50 \nI am sleepy\naɪ æm sˈlipi\nAku turu\n\n0:45 1:55 3:03 \nI am angry\naɪ æm ˈæŋgri\nAku nesu\n\n0:59 2:08 3:16 \nKim and I are angry\nkɪm ənd aɪ ər ˈæŋgri\nKim lan aku nesu\n\n\n\nTumrap guru lan sekolah:\nVideo iki diterbitake ing lisensi Creative Commons.\n  CC BY 3.0 https://creativecommons.org/licenses/by/3.0/ \nOjo nggunakake video iki ing kelas sampeyan!\n\nKita nggunakake layanan Google Translate kanggo lokalisasi. Yen sampeyan nemokake sawetara kesalahan, kabari.\n",
  "VideoTags": "Grammar Inggris,انګلیسي ګرامر,Naxwaha Ingiriisiga,Èdè Gẹẹsi,tatabahasa Inggeris,inglise keele grammatika,engleska gramatika,Anglų kalbos gramatika,gramática inglesa,Englannin kielioppi,Англис тилинин грамматикасы,Граматика англійської мови,گرامر انگلیسی,અંગ્રેજી વ્યાકરણ,ไวยากรณ์ภาษาอังกฤษ",
  "YoutubeSynced": true,
  "ThumbnailUploaded": true,
  "Localizations": [
    {
      "Lang": "af",
      "Title": "Engelse grammatika-oefeninge | eenvoudige Britse ⭐️ #4 am/are/is",
      "Description": "Leer Engelse grammatika! Verander 'n woord in 'n sin.\n\n\n\n0:04 1:16 2:24 \nKim and I are sleepy\nkɪm ənd aɪ ər sˈlipi\nKim en ek is slaperig\n\n0:18 1:29 2:37 \nThe cat is sleepy\nðə kæt ɪz sˈlipi\nDie kat is slaperig\n\n0:32 1:42 2:50 \nI am sleepy\naɪ æm sˈlipi\nek is vaak\n\n0:45 1:55 3:03 \nI am angry\naɪ æm ˈæŋgri\nEk is kwaad\n\n0:59 2:08 3:16 \nKim and I are angry\nkɪm ənd aɪ ər ˈæŋgri\nKim en ek is kwaad\n\n\n\nAan onderwysers en skole:\nHierdie video word onder Creative Commons-lisensie gepubliseer.\n  CC BY 3.0 https://creativecommons.org/licenses/by/3.0/ \nGebruik gerus hierdie video in u klasse!\n\nOns gebruik Google Translate-diens vir lokalisering. Laat weet ons as u foute ervaar.\n"
    },
    {
      "Lang": "am",
      "Title": "የእንግሊዝኛ ሰዋሰው ልምምዶች | ቀላል ብሪቲሽ ⭐️ #4 am/are/is",
      "Description": "የእንግሊዝኛ ሰዋስው ይማሩ! በአረፍተ ነገር ውስጥ አንድ ቃል ይለውጡ ፡፡\n\n\n\n0:04 1:16 2:24 \nKim and I are sleepy\nkɪm ənd aɪ ər sˈlipi\nእኔ እና ኪም እኔ አንቀላፍተናል\n\n0:18 1:29 2:37 \nThe cat is sleepy\nðə kæt ɪz sˈlipi\nድመቷ አንቀላፋ ነው\n\n0:32 1:42 2:50 \nI am sleepy\naɪ æm sˈlipi\nእንቅልፍ አለብኝ\n\n0:45 1:55 3:03 \nI am angry\naɪ æm ˈæŋgri\nተናድጃለሁ\n\n0:59 2:08 3:16 \nKim and I are angry\nkɪm ənd aɪ ər ˈæŋgri\nእኔ እና ኪም ተቆጥተናል\n\n\n\nለመምህራን እና ለት / ቤቶች\nይህ ቪዲዮ በ Creative Commons ፈቃድ ስር ታትሟል ፡፡\n  CC BY 3.0 https://creativecommons.org/licenses/by/3.0/ \nይህንን ቪዲዮ በትምህርቶችዎ ውስጥ ለመጠቀም ነፃ ይሁኑ!\n\nለትርጉም የ Google ትርጉም አገልግሎትን እንጠቀማለን። አንዳንድ ስህተቶች ካገኙ እባክዎ ያሳውቁን።\n"
    },
    {
      "Lang": "ar",
      "Title": "تمارين قواعد اللغة الإنجليزية | بسيط بريطاني ⭐️ #4 am/are/is",
      "Description": "تعلم قواعد اللغة الإنجليزية! تغيير كلمة في جملة.\n\n\n\n0:04 1:16 2:24 \nKim and I are sleepy\nkɪm ənd aɪ ər sˈlipi\nأنا كيم نعسان\n\n0:18 1:29 2:37 \nThe cat is sleepy\nðə kæt ɪz sˈlipi\nالقط نعسان\n\n0:32 1:42 2:50 \nI am sleepy\naɪ æm sˈlipi\nانا نائم\n\n0:45 1:55 3:03 \nI am angry\naɪ æm ˈæŋgri\nانا غاضب\n\n0:59 2:08 3:16 \nKim and I are angry\nkɪm ənd aɪ ər ˈæŋgri\nأنا كيم وغاضب\n\n\n\nللمعلمين والمدارس:\nتم نشر هذا الفيديو تحت رخصة المشاع الإبداعي.\n  CC BY 3.0 https://creativecommons.org/licenses/by/3.0/ \nلا تتردد في استخدام هذا الفيديو في الفصول الدراسية!\n\nنستخدم خدمة الترجمة من Google للترجمة. إذا وجدت بعض الأخطاء ، يرجى إعلامنا.\n"
    },
    {
      "Lang": "az",
      "Title": "İngilis qrammatikası təlimləri | Sadə İngilis ⭐️ #4 am/are/is",
      "Description": "İngilis dili qrammatikasını öyrənin! Bir cümlədə bir söz dəyişdirin.\n\n\n\n0:04 1:16 2:24 \nKim and I are sleepy\nkɪm ənd aɪ ər sˈlipi\nKim və mən yuxumuz\n\n0:18 1:29 2:37 \nThe cat is sleepy\nðə kæt ɪz sˈlipi\nPişik yuxudur\n\n0:32 1:42 2:50 \nI am sleepy\naɪ æm sˈlipi\nYuxusuzam\n\n0:45 1:55 3:03 \nI am angry\naɪ æm ˈæŋgri\nHirslənirəm\n\n0:59 2:08 3:16 \nKim and I are angry\nkɪm ənd aɪ ər ˈæŋgri\nKim və mən əsəbiləşirik\n\n\n\nMüəllimlərə və məktəblərə:\nBu video Creative Commons lisenziyası altında yayımlanıb.\n  CC BY 3.0 https://creativecommons.org/licenses/by/3.0/ \nBu videonu dərslərinizdə istifadə etməkdən çekinmeyin!\n\nLokallaşdırma üçün Google Translate xidmətindən istifadə edirik. Bəzi səhvlər taparsanız, bizə bildirin.\n"
    },
    {
      "Lang": "be",
      "Title": "Граматычныя практыкаванні на англійскай мове | Просты Брытанцы ⭐️ #4 am/are/is",
      "Description": "Вывучайце англійскую граматыку! Змяніце слова ў сказе.\n\n\n\n0:04 1:16 2:24 \nKim and I are sleepy\nkɪm ənd aɪ ər sˈlipi\nМы з Кімам сонныя\n\n0:18 1:29 2:37 \nThe cat is sleepy\nðə kæt ɪz sˈlipi\nКотка сонная\n\n0:32 1:42 2:50 \nI am sleepy\naɪ æm sˈlipi\nЯ сонны\n\n0:45 1:55 3:03 \nI am angry\naɪ æm ˈæŋgri\nя злы\n\n0:59 2:08 3:16 \nKim and I are angry\nkɪm ənd aɪ ər ˈæŋgri\nМы з Кімам раззлаваліся\n\n\n\nДля настаўнікаў і школ:\nГэта відэа публікуецца пад ліцэнзіяй Creative Commons.\n  CC BY 3.0 https://creativecommons.org/licenses/by/3.0/ \nНе саромейцеся выкарыстоўваць гэта відэа ў сваіх класах!\n\nМы выкарыстоўваем паслугу Google Translate для лакалізацыі. Калі вы выявілі некаторыя памылкі, калі ласка, паведаміце нам пра гэта.\n"
    },
    {
      "Lang": "bg",
      "Title": "Английски граматически упражнения | прост британски ⭐️ #4 am/are/is",
      "Description": "Научете английска граматика! Промяна на дума в изречение.\n\n\n\n0:04 1:16 2:24 \nKim and I are sleepy\nkɪm ənd aɪ ər sˈlipi\nКим и аз сме сънливи\n\n0:18 1:29 2:37 \nThe cat is sleepy\nðə kæt ɪz sˈlipi\nКотката е сънна\n\n0:32 1:42 2:50 \nI am sleepy\naɪ æm sˈlipi\nспи ми се\n\n0:45 1:55 3:03 \nI am angry\naɪ æm ˈæŋgri\nАз съм ядосан\n\n0:59 2:08 3:16 \nKim and I are angry\nkɪm ənd aɪ ər ˈæŋgri\nКим и аз се ядосваме\n\n\n\nЗа учители и училища:\nТози видеоклип е публикуван под Creative Commons License.\n  CC BY 3.0 https://creativecommons.org/licenses/by/3.0/ \nЧувствайте се свободни да използвате това видео в класовете си!\n\nНие използваме услугата Google Translate за локализация. Ако откриете някои грешки, моля, уведомете ни.\n"
    },
    {
      "Lang": "bn",
      "Title": "ইংরেজি ব্যাকরণ অনুশীলন | সহজ ব্রিটিশ ⭐️ #4 am/are/is",
      "Description": "ইংরেজি ব্যাকরণ শিখুন! একটি বাক্যে একটি শব্দ পরিবর্তন করুন।\n\n\n\n0:04 1:16 2:24 \nKim and I are sleepy\nkɪm ənd aɪ ər sˈlipi\nআমি আর কিম ঘুমিয়ে পড়েছি\n\n0:18 1:29 2:37 \nThe cat is sleepy\nðə kæt ɪz sˈlipi\nবিড়াল ঘুমিয়ে আছে\n\n0:32 1:42 2:50 \nI am sleepy\naɪ æm sˈlipi\nআমার ঘুম পাচ্ছে\n\n0:45 1:55 3:03 \nI am angry\naɪ æm ˈæŋgri\nআমি রাগ করছি\n\n0:59 2:08 3:16 \nKim and I are angry\nkɪm ənd aɪ ər ˈæŋgri\nআমি আর কিম রেগে আছি\n\n\n\nশিক্ষক এবং বিদ্যালয়ের কাছে:\nএই ভিডিওটি ক্রিয়েটিভ কমন্স লাইসেন্সের আওতায় প্রকাশিত হয়েছে।\n  CC BY 3.0 https://creativecommons.org/licenses/by/3.0/ \nআপনার ক্লাসে এই ভিডিওটি নির্দ্বিধায় ব্যবহার করুন!\n\nআমরা স্থানীয়করণের জন্য গুগল অনুবাদ পরিষেবা ব্যবহার করি। আপনি যদি কিছু ভুল খুঁজে পান তবে দয়া করে আমাদের জানান।\n"
    },
    {
      "Lang": "bs",
      "Title": "Engleske gramatičke vježbe | Jednostavno Britanski ⭐️ #4 am/are/is",
      "Description": "Naučite englesku gramatiku! Promenite reč u rečenici.\n\n\n\n0:04 1:16 2:24 \nKim and I are sleepy\nkɪm ənd aɪ ər sˈlipi\nKim i ja smo pospani\n\n0:18 1:29 2:37 \nThe cat is sleepy\nðə kæt ɪz sˈlipi\nMačka je pospana\n\n0:32 1:42 2:50 \nI am sleepy\naɪ æm sˈlipi\nspava mi se\n\n0:45 1:55 3:03 \nI am angry\naɪ æm ˈæŋgri\nLjuta sam\n\n0:59 2:08 3:16 \nKim and I are angry\nkɪm ənd aɪ ər ˈæŋgri\nKim i ja smo ljuti\n\n\n\nNastavnicima i školama:\nOvaj video je objavljen pod Creative Commons licencom.\n  CC BY 3.0 https://creativecommons.org/licenses/by/3.0/ \nSlobodno koristite ovaj videozapis u svojim predavanjima!\n\nZa lokalizaciju koristimo uslugu Google Translate. Ako pronađete neke greške, javite nam se.\n"
    },
    {
      "Lang": "ca",
      "Title": "Exercicis de gramàtica anglesa | Senzill Britànic ⭐️ #4 am/are/is",
      "Description": "Apreneu gramàtica anglesa! Canvia una paraula en una frase.\n\n\n\n0:04 1:16 2:24 \nKim and I are sleepy\nkɪm ənd aɪ ər sˈlipi\nKim i jo somniem\n\n0:18 1:29 2:37 \nThe cat is sleepy\nðə kæt ɪz sˈlipi\nEl gat està adormit\n\n0:32 1:42 2:50 \nI am sleepy\naɪ æm sˈlipi\nestic adormit\n\n0:45 1:55 3:03 \nI am angry\naɪ æm ˈæŋgri\nestic enfadat\n\n0:59 2:08 3:16 \nKim and I are angry\nkɪm ənd aɪ ər ˈæŋgri\nKim i jo estem enfadats\n\n\n\nA professors i escoles:\nAquest vídeo es publica sota llicència Creative Commons.\n  CC BY 3.0 https://creativecommons.org/licenses/by/3.0/ \nNo dubteu a utilitzar aquest vídeo a les vostres classes.\n\nUtilitzem el servei de Google Translate per a la localització. Si trobeu alguns errors, feu-nos-ho saber.\n"
    },
    {
      "Lang": "co",
      "Title": "Esercizii di grammatica inglese | Semplice Britannicu ⭐️ #4 am/are/is",
      "Description": "Amparate a grammatica inglese! Cambia una parolla in una frase.\n\n\n\n0:04 1:16 2:24 \nKim and I are sleepy\nkɪm ənd aɪ ər sˈlipi\nKim è eiu sò dorme\n\n0:18 1:29 2:37 \nThe cat is sleepy\nðə kæt ɪz sˈlipi\nU ghjattu hè dorme\n\n0:32 1:42 2:50 \nI am sleepy\naɪ æm sˈlipi\nU sonnu\n\n0:45 1:55 3:03 \nI am angry\naɪ æm ˈæŋgri\nSò arrabbiatu\n\n0:59 2:08 3:16 \nKim and I are angry\nkɪm ənd aɪ ər ˈæŋgri\nKim è eiu sò arraggiati\n\n\n\nÀ i prufessori è à e scole:\nStu video hè publicatu sottu licenza Creative Commons.\n  CC BY 3.0 https://creativecommons.org/licenses/by/3.0/ \nSentitevi liberi d'utilizà stu video in i vostri classi!\n\nUsu u serviziu di Google Translate per a localizazione. Se truvate qualchì sbagli, per piaceci di sapè.\n"
    },
    {
      "Lang": "cs",
      "Title": "Cvičení anglické gramatiky | Jednoduchý britský ⭐️ #4 am/are/is",
      "Description": "Naučte se anglickou gramatiku! Změňte slovo ve větě.\n\n\n\n0:04 1:16 2:24 \nKim and I are sleepy\nkɪm ənd aɪ ər sˈlipi\nKim a já jsme ospalý\n\n0:18 1:29 2:37 \nThe cat is sleepy\nðə kæt ɪz sˈlipi\nKočka je ospalá\n\n0:32 1:42 2:50 \nI am sleepy\naɪ æm sˈlipi\njsem ospalý\n\n0:45 1:55 3:03 \nI am angry\naɪ æm ˈæŋgri\njsem naštvaný\n\n0:59 2:08 3:16 \nKim and I are angry\nkɪm ənd aɪ ər ˈæŋgri\nKim a já jsme naštvaní\n\n\n\nUčitelům a školám:\nToto video je publikováno pod licencí Creative Commons License.\n  CC BY 3.0 https://creativecommons.org/licenses/by/3.0/ \nNeváhejte použít toto video ve svých třídách!\n\nK lokalizaci používáme službu Google Translate. Pokud narazíte na nějaké chyby, dejte nám prosím vědět.\n"
    },
    {
      "Lang": "cy",
      "Title": "Ymarferion gramadeg Saesneg | Syml Prydeinig ⭐️ #4 am/are/is",
      "Description": "Dysgu gramadeg Saesneg! Newid gair mewn brawddeg.\n\n\n\n0:04 1:16 2:24 \nKim and I are sleepy\nkɪm ənd aɪ ər sˈlipi\nMae Kim a minnau'n gysglyd\n\n0:18 1:29 2:37 \nThe cat is sleepy\nðə kæt ɪz sˈlipi\nMae'r gath yn gysglyd\n\n0:32 1:42 2:50 \nI am sleepy\naɪ æm sˈlipi\nRwy'n gysglyd\n\n0:45 1:55 3:03 \nI am angry\naɪ æm ˈæŋgri\nDwi yn ddig\n\n0:59 2:08 3:16 \nKim and I are angry\nkɪm ənd aɪ ər ˈæŋgri\nMae Kim a minnau yn ddig\n\n\n\nI athrawon ac ysgolion:\nCyhoeddir y fideo hon o dan Creative Commons License.\n  CC BY 3.0 https://creativecommons.org/licenses/by/3.0/ \nMae croeso i chi ddefnyddio'r fideo hon yn eich dosbarthiadau!\n\nRydym yn defnyddio gwasanaeth Google Translate ar gyfer lleoleiddio. Os dewch chi o hyd i rai camgymeriadau, rhowch wybod i ni.\n"
    },
    {
      "Lang": "da",
      "Title": "Engelsk grammatikøvelser | Enkel britisk ⭐️ #4 am/are/is",
      "Description": "Lær engelsk grammatik! Skift et ord i en sætning.\n\n\n\n0:04 1:16 2:24 \nKim and I are sleepy\nkɪm ənd aɪ ər sˈlipi\nKim og jeg er søvnige\n\n0:18 1:29 2:37 \nThe cat is sleepy\nðə kæt ɪz sˈlipi\nKatten er søvnig\n\n0:32 1:42 2:50 \nI am sleepy\naɪ æm sˈlipi\njeg er træt\n\n0:45 1:55 3:03 \nI am angry\naɪ æm ˈæŋgri\nJeg er vred\n\n0:59 2:08 3:16 \nKim and I are angry\nkɪm ənd aɪ ər ˈæŋgri\nKim og jeg er vred\n\n\n\nTil lærere og skoler:\nDenne video er offentliggjort under Creative Commons License.\n  CC BY 3.0 https://creativecommons.org/licenses/by/3.0/ \nBrug gjerne denne video i dine klasser!\n\nVi bruger Google Translate-tjenesten til lokalisering. Hvis du finder nogle fejl, så lad os vide det.\n"
    },
    {
      "Lang": "de",
      "Title": "Englische Grammatikübungen | Einfach britisch ⭐️ #4 am/are/is",
      "Description": "Lerne englische Grammatik! Ändern Sie ein Wort in einem Satz.\n\n\n\n0:04 1:16 2:24 \nKim and I are sleepy\nkɪm ənd aɪ ər sˈlipi\nKim und ich sind müde\n\n0:18 1:29 2:37 \nThe cat is sleepy\nðə kæt ɪz sˈlipi\nDie Katze ist müde\n\n0:32 1:42 2:50 \nI am sleepy\naɪ æm sˈlipi\nich bin schläfrig\n\n0:45 1:55 3:03 \nI am angry\naɪ æm ˈæŋgri\nich bin wütend\n\n0:59 2:08 3:16 \nKim and I are angry\nkɪm ənd aɪ ər ˈæŋgri\nKim und ich sind wütend\n\n\n\nAn Lehrer und Schulen:\nDieses Video wird unter der Creative Commons License veröffentlicht.\n  CC BY 3.0 https://creativecommons.org/licenses/by/3.0/ \nFühlen Sie sich frei, dieses Video in Ihren Klassen zu verwenden!\n\nWir verwenden den Google Translate-Dienst zur Lokalisierung. Wenn Sie Fehler finden, teilen Sie uns dies bitte mit.\n"
    },
    {
      "Lang": "el",
      "Title": "Αγγλικές ασκήσεις γραμματικής | Απλός Βρετανοί ⭐️ #4 am/are/is",
      "Description": "Μάθετε αγγλική γραμματική! Αλλάξτε μια λέξη σε μια πρόταση.\n\n\n\n0:04 1:16 2:24 \nKim and I are sleepy\nkɪm ənd aɪ ər sˈlipi\nΟ Kim και εγώ είμαστε νυσταγμένοι\n\n0:18 1:29 2:37 \nThe cat is sleepy\nðə kæt ɪz sˈlipi\nΗ γάτα είναι υπνηλία\n\n0:32 1:42 2:50 \nI am sleepy\naɪ æm sˈlipi\nνυστάζω\n\n0:45 1:55 3:03 \nI am angry\naɪ æm ˈæŋgri\nΕίμαι θυμωμένος\n\n0:59 2:08 3:16 \nKim and I are angry\nkɪm ənd aɪ ər ˈæŋgri\nΟ Kim και εγώ είμαστε θυμωμένοι\n\n\n\nΣτους εκπαιδευτικούς και τα σχολεία:\nΑυτό το βίντεο δημοσιεύεται υπό Creative Commons License.\n  CC BY 3.0 https://creativecommons.org/licenses/by/3.0/ \nΜπορείτε να χρησιμοποιήσετε αυτό το βίντεο στις τάξεις σας!\n\nΧρησιμοποιούμε την υπηρεσία Google Translate για εντοπισμό. Αν βρείτε κάποια λάθη, ενημερώστε μας.\n"
    },
    {
      "Lang": "en",
      "Title": "English grammar exercises | Simple British ⭐️ #4 am/are/is",
      "Description": "Learn English grammar! Change a word in a sentence.\n\n\n\n0:04 1:16 2:24 \nKim and I are sleepy\nkɪm ənd aɪ ər sˈlipi\nKim and I are sleepy\n\n0:18 1:29 2:37 \nThe cat is sleepy\nðə kæt ɪz sˈlipi\nThe cat is sleepy\n\n0:32 1:42 2:50 \nI am sleepy\naɪ æm sˈlipi\nI am sleepy\n\n0:45 1:55 3:03 \nI am angry\naɪ æm ˈæŋgri\nI am angry\n\n0:59 2:08 3:16 \nKim and I are angry\nkɪm ənd aɪ ər ˈæŋgri\nKim and I are angry\n\n\n\nTo teachers and schools:\nThis video is published under Creative Commons License.\n  CC BY 3.0 https://creativecommons.org/licenses/by/3.0/ \nFeel free to use this video in your classes!\n\nWe use Google Translate service for localization. If you find some mistakes, please let us know.\n"
    },
    {
      "Lang": "es",
      "Title": "Ejercicios de gramática inglesa | Sencillo británico ⭐️ #4 am/are/is",
      "Description": "¡Aprende gramática inglesa! Cambiar una palabra en una oración.\n\n\n\n0:04 1:16 2:24 \nKim and I are sleepy\nkɪm ənd aɪ ər sˈlipi\nKim y yo tenemos sueño\n\n0:18 1:29 2:37 \nThe cat is sleepy\nðə kæt ɪz sˈlipi\nEl gato tiene sueño\n\n0:32 1:42 2:50 \nI am sleepy\naɪ æm sˈlipi\ntengo sueño\n\n0:45 1:55 3:03 \nI am angry\naɪ æm ˈæŋgri\nEstoy enojado\n\n0:59 2:08 3:16 \nKim and I are angry\nkɪm ənd aɪ ər ˈæŋgri\nKim y yo estamos enojados\n\n\n\nA profesores y escuelas:\nEste video se publica bajo licencia Creative Commons.\n  CC BY 3.0 https://creativecommons.org/licenses/by/3.0/ \n¡Siéntete libre de usar este video en tus clases!\n\nUtilizamos el servicio Google Translate para la localización. Si encuentra algunos errores, háganoslo saber.\n"
    },
    {
      "Lang": "et",
      "Title": "Inglise keele grammatika harjutused | Lihtne Briti ⭐️ #4 am/are/is",
      "Description": "Õpi inglise keele grammatikat! Muutke lauses sõna.\n\n\n\n0:04 1:16 2:24 \nKim and I are sleepy\nkɪm ənd aɪ ər sˈlipi\nKim ja mina oleme unised\n\n0:18 1:29 2:37 \nThe cat is sleepy\nðə kæt ɪz sˈlipi\nKass on unine\n\n0:32 1:42 2:50 \nI am sleepy\naɪ æm sˈlipi\nma olen unine\n\n0:45 1:55 3:03 \nI am angry\naɪ æm ˈæŋgri\nma olen vihane\n\n0:59 2:08 3:16 \nKim and I are angry\nkɪm ənd aɪ ər ˈæŋgri\nKim ja mina oleme vihased\n\n\n\nÕpetajatele ja koolidele:\nSee video on avaldatud Creative Commonsi litsentsi all.\n  CC BY 3.0 https://creativecommons.org/licenses/by/3.0/ \nKasutage seda videot julgelt oma tundides!\n\nLokaliseerimiseks kasutame Google'i tõlke teenust. Kui leiate vigu, palun andke meile sellest teada.\n"
    },
    {
      "Lang": "eu",
      "Title": "Ingelesezko gramatika ariketak | simple British ⭐️ #4 am/are/is",
      "Description": "Ikasi ingelesezko gramatika! Aldatu esaldi batean hitzak.\n\n\n\n0:04 1:16 2:24 \nKim and I are sleepy\nkɪm ənd aɪ ər sˈlipi\nKim eta biok lo gaude\n\n0:18 1:29 2:37 \nThe cat is sleepy\nðə kæt ɪz sˈlipi\nKatua lo dago\n\n0:32 1:42 2:50 \nI am sleepy\naɪ æm sˈlipi\nLotan nago\n\n0:45 1:55 3:03 \nI am angry\naɪ æm ˈæŋgri\nhaserre nago\n\n0:59 2:08 3:16 \nKim and I are angry\nkɪm ənd aɪ ər ˈæŋgri\nKim eta biok haserre gaude\n\n\n\nIrakasleei eta ikastetxeei:\nBideo hau Creative Commons lizentziapean argitaratzen da.\n  CC BY 3.0 https://creativecommons.org/licenses/by/3.0/ \nEz ahaztu bideo hau zure klaseetan erabiltzeko!\n\nGoogle Translate zerbitzua erabiltzen dugu lokalizaziorako. Akats batzuk aurkitzen badituzu, adierazi iezaguzu\n"
    },
    {
      "Lang": "fa",
      "Title": "تمرین های دستور زبان انگلیسی | ساده انگلیسی ⭐️ #4 am/are/is",
      "Description": "گرامر انگلیسی را بیاموزید! یک کلمه را در یک جمله تغییر دهید.\n\n\n\n0:04 1:16 2:24 \nKim and I are sleepy\nkɪm ənd aɪ ər sˈlipi\nمن و کیم خواب هستیم\n\n0:18 1:29 2:37 \nThe cat is sleepy\nðə kæt ɪz sˈlipi\nگربه خواب است\n\n0:32 1:42 2:50 \nI am sleepy\naɪ æm sˈlipi\nخوابم میاد\n\n0:45 1:55 3:03 \nI am angry\naɪ æm ˈæŋgri\nعصبانی هستم\n\n0:59 2:08 3:16 \nKim and I are angry\nkɪm ənd aɪ ər ˈæŋgri\nمن و کیم عصبانی هستیم\n\n\n\nبه معلمان و مدارس:\nاین ویدیو تحت مجوز Creative Commons منتشر شده است.\n  CC BY 3.0 https://creativecommons.org/licenses/by/3.0/ \nدر استفاده از این فیلم در کلاس های خود احساس راحتی کنید!\n\nما از خدمات Google Translate برای محلی سازی استفاده می کنیم. اگر شما برخی از اشتباهات ، لطفا به ما اطلاع دهید.\n"
    },
    {
      "Lang": "fi",
      "Title": "Englannin kieliopin harjoitukset | Yksinkertainen brittiläinen ⭐️ #4 am/are/is",
      "Description": "Opi englannin kielioppi! Vaihda sana lauseessa.\n\n\n\n0:04 1:16 2:24 \nKim and I are sleepy\nkɪm ənd aɪ ər sˈlipi\nKim ja minä olemme uneliaita\n\n0:18 1:29 2:37 \nThe cat is sleepy\nðə kæt ɪz sˈlipi\nKissa on uninen\n\n0:32 1:42 2:50 \nI am sleepy\naɪ æm sˈlipi\nolen uninen\n\n0:45 1:55 3:03 \nI am angry\naɪ æm ˈæŋgri\nOlen vihainen\n\n0:59 2:08 3:16 \nKim and I are angry\nkɪm ənd aɪ ər ˈæŋgri\nKim ja minä olemme vihaisia\n\n\n\nOpettajille ja kouluille:\nTämä video on julkaistu Creative Commons -lisenssillä.\n  CC BY 3.0 https://creativecommons.org/licenses/by/3.0/ \nVoit vapaasti käyttää tätä videota luokissa!\n\nKäytämme lokalisointiin Google Translate -palvelua. Jos löydät virheitä, ota meihin yhteyttä.\n"
    },
    {
      "Lang": "fil",
      "Title": "Pagsasanay sa grammar ng Ingles | Simple British ⭐️ #4 am/are/is",
      "Description": "Alamin ang grammar ng Ingles! Baguhin ang isang salita sa isang pangungusap.\n\n\n\n0:04 1:16 2:24 \nKim and I are sleepy\nkɪm ənd aɪ ər sˈlipi\nInaantok na kami ni Kim\n\n0:18 1:29 2:37 \nThe cat is sleepy\nðə kæt ɪz sˈlipi\nInaantok ang pusa\n\n0:32 1:42 2:50 \nI am sleepy\naɪ æm sˈlipi\nako ay inaantok\n\n0:45 1:55 3:03 \nI am angry\naɪ æm ˈæŋgri\ngalit ako\n\n0:59 2:08 3:16 \nKim and I are angry\nkɪm ənd aɪ ər ˈæŋgri\nGalit ako at si Kim\n\n\n\nSa mga guro at paaralan:\nAng video na ito ay nai-publish sa ilalim ng Lisensya ng Creative Commons.\n  CC BY 3.0 https://creativecommons.org/licenses/by/3.0/ \nHuwag mag-atubiling gamitin ang video na ito sa iyong mga klase!\n\nWe use Google Translate service for localization. If you find some mistakes, please let us know.\n"
    },
    {
      "Lang": "fr",
      "Title": "Exercices de grammaire anglaise | Facile Britanique ⭐️ #4 am/are/is",
      "Description": "Apprenez la grammaire anglaise! Changer un mot dans une phrase.\n\n\n\n0:04 1:16 2:24 \nKim and I are sleepy\nkɪm ənd aɪ ər sˈlipi\nKim et moi avons sommeil\n\n0:18 1:29 2:37 \nThe cat is sleepy\nðə kæt ɪz sˈlipi\nLe chat a sommeil\n\n0:32 1:42 2:50 \nI am sleepy\naɪ æm sˈlipi\nj'ai sommeil\n\n0:45 1:55 3:03 \nI am angry\naɪ æm ˈæŋgri\nJe suis faché\n\n0:59 2:08 3:16 \nKim and I are angry\nkɪm ənd aɪ ər ˈæŋgri\nKim et moi sommes en colère\n\n\n\nAux enseignants et aux écoles:\nCette vidéo est publiée sous licence Creative Commons.\n  CC BY 3.0 https://creativecommons.org/licenses/by/3.0/ \nN'hésitez pas à utiliser cette vidéo dans vos cours!\n\nNous utilisons le service Google Translate pour la localisation. Si vous trouvez des erreurs, veuillez nous en informer.\n"
    },
    {
      "Lang": "fy",
      "Title": "Ingelske oefeningen foar grammatika | Ienfâldich Britsk ⭐️ #4 am/are/is",
      "Description": "Learje Ingelske grammatika! Feroarje in wurd yn in sin.\n\n\n\n0:04 1:16 2:24 \nKim and I are sleepy\nkɪm ənd aɪ ər sˈlipi\nKim en ik binne sliepend\n\n0:18 1:29 2:37 \nThe cat is sleepy\nðə kæt ɪz sˈlipi\nDe kat is sliepend\n\n0:32 1:42 2:50 \nI am sleepy\naɪ æm sˈlipi\nik bin slûch\n\n0:45 1:55 3:03 \nI am angry\naɪ æm ˈæŋgri\nik bin lilk\n\n0:59 2:08 3:16 \nKim and I are angry\nkɪm ənd aɪ ər ˈæŋgri\nKim en ik binne lulk\n\n\n\nOan dosinten en skoallen:\nDizze fideo wurdt publisearre ûnder Creative Commons License.\n  CC BY 3.0 https://creativecommons.org/licenses/by/3.0/ \nFiel jo frij om dizze fideo te brûken yn jo klassen!\n\nWy brûke Google Translate tsjinst foar lokalisaasje. As jo wat flaters fine, lit it ús dan witte.\n"
    },
    {
      "Lang": "gd",
      "Title": "Eacarsaichean gràmair Beurla | Gu sìmplidh Breatannach ⭐️ #4 am/are/is",
      "Description": "Ionnsaich gràmar Beurla! Atharraich facal ann an seantans.\n\n\n\n0:04 1:16 2:24 \nKim and I are sleepy\nkɪm ənd aɪ ər sˈlipi\nTha Kim agus mise nam chadal\n\n0:18 1:29 2:37 \nThe cat is sleepy\nðə kæt ɪz sˈlipi\nTha an cat cadalach\n\n0:32 1:42 2:50 \nI am sleepy\naɪ æm sˈlipi\nTha mi cadalach\n\n0:45 1:55 3:03 \nI am angry\naɪ æm ˈæŋgri\nTha mi feargach\n\n0:59 2:08 3:16 \nKim and I are angry\nkɪm ənd aɪ ər ˈæŋgri\nTha mi fhìn agus Kim feargach\n\n\n\nDo thidsearan agus sgoiltean:\nTha a ’bhidio seo air fhoillseachadh fo Creative Commons License.\n  CC BY 3.0 https://creativecommons.org/licenses/by/3.0/ \nFaodaidh tu am bhidio seo a chleachdadh anns na clasaichean agad!\n\nBidh sinn a ’cleachdadh seirbheis Google Translate airson sgìreachadh. Ma lorgas tu cuid de mhearachdan, feuch an innis thu dhuinn.\n"
    },
    {
      "Lang": "gl",
      "Title": "Exercicios de gramática inglesa | Sinxelo Británico ⭐️ #4 am/are/is",
      "Description": "Aprende gramática inglesa! Cambia unha palabra nunha frase.\n\n\n\n0:04 1:16 2:24 \nKim and I are sleepy\nkɪm ənd aɪ ər sˈlipi\nKim e eu estamos durmidos\n\n0:18 1:29 2:37 \nThe cat is sleepy\nðə kæt ɪz sˈlipi\nO gato está durmido\n\n0:32 1:42 2:50 \nI am sleepy\naɪ æm sˈlipi\nEstou durmido\n\n0:45 1:55 3:03 \nI am angry\naɪ æm ˈæŋgri\nEstou enfadado\n\n0:59 2:08 3:16 \nKim and I are angry\nkɪm ənd aɪ ər ˈæŋgri\nKim e eu estamos enfadados\n\n\n\nPara profesores e colexios:\nEste vídeo está publicado baixo a licenza Creative Commons.\n  CC BY 3.0 https://creativecommons.org/licenses/by/3.0/ \nNon dubides en usar este vídeo nas túas clases.\n\nUsamos o servizo Google Translate para a súa localización. Se atopas algún erro, comunícanos.\n"
    },
    {
      "Lang": "gu",
      "Title": "અંગ્રેજી વ્યાકરણ વ્યાયામ | સરળ બ્રિટિશ ⭐️ #4 am/are/is",
      "Description": "અંગ્રેજી વ્યાકરણ શીખો! એક વાક્યમાં એક શબ્દ બદલો.\n\n\n\n0:04 1:16 2:24 \nKim and I are sleepy\nkɪm ənd aɪ ər sˈlipi\nકિમ અને હું yંઘમાં છે\n\n0:18 1:29 2:37 \nThe cat is sleepy\nðə kæt ɪz sˈlipi\nબિલાડી yંઘમાં છે\n\n0:32 1:42 2:50 \nI am sleepy\naɪ æm sˈlipi\nમને ઊંઘ આવે છે\n\n0:45 1:55 3:03 \nI am angry\naɪ æm ˈæŋgri\nહું ગુસ્સે છુ\n\n0:59 2:08 3:16 \nKim and I are angry\nkɪm ənd aɪ ər ˈæŋgri\nકિમ અને હું ગુસ્સે થઈએ છીએ\n\n\n\nશિક્ષકો અને શાળાઓને:\nઆ વિડિઓ ક્રિએટિવ કonsમન્સ લાઇસન્સ હેઠળ પ્રકાશિત છે.\n  CC BY 3.0 https://creativecommons.org/licenses/by/3.0/ \nતમારા વર્ગોમાં આ વિડિઓનો ઉપયોગ કરવા માટે મફત લાગે!\n\nઅમે સ્થાનિકીકરણ માટે Google ભાષાંતર સેવાનો ઉપયોગ કરીએ છીએ. જો તમને કેટલીક ભૂલો લાગે છે, તો કૃપા કરીને અમને જણાવો.\n"
    },
    {
      "Lang": "ha",
      "Title": "Darasi na ilimin nahawu na Turanci | Mai sauki Birtaniya ⭐️ #4 am/are/is",
      "Description": "Koyi ilimin nahawu Turanci! Canja kalma a cikin jumla.\n\n\n\n0:04 1:16 2:24 \nKim and I are sleepy\nkɪm ənd aɪ ər sˈlipi\nNi da Kim muna bacci\n\n0:18 1:29 2:37 \nThe cat is sleepy\nðə kæt ɪz sˈlipi\nA cat na barci\n\n0:32 1:42 2:50 \nI am sleepy\naɪ æm sˈlipi\nIna barci\n\n0:45 1:55 3:03 \nI am angry\naɪ æm ˈæŋgri\nina jin haushi\n\n0:59 2:08 3:16 \nKim and I are angry\nkɪm ənd aɪ ər ˈæŋgri\nNi da Kim muna fushi\n\n\n\nGa malamai da makarantu:\nWannan bidiyon an buga shi a ƙarƙashin lasisin Creative Commons.\n  CC BY 3.0 https://creativecommons.org/licenses/by/3.0/ \nJin kyauta don amfani da wannan bidiyon a cikin azuzuwanku!\n\nMuna amfani da sabis na Google Fassara don fassarar. Idan ka sami wasu kurakurai, da fatan za a sanar da mu.\n"
    },
    {
      "Lang": "hi",
      "Title": "अंग्रेजी व्याकरण अभ्यास | सरल अंग्रेजों ⭐️ #4 am/are/is",
      "Description": "अंग्रेजी व्याकरण जानें! एक वाक्य में एक शब्द बदलें।\n\n\n\n0:04 1:16 2:24 \nKim and I are sleepy\nkɪm ənd aɪ ər sˈlipi\nकिम और मैं नींद में हैं\n\n0:18 1:29 2:37 \nThe cat is sleepy\nðə kæt ɪz sˈlipi\nबिल्ली नींद में है\n\n0:32 1:42 2:50 \nI am sleepy\naɪ æm sˈlipi\nमुझे नींद आ रही है\n\n0:45 1:55 3:03 \nI am angry\naɪ æm ˈæŋgri\nमैं नाराज़ हूँ\n\n0:59 2:08 3:16 \nKim and I are angry\nkɪm ənd aɪ ər ˈæŋgri\nकिम और मैं नाराज हैं\n\n\n\nशिक्षकों और स्कूलों के लिए:\nयह वीडियो क्रिएटिव कॉमन्स लाइसेंस के तहत प्रकाशित हुआ है।\n  CC BY 3.0 https://creativecommons.org/licenses/by/3.0/ \nअपनी कक्षाओं में इस वीडियो का उपयोग करने के लिए स्वतंत्र महसूस करें!\n\nहम स्थानीयकरण के लिए Google अनुवाद सेवा का उपयोग करते हैं। यदि आप कुछ गलतियाँ पाते हैं, तो कृपया हमें बताएँ।\n"
    },
    {
      "Lang": "hr",
      "Title": "Gramatičke vježbe engleskog jezika | Jednostavan britanski ⭐️ #4 am/are/is",
      "Description": "Naučite englesku gramatiku! Promijenite riječ u rečenici.\n\n\n\n0:04 1:16 2:24 \nKim and I are sleepy\nkɪm ənd aɪ ər sˈlipi\nKim i ja smo uspavane\n\n0:18 1:29 2:37 \nThe cat is sleepy\nðə kæt ɪz sˈlipi\nMačka je uspavana\n\n0:32 1:42 2:50 \nI am sleepy\naɪ æm sˈlipi\nspava mi se\n\n0:45 1:55 3:03 \nI am angry\naɪ æm ˈæŋgri\nja sam ljut\n\n0:59 2:08 3:16 \nKim and I are angry\nkɪm ənd aɪ ər ˈæŋgri\nKim i ja smo ljuti\n\n\n\nNastavnicima i školama:\nOvaj videozapis objavljen je pod licencom Creative Commons.\n  CC BY 3.0 https://creativecommons.org/licenses/by/3.0/ \nSlobodno upotrijebite ovaj videozapis u svojim predavanjima!\n\nZa lokalizaciju koristimo uslugu Google Translate. Ako pronađete neke pogreške, javite nam se.\n"
    },
    {
      "Lang": "hu",
      "Title": "Angol nyelvtan gyakorlatok | Egyszerű angol ⭐️ #4 am/are/is",
      "Description": "Tanulj angol nyelvtant! Változtasson egy szót egy mondatban.\n\n\n\n0:04 1:16 2:24 \nKim and I are sleepy\nkɪm ənd aɪ ər sˈlipi\nKim és én álmos vagyunk\n\n0:18 1:29 2:37 \nThe cat is sleepy\nðə kæt ɪz sˈlipi\nA macska álmos\n\n0:32 1:42 2:50 \nI am sleepy\naɪ æm sˈlipi\nÁlmos vagyok\n\n0:45 1:55 3:03 \nI am angry\naɪ æm ˈæŋgri\nDühös vagyok\n\n0:59 2:08 3:16 \nKim and I are angry\nkɪm ənd aɪ ər ˈæŋgri\nKim és én dühösek vagyunk\n\n\n\nTanároknak és iskoláknak:\nEz a videó a Creative Commons License alatt jelenik meg.\n  CC BY 3.0 https://creativecommons.org/licenses/by/3.0/ \nNyugodtan használja ezt a videót az osztályokban!\n\nA lokalizációhoz a Google Translate szolgáltatást használjuk. Ha hibát talál, kérjük, ossza meg velünk.\n"
    },
    {
      "Lang": "hy",
      "Title": "Անգլերենի քերականական վարժություններ | Պարզ Բրիտանական ⭐️ #4 am/are/is",
      "Description": "Իմացեք անգլերեն քերականությունը: Մի նախադասությամբ մի բառ փոխեք:\n\n\n\n0:04 1:16 2:24 \nKim and I are sleepy\nkɪm ənd aɪ ər sˈlipi\nՔիմը և ես քնում ենք\n\n0:18 1:29 2:37 \nThe cat is sleepy\nðə kæt ɪz sˈlipi\nԿատուն քնկոտ է\n\n0:32 1:42 2:50 \nI am sleepy\naɪ æm sˈlipi\nԵս քնում եմ\n\n0:45 1:55 3:03 \nI am angry\naɪ æm ˈæŋgri\nԵս զայրացած եմ\n\n0:59 2:08 3:16 \nKim and I are angry\nkɪm ənd aɪ ər ˈæŋgri\nԵս և Քիմը բարկանում ենք\n\n\n\nՈւսուցիչներին և դպրոցներին.\nԱյս տեսանյութը հրապարակված է Creative Commons արտոնագրի ներքո:\n  CC BY 3.0 https://creativecommons.org/licenses/by/3.0/ \nԱզատորեն օգտվեք այս տեսանյութից ձեր դասերից:\n\nՄենք օգտագործում ենք Google Translate ծառայությունը տեղայնացման համար: Եթե որոշ սխալներ եք գտնում, խնդրում ենք տեղեկացնել մեզ:\n"
    },
    {
      "Lang": "id",
      "Title": "Latihan tata bahasa Inggris | Sederhana Inggris ⭐️ #4 am/are/is",
      "Description": "Belajar tata bahasa Inggris! Ubah kata dalam kalimat.\n\n\n\n0:04 1:16 2:24 \nKim and I are sleepy\nkɪm ənd aɪ ər sˈlipi\nKim dan aku mengantuk\n\n0:18 1:29 2:37 \nThe cat is sleepy\nðə kæt ɪz sˈlipi\nKucing itu mengantuk\n\n0:32 1:42 2:50 \nI am sleepy\naɪ æm sˈlipi\nsaya mengantuk\n\n0:45 1:55 3:03 \nI am angry\naɪ æm ˈæŋgri\nsaya marah\n\n0:59 2:08 3:16 \nKim and I are angry\nkɪm ənd aɪ ər ˈæŋgri\nKim dan saya marah\n\n\n\nKepada guru dan sekolah:\nVideo ini diterbitkan di bawah Lisensi Creative Commons.\n  CC BY 3.0 https://creativecommons.org/licenses/by/3.0/ \nJangan ragu untuk menggunakan video ini di kelas Anda!\n\nKami menggunakan layanan Google Terjemahan untuk pelokalan. Jika Anda menemukan beberapa kesalahan, beri tahu kami.\n"
    },
    {
      "Lang": "ig",
      "Title": "Ọmụmụ asụsụ ụtọ asụsụ Bekee | Dị Mfe Onye Britain ⭐️ #4 am/are/is",
      "Description": "Muta asusu bekee! Gbanwee okwu na ahịrịokwu.\n\n\n\n0:04 1:16 2:24 \nKim and I are sleepy\nkɪm ənd aɪ ər sˈlipi\nMụ na Kim na-ehi ụra\n\n0:18 1:29 2:37 \nThe cat is sleepy\nðə kæt ɪz sˈlipi\nPusi bu ura\n\n0:32 1:42 2:50 \nI am sleepy\naɪ æm sˈlipi\nAmra na-atụ m\n\n0:45 1:55 3:03 \nI am angry\naɪ æm ˈæŋgri\nIwe na-ewe m\n\n0:59 2:08 3:16 \nKim and I are angry\nkɪm ənd aɪ ər ˈæŋgri\nMụ na Kim were iwe\n\n\n\nMaka ndị nkuzi na ụlọ akwụkwọ:\nEdere vidiyo a n'okpuru ikikere Creative Commons.\n  CC BY 3.0 https://creativecommons.org/licenses/by/3.0/ \nNwere onwe gị iji vidiyo a na klaasị gị!\n\nAnyị na-eji ọrụ ntụgharị Google emegharị. Ọ bụrụ n’ịhụ ụfọdụ mmejọ, biko mee ka anyị mara.\n"
    },
    {
      "Lang": "is",
      "Title": "Enskar málfræðiæfingar | Einfalt Bretar ⭐️ #4 am/are/is",
      "Description": "Lærðu ensku málfræði! Skiptu um orð í setningu.\n\n\n\n0:04 1:16 2:24 \nKim and I are sleepy\nkɪm ənd aɪ ər sˈlipi\nKim og ég erum syfjaðir\n\n0:18 1:29 2:37 \nThe cat is sleepy\nðə kæt ɪz sˈlipi\nKötturinn er syfjaður\n\n0:32 1:42 2:50 \nI am sleepy\naɪ æm sˈlipi\nég er syfjaður\n\n0:45 1:55 3:03 \nI am angry\naɪ æm ˈæŋgri\nég er reiður\n\n0:59 2:08 3:16 \nKim and I are angry\nkɪm ənd aɪ ər ˈæŋgri\nKim og ég erum reiðir\n\n\n\nTil kennara og skóla:\nÞetta myndband er birt undir Creative Commons leyfi.\n  CC BY 3.0 https://creativecommons.org/licenses/by/3.0/ \nEkki hika við að nota þetta myndband í bekkjum þínum!\n\nVið notum Google Translate þjónustu til að staðsetja. Láttu okkur vita ef þú finnur fyrir einhverjum mistökum.\n"
    },
    {
      "Lang": "it",
      "Title": "Esercizi di grammatica inglese | Semplice Britannico ⭐️ #4 am/are/is",
      "Description": "Impara la grammatica inglese! Cambia una parola in una frase.\n\n\n\n0:04 1:16 2:24 \nKim and I are sleepy\nkɪm ənd aɪ ər sˈlipi\nKim ed io abbiamo sonno\n\n0:18 1:29 2:37 \nThe cat is sleepy\nðə kæt ɪz sˈlipi\nIl gatto ha sonno\n\n0:32 1:42 2:50 \nI am sleepy\naɪ æm sˈlipi\nsono assonnata\n\n0:45 1:55 3:03 \nI am angry\naɪ æm ˈæŋgri\nsono arrabbiato\n\n0:59 2:08 3:16 \nKim and I are angry\nkɪm ənd aɪ ər ˈæŋgri\nKim e io siamo arrabbiati\n\n\n\nPer insegnanti e scuole:\nQuesto video è pubblicato sotto la licenza Creative Commons.\n  CC BY 3.0 https://creativecommons.org/licenses/by/3.0/ \nSentiti libero di usare questo video nelle tue lezioni!\n\nUtilizziamo il servizio Google Translate per la localizzazione. Se trovi qualche errore, faccelo sapere.\n"
    },
    {
      "Lang": "iw",
      "Title": "תרגילי דקדוק באנגלית | פשוט בריטי ⭐️ #4 am/are/is",
      "Description": "למד דקדוק באנגלית! שנה מילה במשפט.\n\n\n\n0:04 1:16 2:24 \nKim and I are sleepy\nkɪm ənd aɪ ər sˈlipi\nקים ואני ישנוניים\n\n0:18 1:29 2:37 \nThe cat is sleepy\nðə kæt ɪz sˈlipi\nהחתול ישנוני\n\n0:32 1:42 2:50 \nI am sleepy\naɪ æm sˈlipi\nאני ישנוני\n\n0:45 1:55 3:03 \nI am angry\naɪ æm ˈæŋgri\nאני כועס\n\n0:59 2:08 3:16 \nKim and I are angry\nkɪm ənd aɪ ər ˈæŋgri\nקים ואני כועסים\n\n\n\nלמורים ובתי ספר:\nסרטון זה מתפרסם תחת רישיון Creative Commons.\n  CC BY 3.0 https://creativecommons.org/licenses/by/3.0/ \nאל תהסס להשתמש בסרטון זה בשיעורים שלך!\n\nאנו משתמשים בשירות Google Translate לצורך לוקליזציה. אם אתה מוצא טעויות, אנא הודע לנו על כך.\n"
    },
    {
      "Lang": "ja",
      "Title": "英文法練習 | シンプル イギリス ⭐️ #4 am/are/is",
      "Description": "英語の文法を学びましょう！ 文中の単語を変更します。\n\n\n\n0:04 1:16 2:24 \nKim and I are sleepy\nkɪm ənd aɪ ər sˈlipi\nキムと私は眠い\n\n0:18 1:29 2:37 \nThe cat is sleepy\nðə kæt ɪz sˈlipi\n猫は眠い\n\n0:32 1:42 2:50 \nI am sleepy\naɪ æm sˈlipi\n眠い\n\n0:45 1:55 3:03 \nI am angry\naɪ æm ˈæŋgri\n怒っている\n\n0:59 2:08 3:16 \nKim and I are angry\nkɪm ənd aɪ ər ˈæŋgri\nキムと私は怒っています\n\n\n\n先生と学校へ：\nこのビデオは、クリエイティブコモンズライセンスの下で公開されています。\n  CC BY 3.0 https://creativecommons.org/licenses/by/3.0/ \nこのビデオをクラスで自由に使用してください！\n\nローカライズにはGoogle翻訳サービスを使用しています。間違いを見つけた場合はお知らせください。\n"
    },
    {
      "Lang": "jv",
      "Title": "Latihan grammar Inggris | Prasaja Inggris ⭐️ #4 am/are/is",
      "Description": "Sinau tata basa Inggris! Ngganti tembung sajrone ukara.\n\n\n\n0:04 1:16 2:24 \nKim and I are sleepy\nkɪm ənd aɪ ər sˈlipi\nKim lan aku turu\n\n0:18 1:29 2:37 \nThe cat is sleepy\nðə kæt ɪz sˈlipi\nKucing mau turu\n\n0:32 1:42 2:50 \nI am sleepy\naɪ æm sˈlipi\nAku turu\n\n0:45 1:55 3:03 \nI am angry\naɪ æm ˈæŋgri\nAku nesu\n\n0:59 2:08 3:16 \nKim and I are angry\nkɪm ənd aɪ ər ˈæŋgri\nKim lan aku nesu\n\n\n\nTumrap guru lan sekolah:\nVideo iki diterbitake ing lisensi Creative Commons.\n  CC BY 3.0 https://creativecommons.org/licenses/by/3.0/ \nOjo nggunakake video iki ing kelas sampeyan!\n\nKita nggunakake layanan Google Translate kanggo lokalisasi. Yen sampeyan nemokake sawetara kesalahan, kabari.\n"
    },
    {
      "Lang": "ka",
      "Title": "ინგლისური გრამატიკის სავარჯიშოები | მარტივი ბრიტანული ⭐️ #4 am/are/is",
      "Description": "შეიტყვეთ ინგლისური ენის გრამატიკა! წინადადებაში შეცვალეთ სიტყვა.\n\n\n\n0:04 1:16 2:24 \nKim and I are sleepy\nkɪm ənd aɪ ər sˈlipi\nმე და კიმს სძინავთ\n\n0:18 1:29 2:37 \nThe cat is sleepy\nðə kæt ɪz sˈlipi\nკატას ეძინა\n\n0:32 1:42 2:50 \nI am sleepy\naɪ æm sˈlipi\nმეძინება\n\n0:45 1:55 3:03 \nI am angry\naɪ æm ˈæŋgri\nგაბრაზებული ვარ\n\n0:59 2:08 3:16 \nKim and I are angry\nkɪm ənd aɪ ər ˈæŋgri\nმე და კიმ გაბრაზებულნი ვართ\n\n\n\nმასწავლებლებსა და სკოლებს:\nეს ვიდეო გამოქვეყნებულია Creative Commons- ის ლიცენზიით.\n  CC BY 3.0 https://creativecommons.org/licenses/by/3.0/ \nშეგიძლიათ გამოიყენოთ ეს ვიდეო თქვენს კლასებში!\n\nჩვენ ვიყენებთ Google Translate სერვისს ლოკალიზაციისთვის. თუ შეცდომებს იპოვნით, გთხოვთ, შეგვატყობინოთ.\n"
    },
    {
      "Lang": "kk",
      "Title": "Ағылшын грамматикалық жаттығулары | Қарапайым Британдық ⭐️ #4 am/are/is",
      "Description": "Ағылшын грамматикасын үйрен! Сөйлемдегі сөзді өзгертіңіз.\n\n\n\n0:04 1:16 2:24 \nKim and I are sleepy\nkɪm ənd aɪ ər sˈlipi\nКим екеуміз ұйықтап жатырмыз\n\n0:18 1:29 2:37 \nThe cat is sleepy\nðə kæt ɪz sˈlipi\nМысық ұйқысыз\n\n0:32 1:42 2:50 \nI am sleepy\naɪ æm sˈlipi\nМен ұйқым келіп тұр\n\n0:45 1:55 3:03 \nI am angry\naɪ æm ˈæŋgri\nМенің ашуым келіп тұр\n\n0:59 2:08 3:16 \nKim and I are angry\nkɪm ənd aɪ ər ˈæŋgri\nКим екеуміз ашуланамыз\n\n\n\nОқытушылар мен мектептерге:\nБұл бейне Creative Commons лицензиясы бойынша жарияланған.\n  CC BY 3.0 https://creativecommons.org/licenses/by/3.0/ \nБұл бейнені өз сабақтарыңызда қолдануға болады!\n\nGoogle Translate қызметін локализациялау үшін қолданамыз. Егер сіз қате тапсаңыз, бізге хабарлаңыз.\n"
    },
    {
      "Lang": "km",
      "Title": "លំហាត់វេយ្យាករណ៍អង់គ្លេស | សាមញ្ញ អង់គ្លេស ⭐️ #4 am/are/is",
      "Description": "រៀនវេយ្យាករណ៍អង់គ្លេស! ផ្លាស់ប្តូរពាក្យនៅក្នុងប្រយោគមួយ។\n\n\n\n0:04 1:16 2:24 \nKim and I are sleepy\nkɪm ənd aɪ ər sˈlipi\nគីមនិងខ្ញុំងងុយគេង\n\n0:18 1:29 2:37 \nThe cat is sleepy\nðə kæt ɪz sˈlipi\nឆ្មាងងុយគេង\n\n0:32 1:42 2:50 \nI am sleepy\naɪ æm sˈlipi\nខ្ញុំ​ងងុយគេង\n\n0:45 1:55 3:03 \nI am angry\naɪ æm ˈæŋgri\nខ្ញុំ​ខឹង\n\n0:59 2:08 3:16 \nKim and I are angry\nkɪm ənd aɪ ər ˈæŋgri\nគីមនិងខ្ញុំខឹង\n\n\n\nជូនដល់គ្រូនិងសាលា៖\nវីដេអូនេះត្រូវបានផ្សព្វផ្សាយក្រោមអាជ្ញាប័ណ្ណច្នៃប្រឌិត។\n  CC BY 3.0 https://creativecommons.org/licenses/by/3.0/ \nសូមប្រើវីដេអូនេះនៅក្នុងថ្នាក់របស់អ្នកដោយឥតគិតថ្លៃ!\n\nយើងប្រើសេវាកម្មបកប្រែហ្គូហ្គលសម្រាប់ការធ្វើមូលដ្ឋានីយកម្ម។ ប្រសិនបើអ្នករកឃើញកំហុសខ្លះសូមប្រាប់ឱ្យយើងដឹង។\n"
    },
    {
      "Lang": "kn",
      "Title": "ಇಂಗ್ಲಿಷ್ ವ್ಯಾಕರಣ ವ್ಯಾಯಾಮ | ಸರಳ ಬ್ರಿಟಿಷ್ ⭐️ #4 am/are/is",
      "Description": "ಇಂಗ್ಲಿಷ್ ವ್ಯಾಕರಣ ಕಲಿಯಿರಿ! ಒಂದು ವಾಕ್ಯದಲ್ಲಿ ಪದವನ್ನು ಬದಲಾಯಿಸಿ.\n\n\n\n0:04 1:16 2:24 \nKim and I are sleepy\nkɪm ənd aɪ ər sˈlipi\nಕಿಮ್ ಮತ್ತು ನಾನು ನಿದ್ದೆ ಮಾಡುತ್ತಿದ್ದೇವೆ\n\n0:18 1:29 2:37 \nThe cat is sleepy\nðə kæt ɪz sˈlipi\nಬೆಕ್ಕು ನಿದ್ದೆ ಮಾಡುತ್ತದೆ\n\n0:32 1:42 2:50 \nI am sleepy\naɪ æm sˈlipi\nನನಗೆ ನಿದ್ದೆ ಇದೆ\n\n0:45 1:55 3:03 \nI am angry\naɪ æm ˈæŋgri\nನಾನು ಸಿಟ್ಟಾಗಿದ್ದೇನೆ\n\n0:59 2:08 3:16 \nKim and I are angry\nkɪm ənd aɪ ər ˈæŋgri\nಕಿಮ್ ಮತ್ತು ನಾನು ಕೋಪಗೊಂಡಿದ್ದೇವೆ\n\n\n\nಶಿಕ್ಷಕರು ಮತ್ತು ಶಾಲೆಗಳಿಗೆ:\nಈ ವೀಡಿಯೊವನ್ನು ಕ್ರಿಯೇಟಿವ್ ಕಾಮನ್ಸ್ ಪರವಾನಗಿ ಅಡಿಯಲ್ಲಿ ಪ್ರಕಟಿಸಲಾಗಿದೆ.\n  CC BY 3.0 https://creativecommons.org/licenses/by/3.0/ \nನಿಮ್ಮ ತರಗತಿಗಳಲ್ಲಿ ಈ ವೀಡಿಯೊವನ್ನು ಬಳಸಲು ಹಿಂಜರಿಯಬೇಡಿ!\n\nಸ್ಥಳೀಕರಣಕ್ಕಾಗಿ ನಾವು Google ಅನುವಾದ ಸೇವೆಯನ್ನು ಬಳಸುತ್ತೇವೆ. ನೀವು ಕೆಲವು ತಪ್ಪುಗಳನ್ನು ಕಂಡುಕೊಂಡರೆ, ದಯವಿಟ್ಟು ನಮಗೆ ತಿಳಿಸಿ.\n"
    },
    {
      "Lang": "ko",
      "Title": "영어 문법 연습 | 단순한 영국인 ⭐️ #4 am/are/is",
      "Description": "영어 문법 배우기! 문장에서 단어를 변경하십시오.\n\n\n\n0:04 1:16 2:24 \nKim and I are sleepy\nkɪm ənd aɪ ər sˈlipi\n킴과 나는 졸려\n\n0:18 1:29 2:37 \nThe cat is sleepy\nðə kæt ɪz sˈlipi\n고양이는 졸려\n\n0:32 1:42 2:50 \nI am sleepy\naɪ æm sˈlipi\n나는 졸려\n\n0:45 1:55 3:03 \nI am angry\naɪ æm ˈæŋgri\n나는 화가났다\n\n0:59 2:08 3:16 \nKim and I are angry\nkɪm ənd aɪ ər ˈæŋgri\n킴과 나는 화났어\n\n\n\n교사와 학교 :\n이 비디오는 Creative Commons License에 따라 게시됩니다.\n  CC BY 3.0 https://creativecommons.org/licenses/by/3.0/ \n이 비디오를 수업에 자유롭게 사용하십시오!\n\n현지화를 위해 Google 번역 서비스를 사용합니다. 실수가 있으면 알려주세요.\n"
    },
    {
      "Lang": "ku",
      "Title": "Pratîkên rêzimanê Englishngilîzî | Asan Brîtanî ⭐️ #4 am/are/is",
      "Description": "Gramera Englishngilîzî fêr bibin! Di hevokan de peyvek diguhezin.\n\n\n\n0:04 1:16 2:24 \nKim and I are sleepy\nkɪm ənd aɪ ər sˈlipi\nKim û ez di xew de ne\n\n0:18 1:29 2:37 \nThe cat is sleepy\nðə kæt ɪz sˈlipi\nKutik di xew de ye\n\n0:32 1:42 2:50 \nI am sleepy\naɪ æm sˈlipi\nEz xewim\n\n0:45 1:55 3:03 \nI am angry\naɪ æm ˈæŋgri\nez qehirî me\n\n0:59 2:08 3:16 \nKim and I are angry\nkɪm ənd aɪ ər ˈæŋgri\nKim û ez bi hêrs in\n\n\n\nJi mamoste û dibistanan re:\nEv vîdyoyê di bin lîsansa Creative Commons-ê de hatî weşandin.\n  CC BY 3.0 https://creativecommons.org/licenses/by/3.0/ \nHêsan e ku hûn vê vîdyoyê di sinifên xwe de bikar bînin!\n\nEm ji bo herêmbûnê karûbarê Google Translate kar dikin. Heke hûn hin xeletiyan bibînin, ji kerema xwe ji me re agahdar bikin.\n"
    },
    {
      "Lang": "ky",
      "Title": "Англис тилинин грамматикасы боюнча көнүгүүлөр | жөнөкөй Британдык ⭐️ #4 am/are/is",
      "Description": "Үйрөнүү Англис тилинин грамматикасы! Сүйлөмдөгү Сөздү өзгөртүү.\n\n\n\n0:04 1:16 2:24 \nKim and I are sleepy\nkɪm ənd aɪ ər sˈlipi\nКим Мен уйкулуу болуп саналат\n\n0:18 1:29 2:37 \nThe cat is sleepy\nðə kæt ɪz sˈlipi\nкошка уйкучу болот\n\n0:32 1:42 2:50 \nI am sleepy\naɪ æm sˈlipi\nМен уйкулуумун\n\n0:45 1:55 3:03 \nI am angry\naɪ æm ˈæŋgri\nМен каарданып жатам\n\n0:59 2:08 3:16 \nKim and I are angry\nkɪm ənd aɪ ər ˈæŋgri\nКим мен каарданып,\n\n\n\nмугалимдер жана мектептер үчүн:\nБул көргөзмө Creative Commons лиссиэнсийэ усулуобуйатынан жарыяланат.\n  CC BY 3.0 https://creativecommons.org/licenses/by/3.0/ \nСиздин класстары колдонсо болот!\n\nБиз Google локалдаштыруу үчүн Котормо кызматын пайдаланышат. Эгер кээ бир ката болсо, бизге айтып койуу.\n"
    },
    {
      "Lang": "lb",
      "Title": "Englesch Grammatikübungen | Einfach Britesch ⭐️ #4 am/are/is",
      "Description": "Léiert Englesch Grammatik! Ännert e Wuert an engem Saz.\n\n\n\n0:04 1:16 2:24 \nKim and I are sleepy\nkɪm ənd aɪ ər sˈlipi\nDe Kim an ech si midd\n\n0:18 1:29 2:37 \nThe cat is sleepy\nðə kæt ɪz sˈlipi\nD'Kaz ass schléift\n\n0:32 1:42 2:50 \nI am sleepy\naɪ æm sˈlipi\nEch si midd\n\n0:45 1:55 3:03 \nI am angry\naɪ æm ˈæŋgri\nEch sinn rosen\n\n0:59 2:08 3:16 \nKim and I are angry\nkɪm ənd aɪ ər ˈæŋgri\nDe Kim an ech sinn rosen\n\n\n\nUn de Schoulmeeschteren an d'Schoulen:\nDëse Video ass ënner der Creative Commons Lizenz verëffentlecht.\n  CC BY 3.0 https://creativecommons.org/licenses/by/3.0/ \nFillt gratis dësen Video zu Ären Klassen ze benotzen!\n\nMir benotzen den Google Translate Service fir d'Lokalisatioun. Wann Dir e puer Feeler fannt, da sot eis w.e.g.\n"
    },
    {
      "Lang": "lo",
      "Title": "ບົດເຝິກຫັດໄວຍາກອນພາສາອັງກິດ | ງ່າຍດາຍ ອັງກິດ ⭐️ #4 am/are/is",
      "Description": "ຮຽນຮູ້ຫລັກໄວຍາກອນພາສາອັງກິດ! ປ່ຽນ ຄຳ ສັບໃນປະໂຫຍກ.\n\n\n\n0:04 1:16 2:24 \nKim and I are sleepy\nkɪm ənd aɪ ər sˈlipi\nKim ແລະຂ້ອຍນອນຫລັບຢູ່\n\n0:18 1:29 2:37 \nThe cat is sleepy\nðə kæt ɪz sˈlipi\ncat ແມ່ນນອນຫລັບ\n\n0:32 1:42 2:50 \nI am sleepy\naɪ æm sˈlipi\nຂ້ອຍ​ຢາກ​ນອນ\n\n0:45 1:55 3:03 \nI am angry\naɪ æm ˈæŋgri\nຂ້ອຍໃຈຮ້າຍ\n\n0:59 2:08 3:16 \nKim and I are angry\nkɪm ənd aɪ ər ˈæŋgri\nKim ແລະຂ້ອຍໃຈຮ້າຍ\n\n\n\nເຖິງຄູອາຈານແລະໂຮງຮຽນ:\nວິດີໂອນີ້ລົງພາຍໃຕ້ໃບອະນຸຍາດສ້າງສັນ.\n  CC BY 3.0 https://creativecommons.org/licenses/by/3.0/ \nຮູ້ສຶກວ່າບໍ່ເສຍຄ່າທີ່ຈະໃຊ້ວິດີໂອນີ້ໃນຫ້ອງຮຽນຂອງທ່ານ!\n\nພວກເຮົາໃຊ້ບໍລິການ Google Translate ສຳ ລັບການແປພາສາທ້ອງຖິ່ນ. ຖ້າທ່ານພົບຂໍ້ຜິດພາດບາງຢ່າງ, ກະລຸນາແຈ້ງພວກເຮົາ.\n"
    },
    {
      "Lang": "lt",
      "Title": "Anglų kalbos gramatikos pratimai | Paprasta Britai ⭐️ #4 am/are/is",
      "Description": "Išmokite anglų kalbos gramatiką! Pakeiskite žodį sakinyje.\n\n\n\n0:04 1:16 2:24 \nKim and I are sleepy\nkɪm ənd aɪ ər sˈlipi\nKim ir aš mieguisti\n\n0:18 1:29 2:37 \nThe cat is sleepy\nðə kæt ɪz sˈlipi\nKatė miega\n\n0:32 1:42 2:50 \nI am sleepy\naɪ æm sˈlipi\naš mieguistas\n\n0:45 1:55 3:03 \nI am angry\naɪ æm ˈæŋgri\nAš esu piktas\n\n0:59 2:08 3:16 \nKim and I are angry\nkɪm ənd aɪ ər ˈæŋgri\nKim ir aš pykstamės\n\n\n\nMokytojams ir mokykloms:\nŠis vaizdo įrašas paskelbtas naudojant „Creative Commons“ licenciją.\n  CC BY 3.0 https://creativecommons.org/licenses/by/3.0/ \nNesivaržykite naudotis šiuo vaizdo įrašu savo klasėse!\n\nLokalizavimui naudojame „Google Translate“ paslaugą. Jei radote klaidų, praneškite mums.\n"
    },
    {
      "Lang": "lv",
      "Title": "Angļu valodas gramatikas vingrinājumi | Vienkārši Britu ⭐️ #4 am/are/is",
      "Description": "Mācieties angļu valodas gramatiku! Mainiet vārdu teikumā.\n\n\n\n0:04 1:16 2:24 \nKim and I are sleepy\nkɪm ənd aɪ ər sˈlipi\nKims un es esam miegaini\n\n0:18 1:29 2:37 \nThe cat is sleepy\nðə kæt ɪz sˈlipi\nKaķis ir miegains\n\n0:32 1:42 2:50 \nI am sleepy\naɪ æm sˈlipi\nesmu miegains\n\n0:45 1:55 3:03 \nI am angry\naɪ æm ˈæŋgri\nES esmu dusmīgs\n\n0:59 2:08 3:16 \nKim and I are angry\nkɪm ənd aɪ ər ˈæŋgri\nKims un es esam dusmīgi\n\n\n\nSkolotājiem un skolām:\nŠis video ir publicēts saskaņā ar Creative Commons licenci.\n  CC BY 3.0 https://creativecommons.org/licenses/by/3.0/ \nJūtieties brīvi izmantot šo video savās nodarbībās!\n\nLokalizācijai mēs izmantojam Google Translate pakalpojumu. Ja atrodat dažas kļūdas, lūdzu, paziņojiet mums.\n"
    },
    {
      "Lang": "mg",
      "Title": "Fanatanjahantena anglisy | Simple British ⭐️ #4 am/are/is",
      "Description": "Ianaro ny fitsipi-pitenenana anglisy! Manova teny amin'ny fehezanteny iray.\n\n\n\n0:04 1:16 2:24 \nKim and I are sleepy\nkɪm ənd aɪ ər sˈlipi\nMatory izahay sy Kim\n\n0:18 1:29 2:37 \nThe cat is sleepy\nðə kæt ɪz sˈlipi\nMatory ny saka\n\n0:32 1:42 2:50 \nI am sleepy\naɪ æm sˈlipi\nMatory aho\n\n0:45 1:55 3:03 \nI am angry\naɪ æm ˈæŋgri\nTezitra aho\n\n0:59 2:08 3:16 \nKim and I are angry\nkɪm ənd aɪ ər ˈæŋgri\nTezitra i Kim sy izahay\n\n\n\nHo an'ireo mpampianatra sy sekoly:\nIty horonantsary ity dia navoaka eo ambanin'ny lisansa Creative Commons.\n  CC BY 3.0 https://creativecommons.org/licenses/by/3.0/ \nAza misalasala mampiasa an'io horonantsary io amin'ny kilasinao!\n\nMampiasa ny serivisy Google Translate izahay amin'ny fananganana toerana. Raha mahita hadisoana vitsivitsy ianao dia mba ampahafantaro anay.\n"
    },
    {
      "Lang": "mi",
      "Title": "Mahi whakangungu Ingarihi | He ngawari Pakeha ⭐️ #4 am/are/is",
      "Description": "Akohia te paanui Ingarihi! Hurihia he kupu ki tetahi rerenga rerenga.\n\n\n\n0:04 1:16 2:24 \nKim and I are sleepy\nkɪm ənd aɪ ər sˈlipi\nKei te moe matou ko Kim\n\n0:18 1:29 2:37 \nThe cat is sleepy\nðə kæt ɪz sˈlipi\nKei te moe te ngeru\n\n0:32 1:42 2:50 \nI am sleepy\naɪ æm sˈlipi\nKei te moe ahau\n\n0:45 1:55 3:03 \nI am angry\naɪ æm ˈæŋgri\nKei te riri au\n\n0:59 2:08 3:16 \nKim and I are angry\nkɪm ənd aɪ ər ˈæŋgri\nKei te riri a Kim raua ko\n\n\n\nKi nga kaiako me nga kura:\nKei te whakaputaina tenei ataata i raro i te Raihana Hoahoatanga.\n  CC BY 3.0 https://creativecommons.org/licenses/by/3.0/ \nKia kore e pai ki te whakamahi i tenei ataata i roto i o akomanga!\n\nKa whakamahia e matou he whakamaoritanga a Google mo te whakangao. Mena ka kitea e koe etahi he, tena koa kia mohio.\n"
    },
    {
      "Lang": "mk",
      "Title": "Вежби за граматика на англиски јазик | Едноставно Британски ⭐️ #4 am/are/is",
      "Description": "Дознајте англиска граматика! Променете збор во реченица.\n\n\n\n0:04 1:16 2:24 \nKim and I are sleepy\nkɪm ənd aɪ ər sˈlipi\nЈас и Ким спиеме\n\n0:18 1:29 2:37 \nThe cat is sleepy\nðə kæt ɪz sˈlipi\nМачката спие\n\n0:32 1:42 2:50 \nI am sleepy\naɪ æm sˈlipi\nми се спие\n\n0:45 1:55 3:03 \nI am angry\naɪ æm ˈæŋgri\nЛута сум\n\n0:59 2:08 3:16 \nKim and I are angry\nkɪm ənd aɪ ər ˈæŋgri\nКим и јас сме лути\n\n\n\nДо наставниците и училиштата:\nОва видео е објавено под лиценца Криејтив комонс.\n  CC BY 3.0 https://creativecommons.org/licenses/by/3.0/ \nСлободно можете да го користите ова видео во вашите часови!\n\nНие користиме услуга Google Translate за локализација. Ако најдете некои грешки, ве молиме кажете ни.\n"
    },
    {
      "Lang": "ml",
      "Title": "ഇംഗ്ലീഷ് വ്യാകരണ വ്യായാമങ്ങൾ | ലളിതം ബ്രിട്ടീഷ് ⭐️ #4 am/are/is",
      "Description": "ഇംഗ്ലീഷ് വ്യാകരണം പഠിക്കൂ! ഒരു വാക്യത്തിൽ ഒരു വാക്ക് മാറ്റുക.\n\n\n\n0:04 1:16 2:24 \nKim and I are sleepy\nkɪm ənd aɪ ər sˈlipi\nഞാനും കിമ്മും ഉറക്കത്തിലാണ്\n\n0:18 1:29 2:37 \nThe cat is sleepy\nðə kæt ɪz sˈlipi\nപൂച്ചയ്ക്ക് ഉറക്കം\n\n0:32 1:42 2:50 \nI am sleepy\naɪ æm sˈlipi\nഎനിക്ക് ഉറക്കമുണ്ട്\n\n0:45 1:55 3:03 \nI am angry\naɪ æm ˈæŋgri\nഞാൻ ദേഷ്യത്തിലാണ്\n\n0:59 2:08 3:16 \nKim and I are angry\nkɪm ənd aɪ ər ˈæŋgri\nഞാനും കിമ്മും ദേഷ്യത്തിലാണ്\n\n\n\nഅധ്യാപകർക്കും സ്കൂളുകൾക്കും:\nക്രിയേറ്റീവ് കോമൺസ് ലൈസൻസിന് കീഴിൽ ഈ വീഡിയോ പ്രസിദ്ധീകരിച്ചു.\n  CC BY 3.0 https://creativecommons.org/licenses/by/3.0/ \nനിങ്ങളുടെ ക്ലാസുകളിൽ ഈ വീഡിയോ ഉപയോഗിക്കാൻ മടിക്കേണ്ടതില്ല!\n\nപ്രാദേശികവൽക്കരണത്തിനായി ഞങ്ങൾ Google വിവർത്തന സേവനം ഉപയോഗിക്കുന്നു. നിങ്ങൾ ചില തെറ്റുകൾ കണ്ടെത്തുകയാണെങ്കിൽ, ഞങ്ങളെ അറിയിക്കുക.\n"
    },
    {
      "Lang": "mn",
      "Title": "Англи хэлний дүрмийн дасгал | Энгийн Британийн ⭐️ #4 am/are/is",
      "Description": "Англи хэлний дүрмийн мэдлэгийг сур! Үгийг өгүүлбэр болгон өөрчил.\n\n\n\n0:04 1:16 2:24 \nKim and I are sleepy\nkɪm ənd aɪ ər sˈlipi\nКим бид хоёр нойрмог байна\n\n0:18 1:29 2:37 \nThe cat is sleepy\nðə kæt ɪz sˈlipi\nМуур нойрмог байна\n\n0:32 1:42 2:50 \nI am sleepy\naɪ æm sˈlipi\nМиний нойр хүрч байна\n\n0:45 1:55 3:03 \nI am angry\naɪ æm ˈæŋgri\nБи ууртай байна\n\n0:59 2:08 3:16 \nKim and I are angry\nkɪm ənd aɪ ər ˈæŋgri\nКим бид хоёр уурлаж байна\n\n\n\nБагш, сургуулиудад:\nЭнэ видео нь Creative Commons License лиценз дээр нийтлэгдсэн.\n  CC BY 3.0 https://creativecommons.org/licenses/by/3.0/ \nЭнэ видеог өөрийн ангиудад ашиглах боломжтой шүү!\n\nБид Google Translate үйлчилгээг нутагшуулах зорилгоор ашигладаг. Хэрэв та алдаа олвол бидэнд мэдэгдээрэй.\n"
    },
    {
      "Lang": "mr",
      "Title": "इंग्रजी व्याकरण व्यायाम | सोपे ब्रिटिश ⭐️ #4 am/are/is",
      "Description": "इंग्रजी व्याकरण जाणून घ्या! एका वाक्यात शब्द बदला.\n\n\n\n0:04 1:16 2:24 \nKim and I are sleepy\nkɪm ənd aɪ ər sˈlipi\nकिम आणि मी झोपेत आहोत\n\n0:18 1:29 2:37 \nThe cat is sleepy\nðə kæt ɪz sˈlipi\nमांजर झोपेत आहे\n\n0:32 1:42 2:50 \nI am sleepy\naɪ æm sˈlipi\nमी झोपेत आहे\n\n0:45 1:55 3:03 \nI am angry\naɪ æm ˈæŋgri\nमी रागावलेलो आहे\n\n0:59 2:08 3:16 \nKim and I are angry\nkɪm ənd aɪ ər ˈæŋgri\nकिम आणि मी संतापलो आहोत\n\n\n\nशिक्षक आणि शाळा यांना:\nहा व्हिडिओ क्रिएटिव्ह कॉमन्स परवान्या अंतर्गत प्रकाशित झाला आहे.\n  CC BY 3.0 https://creativecommons.org/licenses/by/3.0/ \nआपल्या वर्गांमध्ये हा व्हिडिओ वापरण्यास मोकळ्या मनाने!\n\nआम्ही स्थानिकीकरणासाठी Google भाषांतर सेवा वापरतो. आपल्याला काही चुका आढळल्यास कृपया आम्हाला कळवा.\n"
    },
    {
      "Lang": "ms",
      "Title": "Latihan tatabahasa Bahasa Inggeris | Mudah Inggeris ⭐️ #4 am/are/is",
      "Description": "Belajar bahasa Inggeris! Tukar perkataan dalam ayat.\n\n\n\n0:04 1:16 2:24 \nKim and I are sleepy\nkɪm ənd aɪ ər sˈlipi\nKim dan saya mengantuk\n\n0:18 1:29 2:37 \nThe cat is sleepy\nðə kæt ɪz sˈlipi\nKucing itu mengantuk\n\n0:32 1:42 2:50 \nI am sleepy\naɪ æm sˈlipi\nsaya mengantuk\n\n0:45 1:55 3:03 \nI am angry\naɪ æm ˈæŋgri\nsaya marah\n\n0:59 2:08 3:16 \nKim and I are angry\nkɪm ənd aɪ ər ˈæŋgri\nKim dan saya marah\n\n\n\nKepada guru dan sekolah:\nVideo ini diterbitkan di bawah Lesen Creative Commons.\n  CC BY 3.0 https://creativecommons.org/licenses/by/3.0/ \nJangan ragu untuk menggunakan video ini dalam kelas anda!\n\nKami menggunakan perkhidmatan Terjemahan Google untuk penyetempatan. Jika anda mendapati beberapa kesilapan, sila beritahu kami.\n"
    },
    {
      "Lang": "mt",
      "Title": "Eżerċizzji ta 'grammatika Ingliża | Sempliċi Ingliżi ⭐️ #4 am/are/is",
      "Description": "Tgħallem il-grammatika Ingliża! Ibdel kelma f’sentenza.\n\n\n\n0:04 1:16 2:24 \nKim and I are sleepy\nkɪm ənd aɪ ər sˈlipi\nKim u jien bi ngħas\n\n0:18 1:29 2:37 \nThe cat is sleepy\nðə kæt ɪz sˈlipi\nIl-qattus huwa bi ngħas\n\n0:32 1:42 2:50 \nI am sleepy\naɪ æm sˈlipi\nJien ngħas\n\n0:45 1:55 3:03 \nI am angry\naɪ æm ˈæŋgri\nJiena rrabjat\n\n0:59 2:08 3:16 \nKim and I are angry\nkɪm ənd aɪ ər ˈæŋgri\nKim u jien aħna rrabjati\n\n\n\nGħalliema u skejjel:\nDan il-video huwa ppublikat taħt il-Liċenzja Creative Commons.\n  CC BY 3.0 https://creativecommons.org/licenses/by/3.0/ \nĦossok liberu li tuża dan il-video fil-klassijiet tiegħek!\n\nAħna nużaw servizz Google Translate għall-lokalizzazzjoni. Jekk issib xi żbalji, jekk jogħġbok għarrafna.\n"
    },
    {
      "Lang": "my",
      "Title": "အင်္ဂလိပ်သဒ္ဒါလေ့ကျင့်ခန်း | ရိုးရှင်းသော ဗြိတိသျှ ⭐️ #4 am/are/is",
      "Description": "အင်္ဂလိပ်သဒ္ဒါကိုလေ့လာပါ။ ဝါကျတွင်စကားလုံးတစ်လုံးပြောင်းပါ။\n\n\n\n0:04 1:16 2:24 \nKim and I are sleepy\nkɪm ənd aɪ ər sˈlipi\nကင်မ်နဲ့ကျွန်တော်အိပ်ချင်နေတယ်\n\n0:18 1:29 2:37 \nThe cat is sleepy\nðə kæt ɪz sˈlipi\nကြောင်ကအိပ်ချင်တယ်\n\n0:32 1:42 2:50 \nI am sleepy\naɪ æm sˈlipi\nကျွန်တော်အိပ်ချင်နေပါတယ်\n\n0:45 1:55 3:03 \nI am angry\naɪ æm ˈæŋgri\nစိတ်တိုနေတယ်\n\n0:59 2:08 3:16 \nKim and I are angry\nkɪm ənd aɪ ər ˈæŋgri\nကင်မ်နဲ့ကျွန်တော်ကဒေါသထွက်ကြတယ်\n\n\n\nဆရာများနှင့်ကျောင်းများသို့\nဒီဗီဒီယိုကို Creative Commons လိုင်စင်အောက်မှာထုတ်ဝေထားတယ်။\n  CC BY 3.0 https://creativecommons.org/licenses/by/3.0/ \nဤဗီဒီယိုကိုသင်၏အတန်းများ၌အခမဲ့အသုံးပြုပါ။\n\nကျွန်ုပ်တို့သည်ဒေသခံဘာသာပြန်အတွက် Google Translate ဝန်ဆောင်မှုကိုအသုံးပြုသည်။ သင်အမှားအယွင်းများအချို့ရှိပါကကျွန်ုပ်တို့အားအသိပေးပါ။\n"
    },
    {
      "Lang": "ne",
      "Title": "अंग्रेजी व्याकरण व्यायाम | सरल बेलायती ⭐️ #4 am/are/is",
      "Description": "अंग्रेजी व्याकरण सिक्नुहोस्! एक वाक्य मा एक शब्द बदल्नुहोस्।\n\n\n\n0:04 1:16 2:24 \nKim and I are sleepy\nkɪm ənd aɪ ər sˈlipi\nकिम र म निदाइरहेका छौं\n\n0:18 1:29 2:37 \nThe cat is sleepy\nðə kæt ɪz sˈlipi\nबिराला निन्द्रा छ\n\n0:32 1:42 2:50 \nI am sleepy\naɪ æm sˈlipi\nमलाई निन्द्रा लाग्यो\n\n0:45 1:55 3:03 \nI am angry\naɪ æm ˈæŋgri\nम रिसाएको छु\n\n0:59 2:08 3:16 \nKim and I are angry\nkɪm ənd aɪ ər ˈæŋgri\nकिम र म रिसाएका छौं\n\n\n\nशिक्षक र विद्यालयहरुलाई:\nयो भिडियो क्रिएटिभ कमन्स लाइसेन्स अन्तर्गत प्रकाशित गरिएको छ।\n  CC BY 3.0 https://creativecommons.org/licenses/by/3.0/ \nतपाईंको कक्षामा यो भिडियो प्रयोग गर्न स्वतन्त्र महसुस गर्नुहोस्!\n\nहामी स्थानीयकरणको लागि गुगल अनुवाद सेवा प्रयोग गर्दछौं। यदि तपाईंले केहि गल्तीहरू फेला पार्नुभयो भने, कृपया हामीलाई खबर गर्नुहोस्।\n"
    },
    {
      "Lang": "nl",
      "Title": "Engelse grammatica-oefeningen | Gemakkelijk Brits ⭐️ #4 am/are/is",
      "Description": "Leer Engelse grammatica! Verander een woord in een zin.\n\n\n\n0:04 1:16 2:24 \nKim and I are sleepy\nkɪm ənd aɪ ər sˈlipi\nKim en ik zijn slaperig\n\n0:18 1:29 2:37 \nThe cat is sleepy\nðə kæt ɪz sˈlipi\nDe kat is slaperig\n\n0:32 1:42 2:50 \nI am sleepy\naɪ æm sˈlipi\nik ben slaperig\n\n0:45 1:55 3:03 \nI am angry\naɪ æm ˈæŋgri\nik ben boos\n\n0:59 2:08 3:16 \nKim and I are angry\nkɪm ənd aɪ ər ˈæŋgri\nKim en ik zijn boos\n\n\n\nAan leraren en scholen:\nDeze video is gepubliceerd onder Creative Commons License.\n  CC BY 3.0 https://creativecommons.org/licenses/by/3.0/ \nVoel je vrij om deze video in je lessen te gebruiken!\n\nWe gebruiken de Google Translate-service voor lokalisatie. Laat het ons weten als u fouten ontdekt.\n"
    },
    {
      "Lang": "no",
      "Title": "Engelsk grammatikkøvelser | Enkel British ⭐️ #4 am/are/is",
      "Description": "Lær engelsk grammatikk! Endre et ord i en setning.\n\n\n\n0:04 1:16 2:24 \nKim and I are sleepy\nkɪm ənd aɪ ər sˈlipi\nKim og jeg er søvnige\n\n0:18 1:29 2:37 \nThe cat is sleepy\nðə kæt ɪz sˈlipi\nKatten er søvnig\n\n0:32 1:42 2:50 \nI am sleepy\naɪ æm sˈlipi\njeg er søvnig\n\n0:45 1:55 3:03 \nI am angry\naɪ æm ˈæŋgri\njeg er sint\n\n0:59 2:08 3:16 \nKim and I are angry\nkɪm ənd aɪ ər ˈæŋgri\nKim og jeg er sinte\n\n\n\nTil lærere og skoler:\nDenne videoen er publisert under Creative Commons License.\n  CC BY 3.0 https://creativecommons.org/licenses/by/3.0/ \nBruk gjerne denne videoen i klassene dine!\n\nVi bruker Google Translate-tjenesten for lokalisering. Gi beskjed hvis du finner noen feil.\n"
    },
    {
      "Lang": "pa",
      "Title": "ਅੰਗਰੇਜ਼ੀ ਵਿਆਕਰਣ ਅਭਿਆਸ | ਆਸਾਨ ਬ੍ਰਿਟਿਸ਼ ⭐️ #4 am/are/is",
      "Description": "ਅੰਗਰੇਜ਼ੀ ਵਿਆਕਰਣ ਸਿੱਖੋ! ਇੱਕ ਵਾਕ ਵਿੱਚ ਇੱਕ ਸ਼ਬਦ ਬਦਲੋ.\n\n\n\n0:04 1:16 2:24 \nKim and I are sleepy\nkɪm ənd aɪ ər sˈlipi\nਕਿਮ ਅਤੇ ਮੈਂ ਸੌਂ ਰਹੇ ਹਾਂ\n\n0:18 1:29 2:37 \nThe cat is sleepy\nðə kæt ɪz sˈlipi\nਬਿੱਲੀ ਨੀਂਦ ਆ ਰਹੀ ਹੈ\n\n0:32 1:42 2:50 \nI am sleepy\naɪ æm sˈlipi\nਮੈਨੂੰ ਨੀਂਦ ਆ ਰਹੀ ਹੈ\n\n0:45 1:55 3:03 \nI am angry\naɪ æm ˈæŋgri\nਮੈਂ ਗੁੱਸੇ ਵਿਚ ਹਾਂ\n\n0:59 2:08 3:16 \nKim and I are angry\nkɪm ənd aɪ ər ˈæŋgri\nਕਿਮ ਅਤੇ ਮੈਂ ਗੁੱਸੇ ਹਾਂ\n\n\n\nਅਧਿਆਪਕਾਂ ਅਤੇ ਸਕੂਲਾਂ ਨੂੰ:\nਇਹ ਵੀਡੀਓ ਕਰੀਏਟਿਵ ਕਾਮਨਜ਼ ਲਾਇਸੈਂਸ ਅਧੀਨ ਪ੍ਰਕਾਸ਼ਤ ਕੀਤਾ ਗਿਆ ਹੈ.\n  CC BY 3.0 https://creativecommons.org/licenses/by/3.0/ \nਇਸ ਕਲਾਸ ਨੂੰ ਆਪਣੀਆਂ ਕਲਾਸਾਂ ਵਿਚ ਵਰਤਣ ਲਈ ਮੁਫ਼ਤ ਮਹਿਸੂਸ ਕਰੋ!\n\nਅਸੀਂ ਸਥਾਨਕਕਰਨ ਲਈ ਗੂਗਲ ਅਨੁਵਾਦ ਸੇਵਾ ਦੀ ਵਰਤੋਂ ਕਰਦੇ ਹਾਂ. ਜੇ ਤੁਹਾਨੂੰ ਕੁਝ ਗਲਤੀਆਂ ਮਿਲਦੀਆਂ ਹਨ, ਤਾਂ ਕਿਰਪਾ ਕਰਕੇ ਸਾਨੂੰ ਦੱਸੋ.\n"
    },
    {
      "Lang": "pl",
      "Title": "Gramatyka angielska | Prosty brytyjski ⭐️ #4 am/are/is",
      "Description": "Ucz się gramatyki angielskiej! Zmień słowo w zdaniu.\n\n\n\n0:04 1:16 2:24 \nKim and I are sleepy\nkɪm ənd aɪ ər sˈlipi\nKim i ja jesteśmy śpiący\n\n0:18 1:29 2:37 \nThe cat is sleepy\nðə kæt ɪz sˈlipi\nKot jest śpiący\n\n0:32 1:42 2:50 \nI am sleepy\naɪ æm sˈlipi\njestem śpiący\n\n0:45 1:55 3:03 \nI am angry\naɪ æm ˈæŋgri\njestem zły\n\n0:59 2:08 3:16 \nKim and I are angry\nkɪm ənd aɪ ər ˈæŋgri\nKim i ja jesteśmy źli\n\n\n\nDo nauczycieli i szkół:\nTen film jest opublikowany na licencji Creative Commons.\n  CC BY 3.0 https://creativecommons.org/licenses/by/3.0/ \nZachęcamy do korzystania z tego filmu na zajęciach!\n\nDo lokalizacji używamy usługi Tłumacz Google. Jeśli znajdziesz jakieś błędy, daj nam znać.\n"
    },
    {
      "Lang": "ps",
      "Title": "انګلیسي ګرامر تمرینونه | ساده برتانوي ⭐️ #4 am/are/is",
      "Description": "انګلیسي ګرامر زده کړئ! یوه جمله په یوه جمله بدله کړئ.\n\n\n\n0:04 1:16 2:24 \nKim and I are sleepy\nkɪm ənd aɪ ər sˈlipi\nکیم او زه په خوب کې یو\n\n0:18 1:29 2:37 \nThe cat is sleepy\nðə kæt ɪz sˈlipi\nپیشو ويده ده\n\n0:32 1:42 2:50 \nI am sleepy\naɪ æm sˈlipi\nخوب راځی\n\n0:45 1:55 3:03 \nI am angry\naɪ æm ˈæŋgri\nزه په غوسه یم\n\n0:59 2:08 3:16 \nKim and I are angry\nkɪm ənd aɪ ər ˈæŋgri\nکیم او زه په غوسه یو\n\n\n\nښوونکو او ښوونځیو ته:\nدا ویډیو د کریټیو کامنز لایسنس لاندې خپره شوې ده.\n  CC BY 3.0 https://creativecommons.org/licenses/by/3.0/ \nپه خپلو ټولګیو کې د دې ویډیو کارولو لپاره وړیا احساس وکړئ!\n\nموږ د ځایی کولو لپاره د ګوګل ژباړن خدمت کاروو. که تاسو ځینې غلطۍ ومومئ ، مهرباني وکړئ موږ ته خبر راکړئ.\n"
    },
    {
      "Lang": "pt",
      "Title": "Exercícios de gramática inglesa | Simples britânico ⭐️ #4 am/are/is",
      "Description": "Aprenda gramática inglesa! Mude uma palavra em uma frase.\n\n\n\n0:04 1:16 2:24 \nKim and I are sleepy\nkɪm ənd aɪ ər sˈlipi\nKim e eu estamos com sono\n\n0:18 1:29 2:37 \nThe cat is sleepy\nðə kæt ɪz sˈlipi\nO gato está com sono\n\n0:32 1:42 2:50 \nI am sleepy\naɪ æm sˈlipi\nestou com sono\n\n0:45 1:55 3:03 \nI am angry\naɪ æm ˈæŋgri\nestou com raiva\n\n0:59 2:08 3:16 \nKim and I are angry\nkɪm ənd aɪ ər ˈæŋgri\nKim e eu estamos com raiva\n\n\n\nPara professores e escolas:\nEste vídeo é publicado sob licença Creative Commons.\n  CC BY 3.0 https://creativecommons.org/licenses/by/3.0/ \nSinta-se livre para usar este vídeo em suas aulas!\n\nUsamos o serviço Google Translate para localização. Se você encontrar algum erro, informe-nos.\n"
    },
    {
      "Lang": "ro",
      "Title": "Exerciții de gramatică engleză | Simplu britanic ⭐️ #4 am/are/is",
      "Description": "Învață gramatica engleză! Schimbă un cuvânt într-o propoziție.\n\n\n\n0:04 1:16 2:24 \nKim and I are sleepy\nkɪm ənd aɪ ər sˈlipi\nKim și cu mine suntem adormiți\n\n0:18 1:29 2:37 \nThe cat is sleepy\nðə kæt ɪz sˈlipi\nPisica este adormită\n\n0:32 1:42 2:50 \nI am sleepy\naɪ æm sˈlipi\nsunt somnoros\n\n0:45 1:55 3:03 \nI am angry\naɪ æm ˈæŋgri\nsunt nervos\n\n0:59 2:08 3:16 \nKim and I are angry\nkɪm ənd aɪ ər ˈæŋgri\nKim și cu mine suntem supărați\n\n\n\nPentru profesori și școli:\nAcest videoclip este publicat sub licență Creative Commons.\n  CC BY 3.0 https://creativecommons.org/licenses/by/3.0/ \nSimte-te liber să folosești acest videoclip în orele tale!\n\nFolosim serviciul Google Translate pentru localizare. Dacă găsiți unele greșeli, vă rugăm să ne informați.\n"
    },
    {
      "Lang": "ru",
      "Title": "Упражнения по английской грамматике | просто Британская ⭐️ #4 am/are/is",
      "Description": "Изучай английскую грамматику! Изменить слово в предложении.\n\n\n\n0:04 1:16 2:24 \nKim and I are sleepy\nkɪm ənd aɪ ər sˈlipi\nКим и я сонные\n\n0:18 1:29 2:37 \nThe cat is sleepy\nðə kæt ɪz sˈlipi\nКот сонный\n\n0:32 1:42 2:50 \nI am sleepy\naɪ æm sˈlipi\nя сонный\n\n0:45 1:55 3:03 \nI am angry\naɪ æm ˈæŋgri\nЯ зол\n\n0:59 2:08 3:16 \nKim and I are angry\nkɪm ənd aɪ ər ˈæŋgri\nКим и я злы\n\n\n\nУчителям и школам:\nЭто видео опубликовано под лицензией Creative Commons.\n  CC BY 3.0 https://creativecommons.org/licenses/by/3.0/ \nНе стесняйтесь использовать это видео в своих классах!\n\nМы используем сервис Google Translate для локализации. Если вы обнаружите ошибки, сообщите нам.\n"
    },
    {
      "Lang": "sd",
      "Title": "سنڌي گرامر مشق | سادو انگريزن ⭐️ #4 am/are/is",
      "Description": "انگريزي گرامر سکو! ھڪ لفظ ۾ ھڪڙي تبديلي آڻيو.\n\n\n\n0:04 1:16 2:24 \nKim and I are sleepy\nkɪm ənd aɪ ər sˈlipi\nمون ۽ آئون ننڊ ۾ آهن\n\n0:18 1:29 2:37 \nThe cat is sleepy\nðə kæt ɪz sˈlipi\nٻلي ننڊ ۾ آهي\n\n0:32 1:42 2:50 \nI am sleepy\naɪ æm sˈlipi\nمان ننڊ ۾ آهيان\n\n0:45 1:55 3:03 \nI am angry\naɪ æm ˈæŋgri\nمان ناراض آهيان\n\n0:59 2:08 3:16 \nKim and I are angry\nkɪm ənd aɪ ər ˈæŋgri\nڪريم ۽ مون ناراض آهن\n\n\n\nاستاد ۽ اسڪولن ڏانهن:\nهيء وڊيو تخليقي العام لائسنس هيٺ شايع ٿيل آهي.\n  CC BY 3.0 https://creativecommons.org/licenses/by/3.0/ \nپنهنجي وڊيوز ۾ هن وڊيو کي استعمال ڪرڻ لاء آزاد ٿيو!\n\nاسان مقامي ڪرڻ لاء گوگل ترجمو سروس استعمال ڪندا آهيون. جيڪڏهن توهان ڪجهه غلطي ڳوليندا آهيو، مهرباني ڪري اسان کي ڄاڻ ڏيو.\n"
    },
    {
      "Lang": "si",
      "Title": "ඉංග්‍රීසි ව්‍යාකරණ අභ්‍යාස | සරල බ්‍රිතාන්‍ය ⭐️ #4 am/are/is",
      "Description": "ඉංග්‍රීසි ව්‍යාකරණ ඉගෙන ගන්න! වාක්‍යයක වචනයක් වෙනස් කරන්න.\n\n\n\n0:04 1:16 2:24 \nKim and I are sleepy\nkɪm ənd aɪ ər sˈlipi\nකිම් සහ මම නිදිමතයි\n\n0:18 1:29 2:37 \nThe cat is sleepy\nðə kæt ɪz sˈlipi\nබළලා නිදිමතයි\n\n0:32 1:42 2:50 \nI am sleepy\naɪ æm sˈlipi\nමට නිදිමතයි\n\n0:45 1:55 3:03 \nI am angry\naɪ æm ˈæŋgri\nමම තරහයි\n\n0:59 2:08 3:16 \nKim and I are angry\nkɪm ənd aɪ ər ˈæŋgri\nකිම් සහ මම තරහයි\n\n\n\nගුරුවරුන්ට සහ පාසල්වලට:\nමෙම වීඩියෝව නිර්මාණාත්මක පොදු බලපත්‍රය යටතේ ප්‍රකාශයට පත් කෙරේ.\n  CC BY 3.0 https://creativecommons.org/licenses/by/3.0/ \nඔබේ පංතිවල මෙම වීඩියෝව භාවිතා කිරීමට නිදහස් වන්න!\n\nප්‍රාදේශීයකරණය සඳහා අපි ගූගල් පරිවර්තන සේවාව භාවිතා කරමු. ඔබ යම් වැරැද්දක් සොයා ගන්නේ නම්, කරුණාකර අපට දන්වන්න.\n"
    },
    {
      "Lang": "sk",
      "Title": "Anglické gramatické cvičenia | prostý britský ⭐️ #4 am/are/is",
      "Description": "Naučte sa anglickú gramatiku! Zmeniť slovo vo vete.\n\n\n\n0:04 1:16 2:24 \nKim and I are sleepy\nkɪm ənd aɪ ər sˈlipi\nKim a ja sme ospalý\n\n0:18 1:29 2:37 \nThe cat is sleepy\nðə kæt ɪz sˈlipi\nMačka je ospalá\n\n0:32 1:42 2:50 \nI am sleepy\naɪ æm sˈlipi\nsom ospalý\n\n0:45 1:55 3:03 \nI am angry\naɪ æm ˈæŋgri\nsom nahnevaný\n\n0:59 2:08 3:16 \nKim and I are angry\nkɪm ənd aɪ ər ˈæŋgri\nKim a ja sme naštvaní\n\n\n\nPre učiteľov a školy:\nToto video je publikované pod licenciou Creative Commons License.\n  CC BY 3.0 https://creativecommons.org/licenses/by/3.0/ \nNeváhajte použiť toto video vo svojich triedach!\n\nNa lokalizáciu používame službu Prekladač Google. Ak nájdete nejaké chyby, dajte nám vedieť.\n"
    },
    {
      "Lang": "sl",
      "Title": "Angleške slovnične vaje | Preprosto Britanci ⭐️ #4 am/are/is",
      "Description": "Naučite se angleške slovnice! Spremenite besedo v stavku.\n\n\n\n0:04 1:16 2:24 \nKim and I are sleepy\nkɪm ənd aɪ ər sˈlipi\nKim in jaz sva zaspana\n\n0:18 1:29 2:37 \nThe cat is sleepy\nðə kæt ɪz sˈlipi\nMačka je zaspana\n\n0:32 1:42 2:50 \nI am sleepy\naɪ æm sˈlipi\nzaspan sem\n\n0:45 1:55 3:03 \nI am angry\naɪ æm ˈæŋgri\njaz sem jezen\n\n0:59 2:08 3:16 \nKim and I are angry\nkɪm ənd aɪ ər ˈæŋgri\nKim in jaz sva jezna\n\n\n\nUčiteljem in šolam:\nTa videoposnetek je objavljen pod licenco Creative Commons.\n  CC BY 3.0 https://creativecommons.org/licenses/by/3.0/ \nUporabite ta video v svojih razredih!\n\nZa lokalizacijo uporabljamo storitev Google Translate. Če najdete nekaj napak, nas obvestite.\n"
    },
    {
      "Lang": "sm",
      "Title": "Gagana o le gagana Gagana Peretania | Faigofie Peretania ⭐️ #4 am/are/is",
      "Description": "Aoao le gagana Gagana Peretania! Sui se upu i se fuaiupu.\n\n\n\n0:04 1:16 2:24 \nKim and I are sleepy\nkɪm ənd aɪ ər sˈlipi\nMatou te momoe ma Kim\n\n0:18 1:29 2:37 \nThe cat is sleepy\nðə kæt ɪz sˈlipi\nE moe le pusi\n\n0:32 1:42 2:50 \nI am sleepy\naɪ æm sˈlipi\nUa ou moe\n\n0:45 1:55 3:03 \nI am angry\naɪ æm ˈæŋgri\nUa ou ita\n\n0:59 2:08 3:16 \nKim and I are angry\nkɪm ənd aɪ ər ˈæŋgri\nUa ma ita ma Kim\n\n\n\nI faiaoga ma aʻoga:\nO lenei vitio ua lomia i lalo o le Creative Commons License.\n  CC BY 3.0 https://creativecommons.org/licenses/by/3.0/ \nLagona le saoloto e faʻaaoga lenei vitio i au vasega!\n\nMatou te faʻaaoga le Google Translate auaunaga mo le faʻasalalauga. Afai e te maua ni mea sese, faʻamolemole ia e iloa.\n"
    },
    {
      "Lang": "sn",
      "Title": "Chirungu grammar Exercise | Nyore Britain ⭐️ #4 am/are/is",
      "Description": "Dzidza mutauro wechirungu! Chinja izwi muchirevo.\n\n\n\n0:04 1:16 2:24 \nKim and I are sleepy\nkɪm ənd aɪ ər sˈlipi\nKim neni takarara\n\n0:18 1:29 2:37 \nThe cat is sleepy\nðə kæt ɪz sˈlipi\nKatsi yakarara\n\n0:32 1:42 2:50 \nI am sleepy\naɪ æm sˈlipi\nndinehope\n\n0:45 1:55 3:03 \nI am angry\naɪ æm ˈæŋgri\nNdakatsamwa\n\n0:59 2:08 3:16 \nKim and I are angry\nkɪm ənd aɪ ər ˈæŋgri\nKim neni takatsamwa\n\n\n\nKune vadzidzisi uye zvikoro:\nVhidhiyo iyi inoburitswa pasi peCreative Commons License.\n  CC BY 3.0 https://creativecommons.org/licenses/by/3.0/ \nInzwa wakasununguka kushandisa iyi vhidhiyo mumakirasi ako!\n\nIsu tinoshandisa Google Dhumiro sevhisi. Kana iwe ukawana zvimwe zvikanganiso, tapota titiudze.\n"
    },
    {
      "Lang": "so",
      "Title": "Jimicsiga naxwaha Ingiriisiga | Fudud Ingiriiska ⭐️ #4 am/are/is",
      "Description": "Baro naxwaha Ingiriisiga! U beddelo eray weedh.\n\n\n\n0:04 1:16 2:24 \nKim and I are sleepy\nkɪm ənd aɪ ər sˈlipi\nKim iyo aniga waan hurdeen\n\n0:18 1:29 2:37 \nThe cat is sleepy\nðə kæt ɪz sˈlipi\nBisaduhu waa hurdo\n\n0:32 1:42 2:50 \nI am sleepy\naɪ æm sˈlipi\nWaan hurdaa\n\n0:45 1:55 3:03 \nI am angry\naɪ æm ˈæŋgri\nWaan xanaaqay\n\n0:59 2:08 3:16 \nKim and I are angry\nkɪm ənd aɪ ər ˈæŋgri\nAniga iyo Kim waa xanaaqnay\n\n\n\nKu socota macallimiinta iyo iskuulada:\nMuuqaalkan fiidiyaha ah waxaa lagu daabacay hoosta hal-abuurnimada Hal-abuurka.\n  CC BY 3.0 https://creativecommons.org/licenses/by/3.0/ \nXor baad u leedahay inaad fiidiyaha u isticmaasho fasalladaaga!\n\nWaxaan u adeegsanaa adeega Google tarjumaha si aan ugu tarjunno. Hadaad khaladaad hesho, fadlan nala socodsii.\n"
    },
    {
      "Lang": "sq",
      "Title": "Ushtrime gramatikore angleze | i thjeshtë britanik ⭐️ #4 am/are/is",
      "Description": "Mësoni gramatikën angleze! Ndryshoni një fjalë në një fjali.\n\n\n\n0:04 1:16 2:24 \nKim and I are sleepy\nkɪm ənd aɪ ər sˈlipi\nKim dhe unë jemi në gjumë\n\n0:18 1:29 2:37 \nThe cat is sleepy\nðə kæt ɪz sˈlipi\nMacja është e përgjumur\n\n0:32 1:42 2:50 \nI am sleepy\naɪ æm sˈlipi\nJam duke fjetur\n\n0:45 1:55 3:03 \nI am angry\naɪ æm ˈæŋgri\nJam zemëruar\n\n0:59 2:08 3:16 \nKim and I are angry\nkɪm ənd aɪ ər ˈæŋgri\nKim dhe unë jemi të zemëruar\n\n\n\nPër mësuesit dhe shkollat:\nKjo video është botuar nën licencën Creative Commons.\n  CC BY 3.0 https://creativecommons.org/licenses/by/3.0/ \nMos ngurroni të përdorni këtë video në klasat tuaja!\n\nNe përdorim shërbimin Google Translate për lokalizimin. Nëse gjeni disa gabime, ju lutemi na tregoni.\n"
    },
    {
      "Lang": "sr",
      "Title": "Вежбе енглеске граматике | Једноставно Британци ⭐️ #4 am/are/is",
      "Description": "Научите енглеску граматику! Промените реч у реченици.\n\n\n\n0:04 1:16 2:24 \nKim and I are sleepy\nkɪm ənd aɪ ər sˈlipi\nКим и ја смо поспани\n\n0:18 1:29 2:37 \nThe cat is sleepy\nðə kæt ɪz sˈlipi\nМачка је поспана\n\n0:32 1:42 2:50 \nI am sleepy\naɪ æm sˈlipi\nпоспан сам\n\n0:45 1:55 3:03 \nI am angry\naɪ æm ˈæŋgri\nЈа сам љут\n\n0:59 2:08 3:16 \nKim and I are angry\nkɪm ənd aɪ ər ˈæŋgri\nКим и ја смо љути\n\n\n\nНаставницима и школама:\nОвај видео је објављен под Цреативе Цоммонс лиценцом.\n  CC BY 3.0 https://creativecommons.org/licenses/by/3.0/ \nСлободно користите овај видеозапис у својим предавањима!\n\nЗа локализацију користимо услугу Гоогле Транслате. Ако нађете неке грешке, јавите нам се.\n"
    },
    {
      "Lang": "st",
      "Title": "Boikoetliso ba puo ea Senyesemane | E bonolo Borithane ⭐️ #4 am/are/is",
      "Description": "Ithute puo ea Senyesemane! Fetola lentsoe polelo.\n\n\n\n0:04 1:16 2:24 \nKim and I are sleepy\nkɪm ənd aɪ ər sˈlipi\nNna le Kim re robetse\n\n0:18 1:29 2:37 \nThe cat is sleepy\nðə kæt ɪz sˈlipi\nKatse e robala\n\n0:32 1:42 2:50 \nI am sleepy\naɪ æm sˈlipi\nKe robala\n\n0:45 1:55 3:03 \nI am angry\naɪ æm ˈæŋgri\nKe koatile\n\n0:59 2:08 3:16 \nKim and I are angry\nkɪm ənd aɪ ər ˈæŋgri\nNna le Kim re koatile\n\n\n\nHo matichere le likolo:\nVideo ena e phatlalalitsoe tlas'a Creative Commons License.\n  CC BY 3.0 https://creativecommons.org/licenses/by/3.0/ \nIkutloe u lokolohile ho sebelisa video ena litlelaseng tsa hau!\n\nRe sebelisa tšebeletso ea Google Tafsiri bakeng sa lehae. Haeba u fumana liphoso, ka kopo re tsebise.\n"
    },
    {
      "Lang": "su",
      "Title": "Latihan tata basa Inggris | Basajan Inggris ⭐️ #4 am/are/is",
      "Description": "Diajar grammar Inggris! Ngarobih kecap dina hiji kalimat.\n\n\n\n0:04 1:16 2:24 \nKim and I are sleepy\nkɪm ənd aɪ ər sˈlipi\nAbdi sareng Kim abdi tunduh\n\n0:18 1:29 2:37 \nThe cat is sleepy\nðə kæt ɪz sˈlipi\nUcingna tunduh\n\n0:32 1:42 2:50 \nI am sleepy\naɪ æm sˈlipi\nAbdi tunduh\n\n0:45 1:55 3:03 \nI am angry\naɪ æm ˈæŋgri\nAbdi ambek\n\n0:59 2:08 3:16 \nKim and I are angry\nkɪm ənd aɪ ər ˈæŋgri\nKuring jeung Kim kuring ambek\n\n\n\nPikeun guru sareng sakola:\nPidéo ieu dikaluarkeun dina Lisensi Lisénsi Creative Commons.\n  CC BY 3.0 https://creativecommons.org/licenses/by/3.0/ \nTong ngosongkeun pidéo ieu di kelas!\n\nKami nganggo jasa Google Translate pikeun lokalisasi. Upami anjeun mendakan sababaraha kasalahan, punten terangkeun ka urang.\n"
    },
    {
      "Lang": "sv",
      "Title": "Engelska grammatiska övningar | Enkel British ⭐️ #4 am/are/is",
      "Description": "Lär dig engelska grammatik! Ändra ett ord i en mening.\n\n\n\n0:04 1:16 2:24 \nKim and I are sleepy\nkɪm ənd aɪ ər sˈlipi\nKim och jag är sömniga\n\n0:18 1:29 2:37 \nThe cat is sleepy\nðə kæt ɪz sˈlipi\nKatten är sömnig\n\n0:32 1:42 2:50 \nI am sleepy\naɪ æm sˈlipi\njag är trött\n\n0:45 1:55 3:03 \nI am angry\naɪ æm ˈæŋgri\njag är arg\n\n0:59 2:08 3:16 \nKim and I are angry\nkɪm ənd aɪ ər ˈæŋgri\nKim och jag är arga\n\n\n\nTill lärare och skolor:\nDenna video publiceras under Creative Commons License.\n  CC BY 3.0 https://creativecommons.org/licenses/by/3.0/ \nAnvänd gärna den här videon i dina klasser!\n\nVi använder Google Translate-tjänst för lokalisering. Låt oss veta om du hittar några misstag.\n"
    },
    {
      "Lang": "sw",
      "Title": "Mazoezi ya sarufi ya Kiingereza | Rahisi Briteni ⭐️ #4 am/are/is",
      "Description": "Jifunze sarufi ya Kiingereza! Badilisha neno katika sentensi.\n\n\n\n0:04 1:16 2:24 \nKim and I are sleepy\nkɪm ənd aɪ ər sˈlipi\nKim na mimi tumelala\n\n0:18 1:29 2:37 \nThe cat is sleepy\nðə kæt ɪz sˈlipi\nPaka ni usingizi\n\n0:32 1:42 2:50 \nI am sleepy\naɪ æm sˈlipi\nNina usingizi\n\n0:45 1:55 3:03 \nI am angry\naɪ æm ˈæŋgri\nNina hasira\n\n0:59 2:08 3:16 \nKim and I are angry\nkɪm ənd aɪ ər ˈæŋgri\nKim na mimi tunakasirika\n\n\n\nKwa waalimu na shule:\nVideo hii imechapishwa chini ya Leseni ya Creative Commons.\n  CC BY 3.0 https://creativecommons.org/licenses/by/3.0/ \nJisikie huru kutumia video hii kwenye darasa lako!\n\nTunatumia huduma ya Tafsiri ya Google kwa ujanibishaji. Ikiwa utapata makosa, tafadhali tujulishe.\n"
    },
    {
      "Lang": "ta",
      "Title": "ஆங்கில இலக்கண பயிற்சிகள் | எளிய பிரிட்டிஷ் ⭐️ #4 am/are/is",
      "Description": "ஆங்கில இலக்கணம் கற்றுக்கொள்ளுங்கள்! ஒரு வாக்கியத்தில் ஒரு வார்த்தையை மாற்றவும்.\n\n\n\n0:04 1:16 2:24 \nKim and I are sleepy\nkɪm ənd aɪ ər sˈlipi\nகிம் மற்றும் நானும் தூக்கத்தில் இருக்கிறோம்\n\n0:18 1:29 2:37 \nThe cat is sleepy\nðə kæt ɪz sˈlipi\nபூனை தூக்கத்தில் உள்ளது\n\n0:32 1:42 2:50 \nI am sleepy\naɪ æm sˈlipi\nஎனக்கு தூக்கம்\n\n0:45 1:55 3:03 \nI am angry\naɪ æm ˈæŋgri\nநான் கோபமாக இருக்கிறேன்\n\n0:59 2:08 3:16 \nKim and I are angry\nkɪm ənd aɪ ər ˈæŋgri\nகிம் மற்றும் நான் கோபமாக இருக்கிறோம்\n\n\n\nஆசிரியர்கள் மற்றும் பள்ளிகளுக்கு:\nஇந்த வீடியோ கிரியேட்டிவ் காமன்ஸ் உரிமத்தின் கீழ் வெளியிடப்பட்டுள்ளது.\n  CC BY 3.0 https://creativecommons.org/licenses/by/3.0/ \nஉங்கள் வகுப்புகளில் இந்த வீடியோவைப் பயன்படுத்த தயங்காதீர்கள்!\n\nஉள்ளூர்மயமாக்க Google மொழிபெயர்ப்பு சேவையைப் பயன்படுத்துகிறோம். நீங்கள் சில தவறுகளைக் கண்டால், எங்களுக்குத் தெரியப்படுத்துங்கள்.\n"
    },
    {
      "Lang": "te",
      "Title": "ఇంగ్లీష్ వ్యాకరణ వ్యాయామాలు | సాధారణ బ్రిటిష్ ⭐️ #4 am/are/is",
      "Description": "ఇంగ్లీష్ వ్యాకరణం నేర్చుకోండి! ఒక వాక్యంలో ఒక పదాన్ని మార్చండి.\n\n\n\n0:04 1:16 2:24 \nKim and I are sleepy\nkɪm ənd aɪ ər sˈlipi\nకిమ్ మరియు నేను నిద్రపోతున్నాము\n\n0:18 1:29 2:37 \nThe cat is sleepy\nðə kæt ɪz sˈlipi\nపిల్లికి నిద్ర ఉంది\n\n0:32 1:42 2:50 \nI am sleepy\naɪ æm sˈlipi\nనాకు మగతగా ఉంది\n\n0:45 1:55 3:03 \nI am angry\naɪ æm ˈæŋgri\nనాకు కోపం ఉంది\n\n0:59 2:08 3:16 \nKim and I are angry\nkɪm ənd aɪ ər ˈæŋgri\nకిమ్ మరియు నేను కోపంగా ఉన్నాము\n\n\n\nఉపాధ్యాయులకు మరియు పాఠశాలలకు:\nఈ వీడియో క్రియేటివ్ కామన్స్ లైసెన్స్ క్రింద ప్రచురించబడింది.\n  CC BY 3.0 https://creativecommons.org/licenses/by/3.0/ \nమీ తరగతుల్లో ఈ వీడియోను ఉపయోగించడానికి సంకోచించకండి!\n\nస్థానికీకరణ కోసం మేము Google అనువాద సేవను ఉపయోగిస్తాము. మీరు కొన్ని తప్పులు కనుగొంటే, దయచేసి మాకు తెలియజేయండి.\n"
    },
    {
      "Lang": "tg",
      "Title": "Машқҳои грамматикаи забони англисӣ | Оддӣ Бритониё ⭐️ #4 am/are/is",
      "Description": "Грамматикаи забони англисиро омӯзед! Калимаро дар як ҷумла иваз кунед.\n\n\n\n0:04 1:16 2:24 \nKim and I are sleepy\nkɪm ənd aɪ ər sˈlipi\nКим ва ман хоболудем\n\n0:18 1:29 2:37 \nThe cat is sleepy\nðə kæt ɪz sˈlipi\nГурба хоб аст\n\n0:32 1:42 2:50 \nI am sleepy\naɪ æm sˈlipi\nМан хобидам\n\n0:45 1:55 3:03 \nI am angry\naɪ æm ˈæŋgri\nМан ғазабнокам\n\n0:59 2:08 3:16 \nKim and I are angry\nkɪm ənd aɪ ər ˈæŋgri\nКим ва ман хашмгинем\n\n\n\nБа муаллимон ва мактабҳо:\nИн видео зери иҷозатномаи Creative Commons нашр шудааст.\n  CC BY 3.0 https://creativecommons.org/licenses/by/3.0/ \nИн видеоро дар дарсҳои худ истифода баред!\n\nМо барои локализатсия аз хидмати Google Translate истифода мебарем. Агар шумо ягон хатогӣ дарёфт кунед, лутфан ба мо хабар диҳед.\n"
    },
    {
      "Lang": "th",
      "Title": "แบบฝึกหัดไวยากรณ์ภาษาอังกฤษ | ง่าย อังกฤษ ⭐️ #4 am/are/is",
      "Description": "เรียนรู้ไวยากรณ์ภาษาอังกฤษ! เปลี่ยนคำในประโยค\n\n\n\n0:04 1:16 2:24 \nKim and I are sleepy\nkɪm ənd aɪ ər sˈlipi\nคิมกับฉันง่วงนอน\n\n0:18 1:29 2:37 \nThe cat is sleepy\nðə kæt ɪz sˈlipi\nแมวง่วงนอน\n\n0:32 1:42 2:50 \nI am sleepy\naɪ æm sˈlipi\nฉันง่วงนอน\n\n0:45 1:55 3:03 \nI am angry\naɪ æm ˈæŋgri\nฉันโกรธ\n\n0:59 2:08 3:16 \nKim and I are angry\nkɪm ənd aɪ ər ˈæŋgri\nคิมกับฉันโกรธ\n\n\n\nถึงครูและโรงเรียน:\nวิดีโอนี้เผยแพร่ภายใต้สัญญาอนุญาตครีเอทีฟคอมมอนส์\n  CC BY 3.0 https://creativecommons.org/licenses/by/3.0/ \nอย่าลังเลที่จะใช้วิดีโอนี้ในชั้นเรียนของคุณ!\n\nเราใช้บริการ Google แปลภาษาเพื่อการแปล หากคุณพบข้อผิดพลาดบางอย่างโปรดแจ้งให้เราทราบ\n"
    },
    {
      "Lang": "tr",
      "Title": "İngilizce gramer çalışmaları | Basit ingiliz ⭐️ #4 am/are/is",
      "Description": "İngilizce gramerini öğren! Bir cümle içindeki bir kelimeyi değiştirin.\n\n\n\n0:04 1:16 2:24 \nKim and I are sleepy\nkɪm ənd aɪ ər sˈlipi\nKim ve ben uykunuz\n\n0:18 1:29 2:37 \nThe cat is sleepy\nðə kæt ɪz sˈlipi\nKedi uykulu\n\n0:32 1:42 2:50 \nI am sleepy\naɪ æm sˈlipi\nuykum var\n\n0:45 1:55 3:03 \nI am angry\naɪ æm ˈæŋgri\nkızgınım\n\n0:59 2:08 3:16 \nKim and I are angry\nkɪm ənd aɪ ər ˈæŋgri\nKim ve ben kızgınız\n\n\n\nÖğretmenlere ve okullara:\nBu video Creative Commons License. Altında yayınlandı.\n  CC BY 3.0 https://creativecommons.org/licenses/by/3.0/ \nBu videoyu derslerinizde kullanmaktan çekinmeyin!\n\nYerelleştirme için Google Çeviri hizmetini kullanıyoruz. Bazı hatalar bulursanız lütfen bize bildirin.\n"
    },
    {
      "Lang": "uk",
      "Title": "Граматичні вправи з англійської мови | Простий Британці ⭐️ #4 am/are/is",
      "Description": "Вивчіть англійську граматику! Змініть слово у реченні.\n\n\n\n0:04 1:16 2:24 \nKim and I are sleepy\nkɪm ənd aɪ ər sˈlipi\nМи з Кім спимо\n\n0:18 1:29 2:37 \nThe cat is sleepy\nðə kæt ɪz sˈlipi\nКіт сонний\n\n0:32 1:42 2:50 \nI am sleepy\naɪ æm sˈlipi\nя сонний\n\n0:45 1:55 3:03 \nI am angry\naɪ æm ˈæŋgri\nя злий\n\n0:59 2:08 3:16 \nKim and I are angry\nkɪm ənd aɪ ər ˈæŋgri\nМи з Кім розлючені\n\n\n\nДля вчителів та шкіл:\nЦе відео опубліковане під ліцензією Creative Commons.\n  CC BY 3.0 https://creativecommons.org/licenses/by/3.0/ \nСміливо використовуйте це відео у своїх класах!\n\nМи використовуємо послугу Google Translate для локалізації. Якщо ви виявили деякі помилки, повідомте нас про це.\n"
    },
    {
      "Lang": "ur",
      "Title": "انگریزی گرائمر کی ورزشیں | آسان برطانوی ⭐️ #4 am/are/is",
      "Description": "انگریزی گرائمر سیکھیں! ایک جملے میں ایک لفظ تبدیل کریں۔\n\n\n\n0:04 1:16 2:24 \nKim and I are sleepy\nkɪm ənd aɪ ər sˈlipi\nکم اور میں نیند میں ہیں\n\n0:18 1:29 2:37 \nThe cat is sleepy\nðə kæt ɪz sˈlipi\nبلی کو نیند آرہی ہے\n\n0:32 1:42 2:50 \nI am sleepy\naɪ æm sˈlipi\nمجھے نیند ارہی ہے\n\n0:45 1:55 3:03 \nI am angry\naɪ æm ˈæŋgri\nمیں ناراض ہوں\n\n0:59 2:08 3:16 \nKim and I are angry\nkɪm ənd aɪ ər ˈæŋgri\nکم اور میں ناراض ہیں\n\n\n\nاساتذہ اور اسکولوں کے لئے:\nیہ ویڈیو تخلیقی العام لائسنس کے تحت شائع ہوا ہے۔\n  CC BY 3.0 https://creativecommons.org/licenses/by/3.0/ \nاپنی ویڈیو کو اپنی کلاسوں میں آزادانہ طور پر استعمال کریں!\n\nہم لوکلائزیشن کے لئے گوگل ٹرانسلیٹ سروس استعمال کرتے ہیں۔ اگر آپ کو کچھ غلطیاں ملتی ہیں تو ، براہ کرم ہمیں بتائیں۔\n"
    },
    {
      "Lang": "uz",
      "Title": "Ingliz tili grammatik mashqlari | Oddiy Britaniya ⭐️ #4 am/are/is",
      "Description": "Ingliz tilining grammatikasini o'rganing! Bir so'zni jumlada o'zgartiring.\n\n\n\n0:04 1:16 2:24 \nKim and I are sleepy\nkɪm ənd aɪ ər sˈlipi\nKim va men uxlaymiz\n\n0:18 1:29 2:37 \nThe cat is sleepy\nðə kæt ɪz sˈlipi\nMushuk uyqusiz\n\n0:32 1:42 2:50 \nI am sleepy\naɪ æm sˈlipi\nMen uyqusirayapman\n\n0:45 1:55 3:03 \nI am angry\naɪ æm ˈæŋgri\nMening jahlim chiqdi\n\n0:59 2:08 3:16 \nKim and I are angry\nkɪm ənd aɪ ər ˈæŋgri\nKim va men g'azablanamiz\n\n\n\nO'qituvchilar va maktablarga:\nUshbu video Creative Commons litsenziyasi ostida joylashtirilgan.\n  CC BY 3.0 https://creativecommons.org/licenses/by/3.0/ \nUshbu videoni o'z sinflaringizda ishlatish bepul!\n\nBiz Google Translate xizmatidan lokalizatsiya uchun foydalanamiz. Agar siz biron bir xato topsangiz, iltimos, bizga xabar bering.\n"
    },
    {
      "Lang": "vi",
      "Title": "Bài tập ngữ pháp tiếng anh | Đơn giản người Anh ⭐️ #4 am/are/is",
      "Description": "Học ngữ pháp tiếng Anh! Thay đổi một từ trong một câu.\n\n\n\n0:04 1:16 2:24 \nKim and I are sleepy\nkɪm ənd aɪ ər sˈlipi\nKim và tôi buồn ngủ\n\n0:18 1:29 2:37 \nThe cat is sleepy\nðə kæt ɪz sˈlipi\nCon mèo buồn ngủ\n\n0:32 1:42 2:50 \nI am sleepy\naɪ æm sˈlipi\nTôi buồn ngủ\n\n0:45 1:55 3:03 \nI am angry\naɪ æm ˈæŋgri\ntôi đang tức giận\n\n0:59 2:08 3:16 \nKim and I are angry\nkɪm ənd aɪ ər ˈæŋgri\nKim và tôi tức giận\n\n\n\nGửi giáo viên và nhà trường:\nVideo này được xuất bản theo Giấy phép Creative Commons.\n  CC BY 3.0 https://creativecommons.org/licenses/by/3.0/ \nHãy sử dụng video này trong các lớp học của bạn!\n\nChúng tôi sử dụng dịch vụ Google Dịch để bản địa hóa. Nếu bạn tìm thấy một số sai lầm, xin vui lòng cho chúng tôi biết.\n"
    },
    {
      "Lang": "xh",
      "Title": "Ukuziqhelanisa negrama yesiNgesi | Elula Bhritane ⭐️ #4 am/are/is",
      "Description": "Funda igrama yesiNgesi! Guqula igama kwisivakalisi.\n\n\n\n0:04 1:16 2:24 \nKim and I are sleepy\nkɪm ənd aɪ ər sˈlipi\nMna noKim silele\n\n0:18 1:29 2:37 \nThe cat is sleepy\nðə kæt ɪz sˈlipi\nIkati ilele\n\n0:32 1:42 2:50 \nI am sleepy\naɪ æm sˈlipi\nndibulala\n\n0:45 1:55 3:03 \nI am angry\naɪ æm ˈæŋgri\nndinomsindo\n\n0:59 2:08 3:16 \nKim and I are angry\nkɪm ənd aɪ ər ˈæŋgri\nKim kunye nam sinomsindo\n\n\n\nKootitshala nakwizikolo:\nLe vidiyo ipapashwa phantsi kwelayisensi yeCreative Commons.\n  CC BY 3.0 https://creativecommons.org/licenses/by/3.0/ \nZive ukhululekile ukusebenzisa le vidiyo kwiiklasi zakho!\n\nSisebenzisa inkonzo yokuTolika kaGoogle ukuze sifumane indawo. Ukuba ufumana iimpazamo ezithile, nceda usazise.\n"
    },
    {
      "Lang": "yi",
      "Title": "ענגליש גראַמאַטיק עקסערסייזיז | פּשוט בריטיש ⭐️ #4 am/are/is",
      "Description": "לערן ענגליש גראַמאַטיק! טוישן אַ וואָרט אין אַ זאַץ.\n\n\n\n0:04 1:16 2:24 \nKim and I are sleepy\nkɪm ənd aɪ ər sˈlipi\nקים און איך זענען פאַרשלאָפן\n\n0:18 1:29 2:37 \nThe cat is sleepy\nðə kæt ɪz sˈlipi\nדי קאַץ איז פאַרשלאָפן\n\n0:32 1:42 2:50 \nI am sleepy\naɪ æm sˈlipi\nאיך בין פאַרשלאָפן\n\n0:45 1:55 3:03 \nI am angry\naɪ æm ˈæŋgri\nאיך בין בייז\n\n0:59 2:08 3:16 \nKim and I are angry\nkɪm ənd aɪ ər ˈæŋgri\nקים און איך זענען בייז\n\n\n\nצו לערערס און שולן:\nדער ווידעא איז ארויס אונטער Creative Commons License.\n  CC BY 3.0 https://creativecommons.org/licenses/by/3.0/ \nפילן פריי צו נוצן דעם ווידעא אין דיין קלאסן!\n\nמיר נוצן Google Translate דינסט פֿאַר לאָוקאַלאַזיישאַן. אויב איר געפֿינען עטלעכע מיסטייקס, ביטע לאָזן אונדז וויסן.\n"
    },
    {
      "Lang": "yo",
      "Title": "Awọn adaṣe gẹẹsi Gẹẹsi | Rọrun Ara ilu Gẹẹsi ⭐️ #4 am/are/is",
      "Description": "Kọ ẹkọ gẹẹsi Gẹẹsi! Yi ọrọ pada ninu gbolohun ọrọ.\n\n\n\n0:04 1:16 2:24 \nKim and I are sleepy\nkɪm ənd aɪ ər sˈlipi\nKim ati Emi wa sun\n\n0:18 1:29 2:37 \nThe cat is sleepy\nðə kæt ɪz sˈlipi\nO nran naa jẹ oorun\n\n0:32 1:42 2:50 \nI am sleepy\naɪ æm sˈlipi\nMo ti sun\n\n0:45 1:55 3:03 \nI am angry\naɪ æm ˈæŋgri\nEmi ni ibinu\n\n0:59 2:08 3:16 \nKim and I are angry\nkɪm ənd aɪ ər ˈæŋgri\nEmi ati Kim binu\n\n\n\nSi awọn olukọ ati awọn ile-iwe:\nFidio yii ni a tẹjade labẹ Iwe-aṣẹ Creative Commons.\n  CC BY 3.0 https://creativecommons.org/licenses/by/3.0/ \nLero lati lo fidio yii ninu awọn kilasi rẹ!\n\nA lo iṣẹ Google Translate fun agbegbe. Ti o ba rii diẹ ninu awọn aṣiṣe, jọwọ jẹ ki a mọ.\n"
    },
    {
      "Lang": "zh-Hans",
      "Title": "英语语法练习 | 简单 英式 ⭐️ #4 am/are/is",
      "Description": "学习英语语法！ 更改句子中的单词。\n\n\n\n0:04 1:16 2:24 \nKim and I are sleepy\nkɪm ənd aɪ ər sˈlipi\n金和我很困\n\n0:18 1:29 2:37 \nThe cat is sleepy\nðə kæt ɪz sˈlipi\n那只猫很困\n\n0:32 1:42 2:50 \nI am sleepy\naɪ æm sˈlipi\n我很困\n\n0:45 1:55 3:03 \nI am angry\naɪ æm ˈæŋgri\n我很生气\n\n0:59 2:08 3:16 \nKim and I are angry\nkɪm ənd aɪ ər ˈæŋgri\n金和我很生气\n\n\n\n致老师和学校：\n该视频是根据知识共享许可发布的。\n  CC BY 3.0 https://creativecommons.org/licenses/by/3.0/ \n随时在您的课程中使用此视频！\n\n我们使用Google翻译服务进行本地化。如果您发现一些错误，请告诉我们。\n"
    },
    {
      "Lang": "zh-Hant",
      "Title": "英語語法練習 | 簡單 英式 ⭐️ #4 am/are/is",
      "Description": "學習英語語法！ 更改句子中的單詞。\n\n\n\n0:04 1:16 2:24 \nKim and I are sleepy\nkɪm ənd aɪ ər sˈlipi\n金和我很困\n\n0:18 1:29 2:37 \nThe cat is sleepy\nðə kæt ɪz sˈlipi\n那隻貓很困\n\n0:32 1:42 2:50 \nI am sleepy\naɪ æm sˈlipi\n我很困\n\n0:45 1:55 3:03 \nI am angry\naɪ æm ˈæŋgri\n我很生氣\n\n0:59 2:08 3:16 \nKim and I are angry\nkɪm ənd aɪ ər ˈæŋgri\n金和我很生氣\n\n\n\n致老師和學校：\n該視頻是根據知識共享許可發布的。\n  CC BY 3.0 https://creativecommons.org/licenses/by/3.0/ \n隨時在您的課程中使用此視頻！\n\n我們使用Google翻譯服務進行本地化。如果您發現一些錯誤，請告訴我們。\n"
    },
    {
      "Lang": "zu",
      "Title": "Ukuzivocavoca kolimi lwesiNgisi | Elula IBritish ⭐️ #4 am/are/is",
      "Description": "Funda uhlelo lolimi lwesiNgisi! Shintsha igama emshweni.\n\n\n\n0:04 1:16 2:24 \nKim and I are sleepy\nkɪm ənd aɪ ər sˈlipi\nMina noKim silele\n\n0:18 1:29 2:37 \nThe cat is sleepy\nðə kæt ɪz sˈlipi\nIkati lilele\n\n0:32 1:42 2:50 \nI am sleepy\naɪ æm sˈlipi\nNgilele\n\n0:45 1:55 3:03 \nI am angry\naɪ æm ˈæŋgri\nNgithukuthule\n\n0:59 2:08 3:16 \nKim and I are angry\nkɪm ənd aɪ ər ˈæŋgri\nMina noKim sithukuthele\n\n\n\nKothisha nasezikoleni:\nLe vidiyo ishicilelwe ngaphansi kwelayisensi yeCreative Commons.\n  CC BY 3.0 https://creativecommons.org/licenses/by/3.0/ \nZizwe ukhululekile ukusebenzisa le vidiyo emakilasini akho!\n\nSisebenzisa insiza ye-Google Humusha ukwenza okwasendaweni. Uma uthola amanye amaphutha, sicela usazise.\n"
    }
  ]
}