{
  "File": "grammar-en-beginner-simple_60_IN.mp4",
  "ID": "lETQrhpFyVk",
  "AudioLang": "en",
  "DefaultLang": "uk",
  "Title": "Граматичні вправи з англійської мови | Простий Індія ⭐️ #60 When?",
  "Description": "Вивчіть англійську граматику! Змініть слово у реченні.\n\n\n\n0:04 1:16 2:25 \nWhen does he swim?\nwɪn dɪz hi swɪm?\nКоли він плаває?\n\n0:18 1:30 2:39 \nWhen does he play tennis?\nwɪn dɪz hi ple ˈtɛnɪs?\nКоли він грає в теніс?\n\n0:32 1:43 2:52 \nWhen do you play tennis?\nwɪn du ju ple ˈtɛnɪs?\nКоли ви граєте в теніс?\n\n0:46 1:56 3:05 \nWhen does your son play tennis?\nwɪn dɪz jʊr sən ple ˈtɛnɪs?\nКоли ваш син грає в теніс?\n\n0:59 2:09 3:18 \nWhen does your son swim?\nwɪn dɪz jʊr sən swɪm?\nКоли твій син плаває?\n\n\n\nДля вчителів та шкіл:\nЦе відео опубліковане під ліцензією Creative Commons.\n  CC BY 3.0 https://creativecommons.org/licenses/by/3.0/ \nСміливо використовуйте це відео у своїх класах!\n\nМи використовуємо послугу Google Translate для локалізації. Якщо ви виявили деякі помилки, повідомте нас про це.\n",
  "VideoTags": "Граматика англійської мови,گرامر انگلیسی,અંગ્રેજી વ્યાકરણ,ไวยากรณ์ภาษาอังกฤษ,英语语法,Ụtọasụsụ Bekee,Paramarama Ingarihi,سنڌي گرامر,ענגליש גראַמאַטיק,Grammar bahasa inggris,englische Grammatik,Gramática inglesa,Angļu valodas gramatika,Gramatyka angielska,Енглеска граматика",
  "YoutubeSynced": true,
  "ThumbnailUploaded": true,
  "Localizations": [
    {
      "Lang": "af",
      "Title": "Engelse grammatika-oefeninge | eenvoudige Indië ⭐️ #60 When?",
      "Description": "Leer Engelse grammatika! Verander 'n woord in 'n sin.\n\n\n\n0:04 1:16 2:25 \nWhen does he swim?\nwɪn dɪz hi swɪm?\nWanneer swem hy?\n\n0:18 1:30 2:39 \nWhen does he play tennis?\nwɪn dɪz hi ple ˈtɛnɪs?\nWanneer speel hy tennis?\n\n0:32 1:43 2:52 \nWhen do you play tennis?\nwɪn du ju ple ˈtɛnɪs?\nWanneer speel jy tennis?\n\n0:46 1:56 3:05 \nWhen does your son play tennis?\nwɪn dɪz jʊr sən ple ˈtɛnɪs?\nWanneer speel u seun tennis?\n\n0:59 2:09 3:18 \nWhen does your son swim?\nwɪn dɪz jʊr sən swɪm?\nWanneer swem u seun?\n\n\n\nAan onderwysers en skole:\nHierdie video word onder Creative Commons-lisensie gepubliseer.\n  CC BY 3.0 https://creativecommons.org/licenses/by/3.0/ \nGebruik gerus hierdie video in u klasse!\n\nOns gebruik Google Translate-diens vir lokalisering. Laat weet ons as u foute ervaar.\n"
    },
    {
      "Lang": "am",
      "Title": "የእንግሊዝኛ ሰዋሰው ልምምዶች | ቀላል ሕንድ ⭐️ #60 When?",
      "Description": "የእንግሊዝኛ ሰዋስው ይማሩ! በአረፍተ ነገር ውስጥ አንድ ቃል ይለውጡ ፡፡\n\n\n\n0:04 1:16 2:25 \nWhen does he swim?\nwɪn dɪz hi swɪm?\nመቼ ይዋኛል?\n\n0:18 1:30 2:39 \nWhen does he play tennis?\nwɪn dɪz hi ple ˈtɛnɪs?\nቴኒስ መቼ ይጫወታል?\n\n0:32 1:43 2:52 \nWhen do you play tennis?\nwɪn du ju ple ˈtɛnɪs?\nቴኒስ መቼ ይጫወታሉ?\n\n0:46 1:56 3:05 \nWhen does your son play tennis?\nwɪn dɪz jʊr sən ple ˈtɛnɪs?\nልጅዎ ቴኒስ መቼ ይጫወታል?\n\n0:59 2:09 3:18 \nWhen does your son swim?\nwɪn dɪz jʊr sən swɪm?\nልጅዎ መቼ ይዋኛል?\n\n\n\nለመምህራን እና ለት / ቤቶች\nይህ ቪዲዮ በ Creative Commons ፈቃድ ስር ታትሟል ፡፡\n  CC BY 3.0 https://creativecommons.org/licenses/by/3.0/ \nይህንን ቪዲዮ በትምህርቶችዎ ውስጥ ለመጠቀም ነፃ ይሁኑ!\n\nለትርጉም የ Google ትርጉም አገልግሎትን እንጠቀማለን። አንዳንድ ስህተቶች ካገኙ እባክዎ ያሳውቁን።\n"
    },
    {
      "Lang": "ar",
      "Title": "تمارين قواعد اللغة الإنجليزية | بسيط الهند ⭐️ #60 When?",
      "Description": "تعلم قواعد اللغة الإنجليزية! تغيير كلمة في جملة.\n\n\n\n0:04 1:16 2:25 \nWhen does he swim?\nwɪn dɪz hi swɪm?\nمتى يسبح؟\n\n0:18 1:30 2:39 \nWhen does he play tennis?\nwɪn dɪz hi ple ˈtɛnɪs?\nمتى يلعب التنس؟\n\n0:32 1:43 2:52 \nWhen do you play tennis?\nwɪn du ju ple ˈtɛnɪs?\nمتى تلعب التنس؟\n\n0:46 1:56 3:05 \nWhen does your son play tennis?\nwɪn dɪz jʊr sən ple ˈtɛnɪs?\nمتى يلعب ابنك التنس؟\n\n0:59 2:09 3:18 \nWhen does your son swim?\nwɪn dɪz jʊr sən swɪm?\nمتى يسبح ابنك؟\n\n\n\nللمعلمين والمدارس:\nتم نشر هذا الفيديو تحت رخصة المشاع الإبداعي.\n  CC BY 3.0 https://creativecommons.org/licenses/by/3.0/ \nلا تتردد في استخدام هذا الفيديو في الفصول الدراسية!\n\nنستخدم خدمة الترجمة من Google للترجمة. إذا وجدت بعض الأخطاء ، يرجى إعلامنا.\n"
    },
    {
      "Lang": "az",
      "Title": "İngilis qrammatikası təlimləri | Sadə Hindistan ⭐️ #60 When?",
      "Description": "İngilis dili qrammatikasını öyrənin! Bir cümlədə bir söz dəyişdirin.\n\n\n\n0:04 1:16 2:25 \nWhen does he swim?\nwɪn dɪz hi swɪm?\nNə vaxt üzür?\n\n0:18 1:30 2:39 \nWhen does he play tennis?\nwɪn dɪz hi ple ˈtɛnɪs?\nNə vaxt tennis oynayır?\n\n0:32 1:43 2:52 \nWhen do you play tennis?\nwɪn du ju ple ˈtɛnɪs?\nNə vaxt tennis oynayırsan?\n\n0:46 1:56 3:05 \nWhen does your son play tennis?\nwɪn dɪz jʊr sən ple ˈtɛnɪs?\nOğlunuz nə vaxt tennis oynayır?\n\n0:59 2:09 3:18 \nWhen does your son swim?\nwɪn dɪz jʊr sən swɪm?\nOğlun nə vaxt üzür?\n\n\n\nMüəllimlərə və məktəblərə:\nBu video Creative Commons lisenziyası altında yayımlanıb.\n  CC BY 3.0 https://creativecommons.org/licenses/by/3.0/ \nBu videonu dərslərinizdə istifadə etməkdən çekinmeyin!\n\nLokallaşdırma üçün Google Translate xidmətindən istifadə edirik. Bəzi səhvlər taparsanız, bizə bildirin.\n"
    },
    {
      "Lang": "be",
      "Title": "Граматычныя практыкаванні на англійскай мове | Просты Індыя ⭐️ #60 When?",
      "Description": "Вывучайце англійскую граматыку! Змяніце слова ў сказе.\n\n\n\n0:04 1:16 2:25 \nWhen does he swim?\nwɪn dɪz hi swɪm?\nКалі ён плавае?\n\n0:18 1:30 2:39 \nWhen does he play tennis?\nwɪn dɪz hi ple ˈtɛnɪs?\nКалі ён гуляе ў тэніс?\n\n0:32 1:43 2:52 \nWhen do you play tennis?\nwɪn du ju ple ˈtɛnɪs?\nКалі вы гуляеце ў тэніс?\n\n0:46 1:56 3:05 \nWhen does your son play tennis?\nwɪn dɪz jʊr sən ple ˈtɛnɪs?\nКалі ваш сын гуляе ў тэніс?\n\n0:59 2:09 3:18 \nWhen does your son swim?\nwɪn dɪz jʊr sən swɪm?\nКалі ваш сын плавае?\n\n\n\nДля настаўнікаў і школ:\nГэта відэа публікуецца пад ліцэнзіяй Creative Commons.\n  CC BY 3.0 https://creativecommons.org/licenses/by/3.0/ \nНе саромейцеся выкарыстоўваць гэта відэа ў сваіх класах!\n\nМы выкарыстоўваем паслугу Google Translate для лакалізацыі. Калі вы выявілі некаторыя памылкі, калі ласка, паведаміце нам пра гэта.\n"
    },
    {
      "Lang": "bg",
      "Title": "Английски граматически упражнения | прост Индия ⭐️ #60 When?",
      "Description": "Научете английска граматика! Промяна на дума в изречение.\n\n\n\n0:04 1:16 2:25 \nWhen does he swim?\nwɪn dɪz hi swɪm?\nКога плува?\n\n0:18 1:30 2:39 \nWhen does he play tennis?\nwɪn dɪz hi ple ˈtɛnɪs?\nКога играе тенис?\n\n0:32 1:43 2:52 \nWhen do you play tennis?\nwɪn du ju ple ˈtɛnɪs?\nКога играете тенис?\n\n0:46 1:56 3:05 \nWhen does your son play tennis?\nwɪn dɪz jʊr sən ple ˈtɛnɪs?\nКога синът ви играе тенис?\n\n0:59 2:09 3:18 \nWhen does your son swim?\nwɪn dɪz jʊr sən swɪm?\nКога синът ви плува?\n\n\n\nЗа учители и училища:\nТози видеоклип е публикуван под Creative Commons License.\n  CC BY 3.0 https://creativecommons.org/licenses/by/3.0/ \nЧувствайте се свободни да използвате това видео в класовете си!\n\nНие използваме услугата Google Translate за локализация. Ако откриете някои грешки, моля, уведомете ни.\n"
    },
    {
      "Lang": "bn",
      "Title": "ইংরেজি ব্যাকরণ অনুশীলন | সহজ ভারত ⭐️ #60 When?",
      "Description": "ইংরেজি ব্যাকরণ শিখুন! একটি বাক্যে একটি শব্দ পরিবর্তন করুন।\n\n\n\n0:04 1:16 2:25 \nWhen does he swim?\nwɪn dɪz hi swɪm?\nসে কখন সাঁতার কাটবে?\n\n0:18 1:30 2:39 \nWhen does he play tennis?\nwɪn dɪz hi ple ˈtɛnɪs?\nতিনি কখন টেনিস খেলেন?\n\n0:32 1:43 2:52 \nWhen do you play tennis?\nwɪn du ju ple ˈtɛnɪs?\nআপনি কখন টেনিস খেলেন?\n\n0:46 1:56 3:05 \nWhen does your son play tennis?\nwɪn dɪz jʊr sən ple ˈtɛnɪs?\nআপনার ছেলে কখন টেনিস খেলবে?\n\n0:59 2:09 3:18 \nWhen does your son swim?\nwɪn dɪz jʊr sən swɪm?\nআপনার ছেলে কখন সাঁতার কাটবে?\n\n\n\nশিক্ষক এবং বিদ্যালয়ের কাছে:\nএই ভিডিওটি ক্রিয়েটিভ কমন্স লাইসেন্সের আওতায় প্রকাশিত হয়েছে।\n  CC BY 3.0 https://creativecommons.org/licenses/by/3.0/ \nআপনার ক্লাসে এই ভিডিওটি নির্দ্বিধায় ব্যবহার করুন!\n\nআমরা স্থানীয়করণের জন্য গুগল অনুবাদ পরিষেবা ব্যবহার করি। আপনি যদি কিছু ভুল খুঁজে পান তবে দয়া করে আমাদের জানান।\n"
    },
    {
      "Lang": "bs",
      "Title": "Engleske gramatičke vježbe | Jednostavno Indija ⭐️ #60 When?",
      "Description": "Naučite englesku gramatiku! Promenite reč u rečenici.\n\n\n\n0:04 1:16 2:25 \nWhen does he swim?\nwɪn dɪz hi swɪm?\nKada pliva?\n\n0:18 1:30 2:39 \nWhen does he play tennis?\nwɪn dɪz hi ple ˈtɛnɪs?\nKada igra tenis?\n\n0:32 1:43 2:52 \nWhen do you play tennis?\nwɪn du ju ple ˈtɛnɪs?\nKada igrate tenis?\n\n0:46 1:56 3:05 \nWhen does your son play tennis?\nwɪn dɪz jʊr sən ple ˈtɛnɪs?\nKada vaš sin igra tenis?\n\n0:59 2:09 3:18 \nWhen does your son swim?\nwɪn dɪz jʊr sən swɪm?\nKada tvoj sin pliva?\n\n\n\nNastavnicima i školama:\nOvaj video je objavljen pod Creative Commons licencom.\n  CC BY 3.0 https://creativecommons.org/licenses/by/3.0/ \nSlobodno koristite ovaj videozapis u svojim predavanjima!\n\nZa lokalizaciju koristimo uslugu Google Translate. Ako pronađete neke greške, javite nam se.\n"
    },
    {
      "Lang": "ca",
      "Title": "Exercicis de gramàtica anglesa | Senzill Índia ⭐️ #60 When?",
      "Description": "Apreneu gramàtica anglesa! Canvia una paraula en una frase.\n\n\n\n0:04 1:16 2:25 \nWhen does he swim?\nwɪn dɪz hi swɪm?\nQuan neda?\n\n0:18 1:30 2:39 \nWhen does he play tennis?\nwɪn dɪz hi ple ˈtɛnɪs?\nQuan juga a tennis?\n\n0:32 1:43 2:52 \nWhen do you play tennis?\nwɪn du ju ple ˈtɛnɪs?\nQuan jugues a tennis?\n\n0:46 1:56 3:05 \nWhen does your son play tennis?\nwɪn dɪz jʊr sən ple ˈtɛnɪs?\nQuan el teu fill juga a tennis?\n\n0:59 2:09 3:18 \nWhen does your son swim?\nwɪn dɪz jʊr sən swɪm?\nQuan neda el teu fill?\n\n\n\nA professors i escoles:\nAquest vídeo es publica sota llicència Creative Commons.\n  CC BY 3.0 https://creativecommons.org/licenses/by/3.0/ \nNo dubteu a utilitzar aquest vídeo a les vostres classes.\n\nUtilitzem el servei de Google Translate per a la localització. Si trobeu alguns errors, feu-nos-ho saber.\n"
    },
    {
      "Lang": "co",
      "Title": "Esercizii di grammatica inglese | Semplice India ⭐️ #60 When?",
      "Description": "Amparate a grammatica inglese! Cambia una parolla in una frase.\n\n\n\n0:04 1:16 2:25 \nWhen does he swim?\nwɪn dɪz hi swɪm?\nQuandu face u natatu?\n\n0:18 1:30 2:39 \nWhen does he play tennis?\nwɪn dɪz hi ple ˈtɛnɪs?\nQuandu faci u tennis?\n\n0:32 1:43 2:52 \nWhen do you play tennis?\nwɪn du ju ple ˈtɛnɪs?\nQuandu site u tennis?\n\n0:46 1:56 3:05 \nWhen does your son play tennis?\nwɪn dɪz jʊr sən ple ˈtɛnɪs?\nQuandu hè u to figliolu u tennis?\n\n0:59 2:09 3:18 \nWhen does your son swim?\nwɪn dɪz jʊr sən swɪm?\nQuandu si hè natu u to figliolu?\n\n\n\nÀ i prufessori è à e scole:\nStu video hè publicatu sottu licenza Creative Commons.\n  CC BY 3.0 https://creativecommons.org/licenses/by/3.0/ \nSentitevi liberi d'utilizà stu video in i vostri classi!\n\nUsu u serviziu di Google Translate per a localizazione. Se truvate qualchì sbagli, per piaceci di sapè.\n"
    },
    {
      "Lang": "cs",
      "Title": "Cvičení anglické gramatiky | Jednoduchý Indie ⭐️ #60 When?",
      "Description": "Naučte se anglickou gramatiku! Změňte slovo ve větě.\n\n\n\n0:04 1:16 2:25 \nWhen does he swim?\nwɪn dɪz hi swɪm?\nKdy plave?\n\n0:18 1:30 2:39 \nWhen does he play tennis?\nwɪn dɪz hi ple ˈtɛnɪs?\nKdy hraje tenis?\n\n0:32 1:43 2:52 \nWhen do you play tennis?\nwɪn du ju ple ˈtɛnɪs?\nKdy hrajete tenis?\n\n0:46 1:56 3:05 \nWhen does your son play tennis?\nwɪn dɪz jʊr sən ple ˈtɛnɪs?\nKdy váš syn hraje tenis?\n\n0:59 2:09 3:18 \nWhen does your son swim?\nwɪn dɪz jʊr sən swɪm?\nKdy plave váš syn?\n\n\n\nUčitelům a školám:\nToto video je publikováno pod licencí Creative Commons License.\n  CC BY 3.0 https://creativecommons.org/licenses/by/3.0/ \nNeváhejte použít toto video ve svých třídách!\n\nK lokalizaci používáme službu Google Translate. Pokud narazíte na nějaké chyby, dejte nám prosím vědět.\n"
    },
    {
      "Lang": "cy",
      "Title": "Ymarferion gramadeg Saesneg | Syml India ⭐️ #60 When?",
      "Description": "Dysgu gramadeg Saesneg! Newid gair mewn brawddeg.\n\n\n\n0:04 1:16 2:25 \nWhen does he swim?\nwɪn dɪz hi swɪm?\nPryd mae'n nofio?\n\n0:18 1:30 2:39 \nWhen does he play tennis?\nwɪn dɪz hi ple ˈtɛnɪs?\nPryd mae e'n chwarae tenis?\n\n0:32 1:43 2:52 \nWhen do you play tennis?\nwɪn du ju ple ˈtɛnɪs?\nPryd ydych chi'n chwarae tenis?\n\n0:46 1:56 3:05 \nWhen does your son play tennis?\nwɪn dɪz jʊr sən ple ˈtɛnɪs?\nPryd mae'ch mab yn chwarae tenis?\n\n0:59 2:09 3:18 \nWhen does your son swim?\nwɪn dɪz jʊr sən swɪm?\nPryd mae'ch mab yn nofio?\n\n\n\nI athrawon ac ysgolion:\nCyhoeddir y fideo hon o dan Creative Commons License.\n  CC BY 3.0 https://creativecommons.org/licenses/by/3.0/ \nMae croeso i chi ddefnyddio'r fideo hon yn eich dosbarthiadau!\n\nRydym yn defnyddio gwasanaeth Google Translate ar gyfer lleoleiddio. Os dewch chi o hyd i rai camgymeriadau, rhowch wybod i ni.\n"
    },
    {
      "Lang": "da",
      "Title": "Engelsk grammatikøvelser | Enkel Indien ⭐️ #60 When?",
      "Description": "Lær engelsk grammatik! Skift et ord i en sætning.\n\n\n\n0:04 1:16 2:25 \nWhen does he swim?\nwɪn dɪz hi swɪm?\nHvornår svømmer han?\n\n0:18 1:30 2:39 \nWhen does he play tennis?\nwɪn dɪz hi ple ˈtɛnɪs?\nHvornår spiller han tennis?\n\n0:32 1:43 2:52 \nWhen do you play tennis?\nwɪn du ju ple ˈtɛnɪs?\nHvornår spiller du tennis?\n\n0:46 1:56 3:05 \nWhen does your son play tennis?\nwɪn dɪz jʊr sən ple ˈtɛnɪs?\nHvornår spiller din søn tennis?\n\n0:59 2:09 3:18 \nWhen does your son swim?\nwɪn dɪz jʊr sən swɪm?\nHvornår svømmer din søn?\n\n\n\nTil lærere og skoler:\nDenne video er offentliggjort under Creative Commons License.\n  CC BY 3.0 https://creativecommons.org/licenses/by/3.0/ \nBrug gjerne denne video i dine klasser!\n\nVi bruger Google Translate-tjenesten til lokalisering. Hvis du finder nogle fejl, så lad os vide det.\n"
    },
    {
      "Lang": "de",
      "Title": "Englische Grammatikübungen | Einfach Indien ⭐️ #60 When?",
      "Description": "Lerne englische Grammatik! Ändern Sie ein Wort in einem Satz.\n\n\n\n0:04 1:16 2:25 \nWhen does he swim?\nwɪn dɪz hi swɪm?\nWann schwimmt er?\n\n0:18 1:30 2:39 \nWhen does he play tennis?\nwɪn dɪz hi ple ˈtɛnɪs?\nWann spielt er Tennis?\n\n0:32 1:43 2:52 \nWhen do you play tennis?\nwɪn du ju ple ˈtɛnɪs?\nWann spielst du Tennis?\n\n0:46 1:56 3:05 \nWhen does your son play tennis?\nwɪn dɪz jʊr sən ple ˈtɛnɪs?\nWann spielt dein Sohn Tennis?\n\n0:59 2:09 3:18 \nWhen does your son swim?\nwɪn dɪz jʊr sən swɪm?\nWann schwimmt dein Sohn?\n\n\n\nAn Lehrer und Schulen:\nDieses Video wird unter der Creative Commons License veröffentlicht.\n  CC BY 3.0 https://creativecommons.org/licenses/by/3.0/ \nFühlen Sie sich frei, dieses Video in Ihren Klassen zu verwenden!\n\nWir verwenden den Google Translate-Dienst zur Lokalisierung. Wenn Sie Fehler finden, teilen Sie uns dies bitte mit.\n"
    },
    {
      "Lang": "el",
      "Title": "Αγγλικές ασκήσεις γραμματικής | Απλός Ινδία ⭐️ #60 When?",
      "Description": "Μάθετε αγγλική γραμματική! Αλλάξτε μια λέξη σε μια πρόταση.\n\n\n\n0:04 1:16 2:25 \nWhen does he swim?\nwɪn dɪz hi swɪm?\nΠότε κολυμπά;\n\n0:18 1:30 2:39 \nWhen does he play tennis?\nwɪn dɪz hi ple ˈtɛnɪs?\nΠότε παίζει τένις;\n\n0:32 1:43 2:52 \nWhen do you play tennis?\nwɪn du ju ple ˈtɛnɪs?\nΠότε παίζετε τένις;\n\n0:46 1:56 3:05 \nWhen does your son play tennis?\nwɪn dɪz jʊr sən ple ˈtɛnɪs?\nΠότε ο γιος σας παίζει τένις;\n\n0:59 2:09 3:18 \nWhen does your son swim?\nwɪn dɪz jʊr sən swɪm?\nΠότε κολλάει ο γιος σου;\n\n\n\nΣτους εκπαιδευτικούς και τα σχολεία:\nΑυτό το βίντεο δημοσιεύεται υπό Creative Commons License.\n  CC BY 3.0 https://creativecommons.org/licenses/by/3.0/ \nΜπορείτε να χρησιμοποιήσετε αυτό το βίντεο στις τάξεις σας!\n\nΧρησιμοποιούμε την υπηρεσία Google Translate για εντοπισμό. Αν βρείτε κάποια λάθη, ενημερώστε μας.\n"
    },
    {
      "Lang": "en",
      "Title": "English grammar exercises | Simple India ⭐️ #60 When?",
      "Description": "Learn English grammar! Change a word in a sentence.\n\n\n\n0:04 1:16 2:25 \nWhen does he swim?\nwɪn dɪz hi swɪm?\nWhen does he swim?\n\n0:18 1:30 2:39 \nWhen does he play tennis?\nwɪn dɪz hi ple ˈtɛnɪs?\nWhen does he play tennis?\n\n0:32 1:43 2:52 \nWhen do you play tennis?\nwɪn du ju ple ˈtɛnɪs?\nWhen do you play tennis?\n\n0:46 1:56 3:05 \nWhen does your son play tennis?\nwɪn dɪz jʊr sən ple ˈtɛnɪs?\nWhen does your son play tennis?\n\n0:59 2:09 3:18 \nWhen does your son swim?\nwɪn dɪz jʊr sən swɪm?\nWhen does your son swim?\n\n\n\nTo teachers and schools:\nThis video is published under Creative Commons License.\n  CC BY 3.0 https://creativecommons.org/licenses/by/3.0/ \nFeel free to use this video in your classes!\n\nWe use Google Translate service for localization. If you find some mistakes, please let us know.\n"
    },
    {
      "Lang": "es",
      "Title": "Ejercicios de gramática inglesa | Sencillo India ⭐️ #60 When?",
      "Description": "¡Aprende gramática inglesa! Cambiar una palabra en una oración.\n\n\n\n0:04 1:16 2:25 \nWhen does he swim?\nwɪn dɪz hi swɪm?\n¿Cuándo nada él?\n\n0:18 1:30 2:39 \nWhen does he play tennis?\nwɪn dɪz hi ple ˈtɛnɪs?\n¿Cuándo juega tenis?\n\n0:32 1:43 2:52 \nWhen do you play tennis?\nwɪn du ju ple ˈtɛnɪs?\n¿Cuándo juegas al tenis?\n\n0:46 1:56 3:05 \nWhen does your son play tennis?\nwɪn dɪz jʊr sən ple ˈtɛnɪs?\n¿Cuándo juega tenis tu hijo?\n\n0:59 2:09 3:18 \nWhen does your son swim?\nwɪn dɪz jʊr sən swɪm?\n¿Cuándo nada tu hijo?\n\n\n\nA profesores y escuelas:\nEste video se publica bajo licencia Creative Commons.\n  CC BY 3.0 https://creativecommons.org/licenses/by/3.0/ \n¡Siéntete libre de usar este video en tus clases!\n\nUtilizamos el servicio Google Translate para la localización. Si encuentra algunos errores, háganoslo saber.\n"
    },
    {
      "Lang": "et",
      "Title": "Inglise keele grammatika harjutused | Lihtne India ⭐️ #60 When?",
      "Description": "Õpi inglise keele grammatikat! Muutke lauses sõna.\n\n\n\n0:04 1:16 2:25 \nWhen does he swim?\nwɪn dɪz hi swɪm?\nMillal ta ujub?\n\n0:18 1:30 2:39 \nWhen does he play tennis?\nwɪn dɪz hi ple ˈtɛnɪs?\nMillal ta tennist mängib?\n\n0:32 1:43 2:52 \nWhen do you play tennis?\nwɪn du ju ple ˈtɛnɪs?\nMillal sa tennist mängid?\n\n0:46 1:56 3:05 \nWhen does your son play tennis?\nwɪn dɪz jʊr sən ple ˈtɛnɪs?\nMillal teie poeg tennist mängib?\n\n0:59 2:09 3:18 \nWhen does your son swim?\nwɪn dɪz jʊr sən swɪm?\nMillal teie poeg ujub?\n\n\n\nÕpetajatele ja koolidele:\nSee video on avaldatud Creative Commonsi litsentsi all.\n  CC BY 3.0 https://creativecommons.org/licenses/by/3.0/ \nKasutage seda videot julgelt oma tundides!\n\nLokaliseerimiseks kasutame Google'i tõlke teenust. Kui leiate vigu, palun andke meile sellest teada.\n"
    },
    {
      "Lang": "eu",
      "Title": "Ingelesezko gramatika ariketak | simple India ⭐️ #60 When?",
      "Description": "Ikasi ingelesezko gramatika! Aldatu esaldi batean hitzak.\n\n\n\n0:04 1:16 2:25 \nWhen does he swim?\nwɪn dɪz hi swɪm?\nNoiz igeri egiten du?\n\n0:18 1:30 2:39 \nWhen does he play tennis?\nwɪn dɪz hi ple ˈtɛnɪs?\nNoiz jotzen du tenisean?\n\n0:32 1:43 2:52 \nWhen do you play tennis?\nwɪn du ju ple ˈtɛnɪs?\nNoiz jolasten duzu tenisean?\n\n0:46 1:56 3:05 \nWhen does your son play tennis?\nwɪn dɪz jʊr sən ple ˈtɛnɪs?\nZure semeak noiz jokatzen du tenisean?\n\n0:59 2:09 3:18 \nWhen does your son swim?\nwɪn dɪz jʊr sən swɪm?\nNoiz igeri egiten du zure semeak?\n\n\n\nIrakasleei eta ikastetxeei:\nBideo hau Creative Commons lizentziapean argitaratzen da.\n  CC BY 3.0 https://creativecommons.org/licenses/by/3.0/ \nEz ahaztu bideo hau zure klaseetan erabiltzeko!\n\nGoogle Translate zerbitzua erabiltzen dugu lokalizaziorako. Akats batzuk aurkitzen badituzu, adierazi iezaguzu\n"
    },
    {
      "Lang": "fa",
      "Title": "تمرین های دستور زبان انگلیسی | ساده هند ⭐️ #60 When?",
      "Description": "گرامر انگلیسی را بیاموزید! یک کلمه را در یک جمله تغییر دهید.\n\n\n\n0:04 1:16 2:25 \nWhen does he swim?\nwɪn dɪz hi swɪm?\nکی شنا می کند؟\n\n0:18 1:30 2:39 \nWhen does he play tennis?\nwɪn dɪz hi ple ˈtɛnɪs?\nکی تنیس بازی می کند؟\n\n0:32 1:43 2:52 \nWhen do you play tennis?\nwɪn du ju ple ˈtɛnɪs?\nچه زمانی تنیس بازی می کنید؟\n\n0:46 1:56 3:05 \nWhen does your son play tennis?\nwɪn dɪz jʊr sən ple ˈtɛnɪs?\nپسرت چه موقع تنیس بازی می کند؟\n\n0:59 2:09 3:18 \nWhen does your son swim?\nwɪn dɪz jʊr sən swɪm?\nکی پسرم شنا می کند؟\n\n\n\nبه معلمان و مدارس:\nاین ویدیو تحت مجوز Creative Commons منتشر شده است.\n  CC BY 3.0 https://creativecommons.org/licenses/by/3.0/ \nدر استفاده از این فیلم در کلاس های خود احساس راحتی کنید!\n\nما از خدمات Google Translate برای محلی سازی استفاده می کنیم. اگر شما برخی از اشتباهات ، لطفا به ما اطلاع دهید.\n"
    },
    {
      "Lang": "fi",
      "Title": "Englannin kieliopin harjoitukset | Yksinkertainen Intia ⭐️ #60 When?",
      "Description": "Opi englannin kielioppi! Vaihda sana lauseessa.\n\n\n\n0:04 1:16 2:25 \nWhen does he swim?\nwɪn dɪz hi swɪm?\nMilloin hän ui?\n\n0:18 1:30 2:39 \nWhen does he play tennis?\nwɪn dɪz hi ple ˈtɛnɪs?\nMilloin hän pelaa tennistä?\n\n0:32 1:43 2:52 \nWhen do you play tennis?\nwɪn du ju ple ˈtɛnɪs?\nMilloin pelaat tennistä?\n\n0:46 1:56 3:05 \nWhen does your son play tennis?\nwɪn dɪz jʊr sən ple ˈtɛnɪs?\nMilloin poikasi pelaa tennistä?\n\n0:59 2:09 3:18 \nWhen does your son swim?\nwɪn dɪz jʊr sən swɪm?\nMilloin poikasi ui?\n\n\n\nOpettajille ja kouluille:\nTämä video on julkaistu Creative Commons -lisenssillä.\n  CC BY 3.0 https://creativecommons.org/licenses/by/3.0/ \nVoit vapaasti käyttää tätä videota luokissa!\n\nKäytämme lokalisointiin Google Translate -palvelua. Jos löydät virheitä, ota meihin yhteyttä.\n"
    },
    {
      "Lang": "fil",
      "Title": "Pagsasanay sa grammar ng Ingles | Simple India ⭐️ #60 When?",
      "Description": "Alamin ang grammar ng Ingles! Baguhin ang isang salita sa isang pangungusap.\n\n\n\n0:04 1:16 2:25 \nWhen does he swim?\nwɪn dɪz hi swɪm?\nKailan siya lumangoy?\n\n0:18 1:30 2:39 \nWhen does he play tennis?\nwɪn dɪz hi ple ˈtɛnɪs?\nKailan siya naglalaro ng tennis?\n\n0:32 1:43 2:52 \nWhen do you play tennis?\nwɪn du ju ple ˈtɛnɪs?\nKailan ka maglaro ng tennis?\n\n0:46 1:56 3:05 \nWhen does your son play tennis?\nwɪn dɪz jʊr sən ple ˈtɛnɪs?\nKailan naglalaro ang iyong anak na lalaki sa tennis?\n\n0:59 2:09 3:18 \nWhen does your son swim?\nwɪn dɪz jʊr sən swɪm?\nKailan lumalangoy ang iyong anak?\n\n\n\nSa mga guro at paaralan:\nAng video na ito ay nai-publish sa ilalim ng Lisensya ng Creative Commons.\n  CC BY 3.0 https://creativecommons.org/licenses/by/3.0/ \nHuwag mag-atubiling gamitin ang video na ito sa iyong mga klase!\n\nWe use Google Translate service for localization. If you find some mistakes, please let us know.\n"
    },
    {
      "Lang": "fr",
      "Title": "Exercices de grammaire anglaise | Facile Inde ⭐️ #60 When?",
      "Description": "Apprenez la grammaire anglaise! Changer un mot dans une phrase.\n\n\n\n0:04 1:16 2:25 \nWhen does he swim?\nwɪn dɪz hi swɪm?\nQuand nage-t-il?\n\n0:18 1:30 2:39 \nWhen does he play tennis?\nwɪn dɪz hi ple ˈtɛnɪs?\nQuand joue-t-il au tennis?\n\n0:32 1:43 2:52 \nWhen do you play tennis?\nwɪn du ju ple ˈtɛnɪs?\nQuand joues-tu au tennis?\n\n0:46 1:56 3:05 \nWhen does your son play tennis?\nwɪn dɪz jʊr sən ple ˈtɛnɪs?\nQuand votre fils joue-t-il au tennis?\n\n0:59 2:09 3:18 \nWhen does your son swim?\nwɪn dɪz jʊr sən swɪm?\nQuand votre fils nage-t-il?\n\n\n\nAux enseignants et aux écoles:\nCette vidéo est publiée sous licence Creative Commons.\n  CC BY 3.0 https://creativecommons.org/licenses/by/3.0/ \nN'hésitez pas à utiliser cette vidéo dans vos cours!\n\nNous utilisons le service Google Translate pour la localisation. Si vous trouvez des erreurs, veuillez nous en informer.\n"
    },
    {
      "Lang": "fy",
      "Title": "Ingelske oefeningen foar grammatika | Ienfâldich Yndia ⭐️ #60 When?",
      "Description": "Learje Ingelske grammatika! Feroarje in wurd yn in sin.\n\n\n\n0:04 1:16 2:25 \nWhen does he swim?\nwɪn dɪz hi swɪm?\nWannear swimt er?\n\n0:18 1:30 2:39 \nWhen does he play tennis?\nwɪn dɪz hi ple ˈtɛnɪs?\nWannear spilet er tennis?\n\n0:32 1:43 2:52 \nWhen do you play tennis?\nwɪn du ju ple ˈtɛnɪs?\nWannear spylje jo tennis?\n\n0:46 1:56 3:05 \nWhen does your son play tennis?\nwɪn dɪz jʊr sən ple ˈtɛnɪs?\nWannear spilet jo soan tennis?\n\n0:59 2:09 3:18 \nWhen does your son swim?\nwɪn dɪz jʊr sən swɪm?\nWannear swimt jo soan?\n\n\n\nOan dosinten en skoallen:\nDizze fideo wurdt publisearre ûnder Creative Commons License.\n  CC BY 3.0 https://creativecommons.org/licenses/by/3.0/ \nFiel jo frij om dizze fideo te brûken yn jo klassen!\n\nWy brûke Google Translate tsjinst foar lokalisaasje. As jo wat flaters fine, lit it ús dan witte.\n"
    },
    {
      "Lang": "gd",
      "Title": "Eacarsaichean gràmair Beurla | Gu sìmplidh Na h-Innseachan ⭐️ #60 When?",
      "Description": "Ionnsaich gràmar Beurla! Atharraich facal ann an seantans.\n\n\n\n0:04 1:16 2:25 \nWhen does he swim?\nwɪn dɪz hi swɪm?\nCuin a bhios e a ’snàmh?\n\n0:18 1:30 2:39 \nWhen does he play tennis?\nwɪn dɪz hi ple ˈtɛnɪs?\nCuin a bhios e a ’cluich teanas?\n\n0:32 1:43 2:52 \nWhen do you play tennis?\nwɪn du ju ple ˈtɛnɪs?\nCuin a bhios tu a ’cluich teanas?\n\n0:46 1:56 3:05 \nWhen does your son play tennis?\nwɪn dɪz jʊr sən ple ˈtɛnɪs?\nCuin a bhios do mhac a ’cluich teanas?\n\n0:59 2:09 3:18 \nWhen does your son swim?\nwɪn dɪz jʊr sən swɪm?\nCuin a bhios do mhac a ’snàmh?\n\n\n\nDo thidsearan agus sgoiltean:\nTha a ’bhidio seo air fhoillseachadh fo Creative Commons License.\n  CC BY 3.0 https://creativecommons.org/licenses/by/3.0/ \nFaodaidh tu am bhidio seo a chleachdadh anns na clasaichean agad!\n\nBidh sinn a ’cleachdadh seirbheis Google Translate airson sgìreachadh. Ma lorgas tu cuid de mhearachdan, feuch an innis thu dhuinn.\n"
    },
    {
      "Lang": "gl",
      "Title": "Exercicios de gramática inglesa | Sinxelo India ⭐️ #60 When?",
      "Description": "Aprende gramática inglesa! Cambia unha palabra nunha frase.\n\n\n\n0:04 1:16 2:25 \nWhen does he swim?\nwɪn dɪz hi swɪm?\nCando nata?\n\n0:18 1:30 2:39 \nWhen does he play tennis?\nwɪn dɪz hi ple ˈtɛnɪs?\nCando xoga ao tenis?\n\n0:32 1:43 2:52 \nWhen do you play tennis?\nwɪn du ju ple ˈtɛnɪs?\nCando xogas ao tenis?\n\n0:46 1:56 3:05 \nWhen does your son play tennis?\nwɪn dɪz jʊr sən ple ˈtɛnɪs?\nCando xoga ao teu fillo tenis?\n\n0:59 2:09 3:18 \nWhen does your son swim?\nwɪn dɪz jʊr sən swɪm?\nCando nata o teu fillo?\n\n\n\nPara profesores e colexios:\nEste vídeo está publicado baixo a licenza Creative Commons.\n  CC BY 3.0 https://creativecommons.org/licenses/by/3.0/ \nNon dubides en usar este vídeo nas túas clases.\n\nUsamos o servizo Google Translate para a súa localización. Se atopas algún erro, comunícanos.\n"
    },
    {
      "Lang": "gu",
      "Title": "અંગ્રેજી વ્યાકરણ વ્યાયામ | સરળ ભારત ⭐️ #60 When?",
      "Description": "અંગ્રેજી વ્યાકરણ શીખો! એક વાક્યમાં એક શબ્દ બદલો.\n\n\n\n0:04 1:16 2:25 \nWhen does he swim?\nwɪn dɪz hi swɪm?\nતે ક્યારે તરતો નથી?\n\n0:18 1:30 2:39 \nWhen does he play tennis?\nwɪn dɪz hi ple ˈtɛnɪs?\nતે ક્યારે ટેનિસ રમે છે?\n\n0:32 1:43 2:52 \nWhen do you play tennis?\nwɪn du ju ple ˈtɛnɪs?\nતમે ટેનિસ ક્યારે રમશો?\n\n0:46 1:56 3:05 \nWhen does your son play tennis?\nwɪn dɪz jʊr sən ple ˈtɛnɪs?\nજ્યારે તમારો પુત્ર ટેનિસ રમે છે?\n\n0:59 2:09 3:18 \nWhen does your son swim?\nwɪn dɪz jʊr sən swɪm?\nતમારો પુત્ર ક્યારે તરી આવે છે?\n\n\n\nશિક્ષકો અને શાળાઓને:\nઆ વિડિઓ ક્રિએટિવ કonsમન્સ લાઇસન્સ હેઠળ પ્રકાશિત છે.\n  CC BY 3.0 https://creativecommons.org/licenses/by/3.0/ \nતમારા વર્ગોમાં આ વિડિઓનો ઉપયોગ કરવા માટે મફત લાગે!\n\nઅમે સ્થાનિકીકરણ માટે Google ભાષાંતર સેવાનો ઉપયોગ કરીએ છીએ. જો તમને કેટલીક ભૂલો લાગે છે, તો કૃપા કરીને અમને જણાવો.\n"
    },
    {
      "Lang": "ha",
      "Title": "Darasi na ilimin nahawu na Turanci | Mai sauki Indiya ⭐️ #60 When?",
      "Description": "Koyi ilimin nahawu Turanci! Canja kalma a cikin jumla.\n\n\n\n0:04 1:16 2:25 \nWhen does he swim?\nwɪn dɪz hi swɪm?\nYaushe ya iyo?\n\n0:18 1:30 2:39 \nWhen does he play tennis?\nwɪn dɪz hi ple ˈtɛnɪs?\nYaushe zai buga tanis?\n\n0:32 1:43 2:52 \nWhen do you play tennis?\nwɪn du ju ple ˈtɛnɪs?\nYaushe kuke wasa wasan tennis?\n\n0:46 1:56 3:05 \nWhen does your son play tennis?\nwɪn dɪz jʊr sən ple ˈtɛnɪs?\nYaushe ɗanku zai kunna wasan Tennis?\n\n0:59 2:09 3:18 \nWhen does your son swim?\nwɪn dɪz jʊr sən swɪm?\nYaushe danku zai iyo?\n\n\n\nGa malamai da makarantu:\nWannan bidiyon an buga shi a ƙarƙashin lasisin Creative Commons.\n  CC BY 3.0 https://creativecommons.org/licenses/by/3.0/ \nJin kyauta don amfani da wannan bidiyon a cikin azuzuwanku!\n\nMuna amfani da sabis na Google Fassara don fassarar. Idan ka sami wasu kurakurai, da fatan za a sanar da mu.\n"
    },
    {
      "Lang": "hi",
      "Title": "अंग्रेजी व्याकरण अभ्यास | सरल भारत ⭐️ #60 When?",
      "Description": "अंग्रेजी व्याकरण जानें! एक वाक्य में एक शब्द बदलें।\n\n\n\n0:04 1:16 2:25 \nWhen does he swim?\nwɪn dɪz hi swɪm?\nवह कब तैरता है?\n\n0:18 1:30 2:39 \nWhen does he play tennis?\nwɪn dɪz hi ple ˈtɛnɪs?\nवह कब टेनिस खेलती है?\n\n0:32 1:43 2:52 \nWhen do you play tennis?\nwɪn du ju ple ˈtɛnɪs?\nआप टेनिस कब खेलते हैं?\n\n0:46 1:56 3:05 \nWhen does your son play tennis?\nwɪn dɪz jʊr sən ple ˈtɛnɪs?\nआपका बेटा कब टेनिस खेलता है?\n\n0:59 2:09 3:18 \nWhen does your son swim?\nwɪn dɪz jʊr sən swɪm?\nआपका बेटा कब तैरता है?\n\n\n\nशिक्षकों और स्कूलों के लिए:\nयह वीडियो क्रिएटिव कॉमन्स लाइसेंस के तहत प्रकाशित हुआ है।\n  CC BY 3.0 https://creativecommons.org/licenses/by/3.0/ \nअपनी कक्षाओं में इस वीडियो का उपयोग करने के लिए स्वतंत्र महसूस करें!\n\nहम स्थानीयकरण के लिए Google अनुवाद सेवा का उपयोग करते हैं। यदि आप कुछ गलतियाँ पाते हैं, तो कृपया हमें बताएँ।\n"
    },
    {
      "Lang": "hr",
      "Title": "Gramatičke vježbe engleskog jezika | Jednostavan Indija ⭐️ #60 When?",
      "Description": "Naučite englesku gramatiku! Promijenite riječ u rečenici.\n\n\n\n0:04 1:16 2:25 \nWhen does he swim?\nwɪn dɪz hi swɪm?\nKada pliva?\n\n0:18 1:30 2:39 \nWhen does he play tennis?\nwɪn dɪz hi ple ˈtɛnɪs?\nKada igra tenis?\n\n0:32 1:43 2:52 \nWhen do you play tennis?\nwɪn du ju ple ˈtɛnɪs?\nKada igrate tenis?\n\n0:46 1:56 3:05 \nWhen does your son play tennis?\nwɪn dɪz jʊr sən ple ˈtɛnɪs?\nKada vaš sin igra tenis?\n\n0:59 2:09 3:18 \nWhen does your son swim?\nwɪn dɪz jʊr sən swɪm?\nKada vaš sin pliva?\n\n\n\nNastavnicima i školama:\nOvaj videozapis objavljen je pod licencom Creative Commons.\n  CC BY 3.0 https://creativecommons.org/licenses/by/3.0/ \nSlobodno upotrijebite ovaj videozapis u svojim predavanjima!\n\nZa lokalizaciju koristimo uslugu Google Translate. Ako pronađete neke pogreške, javite nam se.\n"
    },
    {
      "Lang": "hu",
      "Title": "Angol nyelvtan gyakorlatok | Egyszerű India ⭐️ #60 When?",
      "Description": "Tanulj angol nyelvtant! Változtasson egy szót egy mondatban.\n\n\n\n0:04 1:16 2:25 \nWhen does he swim?\nwɪn dɪz hi swɪm?\nMikor úszik?\n\n0:18 1:30 2:39 \nWhen does he play tennis?\nwɪn dɪz hi ple ˈtɛnɪs?\nMikor játszik teniszt?\n\n0:32 1:43 2:52 \nWhen do you play tennis?\nwɪn du ju ple ˈtɛnɪs?\nMikor tenisz?\n\n0:46 1:56 3:05 \nWhen does your son play tennis?\nwɪn dɪz jʊr sən ple ˈtɛnɪs?\nMikor játszik a fia teniszezni?\n\n0:59 2:09 3:18 \nWhen does your son swim?\nwɪn dɪz jʊr sən swɪm?\nMikor úszik a fiad?\n\n\n\nTanároknak és iskoláknak:\nEz a videó a Creative Commons License alatt jelenik meg.\n  CC BY 3.0 https://creativecommons.org/licenses/by/3.0/ \nNyugodtan használja ezt a videót az osztályokban!\n\nA lokalizációhoz a Google Translate szolgáltatást használjuk. Ha hibát talál, kérjük, ossza meg velünk.\n"
    },
    {
      "Lang": "hy",
      "Title": "Անգլերենի քերականական վարժություններ | Պարզ Հնդկաստան ⭐️ #60 When?",
      "Description": "Իմացեք անգլերեն քերականությունը: Մի նախադասությամբ մի բառ փոխեք:\n\n\n\n0:04 1:16 2:25 \nWhen does he swim?\nwɪn dɪz hi swɪm?\nԵրբ է նա լողում:\n\n0:18 1:30 2:39 \nWhen does he play tennis?\nwɪn dɪz hi ple ˈtɛnɪs?\nԵ՞րբ է նա խաղում թենիս:\n\n0:32 1:43 2:52 \nWhen do you play tennis?\nwɪn du ju ple ˈtɛnɪs?\nԵրբ եք խաղում թենիս:\n\n0:46 1:56 3:05 \nWhen does your son play tennis?\nwɪn dɪz jʊr sən ple ˈtɛnɪs?\nԵրբ է ձեր որդին թենիս խաղում:\n\n0:59 2:09 3:18 \nWhen does your son swim?\nwɪn dɪz jʊr sən swɪm?\nԵ՞րբ է ձեր որդին լողում:\n\n\n\nՈւսուցիչներին և դպրոցներին.\nԱյս տեսանյութը հրապարակված է Creative Commons արտոնագրի ներքո:\n  CC BY 3.0 https://creativecommons.org/licenses/by/3.0/ \nԱզատորեն օգտվեք այս տեսանյութից ձեր դասերից:\n\nՄենք օգտագործում ենք Google Translate ծառայությունը տեղայնացման համար: Եթե որոշ սխալներ եք գտնում, խնդրում ենք տեղեկացնել մեզ:\n"
    },
    {
      "Lang": "id",
      "Title": "Latihan tata bahasa Inggris | Sederhana India ⭐️ #60 When?",
      "Description": "Belajar tata bahasa Inggris! Ubah kata dalam kalimat.\n\n\n\n0:04 1:16 2:25 \nWhen does he swim?\nwɪn dɪz hi swɪm?\nKapan dia berenang?\n\n0:18 1:30 2:39 \nWhen does he play tennis?\nwɪn dɪz hi ple ˈtɛnɪs?\nKapan dia bermain tenis?\n\n0:32 1:43 2:52 \nWhen do you play tennis?\nwɪn du ju ple ˈtɛnɪs?\nKapan kamu bermain tenis?\n\n0:46 1:56 3:05 \nWhen does your son play tennis?\nwɪn dɪz jʊr sən ple ˈtɛnɪs?\nKapan putra Anda bermain tenis?\n\n0:59 2:09 3:18 \nWhen does your son swim?\nwɪn dɪz jʊr sən swɪm?\nKapan putra Anda berenang?\n\n\n\nKepada guru dan sekolah:\nVideo ini diterbitkan di bawah Lisensi Creative Commons.\n  CC BY 3.0 https://creativecommons.org/licenses/by/3.0/ \nJangan ragu untuk menggunakan video ini di kelas Anda!\n\nKami menggunakan layanan Google Terjemahan untuk pelokalan. Jika Anda menemukan beberapa kesalahan, beri tahu kami.\n"
    },
    {
      "Lang": "ig",
      "Title": "Ọmụmụ asụsụ ụtọ asụsụ Bekee | Dị Mfe India ⭐️ #60 When?",
      "Description": "Muta asusu bekee! Gbanwee okwu na ahịrịokwu.\n\n\n\n0:04 1:16 2:25 \nWhen does he swim?\nwɪn dɪz hi swɪm?\nKedu mgbe ọ na-egwu mmiri?\n\n0:18 1:30 2:39 \nWhen does he play tennis?\nwɪn dɪz hi ple ˈtɛnɪs?\nKedu mgbe ọ na-akpọ tenis?\n\n0:32 1:43 2:52 \nWhen do you play tennis?\nwɪn du ju ple ˈtɛnɪs?\nKedu mgbe ị ga-egwu tenis?\n\n0:46 1:56 3:05 \nWhen does your son play tennis?\nwɪn dɪz jʊr sən ple ˈtɛnɪs?\nKedu mgbe nwa gị nwoke ga-egwu tenis?\n\n0:59 2:09 3:18 \nWhen does your son swim?\nwɪn dɪz jʊr sən swɪm?\nKedu mgbe nwa gị nwoke na-egwu mmiri?\n\n\n\nMaka ndị nkuzi na ụlọ akwụkwọ:\nEdere vidiyo a n'okpuru ikikere Creative Commons.\n  CC BY 3.0 https://creativecommons.org/licenses/by/3.0/ \nNwere onwe gị iji vidiyo a na klaasị gị!\n\nAnyị na-eji ọrụ ntụgharị Google emegharị. Ọ bụrụ n’ịhụ ụfọdụ mmejọ, biko mee ka anyị mara.\n"
    },
    {
      "Lang": "is",
      "Title": "Enskar málfræðiæfingar | Einfalt Indland ⭐️ #60 When?",
      "Description": "Lærðu ensku málfræði! Skiptu um orð í setningu.\n\n\n\n0:04 1:16 2:25 \nWhen does he swim?\nwɪn dɪz hi swɪm?\nHvenær syndir hann?\n\n0:18 1:30 2:39 \nWhen does he play tennis?\nwɪn dɪz hi ple ˈtɛnɪs?\nHvenær spilar hann tennis?\n\n0:32 1:43 2:52 \nWhen do you play tennis?\nwɪn du ju ple ˈtɛnɪs?\nHvenær spilar þú tennis?\n\n0:46 1:56 3:05 \nWhen does your son play tennis?\nwɪn dɪz jʊr sən ple ˈtɛnɪs?\nHvenær leikur sonur þinn tennis?\n\n0:59 2:09 3:18 \nWhen does your son swim?\nwɪn dɪz jʊr sən swɪm?\nHvenær syndir sonur þinn?\n\n\n\nTil kennara og skóla:\nÞetta myndband er birt undir Creative Commons leyfi.\n  CC BY 3.0 https://creativecommons.org/licenses/by/3.0/ \nEkki hika við að nota þetta myndband í bekkjum þínum!\n\nVið notum Google Translate þjónustu til að staðsetja. Láttu okkur vita ef þú finnur fyrir einhverjum mistökum.\n"
    },
    {
      "Lang": "it",
      "Title": "Esercizi di grammatica inglese | Semplice India ⭐️ #60 When?",
      "Description": "Impara la grammatica inglese! Cambia una parola in una frase.\n\n\n\n0:04 1:16 2:25 \nWhen does he swim?\nwɪn dɪz hi swɪm?\nQuando nuota?\n\n0:18 1:30 2:39 \nWhen does he play tennis?\nwɪn dɪz hi ple ˈtɛnɪs?\nQuando gioca a tennis?\n\n0:32 1:43 2:52 \nWhen do you play tennis?\nwɪn du ju ple ˈtɛnɪs?\nQuando giochi a tennis?\n\n0:46 1:56 3:05 \nWhen does your son play tennis?\nwɪn dɪz jʊr sən ple ˈtɛnɪs?\nQuando tuo figlio gioca a tennis?\n\n0:59 2:09 3:18 \nWhen does your son swim?\nwɪn dɪz jʊr sən swɪm?\nQuando nuota tuo figlio?\n\n\n\nPer insegnanti e scuole:\nQuesto video è pubblicato sotto la licenza Creative Commons.\n  CC BY 3.0 https://creativecommons.org/licenses/by/3.0/ \nSentiti libero di usare questo video nelle tue lezioni!\n\nUtilizziamo il servizio Google Translate per la localizzazione. Se trovi qualche errore, faccelo sapere.\n"
    },
    {
      "Lang": "iw",
      "Title": "תרגילי דקדוק באנגלית | פשוט הודו ⭐️ #60 When?",
      "Description": "למד דקדוק באנגלית! שנה מילה במשפט.\n\n\n\n0:04 1:16 2:25 \nWhen does he swim?\nwɪn dɪz hi swɪm?\nמתי הוא שוחה?\n\n0:18 1:30 2:39 \nWhen does he play tennis?\nwɪn dɪz hi ple ˈtɛnɪs?\nמתי הוא משחק טניס?\n\n0:32 1:43 2:52 \nWhen do you play tennis?\nwɪn du ju ple ˈtɛnɪs?\nמתי אתה משחק טניס?\n\n0:46 1:56 3:05 \nWhen does your son play tennis?\nwɪn dɪz jʊr sən ple ˈtɛnɪs?\nמתי בנך משחק טניס?\n\n0:59 2:09 3:18 \nWhen does your son swim?\nwɪn dɪz jʊr sən swɪm?\nמתי בנך שוחה?\n\n\n\nלמורים ובתי ספר:\nסרטון זה מתפרסם תחת רישיון Creative Commons.\n  CC BY 3.0 https://creativecommons.org/licenses/by/3.0/ \nאל תהסס להשתמש בסרטון זה בשיעורים שלך!\n\nאנו משתמשים בשירות Google Translate לצורך לוקליזציה. אם אתה מוצא טעויות, אנא הודע לנו על כך.\n"
    },
    {
      "Lang": "ja",
      "Title": "英文法練習 | シンプル インド ⭐️ #60 When?",
      "Description": "英語の文法を学びましょう！ 文中の単語を変更します。\n\n\n\n0:04 1:16 2:25 \nWhen does he swim?\nwɪn dɪz hi swɪm?\n彼はいつ泳ぎますか？\n\n0:18 1:30 2:39 \nWhen does he play tennis?\nwɪn dɪz hi ple ˈtɛnɪs?\n彼はいつテニスをしますか？\n\n0:32 1:43 2:52 \nWhen do you play tennis?\nwɪn du ju ple ˈtɛnɪs?\nいつテニスをしますか？\n\n0:46 1:56 3:05 \nWhen does your son play tennis?\nwɪn dɪz jʊr sən ple ˈtɛnɪs?\nあなたの息子はいつテニスをしますか？\n\n0:59 2:09 3:18 \nWhen does your son swim?\nwɪn dɪz jʊr sən swɪm?\nあなたの息子はいつ泳ぎますか？\n\n\n\n先生と学校へ：\nこのビデオは、クリエイティブコモンズライセンスの下で公開されています。\n  CC BY 3.0 https://creativecommons.org/licenses/by/3.0/ \nこのビデオをクラスで自由に使用してください！\n\nローカライズにはGoogle翻訳サービスを使用しています。間違いを見つけた場合はお知らせください。\n"
    },
    {
      "Lang": "jv",
      "Title": "Latihan grammar Inggris | Prasaja India ⭐️ #60 When?",
      "Description": "Sinau tata basa Inggris! Ngganti tembung sajrone ukara.\n\n\n\n0:04 1:16 2:25 \nWhen does he swim?\nwɪn dɪz hi swɪm?\nNalika dheweke nglangi?\n\n0:18 1:30 2:39 \nWhen does he play tennis?\nwɪn dɪz hi ple ˈtɛnɪs?\nNalika dheweke main tenis?\n\n0:32 1:43 2:52 \nWhen do you play tennis?\nwɪn du ju ple ˈtɛnɪs?\nNalika sampeyan main tenis?\n\n0:46 1:56 3:05 \nWhen does your son play tennis?\nwɪn dɪz jʊr sən ple ˈtɛnɪs?\nKapan putrane sampeyan main tenis?\n\n0:59 2:09 3:18 \nWhen does your son swim?\nwɪn dɪz jʊr sən swɪm?\nKapan anakmu nglangi\n\n\n\nTumrap guru lan sekolah:\nVideo iki diterbitake ing lisensi Creative Commons.\n  CC BY 3.0 https://creativecommons.org/licenses/by/3.0/ \nOjo nggunakake video iki ing kelas sampeyan!\n\nKita nggunakake layanan Google Translate kanggo lokalisasi. Yen sampeyan nemokake sawetara kesalahan, kabari.\n"
    },
    {
      "Lang": "ka",
      "Title": "ინგლისური გრამატიკის სავარჯიშოები | მარტივი ინდოეთი ⭐️ #60 When?",
      "Description": "შეიტყვეთ ინგლისური ენის გრამატიკა! წინადადებაში შეცვალეთ სიტყვა.\n\n\n\n0:04 1:16 2:25 \nWhen does he swim?\nwɪn dɪz hi swɪm?\nროდის ცურავს იგი?\n\n0:18 1:30 2:39 \nWhen does he play tennis?\nwɪn dɪz hi ple ˈtɛnɪs?\nროდის თამაშობს ჩოგბურთს?\n\n0:32 1:43 2:52 \nWhen do you play tennis?\nwɪn du ju ple ˈtɛnɪs?\nროდის თამაშობთ ჩოგბურთს?\n\n0:46 1:56 3:05 \nWhen does your son play tennis?\nwɪn dɪz jʊr sən ple ˈtɛnɪs?\nროდის თამაშობს თქვენი შვილი ჩოგბურთს?\n\n0:59 2:09 3:18 \nWhen does your son swim?\nwɪn dɪz jʊr sən swɪm?\nროდის ცურავს შენი შვილი?\n\n\n\nმასწავლებლებსა და სკოლებს:\nეს ვიდეო გამოქვეყნებულია Creative Commons- ის ლიცენზიით.\n  CC BY 3.0 https://creativecommons.org/licenses/by/3.0/ \nშეგიძლიათ გამოიყენოთ ეს ვიდეო თქვენს კლასებში!\n\nჩვენ ვიყენებთ Google Translate სერვისს ლოკალიზაციისთვის. თუ შეცდომებს იპოვნით, გთხოვთ, შეგვატყობინოთ.\n"
    },
    {
      "Lang": "kk",
      "Title": "Ағылшын грамматикалық жаттығулары | Қарапайым Үндістан ⭐️ #60 When?",
      "Description": "Ағылшын грамматикасын үйрен! Сөйлемдегі сөзді өзгертіңіз.\n\n\n\n0:04 1:16 2:25 \nWhen does he swim?\nwɪn dɪz hi swɪm?\nОл қашан жүзеді?\n\n0:18 1:30 2:39 \nWhen does he play tennis?\nwɪn dɪz hi ple ˈtɛnɪs?\nОл қашан теннис ойнайды?\n\n0:32 1:43 2:52 \nWhen do you play tennis?\nwɪn du ju ple ˈtɛnɪs?\nСіз қашан теннис ойнайсыз?\n\n0:46 1:56 3:05 \nWhen does your son play tennis?\nwɪn dɪz jʊr sən ple ˈtɛnɪs?\nСіздің ұлыңыз қашан теннис ойнайды?\n\n0:59 2:09 3:18 \nWhen does your son swim?\nwɪn dɪz jʊr sən swɪm?\nҰлыңыз қашан жүзеді?\n\n\n\nОқытушылар мен мектептерге:\nБұл бейне Creative Commons лицензиясы бойынша жарияланған.\n  CC BY 3.0 https://creativecommons.org/licenses/by/3.0/ \nБұл бейнені өз сабақтарыңызда қолдануға болады!\n\nGoogle Translate қызметін локализациялау үшін қолданамыз. Егер сіз қате тапсаңыз, бізге хабарлаңыз.\n"
    },
    {
      "Lang": "km",
      "Title": "លំហាត់វេយ្យាករណ៍អង់គ្លេស | សាមញ្ញ ឥណ្ឌា ⭐️ #60 When?",
      "Description": "រៀនវេយ្យាករណ៍អង់គ្លេស! ផ្លាស់ប្តូរពាក្យនៅក្នុងប្រយោគមួយ។\n\n\n\n0:04 1:16 2:25 \nWhen does he swim?\nwɪn dɪz hi swɪm?\nតើគាត់ហែលទឹកនៅពេលណា?\n\n0:18 1:30 2:39 \nWhen does he play tennis?\nwɪn dɪz hi ple ˈtɛnɪs?\nតើគាត់លេងកីឡាវាយកូនបាល់នៅពេលណា?\n\n0:32 1:43 2:52 \nWhen do you play tennis?\nwɪn du ju ple ˈtɛnɪs?\nតើអ្នកលេងកីឡាវាយកូនបាល់នៅពេលណា?\n\n0:46 1:56 3:05 \nWhen does your son play tennis?\nwɪn dɪz jʊr sən ple ˈtɛnɪs?\nតើកូនប្រុសរបស់អ្នកលេងកីឡាវាយកូនបាល់នៅពេលណា?\n\n0:59 2:09 3:18 \nWhen does your son swim?\nwɪn dɪz jʊr sən swɪm?\nតើកូនប្រុសរបស់អ្នកហែលទឹកនៅពេលណា?\n\n\n\nជូនដល់គ្រូនិងសាលា៖\nវីដេអូនេះត្រូវបានផ្សព្វផ្សាយក្រោមអាជ្ញាប័ណ្ណច្នៃប្រឌិត។\n  CC BY 3.0 https://creativecommons.org/licenses/by/3.0/ \nសូមប្រើវីដេអូនេះនៅក្នុងថ្នាក់របស់អ្នកដោយឥតគិតថ្លៃ!\n\nយើងប្រើសេវាកម្មបកប្រែហ្គូហ្គលសម្រាប់ការធ្វើមូលដ្ឋានីយកម្ម។ ប្រសិនបើអ្នករកឃើញកំហុសខ្លះសូមប្រាប់ឱ្យយើងដឹង។\n"
    },
    {
      "Lang": "kn",
      "Title": "ಇಂಗ್ಲಿಷ್ ವ್ಯಾಕರಣ ವ್ಯಾಯಾಮ | ಸರಳ ಭಾರತ ⭐️ #60 When?",
      "Description": "ಇಂಗ್ಲಿಷ್ ವ್ಯಾಕರಣ ಕಲಿಯಿರಿ! ಒಂದು ವಾಕ್ಯದಲ್ಲಿ ಪದವನ್ನು ಬದಲಾಯಿಸಿ.\n\n\n\n0:04 1:16 2:25 \nWhen does he swim?\nwɪn dɪz hi swɪm?\nಅವನು ಯಾವಾಗ ಈಜುತ್ತಾನೆ?\n\n0:18 1:30 2:39 \nWhen does he play tennis?\nwɪn dɪz hi ple ˈtɛnɪs?\nಅವನು ಯಾವಾಗ ಟೆನಿಸ್ ಆಡುತ್ತಾನೆ?\n\n0:32 1:43 2:52 \nWhen do you play tennis?\nwɪn du ju ple ˈtɛnɪs?\nನೀವು ಯಾವಾಗ ಟೆನಿಸ್ ಆಡುತ್ತೀರಿ?\n\n0:46 1:56 3:05 \nWhen does your son play tennis?\nwɪn dɪz jʊr sən ple ˈtɛnɪs?\nನಿಮ್ಮ ಮಗ ಯಾವಾಗ ಟೆನಿಸ್ ಆಡುತ್ತಾನೆ?\n\n0:59 2:09 3:18 \nWhen does your son swim?\nwɪn dɪz jʊr sən swɪm?\nನಿಮ್ಮ ಮಗ ಯಾವಾಗ ಈಜುತ್ತಾನೆ?\n\n\n\nಶಿಕ್ಷಕರು ಮತ್ತು ಶಾಲೆಗಳಿಗೆ:\nಈ ವೀಡಿಯೊವನ್ನು ಕ್ರಿಯೇಟಿವ್ ಕಾಮನ್ಸ್ ಪರವಾನಗಿ ಅಡಿಯಲ್ಲಿ ಪ್ರಕಟಿಸಲಾಗಿದೆ.\n  CC BY 3.0 https://creativecommons.org/licenses/by/3.0/ \nನಿಮ್ಮ ತರಗತಿಗಳಲ್ಲಿ ಈ ವೀಡಿಯೊವನ್ನು ಬಳಸಲು ಹಿಂಜರಿಯಬೇಡಿ!\n\nಸ್ಥಳೀಕರಣಕ್ಕಾಗಿ ನಾವು Google ಅನುವಾದ ಸೇವೆಯನ್ನು ಬಳಸುತ್ತೇವೆ. ನೀವು ಕೆಲವು ತಪ್ಪುಗಳನ್ನು ಕಂಡುಕೊಂಡರೆ, ದಯವಿಟ್ಟು ನಮಗೆ ತಿಳಿಸಿ.\n"
    },
    {
      "Lang": "ko",
      "Title": "영어 문법 연습 | 단순한 인도 ⭐️ #60 When?",
      "Description": "영어 문법 배우기! 문장에서 단어를 변경하십시오.\n\n\n\n0:04 1:16 2:25 \nWhen does he swim?\nwɪn dɪz hi swɪm?\n언제 수영을 해요?\n\n0:18 1:30 2:39 \nWhen does he play tennis?\nwɪn dɪz hi ple ˈtɛnɪs?\n테니스는 언제합니까?\n\n0:32 1:43 2:52 \nWhen do you play tennis?\nwɪn du ju ple ˈtɛnɪs?\n테니스는 언제합니까?\n\n0:46 1:56 3:05 \nWhen does your son play tennis?\nwɪn dɪz jʊr sən ple ˈtɛnɪs?\n아들은 언제 테니스를 치나요?\n\n0:59 2:09 3:18 \nWhen does your son swim?\nwɪn dɪz jʊr sən swɪm?\n아들은 언제 수영을합니까?\n\n\n\n교사와 학교 :\n이 비디오는 Creative Commons License에 따라 게시됩니다.\n  CC BY 3.0 https://creativecommons.org/licenses/by/3.0/ \n이 비디오를 수업에 자유롭게 사용하십시오!\n\n현지화를 위해 Google 번역 서비스를 사용합니다. 실수가 있으면 알려주세요.\n"
    },
    {
      "Lang": "ku",
      "Title": "Pratîkên rêzimanê Englishngilîzî | Asan Hindistan ⭐️ #60 When?",
      "Description": "Gramera Englishngilîzî fêr bibin! Di hevokan de peyvek diguhezin.\n\n\n\n0:04 1:16 2:25 \nWhen does he swim?\nwɪn dɪz hi swɪm?\nKengê ew swî?\n\n0:18 1:30 2:39 \nWhen does he play tennis?\nwɪn dɪz hi ple ˈtɛnɪs?\nDema ku ew tenîs dilîze?\n\n0:32 1:43 2:52 \nWhen do you play tennis?\nwɪn du ju ple ˈtɛnɪs?\nKengî hûn tenîs dikin?\n\n0:46 1:56 3:05 \nWhen does your son play tennis?\nwɪn dɪz jʊr sən ple ˈtɛnɪs?\nKurê te kîngê tenîsê dike?\n\n0:59 2:09 3:18 \nWhen does your son swim?\nwɪn dɪz jʊr sən swɪm?\nKengê kurê te swim?\n\n\n\nJi mamoste û dibistanan re:\nEv vîdyoyê di bin lîsansa Creative Commons-ê de hatî weşandin.\n  CC BY 3.0 https://creativecommons.org/licenses/by/3.0/ \nHêsan e ku hûn vê vîdyoyê di sinifên xwe de bikar bînin!\n\nEm ji bo herêmbûnê karûbarê Google Translate kar dikin. Heke hûn hin xeletiyan bibînin, ji kerema xwe ji me re agahdar bikin.\n"
    },
    {
      "Lang": "ky",
      "Title": "Англис тилинин грамматикасы боюнча көнүгүүлөр | жөнөкөй Индия ⭐️ #60 When?",
      "Description": "Үйрөнүү Англис тилинин грамматикасы! Сүйлөмдөгү Сөздү өзгөртүү.\n\n\n\n0:04 1:16 2:25 \nWhen does he swim?\nwɪn dɪz hi swɪm?\nАл качан сүзүп жатат?\n\n0:18 1:30 2:39 \nWhen does he play tennis?\nwɪn dɪz hi ple ˈtɛnɪs?\nАл качан теннис ойнойт?\n\n0:32 1:43 2:52 \nWhen do you play tennis?\nwɪn du ju ple ˈtɛnɪs?\nКачан сен теннис ойнойт?\n\n0:46 1:56 3:05 \nWhen does your son play tennis?\nwɪn dɪz jʊr sən ple ˈtɛnɪs?\nКачан сенин уулу теннис ойнойт?\n\n0:59 2:09 3:18 \nWhen does your son swim?\nwɪn dɪz jʊr sən swɪm?\nКачан сенин уулу сүзүп жатат?\n\n\n\nмугалимдер жана мектептер үчүн:\nБул көргөзмө Creative Commons лиссиэнсийэ усулуобуйатынан жарыяланат.\n  CC BY 3.0 https://creativecommons.org/licenses/by/3.0/ \nСиздин класстары колдонсо болот!\n\nБиз Google локалдаштыруу үчүн Котормо кызматын пайдаланышат. Эгер кээ бир ката болсо, бизге айтып койуу.\n"
    },
    {
      "Lang": "lb",
      "Title": "Englesch Grammatikübungen | Einfach Indien ⭐️ #60 When?",
      "Description": "Léiert Englesch Grammatik! Ännert e Wuert an engem Saz.\n\n\n\n0:04 1:16 2:25 \nWhen does he swim?\nwɪn dɪz hi swɪm?\nWéini schwëmmt en?\n\n0:18 1:30 2:39 \nWhen does he play tennis?\nwɪn dɪz hi ple ˈtɛnɪs?\nWéini spillt hien Tennis?\n\n0:32 1:43 2:52 \nWhen do you play tennis?\nwɪn du ju ple ˈtɛnɪs?\nWéini spillen Dir Tennis?\n\n0:46 1:56 3:05 \nWhen does your son play tennis?\nwɪn dɪz jʊr sən ple ˈtɛnɪs?\nWéini spillt Äre Jong Tennis?\n\n0:59 2:09 3:18 \nWhen does your son swim?\nwɪn dɪz jʊr sən swɪm?\nWéini schwëmmt Äre Jong?\n\n\n\nUn de Schoulmeeschteren an d'Schoulen:\nDëse Video ass ënner der Creative Commons Lizenz verëffentlecht.\n  CC BY 3.0 https://creativecommons.org/licenses/by/3.0/ \nFillt gratis dësen Video zu Ären Klassen ze benotzen!\n\nMir benotzen den Google Translate Service fir d'Lokalisatioun. Wann Dir e puer Feeler fannt, da sot eis w.e.g.\n"
    },
    {
      "Lang": "lo",
      "Title": "ບົດເຝິກຫັດໄວຍາກອນພາສາອັງກິດ | ງ່າຍດາຍ ອິນເດຍ ⭐️ #60 When?",
      "Description": "ຮຽນຮູ້ຫລັກໄວຍາກອນພາສາອັງກິດ! ປ່ຽນ ຄຳ ສັບໃນປະໂຫຍກ.\n\n\n\n0:04 1:16 2:25 \nWhen does he swim?\nwɪn dɪz hi swɪm?\nລາວລອຍນ້ ຳ ເມື່ອໃດ?\n\n0:18 1:30 2:39 \nWhen does he play tennis?\nwɪn dɪz hi ple ˈtɛnɪs?\nລາວຫຼີ້ນເທັນນິດໃນເວລາໃດ?\n\n0:32 1:43 2:52 \nWhen do you play tennis?\nwɪn du ju ple ˈtɛnɪs?\nເຈົ້າຫຼີ້ນເທັນນິດເມື່ອໃດ?\n\n0:46 1:56 3:05 \nWhen does your son play tennis?\nwɪn dɪz jʊr sən ple ˈtɛnɪs?\nລູກຊາຍຂອງທ່ານຫລິ້ນກິລາເທນນິດເມື່ອໃດ?\n\n0:59 2:09 3:18 \nWhen does your son swim?\nwɪn dɪz jʊr sən swɪm?\nລູກຊາຍຂອງເຈົ້າລອຍນ້ ຳ ເມື່ອໃດ?\n\n\n\nເຖິງຄູອາຈານແລະໂຮງຮຽນ:\nວິດີໂອນີ້ລົງພາຍໃຕ້ໃບອະນຸຍາດສ້າງສັນ.\n  CC BY 3.0 https://creativecommons.org/licenses/by/3.0/ \nຮູ້ສຶກວ່າບໍ່ເສຍຄ່າທີ່ຈະໃຊ້ວິດີໂອນີ້ໃນຫ້ອງຮຽນຂອງທ່ານ!\n\nພວກເຮົາໃຊ້ບໍລິການ Google Translate ສຳ ລັບການແປພາສາທ້ອງຖິ່ນ. ຖ້າທ່ານພົບຂໍ້ຜິດພາດບາງຢ່າງ, ກະລຸນາແຈ້ງພວກເຮົາ.\n"
    },
    {
      "Lang": "lt",
      "Title": "Anglų kalbos gramatikos pratimai | Paprasta Indija ⭐️ #60 When?",
      "Description": "Išmokite anglų kalbos gramatiką! Pakeiskite žodį sakinyje.\n\n\n\n0:04 1:16 2:25 \nWhen does he swim?\nwɪn dɪz hi swɪm?\nKada jis plaukia?\n\n0:18 1:30 2:39 \nWhen does he play tennis?\nwɪn dɪz hi ple ˈtɛnɪs?\nKada jis žaidžia tenisą?\n\n0:32 1:43 2:52 \nWhen do you play tennis?\nwɪn du ju ple ˈtɛnɪs?\nKada tu žaidi tenisą?\n\n0:46 1:56 3:05 \nWhen does your son play tennis?\nwɪn dɪz jʊr sən ple ˈtɛnɪs?\nKada tavo sūnus žaidžia tenisą?\n\n0:59 2:09 3:18 \nWhen does your son swim?\nwɪn dɪz jʊr sən swɪm?\nKada jūsų sūnus plaukia?\n\n\n\nMokytojams ir mokykloms:\nŠis vaizdo įrašas paskelbtas naudojant „Creative Commons“ licenciją.\n  CC BY 3.0 https://creativecommons.org/licenses/by/3.0/ \nNesivaržykite naudotis šiuo vaizdo įrašu savo klasėse!\n\nLokalizavimui naudojame „Google Translate“ paslaugą. Jei radote klaidų, praneškite mums.\n"
    },
    {
      "Lang": "lv",
      "Title": "Angļu valodas gramatikas vingrinājumi | Vienkārši Indija ⭐️ #60 When?",
      "Description": "Mācieties angļu valodas gramatiku! Mainiet vārdu teikumā.\n\n\n\n0:04 1:16 2:25 \nWhen does he swim?\nwɪn dɪz hi swɪm?\nKad viņš peld?\n\n0:18 1:30 2:39 \nWhen does he play tennis?\nwɪn dɪz hi ple ˈtɛnɪs?\nKad viņš spēlē tenisu?\n\n0:32 1:43 2:52 \nWhen do you play tennis?\nwɪn du ju ple ˈtɛnɪs?\nKad tu spēlē tenisu?\n\n0:46 1:56 3:05 \nWhen does your son play tennis?\nwɪn dɪz jʊr sən ple ˈtɛnɪs?\nKad tavs dēls spēlē tenisu?\n\n0:59 2:09 3:18 \nWhen does your son swim?\nwɪn dɪz jʊr sən swɪm?\nKad tavs dēls peld?\n\n\n\nSkolotājiem un skolām:\nŠis video ir publicēts saskaņā ar Creative Commons licenci.\n  CC BY 3.0 https://creativecommons.org/licenses/by/3.0/ \nJūtieties brīvi izmantot šo video savās nodarbībās!\n\nLokalizācijai mēs izmantojam Google Translate pakalpojumu. Ja atrodat dažas kļūdas, lūdzu, paziņojiet mums.\n"
    },
    {
      "Lang": "mg",
      "Title": "Fanatanjahantena anglisy | Simple India ⭐️ #60 When?",
      "Description": "Ianaro ny fitsipi-pitenenana anglisy! Manova teny amin'ny fehezanteny iray.\n\n\n\n0:04 1:16 2:25 \nWhen does he swim?\nwɪn dɪz hi swɪm?\nRahoviana izy no hilomano?\n\n0:18 1:30 2:39 \nWhen does he play tennis?\nwɪn dɪz hi ple ˈtɛnɪs?\nRahoviana izy no milalao tennis?\n\n0:32 1:43 2:52 \nWhen do you play tennis?\nwɪn du ju ple ˈtɛnɪs?\nRahoviana ianao no milalao tennis?\n\n0:46 1:56 3:05 \nWhen does your son play tennis?\nwɪn dɪz jʊr sən ple ˈtɛnɪs?\nRahoviana ny kilalao lahy dia milalao tennis?\n\n0:59 2:09 3:18 \nWhen does your son swim?\nwɪn dɪz jʊr sən swɪm?\nRahoviana milomano ny zanakao?\n\n\n\nHo an'ireo mpampianatra sy sekoly:\nIty horonantsary ity dia navoaka eo ambanin'ny lisansa Creative Commons.\n  CC BY 3.0 https://creativecommons.org/licenses/by/3.0/ \nAza misalasala mampiasa an'io horonantsary io amin'ny kilasinao!\n\nMampiasa ny serivisy Google Translate izahay amin'ny fananganana toerana. Raha mahita hadisoana vitsivitsy ianao dia mba ampahafantaro anay.\n"
    },
    {
      "Lang": "mi",
      "Title": "Mahi whakangungu Ingarihi | He ngawari Inia ⭐️ #60 When?",
      "Description": "Akohia te paanui Ingarihi! Hurihia he kupu ki tetahi rerenga rerenga.\n\n\n\n0:04 1:16 2:25 \nWhen does he swim?\nwɪn dɪz hi swɪm?\nĀhea ia kauhoe ai?\n\n0:18 1:30 2:39 \nWhen does he play tennis?\nwɪn dɪz hi ple ˈtɛnɪs?\nĀ hea ka waihohia ia?\n\n0:32 1:43 2:52 \nWhen do you play tennis?\nwɪn du ju ple ˈtɛnɪs?\nA, no hea koe e takaro ana i te tennis\n\n0:46 1:56 3:05 \nWhen does your son play tennis?\nwɪn dɪz jʊr sən ple ˈtɛnɪs?\nĀhea tāu tama tama e riihiri ai?\n\n0:59 2:09 3:18 \nWhen does your son swim?\nwɪn dɪz jʊr sən swɪm?\nĀhea au tamaiti e kauhoe ana?\n\n\n\nKi nga kaiako me nga kura:\nKei te whakaputaina tenei ataata i raro i te Raihana Hoahoatanga.\n  CC BY 3.0 https://creativecommons.org/licenses/by/3.0/ \nKia kore e pai ki te whakamahi i tenei ataata i roto i o akomanga!\n\nKa whakamahia e matou he whakamaoritanga a Google mo te whakangao. Mena ka kitea e koe etahi he, tena koa kia mohio.\n"
    },
    {
      "Lang": "mk",
      "Title": "Вежби за граматика на англиски јазик | Едноставно Индија ⭐️ #60 When?",
      "Description": "Дознајте англиска граматика! Променете збор во реченица.\n\n\n\n0:04 1:16 2:25 \nWhen does he swim?\nwɪn dɪz hi swɪm?\nКога плива?\n\n0:18 1:30 2:39 \nWhen does he play tennis?\nwɪn dɪz hi ple ˈtɛnɪs?\nКога игра тенис?\n\n0:32 1:43 2:52 \nWhen do you play tennis?\nwɪn du ju ple ˈtɛnɪs?\nКога играте тенис?\n\n0:46 1:56 3:05 \nWhen does your son play tennis?\nwɪn dɪz jʊr sən ple ˈtɛnɪs?\nКога вашиот син игра тенис?\n\n0:59 2:09 3:18 \nWhen does your son swim?\nwɪn dɪz jʊr sən swɪm?\nКога плива вашиот син?\n\n\n\nДо наставниците и училиштата:\nОва видео е објавено под лиценца Криејтив комонс.\n  CC BY 3.0 https://creativecommons.org/licenses/by/3.0/ \nСлободно можете да го користите ова видео во вашите часови!\n\nНие користиме услуга Google Translate за локализација. Ако најдете некои грешки, ве молиме кажете ни.\n"
    },
    {
      "Lang": "ml",
      "Title": "ഇംഗ്ലീഷ് വ്യാകരണ വ്യായാമങ്ങൾ | ലളിതം ഇന്ത്യ ⭐️ #60 When?",
      "Description": "ഇംഗ്ലീഷ് വ്യാകരണം പഠിക്കൂ! ഒരു വാക്യത്തിൽ ഒരു വാക്ക് മാറ്റുക.\n\n\n\n0:04 1:16 2:25 \nWhen does he swim?\nwɪn dɪz hi swɪm?\nഎപ്പോഴാണ് അവൻ നീന്തുന്നത്?\n\n0:18 1:30 2:39 \nWhen does he play tennis?\nwɪn dɪz hi ple ˈtɛnɪs?\nഎപ്പോഴാണ് അദ്ദേഹം ടെന്നീസ് കളിക്കുന്നത്?\n\n0:32 1:43 2:52 \nWhen do you play tennis?\nwɪn du ju ple ˈtɛnɪs?\nഎപ്പോഴാണ് നിങ്ങൾ ടെന്നീസ് കളിക്കുന്നത്?\n\n0:46 1:56 3:05 \nWhen does your son play tennis?\nwɪn dɪz jʊr sən ple ˈtɛnɪs?\nനിങ്ങളുടെ മകൻ എപ്പോഴാണ് ടെന്നീസ് കളിക്കുന്നത്?\n\n0:59 2:09 3:18 \nWhen does your son swim?\nwɪn dɪz jʊr sən swɪm?\nനിങ്ങളുടെ മകൻ എപ്പോഴാണ് നീന്തുന്നത്?\n\n\n\nഅധ്യാപകർക്കും സ്കൂളുകൾക്കും:\nക്രിയേറ്റീവ് കോമൺസ് ലൈസൻസിന് കീഴിൽ ഈ വീഡിയോ പ്രസിദ്ധീകരിച്ചു.\n  CC BY 3.0 https://creativecommons.org/licenses/by/3.0/ \nനിങ്ങളുടെ ക്ലാസുകളിൽ ഈ വീഡിയോ ഉപയോഗിക്കാൻ മടിക്കേണ്ടതില്ല!\n\nപ്രാദേശികവൽക്കരണത്തിനായി ഞങ്ങൾ Google വിവർത്തന സേവനം ഉപയോഗിക്കുന്നു. നിങ്ങൾ ചില തെറ്റുകൾ കണ്ടെത്തുകയാണെങ്കിൽ, ഞങ്ങളെ അറിയിക്കുക.\n"
    },
    {
      "Lang": "mn",
      "Title": "Англи хэлний дүрмийн дасгал | Энгийн Энэтхэг ⭐️ #60 When?",
      "Description": "Англи хэлний дүрмийн мэдлэгийг сур! Үгийг өгүүлбэр болгон өөрчил.\n\n\n\n0:04 1:16 2:25 \nWhen does he swim?\nwɪn dɪz hi swɪm?\nТэр хэзээ усанд сэлэх вэ?\n\n0:18 1:30 2:39 \nWhen does he play tennis?\nwɪn dɪz hi ple ˈtɛnɪs?\nТэр хэзээ теннис тоглодог вэ?\n\n0:32 1:43 2:52 \nWhen do you play tennis?\nwɪn du ju ple ˈtɛnɪs?\nТа хэзээ теннис тоглодог вэ?\n\n0:46 1:56 3:05 \nWhen does your son play tennis?\nwɪn dɪz jʊr sən ple ˈtɛnɪs?\nТаны хүү хэзээ теннис тоглодог вэ?\n\n0:59 2:09 3:18 \nWhen does your son swim?\nwɪn dɪz jʊr sən swɪm?\nХүү чинь хэзээ усанд сэлдэг вэ?\n\n\n\nБагш, сургуулиудад:\nЭнэ видео нь Creative Commons License лиценз дээр нийтлэгдсэн.\n  CC BY 3.0 https://creativecommons.org/licenses/by/3.0/ \nЭнэ видеог өөрийн ангиудад ашиглах боломжтой шүү!\n\nБид Google Translate үйлчилгээг нутагшуулах зорилгоор ашигладаг. Хэрэв та алдаа олвол бидэнд мэдэгдээрэй.\n"
    },
    {
      "Lang": "mr",
      "Title": "इंग्रजी व्याकरण व्यायाम | सोपे भारत ⭐️ #60 When?",
      "Description": "इंग्रजी व्याकरण जाणून घ्या! एका वाक्यात शब्द बदला.\n\n\n\n0:04 1:16 2:25 \nWhen does he swim?\nwɪn dɪz hi swɪm?\nतो कधी पोहतो?\n\n0:18 1:30 2:39 \nWhen does he play tennis?\nwɪn dɪz hi ple ˈtɛnɪs?\nतो कधी टेनिस खेळतो?\n\n0:32 1:43 2:52 \nWhen do you play tennis?\nwɪn du ju ple ˈtɛnɪs?\nआपण कधी टेनिस खेळता?\n\n0:46 1:56 3:05 \nWhen does your son play tennis?\nwɪn dɪz jʊr sən ple ˈtɛnɪs?\nतुमचा मुलगा कधी टेनिस खेळतो?\n\n0:59 2:09 3:18 \nWhen does your son swim?\nwɪn dɪz jʊr sən swɪm?\nतुमचा मुलगा कधी पोहतो?\n\n\n\nशिक्षक आणि शाळा यांना:\nहा व्हिडिओ क्रिएटिव्ह कॉमन्स परवान्या अंतर्गत प्रकाशित झाला आहे.\n  CC BY 3.0 https://creativecommons.org/licenses/by/3.0/ \nआपल्या वर्गांमध्ये हा व्हिडिओ वापरण्यास मोकळ्या मनाने!\n\nआम्ही स्थानिकीकरणासाठी Google भाषांतर सेवा वापरतो. आपल्याला काही चुका आढळल्यास कृपया आम्हाला कळवा.\n"
    },
    {
      "Lang": "ms",
      "Title": "Latihan tatabahasa Bahasa Inggeris | Mudah India ⭐️ #60 When?",
      "Description": "Belajar bahasa Inggeris! Tukar perkataan dalam ayat.\n\n\n\n0:04 1:16 2:25 \nWhen does he swim?\nwɪn dɪz hi swɪm?\nBilakah dia berenang?\n\n0:18 1:30 2:39 \nWhen does he play tennis?\nwɪn dɪz hi ple ˈtɛnɪs?\nBilakah dia bermain tenis?\n\n0:32 1:43 2:52 \nWhen do you play tennis?\nwɪn du ju ple ˈtɛnɪs?\nBilakah anda bermain tenis?\n\n0:46 1:56 3:05 \nWhen does your son play tennis?\nwɪn dɪz jʊr sən ple ˈtɛnɪs?\nBilakah anak anda bermain tenis?\n\n0:59 2:09 3:18 \nWhen does your son swim?\nwɪn dɪz jʊr sən swɪm?\nBilakah anak anda berenang?\n\n\n\nKepada guru dan sekolah:\nVideo ini diterbitkan di bawah Lesen Creative Commons.\n  CC BY 3.0 https://creativecommons.org/licenses/by/3.0/ \nJangan ragu untuk menggunakan video ini dalam kelas anda!\n\nKami menggunakan perkhidmatan Terjemahan Google untuk penyetempatan. Jika anda mendapati beberapa kesilapan, sila beritahu kami.\n"
    },
    {
      "Lang": "mt",
      "Title": "Eżerċizzji ta 'grammatika Ingliża | Sempliċi Indja ⭐️ #60 When?",
      "Description": "Tgħallem il-grammatika Ingliża! Ibdel kelma f’sentenza.\n\n\n\n0:04 1:16 2:25 \nWhen does he swim?\nwɪn dɪz hi swɪm?\nMeta jgħum?\n\n0:18 1:30 2:39 \nWhen does he play tennis?\nwɪn dɪz hi ple ˈtɛnɪs?\nMeta hu jilgħab it-tennis?\n\n0:32 1:43 2:52 \nWhen do you play tennis?\nwɪn du ju ple ˈtɛnɪs?\nMeta inti tilgħab it-tennis?\n\n0:46 1:56 3:05 \nWhen does your son play tennis?\nwɪn dɪz jʊr sən ple ˈtɛnɪs?\nMeta ibnek jilgħab it-tennis?\n\n0:59 2:09 3:18 \nWhen does your son swim?\nwɪn dɪz jʊr sən swɪm?\nMeta jgħum ibnek?\n\n\n\nGħalliema u skejjel:\nDan il-video huwa ppublikat taħt il-Liċenzja Creative Commons.\n  CC BY 3.0 https://creativecommons.org/licenses/by/3.0/ \nĦossok liberu li tuża dan il-video fil-klassijiet tiegħek!\n\nAħna nużaw servizz Google Translate għall-lokalizzazzjoni. Jekk issib xi żbalji, jekk jogħġbok għarrafna.\n"
    },
    {
      "Lang": "my",
      "Title": "အင်္ဂလိပ်သဒ္ဒါလေ့ကျင့်ခန်း | ရိုးရှင်းသော အိန္ဒိယ ⭐️ #60 When?",
      "Description": "အင်္ဂလိပ်သဒ္ဒါကိုလေ့လာပါ။ ဝါကျတွင်စကားလုံးတစ်လုံးပြောင်းပါ။\n\n\n\n0:04 1:16 2:25 \nWhen does he swim?\nwɪn dɪz hi swɪm?\nဘယ်တော့ရေကူးသလဲ\n\n0:18 1:30 2:39 \nWhen does he play tennis?\nwɪn dɪz hi ple ˈtɛnɪs?\nသူဘယ်အချိန်မှာတင်းနစ်ကစားသလဲ\n\n0:32 1:43 2:52 \nWhen do you play tennis?\nwɪn du ju ple ˈtɛnɪs?\nဘယ်အချိန်မှာတင်းနစ်ကစားလဲ\n\n0:46 1:56 3:05 \nWhen does your son play tennis?\nwɪn dɪz jʊr sən ple ˈtɛnɪs?\nသင့်သားဘယ်တော့တင်းနစ်ကစားမှာလဲ\n\n0:59 2:09 3:18 \nWhen does your son swim?\nwɪn dɪz jʊr sən swɪm?\nသင့်သားဘယ်တော့ကူးမလဲ\n\n\n\nဆရာများနှင့်ကျောင်းများသို့\nဒီဗီဒီယိုကို Creative Commons လိုင်စင်အောက်မှာထုတ်ဝေထားတယ်။\n  CC BY 3.0 https://creativecommons.org/licenses/by/3.0/ \nဤဗီဒီယိုကိုသင်၏အတန်းများ၌အခမဲ့အသုံးပြုပါ။\n\nကျွန်ုပ်တို့သည်ဒေသခံဘာသာပြန်အတွက် Google Translate ဝန်ဆောင်မှုကိုအသုံးပြုသည်။ သင်အမှားအယွင်းများအချို့ရှိပါကကျွန်ုပ်တို့အားအသိပေးပါ။\n"
    },
    {
      "Lang": "ne",
      "Title": "अंग्रेजी व्याकरण व्यायाम | सरल भारत ⭐️ #60 When?",
      "Description": "अंग्रेजी व्याकरण सिक्नुहोस्! एक वाक्य मा एक शब्द बदल्नुहोस्।\n\n\n\n0:04 1:16 2:25 \nWhen does he swim?\nwɪn dɪz hi swɪm?\nऊ कहिले पौड्छ?\n\n0:18 1:30 2:39 \nWhen does he play tennis?\nwɪn dɪz hi ple ˈtɛnɪs?\nऊ कहिले टेनिस खेल्छ?\n\n0:32 1:43 2:52 \nWhen do you play tennis?\nwɪn du ju ple ˈtɛnɪs?\nतपाईं कहिले टेनिस खेल्नुहुन्छ?\n\n0:46 1:56 3:05 \nWhen does your son play tennis?\nwɪn dɪz jʊr sən ple ˈtɛnɪs?\nतपाईंको छोरा कहिले टेनिस खेल्छ?\n\n0:59 2:09 3:18 \nWhen does your son swim?\nwɪn dɪz jʊr sən swɪm?\nतिम्रो छोरा कहिले पौडी खेल्छ?\n\n\n\nशिक्षक र विद्यालयहरुलाई:\nयो भिडियो क्रिएटिभ कमन्स लाइसेन्स अन्तर्गत प्रकाशित गरिएको छ।\n  CC BY 3.0 https://creativecommons.org/licenses/by/3.0/ \nतपाईंको कक्षामा यो भिडियो प्रयोग गर्न स्वतन्त्र महसुस गर्नुहोस्!\n\nहामी स्थानीयकरणको लागि गुगल अनुवाद सेवा प्रयोग गर्दछौं। यदि तपाईंले केहि गल्तीहरू फेला पार्नुभयो भने, कृपया हामीलाई खबर गर्नुहोस्।\n"
    },
    {
      "Lang": "nl",
      "Title": "Engelse grammatica-oefeningen | Gemakkelijk India ⭐️ #60 When?",
      "Description": "Leer Engelse grammatica! Verander een woord in een zin.\n\n\n\n0:04 1:16 2:25 \nWhen does he swim?\nwɪn dɪz hi swɪm?\nWanneer zwemt hij?\n\n0:18 1:30 2:39 \nWhen does he play tennis?\nwɪn dɪz hi ple ˈtɛnɪs?\nWanneer speelt hij tennis?\n\n0:32 1:43 2:52 \nWhen do you play tennis?\nwɪn du ju ple ˈtɛnɪs?\nWanneer speel je tennis?\n\n0:46 1:56 3:05 \nWhen does your son play tennis?\nwɪn dɪz jʊr sən ple ˈtɛnɪs?\nWanneer speelt je zoon tennis?\n\n0:59 2:09 3:18 \nWhen does your son swim?\nwɪn dɪz jʊr sən swɪm?\nWanneer zwemt je zoon?\n\n\n\nAan leraren en scholen:\nDeze video is gepubliceerd onder Creative Commons License.\n  CC BY 3.0 https://creativecommons.org/licenses/by/3.0/ \nVoel je vrij om deze video in je lessen te gebruiken!\n\nWe gebruiken de Google Translate-service voor lokalisatie. Laat het ons weten als u fouten ontdekt.\n"
    },
    {
      "Lang": "no",
      "Title": "Engelsk grammatikkøvelser | Enkel India ⭐️ #60 When?",
      "Description": "Lær engelsk grammatikk! Endre et ord i en setning.\n\n\n\n0:04 1:16 2:25 \nWhen does he swim?\nwɪn dɪz hi swɪm?\nNår svømmer han?\n\n0:18 1:30 2:39 \nWhen does he play tennis?\nwɪn dɪz hi ple ˈtɛnɪs?\nNår spiller han tennis?\n\n0:32 1:43 2:52 \nWhen do you play tennis?\nwɪn du ju ple ˈtɛnɪs?\nNår spiller du tennis?\n\n0:46 1:56 3:05 \nWhen does your son play tennis?\nwɪn dɪz jʊr sən ple ˈtɛnɪs?\nNår spiller sønnen din tennis?\n\n0:59 2:09 3:18 \nWhen does your son swim?\nwɪn dɪz jʊr sən swɪm?\nNår svømmer sønnen din?\n\n\n\nTil lærere og skoler:\nDenne videoen er publisert under Creative Commons License.\n  CC BY 3.0 https://creativecommons.org/licenses/by/3.0/ \nBruk gjerne denne videoen i klassene dine!\n\nVi bruker Google Translate-tjenesten for lokalisering. Gi beskjed hvis du finner noen feil.\n"
    },
    {
      "Lang": "pa",
      "Title": "ਅੰਗਰੇਜ਼ੀ ਵਿਆਕਰਣ ਅਭਿਆਸ | ਆਸਾਨ ਭਾਰਤ ⭐️ #60 When?",
      "Description": "ਅੰਗਰੇਜ਼ੀ ਵਿਆਕਰਣ ਸਿੱਖੋ! ਇੱਕ ਵਾਕ ਵਿੱਚ ਇੱਕ ਸ਼ਬਦ ਬਦਲੋ.\n\n\n\n0:04 1:16 2:25 \nWhen does he swim?\nwɪn dɪz hi swɪm?\nਉਹ ਕਦੋਂ ਤੈਰਦਾ ਹੈ?\n\n0:18 1:30 2:39 \nWhen does he play tennis?\nwɪn dɪz hi ple ˈtɛnɪs?\nਉਹ ਟੈਨਿਸ ਕਦੋਂ ਖੇਡਦਾ ਹੈ?\n\n0:32 1:43 2:52 \nWhen do you play tennis?\nwɪn du ju ple ˈtɛnɪs?\nਤੁਸੀਂ ਟੈਨਿਸ ਕਦੋਂ ਖੇਡਦੇ ਹੋ?\n\n0:46 1:56 3:05 \nWhen does your son play tennis?\nwɪn dɪz jʊr sən ple ˈtɛnɪs?\nਤੁਹਾਡਾ ਬੇਟਾ ਟੈਨਿਸ ਕਦੋਂ ਖੇਡਦਾ ਹੈ?\n\n0:59 2:09 3:18 \nWhen does your son swim?\nwɪn dɪz jʊr sən swɪm?\nਤੁਹਾਡਾ ਪੁੱਤਰ ਕਦੋਂ ਤੈਰਦਾ ਹੈ?\n\n\n\nਅਧਿਆਪਕਾਂ ਅਤੇ ਸਕੂਲਾਂ ਨੂੰ:\nਇਹ ਵੀਡੀਓ ਕਰੀਏਟਿਵ ਕਾਮਨਜ਼ ਲਾਇਸੈਂਸ ਅਧੀਨ ਪ੍ਰਕਾਸ਼ਤ ਕੀਤਾ ਗਿਆ ਹੈ.\n  CC BY 3.0 https://creativecommons.org/licenses/by/3.0/ \nਇਸ ਕਲਾਸ ਨੂੰ ਆਪਣੀਆਂ ਕਲਾਸਾਂ ਵਿਚ ਵਰਤਣ ਲਈ ਮੁਫ਼ਤ ਮਹਿਸੂਸ ਕਰੋ!\n\nਅਸੀਂ ਸਥਾਨਕਕਰਨ ਲਈ ਗੂਗਲ ਅਨੁਵਾਦ ਸੇਵਾ ਦੀ ਵਰਤੋਂ ਕਰਦੇ ਹਾਂ. ਜੇ ਤੁਹਾਨੂੰ ਕੁਝ ਗਲਤੀਆਂ ਮਿਲਦੀਆਂ ਹਨ, ਤਾਂ ਕਿਰਪਾ ਕਰਕੇ ਸਾਨੂੰ ਦੱਸੋ.\n"
    },
    {
      "Lang": "pl",
      "Title": "Gramatyka angielska | Prosty Indie ⭐️ #60 When?",
      "Description": "Ucz się gramatyki angielskiej! Zmień słowo w zdaniu.\n\n\n\n0:04 1:16 2:25 \nWhen does he swim?\nwɪn dɪz hi swɪm?\nKiedy on pływa?\n\n0:18 1:30 2:39 \nWhen does he play tennis?\nwɪn dɪz hi ple ˈtɛnɪs?\nKiedy on gra w tenisa?\n\n0:32 1:43 2:52 \nWhen do you play tennis?\nwɪn du ju ple ˈtɛnɪs?\nKiedy grasz w tenisa?\n\n0:46 1:56 3:05 \nWhen does your son play tennis?\nwɪn dɪz jʊr sən ple ˈtɛnɪs?\nKiedy twój syn gra w tenisa?\n\n0:59 2:09 3:18 \nWhen does your son swim?\nwɪn dɪz jʊr sən swɪm?\nKiedy twój syn pływa?\n\n\n\nDo nauczycieli i szkół:\nTen film jest opublikowany na licencji Creative Commons.\n  CC BY 3.0 https://creativecommons.org/licenses/by/3.0/ \nZachęcamy do korzystania z tego filmu na zajęciach!\n\nDo lokalizacji używamy usługi Tłumacz Google. Jeśli znajdziesz jakieś błędy, daj nam znać.\n"
    },
    {
      "Lang": "ps",
      "Title": "انګلیسي ګرامر تمرینونه | ساده هند ⭐️ #60 When?",
      "Description": "انګلیسي ګرامر زده کړئ! یوه جمله په یوه جمله بدله کړئ.\n\n\n\n0:04 1:16 2:25 \nWhen does he swim?\nwɪn dɪz hi swɪm?\nهغه کله لامبو وهي؟\n\n0:18 1:30 2:39 \nWhen does he play tennis?\nwɪn dɪz hi ple ˈtɛnɪs?\nهغه کله ټینس کوي؟\n\n0:32 1:43 2:52 \nWhen do you play tennis?\nwɪn du ju ple ˈtɛnɪs?\nتاسو کله ټینس لوبه کوی؟\n\n0:46 1:56 3:05 \nWhen does your son play tennis?\nwɪn dɪz jʊr sən ple ˈtɛnɪs?\nستاسو زوی کله ټینس کوي؟\n\n0:59 2:09 3:18 \nWhen does your son swim?\nwɪn dɪz jʊr sən swɪm?\nستاسو زوی کله لامبو کوي؟\n\n\n\nښوونکو او ښوونځیو ته:\nدا ویډیو د کریټیو کامنز لایسنس لاندې خپره شوې ده.\n  CC BY 3.0 https://creativecommons.org/licenses/by/3.0/ \nپه خپلو ټولګیو کې د دې ویډیو کارولو لپاره وړیا احساس وکړئ!\n\nموږ د ځایی کولو لپاره د ګوګل ژباړن خدمت کاروو. که تاسو ځینې غلطۍ ومومئ ، مهرباني وکړئ موږ ته خبر راکړئ.\n"
    },
    {
      "Lang": "pt",
      "Title": "Exercícios de gramática inglesa | Simples Índia ⭐️ #60 When?",
      "Description": "Aprenda gramática inglesa! Mude uma palavra em uma frase.\n\n\n\n0:04 1:16 2:25 \nWhen does he swim?\nwɪn dɪz hi swɪm?\nQuando ele nada?\n\n0:18 1:30 2:39 \nWhen does he play tennis?\nwɪn dɪz hi ple ˈtɛnɪs?\nQuando ele joga tênis?\n\n0:32 1:43 2:52 \nWhen do you play tennis?\nwɪn du ju ple ˈtɛnɪs?\nQuando você joga tênis?\n\n0:46 1:56 3:05 \nWhen does your son play tennis?\nwɪn dɪz jʊr sən ple ˈtɛnɪs?\nQuando seu filho joga tênis?\n\n0:59 2:09 3:18 \nWhen does your son swim?\nwɪn dɪz jʊr sən swɪm?\nQuando seu filho nada?\n\n\n\nPara professores e escolas:\nEste vídeo é publicado sob licença Creative Commons.\n  CC BY 3.0 https://creativecommons.org/licenses/by/3.0/ \nSinta-se livre para usar este vídeo em suas aulas!\n\nUsamos o serviço Google Translate para localização. Se você encontrar algum erro, informe-nos.\n"
    },
    {
      "Lang": "ro",
      "Title": "Exerciții de gramatică engleză | Simplu India ⭐️ #60 When?",
      "Description": "Învață gramatica engleză! Schimbă un cuvânt într-o propoziție.\n\n\n\n0:04 1:16 2:25 \nWhen does he swim?\nwɪn dɪz hi swɪm?\nCând înoată?\n\n0:18 1:30 2:39 \nWhen does he play tennis?\nwɪn dɪz hi ple ˈtɛnɪs?\nCând joacă tenis?\n\n0:32 1:43 2:52 \nWhen do you play tennis?\nwɪn du ju ple ˈtɛnɪs?\nCând joci tenis?\n\n0:46 1:56 3:05 \nWhen does your son play tennis?\nwɪn dɪz jʊr sən ple ˈtɛnɪs?\nCând joacă fiul tău tenis?\n\n0:59 2:09 3:18 \nWhen does your son swim?\nwɪn dɪz jʊr sən swɪm?\nCând înoată fiul tău?\n\n\n\nPentru profesori și școli:\nAcest videoclip este publicat sub licență Creative Commons.\n  CC BY 3.0 https://creativecommons.org/licenses/by/3.0/ \nSimte-te liber să folosești acest videoclip în orele tale!\n\nFolosim serviciul Google Translate pentru localizare. Dacă găsiți unele greșeli, vă rugăm să ne informați.\n"
    },
    {
      "Lang": "ru",
      "Title": "Упражнения по английской грамматике | просто Индия ⭐️ #60 When?",
      "Description": "Изучай английскую грамматику! Изменить слово в предложении.\n\n\n\n0:04 1:16 2:25 \nWhen does he swim?\nwɪn dɪz hi swɪm?\nКогда он плавает?\n\n0:18 1:30 2:39 \nWhen does he play tennis?\nwɪn dɪz hi ple ˈtɛnɪs?\nКогда он играет в теннис?\n\n0:32 1:43 2:52 \nWhen do you play tennis?\nwɪn du ju ple ˈtɛnɪs?\nКогда ты играешь в теннис?\n\n0:46 1:56 3:05 \nWhen does your son play tennis?\nwɪn dɪz jʊr sən ple ˈtɛnɪs?\nКогда твой сын играет в теннис?\n\n0:59 2:09 3:18 \nWhen does your son swim?\nwɪn dɪz jʊr sən swɪm?\nКогда твой сын плавает?\n\n\n\nУчителям и школам:\nЭто видео опубликовано под лицензией Creative Commons.\n  CC BY 3.0 https://creativecommons.org/licenses/by/3.0/ \nНе стесняйтесь использовать это видео в своих классах!\n\nМы используем сервис Google Translate для локализации. Если вы обнаружите ошибки, сообщите нам.\n"
    },
    {
      "Lang": "sd",
      "Title": "سنڌي گرامر مشق | سادو انڊيا ⭐️ #60 When?",
      "Description": "انگريزي گرامر سکو! ھڪ لفظ ۾ ھڪڙي تبديلي آڻيو.\n\n\n\n0:04 1:16 2:25 \nWhen does he swim?\nwɪn dɪz hi swɪm?\nجڏهن هو کڻندو آهي؟\n\n0:18 1:30 2:39 \nWhen does he play tennis?\nwɪn dɪz hi ple ˈtɛnɪs?\nهو ٽينس راند ڪندو آهي؟\n\n0:32 1:43 2:52 \nWhen do you play tennis?\nwɪn du ju ple ˈtɛnɪs?\nتوهان ٽينس کيڏي رهيا آهيو؟\n\n0:46 1:56 3:05 \nWhen does your son play tennis?\nwɪn dɪz jʊr sən ple ˈtɛnɪs?\nتوهان جو پٽ ٽينس راند ڪندو آهي؟\n\n0:59 2:09 3:18 \nWhen does your son swim?\nwɪn dɪz jʊr sən swɪm?\nتوهان جو پٽ کڻندو آهي؟\n\n\n\nاستاد ۽ اسڪولن ڏانهن:\nهيء وڊيو تخليقي العام لائسنس هيٺ شايع ٿيل آهي.\n  CC BY 3.0 https://creativecommons.org/licenses/by/3.0/ \nپنهنجي وڊيوز ۾ هن وڊيو کي استعمال ڪرڻ لاء آزاد ٿيو!\n\nاسان مقامي ڪرڻ لاء گوگل ترجمو سروس استعمال ڪندا آهيون. جيڪڏهن توهان ڪجهه غلطي ڳوليندا آهيو، مهرباني ڪري اسان کي ڄاڻ ڏيو.\n"
    },
    {
      "Lang": "si",
      "Title": "ඉංග්‍රීසි ව්‍යාකරණ අභ්‍යාස | සරල ඉන්දියාව ⭐️ #60 When?",
      "Description": "ඉංග්‍රීසි ව්‍යාකරණ ඉගෙන ගන්න! වාක්‍යයක වචනයක් වෙනස් කරන්න.\n\n\n\n0:04 1:16 2:25 \nWhen does he swim?\nwɪn dɪz hi swɪm?\nඔහු පිහිනන්නේ කවදාද?\n\n0:18 1:30 2:39 \nWhen does he play tennis?\nwɪn dɪz hi ple ˈtɛnɪs?\nඔහු ටෙනිස් ක්‍රීඩා කරන්නේ කවදාද?\n\n0:32 1:43 2:52 \nWhen do you play tennis?\nwɪn du ju ple ˈtɛnɪs?\nඔබ ටෙනිස් ක්‍රීඩා කරන්නේ කවදාද?\n\n0:46 1:56 3:05 \nWhen does your son play tennis?\nwɪn dɪz jʊr sən ple ˈtɛnɪs?\nඔබේ පුතා ටෙනිස් ක්‍රීඩා කරන්නේ කවදාද?\n\n0:59 2:09 3:18 \nWhen does your son swim?\nwɪn dɪz jʊr sən swɪm?\nඔබේ පුතා පිහිනන්නේ කවදාද?\n\n\n\nගුරුවරුන්ට සහ පාසල්වලට:\nමෙම වීඩියෝව නිර්මාණාත්මක පොදු බලපත්‍රය යටතේ ප්‍රකාශයට පත් කෙරේ.\n  CC BY 3.0 https://creativecommons.org/licenses/by/3.0/ \nඔබේ පංතිවල මෙම වීඩියෝව භාවිතා කිරීමට නිදහස් වන්න!\n\nප්‍රාදේශීයකරණය සඳහා අපි ගූගල් පරිවර්තන සේවාව භාවිතා කරමු. ඔබ යම් වැරැද්දක් සොයා ගන්නේ නම්, කරුණාකර අපට දන්වන්න.\n"
    },
    {
      "Lang": "sk",
      "Title": "Anglické gramatické cvičenia | prostý India ⭐️ #60 When?",
      "Description": "Naučte sa anglickú gramatiku! Zmeniť slovo vo vete.\n\n\n\n0:04 1:16 2:25 \nWhen does he swim?\nwɪn dɪz hi swɪm?\nKedy pláva?\n\n0:18 1:30 2:39 \nWhen does he play tennis?\nwɪn dɪz hi ple ˈtɛnɪs?\nKedy hrá tenis?\n\n0:32 1:43 2:52 \nWhen do you play tennis?\nwɪn du ju ple ˈtɛnɪs?\nKedy hráte tenis?\n\n0:46 1:56 3:05 \nWhen does your son play tennis?\nwɪn dɪz jʊr sən ple ˈtɛnɪs?\nKedy hrá tvoj syn tenis?\n\n0:59 2:09 3:18 \nWhen does your son swim?\nwɪn dɪz jʊr sən swɪm?\nKedy pláva váš syn?\n\n\n\nPre učiteľov a školy:\nToto video je publikované pod licenciou Creative Commons License.\n  CC BY 3.0 https://creativecommons.org/licenses/by/3.0/ \nNeváhajte použiť toto video vo svojich triedach!\n\nNa lokalizáciu používame službu Prekladač Google. Ak nájdete nejaké chyby, dajte nám vedieť.\n"
    },
    {
      "Lang": "sl",
      "Title": "Angleške slovnične vaje | Preprosto Indija ⭐️ #60 When?",
      "Description": "Naučite se angleške slovnice! Spremenite besedo v stavku.\n\n\n\n0:04 1:16 2:25 \nWhen does he swim?\nwɪn dɪz hi swɪm?\nKdaj plava?\n\n0:18 1:30 2:39 \nWhen does he play tennis?\nwɪn dɪz hi ple ˈtɛnɪs?\nKdaj igra tenis?\n\n0:32 1:43 2:52 \nWhen do you play tennis?\nwɪn du ju ple ˈtɛnɪs?\nKdaj igrate tenis?\n\n0:46 1:56 3:05 \nWhen does your son play tennis?\nwɪn dɪz jʊr sən ple ˈtɛnɪs?\nKdaj vaš sin igra tenis?\n\n0:59 2:09 3:18 \nWhen does your son swim?\nwɪn dɪz jʊr sən swɪm?\nKdaj plava vaš sin?\n\n\n\nUčiteljem in šolam:\nTa videoposnetek je objavljen pod licenco Creative Commons.\n  CC BY 3.0 https://creativecommons.org/licenses/by/3.0/ \nUporabite ta video v svojih razredih!\n\nZa lokalizacijo uporabljamo storitev Google Translate. Če najdete nekaj napak, nas obvestite.\n"
    },
    {
      "Lang": "sm",
      "Title": "Gagana o le gagana Gagana Peretania | Faigofie Initia ⭐️ #60 When?",
      "Description": "Aoao le gagana Gagana Peretania! Sui se upu i se fuaiupu.\n\n\n\n0:04 1:16 2:25 \nWhen does he swim?\nwɪn dɪz hi swɪm?\nO anafea e aau ai?\n\n0:18 1:30 2:39 \nWhen does he play tennis?\nwɪn dɪz hi ple ˈtɛnɪs?\nO afea e taalo ai i le tenisi?\n\n0:32 1:43 2:52 \nWhen do you play tennis?\nwɪn du ju ple ˈtɛnɪs?\nO afea e te taaalo ai i le tenisi?\n\n0:46 1:56 3:05 \nWhen does your son play tennis?\nwɪn dɪz jʊr sən ple ˈtɛnɪs?\nO afea e taaalo ai lau tama i le tenisi?\n\n0:59 2:09 3:18 \nWhen does your son swim?\nwɪn dɪz jʊr sən swɪm?\nO a fea e aau ai lau tama?\n\n\n\nI faiaoga ma aʻoga:\nO lenei vitio ua lomia i lalo o le Creative Commons License.\n  CC BY 3.0 https://creativecommons.org/licenses/by/3.0/ \nLagona le saoloto e faʻaaoga lenei vitio i au vasega!\n\nMatou te faʻaaoga le Google Translate auaunaga mo le faʻasalalauga. Afai e te maua ni mea sese, faʻamolemole ia e iloa.\n"
    },
    {
      "Lang": "sn",
      "Title": "Chirungu grammar Exercise | Nyore India ⭐️ #60 When?",
      "Description": "Dzidza mutauro wechirungu! Chinja izwi muchirevo.\n\n\n\n0:04 1:16 2:25 \nWhen does he swim?\nwɪn dɪz hi swɪm?\nAnoshambira rini?\n\n0:18 1:30 2:39 \nWhen does he play tennis?\nwɪn dɪz hi ple ˈtɛnɪs?\nAnotamba tenisi nguvai?\n\n0:32 1:43 2:52 \nWhen do you play tennis?\nwɪn du ju ple ˈtɛnɪs?\nUnotamba tenisi nguvai?\n\n0:46 1:56 3:05 \nWhen does your son play tennis?\nwɪn dɪz jʊr sən ple ˈtɛnɪs?\nMwanakomana wako anotamba rinhi tenisi?\n\n0:59 2:09 3:18 \nWhen does your son swim?\nwɪn dɪz jʊr sən swɪm?\nMwanakomana wako anoshambira rini?\n\n\n\nKune vadzidzisi uye zvikoro:\nVhidhiyo iyi inoburitswa pasi peCreative Commons License.\n  CC BY 3.0 https://creativecommons.org/licenses/by/3.0/ \nInzwa wakasununguka kushandisa iyi vhidhiyo mumakirasi ako!\n\nIsu tinoshandisa Google Dhumiro sevhisi. Kana iwe ukawana zvimwe zvikanganiso, tapota titiudze.\n"
    },
    {
      "Lang": "so",
      "Title": "Jimicsiga naxwaha Ingiriisiga | Fudud Hindiya ⭐️ #60 When?",
      "Description": "Baro naxwaha Ingiriisiga! U beddelo eray weedh.\n\n\n\n0:04 1:16 2:25 \nWhen does he swim?\nwɪn dɪz hi swɪm?\nGoorma ayuu dabaashaa?\n\n0:18 1:30 2:39 \nWhen does he play tennis?\nwɪn dɪz hi ple ˈtɛnɪs?\nGoorma ayuu ciyaaraa tennis?\n\n0:32 1:43 2:52 \nWhen do you play tennis?\nwɪn du ju ple ˈtɛnɪs?\nGoormaad ciyaaraa tennis?\n\n0:46 1:56 3:05 \nWhen does your son play tennis?\nwɪn dɪz jʊr sən ple ˈtɛnɪs?\nGoorma ayuu wiilkaagu ciyaaraa tennis?\n\n0:59 2:09 3:18 \nWhen does your son swim?\nwɪn dɪz jʊr sən swɪm?\nGoormuu wiilkaagu dabaalanayaa?\n\n\n\nKu socota macallimiinta iyo iskuulada:\nMuuqaalkan fiidiyaha ah waxaa lagu daabacay hoosta hal-abuurnimada Hal-abuurka.\n  CC BY 3.0 https://creativecommons.org/licenses/by/3.0/ \nXor baad u leedahay inaad fiidiyaha u isticmaasho fasalladaaga!\n\nWaxaan u adeegsanaa adeega Google tarjumaha si aan ugu tarjunno. Hadaad khaladaad hesho, fadlan nala socodsii.\n"
    },
    {
      "Lang": "sq",
      "Title": "Ushtrime gramatikore angleze | i thjeshtë Indi ⭐️ #60 When?",
      "Description": "Mësoni gramatikën angleze! Ndryshoni një fjalë në një fjali.\n\n\n\n0:04 1:16 2:25 \nWhen does he swim?\nwɪn dɪz hi swɪm?\nKur noton?\n\n0:18 1:30 2:39 \nWhen does he play tennis?\nwɪn dɪz hi ple ˈtɛnɪs?\nKur luan tenis?\n\n0:32 1:43 2:52 \nWhen do you play tennis?\nwɪn du ju ple ˈtɛnɪs?\nKur luan tenis?\n\n0:46 1:56 3:05 \nWhen does your son play tennis?\nwɪn dɪz jʊr sən ple ˈtɛnɪs?\nKur luan tenisi djali juaj?\n\n0:59 2:09 3:18 \nWhen does your son swim?\nwɪn dɪz jʊr sən swɪm?\nKur noton djali juaj?\n\n\n\nPër mësuesit dhe shkollat:\nKjo video është botuar nën licencën Creative Commons.\n  CC BY 3.0 https://creativecommons.org/licenses/by/3.0/ \nMos ngurroni të përdorni këtë video në klasat tuaja!\n\nNe përdorim shërbimin Google Translate për lokalizimin. Nëse gjeni disa gabime, ju lutemi na tregoni.\n"
    },
    {
      "Lang": "sr",
      "Title": "Вежбе енглеске граматике | Једноставно Индија ⭐️ #60 When?",
      "Description": "Научите енглеску граматику! Промените реч у реченици.\n\n\n\n0:04 1:16 2:25 \nWhen does he swim?\nwɪn dɪz hi swɪm?\nКада плива?\n\n0:18 1:30 2:39 \nWhen does he play tennis?\nwɪn dɪz hi ple ˈtɛnɪs?\nКада игра тенис?\n\n0:32 1:43 2:52 \nWhen do you play tennis?\nwɪn du ju ple ˈtɛnɪs?\nКада играте тенис?\n\n0:46 1:56 3:05 \nWhen does your son play tennis?\nwɪn dɪz jʊr sən ple ˈtɛnɪs?\nКада ваш син игра тенис?\n\n0:59 2:09 3:18 \nWhen does your son swim?\nwɪn dɪz jʊr sən swɪm?\nКада твој син плива?\n\n\n\nНаставницима и школама:\nОвај видео је објављен под Цреативе Цоммонс лиценцом.\n  CC BY 3.0 https://creativecommons.org/licenses/by/3.0/ \nСлободно користите овај видеозапис у својим предавањима!\n\nЗа локализацију користимо услугу Гоогле Транслате. Ако нађете неке грешке, јавите нам се.\n"
    },
    {
      "Lang": "st",
      "Title": "Boikoetliso ba puo ea Senyesemane | E bonolo India ⭐️ #60 When?",
      "Description": "Ithute puo ea Senyesemane! Fetola lentsoe polelo.\n\n\n\n0:04 1:16 2:25 \nWhen does he swim?\nwɪn dɪz hi swɪm?\nO sesa neng?\n\n0:18 1:30 2:39 \nWhen does he play tennis?\nwɪn dɪz hi ple ˈtɛnɪs?\nO bapala tennis neng?\n\n0:32 1:43 2:52 \nWhen do you play tennis?\nwɪn du ju ple ˈtɛnɪs?\nU bapala tenese neng?\n\n0:46 1:56 3:05 \nWhen does your son play tennis?\nwɪn dɪz jʊr sən ple ˈtɛnɪs?\nMora oa hau o bapala tennis neng?\n\n0:59 2:09 3:18 \nWhen does your son swim?\nwɪn dɪz jʊr sən swɪm?\nMora oa hau o sesa neng?\n\n\n\nHo matichere le likolo:\nVideo ena e phatlalalitsoe tlas'a Creative Commons License.\n  CC BY 3.0 https://creativecommons.org/licenses/by/3.0/ \nIkutloe u lokolohile ho sebelisa video ena litlelaseng tsa hau!\n\nRe sebelisa tšebeletso ea Google Tafsiri bakeng sa lehae. Haeba u fumana liphoso, ka kopo re tsebise.\n"
    },
    {
      "Lang": "su",
      "Title": "Latihan tata basa Inggris | Basajan India ⭐️ #60 When?",
      "Description": "Diajar grammar Inggris! Ngarobih kecap dina hiji kalimat.\n\n\n\n0:04 1:16 2:25 \nWhen does he swim?\nwɪn dɪz hi swɪm?\nIraha anjeunna ngojay?\n\n0:18 1:30 2:39 \nWhen does he play tennis?\nwɪn dɪz hi ple ˈtɛnɪs?\nIraha anjeunna maén ténis?\n\n0:32 1:43 2:52 \nWhen do you play tennis?\nwɪn du ju ple ˈtɛnɪs?\nIraha anjeun maén ténis?\n\n0:46 1:56 3:05 \nWhen does your son play tennis?\nwɪn dɪz jʊr sən ple ˈtɛnɪs?\nIraha putra anjeun ténis maén?\n\n0:59 2:09 3:18 \nWhen does your son swim?\nwɪn dɪz jʊr sən swɪm?\nIraha putra anjeun ngojay?\n\n\n\nPikeun guru sareng sakola:\nPidéo ieu dikaluarkeun dina Lisensi Lisénsi Creative Commons.\n  CC BY 3.0 https://creativecommons.org/licenses/by/3.0/ \nTong ngosongkeun pidéo ieu di kelas!\n\nKami nganggo jasa Google Translate pikeun lokalisasi. Upami anjeun mendakan sababaraha kasalahan, punten terangkeun ka urang.\n"
    },
    {
      "Lang": "sv",
      "Title": "Engelska grammatiska övningar | Enkel Indien ⭐️ #60 When?",
      "Description": "Lär dig engelska grammatik! Ändra ett ord i en mening.\n\n\n\n0:04 1:16 2:25 \nWhen does he swim?\nwɪn dɪz hi swɪm?\nNär simmar han?\n\n0:18 1:30 2:39 \nWhen does he play tennis?\nwɪn dɪz hi ple ˈtɛnɪs?\nNär spelar han tennis?\n\n0:32 1:43 2:52 \nWhen do you play tennis?\nwɪn du ju ple ˈtɛnɪs?\nNär spelar du tennis?\n\n0:46 1:56 3:05 \nWhen does your son play tennis?\nwɪn dɪz jʊr sən ple ˈtɛnɪs?\nNär spelar din son tennis?\n\n0:59 2:09 3:18 \nWhen does your son swim?\nwɪn dɪz jʊr sən swɪm?\nNär simmar din son?\n\n\n\nTill lärare och skolor:\nDenna video publiceras under Creative Commons License.\n  CC BY 3.0 https://creativecommons.org/licenses/by/3.0/ \nAnvänd gärna den här videon i dina klasser!\n\nVi använder Google Translate-tjänst för lokalisering. Låt oss veta om du hittar några misstag.\n"
    },
    {
      "Lang": "sw",
      "Title": "Mazoezi ya sarufi ya Kiingereza | Rahisi India ⭐️ #60 When?",
      "Description": "Jifunze sarufi ya Kiingereza! Badilisha neno katika sentensi.\n\n\n\n0:04 1:16 2:25 \nWhen does he swim?\nwɪn dɪz hi swɪm?\nYeye anaogelea lini?\n\n0:18 1:30 2:39 \nWhen does he play tennis?\nwɪn dɪz hi ple ˈtɛnɪs?\nAnacheza tenisi lini?\n\n0:32 1:43 2:52 \nWhen do you play tennis?\nwɪn du ju ple ˈtɛnɪs?\nUnacheza tenisi lini?\n\n0:46 1:56 3:05 \nWhen does your son play tennis?\nwɪn dɪz jʊr sən ple ˈtɛnɪs?\nJe! Mtoto wako anacheza lini tenisi?\n\n0:59 2:09 3:18 \nWhen does your son swim?\nwɪn dɪz jʊr sən swɪm?\nJe! Mtoto wako anaogelea lini?\n\n\n\nKwa waalimu na shule:\nVideo hii imechapishwa chini ya Leseni ya Creative Commons.\n  CC BY 3.0 https://creativecommons.org/licenses/by/3.0/ \nJisikie huru kutumia video hii kwenye darasa lako!\n\nTunatumia huduma ya Tafsiri ya Google kwa ujanibishaji. Ikiwa utapata makosa, tafadhali tujulishe.\n"
    },
    {
      "Lang": "ta",
      "Title": "ஆங்கில இலக்கண பயிற்சிகள் | எளிய இந்தியா ⭐️ #60 When?",
      "Description": "ஆங்கில இலக்கணம் கற்றுக்கொள்ளுங்கள்! ஒரு வாக்கியத்தில் ஒரு வார்த்தையை மாற்றவும்.\n\n\n\n0:04 1:16 2:25 \nWhen does he swim?\nwɪn dɪz hi swɪm?\nஅவர் எப்போது நீந்துவார்?\n\n0:18 1:30 2:39 \nWhen does he play tennis?\nwɪn dɪz hi ple ˈtɛnɪs?\nஅவர் எப்போது டென்னிஸ் விளையாடுவார்?\n\n0:32 1:43 2:52 \nWhen do you play tennis?\nwɪn du ju ple ˈtɛnɪs?\nநீங்கள் எப்போது டென்னிஸ் விளையாடுவீர்கள்?\n\n0:46 1:56 3:05 \nWhen does your son play tennis?\nwɪn dɪz jʊr sən ple ˈtɛnɪs?\nஉங்கள் மகன் எப்போது டென்னிஸ் விளையாடுவார்?\n\n0:59 2:09 3:18 \nWhen does your son swim?\nwɪn dɪz jʊr sən swɪm?\nஉங்கள் மகன் எப்போது நீந்துவான்?\n\n\n\nஆசிரியர்கள் மற்றும் பள்ளிகளுக்கு:\nஇந்த வீடியோ கிரியேட்டிவ் காமன்ஸ் உரிமத்தின் கீழ் வெளியிடப்பட்டுள்ளது.\n  CC BY 3.0 https://creativecommons.org/licenses/by/3.0/ \nஉங்கள் வகுப்புகளில் இந்த வீடியோவைப் பயன்படுத்த தயங்காதீர்கள்!\n\nஉள்ளூர்மயமாக்க Google மொழிபெயர்ப்பு சேவையைப் பயன்படுத்துகிறோம். நீங்கள் சில தவறுகளைக் கண்டால், எங்களுக்குத் தெரியப்படுத்துங்கள்.\n"
    },
    {
      "Lang": "te",
      "Title": "ఇంగ్లీష్ వ్యాకరణ వ్యాయామాలు | సాధారణ భారతదేశం ⭐️ #60 When?",
      "Description": "ఇంగ్లీష్ వ్యాకరణం నేర్చుకోండి! ఒక వాక్యంలో ఒక పదాన్ని మార్చండి.\n\n\n\n0:04 1:16 2:25 \nWhen does he swim?\nwɪn dɪz hi swɪm?\nఅతను ఎప్పుడు ఈత కొడతాడు?\n\n0:18 1:30 2:39 \nWhen does he play tennis?\nwɪn dɪz hi ple ˈtɛnɪs?\nఅతను ఎప్పుడు టెన్నిస్ ఆడతాడు?\n\n0:32 1:43 2:52 \nWhen do you play tennis?\nwɪn du ju ple ˈtɛnɪs?\nమీరు ఎప్పుడు టెన్నిస్ ఆడతారు?\n\n0:46 1:56 3:05 \nWhen does your son play tennis?\nwɪn dɪz jʊr sən ple ˈtɛnɪs?\nమీ కొడుకు ఎప్పుడు టెన్నిస్ ఆడతాడు?\n\n0:59 2:09 3:18 \nWhen does your son swim?\nwɪn dɪz jʊr sən swɪm?\nమీ కొడుకు ఎప్పుడు ఈత కొడతాడు?\n\n\n\nఉపాధ్యాయులకు మరియు పాఠశాలలకు:\nఈ వీడియో క్రియేటివ్ కామన్స్ లైసెన్స్ క్రింద ప్రచురించబడింది.\n  CC BY 3.0 https://creativecommons.org/licenses/by/3.0/ \nమీ తరగతుల్లో ఈ వీడియోను ఉపయోగించడానికి సంకోచించకండి!\n\nస్థానికీకరణ కోసం మేము Google అనువాద సేవను ఉపయోగిస్తాము. మీరు కొన్ని తప్పులు కనుగొంటే, దయచేసి మాకు తెలియజేయండి.\n"
    },
    {
      "Lang": "tg",
      "Title": "Машқҳои грамматикаи забони англисӣ | Оддӣ Ҳиндустон ⭐️ #60 When?",
      "Description": "Грамматикаи забони англисиро омӯзед! Калимаро дар як ҷумла иваз кунед.\n\n\n\n0:04 1:16 2:25 \nWhen does he swim?\nwɪn dɪz hi swɪm?\nКай ӯ шино мекунад?\n\n0:18 1:30 2:39 \nWhen does he play tennis?\nwɪn dɪz hi ple ˈtɛnɪs?\nКай теннис бозӣ мекунад?\n\n0:32 1:43 2:52 \nWhen do you play tennis?\nwɪn du ju ple ˈtɛnɪs?\nКай шумо теннис бозӣ мекунед?\n\n0:46 1:56 3:05 \nWhen does your son play tennis?\nwɪn dɪz jʊr sən ple ˈtɛnɪs?\nПисари шумо кай теннис бозӣ мекунад?\n\n0:59 2:09 3:18 \nWhen does your son swim?\nwɪn dɪz jʊr sən swɪm?\nПисари шумо кай шино мекунад?\n\n\n\nБа муаллимон ва мактабҳо:\nИн видео зери иҷозатномаи Creative Commons нашр шудааст.\n  CC BY 3.0 https://creativecommons.org/licenses/by/3.0/ \nИн видеоро дар дарсҳои худ истифода баред!\n\nМо барои локализатсия аз хидмати Google Translate истифода мебарем. Агар шумо ягон хатогӣ дарёфт кунед, лутфан ба мо хабар диҳед.\n"
    },
    {
      "Lang": "th",
      "Title": "แบบฝึกหัดไวยากรณ์ภาษาอังกฤษ | ง่าย อินเดีย ⭐️ #60 When?",
      "Description": "เรียนรู้ไวยากรณ์ภาษาอังกฤษ! เปลี่ยนคำในประโยค\n\n\n\n0:04 1:16 2:25 \nWhen does he swim?\nwɪn dɪz hi swɪm?\nเขาว่ายน้ำเมื่อไหร่\n\n0:18 1:30 2:39 \nWhen does he play tennis?\nwɪn dɪz hi ple ˈtɛnɪs?\nเขาเล่นเทนนิสเมื่อไหร่\n\n0:32 1:43 2:52 \nWhen do you play tennis?\nwɪn du ju ple ˈtɛnɪs?\nคุณเล่นเทนนิสเมื่อไหร่\n\n0:46 1:56 3:05 \nWhen does your son play tennis?\nwɪn dɪz jʊr sən ple ˈtɛnɪs?\nลูกชายของคุณเล่นเทนนิสเมื่อไหร่?\n\n0:59 2:09 3:18 \nWhen does your son swim?\nwɪn dɪz jʊr sən swɪm?\nลูกชายของคุณว่ายน้ำเมื่อไหร่?\n\n\n\nถึงครูและโรงเรียน:\nวิดีโอนี้เผยแพร่ภายใต้สัญญาอนุญาตครีเอทีฟคอมมอนส์\n  CC BY 3.0 https://creativecommons.org/licenses/by/3.0/ \nอย่าลังเลที่จะใช้วิดีโอนี้ในชั้นเรียนของคุณ!\n\nเราใช้บริการ Google แปลภาษาเพื่อการแปล หากคุณพบข้อผิดพลาดบางอย่างโปรดแจ้งให้เราทราบ\n"
    },
    {
      "Lang": "tr",
      "Title": "İngilizce gramer çalışmaları | Basit Hindistan ⭐️ #60 When?",
      "Description": "İngilizce gramerini öğren! Bir cümle içindeki bir kelimeyi değiştirin.\n\n\n\n0:04 1:16 2:25 \nWhen does he swim?\nwɪn dɪz hi swɪm?\nNe zaman yüzüyor?\n\n0:18 1:30 2:39 \nWhen does he play tennis?\nwɪn dɪz hi ple ˈtɛnɪs?\nNe zaman tenis oynuyor?\n\n0:32 1:43 2:52 \nWhen do you play tennis?\nwɪn du ju ple ˈtɛnɪs?\nNe zaman tenis oynuyorsun?\n\n0:46 1:56 3:05 \nWhen does your son play tennis?\nwɪn dɪz jʊr sən ple ˈtɛnɪs?\nOğlunuz ne zaman tenis oynuyor?\n\n0:59 2:09 3:18 \nWhen does your son swim?\nwɪn dɪz jʊr sən swɪm?\nOğlunuz ne zaman yüzüyor?\n\n\n\nÖğretmenlere ve okullara:\nBu video Creative Commons License. Altında yayınlandı.\n  CC BY 3.0 https://creativecommons.org/licenses/by/3.0/ \nBu videoyu derslerinizde kullanmaktan çekinmeyin!\n\nYerelleştirme için Google Çeviri hizmetini kullanıyoruz. Bazı hatalar bulursanız lütfen bize bildirin.\n"
    },
    {
      "Lang": "uk",
      "Title": "Граматичні вправи з англійської мови | Простий Індія ⭐️ #60 When?",
      "Description": "Вивчіть англійську граматику! Змініть слово у реченні.\n\n\n\n0:04 1:16 2:25 \nWhen does he swim?\nwɪn dɪz hi swɪm?\nКоли він плаває?\n\n0:18 1:30 2:39 \nWhen does he play tennis?\nwɪn dɪz hi ple ˈtɛnɪs?\nКоли він грає в теніс?\n\n0:32 1:43 2:52 \nWhen do you play tennis?\nwɪn du ju ple ˈtɛnɪs?\nКоли ви граєте в теніс?\n\n0:46 1:56 3:05 \nWhen does your son play tennis?\nwɪn dɪz jʊr sən ple ˈtɛnɪs?\nКоли ваш син грає в теніс?\n\n0:59 2:09 3:18 \nWhen does your son swim?\nwɪn dɪz jʊr sən swɪm?\nКоли твій син плаває?\n\n\n\nДля вчителів та шкіл:\nЦе відео опубліковане під ліцензією Creative Commons.\n  CC BY 3.0 https://creativecommons.org/licenses/by/3.0/ \nСміливо використовуйте це відео у своїх класах!\n\nМи використовуємо послугу Google Translate для локалізації. Якщо ви виявили деякі помилки, повідомте нас про це.\n"
    },
    {
      "Lang": "ur",
      "Title": "انگریزی گرائمر کی ورزشیں | آسان ہندوستان ⭐️ #60 When?",
      "Description": "انگریزی گرائمر سیکھیں! ایک جملے میں ایک لفظ تبدیل کریں۔\n\n\n\n0:04 1:16 2:25 \nWhen does he swim?\nwɪn dɪz hi swɪm?\nوہ کب تیرتا ہے؟\n\n0:18 1:30 2:39 \nWhen does he play tennis?\nwɪn dɪz hi ple ˈtɛnɪs?\nوہ ٹینس کب کھیلتا ہے؟\n\n0:32 1:43 2:52 \nWhen do you play tennis?\nwɪn du ju ple ˈtɛnɪs?\nآپ ٹینس کب کھیلتے ہیں؟\n\n0:46 1:56 3:05 \nWhen does your son play tennis?\nwɪn dɪz jʊr sən ple ˈtɛnɪs?\nآپ کا بیٹا ٹینس کب کھیلتا ہے؟\n\n0:59 2:09 3:18 \nWhen does your son swim?\nwɪn dɪz jʊr sən swɪm?\nآپ کا بیٹا کب تیرتا ہے؟\n\n\n\nاساتذہ اور اسکولوں کے لئے:\nیہ ویڈیو تخلیقی العام لائسنس کے تحت شائع ہوا ہے۔\n  CC BY 3.0 https://creativecommons.org/licenses/by/3.0/ \nاپنی ویڈیو کو اپنی کلاسوں میں آزادانہ طور پر استعمال کریں!\n\nہم لوکلائزیشن کے لئے گوگل ٹرانسلیٹ سروس استعمال کرتے ہیں۔ اگر آپ کو کچھ غلطیاں ملتی ہیں تو ، براہ کرم ہمیں بتائیں۔\n"
    },
    {
      "Lang": "uz",
      "Title": "Ingliz tili grammatik mashqlari | Oddiy Hindiston ⭐️ #60 When?",
      "Description": "Ingliz tilining grammatikasini o'rganing! Bir so'zni jumlada o'zgartiring.\n\n\n\n0:04 1:16 2:25 \nWhen does he swim?\nwɪn dɪz hi swɪm?\nU qachon suzadi?\n\n0:18 1:30 2:39 \nWhen does he play tennis?\nwɪn dɪz hi ple ˈtɛnɪs?\nU qachon tennis o'ynaydi?\n\n0:32 1:43 2:52 \nWhen do you play tennis?\nwɪn du ju ple ˈtɛnɪs?\nQachon tennis o'ynaysiz?\n\n0:46 1:56 3:05 \nWhen does your son play tennis?\nwɪn dɪz jʊr sən ple ˈtɛnɪs?\nO'g'lingiz qachon tennis o'ynaydi?\n\n0:59 2:09 3:18 \nWhen does your son swim?\nwɪn dɪz jʊr sən swɪm?\nO'g'lingiz qachon suzadi?\n\n\n\nO'qituvchilar va maktablarga:\nUshbu video Creative Commons litsenziyasi ostida joylashtirilgan.\n  CC BY 3.0 https://creativecommons.org/licenses/by/3.0/ \nUshbu videoni o'z sinflaringizda ishlatish bepul!\n\nBiz Google Translate xizmatidan lokalizatsiya uchun foydalanamiz. Agar siz biron bir xato topsangiz, iltimos, bizga xabar bering.\n"
    },
    {
      "Lang": "vi",
      "Title": "Bài tập ngữ pháp tiếng anh | Đơn giản Ấn Độ ⭐️ #60 When?",
      "Description": "Học ngữ pháp tiếng Anh! Thay đổi một từ trong một câu.\n\n\n\n0:04 1:16 2:25 \nWhen does he swim?\nwɪn dɪz hi swɪm?\nKhi nào anh ấy bơi?\n\n0:18 1:30 2:39 \nWhen does he play tennis?\nwɪn dɪz hi ple ˈtɛnɪs?\nKhi nào anh ấy chơi tennis?\n\n0:32 1:43 2:52 \nWhen do you play tennis?\nwɪn du ju ple ˈtɛnɪs?\nKhi nào bạn chơi tennis?\n\n0:46 1:56 3:05 \nWhen does your son play tennis?\nwɪn dɪz jʊr sən ple ˈtɛnɪs?\nKhi nào con trai bạn chơi tennis?\n\n0:59 2:09 3:18 \nWhen does your son swim?\nwɪn dɪz jʊr sən swɪm?\nKhi nào con trai bạn bơi?\n\n\n\nGửi giáo viên và nhà trường:\nVideo này được xuất bản theo Giấy phép Creative Commons.\n  CC BY 3.0 https://creativecommons.org/licenses/by/3.0/ \nHãy sử dụng video này trong các lớp học của bạn!\n\nChúng tôi sử dụng dịch vụ Google Dịch để bản địa hóa. Nếu bạn tìm thấy một số sai lầm, xin vui lòng cho chúng tôi biết.\n"
    },
    {
      "Lang": "xh",
      "Title": "Ukuziqhelanisa negrama yesiNgesi | Elula Indiya ⭐️ #60 When?",
      "Description": "Funda igrama yesiNgesi! Guqula igama kwisivakalisi.\n\n\n\n0:04 1:16 2:25 \nWhen does he swim?\nwɪn dɪz hi swɪm?\nUqubha nini?\n\n0:18 1:30 2:39 \nWhen does he play tennis?\nwɪn dɪz hi ple ˈtɛnɪs?\nUyidlala nini i-tennis?\n\n0:32 1:43 2:52 \nWhen do you play tennis?\nwɪn du ju ple ˈtɛnɪs?\nUyidlala nini i-tennis?\n\n0:46 1:56 3:05 \nWhen does your son play tennis?\nwɪn dɪz jʊr sən ple ˈtɛnɪs?\nUnyana wakho udlala nini itenisi?\n\n0:59 2:09 3:18 \nWhen does your son swim?\nwɪn dɪz jʊr sən swɪm?\nUqubha nini unyana wakho?\n\n\n\nKootitshala nakwizikolo:\nLe vidiyo ipapashwa phantsi kwelayisensi yeCreative Commons.\n  CC BY 3.0 https://creativecommons.org/licenses/by/3.0/ \nZive ukhululekile ukusebenzisa le vidiyo kwiiklasi zakho!\n\nSisebenzisa inkonzo yokuTolika kaGoogle ukuze sifumane indawo. Ukuba ufumana iimpazamo ezithile, nceda usazise.\n"
    },
    {
      "Lang": "yi",
      "Title": "ענגליש גראַמאַטיק עקסערסייזיז | פּשוט ינדיאַ ⭐️ #60 When?",
      "Description": "לערן ענגליש גראַמאַטיק! טוישן אַ וואָרט אין אַ זאַץ.\n\n\n\n0:04 1:16 2:25 \nWhen does he swim?\nwɪn dɪz hi swɪm?\nווען שווימט ער?\n\n0:18 1:30 2:39 \nWhen does he play tennis?\nwɪn dɪz hi ple ˈtɛnɪs?\nווען שפּילט ער טעניס?\n\n0:32 1:43 2:52 \nWhen do you play tennis?\nwɪn du ju ple ˈtɛnɪs?\nווען טאָן איר שפּילן טעניס?\n\n0:46 1:56 3:05 \nWhen does your son play tennis?\nwɪn dɪz jʊr sən ple ˈtɛnɪs?\nווען טוט דיין זון שפּיל טעניס?\n\n0:59 2:09 3:18 \nWhen does your son swim?\nwɪn dɪz jʊr sən swɪm?\nווען שווימט דיין זון?\n\n\n\nצו לערערס און שולן:\nדער ווידעא איז ארויס אונטער Creative Commons License.\n  CC BY 3.0 https://creativecommons.org/licenses/by/3.0/ \nפילן פריי צו נוצן דעם ווידעא אין דיין קלאסן!\n\nמיר נוצן Google Translate דינסט פֿאַר לאָוקאַלאַזיישאַן. אויב איר געפֿינען עטלעכע מיסטייקס, ביטע לאָזן אונדז וויסן.\n"
    },
    {
      "Lang": "yo",
      "Title": "Awọn adaṣe gẹẹsi Gẹẹsi | Rọrun India ⭐️ #60 When?",
      "Description": "Kọ ẹkọ gẹẹsi Gẹẹsi! Yi ọrọ pada ninu gbolohun ọrọ.\n\n\n\n0:04 1:16 2:25 \nWhen does he swim?\nwɪn dɪz hi swɪm?\nNigbawo ni o we?\n\n0:18 1:30 2:39 \nWhen does he play tennis?\nwɪn dɪz hi ple ˈtɛnɪs?\nNigbawo ni o ṣe tẹnisi?\n\n0:32 1:43 2:52 \nWhen do you play tennis?\nwɪn du ju ple ˈtɛnɪs?\nNigbawo ni o ṣe tẹnisi tẹnisi?\n\n0:46 1:56 3:05 \nWhen does your son play tennis?\nwɪn dɪz jʊr sən ple ˈtɛnɪs?\nNigbawo ni ọmọ rẹ ṣe ere tẹnisi?\n\n0:59 2:09 3:18 \nWhen does your son swim?\nwɪn dɪz jʊr sən swɪm?\nNigbawo ni ọmọ rẹ wẹ?\n\n\n\nSi awọn olukọ ati awọn ile-iwe:\nFidio yii ni a tẹjade labẹ Iwe-aṣẹ Creative Commons.\n  CC BY 3.0 https://creativecommons.org/licenses/by/3.0/ \nLero lati lo fidio yii ninu awọn kilasi rẹ!\n\nA lo iṣẹ Google Translate fun agbegbe. Ti o ba rii diẹ ninu awọn aṣiṣe, jọwọ jẹ ki a mọ.\n"
    },
    {
      "Lang": "zh-Hans",
      "Title": "英语语法练习 | 简单 印度 ⭐️ #60 When?",
      "Description": "学习英语语法！ 更改句子中的单词。\n\n\n\n0:04 1:16 2:25 \nWhen does he swim?\nwɪn dɪz hi swɪm?\n他什么时候游泳？\n\n0:18 1:30 2:39 \nWhen does he play tennis?\nwɪn dɪz hi ple ˈtɛnɪs?\n他什么时候打网球？\n\n0:32 1:43 2:52 \nWhen do you play tennis?\nwɪn du ju ple ˈtɛnɪs?\n你什么时候打网球？\n\n0:46 1:56 3:05 \nWhen does your son play tennis?\nwɪn dɪz jʊr sən ple ˈtɛnɪs?\n你儿子什么时候打网球？\n\n0:59 2:09 3:18 \nWhen does your son swim?\nwɪn dɪz jʊr sən swɪm?\n你儿子什么时候游泳？\n\n\n\n致老师和学校：\n该视频是根据知识共享许可发布的。\n  CC BY 3.0 https://creativecommons.org/licenses/by/3.0/ \n随时在您的课程中使用此视频！\n\n我们使用Google翻译服务进行本地化。如果您发现一些错误，请告诉我们。\n"
    },
    {
      "Lang": "zh-Hant",
      "Title": "英語語法練習 | 簡單 印度 ⭐️ #60 When?",
      "Description": "學習英語語法！ 更改句子中的單詞。\n\n\n\n0:04 1:16 2:25 \nWhen does he swim?\nwɪn dɪz hi swɪm?\n他什麼時候游泳？\n\n0:18 1:30 2:39 \nWhen does he play tennis?\nwɪn dɪz hi ple ˈtɛnɪs?\n他什麼時候打網球？\n\n0:32 1:43 2:52 \nWhen do you play tennis?\nwɪn du ju ple ˈtɛnɪs?\n你什麼時候打網球？\n\n0:46 1:56 3:05 \nWhen does your son play tennis?\nwɪn dɪz jʊr sən ple ˈtɛnɪs?\n你兒子什麼時候打網球？\n\n0:59 2:09 3:18 \nWhen does your son swim?\nwɪn dɪz jʊr sən swɪm?\n你兒子什麼時候游泳？\n\n\n\n致老師和學校：\n該視頻是根據知識共享許可發布的。\n  CC BY 3.0 https://creativecommons.org/licenses/by/3.0/ \n隨時在您的課程中使用此視頻！\n\n我們使用Google翻譯服務進行本地化。如果您發現一些錯誤，請告訴我們。\n"
    },
    {
      "Lang": "zu",
      "Title": "Ukuzivocavoca kolimi lwesiNgisi | Elula India ⭐️ #60 When?",
      "Description": "Funda uhlelo lolimi lwesiNgisi! Shintsha igama emshweni.\n\n\n\n0:04 1:16 2:25 \nWhen does he swim?\nwɪn dɪz hi swɪm?\nUbhukuda nini?\n\n0:18 1:30 2:39 \nWhen does he play tennis?\nwɪn dɪz hi ple ˈtɛnɪs?\nUyidlala nini ithenisi?\n\n0:32 1:43 2:52 \nWhen do you play tennis?\nwɪn du ju ple ˈtɛnɪs?\nUyidlala nini ithenisi?\n\n0:46 1:56 3:05 \nWhen does your son play tennis?\nwɪn dɪz jʊr sən ple ˈtɛnɪs?\nIndodana yakho idlala nini ithenisi?\n\n0:59 2:09 3:18 \nWhen does your son swim?\nwɪn dɪz jʊr sən swɪm?\nIndodana yakho ibhukuda nini?\n\n\n\nKothisha nasezikoleni:\nLe vidiyo ishicilelwe ngaphansi kwelayisensi yeCreative Commons.\n  CC BY 3.0 https://creativecommons.org/licenses/by/3.0/ \nZizwe ukhululekile ukusebenzisa le vidiyo emakilasini akho!\n\nSisebenzisa insiza ye-Google Humusha ukwenza okwasendaweni. Uma uthola amanye amaphutha, sicela usazise.\n"
    }
  ]
}