{
  "File": "grammar-en-beginner-simple_97_A.mp4",
  "ID": "swddcaFauDE",
  "AudioLang": "en",
  "DefaultLang": "hy",
  "Title": "Անգլերենի քերականական վարժություններ | Պարզ ⭐️ #97 -er",
  "Description": "Իմացեք անգլերեն քերականությունը: Մի նախադասությամբ մի բառ փոխեք:\n\n\n\n0:04 1:13 2:22 \nHe is taller than me\nhi ɪz ˈtɔlər ðən mi\nՆա ինձանից բարձր է\n\n0:18 1:27 2:36 \nHe is taller than my father\nhi ɪz ˈtɔlər ðən maɪ ˈfɑðər\nՆա ավելի բարձր է, քան իմ հայրը\n\n0:31 1:40 2:49 \nHe is younger than my father\nhi ɪz ˈjəŋgər ðən maɪ ˈfɑðər\nՆա իմ հայրից փոքր է\n\n0:44 1:53 3:02 \nHe is older than my father\nhi ɪz ˈoʊldər ðən maɪ ˈfɑðər\nՆա իմ հայրից մեծ է\n\n0:57 2:06 3:15 \nHe is older than me\nhi ɪz ˈoʊldər ðən mi\nՆա ինձանից մեծ է\n\n\n\nՈւսուցիչներին և դպրոցներին.\nԱյս տեսանյութը հրապարակված է Creative Commons արտոնագրի ներքո:\n  CC BY 3.0 https://creativecommons.org/licenses/by/3.0/ \nԱզատորեն օգտվեք այս տեսանյութից ձեր դասերից:\n\nՄենք օգտագործում ենք Google Translate ծառայությունը տեղայնացման համար: Եթե որոշ սխալներ եք գտնում, խնդրում ենք տեղեկացնել մեզ:\n",
  "VideoTags": "Անգլերեն քերականություն,इंग्रजी व्याकरण,ఆంగ్ల వ్యాకరణం,အင်္ဂလိပ်သဒ်ဒါ,영문법,Gramera Englishngilîzî,Gagana Peretania,Grammar Inggris,English grammar,Engleska gramatika,gramática inglesa,Ulimi lwesiNgisi,angol nyelvtan,gramatica engleza,engelsk grammatik",
  "YoutubeSynced": true,
  "ThumbnailUploaded": true,
  "Localizations": [
    {
      "Lang": "af",
      "Title": "Engelse grammatika-oefeninge | eenvoudige ⭐️ #97 -er",
      "Description": "Leer Engelse grammatika! Verander 'n woord in 'n sin.\n\n\n\n0:04 1:13 2:22 \nHe is taller than me\nhi ɪz ˈtɔlər ðən mi\nHy is langer as ek\n\n0:18 1:27 2:36 \nHe is taller than my father\nhi ɪz ˈtɔlər ðən maɪ ˈfɑðər\nHy is langer as my pa\n\n0:31 1:40 2:49 \nHe is younger than my father\nhi ɪz ˈjəŋgər ðən maɪ ˈfɑðər\nHy is jonger as my pa\n\n0:44 1:53 3:02 \nHe is older than my father\nhi ɪz ˈoʊldər ðən maɪ ˈfɑðər\nHy is ouer as my pa\n\n0:57 2:06 3:15 \nHe is older than me\nhi ɪz ˈoʊldər ðən mi\nHy is ouer as ek\n\n\n\nAan onderwysers en skole:\nHierdie video word onder Creative Commons-lisensie gepubliseer.\n  CC BY 3.0 https://creativecommons.org/licenses/by/3.0/ \nGebruik gerus hierdie video in u klasse!\n\nOns gebruik Google Translate-diens vir lokalisering. Laat weet ons as u foute ervaar.\n"
    },
    {
      "Lang": "am",
      "Title": "የእንግሊዝኛ ሰዋሰው ልምምዶች | ቀላል ⭐️ #97 -er",
      "Description": "የእንግሊዝኛ ሰዋስው ይማሩ! በአረፍተ ነገር ውስጥ አንድ ቃል ይለውጡ ፡፡\n\n\n\n0:04 1:13 2:22 \nHe is taller than me\nhi ɪz ˈtɔlər ðən mi\nከእኔ ከፍ ከፍ ብሏል\n\n0:18 1:27 2:36 \nHe is taller than my father\nhi ɪz ˈtɔlər ðən maɪ ˈfɑðər\nእሱ ከአባቴ የበለጠ ነው\n\n0:31 1:40 2:49 \nHe is younger than my father\nhi ɪz ˈjəŋgər ðən maɪ ˈfɑðər\nእሱ ከአባቴ ታናሽ ነው\n\n0:44 1:53 3:02 \nHe is older than my father\nhi ɪz ˈoʊldər ðən maɪ ˈfɑðər\nእሱ ከአባቴ በላይ ነው\n\n0:57 2:06 3:15 \nHe is older than me\nhi ɪz ˈoʊldər ðən mi\nእሱ ከእኔ በዕድሜ የሚበልጥ ነው\n\n\n\nለመምህራን እና ለት / ቤቶች\nይህ ቪዲዮ በ Creative Commons ፈቃድ ስር ታትሟል ፡፡\n  CC BY 3.0 https://creativecommons.org/licenses/by/3.0/ \nይህንን ቪዲዮ በትምህርቶችዎ ውስጥ ለመጠቀም ነፃ ይሁኑ!\n\nለትርጉም የ Google ትርጉም አገልግሎትን እንጠቀማለን። አንዳንድ ስህተቶች ካገኙ እባክዎ ያሳውቁን።\n"
    },
    {
      "Lang": "ar",
      "Title": "تمارين قواعد اللغة الإنجليزية | بسيط ⭐️ #97 -er",
      "Description": "تعلم قواعد اللغة الإنجليزية! تغيير كلمة في جملة.\n\n\n\n0:04 1:13 2:22 \nHe is taller than me\nhi ɪz ˈtɔlər ðən mi\nهو أطول مني\n\n0:18 1:27 2:36 \nHe is taller than my father\nhi ɪz ˈtɔlər ðən maɪ ˈfɑðər\nإنه أطول من والدي\n\n0:31 1:40 2:49 \nHe is younger than my father\nhi ɪz ˈjəŋgər ðən maɪ ˈfɑðər\nهو أصغر من والدي\n\n0:44 1:53 3:02 \nHe is older than my father\nhi ɪz ˈoʊldər ðən maɪ ˈfɑðər\nهو أكبر من والدي\n\n0:57 2:06 3:15 \nHe is older than me\nhi ɪz ˈoʊldər ðən mi\nإنه أكبرمني\n\n\n\nللمعلمين والمدارس:\nتم نشر هذا الفيديو تحت رخصة المشاع الإبداعي.\n  CC BY 3.0 https://creativecommons.org/licenses/by/3.0/ \nلا تتردد في استخدام هذا الفيديو في الفصول الدراسية!\n\nنستخدم خدمة الترجمة من Google للترجمة. إذا وجدت بعض الأخطاء ، يرجى إعلامنا.\n"
    },
    {
      "Lang": "az",
      "Title": "İngilis qrammatikası təlimləri | Sadə ⭐️ #97 -er",
      "Description": "İngilis dili qrammatikasını öyrənin! Bir cümlədə bir söz dəyişdirin.\n\n\n\n0:04 1:13 2:22 \nHe is taller than me\nhi ɪz ˈtɔlər ðən mi\nMəndən hündürdür\n\n0:18 1:27 2:36 \nHe is taller than my father\nhi ɪz ˈtɔlər ðən maɪ ˈfɑðər\nO, atamdan hündürdür\n\n0:31 1:40 2:49 \nHe is younger than my father\nhi ɪz ˈjəŋgər ðən maɪ ˈfɑðər\nAtamdan daha cavandır\n\n0:44 1:53 3:02 \nHe is older than my father\nhi ɪz ˈoʊldər ðən maɪ ˈfɑðər\nAtamdan böyükdür\n\n0:57 2:06 3:15 \nHe is older than me\nhi ɪz ˈoʊldər ðən mi\nMəndən böyükdür\n\n\n\nMüəllimlərə və məktəblərə:\nBu video Creative Commons lisenziyası altında yayımlanıb.\n  CC BY 3.0 https://creativecommons.org/licenses/by/3.0/ \nBu videonu dərslərinizdə istifadə etməkdən çekinmeyin!\n\nLokallaşdırma üçün Google Translate xidmətindən istifadə edirik. Bəzi səhvlər taparsanız, bizə bildirin.\n"
    },
    {
      "Lang": "be",
      "Title": "Граматычныя практыкаванні на англійскай мове | Просты ⭐️ #97 -er",
      "Description": "Вывучайце англійскую граматыку! Змяніце слова ў сказе.\n\n\n\n0:04 1:13 2:22 \nHe is taller than me\nhi ɪz ˈtɔlər ðən mi\nЁн вышэйшы за мяне\n\n0:18 1:27 2:36 \nHe is taller than my father\nhi ɪz ˈtɔlər ðən maɪ ˈfɑðər\nЁн вышэй, чым мой бацька\n\n0:31 1:40 2:49 \nHe is younger than my father\nhi ɪz ˈjəŋgər ðən maɪ ˈfɑðər\nЁн маладзейшы за мой бацька\n\n0:44 1:53 3:02 \nHe is older than my father\nhi ɪz ˈoʊldər ðən maɪ ˈfɑðər\nЁн старэйшы за мой бацька\n\n0:57 2:06 3:15 \nHe is older than me\nhi ɪz ˈoʊldər ðən mi\nЁн старэйшы за мяне\n\n\n\nДля настаўнікаў і школ:\nГэта відэа публікуецца пад ліцэнзіяй Creative Commons.\n  CC BY 3.0 https://creativecommons.org/licenses/by/3.0/ \nНе саромейцеся выкарыстоўваць гэта відэа ў сваіх класах!\n\nМы выкарыстоўваем паслугу Google Translate для лакалізацыі. Калі вы выявілі некаторыя памылкі, калі ласка, паведаміце нам пра гэта.\n"
    },
    {
      "Lang": "bg",
      "Title": "Английски граматически упражнения | прост ⭐️ #97 -er",
      "Description": "Научете английска граматика! Промяна на дума в изречение.\n\n\n\n0:04 1:13 2:22 \nHe is taller than me\nhi ɪz ˈtɔlər ðən mi\nТой е по-висок от мен\n\n0:18 1:27 2:36 \nHe is taller than my father\nhi ɪz ˈtɔlər ðən maɪ ˈfɑðər\nТой е по-висок от баща ми\n\n0:31 1:40 2:49 \nHe is younger than my father\nhi ɪz ˈjəŋgər ðən maɪ ˈfɑðər\nТой е по-млад от баща ми\n\n0:44 1:53 3:02 \nHe is older than my father\nhi ɪz ˈoʊldər ðən maɪ ˈfɑðər\nПо-възрастен е от баща ми\n\n0:57 2:06 3:15 \nHe is older than me\nhi ɪz ˈoʊldər ðən mi\nТой е по-възрастен от мен\n\n\n\nЗа учители и училища:\nТози видеоклип е публикуван под Creative Commons License.\n  CC BY 3.0 https://creativecommons.org/licenses/by/3.0/ \nЧувствайте се свободни да използвате това видео в класовете си!\n\nНие използваме услугата Google Translate за локализация. Ако откриете някои грешки, моля, уведомете ни.\n"
    },
    {
      "Lang": "bn",
      "Title": "ইংরেজি ব্যাকরণ অনুশীলন | সহজ ⭐️ #97 -er",
      "Description": "ইংরেজি ব্যাকরণ শিখুন! একটি বাক্যে একটি শব্দ পরিবর্তন করুন।\n\n\n\n0:04 1:13 2:22 \nHe is taller than me\nhi ɪz ˈtɔlər ðən mi\nতিনি আমার চেয়ে লম্বা\n\n0:18 1:27 2:36 \nHe is taller than my father\nhi ɪz ˈtɔlər ðən maɪ ˈfɑðər\nসে আমার বাবার চেয়ে লম্বা\n\n0:31 1:40 2:49 \nHe is younger than my father\nhi ɪz ˈjəŋgər ðən maɪ ˈfɑðər\nসে আমার বাবার চেয়ে ছোট is\n\n0:44 1:53 3:02 \nHe is older than my father\nhi ɪz ˈoʊldər ðən maɪ ˈfɑðər\nসে আমার বাবার চেয়ে বয়সে বড়\n\n0:57 2:06 3:15 \nHe is older than me\nhi ɪz ˈoʊldər ðən mi\nতিনি আমার চেয়ে পুরোনো হয়\n\n\n\nশিক্ষক এবং বিদ্যালয়ের কাছে:\nএই ভিডিওটি ক্রিয়েটিভ কমন্স লাইসেন্সের আওতায় প্রকাশিত হয়েছে।\n  CC BY 3.0 https://creativecommons.org/licenses/by/3.0/ \nআপনার ক্লাসে এই ভিডিওটি নির্দ্বিধায় ব্যবহার করুন!\n\nআমরা স্থানীয়করণের জন্য গুগল অনুবাদ পরিষেবা ব্যবহার করি। আপনি যদি কিছু ভুল খুঁজে পান তবে দয়া করে আমাদের জানান।\n"
    },
    {
      "Lang": "bs",
      "Title": "Engleske gramatičke vježbe | Jednostavno ⭐️ #97 -er",
      "Description": "Naučite englesku gramatiku! Promenite reč u rečenici.\n\n\n\n0:04 1:13 2:22 \nHe is taller than me\nhi ɪz ˈtɔlər ðən mi\nOn je viši od mene\n\n0:18 1:27 2:36 \nHe is taller than my father\nhi ɪz ˈtɔlər ðən maɪ ˈfɑðər\nOn je viši od mog oca\n\n0:31 1:40 2:49 \nHe is younger than my father\nhi ɪz ˈjəŋgər ðən maɪ ˈfɑðər\nMlađi je od mog oca\n\n0:44 1:53 3:02 \nHe is older than my father\nhi ɪz ˈoʊldər ðən maɪ ˈfɑðər\nStariji je od mog oca\n\n0:57 2:06 3:15 \nHe is older than me\nhi ɪz ˈoʊldər ðən mi\nStariji je od mene\n\n\n\nNastavnicima i školama:\nOvaj video je objavljen pod Creative Commons licencom.\n  CC BY 3.0 https://creativecommons.org/licenses/by/3.0/ \nSlobodno koristite ovaj videozapis u svojim predavanjima!\n\nZa lokalizaciju koristimo uslugu Google Translate. Ako pronađete neke greške, javite nam se.\n"
    },
    {
      "Lang": "ca",
      "Title": "Exercicis de gramàtica anglesa | Senzill ⭐️ #97 -er",
      "Description": "Apreneu gramàtica anglesa! Canvia una paraula en una frase.\n\n\n\n0:04 1:13 2:22 \nHe is taller than me\nhi ɪz ˈtɔlər ðən mi\nÉs més alt que jo\n\n0:18 1:27 2:36 \nHe is taller than my father\nhi ɪz ˈtɔlər ðən maɪ ˈfɑðər\nÉs més alt que el meu pare\n\n0:31 1:40 2:49 \nHe is younger than my father\nhi ɪz ˈjəŋgər ðən maɪ ˈfɑðər\nÉs més jove que el meu pare\n\n0:44 1:53 3:02 \nHe is older than my father\nhi ɪz ˈoʊldər ðən maɪ ˈfɑðər\nÉs més gran que el meu pare\n\n0:57 2:06 3:15 \nHe is older than me\nhi ɪz ˈoʊldər ðən mi\nÉs més gran que jo\n\n\n\nA professors i escoles:\nAquest vídeo es publica sota llicència Creative Commons.\n  CC BY 3.0 https://creativecommons.org/licenses/by/3.0/ \nNo dubteu a utilitzar aquest vídeo a les vostres classes.\n\nUtilitzem el servei de Google Translate per a la localització. Si trobeu alguns errors, feu-nos-ho saber.\n"
    },
    {
      "Lang": "co",
      "Title": "Esercizii di grammatica inglese | Semplice ⭐️ #97 -er",
      "Description": "Amparate a grammatica inglese! Cambia una parolla in una frase.\n\n\n\n0:04 1:13 2:22 \nHe is taller than me\nhi ɪz ˈtɔlər ðən mi\nHè più altu chè mè\n\n0:18 1:27 2:36 \nHe is taller than my father\nhi ɪz ˈtɔlər ðən maɪ ˈfɑðər\nHè u più altu chì u mio babbu\n\n0:31 1:40 2:49 \nHe is younger than my father\nhi ɪz ˈjəŋgər ðən maɪ ˈfɑðər\nHè più ghjuvanottu chè u mio babbu\n\n0:44 1:53 3:02 \nHe is older than my father\nhi ɪz ˈoʊldər ðən maɪ ˈfɑðər\nHè più anticu ca u mo babbu\n\n0:57 2:06 3:15 \nHe is older than me\nhi ɪz ˈoʊldər ðən mi\nHè più vechju ca mè\n\n\n\nÀ i prufessori è à e scole:\nStu video hè publicatu sottu licenza Creative Commons.\n  CC BY 3.0 https://creativecommons.org/licenses/by/3.0/ \nSentitevi liberi d'utilizà stu video in i vostri classi!\n\nUsu u serviziu di Google Translate per a localizazione. Se truvate qualchì sbagli, per piaceci di sapè.\n"
    },
    {
      "Lang": "cs",
      "Title": "Cvičení anglické gramatiky | Jednoduchý ⭐️ #97 -er",
      "Description": "Naučte se anglickou gramatiku! Změňte slovo ve větě.\n\n\n\n0:04 1:13 2:22 \nHe is taller than me\nhi ɪz ˈtɔlər ðən mi\nJe vyšší než já\n\n0:18 1:27 2:36 \nHe is taller than my father\nhi ɪz ˈtɔlər ðən maɪ ˈfɑðər\nJe vyšší než můj otec\n\n0:31 1:40 2:49 \nHe is younger than my father\nhi ɪz ˈjəŋgər ðən maɪ ˈfɑðər\nJe mladší než můj otec\n\n0:44 1:53 3:02 \nHe is older than my father\nhi ɪz ˈoʊldər ðən maɪ ˈfɑðər\nJe starší než můj otec\n\n0:57 2:06 3:15 \nHe is older than me\nhi ɪz ˈoʊldər ðən mi\nJe starší než já\n\n\n\nUčitelům a školám:\nToto video je publikováno pod licencí Creative Commons License.\n  CC BY 3.0 https://creativecommons.org/licenses/by/3.0/ \nNeváhejte použít toto video ve svých třídách!\n\nK lokalizaci používáme službu Google Translate. Pokud narazíte na nějaké chyby, dejte nám prosím vědět.\n"
    },
    {
      "Lang": "cy",
      "Title": "Ymarferion gramadeg Saesneg | Syml ⭐️ #97 -er",
      "Description": "Dysgu gramadeg Saesneg! Newid gair mewn brawddeg.\n\n\n\n0:04 1:13 2:22 \nHe is taller than me\nhi ɪz ˈtɔlər ðən mi\nMae'n dalach na fi\n\n0:18 1:27 2:36 \nHe is taller than my father\nhi ɪz ˈtɔlər ðən maɪ ˈfɑðər\nMae'n dalach na fy nhad\n\n0:31 1:40 2:49 \nHe is younger than my father\nhi ɪz ˈjəŋgər ðən maɪ ˈfɑðər\nMae'n iau na fy nhad\n\n0:44 1:53 3:02 \nHe is older than my father\nhi ɪz ˈoʊldər ðən maɪ ˈfɑðər\nMae'n hŷn na fy nhad\n\n0:57 2:06 3:15 \nHe is older than me\nhi ɪz ˈoʊldər ðən mi\nMae'n hŷn na fi\n\n\n\nI athrawon ac ysgolion:\nCyhoeddir y fideo hon o dan Creative Commons License.\n  CC BY 3.0 https://creativecommons.org/licenses/by/3.0/ \nMae croeso i chi ddefnyddio'r fideo hon yn eich dosbarthiadau!\n\nRydym yn defnyddio gwasanaeth Google Translate ar gyfer lleoleiddio. Os dewch chi o hyd i rai camgymeriadau, rhowch wybod i ni.\n"
    },
    {
      "Lang": "da",
      "Title": "Engelsk grammatikøvelser | Enkel ⭐️ #97 -er",
      "Description": "Lær engelsk grammatik! Skift et ord i en sætning.\n\n\n\n0:04 1:13 2:22 \nHe is taller than me\nhi ɪz ˈtɔlər ðən mi\nHan er højere end mig\n\n0:18 1:27 2:36 \nHe is taller than my father\nhi ɪz ˈtɔlər ðən maɪ ˈfɑðər\nHan er højere end min far\n\n0:31 1:40 2:49 \nHe is younger than my father\nhi ɪz ˈjəŋgər ðən maɪ ˈfɑðər\nHan er yngre end min far\n\n0:44 1:53 3:02 \nHe is older than my father\nhi ɪz ˈoʊldər ðən maɪ ˈfɑðər\nHan er ældre end min far\n\n0:57 2:06 3:15 \nHe is older than me\nhi ɪz ˈoʊldər ðən mi\nHan er ældre end mig\n\n\n\nTil lærere og skoler:\nDenne video er offentliggjort under Creative Commons License.\n  CC BY 3.0 https://creativecommons.org/licenses/by/3.0/ \nBrug gjerne denne video i dine klasser!\n\nVi bruger Google Translate-tjenesten til lokalisering. Hvis du finder nogle fejl, så lad os vide det.\n"
    },
    {
      "Lang": "de",
      "Title": "Englische Grammatikübungen | Einfach ⭐️ #97 -er",
      "Description": "Lerne englische Grammatik! Ändern Sie ein Wort in einem Satz.\n\n\n\n0:04 1:13 2:22 \nHe is taller than me\nhi ɪz ˈtɔlər ðən mi\nEr ist größer als ich\n\n0:18 1:27 2:36 \nHe is taller than my father\nhi ɪz ˈtɔlər ðən maɪ ˈfɑðər\nEr ist größer als mein Vater\n\n0:31 1:40 2:49 \nHe is younger than my father\nhi ɪz ˈjəŋgər ðən maɪ ˈfɑðər\nEr ist jünger als mein Vater\n\n0:44 1:53 3:02 \nHe is older than my father\nhi ɪz ˈoʊldər ðən maɪ ˈfɑðər\nEr ist älter als mein Vater\n\n0:57 2:06 3:15 \nHe is older than me\nhi ɪz ˈoʊldər ðən mi\nEr ist älter als ich\n\n\n\nAn Lehrer und Schulen:\nDieses Video wird unter der Creative Commons License veröffentlicht.\n  CC BY 3.0 https://creativecommons.org/licenses/by/3.0/ \nFühlen Sie sich frei, dieses Video in Ihren Klassen zu verwenden!\n\nWir verwenden den Google Translate-Dienst zur Lokalisierung. Wenn Sie Fehler finden, teilen Sie uns dies bitte mit.\n"
    },
    {
      "Lang": "el",
      "Title": "Αγγλικές ασκήσεις γραμματικής | Απλός ⭐️ #97 -er",
      "Description": "Μάθετε αγγλική γραμματική! Αλλάξτε μια λέξη σε μια πρόταση.\n\n\n\n0:04 1:13 2:22 \nHe is taller than me\nhi ɪz ˈtɔlər ðən mi\nΕίναι ψηλότερο από μένα\n\n0:18 1:27 2:36 \nHe is taller than my father\nhi ɪz ˈtɔlər ðən maɪ ˈfɑðər\nΕίναι ψηλότερος από τον πατέρα μου\n\n0:31 1:40 2:49 \nHe is younger than my father\nhi ɪz ˈjəŋgər ðən maɪ ˈfɑðər\nΕίναι νεότερος από τον πατέρα μου\n\n0:44 1:53 3:02 \nHe is older than my father\nhi ɪz ˈoʊldər ðən maɪ ˈfɑðər\nΕίναι παλαιότερος από τον πατέρα μου\n\n0:57 2:06 3:15 \nHe is older than me\nhi ɪz ˈoʊldər ðən mi\nΕίναι μεγαλύτερος από μένα\n\n\n\nΣτους εκπαιδευτικούς και τα σχολεία:\nΑυτό το βίντεο δημοσιεύεται υπό Creative Commons License.\n  CC BY 3.0 https://creativecommons.org/licenses/by/3.0/ \nΜπορείτε να χρησιμοποιήσετε αυτό το βίντεο στις τάξεις σας!\n\nΧρησιμοποιούμε την υπηρεσία Google Translate για εντοπισμό. Αν βρείτε κάποια λάθη, ενημερώστε μας.\n"
    },
    {
      "Lang": "en",
      "Title": "English grammar exercises | Simple ⭐️ #97 -er",
      "Description": "Learn English grammar! Change a word in a sentence.\n\n\n\n0:04 1:13 2:22 \nHe is taller than me\nhi ɪz ˈtɔlər ðən mi\nHe is taller than me\n\n0:18 1:27 2:36 \nHe is taller than my father\nhi ɪz ˈtɔlər ðən maɪ ˈfɑðər\nHe is taller than my father\n\n0:31 1:40 2:49 \nHe is younger than my father\nhi ɪz ˈjəŋgər ðən maɪ ˈfɑðər\nHe is younger than my father\n\n0:44 1:53 3:02 \nHe is older than my father\nhi ɪz ˈoʊldər ðən maɪ ˈfɑðər\nHe is older than my father\n\n0:57 2:06 3:15 \nHe is older than me\nhi ɪz ˈoʊldər ðən mi\nHe is older than me\n\n\n\nTo teachers and schools:\nThis video is published under Creative Commons License.\n  CC BY 3.0 https://creativecommons.org/licenses/by/3.0/ \nFeel free to use this video in your classes!\n\nWe use Google Translate service for localization. If you find some mistakes, please let us know.\n"
    },
    {
      "Lang": "es",
      "Title": "Ejercicios de gramática inglesa | Sencillo ⭐️ #97 -er",
      "Description": "¡Aprende gramática inglesa! Cambiar una palabra en una oración.\n\n\n\n0:04 1:13 2:22 \nHe is taller than me\nhi ɪz ˈtɔlər ðən mi\nÉl es más alto que yo\n\n0:18 1:27 2:36 \nHe is taller than my father\nhi ɪz ˈtɔlər ðən maɪ ˈfɑðər\nEl es mas alto que mi padre\n\n0:31 1:40 2:49 \nHe is younger than my father\nhi ɪz ˈjəŋgər ðən maɪ ˈfɑðər\nEl es mas joven que mi padre\n\n0:44 1:53 3:02 \nHe is older than my father\nhi ɪz ˈoʊldər ðən maɪ ˈfɑðər\nEl es mayor que mi padre\n\n0:57 2:06 3:15 \nHe is older than me\nhi ɪz ˈoʊldər ðən mi\nÉl es más viejo que yo\n\n\n\nA profesores y escuelas:\nEste video se publica bajo licencia Creative Commons.\n  CC BY 3.0 https://creativecommons.org/licenses/by/3.0/ \n¡Siéntete libre de usar este video en tus clases!\n\nUtilizamos el servicio Google Translate para la localización. Si encuentra algunos errores, háganoslo saber.\n"
    },
    {
      "Lang": "et",
      "Title": "Inglise keele grammatika harjutused | Lihtne ⭐️ #97 -er",
      "Description": "Õpi inglise keele grammatikat! Muutke lauses sõna.\n\n\n\n0:04 1:13 2:22 \nHe is taller than me\nhi ɪz ˈtɔlər ðən mi\nTa on minust pikem\n\n0:18 1:27 2:36 \nHe is taller than my father\nhi ɪz ˈtɔlər ðən maɪ ˈfɑðər\nTa on pikem kui mu isa\n\n0:31 1:40 2:49 \nHe is younger than my father\nhi ɪz ˈjəŋgər ðən maɪ ˈfɑðər\nTa on noorem kui mu isa\n\n0:44 1:53 3:02 \nHe is older than my father\nhi ɪz ˈoʊldər ðən maɪ ˈfɑðər\nTa on vanem kui mu isa\n\n0:57 2:06 3:15 \nHe is older than me\nhi ɪz ˈoʊldər ðən mi\nTa on minust vanem\n\n\n\nÕpetajatele ja koolidele:\nSee video on avaldatud Creative Commonsi litsentsi all.\n  CC BY 3.0 https://creativecommons.org/licenses/by/3.0/ \nKasutage seda videot julgelt oma tundides!\n\nLokaliseerimiseks kasutame Google'i tõlke teenust. Kui leiate vigu, palun andke meile sellest teada.\n"
    },
    {
      "Lang": "eu",
      "Title": "Ingelesezko gramatika ariketak | simple ⭐️ #97 -er",
      "Description": "Ikasi ingelesezko gramatika! Aldatu esaldi batean hitzak.\n\n\n\n0:04 1:13 2:22 \nHe is taller than me\nhi ɪz ˈtɔlər ðən mi\nNi baino altuagoa da\n\n0:18 1:27 2:36 \nHe is taller than my father\nhi ɪz ˈtɔlər ðən maɪ ˈfɑðər\nNire aita baino altuagoa da\n\n0:31 1:40 2:49 \nHe is younger than my father\nhi ɪz ˈjəŋgər ðən maɪ ˈfɑðər\nNire aita baino gazteagoa da\n\n0:44 1:53 3:02 \nHe is older than my father\nhi ɪz ˈoʊldər ðən maɪ ˈfɑðər\nNire aita baino zaharragoa da\n\n0:57 2:06 3:15 \nHe is older than me\nhi ɪz ˈoʊldər ðən mi\nNi baino zaharragoa da\n\n\n\nIrakasleei eta ikastetxeei:\nBideo hau Creative Commons lizentziapean argitaratzen da.\n  CC BY 3.0 https://creativecommons.org/licenses/by/3.0/ \nEz ahaztu bideo hau zure klaseetan erabiltzeko!\n\nGoogle Translate zerbitzua erabiltzen dugu lokalizaziorako. Akats batzuk aurkitzen badituzu, adierazi iezaguzu\n"
    },
    {
      "Lang": "fa",
      "Title": "تمرین های دستور زبان انگلیسی | ساده ⭐️ #97 -er",
      "Description": "گرامر انگلیسی را بیاموزید! یک کلمه را در یک جمله تغییر دهید.\n\n\n\n0:04 1:13 2:22 \nHe is taller than me\nhi ɪz ˈtɔlər ðən mi\nاو از من بلندتر است\n\n0:18 1:27 2:36 \nHe is taller than my father\nhi ɪz ˈtɔlər ðən maɪ ˈfɑðər\nاو قد بلندتر از پدر من است\n\n0:31 1:40 2:49 \nHe is younger than my father\nhi ɪz ˈjəŋgər ðən maɪ ˈfɑðər\nاو از پدر من جوان تر است\n\n0:44 1:53 3:02 \nHe is older than my father\nhi ɪz ˈoʊldər ðən maɪ ˈfɑðər\nاو از پدر من بزرگتر است\n\n0:57 2:06 3:15 \nHe is older than me\nhi ɪz ˈoʊldər ðən mi\nاو از من بزرگتر است\n\n\n\nبه معلمان و مدارس:\nاین ویدیو تحت مجوز Creative Commons منتشر شده است.\n  CC BY 3.0 https://creativecommons.org/licenses/by/3.0/ \nدر استفاده از این فیلم در کلاس های خود احساس راحتی کنید!\n\nما از خدمات Google Translate برای محلی سازی استفاده می کنیم. اگر شما برخی از اشتباهات ، لطفا به ما اطلاع دهید.\n"
    },
    {
      "Lang": "fi",
      "Title": "Englannin kieliopin harjoitukset | Yksinkertainen ⭐️ #97 -er",
      "Description": "Opi englannin kielioppi! Vaihda sana lauseessa.\n\n\n\n0:04 1:13 2:22 \nHe is taller than me\nhi ɪz ˈtɔlər ðən mi\nHän on pitempi kuin minä\n\n0:18 1:27 2:36 \nHe is taller than my father\nhi ɪz ˈtɔlər ðən maɪ ˈfɑðər\nHän on isääni korkeampi\n\n0:31 1:40 2:49 \nHe is younger than my father\nhi ɪz ˈjəŋgər ðən maɪ ˈfɑðər\nHän on nuorempi kuin isäni\n\n0:44 1:53 3:02 \nHe is older than my father\nhi ɪz ˈoʊldər ðən maɪ ˈfɑðər\nHän on vanhempi kuin isäni\n\n0:57 2:06 3:15 \nHe is older than me\nhi ɪz ˈoʊldər ðən mi\nHän on minua vanhempi\n\n\n\nOpettajille ja kouluille:\nTämä video on julkaistu Creative Commons -lisenssillä.\n  CC BY 3.0 https://creativecommons.org/licenses/by/3.0/ \nVoit vapaasti käyttää tätä videota luokissa!\n\nKäytämme lokalisointiin Google Translate -palvelua. Jos löydät virheitä, ota meihin yhteyttä.\n"
    },
    {
      "Lang": "fil",
      "Title": "Pagsasanay sa grammar ng Ingles | Simple ⭐️ #97 -er",
      "Description": "Alamin ang grammar ng Ingles! Baguhin ang isang salita sa isang pangungusap.\n\n\n\n0:04 1:13 2:22 \nHe is taller than me\nhi ɪz ˈtɔlər ðən mi\nMas matangkad siya kaysa sa akin\n\n0:18 1:27 2:36 \nHe is taller than my father\nhi ɪz ˈtɔlər ðən maɪ ˈfɑðər\nMas matangkad siya kaysa sa aking ama\n\n0:31 1:40 2:49 \nHe is younger than my father\nhi ɪz ˈjəŋgər ðən maɪ ˈfɑðər\nSiya ay mas bata kaysa sa aking ama\n\n0:44 1:53 3:02 \nHe is older than my father\nhi ɪz ˈoʊldər ðən maɪ ˈfɑðər\nMas matanda siya sa aking ama\n\n0:57 2:06 3:15 \nHe is older than me\nhi ɪz ˈoʊldər ðən mi\nMas matanda siya sa akin\n\n\n\nSa mga guro at paaralan:\nAng video na ito ay nai-publish sa ilalim ng Lisensya ng Creative Commons.\n  CC BY 3.0 https://creativecommons.org/licenses/by/3.0/ \nHuwag mag-atubiling gamitin ang video na ito sa iyong mga klase!\n\nWe use Google Translate service for localization. If you find some mistakes, please let us know.\n"
    },
    {
      "Lang": "fr",
      "Title": "Exercices de grammaire anglaise | Facile ⭐️ #97 -er",
      "Description": "Apprenez la grammaire anglaise! Changer un mot dans une phrase.\n\n\n\n0:04 1:13 2:22 \nHe is taller than me\nhi ɪz ˈtɔlər ðən mi\nIl est plus grand que moi\n\n0:18 1:27 2:36 \nHe is taller than my father\nhi ɪz ˈtɔlər ðən maɪ ˈfɑðər\nIl est plus grand que mon père\n\n0:31 1:40 2:49 \nHe is younger than my father\nhi ɪz ˈjəŋgər ðən maɪ ˈfɑðər\nIl est plus jeune que mon père\n\n0:44 1:53 3:02 \nHe is older than my father\nhi ɪz ˈoʊldər ðən maɪ ˈfɑðər\nIl est plus âgé que mon père\n\n0:57 2:06 3:15 \nHe is older than me\nhi ɪz ˈoʊldər ðən mi\nIl est plus âgé que moi\n\n\n\nAux enseignants et aux écoles:\nCette vidéo est publiée sous licence Creative Commons.\n  CC BY 3.0 https://creativecommons.org/licenses/by/3.0/ \nN'hésitez pas à utiliser cette vidéo dans vos cours!\n\nNous utilisons le service Google Translate pour la localisation. Si vous trouvez des erreurs, veuillez nous en informer.\n"
    },
    {
      "Lang": "fy",
      "Title": "Ingelske oefeningen foar grammatika | Ienfâldich ⭐️ #97 -er",
      "Description": "Learje Ingelske grammatika! Feroarje in wurd yn in sin.\n\n\n\n0:04 1:13 2:22 \nHe is taller than me\nhi ɪz ˈtɔlər ðən mi\nHy is heger dan my\n\n0:18 1:27 2:36 \nHe is taller than my father\nhi ɪz ˈtɔlər ðən maɪ ˈfɑðər\nHy is heger dan myn heit\n\n0:31 1:40 2:49 \nHe is younger than my father\nhi ɪz ˈjəŋgər ðən maɪ ˈfɑðər\nHy is jonger dan myn heit\n\n0:44 1:53 3:02 \nHe is older than my father\nhi ɪz ˈoʊldər ðən maɪ ˈfɑðər\nHy is âlder dan myn heit\n\n0:57 2:06 3:15 \nHe is older than me\nhi ɪz ˈoʊldər ðən mi\nHy is âlder dan ik\n\n\n\nOan dosinten en skoallen:\nDizze fideo wurdt publisearre ûnder Creative Commons License.\n  CC BY 3.0 https://creativecommons.org/licenses/by/3.0/ \nFiel jo frij om dizze fideo te brûken yn jo klassen!\n\nWy brûke Google Translate tsjinst foar lokalisaasje. As jo wat flaters fine, lit it ús dan witte.\n"
    },
    {
      "Lang": "gd",
      "Title": "Eacarsaichean gràmair Beurla | Gu sìmplidh ⭐️ #97 -er",
      "Description": "Ionnsaich gràmar Beurla! Atharraich facal ann an seantans.\n\n\n\n0:04 1:13 2:22 \nHe is taller than me\nhi ɪz ˈtɔlər ðən mi\nTha e nas àirde na mise\n\n0:18 1:27 2:36 \nHe is taller than my father\nhi ɪz ˈtɔlər ðən maɪ ˈfɑðər\nTha e nas àirde na m ’athair\n\n0:31 1:40 2:49 \nHe is younger than my father\nhi ɪz ˈjəŋgər ðən maɪ ˈfɑðər\nTha e nas òige na m ’athair\n\n0:44 1:53 3:02 \nHe is older than my father\nhi ɪz ˈoʊldər ðən maɪ ˈfɑðər\nTha e nas sine na m ’athair\n\n0:57 2:06 3:15 \nHe is older than me\nhi ɪz ˈoʊldər ðən mi\nTha e nas sine na mise\n\n\n\nDo thidsearan agus sgoiltean:\nTha a ’bhidio seo air fhoillseachadh fo Creative Commons License.\n  CC BY 3.0 https://creativecommons.org/licenses/by/3.0/ \nFaodaidh tu am bhidio seo a chleachdadh anns na clasaichean agad!\n\nBidh sinn a ’cleachdadh seirbheis Google Translate airson sgìreachadh. Ma lorgas tu cuid de mhearachdan, feuch an innis thu dhuinn.\n"
    },
    {
      "Lang": "gl",
      "Title": "Exercicios de gramática inglesa | Sinxelo ⭐️ #97 -er",
      "Description": "Aprende gramática inglesa! Cambia unha palabra nunha frase.\n\n\n\n0:04 1:13 2:22 \nHe is taller than me\nhi ɪz ˈtɔlər ðən mi\nÉ máis alto ca min\n\n0:18 1:27 2:36 \nHe is taller than my father\nhi ɪz ˈtɔlər ðən maɪ ˈfɑðər\nÉ máis alto que meu pai\n\n0:31 1:40 2:49 \nHe is younger than my father\nhi ɪz ˈjəŋgər ðən maɪ ˈfɑðər\nÉ máis novo que meu pai\n\n0:44 1:53 3:02 \nHe is older than my father\nhi ɪz ˈoʊldər ðən maɪ ˈfɑðər\nÉ maior que o meu pai\n\n0:57 2:06 3:15 \nHe is older than me\nhi ɪz ˈoʊldər ðən mi\nÉ máis vello ca min\n\n\n\nPara profesores e colexios:\nEste vídeo está publicado baixo a licenza Creative Commons.\n  CC BY 3.0 https://creativecommons.org/licenses/by/3.0/ \nNon dubides en usar este vídeo nas túas clases.\n\nUsamos o servizo Google Translate para a súa localización. Se atopas algún erro, comunícanos.\n"
    },
    {
      "Lang": "gu",
      "Title": "અંગ્રેજી વ્યાકરણ વ્યાયામ | સરળ ⭐️ #97 -er",
      "Description": "અંગ્રેજી વ્યાકરણ શીખો! એક વાક્યમાં એક શબ્દ બદલો.\n\n\n\n0:04 1:13 2:22 \nHe is taller than me\nhi ɪz ˈtɔlər ðən mi\nતે મારા કરતા lerંચા છે\n\n0:18 1:27 2:36 \nHe is taller than my father\nhi ɪz ˈtɔlər ðən maɪ ˈfɑðər\nતે મારા પિતા કરતા lerંચા છે\n\n0:31 1:40 2:49 \nHe is younger than my father\nhi ɪz ˈjəŋgər ðən maɪ ˈfɑðər\nતે મારા પિતા કરતા નાનો છે\n\n0:44 1:53 3:02 \nHe is older than my father\nhi ɪz ˈoʊldər ðən maɪ ˈfɑðər\nતે મારા પિતા કરતા મોટા છે\n\n0:57 2:06 3:15 \nHe is older than me\nhi ɪz ˈoʊldər ðən mi\nતે મારા કરતા મોટો છે\n\n\n\nશિક્ષકો અને શાળાઓને:\nઆ વિડિઓ ક્રિએટિવ કonsમન્સ લાઇસન્સ હેઠળ પ્રકાશિત છે.\n  CC BY 3.0 https://creativecommons.org/licenses/by/3.0/ \nતમારા વર્ગોમાં આ વિડિઓનો ઉપયોગ કરવા માટે મફત લાગે!\n\nઅમે સ્થાનિકીકરણ માટે Google ભાષાંતર સેવાનો ઉપયોગ કરીએ છીએ. જો તમને કેટલીક ભૂલો લાગે છે, તો કૃપા કરીને અમને જણાવો.\n"
    },
    {
      "Lang": "ha",
      "Title": "Darasi na ilimin nahawu na Turanci | Mai sauki ⭐️ #97 -er",
      "Description": "Koyi ilimin nahawu Turanci! Canja kalma a cikin jumla.\n\n\n\n0:04 1:13 2:22 \nHe is taller than me\nhi ɪz ˈtɔlər ðən mi\nYa fi ni girma\n\n0:18 1:27 2:36 \nHe is taller than my father\nhi ɪz ˈtɔlər ðən maɪ ˈfɑðər\nYa fi mahaifina girma\n\n0:31 1:40 2:49 \nHe is younger than my father\nhi ɪz ˈjəŋgər ðən maɪ ˈfɑðər\nYa girmi mahaifina\n\n0:44 1:53 3:02 \nHe is older than my father\nhi ɪz ˈoʊldər ðən maɪ ˈfɑðər\nYa girmi mahaifina girma\n\n0:57 2:06 3:15 \nHe is older than me\nhi ɪz ˈoʊldər ðən mi\nYa fi ni girma\n\n\n\nGa malamai da makarantu:\nWannan bidiyon an buga shi a ƙarƙashin lasisin Creative Commons.\n  CC BY 3.0 https://creativecommons.org/licenses/by/3.0/ \nJin kyauta don amfani da wannan bidiyon a cikin azuzuwanku!\n\nMuna amfani da sabis na Google Fassara don fassarar. Idan ka sami wasu kurakurai, da fatan za a sanar da mu.\n"
    },
    {
      "Lang": "hi",
      "Title": "अंग्रेजी व्याकरण अभ्यास | सरल ⭐️ #97 -er",
      "Description": "अंग्रेजी व्याकरण जानें! एक वाक्य में एक शब्द बदलें।\n\n\n\n0:04 1:13 2:22 \nHe is taller than me\nhi ɪz ˈtɔlər ðən mi\nवह मुझसे लंबा है\n\n0:18 1:27 2:36 \nHe is taller than my father\nhi ɪz ˈtɔlər ðən maɪ ˈfɑðər\nवह मेरे पिता से लंबे हैं\n\n0:31 1:40 2:49 \nHe is younger than my father\nhi ɪz ˈjəŋgər ðən maɪ ˈfɑðər\nवह मेरे पिता से छोटा है\n\n0:44 1:53 3:02 \nHe is older than my father\nhi ɪz ˈoʊldər ðən maɪ ˈfɑðər\nवह मेरे पिता से बड़े हैं\n\n0:57 2:06 3:15 \nHe is older than me\nhi ɪz ˈoʊldər ðən mi\nवह मुझसे बड़ा है\n\n\n\nशिक्षकों और स्कूलों के लिए:\nयह वीडियो क्रिएटिव कॉमन्स लाइसेंस के तहत प्रकाशित हुआ है।\n  CC BY 3.0 https://creativecommons.org/licenses/by/3.0/ \nअपनी कक्षाओं में इस वीडियो का उपयोग करने के लिए स्वतंत्र महसूस करें!\n\nहम स्थानीयकरण के लिए Google अनुवाद सेवा का उपयोग करते हैं। यदि आप कुछ गलतियाँ पाते हैं, तो कृपया हमें बताएँ।\n"
    },
    {
      "Lang": "hr",
      "Title": "Gramatičke vježbe engleskog jezika | Jednostavan ⭐️ #97 -er",
      "Description": "Naučite englesku gramatiku! Promijenite riječ u rečenici.\n\n\n\n0:04 1:13 2:22 \nHe is taller than me\nhi ɪz ˈtɔlər ðən mi\nOn je viši od mene\n\n0:18 1:27 2:36 \nHe is taller than my father\nhi ɪz ˈtɔlər ðən maɪ ˈfɑðər\nOn je viši od mog oca\n\n0:31 1:40 2:49 \nHe is younger than my father\nhi ɪz ˈjəŋgər ðən maɪ ˈfɑðər\nMlađi je od mog oca\n\n0:44 1:53 3:02 \nHe is older than my father\nhi ɪz ˈoʊldər ðən maɪ ˈfɑðər\nStariji je od mog oca\n\n0:57 2:06 3:15 \nHe is older than me\nhi ɪz ˈoʊldər ðən mi\nStariji je od mene\n\n\n\nNastavnicima i školama:\nOvaj videozapis objavljen je pod licencom Creative Commons.\n  CC BY 3.0 https://creativecommons.org/licenses/by/3.0/ \nSlobodno upotrijebite ovaj videozapis u svojim predavanjima!\n\nZa lokalizaciju koristimo uslugu Google Translate. Ako pronađete neke pogreške, javite nam se.\n"
    },
    {
      "Lang": "hu",
      "Title": "Angol nyelvtan gyakorlatok | Egyszerű ⭐️ #97 -er",
      "Description": "Tanulj angol nyelvtant! Változtasson egy szót egy mondatban.\n\n\n\n0:04 1:13 2:22 \nHe is taller than me\nhi ɪz ˈtɔlər ðən mi\nMagasabb nálam\n\n0:18 1:27 2:36 \nHe is taller than my father\nhi ɪz ˈtɔlər ðən maɪ ˈfɑðər\nMagasabb, mint az apám\n\n0:31 1:40 2:49 \nHe is younger than my father\nhi ɪz ˈjəŋgər ðən maɪ ˈfɑðər\nFiatalabb, mint az apám\n\n0:44 1:53 3:02 \nHe is older than my father\nhi ɪz ˈoʊldər ðən maɪ ˈfɑðər\nIdősebb, mint apám\n\n0:57 2:06 3:15 \nHe is older than me\nhi ɪz ˈoʊldər ðən mi\nŐ idősebb nálam\n\n\n\nTanároknak és iskoláknak:\nEz a videó a Creative Commons License alatt jelenik meg.\n  CC BY 3.0 https://creativecommons.org/licenses/by/3.0/ \nNyugodtan használja ezt a videót az osztályokban!\n\nA lokalizációhoz a Google Translate szolgáltatást használjuk. Ha hibát talál, kérjük, ossza meg velünk.\n"
    },
    {
      "Lang": "hy",
      "Title": "Անգլերենի քերականական վարժություններ | Պարզ ⭐️ #97 -er",
      "Description": "Իմացեք անգլերեն քերականությունը: Մի նախադասությամբ մի բառ փոխեք:\n\n\n\n0:04 1:13 2:22 \nHe is taller than me\nhi ɪz ˈtɔlər ðən mi\nՆա ինձանից բարձր է\n\n0:18 1:27 2:36 \nHe is taller than my father\nhi ɪz ˈtɔlər ðən maɪ ˈfɑðər\nՆա ավելի բարձր է, քան իմ հայրը\n\n0:31 1:40 2:49 \nHe is younger than my father\nhi ɪz ˈjəŋgər ðən maɪ ˈfɑðər\nՆա իմ հայրից փոքր է\n\n0:44 1:53 3:02 \nHe is older than my father\nhi ɪz ˈoʊldər ðən maɪ ˈfɑðər\nՆա իմ հայրից մեծ է\n\n0:57 2:06 3:15 \nHe is older than me\nhi ɪz ˈoʊldər ðən mi\nՆա ինձանից մեծ է\n\n\n\nՈւսուցիչներին և դպրոցներին.\nԱյս տեսանյութը հրապարակված է Creative Commons արտոնագրի ներքո:\n  CC BY 3.0 https://creativecommons.org/licenses/by/3.0/ \nԱզատորեն օգտվեք այս տեսանյութից ձեր դասերից:\n\nՄենք օգտագործում ենք Google Translate ծառայությունը տեղայնացման համար: Եթե որոշ սխալներ եք գտնում, խնդրում ենք տեղեկացնել մեզ:\n"
    },
    {
      "Lang": "id",
      "Title": "Latihan tata bahasa Inggris | Sederhana ⭐️ #97 -er",
      "Description": "Belajar tata bahasa Inggris! Ubah kata dalam kalimat.\n\n\n\n0:04 1:13 2:22 \nHe is taller than me\nhi ɪz ˈtɔlər ðən mi\nDia lebih tinggi dariku\n\n0:18 1:27 2:36 \nHe is taller than my father\nhi ɪz ˈtɔlər ðən maɪ ˈfɑðər\nDia lebih tinggi dari ayahku\n\n0:31 1:40 2:49 \nHe is younger than my father\nhi ɪz ˈjəŋgər ðən maɪ ˈfɑðər\nDia lebih muda dari ayahku\n\n0:44 1:53 3:02 \nHe is older than my father\nhi ɪz ˈoʊldər ðən maɪ ˈfɑðər\nDia lebih tua dari ayahku\n\n0:57 2:06 3:15 \nHe is older than me\nhi ɪz ˈoʊldər ðən mi\nDia lebih tua dariku\n\n\n\nKepada guru dan sekolah:\nVideo ini diterbitkan di bawah Lisensi Creative Commons.\n  CC BY 3.0 https://creativecommons.org/licenses/by/3.0/ \nJangan ragu untuk menggunakan video ini di kelas Anda!\n\nKami menggunakan layanan Google Terjemahan untuk pelokalan. Jika Anda menemukan beberapa kesalahan, beri tahu kami.\n"
    },
    {
      "Lang": "ig",
      "Title": "Ọmụmụ asụsụ ụtọ asụsụ Bekee | Dị Mfe ⭐️ #97 -er",
      "Description": "Muta asusu bekee! Gbanwee okwu na ahịrịokwu.\n\n\n\n0:04 1:13 2:22 \nHe is taller than me\nhi ɪz ˈtɔlər ðən mi\nO toro m elu karịa m\n\n0:18 1:27 2:36 \nHe is taller than my father\nhi ɪz ˈtɔlər ðən maɪ ˈfɑðər\nO toro m karia nna m\n\n0:31 1:40 2:49 \nHe is younger than my father\nhi ɪz ˈjəŋgər ðən maɪ ˈfɑðər\nỌ tọrọ m nna\n\n0:44 1:53 3:02 \nHe is older than my father\nhi ɪz ˈoʊldər ðən maɪ ˈfɑðər\nO ji nna m tọrọ\n\n0:57 2:06 3:15 \nHe is older than me\nhi ɪz ˈoʊldər ðən mi\nỌ tọrọ m\n\n\n\nMaka ndị nkuzi na ụlọ akwụkwọ:\nEdere vidiyo a n'okpuru ikikere Creative Commons.\n  CC BY 3.0 https://creativecommons.org/licenses/by/3.0/ \nNwere onwe gị iji vidiyo a na klaasị gị!\n\nAnyị na-eji ọrụ ntụgharị Google emegharị. Ọ bụrụ n’ịhụ ụfọdụ mmejọ, biko mee ka anyị mara.\n"
    },
    {
      "Lang": "is",
      "Title": "Enskar málfræðiæfingar | Einfalt ⭐️ #97 -er",
      "Description": "Lærðu ensku málfræði! Skiptu um orð í setningu.\n\n\n\n0:04 1:13 2:22 \nHe is taller than me\nhi ɪz ˈtɔlər ðən mi\nHann er hærri en ég\n\n0:18 1:27 2:36 \nHe is taller than my father\nhi ɪz ˈtɔlər ðən maɪ ˈfɑðər\nHann er hærri en faðir minn\n\n0:31 1:40 2:49 \nHe is younger than my father\nhi ɪz ˈjəŋgər ðən maɪ ˈfɑðər\nHann er yngri en faðir minn\n\n0:44 1:53 3:02 \nHe is older than my father\nhi ɪz ˈoʊldər ðən maɪ ˈfɑðər\nHann er eldri en faðir minn\n\n0:57 2:06 3:15 \nHe is older than me\nhi ɪz ˈoʊldər ðən mi\nHann er eldri en ég\n\n\n\nTil kennara og skóla:\nÞetta myndband er birt undir Creative Commons leyfi.\n  CC BY 3.0 https://creativecommons.org/licenses/by/3.0/ \nEkki hika við að nota þetta myndband í bekkjum þínum!\n\nVið notum Google Translate þjónustu til að staðsetja. Láttu okkur vita ef þú finnur fyrir einhverjum mistökum.\n"
    },
    {
      "Lang": "it",
      "Title": "Esercizi di grammatica inglese | Semplice ⭐️ #97 -er",
      "Description": "Impara la grammatica inglese! Cambia una parola in una frase.\n\n\n\n0:04 1:13 2:22 \nHe is taller than me\nhi ɪz ˈtɔlər ðən mi\nLui è più alto di me\n\n0:18 1:27 2:36 \nHe is taller than my father\nhi ɪz ˈtɔlər ðən maɪ ˈfɑðər\nÈ più alto di mio padre\n\n0:31 1:40 2:49 \nHe is younger than my father\nhi ɪz ˈjəŋgər ðən maɪ ˈfɑðər\nÈ più giovane di mio padre\n\n0:44 1:53 3:02 \nHe is older than my father\nhi ɪz ˈoʊldər ðən maɪ ˈfɑðər\nÈ più vecchio di mio padre\n\n0:57 2:06 3:15 \nHe is older than me\nhi ɪz ˈoʊldər ðən mi\nÈ più vecchio di me\n\n\n\nPer insegnanti e scuole:\nQuesto video è pubblicato sotto la licenza Creative Commons.\n  CC BY 3.0 https://creativecommons.org/licenses/by/3.0/ \nSentiti libero di usare questo video nelle tue lezioni!\n\nUtilizziamo il servizio Google Translate per la localizzazione. Se trovi qualche errore, faccelo sapere.\n"
    },
    {
      "Lang": "iw",
      "Title": "תרגילי דקדוק באנגלית | פשוט ⭐️ #97 -er",
      "Description": "למד דקדוק באנגלית! שנה מילה במשפט.\n\n\n\n0:04 1:13 2:22 \nHe is taller than me\nhi ɪz ˈtɔlər ðən mi\nהוא גבוה ממני\n\n0:18 1:27 2:36 \nHe is taller than my father\nhi ɪz ˈtɔlər ðən maɪ ˈfɑðər\nהוא גבוה מאבי\n\n0:31 1:40 2:49 \nHe is younger than my father\nhi ɪz ˈjəŋgər ðən maɪ ˈfɑðər\nהוא צעיר מאבי\n\n0:44 1:53 3:02 \nHe is older than my father\nhi ɪz ˈoʊldər ðən maɪ ˈfɑðər\nהוא מבוגר מאבי\n\n0:57 2:06 3:15 \nHe is older than me\nhi ɪz ˈoʊldər ðən mi\nהוא יותר מבוגר ממני\n\n\n\nלמורים ובתי ספר:\nסרטון זה מתפרסם תחת רישיון Creative Commons.\n  CC BY 3.0 https://creativecommons.org/licenses/by/3.0/ \nאל תהסס להשתמש בסרטון זה בשיעורים שלך!\n\nאנו משתמשים בשירות Google Translate לצורך לוקליזציה. אם אתה מוצא טעויות, אנא הודע לנו על כך.\n"
    },
    {
      "Lang": "ja",
      "Title": "英文法練習 | シンプル ⭐️ #97 -er",
      "Description": "英語の文法を学びましょう！ 文中の単語を変更します。\n\n\n\n0:04 1:13 2:22 \nHe is taller than me\nhi ɪz ˈtɔlər ðən mi\n彼は私より背が高い\n\n0:18 1:27 2:36 \nHe is taller than my father\nhi ɪz ˈtɔlər ðən maɪ ˈfɑðər\n彼は私の父より背が高い\n\n0:31 1:40 2:49 \nHe is younger than my father\nhi ɪz ˈjəŋgər ðən maɪ ˈfɑðər\n彼は私の父より若い\n\n0:44 1:53 3:02 \nHe is older than my father\nhi ɪz ˈoʊldər ðən maɪ ˈfɑðər\n彼は私の父より年上です\n\n0:57 2:06 3:15 \nHe is older than me\nhi ɪz ˈoʊldər ðən mi\n彼は私より年上です\n\n\n\n先生と学校へ：\nこのビデオは、クリエイティブコモンズライセンスの下で公開されています。\n  CC BY 3.0 https://creativecommons.org/licenses/by/3.0/ \nこのビデオをクラスで自由に使用してください！\n\nローカライズにはGoogle翻訳サービスを使用しています。間違いを見つけた場合はお知らせください。\n"
    },
    {
      "Lang": "jv",
      "Title": "Latihan grammar Inggris | Prasaja ⭐️ #97 -er",
      "Description": "Sinau tata basa Inggris! Ngganti tembung sajrone ukara.\n\n\n\n0:04 1:13 2:22 \nHe is taller than me\nhi ɪz ˈtɔlər ðən mi\nDheweke luwih dhuwur tinimbang aku\n\n0:18 1:27 2:36 \nHe is taller than my father\nhi ɪz ˈtɔlər ðən maɪ ˈfɑðər\nDheweke luwih dhuwur tinimbang bapakku\n\n0:31 1:40 2:49 \nHe is younger than my father\nhi ɪz ˈjəŋgər ðən maɪ ˈfɑðər\nDheweke luwih enom tinimbang bapakku\n\n0:44 1:53 3:02 \nHe is older than my father\nhi ɪz ˈoʊldər ðən maɪ ˈfɑðər\nDheweke luwih tuwa tinimbang bapakku\n\n0:57 2:06 3:15 \nHe is older than me\nhi ɪz ˈoʊldər ðən mi\nDheweke luwih tuwa tinimbang aku\n\n\n\nTumrap guru lan sekolah:\nVideo iki diterbitake ing lisensi Creative Commons.\n  CC BY 3.0 https://creativecommons.org/licenses/by/3.0/ \nOjo nggunakake video iki ing kelas sampeyan!\n\nKita nggunakake layanan Google Translate kanggo lokalisasi. Yen sampeyan nemokake sawetara kesalahan, kabari.\n"
    },
    {
      "Lang": "ka",
      "Title": "ინგლისური გრამატიკის სავარჯიშოები | მარტივი ⭐️ #97 -er",
      "Description": "შეიტყვეთ ინგლისური ენის გრამატიკა! წინადადებაში შეცვალეთ სიტყვა.\n\n\n\n0:04 1:13 2:22 \nHe is taller than me\nhi ɪz ˈtɔlər ðən mi\nის ჩემზე გრძელია\n\n0:18 1:27 2:36 \nHe is taller than my father\nhi ɪz ˈtɔlər ðən maɪ ˈfɑðər\nის მამაზე გრძელია\n\n0:31 1:40 2:49 \nHe is younger than my father\nhi ɪz ˈjəŋgər ðən maɪ ˈfɑðər\nის მამაზე ახალგაზრდაა\n\n0:44 1:53 3:02 \nHe is older than my father\nhi ɪz ˈoʊldər ðən maɪ ˈfɑðər\nის მამაზე უფროსია\n\n0:57 2:06 3:15 \nHe is older than me\nhi ɪz ˈoʊldər ðən mi\nის ჩემზე უფროსია\n\n\n\nმასწავლებლებსა და სკოლებს:\nეს ვიდეო გამოქვეყნებულია Creative Commons- ის ლიცენზიით.\n  CC BY 3.0 https://creativecommons.org/licenses/by/3.0/ \nშეგიძლიათ გამოიყენოთ ეს ვიდეო თქვენს კლასებში!\n\nჩვენ ვიყენებთ Google Translate სერვისს ლოკალიზაციისთვის. თუ შეცდომებს იპოვნით, გთხოვთ, შეგვატყობინოთ.\n"
    },
    {
      "Lang": "kk",
      "Title": "Ағылшын грамматикалық жаттығулары | Қарапайым ⭐️ #97 -er",
      "Description": "Ағылшын грамматикасын үйрен! Сөйлемдегі сөзді өзгертіңіз.\n\n\n\n0:04 1:13 2:22 \nHe is taller than me\nhi ɪz ˈtɔlər ðən mi\nОл маған қарағанда ұзын бойлы\n\n0:18 1:27 2:36 \nHe is taller than my father\nhi ɪz ˈtɔlər ðən maɪ ˈfɑðər\nОл менің әкемнен ұзын бойлы\n\n0:31 1:40 2:49 \nHe is younger than my father\nhi ɪz ˈjəŋgər ðən maɪ ˈfɑðər\nОл менің әкемнен жас\n\n0:44 1:53 3:02 \nHe is older than my father\nhi ɪz ˈoʊldər ðən maɪ ˈfɑðər\nОл менің әкемнен үлкен\n\n0:57 2:06 3:15 \nHe is older than me\nhi ɪz ˈoʊldər ðən mi\nОл менен үлкен\n\n\n\nОқытушылар мен мектептерге:\nБұл бейне Creative Commons лицензиясы бойынша жарияланған.\n  CC BY 3.0 https://creativecommons.org/licenses/by/3.0/ \nБұл бейнені өз сабақтарыңызда қолдануға болады!\n\nGoogle Translate қызметін локализациялау үшін қолданамыз. Егер сіз қате тапсаңыз, бізге хабарлаңыз.\n"
    },
    {
      "Lang": "km",
      "Title": "លំហាត់វេយ្យាករណ៍អង់គ្លេស | សាមញ្ញ ⭐️ #97 -er",
      "Description": "រៀនវេយ្យាករណ៍អង់គ្លេស! ផ្លាស់ប្តូរពាក្យនៅក្នុងប្រយោគមួយ។\n\n\n\n0:04 1:13 2:22 \nHe is taller than me\nhi ɪz ˈtɔlər ðən mi\nគាត់ខ្ពស់ជាងខ្ញុំ\n\n0:18 1:27 2:36 \nHe is taller than my father\nhi ɪz ˈtɔlər ðən maɪ ˈfɑðər\nគាត់ខ្ពស់ជាងឪពុកខ្ញុំ\n\n0:31 1:40 2:49 \nHe is younger than my father\nhi ɪz ˈjəŋgər ðən maɪ ˈfɑðər\nគាត់ក្មេងជាងឪពុកខ្ញុំ\n\n0:44 1:53 3:02 \nHe is older than my father\nhi ɪz ˈoʊldər ðən maɪ ˈfɑðər\nគាត់ចាស់ជាងឪពុកខ្ញុំ\n\n0:57 2:06 3:15 \nHe is older than me\nhi ɪz ˈoʊldər ðən mi\nគាត់ចាស់ជាងខ្ញុំ\n\n\n\nជូនដល់គ្រូនិងសាលា៖\nវីដេអូនេះត្រូវបានផ្សព្វផ្សាយក្រោមអាជ្ញាប័ណ្ណច្នៃប្រឌិត។\n  CC BY 3.0 https://creativecommons.org/licenses/by/3.0/ \nសូមប្រើវីដេអូនេះនៅក្នុងថ្នាក់របស់អ្នកដោយឥតគិតថ្លៃ!\n\nយើងប្រើសេវាកម្មបកប្រែហ្គូហ្គលសម្រាប់ការធ្វើមូលដ្ឋានីយកម្ម។ ប្រសិនបើអ្នករកឃើញកំហុសខ្លះសូមប្រាប់ឱ្យយើងដឹង។\n"
    },
    {
      "Lang": "kn",
      "Title": "ಇಂಗ್ಲಿಷ್ ವ್ಯಾಕರಣ ವ್ಯಾಯಾಮ | ಸರಳ ⭐️ #97 -er",
      "Description": "ಇಂಗ್ಲಿಷ್ ವ್ಯಾಕರಣ ಕಲಿಯಿರಿ! ಒಂದು ವಾಕ್ಯದಲ್ಲಿ ಪದವನ್ನು ಬದಲಾಯಿಸಿ.\n\n\n\n0:04 1:13 2:22 \nHe is taller than me\nhi ɪz ˈtɔlər ðən mi\nಅವನು ನನಗಿಂತ ಎತ್ತರ\n\n0:18 1:27 2:36 \nHe is taller than my father\nhi ɪz ˈtɔlər ðən maɪ ˈfɑðər\nಅವನು ನನ್ನ ತಂದೆಗಿಂತ ಎತ್ತರ\n\n0:31 1:40 2:49 \nHe is younger than my father\nhi ɪz ˈjəŋgər ðən maɪ ˈfɑðər\nಅವನು ನನ್ನ ತಂದೆಗಿಂತ ಕಿರಿಯ\n\n0:44 1:53 3:02 \nHe is older than my father\nhi ɪz ˈoʊldər ðən maɪ ˈfɑðər\nಅವನು ನನ್ನ ತಂದೆಗೆ ದೊಡ್ಡವನು\n\n0:57 2:06 3:15 \nHe is older than me\nhi ɪz ˈoʊldər ðən mi\nಅವನು ನನಗಿಂತ ದೊಡ್ಡವನು\n\n\n\nಶಿಕ್ಷಕರು ಮತ್ತು ಶಾಲೆಗಳಿಗೆ:\nಈ ವೀಡಿಯೊವನ್ನು ಕ್ರಿಯೇಟಿವ್ ಕಾಮನ್ಸ್ ಪರವಾನಗಿ ಅಡಿಯಲ್ಲಿ ಪ್ರಕಟಿಸಲಾಗಿದೆ.\n  CC BY 3.0 https://creativecommons.org/licenses/by/3.0/ \nನಿಮ್ಮ ತರಗತಿಗಳಲ್ಲಿ ಈ ವೀಡಿಯೊವನ್ನು ಬಳಸಲು ಹಿಂಜರಿಯಬೇಡಿ!\n\nಸ್ಥಳೀಕರಣಕ್ಕಾಗಿ ನಾವು Google ಅನುವಾದ ಸೇವೆಯನ್ನು ಬಳಸುತ್ತೇವೆ. ನೀವು ಕೆಲವು ತಪ್ಪುಗಳನ್ನು ಕಂಡುಕೊಂಡರೆ, ದಯವಿಟ್ಟು ನಮಗೆ ತಿಳಿಸಿ.\n"
    },
    {
      "Lang": "ko",
      "Title": "영어 문법 연습 | 단순한 ⭐️ #97 -er",
      "Description": "영어 문법 배우기! 문장에서 단어를 변경하십시오.\n\n\n\n0:04 1:13 2:22 \nHe is taller than me\nhi ɪz ˈtɔlər ðən mi\n그는 나보다 키가 크다\n\n0:18 1:27 2:36 \nHe is taller than my father\nhi ɪz ˈtɔlər ðən maɪ ˈfɑðər\n그는 내 아버지보다 키가 크다\n\n0:31 1:40 2:49 \nHe is younger than my father\nhi ɪz ˈjəŋgər ðən maɪ ˈfɑðər\n그는 내 아버지보다 어리다\n\n0:44 1:53 3:02 \nHe is older than my father\nhi ɪz ˈoʊldər ðən maɪ ˈfɑðər\n그는 내 아버지보다 나이가 많다\n\n0:57 2:06 3:15 \nHe is older than me\nhi ɪz ˈoʊldər ðən mi\n그는 나보다 나이가 많다\n\n\n\n교사와 학교 :\n이 비디오는 Creative Commons License에 따라 게시됩니다.\n  CC BY 3.0 https://creativecommons.org/licenses/by/3.0/ \n이 비디오를 수업에 자유롭게 사용하십시오!\n\n현지화를 위해 Google 번역 서비스를 사용합니다. 실수가 있으면 알려주세요.\n"
    },
    {
      "Lang": "ku",
      "Title": "Pratîkên rêzimanê Englishngilîzî | Asan ⭐️ #97 -er",
      "Description": "Gramera Englishngilîzî fêr bibin! Di hevokan de peyvek diguhezin.\n\n\n\n0:04 1:13 2:22 \nHe is taller than me\nhi ɪz ˈtɔlər ðən mi\nEw ji min meztir e\n\n0:18 1:27 2:36 \nHe is taller than my father\nhi ɪz ˈtɔlər ðən maɪ ˈfɑðər\nEw ji bavê min dirêjtir e\n\n0:31 1:40 2:49 \nHe is younger than my father\nhi ɪz ˈjəŋgər ðən maɪ ˈfɑðər\nEw ji bavê min biçûktir e\n\n0:44 1:53 3:02 \nHe is older than my father\nhi ɪz ˈoʊldər ðən maɪ ˈfɑðər\nEw ji bavê min mezintir e\n\n0:57 2:06 3:15 \nHe is older than me\nhi ɪz ˈoʊldər ðən mi\nEw ji min meztir e\n\n\n\nJi mamoste û dibistanan re:\nEv vîdyoyê di bin lîsansa Creative Commons-ê de hatî weşandin.\n  CC BY 3.0 https://creativecommons.org/licenses/by/3.0/ \nHêsan e ku hûn vê vîdyoyê di sinifên xwe de bikar bînin!\n\nEm ji bo herêmbûnê karûbarê Google Translate kar dikin. Heke hûn hin xeletiyan bibînin, ji kerema xwe ji me re agahdar bikin.\n"
    },
    {
      "Lang": "ky",
      "Title": "Англис тилинин грамматикасы боюнча көнүгүүлөр | жөнөкөй ⭐️ #97 -er",
      "Description": "Үйрөнүү Англис тилинин грамматикасы! Сүйлөмдөгү Сөздү өзгөртүү.\n\n\n\n0:04 1:13 2:22 \nHe is taller than me\nhi ɪz ˈtɔlər ðən mi\nАл менден экен\n\n0:18 1:27 2:36 \nHe is taller than my father\nhi ɪz ˈtɔlər ðən maɪ ˈfɑðər\nАл менин атам эмес экен\n\n0:31 1:40 2:49 \nHe is younger than my father\nhi ɪz ˈjəŋgər ðən maɪ ˈfɑðər\nАл менин ата-кичүү\n\n0:44 1:53 3:02 \nHe is older than my father\nhi ɪz ˈoʊldər ðən maɪ ˈfɑðər\nАл менин атам улуу\n\n0:57 2:06 3:15 \nHe is older than me\nhi ɪz ˈoʊldər ðən mi\nАл менден улуу болуп саналат\n\n\n\nмугалимдер жана мектептер үчүн:\nБул көргөзмө Creative Commons лиссиэнсийэ усулуобуйатынан жарыяланат.\n  CC BY 3.0 https://creativecommons.org/licenses/by/3.0/ \nСиздин класстары колдонсо болот!\n\nБиз Google локалдаштыруу үчүн Котормо кызматын пайдаланышат. Эгер кээ бир ката болсо, бизге айтып койуу.\n"
    },
    {
      "Lang": "lb",
      "Title": "Englesch Grammatikübungen | Einfach ⭐️ #97 -er",
      "Description": "Léiert Englesch Grammatik! Ännert e Wuert an engem Saz.\n\n\n\n0:04 1:13 2:22 \nHe is taller than me\nhi ɪz ˈtɔlər ðən mi\nHien ass méi héich wéi ech\n\n0:18 1:27 2:36 \nHe is taller than my father\nhi ɪz ˈtɔlər ðən maɪ ˈfɑðər\nHien ass méi héich wéi mäi Papp\n\n0:31 1:40 2:49 \nHe is younger than my father\nhi ɪz ˈjəŋgər ðən maɪ ˈfɑðər\nHien ass méi jonk wéi mäi Papp\n\n0:44 1:53 3:02 \nHe is older than my father\nhi ɪz ˈoʊldər ðən maɪ ˈfɑðər\nHien ass méi al wéi mäi Papp\n\n0:57 2:06 3:15 \nHe is older than me\nhi ɪz ˈoʊldər ðən mi\nHien ass méi al wéi ech\n\n\n\nUn de Schoulmeeschteren an d'Schoulen:\nDëse Video ass ënner der Creative Commons Lizenz verëffentlecht.\n  CC BY 3.0 https://creativecommons.org/licenses/by/3.0/ \nFillt gratis dësen Video zu Ären Klassen ze benotzen!\n\nMir benotzen den Google Translate Service fir d'Lokalisatioun. Wann Dir e puer Feeler fannt, da sot eis w.e.g.\n"
    },
    {
      "Lang": "lo",
      "Title": "ບົດເຝິກຫັດໄວຍາກອນພາສາອັງກິດ | ງ່າຍດາຍ ⭐️ #97 -er",
      "Description": "ຮຽນຮູ້ຫລັກໄວຍາກອນພາສາອັງກິດ! ປ່ຽນ ຄຳ ສັບໃນປະໂຫຍກ.\n\n\n\n0:04 1:13 2:22 \nHe is taller than me\nhi ɪz ˈtɔlər ðən mi\nລາວແມ່ນສູງກ່ວາຂ້ອຍ\n\n0:18 1:27 2:36 \nHe is taller than my father\nhi ɪz ˈtɔlər ðən maɪ ˈfɑðər\nລາວສູງກວ່າພໍ່ຂອງຂ້ອຍ\n\n0:31 1:40 2:49 \nHe is younger than my father\nhi ɪz ˈjəŋgər ðən maɪ ˈfɑðər\nລາວອາຍຸຍັງນ້ອຍກ່ວາພໍ່ຂອງຂ້ອຍ\n\n0:44 1:53 3:02 \nHe is older than my father\nhi ɪz ˈoʊldər ðən maɪ ˈfɑðər\nລາວມີອາຍຸຫຼາຍກວ່າພໍ່ຂອງຂ້ອຍ\n\n0:57 2:06 3:15 \nHe is older than me\nhi ɪz ˈoʊldər ðən mi\nລາວມີອາຍຸຫລາຍກວ່າຂ້ອຍ\n\n\n\nເຖິງຄູອາຈານແລະໂຮງຮຽນ:\nວິດີໂອນີ້ລົງພາຍໃຕ້ໃບອະນຸຍາດສ້າງສັນ.\n  CC BY 3.0 https://creativecommons.org/licenses/by/3.0/ \nຮູ້ສຶກວ່າບໍ່ເສຍຄ່າທີ່ຈະໃຊ້ວິດີໂອນີ້ໃນຫ້ອງຮຽນຂອງທ່ານ!\n\nພວກເຮົາໃຊ້ບໍລິການ Google Translate ສຳ ລັບການແປພາສາທ້ອງຖິ່ນ. ຖ້າທ່ານພົບຂໍ້ຜິດພາດບາງຢ່າງ, ກະລຸນາແຈ້ງພວກເຮົາ.\n"
    },
    {
      "Lang": "lt",
      "Title": "Anglų kalbos gramatikos pratimai | Paprasta ⭐️ #97 -er",
      "Description": "Išmokite anglų kalbos gramatiką! Pakeiskite žodį sakinyje.\n\n\n\n0:04 1:13 2:22 \nHe is taller than me\nhi ɪz ˈtɔlər ðən mi\nJis aukštesnis už mane\n\n0:18 1:27 2:36 \nHe is taller than my father\nhi ɪz ˈtɔlər ðən maɪ ˈfɑðər\nJis aukštesnis už mano tėvą\n\n0:31 1:40 2:49 \nHe is younger than my father\nhi ɪz ˈjəŋgər ðən maɪ ˈfɑðər\nJis yra jaunesnis už mano tėvą\n\n0:44 1:53 3:02 \nHe is older than my father\nhi ɪz ˈoʊldər ðən maɪ ˈfɑðər\nJis yra vyresnis už mano tėvą\n\n0:57 2:06 3:15 \nHe is older than me\nhi ɪz ˈoʊldər ðən mi\nJis yra vyresnis už mane\n\n\n\nMokytojams ir mokykloms:\nŠis vaizdo įrašas paskelbtas naudojant „Creative Commons“ licenciją.\n  CC BY 3.0 https://creativecommons.org/licenses/by/3.0/ \nNesivaržykite naudotis šiuo vaizdo įrašu savo klasėse!\n\nLokalizavimui naudojame „Google Translate“ paslaugą. Jei radote klaidų, praneškite mums.\n"
    },
    {
      "Lang": "lv",
      "Title": "Angļu valodas gramatikas vingrinājumi | Vienkārši ⭐️ #97 -er",
      "Description": "Mācieties angļu valodas gramatiku! Mainiet vārdu teikumā.\n\n\n\n0:04 1:13 2:22 \nHe is taller than me\nhi ɪz ˈtɔlər ðən mi\nViņš ir garāks par mani\n\n0:18 1:27 2:36 \nHe is taller than my father\nhi ɪz ˈtɔlər ðən maɪ ˈfɑðər\nViņš ir garāks par manu tēvu\n\n0:31 1:40 2:49 \nHe is younger than my father\nhi ɪz ˈjəŋgər ðən maɪ ˈfɑðər\nViņš ir jaunāks par manu tēvu\n\n0:44 1:53 3:02 \nHe is older than my father\nhi ɪz ˈoʊldər ðən maɪ ˈfɑðər\nViņš ir vecāks par manu tēvu\n\n0:57 2:06 3:15 \nHe is older than me\nhi ɪz ˈoʊldər ðən mi\nViņš ir vecāks par mani\n\n\n\nSkolotājiem un skolām:\nŠis video ir publicēts saskaņā ar Creative Commons licenci.\n  CC BY 3.0 https://creativecommons.org/licenses/by/3.0/ \nJūtieties brīvi izmantot šo video savās nodarbībās!\n\nLokalizācijai mēs izmantojam Google Translate pakalpojumu. Ja atrodat dažas kļūdas, lūdzu, paziņojiet mums.\n"
    },
    {
      "Lang": "mg",
      "Title": "Fanatanjahantena anglisy | Simple ⭐️ #97 -er",
      "Description": "Ianaro ny fitsipi-pitenenana anglisy! Manova teny amin'ny fehezanteny iray.\n\n\n\n0:04 1:13 2:22 \nHe is taller than me\nhi ɪz ˈtɔlər ðən mi\nLehibe noho izaho izy\n\n0:18 1:27 2:36 \nHe is taller than my father\nhi ɪz ˈtɔlər ðən maɪ ˈfɑðər\nLehibe noho ny raiko izy\n\n0:31 1:40 2:49 \nHe is younger than my father\nhi ɪz ˈjəŋgər ðən maɪ ˈfɑðər\nIzy noho ny raiko\n\n0:44 1:53 3:02 \nHe is older than my father\nhi ɪz ˈoʊldər ðən maɪ ˈfɑðər\nIzy efa lehibe noho ny raiko\n\n0:57 2:06 3:15 \nHe is older than me\nhi ɪz ˈoʊldər ðən mi\nZokiany noho izaho izy\n\n\n\nHo an'ireo mpampianatra sy sekoly:\nIty horonantsary ity dia navoaka eo ambanin'ny lisansa Creative Commons.\n  CC BY 3.0 https://creativecommons.org/licenses/by/3.0/ \nAza misalasala mampiasa an'io horonantsary io amin'ny kilasinao!\n\nMampiasa ny serivisy Google Translate izahay amin'ny fananganana toerana. Raha mahita hadisoana vitsivitsy ianao dia mba ampahafantaro anay.\n"
    },
    {
      "Lang": "mi",
      "Title": "Mahi whakangungu Ingarihi | He ngawari ⭐️ #97 -er",
      "Description": "Akohia te paanui Ingarihi! Hurihia he kupu ki tetahi rerenga rerenga.\n\n\n\n0:04 1:13 2:22 \nHe is taller than me\nhi ɪz ˈtɔlər ðən mi\nHe tiketike ake ia i ahau\n\n0:18 1:27 2:36 \nHe is taller than my father\nhi ɪz ˈtɔlər ðən maɪ ˈfɑðər\nHe tiketike ake ia i toku papa\n\n0:31 1:40 2:49 \nHe is younger than my father\nhi ɪz ˈjəŋgər ðən maɪ ˈfɑðər\nHe teina ia ia ki toku papa\n\n0:44 1:53 3:02 \nHe is older than my father\nhi ɪz ˈoʊldər ðən maɪ ˈfɑðər\nHe tuakana ia ake i toku papa\n\n0:57 2:06 3:15 \nHe is older than me\nhi ɪz ˈoʊldər ðən mi\nHe pakeke ake ia i ahau\n\n\n\nKi nga kaiako me nga kura:\nKei te whakaputaina tenei ataata i raro i te Raihana Hoahoatanga.\n  CC BY 3.0 https://creativecommons.org/licenses/by/3.0/ \nKia kore e pai ki te whakamahi i tenei ataata i roto i o akomanga!\n\nKa whakamahia e matou he whakamaoritanga a Google mo te whakangao. Mena ka kitea e koe etahi he, tena koa kia mohio.\n"
    },
    {
      "Lang": "mk",
      "Title": "Вежби за граматика на англиски јазик | Едноставно ⭐️ #97 -er",
      "Description": "Дознајте англиска граматика! Променете збор во реченица.\n\n\n\n0:04 1:13 2:22 \nHe is taller than me\nhi ɪz ˈtɔlər ðən mi\nТој е повисок од мене\n\n0:18 1:27 2:36 \nHe is taller than my father\nhi ɪz ˈtɔlər ðən maɪ ˈfɑðər\nТој е повисок од татко ми\n\n0:31 1:40 2:49 \nHe is younger than my father\nhi ɪz ˈjəŋgər ðən maɪ ˈfɑðər\nТој е помлад од татко ми\n\n0:44 1:53 3:02 \nHe is older than my father\nhi ɪz ˈoʊldər ðən maɪ ˈfɑðər\nТој е постар од татко ми\n\n0:57 2:06 3:15 \nHe is older than me\nhi ɪz ˈoʊldər ðən mi\nТој е постар од мене\n\n\n\nДо наставниците и училиштата:\nОва видео е објавено под лиценца Криејтив комонс.\n  CC BY 3.0 https://creativecommons.org/licenses/by/3.0/ \nСлободно можете да го користите ова видео во вашите часови!\n\nНие користиме услуга Google Translate за локализација. Ако најдете некои грешки, ве молиме кажете ни.\n"
    },
    {
      "Lang": "ml",
      "Title": "ഇംഗ്ലീഷ് വ്യാകരണ വ്യായാമങ്ങൾ | ലളിതം ⭐️ #97 -er",
      "Description": "ഇംഗ്ലീഷ് വ്യാകരണം പഠിക്കൂ! ഒരു വാക്യത്തിൽ ഒരു വാക്ക് മാറ്റുക.\n\n\n\n0:04 1:13 2:22 \nHe is taller than me\nhi ɪz ˈtɔlər ðən mi\nഅവൻ എന്നെക്കാൾ ഉയരമുള്ളവനാണ്\n\n0:18 1:27 2:36 \nHe is taller than my father\nhi ɪz ˈtɔlər ðən maɪ ˈfɑðər\nഅവൻ എന്റെ പിതാവിനേക്കാൾ ഉയരമുള്ളവനാണ്\n\n0:31 1:40 2:49 \nHe is younger than my father\nhi ɪz ˈjəŋgər ðən maɪ ˈfɑðər\nഅവൻ എന്റെ പിതാവിനേക്കാൾ ചെറുപ്പമാണ്\n\n0:44 1:53 3:02 \nHe is older than my father\nhi ɪz ˈoʊldər ðən maɪ ˈfɑðər\nഅവൻ എന്റെ പിതാവിനേക്കാൾ മുതിർന്നവനാണ്\n\n0:57 2:06 3:15 \nHe is older than me\nhi ɪz ˈoʊldər ðən mi\nഅവൻ എന്നെക്കാൾ പ്രായമുള്ളവനാണ്\n\n\n\nഅധ്യാപകർക്കും സ്കൂളുകൾക്കും:\nക്രിയേറ്റീവ് കോമൺസ് ലൈസൻസിന് കീഴിൽ ഈ വീഡിയോ പ്രസിദ്ധീകരിച്ചു.\n  CC BY 3.0 https://creativecommons.org/licenses/by/3.0/ \nനിങ്ങളുടെ ക്ലാസുകളിൽ ഈ വീഡിയോ ഉപയോഗിക്കാൻ മടിക്കേണ്ടതില്ല!\n\nപ്രാദേശികവൽക്കരണത്തിനായി ഞങ്ങൾ Google വിവർത്തന സേവനം ഉപയോഗിക്കുന്നു. നിങ്ങൾ ചില തെറ്റുകൾ കണ്ടെത്തുകയാണെങ്കിൽ, ഞങ്ങളെ അറിയിക്കുക.\n"
    },
    {
      "Lang": "mn",
      "Title": "Англи хэлний дүрмийн дасгал | Энгийн ⭐️ #97 -er",
      "Description": "Англи хэлний дүрмийн мэдлэгийг сур! Үгийг өгүүлбэр болгон өөрчил.\n\n\n\n0:04 1:13 2:22 \nHe is taller than me\nhi ɪz ˈtɔlər ðən mi\nТэр надаас өндөр юм\n\n0:18 1:27 2:36 \nHe is taller than my father\nhi ɪz ˈtɔlər ðən maɪ ˈfɑðər\nТэр миний ааваас өндөр\n\n0:31 1:40 2:49 \nHe is younger than my father\nhi ɪz ˈjəŋgər ðən maɪ ˈfɑðər\nТэр миний ааваас залуу\n\n0:44 1:53 3:02 \nHe is older than my father\nhi ɪz ˈoʊldər ðən maɪ ˈfɑðər\nТэр манай ааваас настай\n\n0:57 2:06 3:15 \nHe is older than me\nhi ɪz ˈoʊldər ðən mi\nТэр надаас настай\n\n\n\nБагш, сургуулиудад:\nЭнэ видео нь Creative Commons License лиценз дээр нийтлэгдсэн.\n  CC BY 3.0 https://creativecommons.org/licenses/by/3.0/ \nЭнэ видеог өөрийн ангиудад ашиглах боломжтой шүү!\n\nБид Google Translate үйлчилгээг нутагшуулах зорилгоор ашигладаг. Хэрэв та алдаа олвол бидэнд мэдэгдээрэй.\n"
    },
    {
      "Lang": "mr",
      "Title": "इंग्रजी व्याकरण व्यायाम | सोपे ⭐️ #97 -er",
      "Description": "इंग्रजी व्याकरण जाणून घ्या! एका वाक्यात शब्द बदला.\n\n\n\n0:04 1:13 2:22 \nHe is taller than me\nhi ɪz ˈtɔlər ðən mi\nतो माझ्यापेक्षा उंच आहे\n\n0:18 1:27 2:36 \nHe is taller than my father\nhi ɪz ˈtɔlər ðən maɪ ˈfɑðər\nतो माझ्या वडिलांपेक्षा उंच आहे\n\n0:31 1:40 2:49 \nHe is younger than my father\nhi ɪz ˈjəŋgər ðən maɪ ˈfɑðər\nतो माझ्या वडिलांपेक्षा लहान आहे\n\n0:44 1:53 3:02 \nHe is older than my father\nhi ɪz ˈoʊldər ðən maɪ ˈfɑðər\nतो माझ्या वडिलांपेक्षा मोठा आहे\n\n0:57 2:06 3:15 \nHe is older than me\nhi ɪz ˈoʊldər ðən mi\nतो माझ्यापेक्षा मोठा आहे\n\n\n\nशिक्षक आणि शाळा यांना:\nहा व्हिडिओ क्रिएटिव्ह कॉमन्स परवान्या अंतर्गत प्रकाशित झाला आहे.\n  CC BY 3.0 https://creativecommons.org/licenses/by/3.0/ \nआपल्या वर्गांमध्ये हा व्हिडिओ वापरण्यास मोकळ्या मनाने!\n\nआम्ही स्थानिकीकरणासाठी Google भाषांतर सेवा वापरतो. आपल्याला काही चुका आढळल्यास कृपया आम्हाला कळवा.\n"
    },
    {
      "Lang": "ms",
      "Title": "Latihan tatabahasa Bahasa Inggeris | Mudah ⭐️ #97 -er",
      "Description": "Belajar bahasa Inggeris! Tukar perkataan dalam ayat.\n\n\n\n0:04 1:13 2:22 \nHe is taller than me\nhi ɪz ˈtɔlər ðən mi\nDia lebih tinggi daripada saya\n\n0:18 1:27 2:36 \nHe is taller than my father\nhi ɪz ˈtɔlər ðən maɪ ˈfɑðər\nDia lebih tinggi dari ayah saya\n\n0:31 1:40 2:49 \nHe is younger than my father\nhi ɪz ˈjəŋgər ðən maɪ ˈfɑðər\nDia lebih muda dari ayah saya\n\n0:44 1:53 3:02 \nHe is older than my father\nhi ɪz ˈoʊldər ðən maɪ ˈfɑðər\nDia lebih tua dari ayah saya\n\n0:57 2:06 3:15 \nHe is older than me\nhi ɪz ˈoʊldər ðən mi\nDia lebih tua dari saya\n\n\n\nKepada guru dan sekolah:\nVideo ini diterbitkan di bawah Lesen Creative Commons.\n  CC BY 3.0 https://creativecommons.org/licenses/by/3.0/ \nJangan ragu untuk menggunakan video ini dalam kelas anda!\n\nKami menggunakan perkhidmatan Terjemahan Google untuk penyetempatan. Jika anda mendapati beberapa kesilapan, sila beritahu kami.\n"
    },
    {
      "Lang": "mt",
      "Title": "Eżerċizzji ta 'grammatika Ingliża | Sempliċi ⭐️ #97 -er",
      "Description": "Tgħallem il-grammatika Ingliża! Ibdel kelma f’sentenza.\n\n\n\n0:04 1:13 2:22 \nHe is taller than me\nhi ɪz ˈtɔlər ðən mi\nHuwa ogħla minn tiegħi\n\n0:18 1:27 2:36 \nHe is taller than my father\nhi ɪz ˈtɔlər ðən maɪ ˈfɑðər\nHuwa ogħla minn missieri\n\n0:31 1:40 2:49 \nHe is younger than my father\nhi ɪz ˈjəŋgər ðən maɪ ˈfɑðər\nHuwa iżgħar minn missieri\n\n0:44 1:53 3:02 \nHe is older than my father\nhi ɪz ˈoʊldər ðən maɪ ˈfɑðər\nHuwa anzjan minn missieri\n\n0:57 2:06 3:15 \nHe is older than me\nhi ɪz ˈoʊldər ðən mi\nHuwa anzjan minni\n\n\n\nGħalliema u skejjel:\nDan il-video huwa ppublikat taħt il-Liċenzja Creative Commons.\n  CC BY 3.0 https://creativecommons.org/licenses/by/3.0/ \nĦossok liberu li tuża dan il-video fil-klassijiet tiegħek!\n\nAħna nużaw servizz Google Translate għall-lokalizzazzjoni. Jekk issib xi żbalji, jekk jogħġbok għarrafna.\n"
    },
    {
      "Lang": "my",
      "Title": "အင်္ဂလိပ်သဒ္ဒါလေ့ကျင့်ခန်း | ရိုးရှင်းသော ⭐️ #97 -er",
      "Description": "အင်္ဂလိပ်သဒ္ဒါကိုလေ့လာပါ။ ဝါကျတွင်စကားလုံးတစ်လုံးပြောင်းပါ။\n\n\n\n0:04 1:13 2:22 \nHe is taller than me\nhi ɪz ˈtɔlər ðən mi\nသူကငါထက်အရပ်ရှည်တယ်\n\n0:18 1:27 2:36 \nHe is taller than my father\nhi ɪz ˈtɔlər ðən maɪ ˈfɑðər\nသူကကျွန်တော့်အဖေထက်ပိုတယ်\n\n0:31 1:40 2:49 \nHe is younger than my father\nhi ɪz ˈjəŋgər ðən maɪ ˈfɑðər\nသူကကျွန်တော့်အဖေထက်ငယ်တယ်\n\n0:44 1:53 3:02 \nHe is older than my father\nhi ɪz ˈoʊldər ðən maɪ ˈfɑðər\nသူကကျွန်တော့်အဖေထက်အသက်ကြီးတယ်\n\n0:57 2:06 3:15 \nHe is older than me\nhi ɪz ˈoʊldər ðən mi\nသူကငါ့ထက်အသက်ကြီးတယ်\n\n\n\nဆရာများနှင့်ကျောင်းများသို့\nဒီဗီဒီယိုကို Creative Commons လိုင်စင်အောက်မှာထုတ်ဝေထားတယ်။\n  CC BY 3.0 https://creativecommons.org/licenses/by/3.0/ \nဤဗီဒီယိုကိုသင်၏အတန်းများ၌အခမဲ့အသုံးပြုပါ။\n\nကျွန်ုပ်တို့သည်ဒေသခံဘာသာပြန်အတွက် Google Translate ဝန်ဆောင်မှုကိုအသုံးပြုသည်။ သင်အမှားအယွင်းများအချို့ရှိပါကကျွန်ုပ်တို့အားအသိပေးပါ။\n"
    },
    {
      "Lang": "ne",
      "Title": "अंग्रेजी व्याकरण व्यायाम | सरल ⭐️ #97 -er",
      "Description": "अंग्रेजी व्याकरण सिक्नुहोस्! एक वाक्य मा एक शब्द बदल्नुहोस्।\n\n\n\n0:04 1:13 2:22 \nHe is taller than me\nhi ɪz ˈtɔlər ðən mi\nउहाँ मभन्दा अग्लो हुनुहुन्छ\n\n0:18 1:27 2:36 \nHe is taller than my father\nhi ɪz ˈtɔlər ðən maɪ ˈfɑðər\nउहाँ मेरो बुबा भन्दा अग्लो हुनुहुन्छ\n\n0:31 1:40 2:49 \nHe is younger than my father\nhi ɪz ˈjəŋgər ðən maɪ ˈfɑðər\nउहाँ मेरो बुबा भन्दा कान्छो हुनुहुन्छ\n\n0:44 1:53 3:02 \nHe is older than my father\nhi ɪz ˈoʊldər ðən maɪ ˈfɑðər\nउहाँ मेरो बुबा भन्दा जेठो हुनुहुन्छ\n\n0:57 2:06 3:15 \nHe is older than me\nhi ɪz ˈoʊldər ðən mi\nउहाँ मभन्दा जेठो हुनुहुन्छ\n\n\n\nशिक्षक र विद्यालयहरुलाई:\nयो भिडियो क्रिएटिभ कमन्स लाइसेन्स अन्तर्गत प्रकाशित गरिएको छ।\n  CC BY 3.0 https://creativecommons.org/licenses/by/3.0/ \nतपाईंको कक्षामा यो भिडियो प्रयोग गर्न स्वतन्त्र महसुस गर्नुहोस्!\n\nहामी स्थानीयकरणको लागि गुगल अनुवाद सेवा प्रयोग गर्दछौं। यदि तपाईंले केहि गल्तीहरू फेला पार्नुभयो भने, कृपया हामीलाई खबर गर्नुहोस्।\n"
    },
    {
      "Lang": "nl",
      "Title": "Engelse grammatica-oefeningen | Gemakkelijk ⭐️ #97 -er",
      "Description": "Leer Engelse grammatica! Verander een woord in een zin.\n\n\n\n0:04 1:13 2:22 \nHe is taller than me\nhi ɪz ˈtɔlər ðən mi\nHij is groter dan ik\n\n0:18 1:27 2:36 \nHe is taller than my father\nhi ɪz ˈtɔlər ðən maɪ ˈfɑðər\nHij is langer dan mijn vader\n\n0:31 1:40 2:49 \nHe is younger than my father\nhi ɪz ˈjəŋgər ðən maɪ ˈfɑðər\nHij is jonger dan mijn vader\n\n0:44 1:53 3:02 \nHe is older than my father\nhi ɪz ˈoʊldər ðən maɪ ˈfɑðər\nHij is ouder dan mijn vader\n\n0:57 2:06 3:15 \nHe is older than me\nhi ɪz ˈoʊldər ðən mi\nHij is ouder dan mij\n\n\n\nAan leraren en scholen:\nDeze video is gepubliceerd onder Creative Commons License.\n  CC BY 3.0 https://creativecommons.org/licenses/by/3.0/ \nVoel je vrij om deze video in je lessen te gebruiken!\n\nWe gebruiken de Google Translate-service voor lokalisatie. Laat het ons weten als u fouten ontdekt.\n"
    },
    {
      "Lang": "no",
      "Title": "Engelsk grammatikkøvelser | Enkel ⭐️ #97 -er",
      "Description": "Lær engelsk grammatikk! Endre et ord i en setning.\n\n\n\n0:04 1:13 2:22 \nHe is taller than me\nhi ɪz ˈtɔlər ðən mi\nHan er høyere enn meg\n\n0:18 1:27 2:36 \nHe is taller than my father\nhi ɪz ˈtɔlər ðən maɪ ˈfɑðər\nHan er høyere enn min far\n\n0:31 1:40 2:49 \nHe is younger than my father\nhi ɪz ˈjəŋgər ðən maɪ ˈfɑðər\nHan er yngre enn min far\n\n0:44 1:53 3:02 \nHe is older than my father\nhi ɪz ˈoʊldər ðən maɪ ˈfɑðər\nHan er eldre enn faren min\n\n0:57 2:06 3:15 \nHe is older than me\nhi ɪz ˈoʊldər ðən mi\nHan er eldre enn meg\n\n\n\nTil lærere og skoler:\nDenne videoen er publisert under Creative Commons License.\n  CC BY 3.0 https://creativecommons.org/licenses/by/3.0/ \nBruk gjerne denne videoen i klassene dine!\n\nVi bruker Google Translate-tjenesten for lokalisering. Gi beskjed hvis du finner noen feil.\n"
    },
    {
      "Lang": "pa",
      "Title": "ਅੰਗਰੇਜ਼ੀ ਵਿਆਕਰਣ ਅਭਿਆਸ | ਆਸਾਨ ⭐️ #97 -er",
      "Description": "ਅੰਗਰੇਜ਼ੀ ਵਿਆਕਰਣ ਸਿੱਖੋ! ਇੱਕ ਵਾਕ ਵਿੱਚ ਇੱਕ ਸ਼ਬਦ ਬਦਲੋ.\n\n\n\n0:04 1:13 2:22 \nHe is taller than me\nhi ɪz ˈtɔlər ðən mi\nਉਹ ਮੇਰੇ ਨਾਲੋਂ ਲੰਬਾ ਹੈ\n\n0:18 1:27 2:36 \nHe is taller than my father\nhi ɪz ˈtɔlər ðən maɪ ˈfɑðər\nਉਹ ਮੇਰੇ ਪਿਤਾ ਨਾਲੋਂ ਲੰਬਾ ਹੈ\n\n0:31 1:40 2:49 \nHe is younger than my father\nhi ɪz ˈjəŋgər ðən maɪ ˈfɑðər\nਉਹ ਮੇਰੇ ਪਿਤਾ ਨਾਲੋਂ ਛੋਟਾ ਹੈ\n\n0:44 1:53 3:02 \nHe is older than my father\nhi ɪz ˈoʊldər ðən maɪ ˈfɑðər\nਉਹ ਮੇਰੇ ਪਿਤਾ ਨਾਲੋਂ ਵੱਡਾ ਹੈ\n\n0:57 2:06 3:15 \nHe is older than me\nhi ɪz ˈoʊldər ðən mi\nਉਹ ਮੇਰੇ ਤੋਂ ਵੱਡਾ ਹੈ\n\n\n\nਅਧਿਆਪਕਾਂ ਅਤੇ ਸਕੂਲਾਂ ਨੂੰ:\nਇਹ ਵੀਡੀਓ ਕਰੀਏਟਿਵ ਕਾਮਨਜ਼ ਲਾਇਸੈਂਸ ਅਧੀਨ ਪ੍ਰਕਾਸ਼ਤ ਕੀਤਾ ਗਿਆ ਹੈ.\n  CC BY 3.0 https://creativecommons.org/licenses/by/3.0/ \nਇਸ ਕਲਾਸ ਨੂੰ ਆਪਣੀਆਂ ਕਲਾਸਾਂ ਵਿਚ ਵਰਤਣ ਲਈ ਮੁਫ਼ਤ ਮਹਿਸੂਸ ਕਰੋ!\n\nਅਸੀਂ ਸਥਾਨਕਕਰਨ ਲਈ ਗੂਗਲ ਅਨੁਵਾਦ ਸੇਵਾ ਦੀ ਵਰਤੋਂ ਕਰਦੇ ਹਾਂ. ਜੇ ਤੁਹਾਨੂੰ ਕੁਝ ਗਲਤੀਆਂ ਮਿਲਦੀਆਂ ਹਨ, ਤਾਂ ਕਿਰਪਾ ਕਰਕੇ ਸਾਨੂੰ ਦੱਸੋ.\n"
    },
    {
      "Lang": "pl",
      "Title": "Gramatyka angielska | Prosty ⭐️ #97 -er",
      "Description": "Ucz się gramatyki angielskiej! Zmień słowo w zdaniu.\n\n\n\n0:04 1:13 2:22 \nHe is taller than me\nhi ɪz ˈtɔlər ðən mi\nJest ode mnie wyższy\n\n0:18 1:27 2:36 \nHe is taller than my father\nhi ɪz ˈtɔlər ðən maɪ ˈfɑðər\nJest wyższy niż mój ojciec\n\n0:31 1:40 2:49 \nHe is younger than my father\nhi ɪz ˈjəŋgər ðən maɪ ˈfɑðər\nJest młodszy od mojego ojca\n\n0:44 1:53 3:02 \nHe is older than my father\nhi ɪz ˈoʊldər ðən maɪ ˈfɑðər\nOn jest starszy od mojego ojca\n\n0:57 2:06 3:15 \nHe is older than me\nhi ɪz ˈoʊldər ðən mi\nOn jest starszy ode mnie\n\n\n\nDo nauczycieli i szkół:\nTen film jest opublikowany na licencji Creative Commons.\n  CC BY 3.0 https://creativecommons.org/licenses/by/3.0/ \nZachęcamy do korzystania z tego filmu na zajęciach!\n\nDo lokalizacji używamy usługi Tłumacz Google. Jeśli znajdziesz jakieś błędy, daj nam znać.\n"
    },
    {
      "Lang": "ps",
      "Title": "انګلیسي ګرامر تمرینونه | ساده ⭐️ #97 -er",
      "Description": "انګلیسي ګرامر زده کړئ! یوه جمله په یوه جمله بدله کړئ.\n\n\n\n0:04 1:13 2:22 \nHe is taller than me\nhi ɪz ˈtɔlər ðən mi\nهغه زما څخه لوړ دی\n\n0:18 1:27 2:36 \nHe is taller than my father\nhi ɪz ˈtɔlər ðən maɪ ˈfɑðər\nهغه زما د پلار نه لوړ دی\n\n0:31 1:40 2:49 \nHe is younger than my father\nhi ɪz ˈjəŋgər ðən maɪ ˈfɑðər\nهغه زما له پلار څخه کوچنی دی\n\n0:44 1:53 3:02 \nHe is older than my father\nhi ɪz ˈoʊldər ðən maɪ ˈfɑðər\nهغه زما له پلار څخه مشر دی\n\n0:57 2:06 3:15 \nHe is older than me\nhi ɪz ˈoʊldər ðən mi\nهغه زما څخه مشر دی\n\n\n\nښوونکو او ښوونځیو ته:\nدا ویډیو د کریټیو کامنز لایسنس لاندې خپره شوې ده.\n  CC BY 3.0 https://creativecommons.org/licenses/by/3.0/ \nپه خپلو ټولګیو کې د دې ویډیو کارولو لپاره وړیا احساس وکړئ!\n\nموږ د ځایی کولو لپاره د ګوګل ژباړن خدمت کاروو. که تاسو ځینې غلطۍ ومومئ ، مهرباني وکړئ موږ ته خبر راکړئ.\n"
    },
    {
      "Lang": "pt",
      "Title": "Exercícios de gramática inglesa | Simples ⭐️ #97 -er",
      "Description": "Aprenda gramática inglesa! Mude uma palavra em uma frase.\n\n\n\n0:04 1:13 2:22 \nHe is taller than me\nhi ɪz ˈtɔlər ðən mi\nEle é mais alto do que eu\n\n0:18 1:27 2:36 \nHe is taller than my father\nhi ɪz ˈtɔlər ðən maɪ ˈfɑðər\nEle é mais alto que meu pai\n\n0:31 1:40 2:49 \nHe is younger than my father\nhi ɪz ˈjəŋgər ðən maɪ ˈfɑðər\nEle é mais novo que meu pai\n\n0:44 1:53 3:02 \nHe is older than my father\nhi ɪz ˈoʊldər ðən maɪ ˈfɑðər\nEle é mais velho que meu pai\n\n0:57 2:06 3:15 \nHe is older than me\nhi ɪz ˈoʊldər ðən mi\nEle é mais velho que eu\n\n\n\nPara professores e escolas:\nEste vídeo é publicado sob licença Creative Commons.\n  CC BY 3.0 https://creativecommons.org/licenses/by/3.0/ \nSinta-se livre para usar este vídeo em suas aulas!\n\nUsamos o serviço Google Translate para localização. Se você encontrar algum erro, informe-nos.\n"
    },
    {
      "Lang": "ro",
      "Title": "Exerciții de gramatică engleză | Simplu ⭐️ #97 -er",
      "Description": "Învață gramatica engleză! Schimbă un cuvânt într-o propoziție.\n\n\n\n0:04 1:13 2:22 \nHe is taller than me\nhi ɪz ˈtɔlər ðən mi\nEl e mai inalt decat mine\n\n0:18 1:27 2:36 \nHe is taller than my father\nhi ɪz ˈtɔlər ðən maɪ ˈfɑðər\nEl este mai înalt decât tatăl meu\n\n0:31 1:40 2:49 \nHe is younger than my father\nhi ɪz ˈjəŋgər ðən maɪ ˈfɑðər\nEste mai tânăr decât tatăl meu\n\n0:44 1:53 3:02 \nHe is older than my father\nhi ɪz ˈoʊldər ðən maɪ ˈfɑðər\nEl este mai în vârstă decât tatăl meu\n\n0:57 2:06 3:15 \nHe is older than me\nhi ɪz ˈoʊldər ðən mi\nEl este mai in varsta decat mine\n\n\n\nPentru profesori și școli:\nAcest videoclip este publicat sub licență Creative Commons.\n  CC BY 3.0 https://creativecommons.org/licenses/by/3.0/ \nSimte-te liber să folosești acest videoclip în orele tale!\n\nFolosim serviciul Google Translate pentru localizare. Dacă găsiți unele greșeli, vă rugăm să ne informați.\n"
    },
    {
      "Lang": "ru",
      "Title": "Упражнения по английской грамматике | просто ⭐️ #97 -er",
      "Description": "Изучай английскую грамматику! Изменить слово в предложении.\n\n\n\n0:04 1:13 2:22 \nHe is taller than me\nhi ɪz ˈtɔlər ðən mi\nОн выше меня\n\n0:18 1:27 2:36 \nHe is taller than my father\nhi ɪz ˈtɔlər ðən maɪ ˈfɑðər\nОн выше моего отца\n\n0:31 1:40 2:49 \nHe is younger than my father\nhi ɪz ˈjəŋgər ðən maɪ ˈfɑðər\nОн моложе моего отца\n\n0:44 1:53 3:02 \nHe is older than my father\nhi ɪz ˈoʊldər ðən maɪ ˈfɑðər\nОн старше моего отца\n\n0:57 2:06 3:15 \nHe is older than me\nhi ɪz ˈoʊldər ðən mi\nОн старше меня\n\n\n\nУчителям и школам:\nЭто видео опубликовано под лицензией Creative Commons.\n  CC BY 3.0 https://creativecommons.org/licenses/by/3.0/ \nНе стесняйтесь использовать это видео в своих классах!\n\nМы используем сервис Google Translate для локализации. Если вы обнаружите ошибки, сообщите нам.\n"
    },
    {
      "Lang": "sd",
      "Title": "سنڌي گرامر مشق | سادو ⭐️ #97 -er",
      "Description": "انگريزي گرامر سکو! ھڪ لفظ ۾ ھڪڙي تبديلي آڻيو.\n\n\n\n0:04 1:13 2:22 \nHe is taller than me\nhi ɪz ˈtɔlər ðən mi\nهو مون کان گهڻو ڊگهو آهي\n\n0:18 1:27 2:36 \nHe is taller than my father\nhi ɪz ˈtɔlər ðən maɪ ˈfɑðər\nهو منهنجي پيء کان گهڻو ڊگهو آهي\n\n0:31 1:40 2:49 \nHe is younger than my father\nhi ɪz ˈjəŋgər ðən maɪ ˈfɑðər\nهو منهنجي پيء کان ننڍو آهي\n\n0:44 1:53 3:02 \nHe is older than my father\nhi ɪz ˈoʊldər ðən maɪ ˈfɑðər\nهن چيو ته منهنجي پيء کان به وڏو آهي\n\n0:57 2:06 3:15 \nHe is older than me\nhi ɪz ˈoʊldər ðən mi\nهن کان مون کان اڳوڻو آهي\n\n\n\nاستاد ۽ اسڪولن ڏانهن:\nهيء وڊيو تخليقي العام لائسنس هيٺ شايع ٿيل آهي.\n  CC BY 3.0 https://creativecommons.org/licenses/by/3.0/ \nپنهنجي وڊيوز ۾ هن وڊيو کي استعمال ڪرڻ لاء آزاد ٿيو!\n\nاسان مقامي ڪرڻ لاء گوگل ترجمو سروس استعمال ڪندا آهيون. جيڪڏهن توهان ڪجهه غلطي ڳوليندا آهيو، مهرباني ڪري اسان کي ڄاڻ ڏيو.\n"
    },
    {
      "Lang": "si",
      "Title": "ඉංග්‍රීසි ව්‍යාකරණ අභ්‍යාස | සරල ⭐️ #97 -er",
      "Description": "ඉංග්‍රීසි ව්‍යාකරණ ඉගෙන ගන්න! වාක්‍යයක වචනයක් වෙනස් කරන්න.\n\n\n\n0:04 1:13 2:22 \nHe is taller than me\nhi ɪz ˈtɔlər ðən mi\nඔහු මට වඩා උසයි\n\n0:18 1:27 2:36 \nHe is taller than my father\nhi ɪz ˈtɔlər ðən maɪ ˈfɑðər\nඔහු මගේ පියාට වඩා උසයි\n\n0:31 1:40 2:49 \nHe is younger than my father\nhi ɪz ˈjəŋgər ðən maɪ ˈfɑðər\nඔහු මගේ පියාට වඩා බාලයි\n\n0:44 1:53 3:02 \nHe is older than my father\nhi ɪz ˈoʊldər ðən maɪ ˈfɑðər\nඔහු මගේ පියාට වඩා වයසයි\n\n0:57 2:06 3:15 \nHe is older than me\nhi ɪz ˈoʊldər ðən mi\nඔහු මට වඩා වයසයි\n\n\n\nගුරුවරුන්ට සහ පාසල්වලට:\nමෙම වීඩියෝව නිර්මාණාත්මක පොදු බලපත්‍රය යටතේ ප්‍රකාශයට පත් කෙරේ.\n  CC BY 3.0 https://creativecommons.org/licenses/by/3.0/ \nඔබේ පංතිවල මෙම වීඩියෝව භාවිතා කිරීමට නිදහස් වන්න!\n\nප්‍රාදේශීයකරණය සඳහා අපි ගූගල් පරිවර්තන සේවාව භාවිතා කරමු. ඔබ යම් වැරැද්දක් සොයා ගන්නේ නම්, කරුණාකර අපට දන්වන්න.\n"
    },
    {
      "Lang": "sk",
      "Title": "Anglické gramatické cvičenia | prostý ⭐️ #97 -er",
      "Description": "Naučte sa anglickú gramatiku! Zmeniť slovo vo vete.\n\n\n\n0:04 1:13 2:22 \nHe is taller than me\nhi ɪz ˈtɔlər ðən mi\nJe vyšší ako ja\n\n0:18 1:27 2:36 \nHe is taller than my father\nhi ɪz ˈtɔlər ðən maɪ ˈfɑðər\nJe vyšší ako môj otec\n\n0:31 1:40 2:49 \nHe is younger than my father\nhi ɪz ˈjəŋgər ðən maɪ ˈfɑðər\nJe mladší ako môj otec\n\n0:44 1:53 3:02 \nHe is older than my father\nhi ɪz ˈoʊldər ðən maɪ ˈfɑðər\nJe starší ako môj otec\n\n0:57 2:06 3:15 \nHe is older than me\nhi ɪz ˈoʊldər ðən mi\nJe starší ako ja\n\n\n\nPre učiteľov a školy:\nToto video je publikované pod licenciou Creative Commons License.\n  CC BY 3.0 https://creativecommons.org/licenses/by/3.0/ \nNeváhajte použiť toto video vo svojich triedach!\n\nNa lokalizáciu používame službu Prekladač Google. Ak nájdete nejaké chyby, dajte nám vedieť.\n"
    },
    {
      "Lang": "sl",
      "Title": "Angleške slovnične vaje | Preprosto ⭐️ #97 -er",
      "Description": "Naučite se angleške slovnice! Spremenite besedo v stavku.\n\n\n\n0:04 1:13 2:22 \nHe is taller than me\nhi ɪz ˈtɔlər ðən mi\nJe višji od mene\n\n0:18 1:27 2:36 \nHe is taller than my father\nhi ɪz ˈtɔlər ðən maɪ ˈfɑðər\nJe višji od mojega očeta\n\n0:31 1:40 2:49 \nHe is younger than my father\nhi ɪz ˈjəŋgər ðən maɪ ˈfɑðər\nMlajši je od mojega očeta\n\n0:44 1:53 3:02 \nHe is older than my father\nhi ɪz ˈoʊldər ðən maɪ ˈfɑðər\nStarejši je od mojega očeta\n\n0:57 2:06 3:15 \nHe is older than me\nhi ɪz ˈoʊldər ðən mi\nJe starejši od mene\n\n\n\nUčiteljem in šolam:\nTa videoposnetek je objavljen pod licenco Creative Commons.\n  CC BY 3.0 https://creativecommons.org/licenses/by/3.0/ \nUporabite ta video v svojih razredih!\n\nZa lokalizacijo uporabljamo storitev Google Translate. Če najdete nekaj napak, nas obvestite.\n"
    },
    {
      "Lang": "sm",
      "Title": "Gagana o le gagana Gagana Peretania | Faigofie ⭐️ #97 -er",
      "Description": "Aoao le gagana Gagana Peretania! Sui se upu i se fuaiupu.\n\n\n\n0:04 1:13 2:22 \nHe is taller than me\nhi ɪz ˈtɔlər ðən mi\nE maualuga atu o ia nai lo aʻu\n\n0:18 1:27 2:36 \nHe is taller than my father\nhi ɪz ˈtɔlər ðən maɪ ˈfɑðər\nE maualuga atu o ia nai lo loʻu tama\n\n0:31 1:40 2:49 \nHe is younger than my father\nhi ɪz ˈjəŋgər ðən maɪ ˈfɑðər\nE laʻitiiti o ia nai lo loʻu tama\n\n0:44 1:53 3:02 \nHe is older than my father\nhi ɪz ˈoʊldər ðən maɪ ˈfɑðər\nE matua o ia nai lo loʻu tama\n\n0:57 2:06 3:15 \nHe is older than me\nhi ɪz ˈoʊldər ðən mi\nE matua o ia nai lo aʻu\n\n\n\nI faiaoga ma aʻoga:\nO lenei vitio ua lomia i lalo o le Creative Commons License.\n  CC BY 3.0 https://creativecommons.org/licenses/by/3.0/ \nLagona le saoloto e faʻaaoga lenei vitio i au vasega!\n\nMatou te faʻaaoga le Google Translate auaunaga mo le faʻasalalauga. Afai e te maua ni mea sese, faʻamolemole ia e iloa.\n"
    },
    {
      "Lang": "sn",
      "Title": "Chirungu grammar Exercise | Nyore ⭐️ #97 -er",
      "Description": "Dzidza mutauro wechirungu! Chinja izwi muchirevo.\n\n\n\n0:04 1:13 2:22 \nHe is taller than me\nhi ɪz ˈtɔlər ðən mi\nIye akareba kupfuura ini\n\n0:18 1:27 2:36 \nHe is taller than my father\nhi ɪz ˈtɔlər ðən maɪ ˈfɑðər\nIye akareba kuna baba vangu\n\n0:31 1:40 2:49 \nHe is younger than my father\nhi ɪz ˈjəŋgər ðən maɪ ˈfɑðər\nMudiki kuna baba vangu\n\n0:44 1:53 3:02 \nHe is older than my father\nhi ɪz ˈoʊldər ðən maɪ ˈfɑðər\nIye mukuru kuna baba vangu\n\n0:57 2:06 3:15 \nHe is older than me\nhi ɪz ˈoʊldər ðən mi\nIye mukuru kwandiri\n\n\n\nKune vadzidzisi uye zvikoro:\nVhidhiyo iyi inoburitswa pasi peCreative Commons License.\n  CC BY 3.0 https://creativecommons.org/licenses/by/3.0/ \nInzwa wakasununguka kushandisa iyi vhidhiyo mumakirasi ako!\n\nIsu tinoshandisa Google Dhumiro sevhisi. Kana iwe ukawana zvimwe zvikanganiso, tapota titiudze.\n"
    },
    {
      "Lang": "so",
      "Title": "Jimicsiga naxwaha Ingiriisiga | Fudud ⭐️ #97 -er",
      "Description": "Baro naxwaha Ingiriisiga! U beddelo eray weedh.\n\n\n\n0:04 1:13 2:22 \nHe is taller than me\nhi ɪz ˈtɔlər ðən mi\nWuu iga dheeryahay\n\n0:18 1:27 2:36 \nHe is taller than my father\nhi ɪz ˈtɔlər ðən maɪ ˈfɑðər\nWuu ka dheereeyaa aabahay\n\n0:31 1:40 2:49 \nHe is younger than my father\nhi ɪz ˈjəŋgər ðən maɪ ˈfɑðər\nIsagu wuu ka yaraa aabbahay\n\n0:44 1:53 3:02 \nHe is older than my father\nhi ɪz ˈoʊldər ðən maɪ ˈfɑðər\nIsaga wuu iga weyn yahay aabbahay\n\n0:57 2:06 3:15 \nHe is older than me\nhi ɪz ˈoʊldər ðən mi\nIsaga waa iga weyn yahay\n\n\n\nKu socota macallimiinta iyo iskuulada:\nMuuqaalkan fiidiyaha ah waxaa lagu daabacay hoosta hal-abuurnimada Hal-abuurka.\n  CC BY 3.0 https://creativecommons.org/licenses/by/3.0/ \nXor baad u leedahay inaad fiidiyaha u isticmaasho fasalladaaga!\n\nWaxaan u adeegsanaa adeega Google tarjumaha si aan ugu tarjunno. Hadaad khaladaad hesho, fadlan nala socodsii.\n"
    },
    {
      "Lang": "sq",
      "Title": "Ushtrime gramatikore angleze | i thjeshtë ⭐️ #97 -er",
      "Description": "Mësoni gramatikën angleze! Ndryshoni një fjalë në një fjali.\n\n\n\n0:04 1:13 2:22 \nHe is taller than me\nhi ɪz ˈtɔlər ðən mi\nAi është më i gjatë se unë\n\n0:18 1:27 2:36 \nHe is taller than my father\nhi ɪz ˈtɔlər ðən maɪ ˈfɑðər\nAi është më i gjatë se babai im\n\n0:31 1:40 2:49 \nHe is younger than my father\nhi ɪz ˈjəŋgər ðən maɪ ˈfɑðər\nAi është më i ri se babai im\n\n0:44 1:53 3:02 \nHe is older than my father\nhi ɪz ˈoʊldər ðən maɪ ˈfɑðər\nAi është më i vjetër se babai im\n\n0:57 2:06 3:15 \nHe is older than me\nhi ɪz ˈoʊldər ðən mi\nAi është më i vjetër se unë\n\n\n\nPër mësuesit dhe shkollat:\nKjo video është botuar nën licencën Creative Commons.\n  CC BY 3.0 https://creativecommons.org/licenses/by/3.0/ \nMos ngurroni të përdorni këtë video në klasat tuaja!\n\nNe përdorim shërbimin Google Translate për lokalizimin. Nëse gjeni disa gabime, ju lutemi na tregoni.\n"
    },
    {
      "Lang": "sr",
      "Title": "Вежбе енглеске граматике | Једноставно ⭐️ #97 -er",
      "Description": "Научите енглеску граматику! Промените реч у реченици.\n\n\n\n0:04 1:13 2:22 \nHe is taller than me\nhi ɪz ˈtɔlər ðən mi\nОн је виши од мене\n\n0:18 1:27 2:36 \nHe is taller than my father\nhi ɪz ˈtɔlər ðən maɪ ˈfɑðər\nОн је виши од мог оца\n\n0:31 1:40 2:49 \nHe is younger than my father\nhi ɪz ˈjəŋgər ðən maɪ ˈfɑðər\nМлађи је од мог оца\n\n0:44 1:53 3:02 \nHe is older than my father\nhi ɪz ˈoʊldər ðən maɪ ˈfɑðər\nСтарији је од мог оца\n\n0:57 2:06 3:15 \nHe is older than me\nhi ɪz ˈoʊldər ðən mi\nСтарији је од мене\n\n\n\nНаставницима и школама:\nОвај видео је објављен под Цреативе Цоммонс лиценцом.\n  CC BY 3.0 https://creativecommons.org/licenses/by/3.0/ \nСлободно користите овај видеозапис у својим предавањима!\n\nЗа локализацију користимо услугу Гоогле Транслате. Ако нађете неке грешке, јавите нам се.\n"
    },
    {
      "Lang": "st",
      "Title": "Boikoetliso ba puo ea Senyesemane | E bonolo ⭐️ #97 -er",
      "Description": "Ithute puo ea Senyesemane! Fetola lentsoe polelo.\n\n\n\n0:04 1:13 2:22 \nHe is taller than me\nhi ɪz ˈtɔlər ðən mi\nO molelele ho mpheta\n\n0:18 1:27 2:36 \nHe is taller than my father\nhi ɪz ˈtɔlər ðən maɪ ˈfɑðər\nO molelele ho feta ntate\n\n0:31 1:40 2:49 \nHe is younger than my father\nhi ɪz ˈjəŋgər ðən maɪ ˈfɑðər\nO monyane ho ntate\n\n0:44 1:53 3:02 \nHe is older than my father\nhi ɪz ˈoʊldər ðən maɪ ˈfɑðər\nO moholo ho ntate oa ka\n\n0:57 2:06 3:15 \nHe is older than me\nhi ɪz ˈoʊldər ðən mi\nO moholo ho nna\n\n\n\nHo matichere le likolo:\nVideo ena e phatlalalitsoe tlas'a Creative Commons License.\n  CC BY 3.0 https://creativecommons.org/licenses/by/3.0/ \nIkutloe u lokolohile ho sebelisa video ena litlelaseng tsa hau!\n\nRe sebelisa tšebeletso ea Google Tafsiri bakeng sa lehae. Haeba u fumana liphoso, ka kopo re tsebise.\n"
    },
    {
      "Lang": "su",
      "Title": "Latihan tata basa Inggris | Basajan ⭐️ #97 -er",
      "Description": "Diajar grammar Inggris! Ngarobih kecap dina hiji kalimat.\n\n\n\n0:04 1:13 2:22 \nHe is taller than me\nhi ɪz ˈtɔlər ðən mi\nAnjeunna langkung jangkung ti kuring\n\n0:18 1:27 2:36 \nHe is taller than my father\nhi ɪz ˈtɔlər ðən maɪ ˈfɑðər\nAnjeunna jangkung tibatan bapa kuring\n\n0:31 1:40 2:49 \nHe is younger than my father\nhi ɪz ˈjəŋgər ðən maɪ ˈfɑðər\nAnjeunna langkung ngora ti bapa\n\n0:44 1:53 3:02 \nHe is older than my father\nhi ɪz ˈoʊldər ðən maɪ ˈfɑðər\nAnjeunna langkung kolot ti bapa kuring\n\n0:57 2:06 3:15 \nHe is older than me\nhi ɪz ˈoʊldər ðən mi\nAnjeunna langkung kolot ti kuring\n\n\n\nPikeun guru sareng sakola:\nPidéo ieu dikaluarkeun dina Lisensi Lisénsi Creative Commons.\n  CC BY 3.0 https://creativecommons.org/licenses/by/3.0/ \nTong ngosongkeun pidéo ieu di kelas!\n\nKami nganggo jasa Google Translate pikeun lokalisasi. Upami anjeun mendakan sababaraha kasalahan, punten terangkeun ka urang.\n"
    },
    {
      "Lang": "sv",
      "Title": "Engelska grammatiska övningar | Enkel ⭐️ #97 -er",
      "Description": "Lär dig engelska grammatik! Ändra ett ord i en mening.\n\n\n\n0:04 1:13 2:22 \nHe is taller than me\nhi ɪz ˈtɔlər ðən mi\nHan är längre än mig\n\n0:18 1:27 2:36 \nHe is taller than my father\nhi ɪz ˈtɔlər ðən maɪ ˈfɑðər\nHan är längre än min far\n\n0:31 1:40 2:49 \nHe is younger than my father\nhi ɪz ˈjəŋgər ðən maɪ ˈfɑðər\nHan är yngre än min far\n\n0:44 1:53 3:02 \nHe is older than my father\nhi ɪz ˈoʊldər ðən maɪ ˈfɑðər\nHan är äldre än min far\n\n0:57 2:06 3:15 \nHe is older than me\nhi ɪz ˈoʊldər ðən mi\nHan är äldre än mig\n\n\n\nTill lärare och skolor:\nDenna video publiceras under Creative Commons License.\n  CC BY 3.0 https://creativecommons.org/licenses/by/3.0/ \nAnvänd gärna den här videon i dina klasser!\n\nVi använder Google Translate-tjänst för lokalisering. Låt oss veta om du hittar några misstag.\n"
    },
    {
      "Lang": "sw",
      "Title": "Mazoezi ya sarufi ya Kiingereza | Rahisi ⭐️ #97 -er",
      "Description": "Jifunze sarufi ya Kiingereza! Badilisha neno katika sentensi.\n\n\n\n0:04 1:13 2:22 \nHe is taller than me\nhi ɪz ˈtɔlər ðən mi\nYeye ni mrefu zaidi kuliko mimi\n\n0:18 1:27 2:36 \nHe is taller than my father\nhi ɪz ˈtɔlər ðən maɪ ˈfɑðər\nYeye ni mrefu kuliko baba yangu\n\n0:31 1:40 2:49 \nHe is younger than my father\nhi ɪz ˈjəŋgər ðən maɪ ˈfɑðər\nYeye ni mdogo kuliko baba yangu\n\n0:44 1:53 3:02 \nHe is older than my father\nhi ɪz ˈoʊldər ðən maɪ ˈfɑðər\nYeye ni mzee kuliko baba yangu\n\n0:57 2:06 3:15 \nHe is older than me\nhi ɪz ˈoʊldər ðən mi\nYeye ni mzee kuliko mimi\n\n\n\nKwa waalimu na shule:\nVideo hii imechapishwa chini ya Leseni ya Creative Commons.\n  CC BY 3.0 https://creativecommons.org/licenses/by/3.0/ \nJisikie huru kutumia video hii kwenye darasa lako!\n\nTunatumia huduma ya Tafsiri ya Google kwa ujanibishaji. Ikiwa utapata makosa, tafadhali tujulishe.\n"
    },
    {
      "Lang": "ta",
      "Title": "ஆங்கில இலக்கண பயிற்சிகள் | எளிய ⭐️ #97 -er",
      "Description": "ஆங்கில இலக்கணம் கற்றுக்கொள்ளுங்கள்! ஒரு வாக்கியத்தில் ஒரு வார்த்தையை மாற்றவும்.\n\n\n\n0:04 1:13 2:22 \nHe is taller than me\nhi ɪz ˈtɔlər ðən mi\nஅவர் என்னை விட உயரமானவர்\n\n0:18 1:27 2:36 \nHe is taller than my father\nhi ɪz ˈtɔlər ðən maɪ ˈfɑðər\nஅவர் என் தந்தையை விட உயரமானவர்\n\n0:31 1:40 2:49 \nHe is younger than my father\nhi ɪz ˈjəŋgər ðən maɪ ˈfɑðər\nஅவர் என் தந்தையை விட இளையவர்\n\n0:44 1:53 3:02 \nHe is older than my father\nhi ɪz ˈoʊldər ðən maɪ ˈfɑðər\nஅவர் என் தந்தையை விட மூத்தவர்\n\n0:57 2:06 3:15 \nHe is older than me\nhi ɪz ˈoʊldər ðən mi\nஅவர் என்னை விட வயதானவர்\n\n\n\nஆசிரியர்கள் மற்றும் பள்ளிகளுக்கு:\nஇந்த வீடியோ கிரியேட்டிவ் காமன்ஸ் உரிமத்தின் கீழ் வெளியிடப்பட்டுள்ளது.\n  CC BY 3.0 https://creativecommons.org/licenses/by/3.0/ \nஉங்கள் வகுப்புகளில் இந்த வீடியோவைப் பயன்படுத்த தயங்காதீர்கள்!\n\nஉள்ளூர்மயமாக்க Google மொழிபெயர்ப்பு சேவையைப் பயன்படுத்துகிறோம். நீங்கள் சில தவறுகளைக் கண்டால், எங்களுக்குத் தெரியப்படுத்துங்கள்.\n"
    },
    {
      "Lang": "te",
      "Title": "ఇంగ్లీష్ వ్యాకరణ వ్యాయామాలు | సాధారణ ⭐️ #97 -er",
      "Description": "ఇంగ్లీష్ వ్యాకరణం నేర్చుకోండి! ఒక వాక్యంలో ఒక పదాన్ని మార్చండి.\n\n\n\n0:04 1:13 2:22 \nHe is taller than me\nhi ɪz ˈtɔlər ðən mi\nఅతను నాకన్నా ఎత్తు\n\n0:18 1:27 2:36 \nHe is taller than my father\nhi ɪz ˈtɔlər ðən maɪ ˈfɑðər\nఅతను నా తండ్రి కంటే ఎత్తుగా ఉన్నాడు\n\n0:31 1:40 2:49 \nHe is younger than my father\nhi ɪz ˈjəŋgər ðən maɪ ˈfɑðər\nఅతను నా తండ్రి కంటే చిన్నవాడు\n\n0:44 1:53 3:02 \nHe is older than my father\nhi ɪz ˈoʊldər ðən maɪ ˈfɑðər\nఅతను నా తండ్రి కంటే పెద్దవాడు\n\n0:57 2:06 3:15 \nHe is older than me\nhi ɪz ˈoʊldər ðən mi\nఅతను నాకన్నా పెద్దవాడు\n\n\n\nఉపాధ్యాయులకు మరియు పాఠశాలలకు:\nఈ వీడియో క్రియేటివ్ కామన్స్ లైసెన్స్ క్రింద ప్రచురించబడింది.\n  CC BY 3.0 https://creativecommons.org/licenses/by/3.0/ \nమీ తరగతుల్లో ఈ వీడియోను ఉపయోగించడానికి సంకోచించకండి!\n\nస్థానికీకరణ కోసం మేము Google అనువాద సేవను ఉపయోగిస్తాము. మీరు కొన్ని తప్పులు కనుగొంటే, దయచేసి మాకు తెలియజేయండి.\n"
    },
    {
      "Lang": "tg",
      "Title": "Машқҳои грамматикаи забони англисӣ | Оддӣ ⭐️ #97 -er",
      "Description": "Грамматикаи забони англисиро омӯзед! Калимаро дар як ҷумла иваз кунед.\n\n\n\n0:04 1:13 2:22 \nHe is taller than me\nhi ɪz ˈtɔlər ðən mi\nВай аз ман баландтар аст\n\n0:18 1:27 2:36 \nHe is taller than my father\nhi ɪz ˈtɔlər ðən maɪ ˈfɑðər\nВай аз падари ман баландтар аст\n\n0:31 1:40 2:49 \nHe is younger than my father\nhi ɪz ˈjəŋgər ðən maɪ ˈfɑðər\nВай аз падари ман ҷавонтар аст\n\n0:44 1:53 3:02 \nHe is older than my father\nhi ɪz ˈoʊldər ðən maɪ ˈfɑðər\nВай аз падари ман калонтар аст\n\n0:57 2:06 3:15 \nHe is older than me\nhi ɪz ˈoʊldər ðən mi\nВай аз ман калонтар аст\n\n\n\nБа муаллимон ва мактабҳо:\nИн видео зери иҷозатномаи Creative Commons нашр шудааст.\n  CC BY 3.0 https://creativecommons.org/licenses/by/3.0/ \nИн видеоро дар дарсҳои худ истифода баред!\n\nМо барои локализатсия аз хидмати Google Translate истифода мебарем. Агар шумо ягон хатогӣ дарёфт кунед, лутфан ба мо хабар диҳед.\n"
    },
    {
      "Lang": "th",
      "Title": "แบบฝึกหัดไวยากรณ์ภาษาอังกฤษ | ง่าย ⭐️ #97 -er",
      "Description": "เรียนรู้ไวยากรณ์ภาษาอังกฤษ! เปลี่ยนคำในประโยค\n\n\n\n0:04 1:13 2:22 \nHe is taller than me\nhi ɪz ˈtɔlər ðən mi\nเขาสูงกว่าฉัน\n\n0:18 1:27 2:36 \nHe is taller than my father\nhi ɪz ˈtɔlər ðən maɪ ˈfɑðər\nเขาสูงกว่าพ่อของฉัน\n\n0:31 1:40 2:49 \nHe is younger than my father\nhi ɪz ˈjəŋgər ðən maɪ ˈfɑðər\nเขาอายุน้อยกว่าพ่อของฉัน\n\n0:44 1:53 3:02 \nHe is older than my father\nhi ɪz ˈoʊldər ðən maɪ ˈfɑðər\nเขาแก่กว่าพ่อของฉัน\n\n0:57 2:06 3:15 \nHe is older than me\nhi ɪz ˈoʊldər ðən mi\nเขาแก่กว่าฉัน\n\n\n\nถึงครูและโรงเรียน:\nวิดีโอนี้เผยแพร่ภายใต้สัญญาอนุญาตครีเอทีฟคอมมอนส์\n  CC BY 3.0 https://creativecommons.org/licenses/by/3.0/ \nอย่าลังเลที่จะใช้วิดีโอนี้ในชั้นเรียนของคุณ!\n\nเราใช้บริการ Google แปลภาษาเพื่อการแปล หากคุณพบข้อผิดพลาดบางอย่างโปรดแจ้งให้เราทราบ\n"
    },
    {
      "Lang": "tr",
      "Title": "İngilizce gramer çalışmaları | Basit ⭐️ #97 -er",
      "Description": "İngilizce gramerini öğren! Bir cümle içindeki bir kelimeyi değiştirin.\n\n\n\n0:04 1:13 2:22 \nHe is taller than me\nhi ɪz ˈtɔlər ðən mi\nO benden daha uzun\n\n0:18 1:27 2:36 \nHe is taller than my father\nhi ɪz ˈtɔlər ðən maɪ ˈfɑðər\nBabamdan daha uzun\n\n0:31 1:40 2:49 \nHe is younger than my father\nhi ɪz ˈjəŋgər ðən maɪ ˈfɑðər\nO babamdan daha genç\n\n0:44 1:53 3:02 \nHe is older than my father\nhi ɪz ˈoʊldər ðən maɪ ˈfɑðər\nO babamdan daha yaşlı\n\n0:57 2:06 3:15 \nHe is older than me\nhi ɪz ˈoʊldər ðən mi\nO benden yaşlı\n\n\n\nÖğretmenlere ve okullara:\nBu video Creative Commons License. Altında yayınlandı.\n  CC BY 3.0 https://creativecommons.org/licenses/by/3.0/ \nBu videoyu derslerinizde kullanmaktan çekinmeyin!\n\nYerelleştirme için Google Çeviri hizmetini kullanıyoruz. Bazı hatalar bulursanız lütfen bize bildirin.\n"
    },
    {
      "Lang": "uk",
      "Title": "Граматичні вправи з англійської мови | Простий ⭐️ #97 -er",
      "Description": "Вивчіть англійську граматику! Змініть слово у реченні.\n\n\n\n0:04 1:13 2:22 \nHe is taller than me\nhi ɪz ˈtɔlər ðən mi\nВін вище за мене\n\n0:18 1:27 2:36 \nHe is taller than my father\nhi ɪz ˈtɔlər ðən maɪ ˈfɑðər\nВін вище мого батька\n\n0:31 1:40 2:49 \nHe is younger than my father\nhi ɪz ˈjəŋgər ðən maɪ ˈfɑðər\nВін молодший за мого батька\n\n0:44 1:53 3:02 \nHe is older than my father\nhi ɪz ˈoʊldər ðən maɪ ˈfɑðər\nВін старший за мого батька\n\n0:57 2:06 3:15 \nHe is older than me\nhi ɪz ˈoʊldər ðən mi\nВін старший за мене\n\n\n\nДля вчителів та шкіл:\nЦе відео опубліковане під ліцензією Creative Commons.\n  CC BY 3.0 https://creativecommons.org/licenses/by/3.0/ \nСміливо використовуйте це відео у своїх класах!\n\nМи використовуємо послугу Google Translate для локалізації. Якщо ви виявили деякі помилки, повідомте нас про це.\n"
    },
    {
      "Lang": "ur",
      "Title": "انگریزی گرائمر کی ورزشیں | آسان ⭐️ #97 -er",
      "Description": "انگریزی گرائمر سیکھیں! ایک جملے میں ایک لفظ تبدیل کریں۔\n\n\n\n0:04 1:13 2:22 \nHe is taller than me\nhi ɪz ˈtɔlər ðən mi\nوہ مجھ سے لمبا ہے\n\n0:18 1:27 2:36 \nHe is taller than my father\nhi ɪz ˈtɔlər ðən maɪ ˈfɑðər\nوہ میرے والد سے لمبا ہے\n\n0:31 1:40 2:49 \nHe is younger than my father\nhi ɪz ˈjəŋgər ðən maɪ ˈfɑðər\nوہ میرے والد سے چھوٹا ہے\n\n0:44 1:53 3:02 \nHe is older than my father\nhi ɪz ˈoʊldər ðən maɪ ˈfɑðər\nوہ میرے والد سے بڑا ہے\n\n0:57 2:06 3:15 \nHe is older than me\nhi ɪz ˈoʊldər ðən mi\nوہ مجھ سے بڑا ہے\n\n\n\nاساتذہ اور اسکولوں کے لئے:\nیہ ویڈیو تخلیقی العام لائسنس کے تحت شائع ہوا ہے۔\n  CC BY 3.0 https://creativecommons.org/licenses/by/3.0/ \nاپنی ویڈیو کو اپنی کلاسوں میں آزادانہ طور پر استعمال کریں!\n\nہم لوکلائزیشن کے لئے گوگل ٹرانسلیٹ سروس استعمال کرتے ہیں۔ اگر آپ کو کچھ غلطیاں ملتی ہیں تو ، براہ کرم ہمیں بتائیں۔\n"
    },
    {
      "Lang": "uz",
      "Title": "Ingliz tili grammatik mashqlari | Oddiy ⭐️ #97 -er",
      "Description": "Ingliz tilining grammatikasini o'rganing! Bir so'zni jumlada o'zgartiring.\n\n\n\n0:04 1:13 2:22 \nHe is taller than me\nhi ɪz ˈtɔlər ðən mi\nU mendan balandroq\n\n0:18 1:27 2:36 \nHe is taller than my father\nhi ɪz ˈtɔlər ðən maɪ ˈfɑðər\nU otamdan baland bo'yli\n\n0:31 1:40 2:49 \nHe is younger than my father\nhi ɪz ˈjəŋgər ðən maɪ ˈfɑðər\nU otamdan yoshroq\n\n0:44 1:53 3:02 \nHe is older than my father\nhi ɪz ˈoʊldər ðən maɪ ˈfɑðər\nU otamdan katta\n\n0:57 2:06 3:15 \nHe is older than me\nhi ɪz ˈoʊldər ðən mi\nU mendan katta\n\n\n\nO'qituvchilar va maktablarga:\nUshbu video Creative Commons litsenziyasi ostida joylashtirilgan.\n  CC BY 3.0 https://creativecommons.org/licenses/by/3.0/ \nUshbu videoni o'z sinflaringizda ishlatish bepul!\n\nBiz Google Translate xizmatidan lokalizatsiya uchun foydalanamiz. Agar siz biron bir xato topsangiz, iltimos, bizga xabar bering.\n"
    },
    {
      "Lang": "vi",
      "Title": "Bài tập ngữ pháp tiếng anh | Đơn giản ⭐️ #97 -er",
      "Description": "Học ngữ pháp tiếng Anh! Thay đổi một từ trong một câu.\n\n\n\n0:04 1:13 2:22 \nHe is taller than me\nhi ɪz ˈtɔlər ðən mi\nAnh ấy cao hơn tôi\n\n0:18 1:27 2:36 \nHe is taller than my father\nhi ɪz ˈtɔlər ðən maɪ ˈfɑðər\nÔng cao hơn bố tôi\n\n0:31 1:40 2:49 \nHe is younger than my father\nhi ɪz ˈjəŋgər ðən maɪ ˈfɑðər\nAnh ấy trẻ hơn bố tôi\n\n0:44 1:53 3:02 \nHe is older than my father\nhi ɪz ˈoʊldər ðən maɪ ˈfɑðər\nÔng lớn tuổi hơn bố tôi\n\n0:57 2:06 3:15 \nHe is older than me\nhi ɪz ˈoʊldər ðən mi\nAnh ấy lớn hơn tôi\n\n\n\nGửi giáo viên và nhà trường:\nVideo này được xuất bản theo Giấy phép Creative Commons.\n  CC BY 3.0 https://creativecommons.org/licenses/by/3.0/ \nHãy sử dụng video này trong các lớp học của bạn!\n\nChúng tôi sử dụng dịch vụ Google Dịch để bản địa hóa. Nếu bạn tìm thấy một số sai lầm, xin vui lòng cho chúng tôi biết.\n"
    },
    {
      "Lang": "xh",
      "Title": "Ukuziqhelanisa negrama yesiNgesi | Elula ⭐️ #97 -er",
      "Description": "Funda igrama yesiNgesi! Guqula igama kwisivakalisi.\n\n\n\n0:04 1:13 2:22 \nHe is taller than me\nhi ɪz ˈtɔlər ðən mi\nMde kunam\n\n0:18 1:27 2:36 \nHe is taller than my father\nhi ɪz ˈtɔlər ðən maɪ ˈfɑðər\nMde kakhulu kunotata\n\n0:31 1:40 2:49 \nHe is younger than my father\nhi ɪz ˈjəŋgər ðən maɪ ˈfɑðər\nMncinci kunobawo\n\n0:44 1:53 3:02 \nHe is older than my father\nhi ɪz ˈoʊldər ðən maɪ ˈfɑðər\nMdala kunam\n\n0:57 2:06 3:15 \nHe is older than me\nhi ɪz ˈoʊldər ðən mi\nMdala kunam\n\n\n\nKootitshala nakwizikolo:\nLe vidiyo ipapashwa phantsi kwelayisensi yeCreative Commons.\n  CC BY 3.0 https://creativecommons.org/licenses/by/3.0/ \nZive ukhululekile ukusebenzisa le vidiyo kwiiklasi zakho!\n\nSisebenzisa inkonzo yokuTolika kaGoogle ukuze sifumane indawo. Ukuba ufumana iimpazamo ezithile, nceda usazise.\n"
    },
    {
      "Lang": "yi",
      "Title": "ענגליש גראַמאַטיק עקסערסייזיז | פּשוט ⭐️ #97 -er",
      "Description": "לערן ענגליש גראַמאַטיק! טוישן אַ וואָרט אין אַ זאַץ.\n\n\n\n0:04 1:13 2:22 \nHe is taller than me\nhi ɪz ˈtɔlər ðən mi\nער איז העכער ווי מיר\n\n0:18 1:27 2:36 \nHe is taller than my father\nhi ɪz ˈtɔlər ðən maɪ ˈfɑðər\nער איז העכער ווי מיין פאָטער\n\n0:31 1:40 2:49 \nHe is younger than my father\nhi ɪz ˈjəŋgər ðən maɪ ˈfɑðər\nער איז יינגער ווי מיין פאָטער\n\n0:44 1:53 3:02 \nHe is older than my father\nhi ɪz ˈoʊldər ðən maɪ ˈfɑðər\nער איז עלטער ווי מיין פאָטער\n\n0:57 2:06 3:15 \nHe is older than me\nhi ɪz ˈoʊldər ðən mi\nער איז עלטער ווי מיר\n\n\n\nצו לערערס און שולן:\nדער ווידעא איז ארויס אונטער Creative Commons License.\n  CC BY 3.0 https://creativecommons.org/licenses/by/3.0/ \nפילן פריי צו נוצן דעם ווידעא אין דיין קלאסן!\n\nמיר נוצן Google Translate דינסט פֿאַר לאָוקאַלאַזיישאַן. אויב איר געפֿינען עטלעכע מיסטייקס, ביטע לאָזן אונדז וויסן.\n"
    },
    {
      "Lang": "yo",
      "Title": "Awọn adaṣe gẹẹsi Gẹẹsi | Rọrun ⭐️ #97 -er",
      "Description": "Kọ ẹkọ gẹẹsi Gẹẹsi! Yi ọrọ pada ninu gbolohun ọrọ.\n\n\n\n0:04 1:13 2:22 \nHe is taller than me\nhi ɪz ˈtɔlər ðən mi\nO ga ju mi\n\n0:18 1:27 2:36 \nHe is taller than my father\nhi ɪz ˈtɔlər ðən maɪ ˈfɑðər\nO ga ju baba mi lọ\n\n0:31 1:40 2:49 \nHe is younger than my father\nhi ɪz ˈjəŋgər ðən maɪ ˈfɑðər\nO si kere ju baba mi lọ\n\n0:44 1:53 3:02 \nHe is older than my father\nhi ɪz ˈoʊldər ðən maɪ ˈfɑðər\nO dagba ju baba mi lọ\n\n0:57 2:06 3:15 \nHe is older than me\nhi ɪz ˈoʊldər ðən mi\nO dagba ju mi\n\n\n\nSi awọn olukọ ati awọn ile-iwe:\nFidio yii ni a tẹjade labẹ Iwe-aṣẹ Creative Commons.\n  CC BY 3.0 https://creativecommons.org/licenses/by/3.0/ \nLero lati lo fidio yii ninu awọn kilasi rẹ!\n\nA lo iṣẹ Google Translate fun agbegbe. Ti o ba rii diẹ ninu awọn aṣiṣe, jọwọ jẹ ki a mọ.\n"
    },
    {
      "Lang": "zh-Hans",
      "Title": "英语语法练习 | 简单 ⭐️ #97 -er",
      "Description": "学习英语语法！ 更改句子中的单词。\n\n\n\n0:04 1:13 2:22 \nHe is taller than me\nhi ɪz ˈtɔlər ðən mi\n他比我高\n\n0:18 1:27 2:36 \nHe is taller than my father\nhi ɪz ˈtɔlər ðən maɪ ˈfɑðər\n他比我父亲高\n\n0:31 1:40 2:49 \nHe is younger than my father\nhi ɪz ˈjəŋgər ðən maɪ ˈfɑðər\n他比我父亲年轻\n\n0:44 1:53 3:02 \nHe is older than my father\nhi ɪz ˈoʊldər ðən maɪ ˈfɑðər\n他比我父亲大\n\n0:57 2:06 3:15 \nHe is older than me\nhi ɪz ˈoʊldər ðən mi\n他比我大\n\n\n\n致老师和学校：\n该视频是根据知识共享许可发布的。\n  CC BY 3.0 https://creativecommons.org/licenses/by/3.0/ \n随时在您的课程中使用此视频！\n\n我们使用Google翻译服务进行本地化。如果您发现一些错误，请告诉我们。\n"
    },
    {
      "Lang": "zh-Hant",
      "Title": "英語語法練習 | 簡單 ⭐️ #97 -er",
      "Description": "學習英語語法！ 更改句子中的單詞。\n\n\n\n0:04 1:13 2:22 \nHe is taller than me\nhi ɪz ˈtɔlər ðən mi\n他比我高\n\n0:18 1:27 2:36 \nHe is taller than my father\nhi ɪz ˈtɔlər ðən maɪ ˈfɑðər\n他比我父親高\n\n0:31 1:40 2:49 \nHe is younger than my father\nhi ɪz ˈjəŋgər ðən maɪ ˈfɑðər\n他比我父親年輕\n\n0:44 1:53 3:02 \nHe is older than my father\nhi ɪz ˈoʊldər ðən maɪ ˈfɑðər\n他比我父親大\n\n0:57 2:06 3:15 \nHe is older than me\nhi ɪz ˈoʊldər ðən mi\n他比我大\n\n\n\n致老師和學校：\n該視頻是根據知識共享許可發布的。\n  CC BY 3.0 https://creativecommons.org/licenses/by/3.0/ \n隨時在您的課程中使用此視頻！\n\n我們使用Google翻譯服務進行本地化。如果您發現一些錯誤，請告訴我們。\n"
    },
    {
      "Lang": "zu",
      "Title": "Ukuzivocavoca kolimi lwesiNgisi | Elula ⭐️ #97 -er",
      "Description": "Funda uhlelo lolimi lwesiNgisi! Shintsha igama emshweni.\n\n\n\n0:04 1:13 2:22 \nHe is taller than me\nhi ɪz ˈtɔlər ðən mi\nMude kunami\n\n0:18 1:27 2:36 \nHe is taller than my father\nhi ɪz ˈtɔlər ðən maɪ ˈfɑðər\nMude kakhulu kunobaba\n\n0:31 1:40 2:49 \nHe is younger than my father\nhi ɪz ˈjəŋgər ðən maɪ ˈfɑðər\nMncane kunobaba\n\n0:44 1:53 3:02 \nHe is older than my father\nhi ɪz ˈoʊldər ðən maɪ ˈfɑðər\nMdala kunobaba\n\n0:57 2:06 3:15 \nHe is older than me\nhi ɪz ˈoʊldər ðən mi\nMdala kunami\n\n\n\nKothisha nasezikoleni:\nLe vidiyo ishicilelwe ngaphansi kwelayisensi yeCreative Commons.\n  CC BY 3.0 https://creativecommons.org/licenses/by/3.0/ \nZizwe ukhululekile ukusebenzisa le vidiyo emakilasini akho!\n\nSisebenzisa insiza ye-Google Humusha ukwenza okwasendaweni. Uma uthola amanye amaphutha, sicela usazise.\n"
    }
  ]
}