{
  "File": "grammar-en-beginner-simple_34_A.mp4",
  "ID": "gsW7CkkQxkY",
  "AudioLang": "en",
  "DefaultLang": "mi",
  "Title": "Mahi whakangungu Ingarihi | He ngawari ⭐️ #34 was",
  "Description": "Akohia te paanui Ingarihi! Hurihia he kupu ki tetahi rerenga rerenga.\n\n\n\n0:04 1:22 2:35 \nShe was in Rome last month\nʃi wɑz ɪn roʊm læst mənθ\nKei Roma ia i te marama kua hipa\n\n0:19 1:36 2:49 \nShe is in Rome now\nʃi ɪz ɪn roʊm naʊ\nKei roto ia i Roma inaianei\n\n0:33 1:49 3:02 \nI am in Rome now\naɪ æm ɪn roʊm naʊ\nKei roto ahau i Roma inaianei\n\n0:48 2:03 3:16 \nI was in Rome last month\naɪ wɑz ɪn roʊm læst mənθ\nI Roma ahau i te marama kua hipa\n\n1:04 2:18 3:31 \nThey were in Rome last month\nðe wər ɪn roʊm læst mənθ\nI a ratou i te marama kua hipa\n\n\n\nKi nga kaiako me nga kura:\nKei te whakaputaina tenei ataata i raro i te Raihana Hoahoatanga.\n  CC BY 3.0 https://creativecommons.org/licenses/by/3.0/ \nKia kore e pai ki te whakamahi i tenei ataata i roto i o akomanga!\n\nKa whakamahia e matou he whakamaoritanga a Google mo te whakangao. Mena ka kitea e koe etahi he, tena koa kia mohio.\n",
  "VideoTags": "Paramarama Ingarihi,سنڌي گرامر,ענגליש גראַמאַטיק,Grammar bahasa inggris,englische Grammatik,Gramática inglesa,Angļu valodas gramatika,Gramatyka angielska,Енглеска граматика,Английска граматика,Енглеска граматика,قواعد اللغة الإنجليزية,ਅੰਗਰੇਜ਼ੀ ਵਿਆਕਰਨ,ඉංග්‍රීසි ව්‍යාකරණ,វេយ្យាករណ៍អង់គ្លេស",
  "YoutubeSynced": true,
  "ThumbnailUploaded": true,
  "Localizations": [
    {
      "Lang": "af",
      "Title": "Engelse grammatika-oefeninge | eenvoudige ⭐️ #34 was",
      "Description": "Leer Engelse grammatika! Verander 'n woord in 'n sin.\n\n\n\n0:04 1:22 2:35 \nShe was in Rome last month\nʃi wɑz ɪn roʊm læst mənθ\nSy was verlede maand in Rome\n\n0:19 1:36 2:49 \nShe is in Rome now\nʃi ɪz ɪn roʊm naʊ\nSy is nou in Rome\n\n0:33 1:49 3:02 \nI am in Rome now\naɪ æm ɪn roʊm naʊ\nEk is nou in Rome\n\n0:48 2:03 3:16 \nI was in Rome last month\naɪ wɑz ɪn roʊm læst mənθ\nEk was verlede maand in Rome\n\n1:04 2:18 3:31 \nThey were in Rome last month\nðe wər ɪn roʊm læst mənθ\nHulle was verlede maand in Rome\n\n\n\nAan onderwysers en skole:\nHierdie video word onder Creative Commons-lisensie gepubliseer.\n  CC BY 3.0 https://creativecommons.org/licenses/by/3.0/ \nGebruik gerus hierdie video in u klasse!\n\nOns gebruik Google Translate-diens vir lokalisering. Laat weet ons as u foute ervaar.\n"
    },
    {
      "Lang": "am",
      "Title": "የእንግሊዝኛ ሰዋሰው ልምምዶች | ቀላል ⭐️ #34 was",
      "Description": "የእንግሊዝኛ ሰዋስው ይማሩ! በአረፍተ ነገር ውስጥ አንድ ቃል ይለውጡ ፡፡\n\n\n\n0:04 1:22 2:35 \nShe was in Rome last month\nʃi wɑz ɪn roʊm læst mənθ\nባለፈው ወር ሮም ውስጥ ነበረች\n\n0:19 1:36 2:49 \nShe is in Rome now\nʃi ɪz ɪn roʊm naʊ\nእሷ አሁን ሮም ውስጥ ናት\n\n0:33 1:49 3:02 \nI am in Rome now\naɪ æm ɪn roʊm naʊ\nእኔ አሁን ሮም ውስጥ ነኝ\n\n0:48 2:03 3:16 \nI was in Rome last month\naɪ wɑz ɪn roʊm læst mənθ\nባለፈው ወር ሮም ነበርኩ\n\n1:04 2:18 3:31 \nThey were in Rome last month\nðe wər ɪn roʊm læst mənθ\nእነሱ ባለፈው ወር ሮም ውስጥ ነበሩ\n\n\n\nለመምህራን እና ለት / ቤቶች\nይህ ቪዲዮ በ Creative Commons ፈቃድ ስር ታትሟል ፡፡\n  CC BY 3.0 https://creativecommons.org/licenses/by/3.0/ \nይህንን ቪዲዮ በትምህርቶችዎ ውስጥ ለመጠቀም ነፃ ይሁኑ!\n\nለትርጉም የ Google ትርጉም አገልግሎትን እንጠቀማለን። አንዳንድ ስህተቶች ካገኙ እባክዎ ያሳውቁን።\n"
    },
    {
      "Lang": "ar",
      "Title": "تمارين قواعد اللغة الإنجليزية | بسيط ⭐️ #34 was",
      "Description": "تعلم قواعد اللغة الإنجليزية! تغيير كلمة في جملة.\n\n\n\n0:04 1:22 2:35 \nShe was in Rome last month\nʃi wɑz ɪn roʊm læst mənθ\nكانت في روما الشهر الماضي\n\n0:19 1:36 2:49 \nShe is in Rome now\nʃi ɪz ɪn roʊm naʊ\nهي في روما الآن\n\n0:33 1:49 3:02 \nI am in Rome now\naɪ æm ɪn roʊm naʊ\nانا في روما الان\n\n0:48 2:03 3:16 \nI was in Rome last month\naɪ wɑz ɪn roʊm læst mənθ\nكنت في روما الشهر الماضي\n\n1:04 2:18 3:31 \nThey were in Rome last month\nðe wər ɪn roʊm læst mənθ\nكانوا في روما الشهر الماضي\n\n\n\nللمعلمين والمدارس:\nتم نشر هذا الفيديو تحت رخصة المشاع الإبداعي.\n  CC BY 3.0 https://creativecommons.org/licenses/by/3.0/ \nلا تتردد في استخدام هذا الفيديو في الفصول الدراسية!\n\nنستخدم خدمة الترجمة من Google للترجمة. إذا وجدت بعض الأخطاء ، يرجى إعلامنا.\n"
    },
    {
      "Lang": "az",
      "Title": "İngilis qrammatikası təlimləri | Sadə ⭐️ #34 was",
      "Description": "İngilis dili qrammatikasını öyrənin! Bir cümlədə bir söz dəyişdirin.\n\n\n\n0:04 1:22 2:35 \nShe was in Rome last month\nʃi wɑz ɪn roʊm læst mənθ\nKeçən ay Romada idi\n\n0:19 1:36 2:49 \nShe is in Rome now\nʃi ɪz ɪn roʊm naʊ\nİndi Romadadır\n\n0:33 1:49 3:02 \nI am in Rome now\naɪ æm ɪn roʊm naʊ\nMən indi Romadayam\n\n0:48 2:03 3:16 \nI was in Rome last month\naɪ wɑz ɪn roʊm læst mənθ\nKeçən ay Romada idim\n\n1:04 2:18 3:31 \nThey were in Rome last month\nðe wər ɪn roʊm læst mənθ\nKeçən ay Romada oldular\n\n\n\nMüəllimlərə və məktəblərə:\nBu video Creative Commons lisenziyası altında yayımlanıb.\n  CC BY 3.0 https://creativecommons.org/licenses/by/3.0/ \nBu videonu dərslərinizdə istifadə etməkdən çekinmeyin!\n\nLokallaşdırma üçün Google Translate xidmətindən istifadə edirik. Bəzi səhvlər taparsanız, bizə bildirin.\n"
    },
    {
      "Lang": "be",
      "Title": "Граматычныя практыкаванні на англійскай мове | Просты ⭐️ #34 was",
      "Description": "Вывучайце англійскую граматыку! Змяніце слова ў сказе.\n\n\n\n0:04 1:22 2:35 \nShe was in Rome last month\nʃi wɑz ɪn roʊm læst mənθ\nЯна была ў Рыме ў мінулым месяцы\n\n0:19 1:36 2:49 \nShe is in Rome now\nʃi ɪz ɪn roʊm naʊ\nЦяпер яна ў Рыме\n\n0:33 1:49 3:02 \nI am in Rome now\naɪ æm ɪn roʊm naʊ\nЯ зараз у Рыме\n\n0:48 2:03 3:16 \nI was in Rome last month\naɪ wɑz ɪn roʊm læst mənθ\nЯ быў у Рыме ў мінулым месяцы\n\n1:04 2:18 3:31 \nThey were in Rome last month\nðe wər ɪn roʊm læst mənθ\nЯны былі ў Рыме ў мінулым месяцы\n\n\n\nДля настаўнікаў і школ:\nГэта відэа публікуецца пад ліцэнзіяй Creative Commons.\n  CC BY 3.0 https://creativecommons.org/licenses/by/3.0/ \nНе саромейцеся выкарыстоўваць гэта відэа ў сваіх класах!\n\nМы выкарыстоўваем паслугу Google Translate для лакалізацыі. Калі вы выявілі некаторыя памылкі, калі ласка, паведаміце нам пра гэта.\n"
    },
    {
      "Lang": "bg",
      "Title": "Английски граматически упражнения | прост ⭐️ #34 was",
      "Description": "Научете английска граматика! Промяна на дума в изречение.\n\n\n\n0:04 1:22 2:35 \nShe was in Rome last month\nʃi wɑz ɪn roʊm læst mənθ\nТя беше в Рим миналия месец\n\n0:19 1:36 2:49 \nShe is in Rome now\nʃi ɪz ɪn roʊm naʊ\nВече е в Рим\n\n0:33 1:49 3:02 \nI am in Rome now\naɪ æm ɪn roʊm naʊ\nСега съм в Рим\n\n0:48 2:03 3:16 \nI was in Rome last month\naɪ wɑz ɪn roʊm læst mənθ\nМинах месец в Рим\n\n1:04 2:18 3:31 \nThey were in Rome last month\nðe wər ɪn roʊm læst mənθ\nБяха в Рим миналия месец\n\n\n\nЗа учители и училища:\nТози видеоклип е публикуван под Creative Commons License.\n  CC BY 3.0 https://creativecommons.org/licenses/by/3.0/ \nЧувствайте се свободни да използвате това видео в класовете си!\n\nНие използваме услугата Google Translate за локализация. Ако откриете някои грешки, моля, уведомете ни.\n"
    },
    {
      "Lang": "bn",
      "Title": "ইংরেজি ব্যাকরণ অনুশীলন | সহজ ⭐️ #34 was",
      "Description": "ইংরেজি ব্যাকরণ শিখুন! একটি বাক্যে একটি শব্দ পরিবর্তন করুন।\n\n\n\n0:04 1:22 2:35 \nShe was in Rome last month\nʃi wɑz ɪn roʊm læst mənθ\nতিনি গত মাসে রোমে ছিলেন\n\n0:19 1:36 2:49 \nShe is in Rome now\nʃi ɪz ɪn roʊm naʊ\nতিনি এখন রোমে আছেন\n\n0:33 1:49 3:02 \nI am in Rome now\naɪ æm ɪn roʊm naʊ\nআমি এখন রোমে আছি\n\n0:48 2:03 3:16 \nI was in Rome last month\naɪ wɑz ɪn roʊm læst mənθ\nআমি গত মাসে রোমে ছিলাম\n\n1:04 2:18 3:31 \nThey were in Rome last month\nðe wər ɪn roʊm læst mənθ\nতারা গত মাসে রোমে ছিল\n\n\n\nশিক্ষক এবং বিদ্যালয়ের কাছে:\nএই ভিডিওটি ক্রিয়েটিভ কমন্স লাইসেন্সের আওতায় প্রকাশিত হয়েছে।\n  CC BY 3.0 https://creativecommons.org/licenses/by/3.0/ \nআপনার ক্লাসে এই ভিডিওটি নির্দ্বিধায় ব্যবহার করুন!\n\nআমরা স্থানীয়করণের জন্য গুগল অনুবাদ পরিষেবা ব্যবহার করি। আপনি যদি কিছু ভুল খুঁজে পান তবে দয়া করে আমাদের জানান।\n"
    },
    {
      "Lang": "bs",
      "Title": "Engleske gramatičke vježbe | Jednostavno ⭐️ #34 was",
      "Description": "Naučite englesku gramatiku! Promenite reč u rečenici.\n\n\n\n0:04 1:22 2:35 \nShe was in Rome last month\nʃi wɑz ɪn roʊm læst mənθ\nBila je u Rimu prošlog mjeseca\n\n0:19 1:36 2:49 \nShe is in Rome now\nʃi ɪz ɪn roʊm naʊ\nSada je u Rimu\n\n0:33 1:49 3:02 \nI am in Rome now\naɪ æm ɪn roʊm naʊ\nSada sam u Rimu\n\n0:48 2:03 3:16 \nI was in Rome last month\naɪ wɑz ɪn roʊm læst mənθ\nBio sam prošlog meseca u Rimu\n\n1:04 2:18 3:31 \nThey were in Rome last month\nðe wər ɪn roʊm læst mənθ\nBili su u Rimu prošlog mjeseca\n\n\n\nNastavnicima i školama:\nOvaj video je objavljen pod Creative Commons licencom.\n  CC BY 3.0 https://creativecommons.org/licenses/by/3.0/ \nSlobodno koristite ovaj videozapis u svojim predavanjima!\n\nZa lokalizaciju koristimo uslugu Google Translate. Ako pronađete neke greške, javite nam se.\n"
    },
    {
      "Lang": "ca",
      "Title": "Exercicis de gramàtica anglesa | Senzill ⭐️ #34 was",
      "Description": "Apreneu gramàtica anglesa! Canvia una paraula en una frase.\n\n\n\n0:04 1:22 2:35 \nShe was in Rome last month\nʃi wɑz ɪn roʊm læst mənθ\nElla va estar a Roma el mes passat\n\n0:19 1:36 2:49 \nShe is in Rome now\nʃi ɪz ɪn roʊm naʊ\nAra es troba a Roma\n\n0:33 1:49 3:02 \nI am in Rome now\naɪ æm ɪn roʊm naʊ\nAra estic a Roma\n\n0:48 2:03 3:16 \nI was in Rome last month\naɪ wɑz ɪn roʊm læst mənθ\nVaig estar a Roma el mes passat\n\n1:04 2:18 3:31 \nThey were in Rome last month\nðe wər ɪn roʊm læst mənθ\nVan ser a Roma el mes passat\n\n\n\nA professors i escoles:\nAquest vídeo es publica sota llicència Creative Commons.\n  CC BY 3.0 https://creativecommons.org/licenses/by/3.0/ \nNo dubteu a utilitzar aquest vídeo a les vostres classes.\n\nUtilitzem el servei de Google Translate per a la localització. Si trobeu alguns errors, feu-nos-ho saber.\n"
    },
    {
      "Lang": "co",
      "Title": "Esercizii di grammatica inglese | Semplice ⭐️ #34 was",
      "Description": "Amparate a grammatica inglese! Cambia una parolla in una frase.\n\n\n\n0:04 1:22 2:35 \nShe was in Rome last month\nʃi wɑz ɪn roʊm læst mənθ\nHè stata in Roma u mese passatu\n\n0:19 1:36 2:49 \nShe is in Rome now\nʃi ɪz ɪn roʊm naʊ\nSò in Roma avà\n\n0:33 1:49 3:02 \nI am in Rome now\naɪ æm ɪn roʊm naʊ\nSocu in Roma avà\n\n0:48 2:03 3:16 \nI was in Rome last month\naɪ wɑz ɪn roʊm læst mənθ\nEru à Roma u mese passatu\n\n1:04 2:18 3:31 \nThey were in Rome last month\nðe wər ɪn roʊm læst mənθ\nEranu in Roma u mese passatu\n\n\n\nÀ i prufessori è à e scole:\nStu video hè publicatu sottu licenza Creative Commons.\n  CC BY 3.0 https://creativecommons.org/licenses/by/3.0/ \nSentitevi liberi d'utilizà stu video in i vostri classi!\n\nUsu u serviziu di Google Translate per a localizazione. Se truvate qualchì sbagli, per piaceci di sapè.\n"
    },
    {
      "Lang": "cs",
      "Title": "Cvičení anglické gramatiky | Jednoduchý ⭐️ #34 was",
      "Description": "Naučte se anglickou gramatiku! Změňte slovo ve větě.\n\n\n\n0:04 1:22 2:35 \nShe was in Rome last month\nʃi wɑz ɪn roʊm læst mənθ\nMinulý měsíc byla v Římě\n\n0:19 1:36 2:49 \nShe is in Rome now\nʃi ɪz ɪn roʊm naʊ\nNyní je v Římě\n\n0:33 1:49 3:02 \nI am in Rome now\naɪ æm ɪn roʊm naʊ\nTeď jsem v Římě\n\n0:48 2:03 3:16 \nI was in Rome last month\naɪ wɑz ɪn roʊm læst mənθ\nMinulý měsíc jsem byl v Římě\n\n1:04 2:18 3:31 \nThey were in Rome last month\nðe wər ɪn roʊm læst mənθ\nMinulý měsíc byli v Římě\n\n\n\nUčitelům a školám:\nToto video je publikováno pod licencí Creative Commons License.\n  CC BY 3.0 https://creativecommons.org/licenses/by/3.0/ \nNeváhejte použít toto video ve svých třídách!\n\nK lokalizaci používáme službu Google Translate. Pokud narazíte na nějaké chyby, dejte nám prosím vědět.\n"
    },
    {
      "Lang": "cy",
      "Title": "Ymarferion gramadeg Saesneg | Syml ⭐️ #34 was",
      "Description": "Dysgu gramadeg Saesneg! Newid gair mewn brawddeg.\n\n\n\n0:04 1:22 2:35 \nShe was in Rome last month\nʃi wɑz ɪn roʊm læst mənθ\nRoedd hi yn Rhufain y mis diwethaf\n\n0:19 1:36 2:49 \nShe is in Rome now\nʃi ɪz ɪn roʊm naʊ\nMae hi yn Rhufain nawr\n\n0:33 1:49 3:02 \nI am in Rome now\naɪ æm ɪn roʊm naʊ\nRydw i yn Rhufain nawr\n\n0:48 2:03 3:16 \nI was in Rome last month\naɪ wɑz ɪn roʊm læst mənθ\nRoeddwn i yn Rhufain y mis diwethaf\n\n1:04 2:18 3:31 \nThey were in Rome last month\nðe wər ɪn roʊm læst mənθ\nRoedden nhw yn Rhufain y mis diwethaf\n\n\n\nI athrawon ac ysgolion:\nCyhoeddir y fideo hon o dan Creative Commons License.\n  CC BY 3.0 https://creativecommons.org/licenses/by/3.0/ \nMae croeso i chi ddefnyddio'r fideo hon yn eich dosbarthiadau!\n\nRydym yn defnyddio gwasanaeth Google Translate ar gyfer lleoleiddio. Os dewch chi o hyd i rai camgymeriadau, rhowch wybod i ni.\n"
    },
    {
      "Lang": "da",
      "Title": "Engelsk grammatikøvelser | Enkel ⭐️ #34 was",
      "Description": "Lær engelsk grammatik! Skift et ord i en sætning.\n\n\n\n0:04 1:22 2:35 \nShe was in Rome last month\nʃi wɑz ɪn roʊm læst mənθ\nHun var i Rom sidste måned\n\n0:19 1:36 2:49 \nShe is in Rome now\nʃi ɪz ɪn roʊm naʊ\nHun er i Rom nu\n\n0:33 1:49 3:02 \nI am in Rome now\naɪ æm ɪn roʊm naʊ\nJeg er i Rom nu\n\n0:48 2:03 3:16 \nI was in Rome last month\naɪ wɑz ɪn roʊm læst mənθ\nJeg var i Rom sidste måned\n\n1:04 2:18 3:31 \nThey were in Rome last month\nðe wər ɪn roʊm læst mənθ\nDe var i Rom sidste måned\n\n\n\nTil lærere og skoler:\nDenne video er offentliggjort under Creative Commons License.\n  CC BY 3.0 https://creativecommons.org/licenses/by/3.0/ \nBrug gjerne denne video i dine klasser!\n\nVi bruger Google Translate-tjenesten til lokalisering. Hvis du finder nogle fejl, så lad os vide det.\n"
    },
    {
      "Lang": "de",
      "Title": "Englische Grammatikübungen | Einfach ⭐️ #34 was",
      "Description": "Lerne englische Grammatik! Ändern Sie ein Wort in einem Satz.\n\n\n\n0:04 1:22 2:35 \nShe was in Rome last month\nʃi wɑz ɪn roʊm læst mənθ\nSie war letzten Monat in Rom\n\n0:19 1:36 2:49 \nShe is in Rome now\nʃi ɪz ɪn roʊm naʊ\nSie ist jetzt in Rom\n\n0:33 1:49 3:02 \nI am in Rome now\naɪ æm ɪn roʊm naʊ\nIch bin jetzt in Rom\n\n0:48 2:03 3:16 \nI was in Rome last month\naɪ wɑz ɪn roʊm læst mənθ\nIch war letzten Monat in Rom\n\n1:04 2:18 3:31 \nThey were in Rome last month\nðe wər ɪn roʊm læst mənθ\nSie waren letzten Monat in Rom\n\n\n\nAn Lehrer und Schulen:\nDieses Video wird unter der Creative Commons License veröffentlicht.\n  CC BY 3.0 https://creativecommons.org/licenses/by/3.0/ \nFühlen Sie sich frei, dieses Video in Ihren Klassen zu verwenden!\n\nWir verwenden den Google Translate-Dienst zur Lokalisierung. Wenn Sie Fehler finden, teilen Sie uns dies bitte mit.\n"
    },
    {
      "Lang": "el",
      "Title": "Αγγλικές ασκήσεις γραμματικής | Απλός ⭐️ #34 was",
      "Description": "Μάθετε αγγλική γραμματική! Αλλάξτε μια λέξη σε μια πρόταση.\n\n\n\n0:04 1:22 2:35 \nShe was in Rome last month\nʃi wɑz ɪn roʊm læst mənθ\nΉταν στη Ρώμη τον περασμένο μήνα\n\n0:19 1:36 2:49 \nShe is in Rome now\nʃi ɪz ɪn roʊm naʊ\nΕίναι τώρα στη Ρώμη\n\n0:33 1:49 3:02 \nI am in Rome now\naɪ æm ɪn roʊm naʊ\nΕίμαι στη Ρώμη τώρα\n\n0:48 2:03 3:16 \nI was in Rome last month\naɪ wɑz ɪn roʊm læst mənθ\nΉμουν στη Ρώμη τον περασμένο μήνα\n\n1:04 2:18 3:31 \nThey were in Rome last month\nðe wər ɪn roʊm læst mənθ\nΉταν στη Ρώμη τον περασμένο μήνα\n\n\n\nΣτους εκπαιδευτικούς και τα σχολεία:\nΑυτό το βίντεο δημοσιεύεται υπό Creative Commons License.\n  CC BY 3.0 https://creativecommons.org/licenses/by/3.0/ \nΜπορείτε να χρησιμοποιήσετε αυτό το βίντεο στις τάξεις σας!\n\nΧρησιμοποιούμε την υπηρεσία Google Translate για εντοπισμό. Αν βρείτε κάποια λάθη, ενημερώστε μας.\n"
    },
    {
      "Lang": "en",
      "Title": "English grammar exercises | Simple ⭐️ #34 was",
      "Description": "Learn English grammar! Change a word in a sentence.\n\n\n\n0:04 1:22 2:35 \nShe was in Rome last month\nʃi wɑz ɪn roʊm læst mənθ\nShe was in Rome last month\n\n0:19 1:36 2:49 \nShe is in Rome now\nʃi ɪz ɪn roʊm naʊ\nShe is in Rome now\n\n0:33 1:49 3:02 \nI am in Rome now\naɪ æm ɪn roʊm naʊ\nI am in Rome now\n\n0:48 2:03 3:16 \nI was in Rome last month\naɪ wɑz ɪn roʊm læst mənθ\nI was in Rome last month\n\n1:04 2:18 3:31 \nThey were in Rome last month\nðe wər ɪn roʊm læst mənθ\nThey were in Rome last month\n\n\n\nTo teachers and schools:\nThis video is published under Creative Commons License.\n  CC BY 3.0 https://creativecommons.org/licenses/by/3.0/ \nFeel free to use this video in your classes!\n\nWe use Google Translate service for localization. If you find some mistakes, please let us know.\n"
    },
    {
      "Lang": "es",
      "Title": "Ejercicios de gramática inglesa | Sencillo ⭐️ #34 was",
      "Description": "¡Aprende gramática inglesa! Cambiar una palabra en una oración.\n\n\n\n0:04 1:22 2:35 \nShe was in Rome last month\nʃi wɑz ɪn roʊm læst mənθ\nEstuvo en Roma el mes pasado\n\n0:19 1:36 2:49 \nShe is in Rome now\nʃi ɪz ɪn roʊm naʊ\nElla esta en roma ahora\n\n0:33 1:49 3:02 \nI am in Rome now\naɪ æm ɪn roʊm naʊ\nEstoy en roma ahora\n\n0:48 2:03 3:16 \nI was in Rome last month\naɪ wɑz ɪn roʊm læst mənθ\nEstuve en Roma el mes pasado\n\n1:04 2:18 3:31 \nThey were in Rome last month\nðe wər ɪn roʊm læst mənθ\nEstuvieron en Roma el mes pasado\n\n\n\nA profesores y escuelas:\nEste video se publica bajo licencia Creative Commons.\n  CC BY 3.0 https://creativecommons.org/licenses/by/3.0/ \n¡Siéntete libre de usar este video en tus clases!\n\nUtilizamos el servicio Google Translate para la localización. Si encuentra algunos errores, háganoslo saber.\n"
    },
    {
      "Lang": "et",
      "Title": "Inglise keele grammatika harjutused | Lihtne ⭐️ #34 was",
      "Description": "Õpi inglise keele grammatikat! Muutke lauses sõna.\n\n\n\n0:04 1:22 2:35 \nShe was in Rome last month\nʃi wɑz ɪn roʊm læst mənθ\nTa oli eelmisel kuul Roomas\n\n0:19 1:36 2:49 \nShe is in Rome now\nʃi ɪz ɪn roʊm naʊ\nTa on praegu Roomas\n\n0:33 1:49 3:02 \nI am in Rome now\naɪ æm ɪn roʊm naʊ\nOlen praegu Roomas\n\n0:48 2:03 3:16 \nI was in Rome last month\naɪ wɑz ɪn roʊm læst mənθ\nOlin eelmisel kuul Roomas\n\n1:04 2:18 3:31 \nThey were in Rome last month\nðe wər ɪn roʊm læst mənθ\nNad olid eelmisel kuul Roomas\n\n\n\nÕpetajatele ja koolidele:\nSee video on avaldatud Creative Commonsi litsentsi all.\n  CC BY 3.0 https://creativecommons.org/licenses/by/3.0/ \nKasutage seda videot julgelt oma tundides!\n\nLokaliseerimiseks kasutame Google'i tõlke teenust. Kui leiate vigu, palun andke meile sellest teada.\n"
    },
    {
      "Lang": "eu",
      "Title": "Ingelesezko gramatika ariketak | simple ⭐️ #34 was",
      "Description": "Ikasi ingelesezko gramatika! Aldatu esaldi batean hitzak.\n\n\n\n0:04 1:22 2:35 \nShe was in Rome last month\nʃi wɑz ɪn roʊm læst mənθ\nErroman egon zen azken hilabetean\n\n0:19 1:36 2:49 \nShe is in Rome now\nʃi ɪz ɪn roʊm naʊ\nErroman dago orain\n\n0:33 1:49 3:02 \nI am in Rome now\naɪ æm ɪn roʊm naʊ\nErroman nago orain\n\n0:48 2:03 3:16 \nI was in Rome last month\naɪ wɑz ɪn roʊm læst mənθ\nErroman egon nintzen azken hilabetean\n\n1:04 2:18 3:31 \nThey were in Rome last month\nðe wər ɪn roʊm læst mənθ\nErroman izan ziren joan den hilean\n\n\n\nIrakasleei eta ikastetxeei:\nBideo hau Creative Commons lizentziapean argitaratzen da.\n  CC BY 3.0 https://creativecommons.org/licenses/by/3.0/ \nEz ahaztu bideo hau zure klaseetan erabiltzeko!\n\nGoogle Translate zerbitzua erabiltzen dugu lokalizaziorako. Akats batzuk aurkitzen badituzu, adierazi iezaguzu\n"
    },
    {
      "Lang": "fa",
      "Title": "تمرین های دستور زبان انگلیسی | ساده ⭐️ #34 was",
      "Description": "گرامر انگلیسی را بیاموزید! یک کلمه را در یک جمله تغییر دهید.\n\n\n\n0:04 1:22 2:35 \nShe was in Rome last month\nʃi wɑz ɪn roʊm læst mənθ\nماه گذشته در رم بود\n\n0:19 1:36 2:49 \nShe is in Rome now\nʃi ɪz ɪn roʊm naʊ\nاو اکنون در رم است\n\n0:33 1:49 3:02 \nI am in Rome now\naɪ æm ɪn roʊm naʊ\nمن الان در رم هستم\n\n0:48 2:03 3:16 \nI was in Rome last month\naɪ wɑz ɪn roʊm læst mənθ\nماه گذشته در رم بودم\n\n1:04 2:18 3:31 \nThey were in Rome last month\nðe wər ɪn roʊm læst mənθ\nآنها ماه گذشته در رم بودند\n\n\n\nبه معلمان و مدارس:\nاین ویدیو تحت مجوز Creative Commons منتشر شده است.\n  CC BY 3.0 https://creativecommons.org/licenses/by/3.0/ \nدر استفاده از این فیلم در کلاس های خود احساس راحتی کنید!\n\nما از خدمات Google Translate برای محلی سازی استفاده می کنیم. اگر شما برخی از اشتباهات ، لطفا به ما اطلاع دهید.\n"
    },
    {
      "Lang": "fi",
      "Title": "Englannin kieliopin harjoitukset | Yksinkertainen ⭐️ #34 was",
      "Description": "Opi englannin kielioppi! Vaihda sana lauseessa.\n\n\n\n0:04 1:22 2:35 \nShe was in Rome last month\nʃi wɑz ɪn roʊm læst mənθ\nHän oli Roomassa viime kuussa\n\n0:19 1:36 2:49 \nShe is in Rome now\nʃi ɪz ɪn roʊm naʊ\nHän on nyt Roomassa\n\n0:33 1:49 3:02 \nI am in Rome now\naɪ æm ɪn roʊm naʊ\nOlen nyt Roomassa\n\n0:48 2:03 3:16 \nI was in Rome last month\naɪ wɑz ɪn roʊm læst mənθ\nOlin Roomassa viime kuussa\n\n1:04 2:18 3:31 \nThey were in Rome last month\nðe wər ɪn roʊm læst mənθ\nHe olivat Roomassa viime kuussa\n\n\n\nOpettajille ja kouluille:\nTämä video on julkaistu Creative Commons -lisenssillä.\n  CC BY 3.0 https://creativecommons.org/licenses/by/3.0/ \nVoit vapaasti käyttää tätä videota luokissa!\n\nKäytämme lokalisointiin Google Translate -palvelua. Jos löydät virheitä, ota meihin yhteyttä.\n"
    },
    {
      "Lang": "fil",
      "Title": "Pagsasanay sa grammar ng Ingles | Simple ⭐️ #34 was",
      "Description": "Alamin ang grammar ng Ingles! Baguhin ang isang salita sa isang pangungusap.\n\n\n\n0:04 1:22 2:35 \nShe was in Rome last month\nʃi wɑz ɪn roʊm læst mənθ\nNasa Roma siya noong nakaraang buwan\n\n0:19 1:36 2:49 \nShe is in Rome now\nʃi ɪz ɪn roʊm naʊ\nNasa Roma na siya ngayon\n\n0:33 1:49 3:02 \nI am in Rome now\naɪ æm ɪn roʊm naʊ\nNasa Roma ako ngayon\n\n0:48 2:03 3:16 \nI was in Rome last month\naɪ wɑz ɪn roʊm læst mənθ\nNasa Roma ako noong nakaraang buwan\n\n1:04 2:18 3:31 \nThey were in Rome last month\nðe wər ɪn roʊm læst mənθ\nNasa Roma sila noong nakaraang buwan\n\n\n\nSa mga guro at paaralan:\nAng video na ito ay nai-publish sa ilalim ng Lisensya ng Creative Commons.\n  CC BY 3.0 https://creativecommons.org/licenses/by/3.0/ \nHuwag mag-atubiling gamitin ang video na ito sa iyong mga klase!\n\nWe use Google Translate service for localization. If you find some mistakes, please let us know.\n"
    },
    {
      "Lang": "fr",
      "Title": "Exercices de grammaire anglaise | Facile ⭐️ #34 was",
      "Description": "Apprenez la grammaire anglaise! Changer un mot dans une phrase.\n\n\n\n0:04 1:22 2:35 \nShe was in Rome last month\nʃi wɑz ɪn roʊm læst mənθ\nElle était à Rome le mois dernier\n\n0:19 1:36 2:49 \nShe is in Rome now\nʃi ɪz ɪn roʊm naʊ\nElle est à Rome maintenant\n\n0:33 1:49 3:02 \nI am in Rome now\naɪ æm ɪn roʊm naʊ\nJe suis à Rome maintenant\n\n0:48 2:03 3:16 \nI was in Rome last month\naɪ wɑz ɪn roʊm læst mənθ\nJ'étais à Rome le mois dernier\n\n1:04 2:18 3:31 \nThey were in Rome last month\nðe wər ɪn roʊm læst mənθ\nIls étaient à Rome le mois dernier\n\n\n\nAux enseignants et aux écoles:\nCette vidéo est publiée sous licence Creative Commons.\n  CC BY 3.0 https://creativecommons.org/licenses/by/3.0/ \nN'hésitez pas à utiliser cette vidéo dans vos cours!\n\nNous utilisons le service Google Translate pour la localisation. Si vous trouvez des erreurs, veuillez nous en informer.\n"
    },
    {
      "Lang": "fy",
      "Title": "Ingelske oefeningen foar grammatika | Ienfâldich ⭐️ #34 was",
      "Description": "Learje Ingelske grammatika! Feroarje in wurd yn in sin.\n\n\n\n0:04 1:22 2:35 \nShe was in Rome last month\nʃi wɑz ɪn roʊm læst mənθ\nSe wie ferline moanne yn Rome\n\n0:19 1:36 2:49 \nShe is in Rome now\nʃi ɪz ɪn roʊm naʊ\nSe is no yn Rome\n\n0:33 1:49 3:02 \nI am in Rome now\naɪ æm ɪn roʊm naʊ\nIk bin no yn Rome\n\n0:48 2:03 3:16 \nI was in Rome last month\naɪ wɑz ɪn roʊm læst mənθ\nIk wie ferline moanne yn Rome\n\n1:04 2:18 3:31 \nThey were in Rome last month\nðe wər ɪn roʊm læst mənθ\nSe wiene ferline moanne yn Rome\n\n\n\nOan dosinten en skoallen:\nDizze fideo wurdt publisearre ûnder Creative Commons License.\n  CC BY 3.0 https://creativecommons.org/licenses/by/3.0/ \nFiel jo frij om dizze fideo te brûken yn jo klassen!\n\nWy brûke Google Translate tsjinst foar lokalisaasje. As jo wat flaters fine, lit it ús dan witte.\n"
    },
    {
      "Lang": "gd",
      "Title": "Eacarsaichean gràmair Beurla | Gu sìmplidh ⭐️ #34 was",
      "Description": "Ionnsaich gràmar Beurla! Atharraich facal ann an seantans.\n\n\n\n0:04 1:22 2:35 \nShe was in Rome last month\nʃi wɑz ɪn roʊm læst mənθ\nBha i anns an Ròimh air a ’mhìos a chaidh\n\n0:19 1:36 2:49 \nShe is in Rome now\nʃi ɪz ɪn roʊm naʊ\nTha i anns an Ròimh a-nis\n\n0:33 1:49 3:02 \nI am in Rome now\naɪ æm ɪn roʊm naʊ\nTha mi anns an Ròimh a-nis\n\n0:48 2:03 3:16 \nI was in Rome last month\naɪ wɑz ɪn roʊm læst mənθ\nBha mi anns an Ròimh air a ’mhìos a chaidh\n\n1:04 2:18 3:31 \nThey were in Rome last month\nðe wər ɪn roʊm læst mənθ\nBha iad anns an Ròimh air a ’mhìos a chaidh\n\n\n\nDo thidsearan agus sgoiltean:\nTha a ’bhidio seo air fhoillseachadh fo Creative Commons License.\n  CC BY 3.0 https://creativecommons.org/licenses/by/3.0/ \nFaodaidh tu am bhidio seo a chleachdadh anns na clasaichean agad!\n\nBidh sinn a ’cleachdadh seirbheis Google Translate airson sgìreachadh. Ma lorgas tu cuid de mhearachdan, feuch an innis thu dhuinn.\n"
    },
    {
      "Lang": "gl",
      "Title": "Exercicios de gramática inglesa | Sinxelo ⭐️ #34 was",
      "Description": "Aprende gramática inglesa! Cambia unha palabra nunha frase.\n\n\n\n0:04 1:22 2:35 \nShe was in Rome last month\nʃi wɑz ɪn roʊm læst mənθ\nEstivo en Roma o mes pasado\n\n0:19 1:36 2:49 \nShe is in Rome now\nʃi ɪz ɪn roʊm naʊ\nAgora está en Roma\n\n0:33 1:49 3:02 \nI am in Rome now\naɪ æm ɪn roʊm naʊ\nEstou en Roma agora\n\n0:48 2:03 3:16 \nI was in Rome last month\naɪ wɑz ɪn roʊm læst mənθ\nEstiven en Roma o mes pasado\n\n1:04 2:18 3:31 \nThey were in Rome last month\nðe wər ɪn roʊm læst mənθ\nEstiveron en Roma o mes pasado\n\n\n\nPara profesores e colexios:\nEste vídeo está publicado baixo a licenza Creative Commons.\n  CC BY 3.0 https://creativecommons.org/licenses/by/3.0/ \nNon dubides en usar este vídeo nas túas clases.\n\nUsamos o servizo Google Translate para a súa localización. Se atopas algún erro, comunícanos.\n"
    },
    {
      "Lang": "gu",
      "Title": "અંગ્રેજી વ્યાકરણ વ્યાયામ | સરળ ⭐️ #34 was",
      "Description": "અંગ્રેજી વ્યાકરણ શીખો! એક વાક્યમાં એક શબ્દ બદલો.\n\n\n\n0:04 1:22 2:35 \nShe was in Rome last month\nʃi wɑz ɪn roʊm læst mənθ\nતે ગયા મહિને રોમમાં હતી\n\n0:19 1:36 2:49 \nShe is in Rome now\nʃi ɪz ɪn roʊm naʊ\nતે હવે રોમમાં છે\n\n0:33 1:49 3:02 \nI am in Rome now\naɪ æm ɪn roʊm naʊ\nહું હવે રોમમાં છું\n\n0:48 2:03 3:16 \nI was in Rome last month\naɪ wɑz ɪn roʊm læst mənθ\nહું ગયા મહિને રોમમાં હતો\n\n1:04 2:18 3:31 \nThey were in Rome last month\nðe wər ɪn roʊm læst mənθ\nતેઓ ગયા મહિને રોમમાં હતા\n\n\n\nશિક્ષકો અને શાળાઓને:\nઆ વિડિઓ ક્રિએટિવ કonsમન્સ લાઇસન્સ હેઠળ પ્રકાશિત છે.\n  CC BY 3.0 https://creativecommons.org/licenses/by/3.0/ \nતમારા વર્ગોમાં આ વિડિઓનો ઉપયોગ કરવા માટે મફત લાગે!\n\nઅમે સ્થાનિકીકરણ માટે Google ભાષાંતર સેવાનો ઉપયોગ કરીએ છીએ. જો તમને કેટલીક ભૂલો લાગે છે, તો કૃપા કરીને અમને જણાવો.\n"
    },
    {
      "Lang": "ha",
      "Title": "Darasi na ilimin nahawu na Turanci | Mai sauki ⭐️ #34 was",
      "Description": "Koyi ilimin nahawu Turanci! Canja kalma a cikin jumla.\n\n\n\n0:04 1:22 2:35 \nShe was in Rome last month\nʃi wɑz ɪn roʊm læst mənθ\nTana cikin Rome a watan jiya\n\n0:19 1:36 2:49 \nShe is in Rome now\nʃi ɪz ɪn roʊm naʊ\nTana cikin Roma yanzu\n\n0:33 1:49 3:02 \nI am in Rome now\naɪ æm ɪn roʊm naʊ\nIna cikin Rome yanzu\n\n0:48 2:03 3:16 \nI was in Rome last month\naɪ wɑz ɪn roʊm læst mənθ\nNa kasance a Rome a watan da ya gabata\n\n1:04 2:18 3:31 \nThey were in Rome last month\nðe wər ɪn roʊm læst mənθ\nSun kasance a Rome a watan jiya\n\n\n\nGa malamai da makarantu:\nWannan bidiyon an buga shi a ƙarƙashin lasisin Creative Commons.\n  CC BY 3.0 https://creativecommons.org/licenses/by/3.0/ \nJin kyauta don amfani da wannan bidiyon a cikin azuzuwanku!\n\nMuna amfani da sabis na Google Fassara don fassarar. Idan ka sami wasu kurakurai, da fatan za a sanar da mu.\n"
    },
    {
      "Lang": "hi",
      "Title": "अंग्रेजी व्याकरण अभ्यास | सरल ⭐️ #34 was",
      "Description": "अंग्रेजी व्याकरण जानें! एक वाक्य में एक शब्द बदलें।\n\n\n\n0:04 1:22 2:35 \nShe was in Rome last month\nʃi wɑz ɪn roʊm læst mənθ\nवह पिछले महीने रोम में थी\n\n0:19 1:36 2:49 \nShe is in Rome now\nʃi ɪz ɪn roʊm naʊ\nवह अभी रोम में है\n\n0:33 1:49 3:02 \nI am in Rome now\naɪ æm ɪn roʊm naʊ\nमैं अभी रोम में हूं\n\n0:48 2:03 3:16 \nI was in Rome last month\naɪ wɑz ɪn roʊm læst mənθ\nमैं पिछले महीने रोम में था\n\n1:04 2:18 3:31 \nThey were in Rome last month\nðe wər ɪn roʊm læst mənθ\nवे पिछले महीने रोम में थे\n\n\n\nशिक्षकों और स्कूलों के लिए:\nयह वीडियो क्रिएटिव कॉमन्स लाइसेंस के तहत प्रकाशित हुआ है।\n  CC BY 3.0 https://creativecommons.org/licenses/by/3.0/ \nअपनी कक्षाओं में इस वीडियो का उपयोग करने के लिए स्वतंत्र महसूस करें!\n\nहम स्थानीयकरण के लिए Google अनुवाद सेवा का उपयोग करते हैं। यदि आप कुछ गलतियाँ पाते हैं, तो कृपया हमें बताएँ।\n"
    },
    {
      "Lang": "hr",
      "Title": "Gramatičke vježbe engleskog jezika | Jednostavan ⭐️ #34 was",
      "Description": "Naučite englesku gramatiku! Promijenite riječ u rečenici.\n\n\n\n0:04 1:22 2:35 \nShe was in Rome last month\nʃi wɑz ɪn roʊm læst mənθ\nBila je u Rimu prošlog mjeseca\n\n0:19 1:36 2:49 \nShe is in Rome now\nʃi ɪz ɪn roʊm naʊ\nSada je u Rimu\n\n0:33 1:49 3:02 \nI am in Rome now\naɪ æm ɪn roʊm naʊ\nSada sam u Rimu\n\n0:48 2:03 3:16 \nI was in Rome last month\naɪ wɑz ɪn roʊm læst mənθ\nBio sam prošlog mjeseca u Rimu\n\n1:04 2:18 3:31 \nThey were in Rome last month\nðe wər ɪn roʊm læst mənθ\nBili su u Rimu prošlog mjeseca\n\n\n\nNastavnicima i školama:\nOvaj videozapis objavljen je pod licencom Creative Commons.\n  CC BY 3.0 https://creativecommons.org/licenses/by/3.0/ \nSlobodno upotrijebite ovaj videozapis u svojim predavanjima!\n\nZa lokalizaciju koristimo uslugu Google Translate. Ako pronađete neke pogreške, javite nam se.\n"
    },
    {
      "Lang": "hu",
      "Title": "Angol nyelvtan gyakorlatok | Egyszerű ⭐️ #34 was",
      "Description": "Tanulj angol nyelvtant! Változtasson egy szót egy mondatban.\n\n\n\n0:04 1:22 2:35 \nShe was in Rome last month\nʃi wɑz ɪn roʊm læst mənθ\nMúlt hónapban volt Rómában\n\n0:19 1:36 2:49 \nShe is in Rome now\nʃi ɪz ɪn roʊm naʊ\nMost Rómában van\n\n0:33 1:49 3:02 \nI am in Rome now\naɪ æm ɪn roʊm naʊ\nMost Rómában vagyok\n\n0:48 2:03 3:16 \nI was in Rome last month\naɪ wɑz ɪn roʊm læst mənθ\nMúlt hónapban voltam Rómában\n\n1:04 2:18 3:31 \nThey were in Rome last month\nðe wər ɪn roʊm læst mənθ\nMúlt hónapban voltak Rómában\n\n\n\nTanároknak és iskoláknak:\nEz a videó a Creative Commons License alatt jelenik meg.\n  CC BY 3.0 https://creativecommons.org/licenses/by/3.0/ \nNyugodtan használja ezt a videót az osztályokban!\n\nA lokalizációhoz a Google Translate szolgáltatást használjuk. Ha hibát talál, kérjük, ossza meg velünk.\n"
    },
    {
      "Lang": "hy",
      "Title": "Անգլերենի քերականական վարժություններ | Պարզ ⭐️ #34 was",
      "Description": "Իմացեք անգլերեն քերականությունը: Մի նախադասությամբ մի բառ փոխեք:\n\n\n\n0:04 1:22 2:35 \nShe was in Rome last month\nʃi wɑz ɪn roʊm læst mənθ\nԱնցյալ ամիս նա Հռոմում էր\n\n0:19 1:36 2:49 \nShe is in Rome now\nʃi ɪz ɪn roʊm naʊ\nՆա այժմ Հռոմում է\n\n0:33 1:49 3:02 \nI am in Rome now\naɪ æm ɪn roʊm naʊ\nԵս հիմա Հռոմում եմ\n\n0:48 2:03 3:16 \nI was in Rome last month\naɪ wɑz ɪn roʊm læst mənθ\nԱնցյալ ամիս ես Հռոմում էի\n\n1:04 2:18 3:31 \nThey were in Rome last month\nðe wər ɪn roʊm læst mənθ\nԱնցյալ ամիս նրանք Հռոմում էին\n\n\n\nՈւսուցիչներին և դպրոցներին.\nԱյս տեսանյութը հրապարակված է Creative Commons արտոնագրի ներքո:\n  CC BY 3.0 https://creativecommons.org/licenses/by/3.0/ \nԱզատորեն օգտվեք այս տեսանյութից ձեր դասերից:\n\nՄենք օգտագործում ենք Google Translate ծառայությունը տեղայնացման համար: Եթե որոշ սխալներ եք գտնում, խնդրում ենք տեղեկացնել մեզ:\n"
    },
    {
      "Lang": "id",
      "Title": "Latihan tata bahasa Inggris | Sederhana ⭐️ #34 was",
      "Description": "Belajar tata bahasa Inggris! Ubah kata dalam kalimat.\n\n\n\n0:04 1:22 2:35 \nShe was in Rome last month\nʃi wɑz ɪn roʊm læst mənθ\nDia berada di Roma bulan lalu\n\n0:19 1:36 2:49 \nShe is in Rome now\nʃi ɪz ɪn roʊm naʊ\nDia ada di Roma sekarang\n\n0:33 1:49 3:02 \nI am in Rome now\naɪ æm ɪn roʊm naʊ\nSaya di Roma sekarang\n\n0:48 2:03 3:16 \nI was in Rome last month\naɪ wɑz ɪn roʊm læst mənθ\nSaya berada di Roma bulan lalu\n\n1:04 2:18 3:31 \nThey were in Rome last month\nðe wər ɪn roʊm læst mənθ\nMereka berada di Roma bulan lalu\n\n\n\nKepada guru dan sekolah:\nVideo ini diterbitkan di bawah Lisensi Creative Commons.\n  CC BY 3.0 https://creativecommons.org/licenses/by/3.0/ \nJangan ragu untuk menggunakan video ini di kelas Anda!\n\nKami menggunakan layanan Google Terjemahan untuk pelokalan. Jika Anda menemukan beberapa kesalahan, beri tahu kami.\n"
    },
    {
      "Lang": "ig",
      "Title": "Ọmụmụ asụsụ ụtọ asụsụ Bekee | Dị Mfe ⭐️ #34 was",
      "Description": "Muta asusu bekee! Gbanwee okwu na ahịrịokwu.\n\n\n\n0:04 1:22 2:35 \nShe was in Rome last month\nʃi wɑz ɪn roʊm læst mənθ\nỌ nọ na Rome n'ọnwa gara aga\n\n0:19 1:36 2:49 \nShe is in Rome now\nʃi ɪz ɪn roʊm naʊ\nỌ nọ na Rome ugbu a\n\n0:33 1:49 3:02 \nI am in Rome now\naɪ æm ɪn roʊm naʊ\nAnọ m na Rome ugbu a\n\n0:48 2:03 3:16 \nI was in Rome last month\naɪ wɑz ɪn roʊm læst mənθ\nAnọ m na Rome n’ọnwa gara aga\n\n1:04 2:18 3:31 \nThey were in Rome last month\nðe wər ɪn roʊm læst mənθ\nHa nọ na Rome n'ọnwa gara aga\n\n\n\nMaka ndị nkuzi na ụlọ akwụkwọ:\nEdere vidiyo a n'okpuru ikikere Creative Commons.\n  CC BY 3.0 https://creativecommons.org/licenses/by/3.0/ \nNwere onwe gị iji vidiyo a na klaasị gị!\n\nAnyị na-eji ọrụ ntụgharị Google emegharị. Ọ bụrụ n’ịhụ ụfọdụ mmejọ, biko mee ka anyị mara.\n"
    },
    {
      "Lang": "is",
      "Title": "Enskar málfræðiæfingar | Einfalt ⭐️ #34 was",
      "Description": "Lærðu ensku málfræði! Skiptu um orð í setningu.\n\n\n\n0:04 1:22 2:35 \nShe was in Rome last month\nʃi wɑz ɪn roʊm læst mənθ\nHún var í Róm í síðasta mánuði\n\n0:19 1:36 2:49 \nShe is in Rome now\nʃi ɪz ɪn roʊm naʊ\nHún er núna í Róm\n\n0:33 1:49 3:02 \nI am in Rome now\naɪ æm ɪn roʊm naʊ\nÉg er í Róm núna\n\n0:48 2:03 3:16 \nI was in Rome last month\naɪ wɑz ɪn roʊm læst mənθ\nÉg var í Róm í síðasta mánuði\n\n1:04 2:18 3:31 \nThey were in Rome last month\nðe wər ɪn roʊm læst mənθ\nÞeir voru í Róm í síðasta mánuði\n\n\n\nTil kennara og skóla:\nÞetta myndband er birt undir Creative Commons leyfi.\n  CC BY 3.0 https://creativecommons.org/licenses/by/3.0/ \nEkki hika við að nota þetta myndband í bekkjum þínum!\n\nVið notum Google Translate þjónustu til að staðsetja. Láttu okkur vita ef þú finnur fyrir einhverjum mistökum.\n"
    },
    {
      "Lang": "it",
      "Title": "Esercizi di grammatica inglese | Semplice ⭐️ #34 was",
      "Description": "Impara la grammatica inglese! Cambia una parola in una frase.\n\n\n\n0:04 1:22 2:35 \nShe was in Rome last month\nʃi wɑz ɪn roʊm læst mənθ\nEra a Roma il mese scorso\n\n0:19 1:36 2:49 \nShe is in Rome now\nʃi ɪz ɪn roʊm naʊ\nAdesso è a Roma\n\n0:33 1:49 3:02 \nI am in Rome now\naɪ æm ɪn roʊm naʊ\nSono a Roma adesso\n\n0:48 2:03 3:16 \nI was in Rome last month\naɪ wɑz ɪn roʊm læst mənθ\nSono stato a Roma il mese scorso\n\n1:04 2:18 3:31 \nThey were in Rome last month\nðe wər ɪn roʊm læst mənθ\nErano a Roma il mese scorso\n\n\n\nPer insegnanti e scuole:\nQuesto video è pubblicato sotto la licenza Creative Commons.\n  CC BY 3.0 https://creativecommons.org/licenses/by/3.0/ \nSentiti libero di usare questo video nelle tue lezioni!\n\nUtilizziamo il servizio Google Translate per la localizzazione. Se trovi qualche errore, faccelo sapere.\n"
    },
    {
      "Lang": "iw",
      "Title": "תרגילי דקדוק באנגלית | פשוט ⭐️ #34 was",
      "Description": "למד דקדוק באנגלית! שנה מילה במשפט.\n\n\n\n0:04 1:22 2:35 \nShe was in Rome last month\nʃi wɑz ɪn roʊm læst mənθ\nהיא הייתה ברומא בחודש שעבר\n\n0:19 1:36 2:49 \nShe is in Rome now\nʃi ɪz ɪn roʊm naʊ\nהיא עכשיו ברומא\n\n0:33 1:49 3:02 \nI am in Rome now\naɪ æm ɪn roʊm naʊ\nאני עכשיו ברומא\n\n0:48 2:03 3:16 \nI was in Rome last month\naɪ wɑz ɪn roʊm læst mənθ\nהייתי ברומא בחודש שעבר\n\n1:04 2:18 3:31 \nThey were in Rome last month\nðe wər ɪn roʊm læst mənθ\nהם היו ברומא בחודש שעבר\n\n\n\nלמורים ובתי ספר:\nסרטון זה מתפרסם תחת רישיון Creative Commons.\n  CC BY 3.0 https://creativecommons.org/licenses/by/3.0/ \nאל תהסס להשתמש בסרטון זה בשיעורים שלך!\n\nאנו משתמשים בשירות Google Translate לצורך לוקליזציה. אם אתה מוצא טעויות, אנא הודע לנו על כך.\n"
    },
    {
      "Lang": "ja",
      "Title": "英文法練習 | シンプル ⭐️ #34 was",
      "Description": "英語の文法を学びましょう！ 文中の単語を変更します。\n\n\n\n0:04 1:22 2:35 \nShe was in Rome last month\nʃi wɑz ɪn roʊm læst mənθ\n彼女は先月ローマにいました\n\n0:19 1:36 2:49 \nShe is in Rome now\nʃi ɪz ɪn roʊm naʊ\n彼女は今ローマにいます\n\n0:33 1:49 3:02 \nI am in Rome now\naɪ æm ɪn roʊm naʊ\n私は今ローマにいます\n\n0:48 2:03 3:16 \nI was in Rome last month\naɪ wɑz ɪn roʊm læst mənθ\n私は先月ローマにいました\n\n1:04 2:18 3:31 \nThey were in Rome last month\nðe wər ɪn roʊm læst mənθ\n彼らは先月ローマにいました\n\n\n\n先生と学校へ：\nこのビデオは、クリエイティブコモンズライセンスの下で公開されています。\n  CC BY 3.0 https://creativecommons.org/licenses/by/3.0/ \nこのビデオをクラスで自由に使用してください！\n\nローカライズにはGoogle翻訳サービスを使用しています。間違いを見つけた場合はお知らせください。\n"
    },
    {
      "Lang": "jv",
      "Title": "Latihan grammar Inggris | Prasaja ⭐️ #34 was",
      "Description": "Sinau tata basa Inggris! Ngganti tembung sajrone ukara.\n\n\n\n0:04 1:22 2:35 \nShe was in Rome last month\nʃi wɑz ɪn roʊm læst mənθ\nDheweke ing Roma wulan kepungkur\n\n0:19 1:36 2:49 \nShe is in Rome now\nʃi ɪz ɪn roʊm naʊ\nDheweke ing Roma saiki\n\n0:33 1:49 3:02 \nI am in Rome now\naɪ æm ɪn roʊm naʊ\nAku ing Roma saiki\n\n0:48 2:03 3:16 \nI was in Rome last month\naɪ wɑz ɪn roʊm læst mənθ\nAku ing wulan wulan kepungkur\n\n1:04 2:18 3:31 \nThey were in Rome last month\nðe wər ɪn roʊm læst mənθ\nDheweke ana ing Rom ing wulan kepungkur\n\n\n\nTumrap guru lan sekolah:\nVideo iki diterbitake ing lisensi Creative Commons.\n  CC BY 3.0 https://creativecommons.org/licenses/by/3.0/ \nOjo nggunakake video iki ing kelas sampeyan!\n\nKita nggunakake layanan Google Translate kanggo lokalisasi. Yen sampeyan nemokake sawetara kesalahan, kabari.\n"
    },
    {
      "Lang": "ka",
      "Title": "ინგლისური გრამატიკის სავარჯიშოები | მარტივი ⭐️ #34 was",
      "Description": "შეიტყვეთ ინგლისური ენის გრამატიკა! წინადადებაში შეცვალეთ სიტყვა.\n\n\n\n0:04 1:22 2:35 \nShe was in Rome last month\nʃi wɑz ɪn roʊm læst mənθ\nგასულ თვეში იგი რომში იმყოფებოდა\n\n0:19 1:36 2:49 \nShe is in Rome now\nʃi ɪz ɪn roʊm naʊ\nის ახლა რომში იმყოფება\n\n0:33 1:49 3:02 \nI am in Rome now\naɪ æm ɪn roʊm naʊ\nახლა რომში ვარ\n\n0:48 2:03 3:16 \nI was in Rome last month\naɪ wɑz ɪn roʊm læst mənθ\nგასულ თვეში რომში ვიყავი\n\n1:04 2:18 3:31 \nThey were in Rome last month\nðe wər ɪn roʊm læst mənθ\nისინი გასულ თვეში რომში იმყოფებოდნენ\n\n\n\nმასწავლებლებსა და სკოლებს:\nეს ვიდეო გამოქვეყნებულია Creative Commons- ის ლიცენზიით.\n  CC BY 3.0 https://creativecommons.org/licenses/by/3.0/ \nშეგიძლიათ გამოიყენოთ ეს ვიდეო თქვენს კლასებში!\n\nჩვენ ვიყენებთ Google Translate სერვისს ლოკალიზაციისთვის. თუ შეცდომებს იპოვნით, გთხოვთ, შეგვატყობინოთ.\n"
    },
    {
      "Lang": "kk",
      "Title": "Ағылшын грамматикалық жаттығулары | Қарапайым ⭐️ #34 was",
      "Description": "Ағылшын грамматикасын үйрен! Сөйлемдегі сөзді өзгертіңіз.\n\n\n\n0:04 1:22 2:35 \nShe was in Rome last month\nʃi wɑz ɪn roʊm læst mənθ\nОл өткен айда Римде болған\n\n0:19 1:36 2:49 \nShe is in Rome now\nʃi ɪz ɪn roʊm naʊ\nОл қазір Римде\n\n0:33 1:49 3:02 \nI am in Rome now\naɪ æm ɪn roʊm naʊ\nМен қазір Римдемін\n\n0:48 2:03 3:16 \nI was in Rome last month\naɪ wɑz ɪn roʊm læst mənθ\nМен өткен айда Римде болдым\n\n1:04 2:18 3:31 \nThey were in Rome last month\nðe wər ɪn roʊm læst mənθ\nОлар Римде өткен айда болды\n\n\n\nОқытушылар мен мектептерге:\nБұл бейне Creative Commons лицензиясы бойынша жарияланған.\n  CC BY 3.0 https://creativecommons.org/licenses/by/3.0/ \nБұл бейнені өз сабақтарыңызда қолдануға болады!\n\nGoogle Translate қызметін локализациялау үшін қолданамыз. Егер сіз қате тапсаңыз, бізге хабарлаңыз.\n"
    },
    {
      "Lang": "km",
      "Title": "លំហាត់វេយ្យាករណ៍អង់គ្លេស | សាមញ្ញ ⭐️ #34 was",
      "Description": "រៀនវេយ្យាករណ៍អង់គ្លេស! ផ្លាស់ប្តូរពាក្យនៅក្នុងប្រយោគមួយ។\n\n\n\n0:04 1:22 2:35 \nShe was in Rome last month\nʃi wɑz ɪn roʊm læst mənθ\nនាងបាននៅទីក្រុងរ៉ូមកាលពីខែមុន\n\n0:19 1:36 2:49 \nShe is in Rome now\nʃi ɪz ɪn roʊm naʊ\nឥឡូវនេះនាងស្ថិតនៅក្នុងទីក្រុងរ៉ូម\n\n0:33 1:49 3:02 \nI am in Rome now\naɪ æm ɪn roʊm naʊ\nខ្ញុំនៅទីក្រុងរ៉ូមឥឡូវនេះ\n\n0:48 2:03 3:16 \nI was in Rome last month\naɪ wɑz ɪn roʊm læst mənθ\nខ្ញុំបាននៅទីក្រុងរ៉ូមកាលពីខែមុន\n\n1:04 2:18 3:31 \nThey were in Rome last month\nðe wər ɪn roʊm læst mənθ\nពួកគេនៅទីក្រុងរ៉ូមកាលពីខែមុន\n\n\n\nជូនដល់គ្រូនិងសាលា៖\nវីដេអូនេះត្រូវបានផ្សព្វផ្សាយក្រោមអាជ្ញាប័ណ្ណច្នៃប្រឌិត។\n  CC BY 3.0 https://creativecommons.org/licenses/by/3.0/ \nសូមប្រើវីដេអូនេះនៅក្នុងថ្នាក់របស់អ្នកដោយឥតគិតថ្លៃ!\n\nយើងប្រើសេវាកម្មបកប្រែហ្គូហ្គលសម្រាប់ការធ្វើមូលដ្ឋានីយកម្ម។ ប្រសិនបើអ្នករកឃើញកំហុសខ្លះសូមប្រាប់ឱ្យយើងដឹង។\n"
    },
    {
      "Lang": "kn",
      "Title": "ಇಂಗ್ಲಿಷ್ ವ್ಯಾಕರಣ ವ್ಯಾಯಾಮ | ಸರಳ ⭐️ #34 was",
      "Description": "ಇಂಗ್ಲಿಷ್ ವ್ಯಾಕರಣ ಕಲಿಯಿರಿ! ಒಂದು ವಾಕ್ಯದಲ್ಲಿ ಪದವನ್ನು ಬದಲಾಯಿಸಿ.\n\n\n\n0:04 1:22 2:35 \nShe was in Rome last month\nʃi wɑz ɪn roʊm læst mənθ\nಅವರು ಕಳೆದ ತಿಂಗಳು ರೋಮ್ನಲ್ಲಿದ್ದರು\n\n0:19 1:36 2:49 \nShe is in Rome now\nʃi ɪz ɪn roʊm naʊ\nಅವಳು ಈಗ ರೋಮ್ನಲ್ಲಿದ್ದಾಳೆ\n\n0:33 1:49 3:02 \nI am in Rome now\naɪ æm ɪn roʊm naʊ\nನಾನು ಈಗ ರೋಮ್‌ನಲ್ಲಿದ್ದೇನೆ\n\n0:48 2:03 3:16 \nI was in Rome last month\naɪ wɑz ɪn roʊm læst mənθ\nನಾನು ಕಳೆದ ತಿಂಗಳು ರೋಮ್‌ನಲ್ಲಿದ್ದೆ\n\n1:04 2:18 3:31 \nThey were in Rome last month\nðe wər ɪn roʊm læst mənθ\nಅವರು ಕಳೆದ ತಿಂಗಳು ರೋಮ್ನಲ್ಲಿದ್ದರು\n\n\n\nಶಿಕ್ಷಕರು ಮತ್ತು ಶಾಲೆಗಳಿಗೆ:\nಈ ವೀಡಿಯೊವನ್ನು ಕ್ರಿಯೇಟಿವ್ ಕಾಮನ್ಸ್ ಪರವಾನಗಿ ಅಡಿಯಲ್ಲಿ ಪ್ರಕಟಿಸಲಾಗಿದೆ.\n  CC BY 3.0 https://creativecommons.org/licenses/by/3.0/ \nನಿಮ್ಮ ತರಗತಿಗಳಲ್ಲಿ ಈ ವೀಡಿಯೊವನ್ನು ಬಳಸಲು ಹಿಂಜರಿಯಬೇಡಿ!\n\nಸ್ಥಳೀಕರಣಕ್ಕಾಗಿ ನಾವು Google ಅನುವಾದ ಸೇವೆಯನ್ನು ಬಳಸುತ್ತೇವೆ. ನೀವು ಕೆಲವು ತಪ್ಪುಗಳನ್ನು ಕಂಡುಕೊಂಡರೆ, ದಯವಿಟ್ಟು ನಮಗೆ ತಿಳಿಸಿ.\n"
    },
    {
      "Lang": "ko",
      "Title": "영어 문법 연습 | 단순한 ⭐️ #34 was",
      "Description": "영어 문법 배우기! 문장에서 단어를 변경하십시오.\n\n\n\n0:04 1:22 2:35 \nShe was in Rome last month\nʃi wɑz ɪn roʊm læst mənθ\n그녀는 지난 달 로마에있었습니다\n\n0:19 1:36 2:49 \nShe is in Rome now\nʃi ɪz ɪn roʊm naʊ\n그녀는 지금 로마에있다\n\n0:33 1:49 3:02 \nI am in Rome now\naɪ æm ɪn roʊm naʊ\n나는 지금 로마에있다\n\n0:48 2:03 3:16 \nI was in Rome last month\naɪ wɑz ɪn roʊm læst mənθ\n나는 지난 달에 로마에 있었다\n\n1:04 2:18 3:31 \nThey were in Rome last month\nðe wər ɪn roʊm læst mənθ\n지난 달에 로마에 있었어요\n\n\n\n교사와 학교 :\n이 비디오는 Creative Commons License에 따라 게시됩니다.\n  CC BY 3.0 https://creativecommons.org/licenses/by/3.0/ \n이 비디오를 수업에 자유롭게 사용하십시오!\n\n현지화를 위해 Google 번역 서비스를 사용합니다. 실수가 있으면 알려주세요.\n"
    },
    {
      "Lang": "ku",
      "Title": "Pratîkên rêzimanê Englishngilîzî | Asan ⭐️ #34 was",
      "Description": "Gramera Englishngilîzî fêr bibin! Di hevokan de peyvek diguhezin.\n\n\n\n0:04 1:22 2:35 \nShe was in Rome last month\nʃi wɑz ɪn roʊm læst mənθ\nEw meha borî li Romayê bû\n\n0:19 1:36 2:49 \nShe is in Rome now\nʃi ɪz ɪn roʊm naʊ\nEw naha li Romayê ye\n\n0:33 1:49 3:02 \nI am in Rome now\naɪ æm ɪn roʊm naʊ\nEz naha li Romayê me\n\n0:48 2:03 3:16 \nI was in Rome last month\naɪ wɑz ɪn roʊm læst mənθ\nEz meha borî li Romayê bûm\n\n1:04 2:18 3:31 \nThey were in Rome last month\nðe wər ɪn roʊm læst mənθ\nEw meha borî li Romayê bûn\n\n\n\nJi mamoste û dibistanan re:\nEv vîdyoyê di bin lîsansa Creative Commons-ê de hatî weşandin.\n  CC BY 3.0 https://creativecommons.org/licenses/by/3.0/ \nHêsan e ku hûn vê vîdyoyê di sinifên xwe de bikar bînin!\n\nEm ji bo herêmbûnê karûbarê Google Translate kar dikin. Heke hûn hin xeletiyan bibînin, ji kerema xwe ji me re agahdar bikin.\n"
    },
    {
      "Lang": "ky",
      "Title": "Англис тилинин грамматикасы боюнча көнүгүүлөр | жөнөкөй ⭐️ #34 was",
      "Description": "Үйрөнүү Англис тилинин грамматикасы! Сүйлөмдөгү Сөздү өзгөртүү.\n\n\n\n0:04 1:22 2:35 \nShe was in Rome last month\nʃi wɑz ɪn roʊm læst mənθ\nАл өткөн айда Римде болчу\n\n0:19 1:36 2:49 \nShe is in Rome now\nʃi ɪz ɪn roʊm naʊ\nАл эми Римде турат\n\n0:33 1:49 3:02 \nI am in Rome now\naɪ æm ɪn roʊm naʊ\nМен азыр Рим жатам\n\n0:48 2:03 3:16 \nI was in Rome last month\naɪ wɑz ɪn roʊm læst mənθ\nМен өткөн айда Римде болчу\n\n1:04 2:18 3:31 \nThey were in Rome last month\nðe wər ɪn roʊm læst mənθ\nАлар өткөн айда Римде болчу\n\n\n\nмугалимдер жана мектептер үчүн:\nБул көргөзмө Creative Commons лиссиэнсийэ усулуобуйатынан жарыяланат.\n  CC BY 3.0 https://creativecommons.org/licenses/by/3.0/ \nСиздин класстары колдонсо болот!\n\nБиз Google локалдаштыруу үчүн Котормо кызматын пайдаланышат. Эгер кээ бир ката болсо, бизге айтып койуу.\n"
    },
    {
      "Lang": "lb",
      "Title": "Englesch Grammatikübungen | Einfach ⭐️ #34 was",
      "Description": "Léiert Englesch Grammatik! Ännert e Wuert an engem Saz.\n\n\n\n0:04 1:22 2:35 \nShe was in Rome last month\nʃi wɑz ɪn roʊm læst mənθ\nSi war de leschten Mount zu Roum\n\n0:19 1:36 2:49 \nShe is in Rome now\nʃi ɪz ɪn roʊm naʊ\nSi ass elo zu Roum\n\n0:33 1:49 3:02 \nI am in Rome now\naɪ æm ɪn roʊm naʊ\nEch sinn elo zu Roum\n\n0:48 2:03 3:16 \nI was in Rome last month\naɪ wɑz ɪn roʊm læst mənθ\nEch war de leschte Mount zu Roum\n\n1:04 2:18 3:31 \nThey were in Rome last month\nðe wər ɪn roʊm læst mənθ\nSi waren de leschte Mount zu Roum\n\n\n\nUn de Schoulmeeschteren an d'Schoulen:\nDëse Video ass ënner der Creative Commons Lizenz verëffentlecht.\n  CC BY 3.0 https://creativecommons.org/licenses/by/3.0/ \nFillt gratis dësen Video zu Ären Klassen ze benotzen!\n\nMir benotzen den Google Translate Service fir d'Lokalisatioun. Wann Dir e puer Feeler fannt, da sot eis w.e.g.\n"
    },
    {
      "Lang": "lo",
      "Title": "ບົດເຝິກຫັດໄວຍາກອນພາສາອັງກິດ | ງ່າຍດາຍ ⭐️ #34 was",
      "Description": "ຮຽນຮູ້ຫລັກໄວຍາກອນພາສາອັງກິດ! ປ່ຽນ ຄຳ ສັບໃນປະໂຫຍກ.\n\n\n\n0:04 1:22 2:35 \nShe was in Rome last month\nʃi wɑz ɪn roʊm læst mənθ\nນາງໄດ້ຢູ່ໃນ Rome ໃນເດືອນແລ້ວນີ້\n\n0:19 1:36 2:49 \nShe is in Rome now\nʃi ɪz ɪn roʊm naʊ\nດຽວນີ້ນາງຢູ່ກຸງໂລມ\n\n0:33 1:49 3:02 \nI am in Rome now\naɪ æm ɪn roʊm naʊ\nຂ້ອຍຢູ່ກຸງໂຣມດຽວນີ້\n\n0:48 2:03 3:16 \nI was in Rome last month\naɪ wɑz ɪn roʊm læst mənθ\nຂ້າພະເຈົ້າໄດ້ຢູ່ໃນ Rome ໃນເດືອນແລ້ວນີ້\n\n1:04 2:18 3:31 \nThey were in Rome last month\nðe wər ɪn roʊm læst mənθ\nພວກເຂົາຢູ່ເມືອງ Rome ໃນເດືອນແລ້ວນີ້\n\n\n\nເຖິງຄູອາຈານແລະໂຮງຮຽນ:\nວິດີໂອນີ້ລົງພາຍໃຕ້ໃບອະນຸຍາດສ້າງສັນ.\n  CC BY 3.0 https://creativecommons.org/licenses/by/3.0/ \nຮູ້ສຶກວ່າບໍ່ເສຍຄ່າທີ່ຈະໃຊ້ວິດີໂອນີ້ໃນຫ້ອງຮຽນຂອງທ່ານ!\n\nພວກເຮົາໃຊ້ບໍລິການ Google Translate ສຳ ລັບການແປພາສາທ້ອງຖິ່ນ. ຖ້າທ່ານພົບຂໍ້ຜິດພາດບາງຢ່າງ, ກະລຸນາແຈ້ງພວກເຮົາ.\n"
    },
    {
      "Lang": "lt",
      "Title": "Anglų kalbos gramatikos pratimai | Paprasta ⭐️ #34 was",
      "Description": "Išmokite anglų kalbos gramatiką! Pakeiskite žodį sakinyje.\n\n\n\n0:04 1:22 2:35 \nShe was in Rome last month\nʃi wɑz ɪn roʊm læst mənθ\nPraėjusį mėnesį ji buvo Romoje\n\n0:19 1:36 2:49 \nShe is in Rome now\nʃi ɪz ɪn roʊm naʊ\nDabar ji yra Romoje\n\n0:33 1:49 3:02 \nI am in Rome now\naɪ æm ɪn roʊm naʊ\nAš dabar Romoje\n\n0:48 2:03 3:16 \nI was in Rome last month\naɪ wɑz ɪn roʊm læst mənθ\nPraėjusį mėnesį buvau Romoje\n\n1:04 2:18 3:31 \nThey were in Rome last month\nðe wər ɪn roʊm læst mənθ\nPraėjusį mėnesį jie buvo Romoje\n\n\n\nMokytojams ir mokykloms:\nŠis vaizdo įrašas paskelbtas naudojant „Creative Commons“ licenciją.\n  CC BY 3.0 https://creativecommons.org/licenses/by/3.0/ \nNesivaržykite naudotis šiuo vaizdo įrašu savo klasėse!\n\nLokalizavimui naudojame „Google Translate“ paslaugą. Jei radote klaidų, praneškite mums.\n"
    },
    {
      "Lang": "lv",
      "Title": "Angļu valodas gramatikas vingrinājumi | Vienkārši ⭐️ #34 was",
      "Description": "Mācieties angļu valodas gramatiku! Mainiet vārdu teikumā.\n\n\n\n0:04 1:22 2:35 \nShe was in Rome last month\nʃi wɑz ɪn roʊm læst mənθ\nPagājušajā mēnesī viņa bija Romā\n\n0:19 1:36 2:49 \nShe is in Rome now\nʃi ɪz ɪn roʊm naʊ\nViņa tagad atrodas Romā\n\n0:33 1:49 3:02 \nI am in Rome now\naɪ æm ɪn roʊm naʊ\nEs tagad esmu Romā\n\n0:48 2:03 3:16 \nI was in Rome last month\naɪ wɑz ɪn roʊm læst mənθ\nEs biju Romā pagājušajā mēnesī\n\n1:04 2:18 3:31 \nThey were in Rome last month\nðe wər ɪn roʊm læst mənθ\nViņi pagājušajā mēnesī bija Romā\n\n\n\nSkolotājiem un skolām:\nŠis video ir publicēts saskaņā ar Creative Commons licenci.\n  CC BY 3.0 https://creativecommons.org/licenses/by/3.0/ \nJūtieties brīvi izmantot šo video savās nodarbībās!\n\nLokalizācijai mēs izmantojam Google Translate pakalpojumu. Ja atrodat dažas kļūdas, lūdzu, paziņojiet mums.\n"
    },
    {
      "Lang": "mg",
      "Title": "Fanatanjahantena anglisy | Simple ⭐️ #34 was",
      "Description": "Ianaro ny fitsipi-pitenenana anglisy! Manova teny amin'ny fehezanteny iray.\n\n\n\n0:04 1:22 2:35 \nShe was in Rome last month\nʃi wɑz ɪn roʊm læst mənθ\nTao Roma izy tamin’iny volana lasa iny\n\n0:19 1:36 2:49 \nShe is in Rome now\nʃi ɪz ɪn roʊm naʊ\nAny Rome izy izao\n\n0:33 1:49 3:02 \nI am in Rome now\naɪ æm ɪn roʊm naʊ\nAo Roma aho izao\n\n0:48 2:03 3:16 \nI was in Rome last month\naɪ wɑz ɪn roʊm læst mənθ\nTao Roma aho tamin'ny volana lasa teo\n\n1:04 2:18 3:31 \nThey were in Rome last month\nðe wər ɪn roʊm læst mənθ\nTao Roma ny volana lasa teo izy ireo\n\n\n\nHo an'ireo mpampianatra sy sekoly:\nIty horonantsary ity dia navoaka eo ambanin'ny lisansa Creative Commons.\n  CC BY 3.0 https://creativecommons.org/licenses/by/3.0/ \nAza misalasala mampiasa an'io horonantsary io amin'ny kilasinao!\n\nMampiasa ny serivisy Google Translate izahay amin'ny fananganana toerana. Raha mahita hadisoana vitsivitsy ianao dia mba ampahafantaro anay.\n"
    },
    {
      "Lang": "mi",
      "Title": "Mahi whakangungu Ingarihi | He ngawari ⭐️ #34 was",
      "Description": "Akohia te paanui Ingarihi! Hurihia he kupu ki tetahi rerenga rerenga.\n\n\n\n0:04 1:22 2:35 \nShe was in Rome last month\nʃi wɑz ɪn roʊm læst mənθ\nKei Roma ia i te marama kua hipa\n\n0:19 1:36 2:49 \nShe is in Rome now\nʃi ɪz ɪn roʊm naʊ\nKei roto ia i Roma inaianei\n\n0:33 1:49 3:02 \nI am in Rome now\naɪ æm ɪn roʊm naʊ\nKei roto ahau i Roma inaianei\n\n0:48 2:03 3:16 \nI was in Rome last month\naɪ wɑz ɪn roʊm læst mənθ\nI Roma ahau i te marama kua hipa\n\n1:04 2:18 3:31 \nThey were in Rome last month\nðe wər ɪn roʊm læst mənθ\nI a ratou i te marama kua hipa\n\n\n\nKi nga kaiako me nga kura:\nKei te whakaputaina tenei ataata i raro i te Raihana Hoahoatanga.\n  CC BY 3.0 https://creativecommons.org/licenses/by/3.0/ \nKia kore e pai ki te whakamahi i tenei ataata i roto i o akomanga!\n\nKa whakamahia e matou he whakamaoritanga a Google mo te whakangao. Mena ka kitea e koe etahi he, tena koa kia mohio.\n"
    },
    {
      "Lang": "mk",
      "Title": "Вежби за граматика на англиски јазик | Едноставно ⭐️ #34 was",
      "Description": "Дознајте англиска граматика! Променете збор во реченица.\n\n\n\n0:04 1:22 2:35 \nShe was in Rome last month\nʃi wɑz ɪn roʊm læst mənθ\nМинатиот месец беше во Рим\n\n0:19 1:36 2:49 \nShe is in Rome now\nʃi ɪz ɪn roʊm naʊ\nСега е во Рим\n\n0:33 1:49 3:02 \nI am in Rome now\naɪ æm ɪn roʊm naʊ\nСега сум во Рим\n\n0:48 2:03 3:16 \nI was in Rome last month\naɪ wɑz ɪn roʊm læst mənθ\nБев во Рим минатиот месец\n\n1:04 2:18 3:31 \nThey were in Rome last month\nðe wər ɪn roʊm læst mənθ\nТие беа во Рим минатиот месец\n\n\n\nДо наставниците и училиштата:\nОва видео е објавено под лиценца Криејтив комонс.\n  CC BY 3.0 https://creativecommons.org/licenses/by/3.0/ \nСлободно можете да го користите ова видео во вашите часови!\n\nНие користиме услуга Google Translate за локализација. Ако најдете некои грешки, ве молиме кажете ни.\n"
    },
    {
      "Lang": "ml",
      "Title": "ഇംഗ്ലീഷ് വ്യാകരണ വ്യായാമങ്ങൾ | ലളിതം ⭐️ #34 was",
      "Description": "ഇംഗ്ലീഷ് വ്യാകരണം പഠിക്കൂ! ഒരു വാക്യത്തിൽ ഒരു വാക്ക് മാറ്റുക.\n\n\n\n0:04 1:22 2:35 \nShe was in Rome last month\nʃi wɑz ɪn roʊm læst mənθ\nകഴിഞ്ഞ മാസം അവർ റോമിലായിരുന്നു\n\n0:19 1:36 2:49 \nShe is in Rome now\nʃi ɪz ɪn roʊm naʊ\nഅവൾ ഇപ്പോൾ റോമിലാണ്\n\n0:33 1:49 3:02 \nI am in Rome now\naɪ æm ɪn roʊm naʊ\nഞാൻ ഇപ്പോൾ റോമിലാണ്\n\n0:48 2:03 3:16 \nI was in Rome last month\naɪ wɑz ɪn roʊm læst mənθ\nഞാൻ കഴിഞ്ഞ മാസം റോമിലായിരുന്നു\n\n1:04 2:18 3:31 \nThey were in Rome last month\nðe wər ɪn roʊm læst mənθ\nഅവർ കഴിഞ്ഞ മാസം റോമിലായിരുന്നു\n\n\n\nഅധ്യാപകർക്കും സ്കൂളുകൾക്കും:\nക്രിയേറ്റീവ് കോമൺസ് ലൈസൻസിന് കീഴിൽ ഈ വീഡിയോ പ്രസിദ്ധീകരിച്ചു.\n  CC BY 3.0 https://creativecommons.org/licenses/by/3.0/ \nനിങ്ങളുടെ ക്ലാസുകളിൽ ഈ വീഡിയോ ഉപയോഗിക്കാൻ മടിക്കേണ്ടതില്ല!\n\nപ്രാദേശികവൽക്കരണത്തിനായി ഞങ്ങൾ Google വിവർത്തന സേവനം ഉപയോഗിക്കുന്നു. നിങ്ങൾ ചില തെറ്റുകൾ കണ്ടെത്തുകയാണെങ്കിൽ, ഞങ്ങളെ അറിയിക്കുക.\n"
    },
    {
      "Lang": "mn",
      "Title": "Англи хэлний дүрмийн дасгал | Энгийн ⭐️ #34 was",
      "Description": "Англи хэлний дүрмийн мэдлэгийг сур! Үгийг өгүүлбэр болгон өөрчил.\n\n\n\n0:04 1:22 2:35 \nShe was in Rome last month\nʃi wɑz ɪn roʊm læst mənθ\nТэрээр өнгөрсөн сард Ромд байсан\n\n0:19 1:36 2:49 \nShe is in Rome now\nʃi ɪz ɪn roʊm naʊ\nТэр одоо Ромд байгаа\n\n0:33 1:49 3:02 \nI am in Rome now\naɪ æm ɪn roʊm naʊ\nБи одоо Ромд байна\n\n0:48 2:03 3:16 \nI was in Rome last month\naɪ wɑz ɪn roʊm læst mənθ\nБи өнгөрсөн сард Ромд байсан\n\n1:04 2:18 3:31 \nThey were in Rome last month\nðe wər ɪn roʊm læst mənθ\nТэд өнгөрсөн сард Ромд байсан\n\n\n\nБагш, сургуулиудад:\nЭнэ видео нь Creative Commons License лиценз дээр нийтлэгдсэн.\n  CC BY 3.0 https://creativecommons.org/licenses/by/3.0/ \nЭнэ видеог өөрийн ангиудад ашиглах боломжтой шүү!\n\nБид Google Translate үйлчилгээг нутагшуулах зорилгоор ашигладаг. Хэрэв та алдаа олвол бидэнд мэдэгдээрэй.\n"
    },
    {
      "Lang": "mr",
      "Title": "इंग्रजी व्याकरण व्यायाम | सोपे ⭐️ #34 was",
      "Description": "इंग्रजी व्याकरण जाणून घ्या! एका वाक्यात शब्द बदला.\n\n\n\n0:04 1:22 2:35 \nShe was in Rome last month\nʃi wɑz ɪn roʊm læst mənθ\nगेल्या महिन्यात ती रोममध्ये होती\n\n0:19 1:36 2:49 \nShe is in Rome now\nʃi ɪz ɪn roʊm naʊ\nती आता रोममध्ये आहे\n\n0:33 1:49 3:02 \nI am in Rome now\naɪ æm ɪn roʊm naʊ\nमी आता रोममध्ये आहे\n\n0:48 2:03 3:16 \nI was in Rome last month\naɪ wɑz ɪn roʊm læst mənθ\nमी गेल्या महिन्यात रोममध्ये होतो\n\n1:04 2:18 3:31 \nThey were in Rome last month\nðe wər ɪn roʊm læst mənθ\nगेल्या महिन्यात ते रोममध्ये होते\n\n\n\nशिक्षक आणि शाळा यांना:\nहा व्हिडिओ क्रिएटिव्ह कॉमन्स परवान्या अंतर्गत प्रकाशित झाला आहे.\n  CC BY 3.0 https://creativecommons.org/licenses/by/3.0/ \nआपल्या वर्गांमध्ये हा व्हिडिओ वापरण्यास मोकळ्या मनाने!\n\nआम्ही स्थानिकीकरणासाठी Google भाषांतर सेवा वापरतो. आपल्याला काही चुका आढळल्यास कृपया आम्हाला कळवा.\n"
    },
    {
      "Lang": "ms",
      "Title": "Latihan tatabahasa Bahasa Inggeris | Mudah ⭐️ #34 was",
      "Description": "Belajar bahasa Inggeris! Tukar perkataan dalam ayat.\n\n\n\n0:04 1:22 2:35 \nShe was in Rome last month\nʃi wɑz ɪn roʊm læst mənθ\nDia berada di Rom bulan lepas\n\n0:19 1:36 2:49 \nShe is in Rome now\nʃi ɪz ɪn roʊm naʊ\nDia berada di Rom sekarang\n\n0:33 1:49 3:02 \nI am in Rome now\naɪ æm ɪn roʊm naʊ\nSaya berada di Rom sekarang\n\n0:48 2:03 3:16 \nI was in Rome last month\naɪ wɑz ɪn roʊm læst mənθ\nSaya berada di Rom pada bulan lepas\n\n1:04 2:18 3:31 \nThey were in Rome last month\nðe wər ɪn roʊm læst mənθ\nMereka berada di Rom pada bulan lepas\n\n\n\nKepada guru dan sekolah:\nVideo ini diterbitkan di bawah Lesen Creative Commons.\n  CC BY 3.0 https://creativecommons.org/licenses/by/3.0/ \nJangan ragu untuk menggunakan video ini dalam kelas anda!\n\nKami menggunakan perkhidmatan Terjemahan Google untuk penyetempatan. Jika anda mendapati beberapa kesilapan, sila beritahu kami.\n"
    },
    {
      "Lang": "mt",
      "Title": "Eżerċizzji ta 'grammatika Ingliża | Sempliċi ⭐️ #34 was",
      "Description": "Tgħallem il-grammatika Ingliża! Ibdel kelma f’sentenza.\n\n\n\n0:04 1:22 2:35 \nShe was in Rome last month\nʃi wɑz ɪn roʊm læst mənθ\nKienet Ruma x-xahar li għadda\n\n0:19 1:36 2:49 \nShe is in Rome now\nʃi ɪz ɪn roʊm naʊ\nHija tinsab Ruma issa\n\n0:33 1:49 3:02 \nI am in Rome now\naɪ æm ɪn roʊm naʊ\nJiena issa f’Ruma\n\n0:48 2:03 3:16 \nI was in Rome last month\naɪ wɑz ɪn roʊm læst mənθ\nI kien Ruma x-xahar li għadda\n\n1:04 2:18 3:31 \nThey were in Rome last month\nðe wər ɪn roʊm læst mənθ\nHuma kienu Ruma x-xahar li għadda\n\n\n\nGħalliema u skejjel:\nDan il-video huwa ppublikat taħt il-Liċenzja Creative Commons.\n  CC BY 3.0 https://creativecommons.org/licenses/by/3.0/ \nĦossok liberu li tuża dan il-video fil-klassijiet tiegħek!\n\nAħna nużaw servizz Google Translate għall-lokalizzazzjoni. Jekk issib xi żbalji, jekk jogħġbok għarrafna.\n"
    },
    {
      "Lang": "my",
      "Title": "အင်္ဂလိပ်သဒ္ဒါလေ့ကျင့်ခန်း | ရိုးရှင်းသော ⭐️ #34 was",
      "Description": "အင်္ဂလိပ်သဒ္ဒါကိုလေ့လာပါ။ ဝါကျတွင်စကားလုံးတစ်လုံးပြောင်းပါ။\n\n\n\n0:04 1:22 2:35 \nShe was in Rome last month\nʃi wɑz ɪn roʊm læst mənθ\nသူမသည်ပြီးခဲ့သည့်လကရောမ၌ရှိ၏\n\n0:19 1:36 2:49 \nShe is in Rome now\nʃi ɪz ɪn roʊm naʊ\nသူမသည်ယခုရောမမြို့သို့ရောက်နေပြီ\n\n0:33 1:49 3:02 \nI am in Rome now\naɪ æm ɪn roʊm naʊ\nငါအခုရောမမှာနေတယ်\n\n0:48 2:03 3:16 \nI was in Rome last month\naɪ wɑz ɪn roʊm læst mənθ\nငါပြီးခဲ့သည့်လကရောမမြို့၌ရှိ၏\n\n1:04 2:18 3:31 \nThey were in Rome last month\nðe wər ɪn roʊm læst mənθ\nသူတို့သည်ပြီးခဲ့သည့်လကရောမမြို့၌ရှိခဲ့သည်\n\n\n\nဆရာများနှင့်ကျောင်းများသို့\nဒီဗီဒီယိုကို Creative Commons လိုင်စင်အောက်မှာထုတ်ဝေထားတယ်။\n  CC BY 3.0 https://creativecommons.org/licenses/by/3.0/ \nဤဗီဒီယိုကိုသင်၏အတန်းများ၌အခမဲ့အသုံးပြုပါ။\n\nကျွန်ုပ်တို့သည်ဒေသခံဘာသာပြန်အတွက် Google Translate ဝန်ဆောင်မှုကိုအသုံးပြုသည်။ သင်အမှားအယွင်းများအချို့ရှိပါကကျွန်ုပ်တို့အားအသိပေးပါ။\n"
    },
    {
      "Lang": "ne",
      "Title": "अंग्रेजी व्याकरण व्यायाम | सरल ⭐️ #34 was",
      "Description": "अंग्रेजी व्याकरण सिक्नुहोस्! एक वाक्य मा एक शब्द बदल्नुहोस्।\n\n\n\n0:04 1:22 2:35 \nShe was in Rome last month\nʃi wɑz ɪn roʊm læst mənθ\nउहाँ गत महिना रोममा हुनुहुन्थ्यो\n\n0:19 1:36 2:49 \nShe is in Rome now\nʃi ɪz ɪn roʊm naʊ\nउनी अहिले रोममा छिन्\n\n0:33 1:49 3:02 \nI am in Rome now\naɪ æm ɪn roʊm naʊ\nम अहिले रोममा छु\n\n0:48 2:03 3:16 \nI was in Rome last month\naɪ wɑz ɪn roʊm læst mənθ\nम गएको महिना रोममा थिएँ\n\n1:04 2:18 3:31 \nThey were in Rome last month\nðe wər ɪn roʊm læst mənθ\nतिनीहरू गएको महिना रोममा थिए\n\n\n\nशिक्षक र विद्यालयहरुलाई:\nयो भिडियो क्रिएटिभ कमन्स लाइसेन्स अन्तर्गत प्रकाशित गरिएको छ।\n  CC BY 3.0 https://creativecommons.org/licenses/by/3.0/ \nतपाईंको कक्षामा यो भिडियो प्रयोग गर्न स्वतन्त्र महसुस गर्नुहोस्!\n\nहामी स्थानीयकरणको लागि गुगल अनुवाद सेवा प्रयोग गर्दछौं। यदि तपाईंले केहि गल्तीहरू फेला पार्नुभयो भने, कृपया हामीलाई खबर गर्नुहोस्।\n"
    },
    {
      "Lang": "nl",
      "Title": "Engelse grammatica-oefeningen | Gemakkelijk ⭐️ #34 was",
      "Description": "Leer Engelse grammatica! Verander een woord in een zin.\n\n\n\n0:04 1:22 2:35 \nShe was in Rome last month\nʃi wɑz ɪn roʊm læst mənθ\nZe was vorige maand in Rome\n\n0:19 1:36 2:49 \nShe is in Rome now\nʃi ɪz ɪn roʊm naʊ\nZe is nu in Rome\n\n0:33 1:49 3:02 \nI am in Rome now\naɪ æm ɪn roʊm naʊ\nIk ben nu in Rome\n\n0:48 2:03 3:16 \nI was in Rome last month\naɪ wɑz ɪn roʊm læst mənθ\nIk was vorige maand in Rome\n\n1:04 2:18 3:31 \nThey were in Rome last month\nðe wər ɪn roʊm læst mənθ\nZe waren vorige maand in Rome\n\n\n\nAan leraren en scholen:\nDeze video is gepubliceerd onder Creative Commons License.\n  CC BY 3.0 https://creativecommons.org/licenses/by/3.0/ \nVoel je vrij om deze video in je lessen te gebruiken!\n\nWe gebruiken de Google Translate-service voor lokalisatie. Laat het ons weten als u fouten ontdekt.\n"
    },
    {
      "Lang": "no",
      "Title": "Engelsk grammatikkøvelser | Enkel ⭐️ #34 was",
      "Description": "Lær engelsk grammatikk! Endre et ord i en setning.\n\n\n\n0:04 1:22 2:35 \nShe was in Rome last month\nʃi wɑz ɪn roʊm læst mənθ\nHun var i Roma forrige måned\n\n0:19 1:36 2:49 \nShe is in Rome now\nʃi ɪz ɪn roʊm naʊ\nHun er i Roma nå\n\n0:33 1:49 3:02 \nI am in Rome now\naɪ æm ɪn roʊm naʊ\nJeg er i Roma nå\n\n0:48 2:03 3:16 \nI was in Rome last month\naɪ wɑz ɪn roʊm læst mənθ\nJeg var i Roma forrige måned\n\n1:04 2:18 3:31 \nThey were in Rome last month\nðe wər ɪn roʊm læst mənθ\nDe var i Roma forrige måned\n\n\n\nTil lærere og skoler:\nDenne videoen er publisert under Creative Commons License.\n  CC BY 3.0 https://creativecommons.org/licenses/by/3.0/ \nBruk gjerne denne videoen i klassene dine!\n\nVi bruker Google Translate-tjenesten for lokalisering. Gi beskjed hvis du finner noen feil.\n"
    },
    {
      "Lang": "pa",
      "Title": "ਅੰਗਰੇਜ਼ੀ ਵਿਆਕਰਣ ਅਭਿਆਸ | ਆਸਾਨ ⭐️ #34 was",
      "Description": "ਅੰਗਰੇਜ਼ੀ ਵਿਆਕਰਣ ਸਿੱਖੋ! ਇੱਕ ਵਾਕ ਵਿੱਚ ਇੱਕ ਸ਼ਬਦ ਬਦਲੋ.\n\n\n\n0:04 1:22 2:35 \nShe was in Rome last month\nʃi wɑz ɪn roʊm læst mənθ\nਉਹ ਪਿਛਲੇ ਮਹੀਨੇ ਰੋਮ ਵਿਚ ਸੀ\n\n0:19 1:36 2:49 \nShe is in Rome now\nʃi ɪz ɪn roʊm naʊ\nਉਹ ਹੁਣ ਰੋਮ ਵਿਚ ਹੈ\n\n0:33 1:49 3:02 \nI am in Rome now\naɪ æm ɪn roʊm naʊ\nਮੈਂ ਹੁਣ ਰੋਮ ਵਿਚ ਹਾਂ\n\n0:48 2:03 3:16 \nI was in Rome last month\naɪ wɑz ɪn roʊm læst mənθ\nਮੈਂ ਪਿਛਲੇ ਮਹੀਨੇ ਰੋਮ ਵਿਚ ਸੀ\n\n1:04 2:18 3:31 \nThey were in Rome last month\nðe wər ɪn roʊm læst mənθ\nਉਹ ਪਿਛਲੇ ਮਹੀਨੇ ਰੋਮ ਵਿੱਚ ਸਨ\n\n\n\nਅਧਿਆਪਕਾਂ ਅਤੇ ਸਕੂਲਾਂ ਨੂੰ:\nਇਹ ਵੀਡੀਓ ਕਰੀਏਟਿਵ ਕਾਮਨਜ਼ ਲਾਇਸੈਂਸ ਅਧੀਨ ਪ੍ਰਕਾਸ਼ਤ ਕੀਤਾ ਗਿਆ ਹੈ.\n  CC BY 3.0 https://creativecommons.org/licenses/by/3.0/ \nਇਸ ਕਲਾਸ ਨੂੰ ਆਪਣੀਆਂ ਕਲਾਸਾਂ ਵਿਚ ਵਰਤਣ ਲਈ ਮੁਫ਼ਤ ਮਹਿਸੂਸ ਕਰੋ!\n\nਅਸੀਂ ਸਥਾਨਕਕਰਨ ਲਈ ਗੂਗਲ ਅਨੁਵਾਦ ਸੇਵਾ ਦੀ ਵਰਤੋਂ ਕਰਦੇ ਹਾਂ. ਜੇ ਤੁਹਾਨੂੰ ਕੁਝ ਗਲਤੀਆਂ ਮਿਲਦੀਆਂ ਹਨ, ਤਾਂ ਕਿਰਪਾ ਕਰਕੇ ਸਾਨੂੰ ਦੱਸੋ.\n"
    },
    {
      "Lang": "pl",
      "Title": "Gramatyka angielska | Prosty ⭐️ #34 was",
      "Description": "Ucz się gramatyki angielskiej! Zmień słowo w zdaniu.\n\n\n\n0:04 1:22 2:35 \nShe was in Rome last month\nʃi wɑz ɪn roʊm læst mənθ\nByła w Rzymie w zeszłym miesiącu\n\n0:19 1:36 2:49 \nShe is in Rome now\nʃi ɪz ɪn roʊm naʊ\nOna jest teraz w Rzymie\n\n0:33 1:49 3:02 \nI am in Rome now\naɪ æm ɪn roʊm naʊ\nJestem teraz w Rzymie\n\n0:48 2:03 3:16 \nI was in Rome last month\naɪ wɑz ɪn roʊm læst mənθ\nByłem w Rzymie w zeszłym miesiącu\n\n1:04 2:18 3:31 \nThey were in Rome last month\nðe wər ɪn roʊm læst mənθ\nByli w Rzymie w zeszłym miesiącu\n\n\n\nDo nauczycieli i szkół:\nTen film jest opublikowany na licencji Creative Commons.\n  CC BY 3.0 https://creativecommons.org/licenses/by/3.0/ \nZachęcamy do korzystania z tego filmu na zajęciach!\n\nDo lokalizacji używamy usługi Tłumacz Google. Jeśli znajdziesz jakieś błędy, daj nam znać.\n"
    },
    {
      "Lang": "ps",
      "Title": "انګلیسي ګرامر تمرینونه | ساده ⭐️ #34 was",
      "Description": "انګلیسي ګرامر زده کړئ! یوه جمله په یوه جمله بدله کړئ.\n\n\n\n0:04 1:22 2:35 \nShe was in Rome last month\nʃi wɑz ɪn roʊm læst mənθ\nهغه تیره میاشت په روم کی وه\n\n0:19 1:36 2:49 \nShe is in Rome now\nʃi ɪz ɪn roʊm naʊ\nهغه اوس په روم کې ده\n\n0:33 1:49 3:02 \nI am in Rome now\naɪ æm ɪn roʊm naʊ\nزه اوس په روم کې یم\n\n0:48 2:03 3:16 \nI was in Rome last month\naɪ wɑz ɪn roʊm læst mənθ\nزه تیره میاشت په روم کی وم\n\n1:04 2:18 3:31 \nThey were in Rome last month\nðe wər ɪn roʊm læst mənθ\nدوی تیره میاشت په روم کې ول\n\n\n\nښوونکو او ښوونځیو ته:\nدا ویډیو د کریټیو کامنز لایسنس لاندې خپره شوې ده.\n  CC BY 3.0 https://creativecommons.org/licenses/by/3.0/ \nپه خپلو ټولګیو کې د دې ویډیو کارولو لپاره وړیا احساس وکړئ!\n\nموږ د ځایی کولو لپاره د ګوګل ژباړن خدمت کاروو. که تاسو ځینې غلطۍ ومومئ ، مهرباني وکړئ موږ ته خبر راکړئ.\n"
    },
    {
      "Lang": "pt",
      "Title": "Exercícios de gramática inglesa | Simples ⭐️ #34 was",
      "Description": "Aprenda gramática inglesa! Mude uma palavra em uma frase.\n\n\n\n0:04 1:22 2:35 \nShe was in Rome last month\nʃi wɑz ɪn roʊm læst mənθ\nEla esteve em Roma no mês passado\n\n0:19 1:36 2:49 \nShe is in Rome now\nʃi ɪz ɪn roʊm naʊ\nEla está em Roma agora\n\n0:33 1:49 3:02 \nI am in Rome now\naɪ æm ɪn roʊm naʊ\nEstou em Roma agora\n\n0:48 2:03 3:16 \nI was in Rome last month\naɪ wɑz ɪn roʊm læst mənθ\nEstive em Roma no mês passado\n\n1:04 2:18 3:31 \nThey were in Rome last month\nðe wər ɪn roʊm læst mənθ\nEles estavam em Roma no mês passado\n\n\n\nPara professores e escolas:\nEste vídeo é publicado sob licença Creative Commons.\n  CC BY 3.0 https://creativecommons.org/licenses/by/3.0/ \nSinta-se livre para usar este vídeo em suas aulas!\n\nUsamos o serviço Google Translate para localização. Se você encontrar algum erro, informe-nos.\n"
    },
    {
      "Lang": "ro",
      "Title": "Exerciții de gramatică engleză | Simplu ⭐️ #34 was",
      "Description": "Învață gramatica engleză! Schimbă un cuvânt într-o propoziție.\n\n\n\n0:04 1:22 2:35 \nShe was in Rome last month\nʃi wɑz ɪn roʊm læst mənθ\nA fost la Roma luna trecută\n\n0:19 1:36 2:49 \nShe is in Rome now\nʃi ɪz ɪn roʊm naʊ\nEa se află acum la Roma\n\n0:33 1:49 3:02 \nI am in Rome now\naɪ æm ɪn roʊm naʊ\nSunt acum la Roma\n\n0:48 2:03 3:16 \nI was in Rome last month\naɪ wɑz ɪn roʊm læst mənθ\nAm fost la Roma luna trecută\n\n1:04 2:18 3:31 \nThey were in Rome last month\nðe wər ɪn roʊm læst mənθ\nAu fost la Roma luna trecută\n\n\n\nPentru profesori și școli:\nAcest videoclip este publicat sub licență Creative Commons.\n  CC BY 3.0 https://creativecommons.org/licenses/by/3.0/ \nSimte-te liber să folosești acest videoclip în orele tale!\n\nFolosim serviciul Google Translate pentru localizare. Dacă găsiți unele greșeli, vă rugăm să ne informați.\n"
    },
    {
      "Lang": "ru",
      "Title": "Упражнения по английской грамматике | просто ⭐️ #34 was",
      "Description": "Изучай английскую грамматику! Изменить слово в предложении.\n\n\n\n0:04 1:22 2:35 \nShe was in Rome last month\nʃi wɑz ɪn roʊm læst mənθ\nОна была в Риме в прошлом месяце\n\n0:19 1:36 2:49 \nShe is in Rome now\nʃi ɪz ɪn roʊm naʊ\nОна сейчас в Риме\n\n0:33 1:49 3:02 \nI am in Rome now\naɪ æm ɪn roʊm naʊ\nЯ сейчас в Риме\n\n0:48 2:03 3:16 \nI was in Rome last month\naɪ wɑz ɪn roʊm læst mənθ\nЯ был в Риме в прошлом месяце\n\n1:04 2:18 3:31 \nThey were in Rome last month\nðe wər ɪn roʊm læst mənθ\nОни были в Риме в прошлом месяце\n\n\n\nУчителям и школам:\nЭто видео опубликовано под лицензией Creative Commons.\n  CC BY 3.0 https://creativecommons.org/licenses/by/3.0/ \nНе стесняйтесь использовать это видео в своих классах!\n\nМы используем сервис Google Translate для локализации. Если вы обнаружите ошибки, сообщите нам.\n"
    },
    {
      "Lang": "sd",
      "Title": "سنڌي گرامر مشق | سادو ⭐️ #34 was",
      "Description": "انگريزي گرامر سکو! ھڪ لفظ ۾ ھڪڙي تبديلي آڻيو.\n\n\n\n0:04 1:22 2:35 \nShe was in Rome last month\nʃi wɑz ɪn roʊm læst mənθ\nهوء گذريل مهيني روم ۾ هئي\n\n0:19 1:36 2:49 \nShe is in Rome now\nʃi ɪz ɪn roʊm naʊ\nهوء هاڻي روم ۾ آهي\n\n0:33 1:49 3:02 \nI am in Rome now\naɪ æm ɪn roʊm naʊ\nمان هاڻي روم ۾ آهيان\n\n0:48 2:03 3:16 \nI was in Rome last month\naɪ wɑz ɪn roʊm læst mənθ\nگذريل مهيني روم ۾ هو\n\n1:04 2:18 3:31 \nThey were in Rome last month\nðe wər ɪn roʊm læst mənθ\nاهي گذريل مهيني روم ۾ هئا\n\n\n\nاستاد ۽ اسڪولن ڏانهن:\nهيء وڊيو تخليقي العام لائسنس هيٺ شايع ٿيل آهي.\n  CC BY 3.0 https://creativecommons.org/licenses/by/3.0/ \nپنهنجي وڊيوز ۾ هن وڊيو کي استعمال ڪرڻ لاء آزاد ٿيو!\n\nاسان مقامي ڪرڻ لاء گوگل ترجمو سروس استعمال ڪندا آهيون. جيڪڏهن توهان ڪجهه غلطي ڳوليندا آهيو، مهرباني ڪري اسان کي ڄاڻ ڏيو.\n"
    },
    {
      "Lang": "si",
      "Title": "ඉංග්‍රීසි ව්‍යාකරණ අභ්‍යාස | සරල ⭐️ #34 was",
      "Description": "ඉංග්‍රීසි ව්‍යාකරණ ඉගෙන ගන්න! වාක්‍යයක වචනයක් වෙනස් කරන්න.\n\n\n\n0:04 1:22 2:35 \nShe was in Rome last month\nʃi wɑz ɪn roʊm læst mənθ\nඇය පසුගිය මාසයේ රෝමයේ සිටියාය\n\n0:19 1:36 2:49 \nShe is in Rome now\nʃi ɪz ɪn roʊm naʊ\nඇය දැන් රෝමයේ සිටී\n\n0:33 1:49 3:02 \nI am in Rome now\naɪ æm ɪn roʊm naʊ\nමම දැන් රෝමයේ සිටිමි\n\n0:48 2:03 3:16 \nI was in Rome last month\naɪ wɑz ɪn roʊm læst mənθ\nමම ගිය මාසයේ රෝමයේ හිටියා\n\n1:04 2:18 3:31 \nThey were in Rome last month\nðe wər ɪn roʊm læst mənθ\nඔවුන් සිටියේ පසුගිය මාසයේ රෝමයේ ය\n\n\n\nගුරුවරුන්ට සහ පාසල්වලට:\nමෙම වීඩියෝව නිර්මාණාත්මක පොදු බලපත්‍රය යටතේ ප්‍රකාශයට පත් කෙරේ.\n  CC BY 3.0 https://creativecommons.org/licenses/by/3.0/ \nඔබේ පංතිවල මෙම වීඩියෝව භාවිතා කිරීමට නිදහස් වන්න!\n\nප්‍රාදේශීයකරණය සඳහා අපි ගූගල් පරිවර්තන සේවාව භාවිතා කරමු. ඔබ යම් වැරැද්දක් සොයා ගන්නේ නම්, කරුණාකර අපට දන්වන්න.\n"
    },
    {
      "Lang": "sk",
      "Title": "Anglické gramatické cvičenia | prostý ⭐️ #34 was",
      "Description": "Naučte sa anglickú gramatiku! Zmeniť slovo vo vete.\n\n\n\n0:04 1:22 2:35 \nShe was in Rome last month\nʃi wɑz ɪn roʊm læst mənθ\nMinulý mesiac bola v Ríme\n\n0:19 1:36 2:49 \nShe is in Rome now\nʃi ɪz ɪn roʊm naʊ\nTeraz je v Ríme\n\n0:33 1:49 3:02 \nI am in Rome now\naɪ æm ɪn roʊm naʊ\nTeraz som v Ríme\n\n0:48 2:03 3:16 \nI was in Rome last month\naɪ wɑz ɪn roʊm læst mənθ\nMinulý mesiac som bol v Ríme\n\n1:04 2:18 3:31 \nThey were in Rome last month\nðe wər ɪn roʊm læst mənθ\nMinulý mesiac boli v Ríme\n\n\n\nPre učiteľov a školy:\nToto video je publikované pod licenciou Creative Commons License.\n  CC BY 3.0 https://creativecommons.org/licenses/by/3.0/ \nNeváhajte použiť toto video vo svojich triedach!\n\nNa lokalizáciu používame službu Prekladač Google. Ak nájdete nejaké chyby, dajte nám vedieť.\n"
    },
    {
      "Lang": "sl",
      "Title": "Angleške slovnične vaje | Preprosto ⭐️ #34 was",
      "Description": "Naučite se angleške slovnice! Spremenite besedo v stavku.\n\n\n\n0:04 1:22 2:35 \nShe was in Rome last month\nʃi wɑz ɪn roʊm læst mənθ\nPrejšnji mesec je bila v Rimu\n\n0:19 1:36 2:49 \nShe is in Rome now\nʃi ɪz ɪn roʊm naʊ\nZdaj je v Rimu\n\n0:33 1:49 3:02 \nI am in Rome now\naɪ æm ɪn roʊm naʊ\nZdaj sem v Rimu\n\n0:48 2:03 3:16 \nI was in Rome last month\naɪ wɑz ɪn roʊm læst mənθ\nPrejšnji mesec sem bil v Rimu\n\n1:04 2:18 3:31 \nThey were in Rome last month\nðe wər ɪn roʊm læst mənθ\nPrejšnji mesec so bili v Rimu\n\n\n\nUčiteljem in šolam:\nTa videoposnetek je objavljen pod licenco Creative Commons.\n  CC BY 3.0 https://creativecommons.org/licenses/by/3.0/ \nUporabite ta video v svojih razredih!\n\nZa lokalizacijo uporabljamo storitev Google Translate. Če najdete nekaj napak, nas obvestite.\n"
    },
    {
      "Lang": "sm",
      "Title": "Gagana o le gagana Gagana Peretania | Faigofie ⭐️ #34 was",
      "Description": "Aoao le gagana Gagana Peretania! Sui se upu i se fuaiupu.\n\n\n\n0:04 1:22 2:35 \nShe was in Rome last month\nʃi wɑz ɪn roʊm læst mənθ\nSa i Roma i Roma i le masina talu ai\n\n0:19 1:36 2:49 \nShe is in Rome now\nʃi ɪz ɪn roʊm naʊ\nO ia i Roma i le taimi nei\n\n0:33 1:49 3:02 \nI am in Rome now\naɪ æm ɪn roʊm naʊ\nUa ou i Roma nei\n\n0:48 2:03 3:16 \nI was in Rome last month\naɪ wɑz ɪn roʊm læst mənθ\nSa ou i Roma i le masina talu ai\n\n1:04 2:18 3:31 \nThey were in Rome last month\nðe wər ɪn roʊm læst mənθ\nSa latou i Roma i le masina talu ai\n\n\n\nI faiaoga ma aʻoga:\nO lenei vitio ua lomia i lalo o le Creative Commons License.\n  CC BY 3.0 https://creativecommons.org/licenses/by/3.0/ \nLagona le saoloto e faʻaaoga lenei vitio i au vasega!\n\nMatou te faʻaaoga le Google Translate auaunaga mo le faʻasalalauga. Afai e te maua ni mea sese, faʻamolemole ia e iloa.\n"
    },
    {
      "Lang": "sn",
      "Title": "Chirungu grammar Exercise | Nyore ⭐️ #34 was",
      "Description": "Dzidza mutauro wechirungu! Chinja izwi muchirevo.\n\n\n\n0:04 1:22 2:35 \nShe was in Rome last month\nʃi wɑz ɪn roʊm læst mənθ\nAive kuRoma mwedzi wapfuura\n\n0:19 1:36 2:49 \nShe is in Rome now\nʃi ɪz ɪn roʊm naʊ\nAri muRome izvozvi\n\n0:33 1:49 3:02 \nI am in Rome now\naɪ æm ɪn roʊm naʊ\nNdiri kuRoma izvozvi\n\n0:48 2:03 3:16 \nI was in Rome last month\naɪ wɑz ɪn roʊm læst mənθ\nNdakanga ndiri kuRoma mwedzi wapfuura\n\n1:04 2:18 3:31 \nThey were in Rome last month\nðe wər ɪn roʊm læst mənθ\nVakanga vari kuRoma mwedzi wapfuura\n\n\n\nKune vadzidzisi uye zvikoro:\nVhidhiyo iyi inoburitswa pasi peCreative Commons License.\n  CC BY 3.0 https://creativecommons.org/licenses/by/3.0/ \nInzwa wakasununguka kushandisa iyi vhidhiyo mumakirasi ako!\n\nIsu tinoshandisa Google Dhumiro sevhisi. Kana iwe ukawana zvimwe zvikanganiso, tapota titiudze.\n"
    },
    {
      "Lang": "so",
      "Title": "Jimicsiga naxwaha Ingiriisiga | Fudud ⭐️ #34 was",
      "Description": "Baro naxwaha Ingiriisiga! U beddelo eray weedh.\n\n\n\n0:04 1:22 2:35 \nShe was in Rome last month\nʃi wɑz ɪn roʊm læst mənθ\nWaxay joogtay Rome bishii la soo dhaafay\n\n0:19 1:36 2:49 \nShe is in Rome now\nʃi ɪz ɪn roʊm naʊ\nWaxay joogtaa Rome hadda\n\n0:33 1:49 3:02 \nI am in Rome now\naɪ æm ɪn roʊm naʊ\nAnigu waxaan joogaa Rome hadda\n\n0:48 2:03 3:16 \nI was in Rome last month\naɪ wɑz ɪn roʊm læst mənθ\nWaxaan joogay Rome bishii hore\n\n1:04 2:18 3:31 \nThey were in Rome last month\nðe wər ɪn roʊm læst mənθ\nWaxay joogeen Rome bishii hore\n\n\n\nKu socota macallimiinta iyo iskuulada:\nMuuqaalkan fiidiyaha ah waxaa lagu daabacay hoosta hal-abuurnimada Hal-abuurka.\n  CC BY 3.0 https://creativecommons.org/licenses/by/3.0/ \nXor baad u leedahay inaad fiidiyaha u isticmaasho fasalladaaga!\n\nWaxaan u adeegsanaa adeega Google tarjumaha si aan ugu tarjunno. Hadaad khaladaad hesho, fadlan nala socodsii.\n"
    },
    {
      "Lang": "sq",
      "Title": "Ushtrime gramatikore angleze | i thjeshtë ⭐️ #34 was",
      "Description": "Mësoni gramatikën angleze! Ndryshoni një fjalë në një fjali.\n\n\n\n0:04 1:22 2:35 \nShe was in Rome last month\nʃi wɑz ɪn roʊm læst mənθ\nAjo ishte në Romë muajin e kaluar\n\n0:19 1:36 2:49 \nShe is in Rome now\nʃi ɪz ɪn roʊm naʊ\nAjo tani është në Romë\n\n0:33 1:49 3:02 \nI am in Rome now\naɪ æm ɪn roʊm naʊ\nUnë jam tani në Romë\n\n0:48 2:03 3:16 \nI was in Rome last month\naɪ wɑz ɪn roʊm læst mənθ\nUnë isha në Romë muajin e kaluar\n\n1:04 2:18 3:31 \nThey were in Rome last month\nðe wər ɪn roʊm læst mənθ\nAta ishin në Romë muajin e kaluar\n\n\n\nPër mësuesit dhe shkollat:\nKjo video është botuar nën licencën Creative Commons.\n  CC BY 3.0 https://creativecommons.org/licenses/by/3.0/ \nMos ngurroni të përdorni këtë video në klasat tuaja!\n\nNe përdorim shërbimin Google Translate për lokalizimin. Nëse gjeni disa gabime, ju lutemi na tregoni.\n"
    },
    {
      "Lang": "sr",
      "Title": "Вежбе енглеске граматике | Једноставно ⭐️ #34 was",
      "Description": "Научите енглеску граматику! Промените реч у реченици.\n\n\n\n0:04 1:22 2:35 \nShe was in Rome last month\nʃi wɑz ɪn roʊm læst mənθ\nБила је у Риму прошлог месеца\n\n0:19 1:36 2:49 \nShe is in Rome now\nʃi ɪz ɪn roʊm naʊ\nСада је у Риму\n\n0:33 1:49 3:02 \nI am in Rome now\naɪ æm ɪn roʊm naʊ\nСада сам у Риму\n\n0:48 2:03 3:16 \nI was in Rome last month\naɪ wɑz ɪn roʊm læst mənθ\nБио сам у Риму прошлог месеца\n\n1:04 2:18 3:31 \nThey were in Rome last month\nðe wər ɪn roʊm læst mənθ\nБили су у Риму прошлог месеца\n\n\n\nНаставницима и школама:\nОвај видео је објављен под Цреативе Цоммонс лиценцом.\n  CC BY 3.0 https://creativecommons.org/licenses/by/3.0/ \nСлободно користите овај видеозапис у својим предавањима!\n\nЗа локализацију користимо услугу Гоогле Транслате. Ако нађете неке грешке, јавите нам се.\n"
    },
    {
      "Lang": "st",
      "Title": "Boikoetliso ba puo ea Senyesemane | E bonolo ⭐️ #34 was",
      "Description": "Ithute puo ea Senyesemane! Fetola lentsoe polelo.\n\n\n\n0:04 1:22 2:35 \nShe was in Rome last month\nʃi wɑz ɪn roʊm læst mənθ\nO ne a le Roma khoeling e fetileng\n\n0:19 1:36 2:49 \nShe is in Rome now\nʃi ɪz ɪn roʊm naʊ\nO mona Roma joale\n\n0:33 1:49 3:02 \nI am in Rome now\naɪ æm ɪn roʊm naʊ\nKe Roma hona joale\n\n0:48 2:03 3:16 \nI was in Rome last month\naɪ wɑz ɪn roʊm læst mənθ\nKe ne ke le Roma khoeling e fetileng\n\n1:04 2:18 3:31 \nThey were in Rome last month\nðe wər ɪn roʊm læst mənθ\nBa ne ba le Roma khoeling e fetileng\n\n\n\nHo matichere le likolo:\nVideo ena e phatlalalitsoe tlas'a Creative Commons License.\n  CC BY 3.0 https://creativecommons.org/licenses/by/3.0/ \nIkutloe u lokolohile ho sebelisa video ena litlelaseng tsa hau!\n\nRe sebelisa tšebeletso ea Google Tafsiri bakeng sa lehae. Haeba u fumana liphoso, ka kopo re tsebise.\n"
    },
    {
      "Lang": "su",
      "Title": "Latihan tata basa Inggris | Basajan ⭐️ #34 was",
      "Description": "Diajar grammar Inggris! Ngarobih kecap dina hiji kalimat.\n\n\n\n0:04 1:22 2:35 \nShe was in Rome last month\nʃi wɑz ɪn roʊm læst mənθ\nAnjeunna di Roma bulan panungtungan\n\n0:19 1:36 2:49 \nShe is in Rome now\nʃi ɪz ɪn roʊm naʊ\nAnjeunna di Roma ayeuna\n\n0:33 1:49 3:02 \nI am in Rome now\naɪ æm ɪn roʊm naʊ\nAbdi di Roma ayeuna\n\n0:48 2:03 3:16 \nI was in Rome last month\naɪ wɑz ɪn roʊm læst mənθ\nAbdi di Roma sasih bulan\n\n1:04 2:18 3:31 \nThey were in Rome last month\nðe wər ɪn roʊm læst mənθ\nAranjeunna aya di Roma bulan panungtungan\n\n\n\nPikeun guru sareng sakola:\nPidéo ieu dikaluarkeun dina Lisensi Lisénsi Creative Commons.\n  CC BY 3.0 https://creativecommons.org/licenses/by/3.0/ \nTong ngosongkeun pidéo ieu di kelas!\n\nKami nganggo jasa Google Translate pikeun lokalisasi. Upami anjeun mendakan sababaraha kasalahan, punten terangkeun ka urang.\n"
    },
    {
      "Lang": "sv",
      "Title": "Engelska grammatiska övningar | Enkel ⭐️ #34 was",
      "Description": "Lär dig engelska grammatik! Ändra ett ord i en mening.\n\n\n\n0:04 1:22 2:35 \nShe was in Rome last month\nʃi wɑz ɪn roʊm læst mənθ\nHon var i Rom förra månaden\n\n0:19 1:36 2:49 \nShe is in Rome now\nʃi ɪz ɪn roʊm naʊ\nHon är i Rom nu\n\n0:33 1:49 3:02 \nI am in Rome now\naɪ æm ɪn roʊm naʊ\nJag är i Rom nu\n\n0:48 2:03 3:16 \nI was in Rome last month\naɪ wɑz ɪn roʊm læst mənθ\nJag var i Rom förra månaden\n\n1:04 2:18 3:31 \nThey were in Rome last month\nðe wər ɪn roʊm læst mənθ\nDe var i Rom förra månaden\n\n\n\nTill lärare och skolor:\nDenna video publiceras under Creative Commons License.\n  CC BY 3.0 https://creativecommons.org/licenses/by/3.0/ \nAnvänd gärna den här videon i dina klasser!\n\nVi använder Google Translate-tjänst för lokalisering. Låt oss veta om du hittar några misstag.\n"
    },
    {
      "Lang": "sw",
      "Title": "Mazoezi ya sarufi ya Kiingereza | Rahisi ⭐️ #34 was",
      "Description": "Jifunze sarufi ya Kiingereza! Badilisha neno katika sentensi.\n\n\n\n0:04 1:22 2:35 \nShe was in Rome last month\nʃi wɑz ɪn roʊm læst mənθ\nAlikuwa Roma mwezi uliopita\n\n0:19 1:36 2:49 \nShe is in Rome now\nʃi ɪz ɪn roʊm naʊ\nYuko Roma sasa\n\n0:33 1:49 3:02 \nI am in Rome now\naɪ æm ɪn roʊm naʊ\nMimi niko Roma sasa\n\n0:48 2:03 3:16 \nI was in Rome last month\naɪ wɑz ɪn roʊm læst mənθ\nNilikuwa Roma mwezi uliopita\n\n1:04 2:18 3:31 \nThey were in Rome last month\nðe wər ɪn roʊm læst mənθ\nWalikuwa huko Roma mwezi uliopita\n\n\n\nKwa waalimu na shule:\nVideo hii imechapishwa chini ya Leseni ya Creative Commons.\n  CC BY 3.0 https://creativecommons.org/licenses/by/3.0/ \nJisikie huru kutumia video hii kwenye darasa lako!\n\nTunatumia huduma ya Tafsiri ya Google kwa ujanibishaji. Ikiwa utapata makosa, tafadhali tujulishe.\n"
    },
    {
      "Lang": "ta",
      "Title": "ஆங்கில இலக்கண பயிற்சிகள் | எளிய ⭐️ #34 was",
      "Description": "ஆங்கில இலக்கணம் கற்றுக்கொள்ளுங்கள்! ஒரு வாக்கியத்தில் ஒரு வார்த்தையை மாற்றவும்.\n\n\n\n0:04 1:22 2:35 \nShe was in Rome last month\nʃi wɑz ɪn roʊm læst mənθ\nஅவர் கடந்த மாதம் ரோமில் இருந்தார்\n\n0:19 1:36 2:49 \nShe is in Rome now\nʃi ɪz ɪn roʊm naʊ\nஅவள் இப்போது ரோமில் இருக்கிறாள்\n\n0:33 1:49 3:02 \nI am in Rome now\naɪ æm ɪn roʊm naʊ\nநான் இப்போது ரோமில் இருக்கிறேன்\n\n0:48 2:03 3:16 \nI was in Rome last month\naɪ wɑz ɪn roʊm læst mənθ\nநான் கடந்த மாதம் ரோமில் இருந்தேன்\n\n1:04 2:18 3:31 \nThey were in Rome last month\nðe wər ɪn roʊm læst mənθ\nஅவர்கள் கடந்த மாதம் ரோமில் இருந்தனர்\n\n\n\nஆசிரியர்கள் மற்றும் பள்ளிகளுக்கு:\nஇந்த வீடியோ கிரியேட்டிவ் காமன்ஸ் உரிமத்தின் கீழ் வெளியிடப்பட்டுள்ளது.\n  CC BY 3.0 https://creativecommons.org/licenses/by/3.0/ \nஉங்கள் வகுப்புகளில் இந்த வீடியோவைப் பயன்படுத்த தயங்காதீர்கள்!\n\nஉள்ளூர்மயமாக்க Google மொழிபெயர்ப்பு சேவையைப் பயன்படுத்துகிறோம். நீங்கள் சில தவறுகளைக் கண்டால், எங்களுக்குத் தெரியப்படுத்துங்கள்.\n"
    },
    {
      "Lang": "te",
      "Title": "ఇంగ్లీష్ వ్యాకరణ వ్యాయామాలు | సాధారణ ⭐️ #34 was",
      "Description": "ఇంగ్లీష్ వ్యాకరణం నేర్చుకోండి! ఒక వాక్యంలో ఒక పదాన్ని మార్చండి.\n\n\n\n0:04 1:22 2:35 \nShe was in Rome last month\nʃi wɑz ɪn roʊm læst mənθ\nఆమె గత నెల రోమ్‌లో ఉంది\n\n0:19 1:36 2:49 \nShe is in Rome now\nʃi ɪz ɪn roʊm naʊ\nఆమె ఇప్పుడు రోమ్‌లో ఉంది\n\n0:33 1:49 3:02 \nI am in Rome now\naɪ æm ɪn roʊm naʊ\nనేను ఇప్పుడు రోమ్‌లో ఉన్నాను\n\n0:48 2:03 3:16 \nI was in Rome last month\naɪ wɑz ɪn roʊm læst mənθ\nనేను గత నెల రోమ్‌లో ఉన్నాను\n\n1:04 2:18 3:31 \nThey were in Rome last month\nðe wər ɪn roʊm læst mənθ\nవారు గత నెలలో రోమ్‌లో ఉన్నారు\n\n\n\nఉపాధ్యాయులకు మరియు పాఠశాలలకు:\nఈ వీడియో క్రియేటివ్ కామన్స్ లైసెన్స్ క్రింద ప్రచురించబడింది.\n  CC BY 3.0 https://creativecommons.org/licenses/by/3.0/ \nమీ తరగతుల్లో ఈ వీడియోను ఉపయోగించడానికి సంకోచించకండి!\n\nస్థానికీకరణ కోసం మేము Google అనువాద సేవను ఉపయోగిస్తాము. మీరు కొన్ని తప్పులు కనుగొంటే, దయచేసి మాకు తెలియజేయండి.\n"
    },
    {
      "Lang": "tg",
      "Title": "Машқҳои грамматикаи забони англисӣ | Оддӣ ⭐️ #34 was",
      "Description": "Грамматикаи забони англисиро омӯзед! Калимаро дар як ҷумла иваз кунед.\n\n\n\n0:04 1:22 2:35 \nShe was in Rome last month\nʃi wɑz ɪn roʊm læst mənθ\nВай моҳи гузашта дар Рум буд\n\n0:19 1:36 2:49 \nShe is in Rome now\nʃi ɪz ɪn roʊm naʊ\nҲоло вай дар Рум аст\n\n0:33 1:49 3:02 \nI am in Rome now\naɪ æm ɪn roʊm naʊ\nМан ҳоло дар Рум ҳастам\n\n0:48 2:03 3:16 \nI was in Rome last month\naɪ wɑz ɪn roʊm læst mənθ\nМоҳи гузашта ман дар Рум будам\n\n1:04 2:18 3:31 \nThey were in Rome last month\nðe wər ɪn roʊm læst mənθ\nОнҳо моҳи гузашта дар Рум буданд\n\n\n\nБа муаллимон ва мактабҳо:\nИн видео зери иҷозатномаи Creative Commons нашр шудааст.\n  CC BY 3.0 https://creativecommons.org/licenses/by/3.0/ \nИн видеоро дар дарсҳои худ истифода баред!\n\nМо барои локализатсия аз хидмати Google Translate истифода мебарем. Агар шумо ягон хатогӣ дарёфт кунед, лутфан ба мо хабар диҳед.\n"
    },
    {
      "Lang": "th",
      "Title": "แบบฝึกหัดไวยากรณ์ภาษาอังกฤษ | ง่าย ⭐️ #34 was",
      "Description": "เรียนรู้ไวยากรณ์ภาษาอังกฤษ! เปลี่ยนคำในประโยค\n\n\n\n0:04 1:22 2:35 \nShe was in Rome last month\nʃi wɑz ɪn roʊm læst mənθ\nเธออยู่ที่กรุงโรมเมื่อเดือนที่แล้ว\n\n0:19 1:36 2:49 \nShe is in Rome now\nʃi ɪz ɪn roʊm naʊ\nตอนนี้เธออยู่ที่โรม\n\n0:33 1:49 3:02 \nI am in Rome now\naɪ æm ɪn roʊm naʊ\nตอนนี้ฉันอยู่ที่โรม\n\n0:48 2:03 3:16 \nI was in Rome last month\naɪ wɑz ɪn roʊm læst mənθ\nเมื่อเดือนที่แล้วฉันอยู่ที่โรม\n\n1:04 2:18 3:31 \nThey were in Rome last month\nðe wər ɪn roʊm læst mənθ\nพวกเขาอยู่ในกรุงโรมเมื่อเดือนที่แล้ว\n\n\n\nถึงครูและโรงเรียน:\nวิดีโอนี้เผยแพร่ภายใต้สัญญาอนุญาตครีเอทีฟคอมมอนส์\n  CC BY 3.0 https://creativecommons.org/licenses/by/3.0/ \nอย่าลังเลที่จะใช้วิดีโอนี้ในชั้นเรียนของคุณ!\n\nเราใช้บริการ Google แปลภาษาเพื่อการแปล หากคุณพบข้อผิดพลาดบางอย่างโปรดแจ้งให้เราทราบ\n"
    },
    {
      "Lang": "tr",
      "Title": "İngilizce gramer çalışmaları | Basit ⭐️ #34 was",
      "Description": "İngilizce gramerini öğren! Bir cümle içindeki bir kelimeyi değiştirin.\n\n\n\n0:04 1:22 2:35 \nShe was in Rome last month\nʃi wɑz ɪn roʊm læst mənθ\nGeçen ay Roma'daydı\n\n0:19 1:36 2:49 \nShe is in Rome now\nʃi ɪz ɪn roʊm naʊ\nŞimdi Roma'da\n\n0:33 1:49 3:02 \nI am in Rome now\naɪ æm ɪn roʊm naʊ\nŞimdi Roma'dayım\n\n0:48 2:03 3:16 \nI was in Rome last month\naɪ wɑz ɪn roʊm læst mənθ\nGeçen ay Roma'daydım\n\n1:04 2:18 3:31 \nThey were in Rome last month\nðe wər ɪn roʊm læst mənθ\nGeçen ay Roma'daydılar\n\n\n\nÖğretmenlere ve okullara:\nBu video Creative Commons License. Altında yayınlandı.\n  CC BY 3.0 https://creativecommons.org/licenses/by/3.0/ \nBu videoyu derslerinizde kullanmaktan çekinmeyin!\n\nYerelleştirme için Google Çeviri hizmetini kullanıyoruz. Bazı hatalar bulursanız lütfen bize bildirin.\n"
    },
    {
      "Lang": "uk",
      "Title": "Граматичні вправи з англійської мови | Простий ⭐️ #34 was",
      "Description": "Вивчіть англійську граматику! Змініть слово у реченні.\n\n\n\n0:04 1:22 2:35 \nShe was in Rome last month\nʃi wɑz ɪn roʊm læst mənθ\nВона була в Римі минулого місяця\n\n0:19 1:36 2:49 \nShe is in Rome now\nʃi ɪz ɪn roʊm naʊ\nВона зараз у Римі\n\n0:33 1:49 3:02 \nI am in Rome now\naɪ æm ɪn roʊm naʊ\nЗараз я в Римі\n\n0:48 2:03 3:16 \nI was in Rome last month\naɪ wɑz ɪn roʊm læst mənθ\nЯ був у Римі минулого місяця\n\n1:04 2:18 3:31 \nThey were in Rome last month\nðe wər ɪn roʊm læst mənθ\nВони були в Римі минулого місяця\n\n\n\nДля вчителів та шкіл:\nЦе відео опубліковане під ліцензією Creative Commons.\n  CC BY 3.0 https://creativecommons.org/licenses/by/3.0/ \nСміливо використовуйте це відео у своїх класах!\n\nМи використовуємо послугу Google Translate для локалізації. Якщо ви виявили деякі помилки, повідомте нас про це.\n"
    },
    {
      "Lang": "ur",
      "Title": "انگریزی گرائمر کی ورزشیں | آسان ⭐️ #34 was",
      "Description": "انگریزی گرائمر سیکھیں! ایک جملے میں ایک لفظ تبدیل کریں۔\n\n\n\n0:04 1:22 2:35 \nShe was in Rome last month\nʃi wɑz ɪn roʊm læst mənθ\nوہ گذشتہ ماہ روم میں تھی\n\n0:19 1:36 2:49 \nShe is in Rome now\nʃi ɪz ɪn roʊm naʊ\nوہ اب روم میں ہے\n\n0:33 1:49 3:02 \nI am in Rome now\naɪ æm ɪn roʊm naʊ\nمیں اب روم میں ہوں\n\n0:48 2:03 3:16 \nI was in Rome last month\naɪ wɑz ɪn roʊm læst mənθ\nمیں پچھلے مہینے روم میں تھا\n\n1:04 2:18 3:31 \nThey were in Rome last month\nðe wər ɪn roʊm læst mənθ\nوہ پچھلے مہینے روم میں تھے\n\n\n\nاساتذہ اور اسکولوں کے لئے:\nیہ ویڈیو تخلیقی العام لائسنس کے تحت شائع ہوا ہے۔\n  CC BY 3.0 https://creativecommons.org/licenses/by/3.0/ \nاپنی ویڈیو کو اپنی کلاسوں میں آزادانہ طور پر استعمال کریں!\n\nہم لوکلائزیشن کے لئے گوگل ٹرانسلیٹ سروس استعمال کرتے ہیں۔ اگر آپ کو کچھ غلطیاں ملتی ہیں تو ، براہ کرم ہمیں بتائیں۔\n"
    },
    {
      "Lang": "uz",
      "Title": "Ingliz tili grammatik mashqlari | Oddiy ⭐️ #34 was",
      "Description": "Ingliz tilining grammatikasini o'rganing! Bir so'zni jumlada o'zgartiring.\n\n\n\n0:04 1:22 2:35 \nShe was in Rome last month\nʃi wɑz ɪn roʊm læst mənθ\nU o'tgan oy Rimda edi\n\n0:19 1:36 2:49 \nShe is in Rome now\nʃi ɪz ɪn roʊm naʊ\nHozir u Rimda\n\n0:33 1:49 3:02 \nI am in Rome now\naɪ æm ɪn roʊm naʊ\nMen hozir Rimdaman\n\n0:48 2:03 3:16 \nI was in Rome last month\naɪ wɑz ɪn roʊm læst mənθ\nMen o'tgan oy Rimda edim\n\n1:04 2:18 3:31 \nThey were in Rome last month\nðe wər ɪn roʊm læst mənθ\nUlar o'tgan oy Rimda bo'lishgan\n\n\n\nO'qituvchilar va maktablarga:\nUshbu video Creative Commons litsenziyasi ostida joylashtirilgan.\n  CC BY 3.0 https://creativecommons.org/licenses/by/3.0/ \nUshbu videoni o'z sinflaringizda ishlatish bepul!\n\nBiz Google Translate xizmatidan lokalizatsiya uchun foydalanamiz. Agar siz biron bir xato topsangiz, iltimos, bizga xabar bering.\n"
    },
    {
      "Lang": "vi",
      "Title": "Bài tập ngữ pháp tiếng anh | Đơn giản ⭐️ #34 was",
      "Description": "Học ngữ pháp tiếng Anh! Thay đổi một từ trong một câu.\n\n\n\n0:04 1:22 2:35 \nShe was in Rome last month\nʃi wɑz ɪn roʊm læst mənθ\nCô ấy đã ở Rome tháng trước\n\n0:19 1:36 2:49 \nShe is in Rome now\nʃi ɪz ɪn roʊm naʊ\nCô ấy đang ở Rome\n\n0:33 1:49 3:02 \nI am in Rome now\naɪ æm ɪn roʊm naʊ\nBây giờ tôi đang ở Rome\n\n0:48 2:03 3:16 \nI was in Rome last month\naɪ wɑz ɪn roʊm læst mənθ\nTôi đã ở Rome tháng trước\n\n1:04 2:18 3:31 \nThey were in Rome last month\nðe wər ɪn roʊm læst mənθ\nHọ đã ở Rome tháng trước\n\n\n\nGửi giáo viên và nhà trường:\nVideo này được xuất bản theo Giấy phép Creative Commons.\n  CC BY 3.0 https://creativecommons.org/licenses/by/3.0/ \nHãy sử dụng video này trong các lớp học của bạn!\n\nChúng tôi sử dụng dịch vụ Google Dịch để bản địa hóa. Nếu bạn tìm thấy một số sai lầm, xin vui lòng cho chúng tôi biết.\n"
    },
    {
      "Lang": "xh",
      "Title": "Ukuziqhelanisa negrama yesiNgesi | Elula ⭐️ #34 was",
      "Description": "Funda igrama yesiNgesi! Guqula igama kwisivakalisi.\n\n\n\n0:04 1:22 2:35 \nShe was in Rome last month\nʃi wɑz ɪn roʊm læst mənθ\nWayeseRoma kwinyanga ephelileyo\n\n0:19 1:36 2:49 \nShe is in Rome now\nʃi ɪz ɪn roʊm naʊ\nUseRoma ngoku\n\n0:33 1:49 3:02 \nI am in Rome now\naɪ æm ɪn roʊm naʊ\nNdiseRoma ngoku\n\n0:48 2:03 3:16 \nI was in Rome last month\naɪ wɑz ɪn roʊm læst mənθ\nNdandiseRoma kwinyanga ephelileyo\n\n1:04 2:18 3:31 \nThey were in Rome last month\nðe wər ɪn roʊm læst mənθ\nBabeseRoma kwinyanga ephelileyo\n\n\n\nKootitshala nakwizikolo:\nLe vidiyo ipapashwa phantsi kwelayisensi yeCreative Commons.\n  CC BY 3.0 https://creativecommons.org/licenses/by/3.0/ \nZive ukhululekile ukusebenzisa le vidiyo kwiiklasi zakho!\n\nSisebenzisa inkonzo yokuTolika kaGoogle ukuze sifumane indawo. Ukuba ufumana iimpazamo ezithile, nceda usazise.\n"
    },
    {
      "Lang": "yi",
      "Title": "ענגליש גראַמאַטיק עקסערסייזיז | פּשוט ⭐️ #34 was",
      "Description": "לערן ענגליש גראַמאַטיק! טוישן אַ וואָרט אין אַ זאַץ.\n\n\n\n0:04 1:22 2:35 \nShe was in Rome last month\nʃi wɑz ɪn roʊm læst mənθ\nזי איז געווען אין רוים לעצטע חודש\n\n0:19 1:36 2:49 \nShe is in Rome now\nʃi ɪz ɪn roʊm naʊ\nזי איז איצט אין רוים\n\n0:33 1:49 3:02 \nI am in Rome now\naɪ æm ɪn roʊm naʊ\nאיך בין איצט אין רוים\n\n0:48 2:03 3:16 \nI was in Rome last month\naɪ wɑz ɪn roʊm læst mənθ\nאיך איז געווען אין רוים לעצטע חודש\n\n1:04 2:18 3:31 \nThey were in Rome last month\nðe wər ɪn roʊm læst mənθ\nזיי זענען געווען אין רוים לעצטע חודש\n\n\n\nצו לערערס און שולן:\nדער ווידעא איז ארויס אונטער Creative Commons License.\n  CC BY 3.0 https://creativecommons.org/licenses/by/3.0/ \nפילן פריי צו נוצן דעם ווידעא אין דיין קלאסן!\n\nמיר נוצן Google Translate דינסט פֿאַר לאָוקאַלאַזיישאַן. אויב איר געפֿינען עטלעכע מיסטייקס, ביטע לאָזן אונדז וויסן.\n"
    },
    {
      "Lang": "yo",
      "Title": "Awọn adaṣe gẹẹsi Gẹẹsi | Rọrun ⭐️ #34 was",
      "Description": "Kọ ẹkọ gẹẹsi Gẹẹsi! Yi ọrọ pada ninu gbolohun ọrọ.\n\n\n\n0:04 1:22 2:35 \nShe was in Rome last month\nʃi wɑz ɪn roʊm læst mənθ\nO wa ni Rome ni oṣu to kọja\n\n0:19 1:36 2:49 \nShe is in Rome now\nʃi ɪz ɪn roʊm naʊ\nO wa ni Rome ni bayi\n\n0:33 1:49 3:02 \nI am in Rome now\naɪ æm ɪn roʊm naʊ\nMo wa ni Rome ni bayi\n\n0:48 2:03 3:16 \nI was in Rome last month\naɪ wɑz ɪn roʊm læst mənθ\nMo wa ni Rome ni oṣu to kọja\n\n1:04 2:18 3:31 \nThey were in Rome last month\nðe wər ɪn roʊm læst mənθ\nWọn wa ni Rome ni oṣu to kọja\n\n\n\nSi awọn olukọ ati awọn ile-iwe:\nFidio yii ni a tẹjade labẹ Iwe-aṣẹ Creative Commons.\n  CC BY 3.0 https://creativecommons.org/licenses/by/3.0/ \nLero lati lo fidio yii ninu awọn kilasi rẹ!\n\nA lo iṣẹ Google Translate fun agbegbe. Ti o ba rii diẹ ninu awọn aṣiṣe, jọwọ jẹ ki a mọ.\n"
    },
    {
      "Lang": "zh-Hans",
      "Title": "英语语法练习 | 简单 ⭐️ #34 was",
      "Description": "学习英语语法！ 更改句子中的单词。\n\n\n\n0:04 1:22 2:35 \nShe was in Rome last month\nʃi wɑz ɪn roʊm læst mənθ\n她上个月在罗马\n\n0:19 1:36 2:49 \nShe is in Rome now\nʃi ɪz ɪn roʊm naʊ\n她现在在罗马\n\n0:33 1:49 3:02 \nI am in Rome now\naɪ æm ɪn roʊm naʊ\n我现在在罗马\n\n0:48 2:03 3:16 \nI was in Rome last month\naɪ wɑz ɪn roʊm læst mənθ\n我上个月在罗马\n\n1:04 2:18 3:31 \nThey were in Rome last month\nðe wər ɪn roʊm læst mənθ\n他们上个月在罗马\n\n\n\n致老师和学校：\n该视频是根据知识共享许可发布的。\n  CC BY 3.0 https://creativecommons.org/licenses/by/3.0/ \n随时在您的课程中使用此视频！\n\n我们使用Google翻译服务进行本地化。如果您发现一些错误，请告诉我们。\n"
    },
    {
      "Lang": "zh-Hant",
      "Title": "英語語法練習 | 簡單 ⭐️ #34 was",
      "Description": "學習英語語法！ 更改句子中的單詞。\n\n\n\n0:04 1:22 2:35 \nShe was in Rome last month\nʃi wɑz ɪn roʊm læst mənθ\n她上個月在羅馬\n\n0:19 1:36 2:49 \nShe is in Rome now\nʃi ɪz ɪn roʊm naʊ\n她現在在羅馬\n\n0:33 1:49 3:02 \nI am in Rome now\naɪ æm ɪn roʊm naʊ\n我現在在羅馬\n\n0:48 2:03 3:16 \nI was in Rome last month\naɪ wɑz ɪn roʊm læst mənθ\n我上個月在羅馬\n\n1:04 2:18 3:31 \nThey were in Rome last month\nðe wər ɪn roʊm læst mənθ\n他們上個月在羅馬\n\n\n\n致老師和學校：\n該視頻是根據知識共享許可發布的。\n  CC BY 3.0 https://creativecommons.org/licenses/by/3.0/ \n隨時在您的課程中使用此視頻！\n\n我們使用Google翻譯服務進行本地化。如果您發現一些錯誤，請告訴我們。\n"
    },
    {
      "Lang": "zu",
      "Title": "Ukuzivocavoca kolimi lwesiNgisi | Elula ⭐️ #34 was",
      "Description": "Funda uhlelo lolimi lwesiNgisi! Shintsha igama emshweni.\n\n\n\n0:04 1:22 2:35 \nShe was in Rome last month\nʃi wɑz ɪn roʊm læst mənθ\nUbeseRoma ngenyanga edlule\n\n0:19 1:36 2:49 \nShe is in Rome now\nʃi ɪz ɪn roʊm naʊ\nUseRoma manje\n\n0:33 1:49 3:02 \nI am in Rome now\naɪ æm ɪn roʊm naʊ\nNgiseRoma manje\n\n0:48 2:03 3:16 \nI was in Rome last month\naɪ wɑz ɪn roʊm læst mənθ\nBengiseRoma ngenyanga edlule\n\n1:04 2:18 3:31 \nThey were in Rome last month\nðe wər ɪn roʊm læst mənθ\nBebeseRoma ngenyanga edlule\n\n\n\nKothisha nasezikoleni:\nLe vidiyo ishicilelwe ngaphansi kwelayisensi yeCreative Commons.\n  CC BY 3.0 https://creativecommons.org/licenses/by/3.0/ \nZizwe ukhululekile ukusebenzisa le vidiyo emakilasini akho!\n\nSisebenzisa insiza ye-Google Humusha ukwenza okwasendaweni. Uma uthola amanye amaphutha, sicela usazise.\n"
    }
  ],
  "HatenaPermalink": "https://b.hatena.ne.jp/isonschool/20200216#bookmark-4681576348119780450"
}