{
  "File": "grammar-en-beginner-simple_78_UK.mp4",
  "ID": "A1xg74p4Sog",
  "AudioLang": "en",
  "DefaultLang": "mr",
  "Title": "इंग्रजी व्याकरण व्यायाम | सोपे ब्रिटिश ⭐️ #78 Could you?",
  "Description": "इंग्रजी व्याकरण जाणून घ्या! एका वाक्यात शब्द बदला.\n\n\n\n0:05 1:18 2:31 \nCould you turn off the music ?\nkʊd ju tərn ɔf ðə mˈjuzɪk \nआपण संगीत बंद करू शकता?\n\n0:19 1:32 2:45 \nCould you close the door ?\nkʊd ju kloʊz ðə dɔr \nआपण दार बंद करू शकता?\n\n0:33 1:46 2:59 \nCould you pass the milk ?\nkʊd ju pæs ðə mɪlk \nआपण दूध पास करू शकता?\n\n0:47 2:00 3:13 \nCould you improve the quality ?\nkʊd ju ˌɪmˈpruv ðə kˈwɑləti \nआपण गुणवत्ता सुधारू शकता?\n\n1:01 2:14 3:27 \nCould you close the window ?\nkʊd ju kloʊz ðə ˈwɪndoʊ \nआपण विंडो बंद करू शकता?\n\n\n\nशिक्षक आणि शाळा यांना:\nहा व्हिडिओ क्रिएटिव्ह कॉमन्स परवान्या अंतर्गत प्रकाशित झाला आहे.\n  CC BY 3.0 https://creativecommons.org/licenses/by/3.0/ \nआपल्या वर्गांमध्ये हा व्हिडिओ वापरण्यास मोकळ्या मनाने!\n\nआम्ही स्थानिकीकरणासाठी Google भाषांतर सेवा वापरतो. आपल्याला काही चुका आढळल्यास कृपया आम्हाला कळवा.\n",
  "VideoTags": "इंग्रजी व्याकरण,ఆంగ్ల వ్యాకరణం,အင်္ဂလိပ်သဒ်ဒါ,영문법,Gramera Englishngilîzî,Gagana Peretania,Grammar Inggris,English grammar,Engleska gramatika,gramática inglesa,Ulimi lwesiNgisi,angol nyelvtan,gramatica engleza,engelsk grammatik,Ағылшын грамматикасы",
  "YoutubeSynced": true,
  "ThumbnailUploaded": true,
  "Localizations": [
    {
      "Lang": "af",
      "Title": "Engelse grammatika-oefeninge | eenvoudige Britse ⭐️ #78 Could you?",
      "Description": "Leer Engelse grammatika! Verander 'n woord in 'n sin.\n\n\n\n0:05 1:18 2:31 \nCould you turn off the music ?\nkʊd ju tərn ɔf ðə mˈjuzɪk \nKon u die musiek afskakel?\n\n0:19 1:32 2:45 \nCould you close the door ?\nkʊd ju kloʊz ðə dɔr \nKon u die deur toemaak?\n\n0:33 1:46 2:59 \nCould you pass the milk ?\nkʊd ju pæs ðə mɪlk \nKon u die melk deurgee?\n\n0:47 2:00 3:13 \nCould you improve the quality ?\nkʊd ju ˌɪmˈpruv ðə kˈwɑləti \nKan u die kwaliteit verbeter?\n\n1:01 2:14 3:27 \nCould you close the window ?\nkʊd ju kloʊz ðə ˈwɪndoʊ \nKon u die venster toemaak?\n\n\n\nAan onderwysers en skole:\nHierdie video word onder Creative Commons-lisensie gepubliseer.\n  CC BY 3.0 https://creativecommons.org/licenses/by/3.0/ \nGebruik gerus hierdie video in u klasse!\n\nOns gebruik Google Translate-diens vir lokalisering. Laat weet ons as u foute ervaar.\n"
    },
    {
      "Lang": "am",
      "Title": "የእንግሊዝኛ ሰዋሰው ልምምዶች | ቀላል ብሪቲሽ ⭐️ #78 Could you?",
      "Description": "የእንግሊዝኛ ሰዋስው ይማሩ! በአረፍተ ነገር ውስጥ አንድ ቃል ይለውጡ ፡፡\n\n\n\n0:05 1:18 2:31 \nCould you turn off the music ?\nkʊd ju tərn ɔf ðə mˈjuzɪk \nሙዚቃውን ማጥፋት ይችላሉ?\n\n0:19 1:32 2:45 \nCould you close the door ?\nkʊd ju kloʊz ðə dɔr \nበሩን መዝጋት ይችላሉ?\n\n0:33 1:46 2:59 \nCould you pass the milk ?\nkʊd ju pæs ðə mɪlk \nወተቱን ማለፍ ይችላሉ?\n\n0:47 2:00 3:13 \nCould you improve the quality ?\nkʊd ju ˌɪmˈpruv ðə kˈwɑləti \nጥራቱን ማሻሻል ይችላሉ?\n\n1:01 2:14 3:27 \nCould you close the window ?\nkʊd ju kloʊz ðə ˈwɪndoʊ \nመስኮቱን መዝጋት ይችላሉ?\n\n\n\nለመምህራን እና ለት / ቤቶች\nይህ ቪዲዮ በ Creative Commons ፈቃድ ስር ታትሟል ፡፡\n  CC BY 3.0 https://creativecommons.org/licenses/by/3.0/ \nይህንን ቪዲዮ በትምህርቶችዎ ውስጥ ለመጠቀም ነፃ ይሁኑ!\n\nለትርጉም የ Google ትርጉም አገልግሎትን እንጠቀማለን። አንዳንድ ስህተቶች ካገኙ እባክዎ ያሳውቁን።\n"
    },
    {
      "Lang": "ar",
      "Title": "تمارين قواعد اللغة الإنجليزية | بسيط بريطاني ⭐️ #78 Could you?",
      "Description": "تعلم قواعد اللغة الإنجليزية! تغيير كلمة في جملة.\n\n\n\n0:05 1:18 2:31 \nCould you turn off the music ?\nkʊd ju tərn ɔf ðə mˈjuzɪk \nهل يمكنك إيقاف تشغيل الموسيقى؟\n\n0:19 1:32 2:45 \nCould you close the door ?\nkʊd ju kloʊz ðə dɔr \nهل يمكن أن تغلق الباب؟\n\n0:33 1:46 2:59 \nCould you pass the milk ?\nkʊd ju pæs ðə mɪlk \nهل يمكن أن تمر الحليب؟\n\n0:47 2:00 3:13 \nCould you improve the quality ?\nkʊd ju ˌɪmˈpruv ðə kˈwɑləti \nهل يمكنك تحسين الجودة؟\n\n1:01 2:14 3:27 \nCould you close the window ?\nkʊd ju kloʊz ðə ˈwɪndoʊ \nهل يمكن أن تغلق النافذة؟\n\n\n\nللمعلمين والمدارس:\nتم نشر هذا الفيديو تحت رخصة المشاع الإبداعي.\n  CC BY 3.0 https://creativecommons.org/licenses/by/3.0/ \nلا تتردد في استخدام هذا الفيديو في الفصول الدراسية!\n\nنستخدم خدمة الترجمة من Google للترجمة. إذا وجدت بعض الأخطاء ، يرجى إعلامنا.\n"
    },
    {
      "Lang": "az",
      "Title": "İngilis qrammatikası təlimləri | Sadə İngilis ⭐️ #78 Could you?",
      "Description": "İngilis dili qrammatikasını öyrənin! Bir cümlədə bir söz dəyişdirin.\n\n\n\n0:05 1:18 2:31 \nCould you turn off the music ?\nkʊd ju tərn ɔf ðə mˈjuzɪk \nMusiqini söndürə bilərsən?\n\n0:19 1:32 2:45 \nCould you close the door ?\nkʊd ju kloʊz ðə dɔr \nQapını bağlaya bilərsən?\n\n0:33 1:46 2:59 \nCould you pass the milk ?\nkʊd ju pæs ðə mɪlk \nSüdü ötürə bilərsinizmi?\n\n0:47 2:00 3:13 \nCould you improve the quality ?\nkʊd ju ˌɪmˈpruv ðə kˈwɑləti \nKeyfiyyəti yaxşılaşdıra bilərsinizmi?\n\n1:01 2:14 3:27 \nCould you close the window ?\nkʊd ju kloʊz ðə ˈwɪndoʊ \nPəncərəni bağlaya bilərsən?\n\n\n\nMüəllimlərə və məktəblərə:\nBu video Creative Commons lisenziyası altında yayımlanıb.\n  CC BY 3.0 https://creativecommons.org/licenses/by/3.0/ \nBu videonu dərslərinizdə istifadə etməkdən çekinmeyin!\n\nLokallaşdırma üçün Google Translate xidmətindən istifadə edirik. Bəzi səhvlər taparsanız, bizə bildirin.\n"
    },
    {
      "Lang": "be",
      "Title": "Граматычныя практыкаванні на англійскай мове | Просты Брытанцы ⭐️ #78 Could you?",
      "Description": "Вывучайце англійскую граматыку! Змяніце слова ў сказе.\n\n\n\n0:05 1:18 2:31 \nCould you turn off the music ?\nkʊd ju tərn ɔf ðə mˈjuzɪk \nНе маглі б вы выключыць музыку?\n\n0:19 1:32 2:45 \nCould you close the door ?\nkʊd ju kloʊz ðə dɔr \nНе маглі б вы зачыніць дзверы?\n\n0:33 1:46 2:59 \nCould you pass the milk ?\nkʊd ju pæs ðə mɪlk \nНе маглі б вы здаць малако?\n\n0:47 2:00 3:13 \nCould you improve the quality ?\nkʊd ju ˌɪmˈpruv ðə kˈwɑləti \nНе маглі б вы палепшыць якасць?\n\n1:01 2:14 3:27 \nCould you close the window ?\nkʊd ju kloʊz ðə ˈwɪndoʊ \nНе маглі б вы зачыніць акно?\n\n\n\nДля настаўнікаў і школ:\nГэта відэа публікуецца пад ліцэнзіяй Creative Commons.\n  CC BY 3.0 https://creativecommons.org/licenses/by/3.0/ \nНе саромейцеся выкарыстоўваць гэта відэа ў сваіх класах!\n\nМы выкарыстоўваем паслугу Google Translate для лакалізацыі. Калі вы выявілі некаторыя памылкі, калі ласка, паведаміце нам пра гэта.\n"
    },
    {
      "Lang": "bg",
      "Title": "Английски граматически упражнения | прост британски ⭐️ #78 Could you?",
      "Description": "Научете английска граматика! Промяна на дума в изречение.\n\n\n\n0:05 1:18 2:31 \nCould you turn off the music ?\nkʊd ju tərn ɔf ðə mˈjuzɪk \nБихте ли изключили музиката?\n\n0:19 1:32 2:45 \nCould you close the door ?\nkʊd ju kloʊz ðə dɔr \nБихте ли затворили вратата?\n\n0:33 1:46 2:59 \nCould you pass the milk ?\nkʊd ju pæs ðə mɪlk \nМоже ли да минеш млякото?\n\n0:47 2:00 3:13 \nCould you improve the quality ?\nkʊd ju ˌɪmˈpruv ðə kˈwɑləti \nБихте ли могли да подобрите качеството?\n\n1:01 2:14 3:27 \nCould you close the window ?\nkʊd ju kloʊz ðə ˈwɪndoʊ \nБихте ли могли да затворите прозореца?\n\n\n\nЗа учители и училища:\nТози видеоклип е публикуван под Creative Commons License.\n  CC BY 3.0 https://creativecommons.org/licenses/by/3.0/ \nЧувствайте се свободни да използвате това видео в класовете си!\n\nНие използваме услугата Google Translate за локализация. Ако откриете някои грешки, моля, уведомете ни.\n"
    },
    {
      "Lang": "bn",
      "Title": "ইংরেজি ব্যাকরণ অনুশীলন | সহজ ব্রিটিশ ⭐️ #78 Could you?",
      "Description": "ইংরেজি ব্যাকরণ শিখুন! একটি বাক্যে একটি শব্দ পরিবর্তন করুন।\n\n\n\n0:05 1:18 2:31 \nCould you turn off the music ?\nkʊd ju tərn ɔf ðə mˈjuzɪk \nআপনি কি গানটি বন্ধ করতে পারেন?\n\n0:19 1:32 2:45 \nCould you close the door ?\nkʊd ju kloʊz ðə dɔr \nআপনি দরজা বন্ধ করতে পারেন?\n\n0:33 1:46 2:59 \nCould you pass the milk ?\nkʊd ju pæs ðə mɪlk \nআপনি দুধ পাস করতে পারেন?\n\n0:47 2:00 3:13 \nCould you improve the quality ?\nkʊd ju ˌɪmˈpruv ðə kˈwɑləti \nআপনি মান উন্নত করতে পারেন?\n\n1:01 2:14 3:27 \nCould you close the window ?\nkʊd ju kloʊz ðə ˈwɪndoʊ \nআপনি উইন্ডো বন্ধ করতে পারেন?\n\n\n\nশিক্ষক এবং বিদ্যালয়ের কাছে:\nএই ভিডিওটি ক্রিয়েটিভ কমন্স লাইসেন্সের আওতায় প্রকাশিত হয়েছে।\n  CC BY 3.0 https://creativecommons.org/licenses/by/3.0/ \nআপনার ক্লাসে এই ভিডিওটি নির্দ্বিধায় ব্যবহার করুন!\n\nআমরা স্থানীয়করণের জন্য গুগল অনুবাদ পরিষেবা ব্যবহার করি। আপনি যদি কিছু ভুল খুঁজে পান তবে দয়া করে আমাদের জানান।\n"
    },
    {
      "Lang": "bs",
      "Title": "Engleske gramatičke vježbe | Jednostavno Britanski ⭐️ #78 Could you?",
      "Description": "Naučite englesku gramatiku! Promenite reč u rečenici.\n\n\n\n0:05 1:18 2:31 \nCould you turn off the music ?\nkʊd ju tərn ɔf ðə mˈjuzɪk \nMožete li isključiti muziku?\n\n0:19 1:32 2:45 \nCould you close the door ?\nkʊd ju kloʊz ðə dɔr \nMožete li zatvoriti vrata?\n\n0:33 1:46 2:59 \nCould you pass the milk ?\nkʊd ju pæs ðə mɪlk \nMožete li prenijeti mlijeko?\n\n0:47 2:00 3:13 \nCould you improve the quality ?\nkʊd ju ˌɪmˈpruv ðə kˈwɑləti \nMožete li poboljšati kvalitet?\n\n1:01 2:14 3:27 \nCould you close the window ?\nkʊd ju kloʊz ðə ˈwɪndoʊ \nMožete li zatvoriti prozor?\n\n\n\nNastavnicima i školama:\nOvaj video je objavljen pod Creative Commons licencom.\n  CC BY 3.0 https://creativecommons.org/licenses/by/3.0/ \nSlobodno koristite ovaj videozapis u svojim predavanjima!\n\nZa lokalizaciju koristimo uslugu Google Translate. Ako pronađete neke greške, javite nam se.\n"
    },
    {
      "Lang": "ca",
      "Title": "Exercicis de gramàtica anglesa | Senzill Britànic ⭐️ #78 Could you?",
      "Description": "Apreneu gramàtica anglesa! Canvia una paraula en una frase.\n\n\n\n0:05 1:18 2:31 \nCould you turn off the music ?\nkʊd ju tərn ɔf ðə mˈjuzɪk \nPodríeu desactivar la música?\n\n0:19 1:32 2:45 \nCould you close the door ?\nkʊd ju kloʊz ðə dɔr \nPodríeu tancar la porta?\n\n0:33 1:46 2:59 \nCould you pass the milk ?\nkʊd ju pæs ðə mɪlk \nPodríeu passar la llet?\n\n0:47 2:00 3:13 \nCould you improve the quality ?\nkʊd ju ˌɪmˈpruv ðə kˈwɑləti \nPodríeu millorar la qualitat?\n\n1:01 2:14 3:27 \nCould you close the window ?\nkʊd ju kloʊz ðə ˈwɪndoʊ \nPodríeu tancar la finestra?\n\n\n\nA professors i escoles:\nAquest vídeo es publica sota llicència Creative Commons.\n  CC BY 3.0 https://creativecommons.org/licenses/by/3.0/ \nNo dubteu a utilitzar aquest vídeo a les vostres classes.\n\nUtilitzem el servei de Google Translate per a la localització. Si trobeu alguns errors, feu-nos-ho saber.\n"
    },
    {
      "Lang": "co",
      "Title": "Esercizii di grammatica inglese | Semplice Britannicu ⭐️ #78 Could you?",
      "Description": "Amparate a grammatica inglese! Cambia una parolla in una frase.\n\n\n\n0:05 1:18 2:31 \nCould you turn off the music ?\nkʊd ju tərn ɔf ðə mˈjuzɪk \nPudete alluntanà a musica?\n\n0:19 1:32 2:45 \nCould you close the door ?\nkʊd ju kloʊz ðə dɔr \nPudete chjuderaghju a porta?\n\n0:33 1:46 2:59 \nCould you pass the milk ?\nkʊd ju pæs ðə mɪlk \nPudete passà u latte?\n\n0:47 2:00 3:13 \nCould you improve the quality ?\nkʊd ju ˌɪmˈpruv ðə kˈwɑləti \nPuderia migliurà a qualità?\n\n1:01 2:14 3:27 \nCould you close the window ?\nkʊd ju kloʊz ðə ˈwɪndoʊ \nPudete chjude a finestra?\n\n\n\nÀ i prufessori è à e scole:\nStu video hè publicatu sottu licenza Creative Commons.\n  CC BY 3.0 https://creativecommons.org/licenses/by/3.0/ \nSentitevi liberi d'utilizà stu video in i vostri classi!\n\nUsu u serviziu di Google Translate per a localizazione. Se truvate qualchì sbagli, per piaceci di sapè.\n"
    },
    {
      "Lang": "cs",
      "Title": "Cvičení anglické gramatiky | Jednoduchý britský ⭐️ #78 Could you?",
      "Description": "Naučte se anglickou gramatiku! Změňte slovo ve větě.\n\n\n\n0:05 1:18 2:31 \nCould you turn off the music ?\nkʊd ju tərn ɔf ðə mˈjuzɪk \nMohl byste vypnout hudbu?\n\n0:19 1:32 2:45 \nCould you close the door ?\nkʊd ju kloʊz ðə dɔr \nMohl bys zavřít dveře?\n\n0:33 1:46 2:59 \nCould you pass the milk ?\nkʊd ju pæs ðə mɪlk \nMohl bys projít mlékem?\n\n0:47 2:00 3:13 \nCould you improve the quality ?\nkʊd ju ˌɪmˈpruv ðə kˈwɑləti \nMohli byste zlepšit kvalitu?\n\n1:01 2:14 3:27 \nCould you close the window ?\nkʊd ju kloʊz ðə ˈwɪndoʊ \nMůžete zavřít okno?\n\n\n\nUčitelům a školám:\nToto video je publikováno pod licencí Creative Commons License.\n  CC BY 3.0 https://creativecommons.org/licenses/by/3.0/ \nNeváhejte použít toto video ve svých třídách!\n\nK lokalizaci používáme službu Google Translate. Pokud narazíte na nějaké chyby, dejte nám prosím vědět.\n"
    },
    {
      "Lang": "cy",
      "Title": "Ymarferion gramadeg Saesneg | Syml Prydeinig ⭐️ #78 Could you?",
      "Description": "Dysgu gramadeg Saesneg! Newid gair mewn brawddeg.\n\n\n\n0:05 1:18 2:31 \nCould you turn off the music ?\nkʊd ju tərn ɔf ðə mˈjuzɪk \nAllech chi ddiffodd y gerddoriaeth?\n\n0:19 1:32 2:45 \nCould you close the door ?\nkʊd ju kloʊz ðə dɔr \nA allech chi gau'r drws?\n\n0:33 1:46 2:59 \nCould you pass the milk ?\nkʊd ju pæs ðə mɪlk \nA allech chi basio'r llaeth?\n\n0:47 2:00 3:13 \nCould you improve the quality ?\nkʊd ju ˌɪmˈpruv ðə kˈwɑləti \nA allech wella'r ansawdd?\n\n1:01 2:14 3:27 \nCould you close the window ?\nkʊd ju kloʊz ðə ˈwɪndoʊ \nA allech chi gau'r ffenestr?\n\n\n\nI athrawon ac ysgolion:\nCyhoeddir y fideo hon o dan Creative Commons License.\n  CC BY 3.0 https://creativecommons.org/licenses/by/3.0/ \nMae croeso i chi ddefnyddio'r fideo hon yn eich dosbarthiadau!\n\nRydym yn defnyddio gwasanaeth Google Translate ar gyfer lleoleiddio. Os dewch chi o hyd i rai camgymeriadau, rhowch wybod i ni.\n"
    },
    {
      "Lang": "da",
      "Title": "Engelsk grammatikøvelser | Enkel britisk ⭐️ #78 Could you?",
      "Description": "Lær engelsk grammatik! Skift et ord i en sætning.\n\n\n\n0:05 1:18 2:31 \nCould you turn off the music ?\nkʊd ju tərn ɔf ðə mˈjuzɪk \nKunne du slå musikken fra?\n\n0:19 1:32 2:45 \nCould you close the door ?\nkʊd ju kloʊz ðə dɔr \nKunne du lukke døren?\n\n0:33 1:46 2:59 \nCould you pass the milk ?\nkʊd ju pæs ðə mɪlk \nKunne du passere mælken?\n\n0:47 2:00 3:13 \nCould you improve the quality ?\nkʊd ju ˌɪmˈpruv ðə kˈwɑləti \nKunne du forbedre kvaliteten?\n\n1:01 2:14 3:27 \nCould you close the window ?\nkʊd ju kloʊz ðə ˈwɪndoʊ \nKunne du lukke vinduet?\n\n\n\nTil lærere og skoler:\nDenne video er offentliggjort under Creative Commons License.\n  CC BY 3.0 https://creativecommons.org/licenses/by/3.0/ \nBrug gjerne denne video i dine klasser!\n\nVi bruger Google Translate-tjenesten til lokalisering. Hvis du finder nogle fejl, så lad os vide det.\n"
    },
    {
      "Lang": "de",
      "Title": "Englische Grammatikübungen | Einfach britisch ⭐️ #78 Could you?",
      "Description": "Lerne englische Grammatik! Ändern Sie ein Wort in einem Satz.\n\n\n\n0:05 1:18 2:31 \nCould you turn off the music ?\nkʊd ju tərn ɔf ðə mˈjuzɪk \nKönnten Sie die Musik ausschalten?\n\n0:19 1:32 2:45 \nCould you close the door ?\nkʊd ju kloʊz ðə dɔr \nKönnten Sie die Tür schließen?\n\n0:33 1:46 2:59 \nCould you pass the milk ?\nkʊd ju pæs ðə mɪlk \nKönnten Sie die Milch übergeben?\n\n0:47 2:00 3:13 \nCould you improve the quality ?\nkʊd ju ˌɪmˈpruv ðə kˈwɑləti \nKönnten Sie die Qualität verbessern?\n\n1:01 2:14 3:27 \nCould you close the window ?\nkʊd ju kloʊz ðə ˈwɪndoʊ \nKönnten Sie das Fenster schließen?\n\n\n\nAn Lehrer und Schulen:\nDieses Video wird unter der Creative Commons License veröffentlicht.\n  CC BY 3.0 https://creativecommons.org/licenses/by/3.0/ \nFühlen Sie sich frei, dieses Video in Ihren Klassen zu verwenden!\n\nWir verwenden den Google Translate-Dienst zur Lokalisierung. Wenn Sie Fehler finden, teilen Sie uns dies bitte mit.\n"
    },
    {
      "Lang": "el",
      "Title": "Αγγλικές ασκήσεις γραμματικής | Απλός Βρετανοί ⭐️ #78 Could you?",
      "Description": "Μάθετε αγγλική γραμματική! Αλλάξτε μια λέξη σε μια πρόταση.\n\n\n\n0:05 1:18 2:31 \nCould you turn off the music ?\nkʊd ju tərn ɔf ðə mˈjuzɪk \nΜπορείτε να απενεργοποιήσετε τη μουσική;\n\n0:19 1:32 2:45 \nCould you close the door ?\nkʊd ju kloʊz ðə dɔr \nΜπορείτε να κλείσετε την πόρτα;\n\n0:33 1:46 2:59 \nCould you pass the milk ?\nkʊd ju pæs ðə mɪlk \nΜπορείτε να περάσετε το γάλα;\n\n0:47 2:00 3:13 \nCould you improve the quality ?\nkʊd ju ˌɪmˈpruv ðə kˈwɑləti \nΜπορείτε να βελτιώσετε την ποιότητα;\n\n1:01 2:14 3:27 \nCould you close the window ?\nkʊd ju kloʊz ðə ˈwɪndoʊ \nΜπορείτε να κλείσετε το παράθυρο;\n\n\n\nΣτους εκπαιδευτικούς και τα σχολεία:\nΑυτό το βίντεο δημοσιεύεται υπό Creative Commons License.\n  CC BY 3.0 https://creativecommons.org/licenses/by/3.0/ \nΜπορείτε να χρησιμοποιήσετε αυτό το βίντεο στις τάξεις σας!\n\nΧρησιμοποιούμε την υπηρεσία Google Translate για εντοπισμό. Αν βρείτε κάποια λάθη, ενημερώστε μας.\n"
    },
    {
      "Lang": "en",
      "Title": "English grammar exercises | Simple British ⭐️ #78 Could you?",
      "Description": "Learn English grammar! Change a word in a sentence.\n\n\n\n0:05 1:18 2:31 \nCould you turn off the music ?\nkʊd ju tərn ɔf ðə mˈjuzɪk \nCould you turn off the music ?\n\n0:19 1:32 2:45 \nCould you close the door ?\nkʊd ju kloʊz ðə dɔr \nCould you close the door ?\n\n0:33 1:46 2:59 \nCould you pass the milk ?\nkʊd ju pæs ðə mɪlk \nCould you pass the milk ?\n\n0:47 2:00 3:13 \nCould you improve the quality ?\nkʊd ju ˌɪmˈpruv ðə kˈwɑləti \nCould you improve the quality ?\n\n1:01 2:14 3:27 \nCould you close the window ?\nkʊd ju kloʊz ðə ˈwɪndoʊ \nCould you close the window ?\n\n\n\nTo teachers and schools:\nThis video is published under Creative Commons License.\n  CC BY 3.0 https://creativecommons.org/licenses/by/3.0/ \nFeel free to use this video in your classes!\n\nWe use Google Translate service for localization. If you find some mistakes, please let us know.\n"
    },
    {
      "Lang": "es",
      "Title": "Ejercicios de gramática inglesa | Sencillo británico ⭐️ #78 Could you?",
      "Description": "¡Aprende gramática inglesa! Cambiar una palabra en una oración.\n\n\n\n0:05 1:18 2:31 \nCould you turn off the music ?\nkʊd ju tərn ɔf ðə mˈjuzɪk \n¿Podrías apagar la música?\n\n0:19 1:32 2:45 \nCould you close the door ?\nkʊd ju kloʊz ðə dɔr \n¿Podrías cerrar la puerta?\n\n0:33 1:46 2:59 \nCould you pass the milk ?\nkʊd ju pæs ðə mɪlk \n¿Podrías pasar la leche?\n\n0:47 2:00 3:13 \nCould you improve the quality ?\nkʊd ju ˌɪmˈpruv ðə kˈwɑləti \n¿Podrías mejorar la calidad?\n\n1:01 2:14 3:27 \nCould you close the window ?\nkʊd ju kloʊz ðə ˈwɪndoʊ \n¿Podrías cerrar la ventana?\n\n\n\nA profesores y escuelas:\nEste video se publica bajo licencia Creative Commons.\n  CC BY 3.0 https://creativecommons.org/licenses/by/3.0/ \n¡Siéntete libre de usar este video en tus clases!\n\nUtilizamos el servicio Google Translate para la localización. Si encuentra algunos errores, háganoslo saber.\n"
    },
    {
      "Lang": "et",
      "Title": "Inglise keele grammatika harjutused | Lihtne Briti ⭐️ #78 Could you?",
      "Description": "Õpi inglise keele grammatikat! Muutke lauses sõna.\n\n\n\n0:05 1:18 2:31 \nCould you turn off the music ?\nkʊd ju tərn ɔf ðə mˈjuzɪk \nKas saaksite muusika välja lülitada?\n\n0:19 1:32 2:45 \nCould you close the door ?\nkʊd ju kloʊz ðə dɔr \nKas saaksite ukse sulgeda?\n\n0:33 1:46 2:59 \nCould you pass the milk ?\nkʊd ju pæs ðə mɪlk \nKas sa saaksid piima kätte?\n\n0:47 2:00 3:13 \nCould you improve the quality ?\nkʊd ju ˌɪmˈpruv ðə kˈwɑləti \nKas saaksite kvaliteeti parandada?\n\n1:01 2:14 3:27 \nCould you close the window ?\nkʊd ju kloʊz ðə ˈwɪndoʊ \nKas saaksite akna sulgeda?\n\n\n\nÕpetajatele ja koolidele:\nSee video on avaldatud Creative Commonsi litsentsi all.\n  CC BY 3.0 https://creativecommons.org/licenses/by/3.0/ \nKasutage seda videot julgelt oma tundides!\n\nLokaliseerimiseks kasutame Google'i tõlke teenust. Kui leiate vigu, palun andke meile sellest teada.\n"
    },
    {
      "Lang": "eu",
      "Title": "Ingelesezko gramatika ariketak | simple British ⭐️ #78 Could you?",
      "Description": "Ikasi ingelesezko gramatika! Aldatu esaldi batean hitzak.\n\n\n\n0:05 1:18 2:31 \nCould you turn off the music ?\nkʊd ju tərn ɔf ðə mˈjuzɪk \nEzin duzu musika desaktibatu?\n\n0:19 1:32 2:45 \nCould you close the door ?\nkʊd ju kloʊz ðə dɔr \nAtea itxi al zenuke?\n\n0:33 1:46 2:59 \nCould you pass the milk ?\nkʊd ju pæs ðə mɪlk \nEsnea pasa al zenuke?\n\n0:47 2:00 3:13 \nCould you improve the quality ?\nkʊd ju ˌɪmˈpruv ðə kˈwɑləti \nKalitatea hobetuko zenuke?\n\n1:01 2:14 3:27 \nCould you close the window ?\nkʊd ju kloʊz ðə ˈwɪndoʊ \nLeihoa itxi al zenuke?\n\n\n\nIrakasleei eta ikastetxeei:\nBideo hau Creative Commons lizentziapean argitaratzen da.\n  CC BY 3.0 https://creativecommons.org/licenses/by/3.0/ \nEz ahaztu bideo hau zure klaseetan erabiltzeko!\n\nGoogle Translate zerbitzua erabiltzen dugu lokalizaziorako. Akats batzuk aurkitzen badituzu, adierazi iezaguzu\n"
    },
    {
      "Lang": "fa",
      "Title": "تمرین های دستور زبان انگلیسی | ساده انگلیسی ⭐️ #78 Could you?",
      "Description": "گرامر انگلیسی را بیاموزید! یک کلمه را در یک جمله تغییر دهید.\n\n\n\n0:05 1:18 2:31 \nCould you turn off the music ?\nkʊd ju tərn ɔf ðə mˈjuzɪk \nمی توانید موسیقی را خاموش کنید؟\n\n0:19 1:32 2:45 \nCould you close the door ?\nkʊd ju kloʊz ðə dɔr \nمی توانید در را ببندید؟\n\n0:33 1:46 2:59 \nCould you pass the milk ?\nkʊd ju pæs ðə mɪlk \nمی توانید شیر را تصویب کنید؟\n\n0:47 2:00 3:13 \nCould you improve the quality ?\nkʊd ju ˌɪmˈpruv ðə kˈwɑləti \nآیا می توانید کیفیت را بهبود بخشید؟\n\n1:01 2:14 3:27 \nCould you close the window ?\nkʊd ju kloʊz ðə ˈwɪndoʊ \nمی توانید پنجره را ببندید؟\n\n\n\nبه معلمان و مدارس:\nاین ویدیو تحت مجوز Creative Commons منتشر شده است.\n  CC BY 3.0 https://creativecommons.org/licenses/by/3.0/ \nدر استفاده از این فیلم در کلاس های خود احساس راحتی کنید!\n\nما از خدمات Google Translate برای محلی سازی استفاده می کنیم. اگر شما برخی از اشتباهات ، لطفا به ما اطلاع دهید.\n"
    },
    {
      "Lang": "fi",
      "Title": "Englannin kieliopin harjoitukset | Yksinkertainen brittiläinen ⭐️ #78 Could you?",
      "Description": "Opi englannin kielioppi! Vaihda sana lauseessa.\n\n\n\n0:05 1:18 2:31 \nCould you turn off the music ?\nkʊd ju tərn ɔf ðə mˈjuzɪk \nVoisitko sammuttaa musiikin?\n\n0:19 1:32 2:45 \nCould you close the door ?\nkʊd ju kloʊz ðə dɔr \nVoisitko sulkea oven?\n\n0:33 1:46 2:59 \nCould you pass the milk ?\nkʊd ju pæs ðə mɪlk \nVoisitko siirtää maidon?\n\n0:47 2:00 3:13 \nCould you improve the quality ?\nkʊd ju ˌɪmˈpruv ðə kˈwɑləti \nVoisitko parantaa laatua?\n\n1:01 2:14 3:27 \nCould you close the window ?\nkʊd ju kloʊz ðə ˈwɪndoʊ \nVoisitko sulkea ikkunan?\n\n\n\nOpettajille ja kouluille:\nTämä video on julkaistu Creative Commons -lisenssillä.\n  CC BY 3.0 https://creativecommons.org/licenses/by/3.0/ \nVoit vapaasti käyttää tätä videota luokissa!\n\nKäytämme lokalisointiin Google Translate -palvelua. Jos löydät virheitä, ota meihin yhteyttä.\n"
    },
    {
      "Lang": "fil",
      "Title": "Pagsasanay sa grammar ng Ingles | Simple British ⭐️ #78 Could you?",
      "Description": "Alamin ang grammar ng Ingles! Baguhin ang isang salita sa isang pangungusap.\n\n\n\n0:05 1:18 2:31 \nCould you turn off the music ?\nkʊd ju tərn ɔf ðə mˈjuzɪk \nMaaari mong patayin ang musika?\n\n0:19 1:32 2:45 \nCould you close the door ?\nkʊd ju kloʊz ðə dɔr \nMaaari mong isara ang pinto?\n\n0:33 1:46 2:59 \nCould you pass the milk ?\nkʊd ju pæs ðə mɪlk \nMaaari mong ipasa ang gatas?\n\n0:47 2:00 3:13 \nCould you improve the quality ?\nkʊd ju ˌɪmˈpruv ðə kˈwɑləti \nMaaari mong pagbutihin ang kalidad?\n\n1:01 2:14 3:27 \nCould you close the window ?\nkʊd ju kloʊz ðə ˈwɪndoʊ \nMaaari mong isara ang window?\n\n\n\nSa mga guro at paaralan:\nAng video na ito ay nai-publish sa ilalim ng Lisensya ng Creative Commons.\n  CC BY 3.0 https://creativecommons.org/licenses/by/3.0/ \nHuwag mag-atubiling gamitin ang video na ito sa iyong mga klase!\n\nWe use Google Translate service for localization. If you find some mistakes, please let us know.\n"
    },
    {
      "Lang": "fr",
      "Title": "Exercices de grammaire anglaise | Facile Britanique ⭐️ #78 Could you?",
      "Description": "Apprenez la grammaire anglaise! Changer un mot dans une phrase.\n\n\n\n0:05 1:18 2:31 \nCould you turn off the music ?\nkʊd ju tərn ɔf ðə mˈjuzɪk \nPourriez-vous désactiver la musique?\n\n0:19 1:32 2:45 \nCould you close the door ?\nkʊd ju kloʊz ðə dɔr \nPourriez-vous fermer la porte?\n\n0:33 1:46 2:59 \nCould you pass the milk ?\nkʊd ju pæs ðə mɪlk \nPourriez-vous passer le lait?\n\n0:47 2:00 3:13 \nCould you improve the quality ?\nkʊd ju ˌɪmˈpruv ðə kˈwɑləti \nPourriez-vous améliorer la qualité?\n\n1:01 2:14 3:27 \nCould you close the window ?\nkʊd ju kloʊz ðə ˈwɪndoʊ \nPourriez-vous fermer la fenêtre?\n\n\n\nAux enseignants et aux écoles:\nCette vidéo est publiée sous licence Creative Commons.\n  CC BY 3.0 https://creativecommons.org/licenses/by/3.0/ \nN'hésitez pas à utiliser cette vidéo dans vos cours!\n\nNous utilisons le service Google Translate pour la localisation. Si vous trouvez des erreurs, veuillez nous en informer.\n"
    },
    {
      "Lang": "fy",
      "Title": "Ingelske oefeningen foar grammatika | Ienfâldich Britsk ⭐️ #78 Could you?",
      "Description": "Learje Ingelske grammatika! Feroarje in wurd yn in sin.\n\n\n\n0:05 1:18 2:31 \nCould you turn off the music ?\nkʊd ju tərn ɔf ðə mˈjuzɪk \nKoe jo de muzyk útsette?\n\n0:19 1:32 2:45 \nCould you close the door ?\nkʊd ju kloʊz ðə dɔr \nKoe jo de doar slute?\n\n0:33 1:46 2:59 \nCould you pass the milk ?\nkʊd ju pæs ðə mɪlk \nKoe jo de molke trochjaan?\n\n0:47 2:00 3:13 \nCould you improve the quality ?\nkʊd ju ˌɪmˈpruv ðə kˈwɑləti \nKoe jo de kwaliteit ferbetterje?\n\n1:01 2:14 3:27 \nCould you close the window ?\nkʊd ju kloʊz ðə ˈwɪndoʊ \nKoe jo it finster slute?\n\n\n\nOan dosinten en skoallen:\nDizze fideo wurdt publisearre ûnder Creative Commons License.\n  CC BY 3.0 https://creativecommons.org/licenses/by/3.0/ \nFiel jo frij om dizze fideo te brûken yn jo klassen!\n\nWy brûke Google Translate tsjinst foar lokalisaasje. As jo wat flaters fine, lit it ús dan witte.\n"
    },
    {
      "Lang": "gd",
      "Title": "Eacarsaichean gràmair Beurla | Gu sìmplidh Breatannach ⭐️ #78 Could you?",
      "Description": "Ionnsaich gràmar Beurla! Atharraich facal ann an seantans.\n\n\n\n0:05 1:18 2:31 \nCould you turn off the music ?\nkʊd ju tərn ɔf ðə mˈjuzɪk \nAm b ’urrainn dhut an ceòl a chuir dheth?\n\n0:19 1:32 2:45 \nCould you close the door ?\nkʊd ju kloʊz ðə dɔr \nAm b ’urrainn dhut an doras a dhùnadh?\n\n0:33 1:46 2:59 \nCould you pass the milk ?\nkʊd ju pæs ðə mɪlk \nAm b ’urrainn dhut am bainne a thoirt seachad?\n\n0:47 2:00 3:13 \nCould you improve the quality ?\nkʊd ju ˌɪmˈpruv ðə kˈwɑləti \nAm b ’urrainn dhut càileachd a leasachadh?\n\n1:01 2:14 3:27 \nCould you close the window ?\nkʊd ju kloʊz ðə ˈwɪndoʊ \nAm b ’urrainn dhut an uinneag a dhùnadh?\n\n\n\nDo thidsearan agus sgoiltean:\nTha a ’bhidio seo air fhoillseachadh fo Creative Commons License.\n  CC BY 3.0 https://creativecommons.org/licenses/by/3.0/ \nFaodaidh tu am bhidio seo a chleachdadh anns na clasaichean agad!\n\nBidh sinn a ’cleachdadh seirbheis Google Translate airson sgìreachadh. Ma lorgas tu cuid de mhearachdan, feuch an innis thu dhuinn.\n"
    },
    {
      "Lang": "gl",
      "Title": "Exercicios de gramática inglesa | Sinxelo Británico ⭐️ #78 Could you?",
      "Description": "Aprende gramática inglesa! Cambia unha palabra nunha frase.\n\n\n\n0:05 1:18 2:31 \nCould you turn off the music ?\nkʊd ju tərn ɔf ðə mˈjuzɪk \n¿Podes desactivar a música?\n\n0:19 1:32 2:45 \nCould you close the door ?\nkʊd ju kloʊz ðə dɔr \nPoderías pechar a porta?\n\n0:33 1:46 2:59 \nCould you pass the milk ?\nkʊd ju pæs ðə mɪlk \nPoderías pasar o leite?\n\n0:47 2:00 3:13 \nCould you improve the quality ?\nkʊd ju ˌɪmˈpruv ðə kˈwɑləti \nPodería mellorar a calidade?\n\n1:01 2:14 3:27 \nCould you close the window ?\nkʊd ju kloʊz ðə ˈwɪndoʊ \n¿Podes pechar a xanela?\n\n\n\nPara profesores e colexios:\nEste vídeo está publicado baixo a licenza Creative Commons.\n  CC BY 3.0 https://creativecommons.org/licenses/by/3.0/ \nNon dubides en usar este vídeo nas túas clases.\n\nUsamos o servizo Google Translate para a súa localización. Se atopas algún erro, comunícanos.\n"
    },
    {
      "Lang": "gu",
      "Title": "અંગ્રેજી વ્યાકરણ વ્યાયામ | સરળ બ્રિટિશ ⭐️ #78 Could you?",
      "Description": "અંગ્રેજી વ્યાકરણ શીખો! એક વાક્યમાં એક શબ્દ બદલો.\n\n\n\n0:05 1:18 2:31 \nCould you turn off the music ?\nkʊd ju tərn ɔf ðə mˈjuzɪk \nતમે સંગીત બંધ કરી શકો છો?\n\n0:19 1:32 2:45 \nCould you close the door ?\nkʊd ju kloʊz ðə dɔr \nતમે દરવાજો બંધ કરી શકશો?\n\n0:33 1:46 2:59 \nCould you pass the milk ?\nkʊd ju pæs ðə mɪlk \nતમે દૂધ પસાર કરી શકો છો?\n\n0:47 2:00 3:13 \nCould you improve the quality ?\nkʊd ju ˌɪmˈpruv ðə kˈwɑləti \nતમે ગુણવત્તા સુધારી શકે?\n\n1:01 2:14 3:27 \nCould you close the window ?\nkʊd ju kloʊz ðə ˈwɪndoʊ \nતમે વિંડો બંધ કરી શકશો?\n\n\n\nશિક્ષકો અને શાળાઓને:\nઆ વિડિઓ ક્રિએટિવ કonsમન્સ લાઇસન્સ હેઠળ પ્રકાશિત છે.\n  CC BY 3.0 https://creativecommons.org/licenses/by/3.0/ \nતમારા વર્ગોમાં આ વિડિઓનો ઉપયોગ કરવા માટે મફત લાગે!\n\nઅમે સ્થાનિકીકરણ માટે Google ભાષાંતર સેવાનો ઉપયોગ કરીએ છીએ. જો તમને કેટલીક ભૂલો લાગે છે, તો કૃપા કરીને અમને જણાવો.\n"
    },
    {
      "Lang": "ha",
      "Title": "Darasi na ilimin nahawu na Turanci | Mai sauki Birtaniya ⭐️ #78 Could you?",
      "Description": "Koyi ilimin nahawu Turanci! Canja kalma a cikin jumla.\n\n\n\n0:05 1:18 2:31 \nCould you turn off the music ?\nkʊd ju tərn ɔf ðə mˈjuzɪk \nZa a iya kashe kiɗan?\n\n0:19 1:32 2:45 \nCould you close the door ?\nkʊd ju kloʊz ðə dɔr \nZa a iya rufe ƙofar?\n\n0:33 1:46 2:59 \nCould you pass the milk ?\nkʊd ju pæs ðə mɪlk \nZa ku iya shayar da madara?\n\n0:47 2:00 3:13 \nCould you improve the quality ?\nkʊd ju ˌɪmˈpruv ðə kˈwɑləti \nZa a iya inganta ingancin?\n\n1:01 2:14 3:27 \nCould you close the window ?\nkʊd ju kloʊz ðə ˈwɪndoʊ \nZa a iya rufe taga?\n\n\n\nGa malamai da makarantu:\nWannan bidiyon an buga shi a ƙarƙashin lasisin Creative Commons.\n  CC BY 3.0 https://creativecommons.org/licenses/by/3.0/ \nJin kyauta don amfani da wannan bidiyon a cikin azuzuwanku!\n\nMuna amfani da sabis na Google Fassara don fassarar. Idan ka sami wasu kurakurai, da fatan za a sanar da mu.\n"
    },
    {
      "Lang": "hi",
      "Title": "अंग्रेजी व्याकरण अभ्यास | सरल अंग्रेजों ⭐️ #78 Could you?",
      "Description": "अंग्रेजी व्याकरण जानें! एक वाक्य में एक शब्द बदलें।\n\n\n\n0:05 1:18 2:31 \nCould you turn off the music ?\nkʊd ju tərn ɔf ðə mˈjuzɪk \nक्या आप संगीत बंद कर सकते हैं?\n\n0:19 1:32 2:45 \nCould you close the door ?\nkʊd ju kloʊz ðə dɔr \nक्या आप दरवाजा बंद कर सकते हैं?\n\n0:33 1:46 2:59 \nCould you pass the milk ?\nkʊd ju pæs ðə mɪlk \nक्या आप दूध पास कर सकते हैं?\n\n0:47 2:00 3:13 \nCould you improve the quality ?\nkʊd ju ˌɪmˈpruv ðə kˈwɑləti \nक्या आप गुणवत्ता में सुधार कर सकते हैं?\n\n1:01 2:14 3:27 \nCould you close the window ?\nkʊd ju kloʊz ðə ˈwɪndoʊ \nक्या आप खिड़की बंद कर सकते हैं?\n\n\n\nशिक्षकों और स्कूलों के लिए:\nयह वीडियो क्रिएटिव कॉमन्स लाइसेंस के तहत प्रकाशित हुआ है।\n  CC BY 3.0 https://creativecommons.org/licenses/by/3.0/ \nअपनी कक्षाओं में इस वीडियो का उपयोग करने के लिए स्वतंत्र महसूस करें!\n\nहम स्थानीयकरण के लिए Google अनुवाद सेवा का उपयोग करते हैं। यदि आप कुछ गलतियाँ पाते हैं, तो कृपया हमें बताएँ।\n"
    },
    {
      "Lang": "hr",
      "Title": "Gramatičke vježbe engleskog jezika | Jednostavan britanski ⭐️ #78 Could you?",
      "Description": "Naučite englesku gramatiku! Promijenite riječ u rečenici.\n\n\n\n0:05 1:18 2:31 \nCould you turn off the music ?\nkʊd ju tərn ɔf ðə mˈjuzɪk \nMožete li isključiti glazbu?\n\n0:19 1:32 2:45 \nCould you close the door ?\nkʊd ju kloʊz ðə dɔr \nMožete li zatvoriti vrata?\n\n0:33 1:46 2:59 \nCould you pass the milk ?\nkʊd ju pæs ðə mɪlk \nMožete li prenijeti mlijeko?\n\n0:47 2:00 3:13 \nCould you improve the quality ?\nkʊd ju ˌɪmˈpruv ðə kˈwɑləti \nMožete li poboljšati kvalitetu?\n\n1:01 2:14 3:27 \nCould you close the window ?\nkʊd ju kloʊz ðə ˈwɪndoʊ \nMožete li zatvoriti prozor?\n\n\n\nNastavnicima i školama:\nOvaj videozapis objavljen je pod licencom Creative Commons.\n  CC BY 3.0 https://creativecommons.org/licenses/by/3.0/ \nSlobodno upotrijebite ovaj videozapis u svojim predavanjima!\n\nZa lokalizaciju koristimo uslugu Google Translate. Ako pronađete neke pogreške, javite nam se.\n"
    },
    {
      "Lang": "hu",
      "Title": "Angol nyelvtan gyakorlatok | Egyszerű angol ⭐️ #78 Could you?",
      "Description": "Tanulj angol nyelvtant! Változtasson egy szót egy mondatban.\n\n\n\n0:05 1:18 2:31 \nCould you turn off the music ?\nkʊd ju tərn ɔf ðə mˈjuzɪk \nKikapcsolhatja a zenét?\n\n0:19 1:32 2:45 \nCould you close the door ?\nkʊd ju kloʊz ðə dɔr \nBe tudná csukni az ajtót?\n\n0:33 1:46 2:59 \nCould you pass the milk ?\nkʊd ju pæs ðə mɪlk \nÁtadnád a tejet?\n\n0:47 2:00 3:13 \nCould you improve the quality ?\nkʊd ju ˌɪmˈpruv ðə kˈwɑləti \nJavíthatja a minőséget?\n\n1:01 2:14 3:27 \nCould you close the window ?\nkʊd ju kloʊz ðə ˈwɪndoʊ \nBe tudná zárni az ablakot?\n\n\n\nTanároknak és iskoláknak:\nEz a videó a Creative Commons License alatt jelenik meg.\n  CC BY 3.0 https://creativecommons.org/licenses/by/3.0/ \nNyugodtan használja ezt a videót az osztályokban!\n\nA lokalizációhoz a Google Translate szolgáltatást használjuk. Ha hibát talál, kérjük, ossza meg velünk.\n"
    },
    {
      "Lang": "hy",
      "Title": "Անգլերենի քերականական վարժություններ | Պարզ Բրիտանական ⭐️ #78 Could you?",
      "Description": "Իմացեք անգլերեն քերականությունը: Մի նախադասությամբ մի բառ փոխեք:\n\n\n\n0:05 1:18 2:31 \nCould you turn off the music ?\nkʊd ju tərn ɔf ðə mˈjuzɪk \nԿարո՞ղ եք անջատել երաժշտությունը:\n\n0:19 1:32 2:45 \nCould you close the door ?\nkʊd ju kloʊz ðə dɔr \nԿարո՞ղ ես դուռը փակել:\n\n0:33 1:46 2:59 \nCould you pass the milk ?\nkʊd ju pæs ðə mɪlk \nԿարո՞ղ եք անցնել կաթը:\n\n0:47 2:00 3:13 \nCould you improve the quality ?\nkʊd ju ˌɪmˈpruv ðə kˈwɑləti \nԿարո՞ղ եք բարելավել որակը:\n\n1:01 2:14 3:27 \nCould you close the window ?\nkʊd ju kloʊz ðə ˈwɪndoʊ \nԿարո՞ղ եք փակել պատուհանը:\n\n\n\nՈւսուցիչներին և դպրոցներին.\nԱյս տեսանյութը հրապարակված է Creative Commons արտոնագրի ներքո:\n  CC BY 3.0 https://creativecommons.org/licenses/by/3.0/ \nԱզատորեն օգտվեք այս տեսանյութից ձեր դասերից:\n\nՄենք օգտագործում ենք Google Translate ծառայությունը տեղայնացման համար: Եթե որոշ սխալներ եք գտնում, խնդրում ենք տեղեկացնել մեզ:\n"
    },
    {
      "Lang": "id",
      "Title": "Latihan tata bahasa Inggris | Sederhana Inggris ⭐️ #78 Could you?",
      "Description": "Belajar tata bahasa Inggris! Ubah kata dalam kalimat.\n\n\n\n0:05 1:18 2:31 \nCould you turn off the music ?\nkʊd ju tərn ɔf ðə mˈjuzɪk \nBisakah kamu mematikan musiknya?\n\n0:19 1:32 2:45 \nCould you close the door ?\nkʊd ju kloʊz ðə dɔr \nBisakah Anda menutup pintu?\n\n0:33 1:46 2:59 \nCould you pass the milk ?\nkʊd ju pæs ðə mɪlk \nBisakah Anda mengeluarkan susu?\n\n0:47 2:00 3:13 \nCould you improve the quality ?\nkʊd ju ˌɪmˈpruv ðə kˈwɑləti \nBisakah Anda meningkatkan kualitas?\n\n1:01 2:14 3:27 \nCould you close the window ?\nkʊd ju kloʊz ðə ˈwɪndoʊ \nBisakah Anda menutup jendela?\n\n\n\nKepada guru dan sekolah:\nVideo ini diterbitkan di bawah Lisensi Creative Commons.\n  CC BY 3.0 https://creativecommons.org/licenses/by/3.0/ \nJangan ragu untuk menggunakan video ini di kelas Anda!\n\nKami menggunakan layanan Google Terjemahan untuk pelokalan. Jika Anda menemukan beberapa kesalahan, beri tahu kami.\n"
    },
    {
      "Lang": "ig",
      "Title": "Ọmụmụ asụsụ ụtọ asụsụ Bekee | Dị Mfe Onye Britain ⭐️ #78 Could you?",
      "Description": "Muta asusu bekee! Gbanwee okwu na ahịrịokwu.\n\n\n\n0:05 1:18 2:31 \nCould you turn off the music ?\nkʊd ju tərn ɔf ðə mˈjuzɪk \nCould nwere ike gbanyụọ egwu ahụ?\n\n0:19 1:32 2:45 \nCould you close the door ?\nkʊd ju kloʊz ðə dɔr \nCould nwere ike imechi ụzọ?\n\n0:33 1:46 2:59 \nCould you pass the milk ?\nkʊd ju pæs ðə mɪlk \nCould nwere ike ịnyefe mmiri ara ehi?\n\n0:47 2:00 3:13 \nCould you improve the quality ?\nkʊd ju ˌɪmˈpruv ðə kˈwɑləti \nCould nwere ike melite ogo ahụ?\n\n1:01 2:14 3:27 \nCould you close the window ?\nkʊd ju kloʊz ðə ˈwɪndoʊ \nCould nwere ike imechi windo?\n\n\n\nMaka ndị nkuzi na ụlọ akwụkwọ:\nEdere vidiyo a n'okpuru ikikere Creative Commons.\n  CC BY 3.0 https://creativecommons.org/licenses/by/3.0/ \nNwere onwe gị iji vidiyo a na klaasị gị!\n\nAnyị na-eji ọrụ ntụgharị Google emegharị. Ọ bụrụ n’ịhụ ụfọdụ mmejọ, biko mee ka anyị mara.\n"
    },
    {
      "Lang": "is",
      "Title": "Enskar málfræðiæfingar | Einfalt Bretar ⭐️ #78 Could you?",
      "Description": "Lærðu ensku málfræði! Skiptu um orð í setningu.\n\n\n\n0:05 1:18 2:31 \nCould you turn off the music ?\nkʊd ju tərn ɔf ðə mˈjuzɪk \nGætirðu slökkt á tónlistinni?\n\n0:19 1:32 2:45 \nCould you close the door ?\nkʊd ju kloʊz ðə dɔr \nGætirðu lokað hurðinni?\n\n0:33 1:46 2:59 \nCould you pass the milk ?\nkʊd ju pæs ðə mɪlk \nGætirðu borist mjólkina?\n\n0:47 2:00 3:13 \nCould you improve the quality ?\nkʊd ju ˌɪmˈpruv ðə kˈwɑləti \nGætirðu bætt gæði?\n\n1:01 2:14 3:27 \nCould you close the window ?\nkʊd ju kloʊz ðə ˈwɪndoʊ \nGætirðu lokað glugganum?\n\n\n\nTil kennara og skóla:\nÞetta myndband er birt undir Creative Commons leyfi.\n  CC BY 3.0 https://creativecommons.org/licenses/by/3.0/ \nEkki hika við að nota þetta myndband í bekkjum þínum!\n\nVið notum Google Translate þjónustu til að staðsetja. Láttu okkur vita ef þú finnur fyrir einhverjum mistökum.\n"
    },
    {
      "Lang": "it",
      "Title": "Esercizi di grammatica inglese | Semplice Britannico ⭐️ #78 Could you?",
      "Description": "Impara la grammatica inglese! Cambia una parola in una frase.\n\n\n\n0:05 1:18 2:31 \nCould you turn off the music ?\nkʊd ju tərn ɔf ðə mˈjuzɪk \nPotresti spegnere la musica?\n\n0:19 1:32 2:45 \nCould you close the door ?\nkʊd ju kloʊz ðə dɔr \nPotresti chiudere la porta?\n\n0:33 1:46 2:59 \nCould you pass the milk ?\nkʊd ju pæs ðə mɪlk \nPotresti passare il latte?\n\n0:47 2:00 3:13 \nCould you improve the quality ?\nkʊd ju ˌɪmˈpruv ðə kˈwɑləti \nPotresti migliorare la qualità?\n\n1:01 2:14 3:27 \nCould you close the window ?\nkʊd ju kloʊz ðə ˈwɪndoʊ \nPotresti chiudere la finestra?\n\n\n\nPer insegnanti e scuole:\nQuesto video è pubblicato sotto la licenza Creative Commons.\n  CC BY 3.0 https://creativecommons.org/licenses/by/3.0/ \nSentiti libero di usare questo video nelle tue lezioni!\n\nUtilizziamo il servizio Google Translate per la localizzazione. Se trovi qualche errore, faccelo sapere.\n"
    },
    {
      "Lang": "iw",
      "Title": "תרגילי דקדוק באנגלית | פשוט בריטי ⭐️ #78 Could you?",
      "Description": "למד דקדוק באנגלית! שנה מילה במשפט.\n\n\n\n0:05 1:18 2:31 \nCould you turn off the music ?\nkʊd ju tərn ɔf ðə mˈjuzɪk \nהאם אתה יכול לכבות את המוזיקה?\n\n0:19 1:32 2:45 \nCould you close the door ?\nkʊd ju kloʊz ðə dɔr \nהאם תוכל לסגור את הדלת?\n\n0:33 1:46 2:59 \nCould you pass the milk ?\nkʊd ju pæs ðə mɪlk \nאתה יכול להעביר את החלב?\n\n0:47 2:00 3:13 \nCould you improve the quality ?\nkʊd ju ˌɪmˈpruv ðə kˈwɑləti \nהאם אתה יכול לשפר את האיכות?\n\n1:01 2:14 3:27 \nCould you close the window ?\nkʊd ju kloʊz ðə ˈwɪndoʊ \nהאם תוכל לסגור את החלון?\n\n\n\nלמורים ובתי ספר:\nסרטון זה מתפרסם תחת רישיון Creative Commons.\n  CC BY 3.0 https://creativecommons.org/licenses/by/3.0/ \nאל תהסס להשתמש בסרטון זה בשיעורים שלך!\n\nאנו משתמשים בשירות Google Translate לצורך לוקליזציה. אם אתה מוצא טעויות, אנא הודע לנו על כך.\n"
    },
    {
      "Lang": "ja",
      "Title": "英文法練習 | シンプル イギリス ⭐️ #78 Could you?",
      "Description": "英語の文法を学びましょう！ 文中の単語を変更します。\n\n\n\n0:05 1:18 2:31 \nCould you turn off the music ?\nkʊd ju tərn ɔf ðə mˈjuzɪk \n音楽をオフにできますか？\n\n0:19 1:32 2:45 \nCould you close the door ?\nkʊd ju kloʊz ðə dɔr \nドアを閉めてもらえますか？\n\n0:33 1:46 2:59 \nCould you pass the milk ?\nkʊd ju pæs ðə mɪlk \n牛乳を渡すことができますか？\n\n0:47 2:00 3:13 \nCould you improve the quality ?\nkʊd ju ˌɪmˈpruv ðə kˈwɑləti \n品質を改善してもらえますか？\n\n1:01 2:14 3:27 \nCould you close the window ?\nkʊd ju kloʊz ðə ˈwɪndoʊ \nウィンドウを閉じてもらえますか？\n\n\n\n先生と学校へ：\nこのビデオは、クリエイティブコモンズライセンスの下で公開されています。\n  CC BY 3.0 https://creativecommons.org/licenses/by/3.0/ \nこのビデオをクラスで自由に使用してください！\n\nローカライズにはGoogle翻訳サービスを使用しています。間違いを見つけた場合はお知らせください。\n"
    },
    {
      "Lang": "jv",
      "Title": "Latihan grammar Inggris | Prasaja Inggris ⭐️ #78 Could you?",
      "Description": "Sinau tata basa Inggris! Ngganti tembung sajrone ukara.\n\n\n\n0:05 1:18 2:31 \nCould you turn off the music ?\nkʊd ju tərn ɔf ðə mˈjuzɪk \nApa sampeyan bisa mateni musik kasebut?\n\n0:19 1:32 2:45 \nCould you close the door ?\nkʊd ju kloʊz ðə dɔr \nApa sampeyan bisa nutup lawang?\n\n0:33 1:46 2:59 \nCould you pass the milk ?\nkʊd ju pæs ðə mɪlk \nApa sampeyan bisa ngliwati susu?\n\n0:47 2:00 3:13 \nCould you improve the quality ?\nkʊd ju ˌɪmˈpruv ðə kˈwɑləti \nApa sampeyan bisa nambah kualitas?\n\n1:01 2:14 3:27 \nCould you close the window ?\nkʊd ju kloʊz ðə ˈwɪndoʊ \nApa sampeyan bisa nutup jendhela?\n\n\n\nTumrap guru lan sekolah:\nVideo iki diterbitake ing lisensi Creative Commons.\n  CC BY 3.0 https://creativecommons.org/licenses/by/3.0/ \nOjo nggunakake video iki ing kelas sampeyan!\n\nKita nggunakake layanan Google Translate kanggo lokalisasi. Yen sampeyan nemokake sawetara kesalahan, kabari.\n"
    },
    {
      "Lang": "ka",
      "Title": "ინგლისური გრამატიკის სავარჯიშოები | მარტივი ბრიტანული ⭐️ #78 Could you?",
      "Description": "შეიტყვეთ ინგლისური ენის გრამატიკა! წინადადებაში შეცვალეთ სიტყვა.\n\n\n\n0:05 1:18 2:31 \nCould you turn off the music ?\nkʊd ju tərn ɔf ðə mˈjuzɪk \nშეგიძლიათ გამორთოთ მუსიკა?\n\n0:19 1:32 2:45 \nCould you close the door ?\nkʊd ju kloʊz ðə dɔr \nკარების დაკეტვა შეიძლება?\n\n0:33 1:46 2:59 \nCould you pass the milk ?\nkʊd ju pæs ðə mɪlk \nშეგიძლია რძე გადადო?\n\n0:47 2:00 3:13 \nCould you improve the quality ?\nkʊd ju ˌɪmˈpruv ðə kˈwɑləti \nშეიძლება ხარისხის გაუმჯობესება?\n\n1:01 2:14 3:27 \nCould you close the window ?\nkʊd ju kloʊz ðə ˈwɪndoʊ \nშეგიძლიათ ფანჯრის დახურვა?\n\n\n\nმასწავლებლებსა და სკოლებს:\nეს ვიდეო გამოქვეყნებულია Creative Commons- ის ლიცენზიით.\n  CC BY 3.0 https://creativecommons.org/licenses/by/3.0/ \nშეგიძლიათ გამოიყენოთ ეს ვიდეო თქვენს კლასებში!\n\nჩვენ ვიყენებთ Google Translate სერვისს ლოკალიზაციისთვის. თუ შეცდომებს იპოვნით, გთხოვთ, შეგვატყობინოთ.\n"
    },
    {
      "Lang": "kk",
      "Title": "Ағылшын грамматикалық жаттығулары | Қарапайым Британдық ⭐️ #78 Could you?",
      "Description": "Ағылшын грамматикасын үйрен! Сөйлемдегі сөзді өзгертіңіз.\n\n\n\n0:05 1:18 2:31 \nCould you turn off the music ?\nkʊd ju tərn ɔf ðə mˈjuzɪk \nСіз музыканы өшіре аласыз ба?\n\n0:19 1:32 2:45 \nCould you close the door ?\nkʊd ju kloʊz ðə dɔr \nЕсікті жаба аласыз ба?\n\n0:33 1:46 2:59 \nCould you pass the milk ?\nkʊd ju pæs ðə mɪlk \nСіз сүт бере аласыз ба?\n\n0:47 2:00 3:13 \nCould you improve the quality ?\nkʊd ju ˌɪmˈpruv ðə kˈwɑləti \nСіз сапаны көтере аласыз ба?\n\n1:01 2:14 3:27 \nCould you close the window ?\nkʊd ju kloʊz ðə ˈwɪndoʊ \nСіз терезені жаба аласыз ба?\n\n\n\nОқытушылар мен мектептерге:\nБұл бейне Creative Commons лицензиясы бойынша жарияланған.\n  CC BY 3.0 https://creativecommons.org/licenses/by/3.0/ \nБұл бейнені өз сабақтарыңызда қолдануға болады!\n\nGoogle Translate қызметін локализациялау үшін қолданамыз. Егер сіз қате тапсаңыз, бізге хабарлаңыз.\n"
    },
    {
      "Lang": "km",
      "Title": "លំហាត់វេយ្យាករណ៍អង់គ្លេស | សាមញ្ញ អង់គ្លេស ⭐️ #78 Could you?",
      "Description": "រៀនវេយ្យាករណ៍អង់គ្លេស! ផ្លាស់ប្តូរពាក្យនៅក្នុងប្រយោគមួយ។\n\n\n\n0:05 1:18 2:31 \nCould you turn off the music ?\nkʊd ju tərn ɔf ðə mˈjuzɪk \nតើអ្នកអាចបិទតន្ត្រីបានទេ?\n\n0:19 1:32 2:45 \nCould you close the door ?\nkʊd ju kloʊz ðə dɔr \nតើអ្នកអាចបិទទ្វារបានទេ?\n\n0:33 1:46 2:59 \nCould you pass the milk ?\nkʊd ju pæs ðə mɪlk \nអ្នកអាចហុចទឹកដោះគោបានទេ?\n\n0:47 2:00 3:13 \nCould you improve the quality ?\nkʊd ju ˌɪmˈpruv ðə kˈwɑləti \nតើអ្នកអាចកែលម្អគុណភាពបានទេ?\n\n1:01 2:14 3:27 \nCould you close the window ?\nkʊd ju kloʊz ðə ˈwɪndoʊ \nតើអ្នកអាចបិទបង្អួចបានទេ?\n\n\n\nជូនដល់គ្រូនិងសាលា៖\nវីដេអូនេះត្រូវបានផ្សព្វផ្សាយក្រោមអាជ្ញាប័ណ្ណច្នៃប្រឌិត។\n  CC BY 3.0 https://creativecommons.org/licenses/by/3.0/ \nសូមប្រើវីដេអូនេះនៅក្នុងថ្នាក់របស់អ្នកដោយឥតគិតថ្លៃ!\n\nយើងប្រើសេវាកម្មបកប្រែហ្គូហ្គលសម្រាប់ការធ្វើមូលដ្ឋានីយកម្ម។ ប្រសិនបើអ្នករកឃើញកំហុសខ្លះសូមប្រាប់ឱ្យយើងដឹង។\n"
    },
    {
      "Lang": "kn",
      "Title": "ಇಂಗ್ಲಿಷ್ ವ್ಯಾಕರಣ ವ್ಯಾಯಾಮ | ಸರಳ ಬ್ರಿಟಿಷ್ ⭐️ #78 Could you?",
      "Description": "ಇಂಗ್ಲಿಷ್ ವ್ಯಾಕರಣ ಕಲಿಯಿರಿ! ಒಂದು ವಾಕ್ಯದಲ್ಲಿ ಪದವನ್ನು ಬದಲಾಯಿಸಿ.\n\n\n\n0:05 1:18 2:31 \nCould you turn off the music ?\nkʊd ju tərn ɔf ðə mˈjuzɪk \nನೀವು ಸಂಗೀತವನ್ನು ಆಫ್ ಮಾಡಬಹುದೇ?\n\n0:19 1:32 2:45 \nCould you close the door ?\nkʊd ju kloʊz ðə dɔr \nನೀವು ಬಾಗಿಲು ಮುಚ್ಚಬಹುದೇ?\n\n0:33 1:46 2:59 \nCould you pass the milk ?\nkʊd ju pæs ðə mɪlk \nನೀವು ಹಾಲನ್ನು ಹಾದುಹೋಗಬಹುದೇ?\n\n0:47 2:00 3:13 \nCould you improve the quality ?\nkʊd ju ˌɪmˈpruv ðə kˈwɑləti \nನೀವು ಗುಣಮಟ್ಟವನ್ನು ಸುಧಾರಿಸಬಹುದೇ?\n\n1:01 2:14 3:27 \nCould you close the window ?\nkʊd ju kloʊz ðə ˈwɪndoʊ \nನೀವು ವಿಂಡೋವನ್ನು ಮುಚ್ಚಬಹುದೇ?\n\n\n\nಶಿಕ್ಷಕರು ಮತ್ತು ಶಾಲೆಗಳಿಗೆ:\nಈ ವೀಡಿಯೊವನ್ನು ಕ್ರಿಯೇಟಿವ್ ಕಾಮನ್ಸ್ ಪರವಾನಗಿ ಅಡಿಯಲ್ಲಿ ಪ್ರಕಟಿಸಲಾಗಿದೆ.\n  CC BY 3.0 https://creativecommons.org/licenses/by/3.0/ \nನಿಮ್ಮ ತರಗತಿಗಳಲ್ಲಿ ಈ ವೀಡಿಯೊವನ್ನು ಬಳಸಲು ಹಿಂಜರಿಯಬೇಡಿ!\n\nಸ್ಥಳೀಕರಣಕ್ಕಾಗಿ ನಾವು Google ಅನುವಾದ ಸೇವೆಯನ್ನು ಬಳಸುತ್ತೇವೆ. ನೀವು ಕೆಲವು ತಪ್ಪುಗಳನ್ನು ಕಂಡುಕೊಂಡರೆ, ದಯವಿಟ್ಟು ನಮಗೆ ತಿಳಿಸಿ.\n"
    },
    {
      "Lang": "ko",
      "Title": "영어 문법 연습 | 단순한 영국인 ⭐️ #78 Could you?",
      "Description": "영어 문법 배우기! 문장에서 단어를 변경하십시오.\n\n\n\n0:05 1:18 2:31 \nCould you turn off the music ?\nkʊd ju tərn ɔf ðə mˈjuzɪk \n음악을 끌 수 있습니까?\n\n0:19 1:32 2:45 \nCould you close the door ?\nkʊd ju kloʊz ðə dɔr \n문을 닫을 수 있습니까?\n\n0:33 1:46 2:59 \nCould you pass the milk ?\nkʊd ju pæs ðə mɪlk \n우유를 전달할 수 있습니까?\n\n0:47 2:00 3:13 \nCould you improve the quality ?\nkʊd ju ˌɪmˈpruv ðə kˈwɑləti \n품질을 향상시킬 수 있습니까?\n\n1:01 2:14 3:27 \nCould you close the window ?\nkʊd ju kloʊz ðə ˈwɪndoʊ \n창문을 닫을 수 있습니까?\n\n\n\n교사와 학교 :\n이 비디오는 Creative Commons License에 따라 게시됩니다.\n  CC BY 3.0 https://creativecommons.org/licenses/by/3.0/ \n이 비디오를 수업에 자유롭게 사용하십시오!\n\n현지화를 위해 Google 번역 서비스를 사용합니다. 실수가 있으면 알려주세요.\n"
    },
    {
      "Lang": "ku",
      "Title": "Pratîkên rêzimanê Englishngilîzî | Asan Brîtanî ⭐️ #78 Could you?",
      "Description": "Gramera Englishngilîzî fêr bibin! Di hevokan de peyvek diguhezin.\n\n\n\n0:05 1:18 2:31 \nCould you turn off the music ?\nkʊd ju tərn ɔf ðə mˈjuzɪk \nHûn dikarin muzîkê jixweber bikin?\n\n0:19 1:32 2:45 \nCould you close the door ?\nkʊd ju kloʊz ðə dɔr \nHûn dikarin derî bigirin?\n\n0:33 1:46 2:59 \nCould you pass the milk ?\nkʊd ju pæs ðə mɪlk \nHûn dikarin şîrê derbas bikin?\n\n0:47 2:00 3:13 \nCould you improve the quality ?\nkʊd ju ˌɪmˈpruv ðə kˈwɑləti \nHûn dikarin qalîteya baştir bikin?\n\n1:01 2:14 3:27 \nCould you close the window ?\nkʊd ju kloʊz ðə ˈwɪndoʊ \nHûn dikarin pencereyê bigirin?\n\n\n\nJi mamoste û dibistanan re:\nEv vîdyoyê di bin lîsansa Creative Commons-ê de hatî weşandin.\n  CC BY 3.0 https://creativecommons.org/licenses/by/3.0/ \nHêsan e ku hûn vê vîdyoyê di sinifên xwe de bikar bînin!\n\nEm ji bo herêmbûnê karûbarê Google Translate kar dikin. Heke hûn hin xeletiyan bibînin, ji kerema xwe ji me re agahdar bikin.\n"
    },
    {
      "Lang": "ky",
      "Title": "Англис тилинин грамматикасы боюнча көнүгүүлөр | жөнөкөй Британдык ⭐️ #78 Could you?",
      "Description": "Үйрөнүү Англис тилинин грамматикасы! Сүйлөмдөгү Сөздү өзгөртүү.\n\n\n\n0:05 1:18 2:31 \nCould you turn off the music ?\nkʊd ju tərn ɔf ðə mˈjuzɪk \nСен да музыканы өчүрүп мүмкүнбү?\n\n0:19 1:32 2:45 \nCould you close the door ?\nkʊd ju kloʊz ðə dɔr \nсен эшикти жаап алат беле?\n\n0:33 1:46 2:59 \nCould you pass the milk ?\nkʊd ju pæs ðə mɪlk \nЭгер сүт өтүп калышы мүмкүнбү?\n\n0:47 2:00 3:13 \nCould you improve the quality ?\nkʊd ju ˌɪmˈpruv ðə kˈwɑləti \nСиз сапатын дагы кантип жакшыртсам болот?\n\n1:01 2:14 3:27 \nCould you close the window ?\nkʊd ju kloʊz ðə ˈwɪndoʊ \nСиз терезени жабуу мүмкүн?\n\n\n\nмугалимдер жана мектептер үчүн:\nБул көргөзмө Creative Commons лиссиэнсийэ усулуобуйатынан жарыяланат.\n  CC BY 3.0 https://creativecommons.org/licenses/by/3.0/ \nСиздин класстары колдонсо болот!\n\nБиз Google локалдаштыруу үчүн Котормо кызматын пайдаланышат. Эгер кээ бир ката болсо, бизге айтып койуу.\n"
    },
    {
      "Lang": "lb",
      "Title": "Englesch Grammatikübungen | Einfach Britesch ⭐️ #78 Could you?",
      "Description": "Léiert Englesch Grammatik! Ännert e Wuert an engem Saz.\n\n\n\n0:05 1:18 2:31 \nCould you turn off the music ?\nkʊd ju tərn ɔf ðə mˈjuzɪk \nKanns de d'Musek ausschalten?\n\n0:19 1:32 2:45 \nCould you close the door ?\nkʊd ju kloʊz ðə dɔr \nKënnt Dir d'Dier zoumaachen?\n\n0:33 1:46 2:59 \nCould you pass the milk ?\nkʊd ju pæs ðə mɪlk \nKënnt Dir d'Mëllech passéieren?\n\n0:47 2:00 3:13 \nCould you improve the quality ?\nkʊd ju ˌɪmˈpruv ðə kˈwɑləti \nKënnt Dir d'Qualitéit verbesseren?\n\n1:01 2:14 3:27 \nCould you close the window ?\nkʊd ju kloʊz ðə ˈwɪndoʊ \nKënnt Dir d'Fenster zoumaachen?\n\n\n\nUn de Schoulmeeschteren an d'Schoulen:\nDëse Video ass ënner der Creative Commons Lizenz verëffentlecht.\n  CC BY 3.0 https://creativecommons.org/licenses/by/3.0/ \nFillt gratis dësen Video zu Ären Klassen ze benotzen!\n\nMir benotzen den Google Translate Service fir d'Lokalisatioun. Wann Dir e puer Feeler fannt, da sot eis w.e.g.\n"
    },
    {
      "Lang": "lo",
      "Title": "ບົດເຝິກຫັດໄວຍາກອນພາສາອັງກິດ | ງ່າຍດາຍ ອັງກິດ ⭐️ #78 Could you?",
      "Description": "ຮຽນຮູ້ຫລັກໄວຍາກອນພາສາອັງກິດ! ປ່ຽນ ຄຳ ສັບໃນປະໂຫຍກ.\n\n\n\n0:05 1:18 2:31 \nCould you turn off the music ?\nkʊd ju tərn ɔf ðə mˈjuzɪk \nທ່ານສາມາດປິດດົນຕີໄດ້ບໍ?\n\n0:19 1:32 2:45 \nCould you close the door ?\nkʊd ju kloʊz ðə dɔr \nເຈົ້າສາມາດປິດປະຕູໄດ້ບໍ?\n\n0:33 1:46 2:59 \nCould you pass the milk ?\nkʊd ju pæs ðə mɪlk \nທ່ານສາມາດຜ່ານນົມໄດ້ບໍ່?\n\n0:47 2:00 3:13 \nCould you improve the quality ?\nkʊd ju ˌɪmˈpruv ðə kˈwɑləti \nທ່ານສາມາດປັບປຸງຄຸນນະພາບໄດ້ບໍ?\n\n1:01 2:14 3:27 \nCould you close the window ?\nkʊd ju kloʊz ðə ˈwɪndoʊ \nເຈົ້າສາມາດປິດ ໜ້າ ຕ່າງໄດ້ບໍ?\n\n\n\nເຖິງຄູອາຈານແລະໂຮງຮຽນ:\nວິດີໂອນີ້ລົງພາຍໃຕ້ໃບອະນຸຍາດສ້າງສັນ.\n  CC BY 3.0 https://creativecommons.org/licenses/by/3.0/ \nຮູ້ສຶກວ່າບໍ່ເສຍຄ່າທີ່ຈະໃຊ້ວິດີໂອນີ້ໃນຫ້ອງຮຽນຂອງທ່ານ!\n\nພວກເຮົາໃຊ້ບໍລິການ Google Translate ສຳ ລັບການແປພາສາທ້ອງຖິ່ນ. ຖ້າທ່ານພົບຂໍ້ຜິດພາດບາງຢ່າງ, ກະລຸນາແຈ້ງພວກເຮົາ.\n"
    },
    {
      "Lang": "lt",
      "Title": "Anglų kalbos gramatikos pratimai | Paprasta Britai ⭐️ #78 Could you?",
      "Description": "Išmokite anglų kalbos gramatiką! Pakeiskite žodį sakinyje.\n\n\n\n0:05 1:18 2:31 \nCould you turn off the music ?\nkʊd ju tərn ɔf ðə mˈjuzɪk \nAr galėtum išjungti muziką?\n\n0:19 1:32 2:45 \nCould you close the door ?\nkʊd ju kloʊz ðə dɔr \nAr galėtum uždaryti duris?\n\n0:33 1:46 2:59 \nCould you pass the milk ?\nkʊd ju pæs ðə mɪlk \nAr galėtum perduoti pieną?\n\n0:47 2:00 3:13 \nCould you improve the quality ?\nkʊd ju ˌɪmˈpruv ðə kˈwɑləti \nAr galėtumėte pagerinti kokybę?\n\n1:01 2:14 3:27 \nCould you close the window ?\nkʊd ju kloʊz ðə ˈwɪndoʊ \nAr galėtum uždaryti langą?\n\n\n\nMokytojams ir mokykloms:\nŠis vaizdo įrašas paskelbtas naudojant „Creative Commons“ licenciją.\n  CC BY 3.0 https://creativecommons.org/licenses/by/3.0/ \nNesivaržykite naudotis šiuo vaizdo įrašu savo klasėse!\n\nLokalizavimui naudojame „Google Translate“ paslaugą. Jei radote klaidų, praneškite mums.\n"
    },
    {
      "Lang": "lv",
      "Title": "Angļu valodas gramatikas vingrinājumi | Vienkārši Britu ⭐️ #78 Could you?",
      "Description": "Mācieties angļu valodas gramatiku! Mainiet vārdu teikumā.\n\n\n\n0:05 1:18 2:31 \nCould you turn off the music ?\nkʊd ju tərn ɔf ðə mˈjuzɪk \nVai jūs varētu izslēgt mūziku?\n\n0:19 1:32 2:45 \nCould you close the door ?\nkʊd ju kloʊz ðə dɔr \nVai jūs varētu aizvērt durvis?\n\n0:33 1:46 2:59 \nCould you pass the milk ?\nkʊd ju pæs ðə mɪlk \nVai jūs varētu nodot pienu?\n\n0:47 2:00 3:13 \nCould you improve the quality ?\nkʊd ju ˌɪmˈpruv ðə kˈwɑləti \nVai jūs varētu uzlabot kvalitāti?\n\n1:01 2:14 3:27 \nCould you close the window ?\nkʊd ju kloʊz ðə ˈwɪndoʊ \nVai jūs varētu aizvērt logu?\n\n\n\nSkolotājiem un skolām:\nŠis video ir publicēts saskaņā ar Creative Commons licenci.\n  CC BY 3.0 https://creativecommons.org/licenses/by/3.0/ \nJūtieties brīvi izmantot šo video savās nodarbībās!\n\nLokalizācijai mēs izmantojam Google Translate pakalpojumu. Ja atrodat dažas kļūdas, lūdzu, paziņojiet mums.\n"
    },
    {
      "Lang": "mg",
      "Title": "Fanatanjahantena anglisy | Simple British ⭐️ #78 Could you?",
      "Description": "Ianaro ny fitsipi-pitenenana anglisy! Manova teny amin'ny fehezanteny iray.\n\n\n\n0:05 1:18 2:31 \nCould you turn off the music ?\nkʊd ju tərn ɔf ðə mˈjuzɪk \nAzonao atao ve ny mamono ny mozika?\n\n0:19 1:32 2:45 \nCould you close the door ?\nkʊd ju kloʊz ðə dɔr \nAzonao atao ve ny manakatona ny varavarana?\n\n0:33 1:46 2:59 \nCould you pass the milk ?\nkʊd ju pæs ðə mɪlk \nAfaka mandefa ny ronono ve ianao?\n\n0:47 2:00 3:13 \nCould you improve the quality ?\nkʊd ju ˌɪmˈpruv ðə kˈwɑləti \nAzonao atao ve ny manatsara ny kalitao?\n\n1:01 2:14 3:27 \nCould you close the window ?\nkʊd ju kloʊz ðə ˈwɪndoʊ \nAzonao atao ve ny manampina ny varavarankely?\n\n\n\nHo an'ireo mpampianatra sy sekoly:\nIty horonantsary ity dia navoaka eo ambanin'ny lisansa Creative Commons.\n  CC BY 3.0 https://creativecommons.org/licenses/by/3.0/ \nAza misalasala mampiasa an'io horonantsary io amin'ny kilasinao!\n\nMampiasa ny serivisy Google Translate izahay amin'ny fananganana toerana. Raha mahita hadisoana vitsivitsy ianao dia mba ampahafantaro anay.\n"
    },
    {
      "Lang": "mi",
      "Title": "Mahi whakangungu Ingarihi | He ngawari Pakeha ⭐️ #78 Could you?",
      "Description": "Akohia te paanui Ingarihi! Hurihia he kupu ki tetahi rerenga rerenga.\n\n\n\n0:05 1:18 2:31 \nCould you turn off the music ?\nkʊd ju tərn ɔf ðə mˈjuzɪk \nKa taea e koe te whakaweto i te puoro?\n\n0:19 1:32 2:45 \nCould you close the door ?\nkʊd ju kloʊz ðə dɔr \nKa taea e koe te kati i te tatau?\n\n0:33 1:46 2:59 \nCould you pass the milk ?\nkʊd ju pæs ðə mɪlk \nKa taea e koe te tuku i te waiu?\n\n0:47 2:00 3:13 \nCould you improve the quality ?\nkʊd ju ˌɪmˈpruv ðə kˈwɑləti \nKa taea e koe te whakapai ake i te kounga?\n\n1:01 2:14 3:27 \nCould you close the window ?\nkʊd ju kloʊz ðə ˈwɪndoʊ \nKa taea te kati i te matapihi?\n\n\n\nKi nga kaiako me nga kura:\nKei te whakaputaina tenei ataata i raro i te Raihana Hoahoatanga.\n  CC BY 3.0 https://creativecommons.org/licenses/by/3.0/ \nKia kore e pai ki te whakamahi i tenei ataata i roto i o akomanga!\n\nKa whakamahia e matou he whakamaoritanga a Google mo te whakangao. Mena ka kitea e koe etahi he, tena koa kia mohio.\n"
    },
    {
      "Lang": "mk",
      "Title": "Вежби за граматика на англиски јазик | Едноставно Британски ⭐️ #78 Could you?",
      "Description": "Дознајте англиска граматика! Променете збор во реченица.\n\n\n\n0:05 1:18 2:31 \nCould you turn off the music ?\nkʊd ju tərn ɔf ðə mˈjuzɪk \nМожете ли да ја исклучите музиката?\n\n0:19 1:32 2:45 \nCould you close the door ?\nkʊd ju kloʊz ðə dɔr \nМожете ли да ја затворите вратата?\n\n0:33 1:46 2:59 \nCould you pass the milk ?\nkʊd ju pæs ðə mɪlk \nМоже ли да го поминете млекото?\n\n0:47 2:00 3:13 \nCould you improve the quality ?\nkʊd ju ˌɪmˈpruv ðə kˈwɑləti \nМожете ли да го подобрите квалитетот?\n\n1:01 2:14 3:27 \nCould you close the window ?\nkʊd ju kloʊz ðə ˈwɪndoʊ \nМожете ли да го затворите прозорецот?\n\n\n\nДо наставниците и училиштата:\nОва видео е објавено под лиценца Криејтив комонс.\n  CC BY 3.0 https://creativecommons.org/licenses/by/3.0/ \nСлободно можете да го користите ова видео во вашите часови!\n\nНие користиме услуга Google Translate за локализација. Ако најдете некои грешки, ве молиме кажете ни.\n"
    },
    {
      "Lang": "ml",
      "Title": "ഇംഗ്ലീഷ് വ്യാകരണ വ്യായാമങ്ങൾ | ലളിതം ബ്രിട്ടീഷ് ⭐️ #78 Could you?",
      "Description": "ഇംഗ്ലീഷ് വ്യാകരണം പഠിക്കൂ! ഒരു വാക്യത്തിൽ ഒരു വാക്ക് മാറ്റുക.\n\n\n\n0:05 1:18 2:31 \nCould you turn off the music ?\nkʊd ju tərn ɔf ðə mˈjuzɪk \nനിങ്ങൾക്ക് സംഗീതം ഓഫാക്കാമോ?\n\n0:19 1:32 2:45 \nCould you close the door ?\nkʊd ju kloʊz ðə dɔr \nനിങ്ങൾക്ക് വാതിൽ അടയ്ക്കാമോ?\n\n0:33 1:46 2:59 \nCould you pass the milk ?\nkʊd ju pæs ðə mɪlk \nനിങ്ങൾക്ക് പാൽ കടക്കാൻ കഴിയുമോ?\n\n0:47 2:00 3:13 \nCould you improve the quality ?\nkʊd ju ˌɪmˈpruv ðə kˈwɑləti \nനിങ്ങൾക്ക് ഗുണനിലവാരം മെച്ചപ്പെടുത്താൻ കഴിയുമോ?\n\n1:01 2:14 3:27 \nCould you close the window ?\nkʊd ju kloʊz ðə ˈwɪndoʊ \nനിങ്ങൾക്ക് വിൻഡോ അടയ്ക്കാമോ?\n\n\n\nഅധ്യാപകർക്കും സ്കൂളുകൾക്കും:\nക്രിയേറ്റീവ് കോമൺസ് ലൈസൻസിന് കീഴിൽ ഈ വീഡിയോ പ്രസിദ്ധീകരിച്ചു.\n  CC BY 3.0 https://creativecommons.org/licenses/by/3.0/ \nനിങ്ങളുടെ ക്ലാസുകളിൽ ഈ വീഡിയോ ഉപയോഗിക്കാൻ മടിക്കേണ്ടതില്ല!\n\nപ്രാദേശികവൽക്കരണത്തിനായി ഞങ്ങൾ Google വിവർത്തന സേവനം ഉപയോഗിക്കുന്നു. നിങ്ങൾ ചില തെറ്റുകൾ കണ്ടെത്തുകയാണെങ്കിൽ, ഞങ്ങളെ അറിയിക്കുക.\n"
    },
    {
      "Lang": "mn",
      "Title": "Англи хэлний дүрмийн дасгал | Энгийн Британийн ⭐️ #78 Could you?",
      "Description": "Англи хэлний дүрмийн мэдлэгийг сур! Үгийг өгүүлбэр болгон өөрчил.\n\n\n\n0:05 1:18 2:31 \nCould you turn off the music ?\nkʊd ju tərn ɔf ðə mˈjuzɪk \nХөгжимээ унтраасан уу?\n\n0:19 1:32 2:45 \nCould you close the door ?\nkʊd ju kloʊz ðə dɔr \nТа хаалгаа хааж чадах уу?\n\n0:33 1:46 2:59 \nCould you pass the milk ?\nkʊd ju pæs ðə mɪlk \nТа сүүгээ дамжуулж болох уу?\n\n0:47 2:00 3:13 \nCould you improve the quality ?\nkʊd ju ˌɪmˈpruv ðə kˈwɑləti \nТа чанарыг нь сайжруулж чадах уу?\n\n1:01 2:14 3:27 \nCould you close the window ?\nkʊd ju kloʊz ðə ˈwɪndoʊ \nТа цонхоо хаах уу?\n\n\n\nБагш, сургуулиудад:\nЭнэ видео нь Creative Commons License лиценз дээр нийтлэгдсэн.\n  CC BY 3.0 https://creativecommons.org/licenses/by/3.0/ \nЭнэ видеог өөрийн ангиудад ашиглах боломжтой шүү!\n\nБид Google Translate үйлчилгээг нутагшуулах зорилгоор ашигладаг. Хэрэв та алдаа олвол бидэнд мэдэгдээрэй.\n"
    },
    {
      "Lang": "mr",
      "Title": "इंग्रजी व्याकरण व्यायाम | सोपे ब्रिटिश ⭐️ #78 Could you?",
      "Description": "इंग्रजी व्याकरण जाणून घ्या! एका वाक्यात शब्द बदला.\n\n\n\n0:05 1:18 2:31 \nCould you turn off the music ?\nkʊd ju tərn ɔf ðə mˈjuzɪk \nआपण संगीत बंद करू शकता?\n\n0:19 1:32 2:45 \nCould you close the door ?\nkʊd ju kloʊz ðə dɔr \nआपण दार बंद करू शकता?\n\n0:33 1:46 2:59 \nCould you pass the milk ?\nkʊd ju pæs ðə mɪlk \nआपण दूध पास करू शकता?\n\n0:47 2:00 3:13 \nCould you improve the quality ?\nkʊd ju ˌɪmˈpruv ðə kˈwɑləti \nआपण गुणवत्ता सुधारू शकता?\n\n1:01 2:14 3:27 \nCould you close the window ?\nkʊd ju kloʊz ðə ˈwɪndoʊ \nआपण विंडो बंद करू शकता?\n\n\n\nशिक्षक आणि शाळा यांना:\nहा व्हिडिओ क्रिएटिव्ह कॉमन्स परवान्या अंतर्गत प्रकाशित झाला आहे.\n  CC BY 3.0 https://creativecommons.org/licenses/by/3.0/ \nआपल्या वर्गांमध्ये हा व्हिडिओ वापरण्यास मोकळ्या मनाने!\n\nआम्ही स्थानिकीकरणासाठी Google भाषांतर सेवा वापरतो. आपल्याला काही चुका आढळल्यास कृपया आम्हाला कळवा.\n"
    },
    {
      "Lang": "ms",
      "Title": "Latihan tatabahasa Bahasa Inggeris | Mudah Inggeris ⭐️ #78 Could you?",
      "Description": "Belajar bahasa Inggeris! Tukar perkataan dalam ayat.\n\n\n\n0:05 1:18 2:31 \nCould you turn off the music ?\nkʊd ju tərn ɔf ðə mˈjuzɪk \nBolehkah anda mematikan muzik?\n\n0:19 1:32 2:45 \nCould you close the door ?\nkʊd ju kloʊz ðə dɔr \nBolehkah anda menutup pintu?\n\n0:33 1:46 2:59 \nCould you pass the milk ?\nkʊd ju pæs ðə mɪlk \nBolehkah anda lulus susu?\n\n0:47 2:00 3:13 \nCould you improve the quality ?\nkʊd ju ˌɪmˈpruv ðə kˈwɑləti \nBolehkah anda meningkatkan kualiti?\n\n1:01 2:14 3:27 \nCould you close the window ?\nkʊd ju kloʊz ðə ˈwɪndoʊ \nBolehkah anda menutup tetingkap?\n\n\n\nKepada guru dan sekolah:\nVideo ini diterbitkan di bawah Lesen Creative Commons.\n  CC BY 3.0 https://creativecommons.org/licenses/by/3.0/ \nJangan ragu untuk menggunakan video ini dalam kelas anda!\n\nKami menggunakan perkhidmatan Terjemahan Google untuk penyetempatan. Jika anda mendapati beberapa kesilapan, sila beritahu kami.\n"
    },
    {
      "Lang": "mt",
      "Title": "Eżerċizzji ta 'grammatika Ingliża | Sempliċi Ingliżi ⭐️ #78 Could you?",
      "Description": "Tgħallem il-grammatika Ingliża! Ibdel kelma f’sentenza.\n\n\n\n0:05 1:18 2:31 \nCould you turn off the music ?\nkʊd ju tərn ɔf ðə mˈjuzɪk \nTista 'itfi l-mużika?\n\n0:19 1:32 2:45 \nCould you close the door ?\nkʊd ju kloʊz ðə dɔr \nTista 'tagħlaq il-bieb?\n\n0:33 1:46 2:59 \nCould you pass the milk ?\nkʊd ju pæs ðə mɪlk \nTista 'tgħaddi l-ħalib?\n\n0:47 2:00 3:13 \nCould you improve the quality ?\nkʊd ju ˌɪmˈpruv ðə kˈwɑləti \nTista 'ttejjeb il-kwalità?\n\n1:01 2:14 3:27 \nCould you close the window ?\nkʊd ju kloʊz ðə ˈwɪndoʊ \nTista 'tagħlaq it-tieqa?\n\n\n\nGħalliema u skejjel:\nDan il-video huwa ppublikat taħt il-Liċenzja Creative Commons.\n  CC BY 3.0 https://creativecommons.org/licenses/by/3.0/ \nĦossok liberu li tuża dan il-video fil-klassijiet tiegħek!\n\nAħna nużaw servizz Google Translate għall-lokalizzazzjoni. Jekk issib xi żbalji, jekk jogħġbok għarrafna.\n"
    },
    {
      "Lang": "my",
      "Title": "အင်္ဂလိပ်သဒ္ဒါလေ့ကျင့်ခန်း | ရိုးရှင်းသော ဗြိတိသျှ ⭐️ #78 Could you?",
      "Description": "အင်္ဂလိပ်သဒ္ဒါကိုလေ့လာပါ။ ဝါကျတွင်စကားလုံးတစ်လုံးပြောင်းပါ။\n\n\n\n0:05 1:18 2:31 \nCould you turn off the music ?\nkʊd ju tərn ɔf ðə mˈjuzɪk \nဂီတကိုပိတ်ထားမလား?\n\n0:19 1:32 2:45 \nCould you close the door ?\nkʊd ju kloʊz ðə dɔr \nတံခါးကိုပိတ်လို့ရမလား\n\n0:33 1:46 2:59 \nCould you pass the milk ?\nkʊd ju pæs ðə mɪlk \nနို့ကိုဖြတ်သန်းလို့ရမလား\n\n0:47 2:00 3:13 \nCould you improve the quality ?\nkʊd ju ˌɪmˈpruv ðə kˈwɑləti \nအရည်အသွေးတိုးတက်အောင်လုပ်နိုင်မလား?\n\n1:01 2:14 3:27 \nCould you close the window ?\nkʊd ju kloʊz ðə ˈwɪndoʊ \nပြတင်းပေါက်ကိုပိတ်လို့ရမလား\n\n\n\nဆရာများနှင့်ကျောင်းများသို့\nဒီဗီဒီယိုကို Creative Commons လိုင်စင်အောက်မှာထုတ်ဝေထားတယ်။\n  CC BY 3.0 https://creativecommons.org/licenses/by/3.0/ \nဤဗီဒီယိုကိုသင်၏အတန်းများ၌အခမဲ့အသုံးပြုပါ။\n\nကျွန်ုပ်တို့သည်ဒေသခံဘာသာပြန်အတွက် Google Translate ဝန်ဆောင်မှုကိုအသုံးပြုသည်။ သင်အမှားအယွင်းများအချို့ရှိပါကကျွန်ုပ်တို့အားအသိပေးပါ။\n"
    },
    {
      "Lang": "ne",
      "Title": "अंग्रेजी व्याकरण व्यायाम | सरल बेलायती ⭐️ #78 Could you?",
      "Description": "अंग्रेजी व्याकरण सिक्नुहोस्! एक वाक्य मा एक शब्द बदल्नुहोस्।\n\n\n\n0:05 1:18 2:31 \nCould you turn off the music ?\nkʊd ju tərn ɔf ðə mˈjuzɪk \nके तपाईं संगीत बन्द गर्न सक्नुहुन्छ?\n\n0:19 1:32 2:45 \nCould you close the door ?\nkʊd ju kloʊz ðə dɔr \nके तपाईं ढोका बन्द गर्न सक्नुहुन्छ?\n\n0:33 1:46 2:59 \nCould you pass the milk ?\nkʊd ju pæs ðə mɪlk \nके तिमी दुध पार गर्न सक्छौ?\n\n0:47 2:00 3:13 \nCould you improve the quality ?\nkʊd ju ˌɪmˈpruv ðə kˈwɑləti \nके तपाई गुणस्तर सुधार गर्न सक्नुहुन्छ?\n\n1:01 2:14 3:27 \nCould you close the window ?\nkʊd ju kloʊz ðə ˈwɪndoʊ \nके तपाईं विन्डो बन्द गर्न सक्नुहुन्छ?\n\n\n\nशिक्षक र विद्यालयहरुलाई:\nयो भिडियो क्रिएटिभ कमन्स लाइसेन्स अन्तर्गत प्रकाशित गरिएको छ।\n  CC BY 3.0 https://creativecommons.org/licenses/by/3.0/ \nतपाईंको कक्षामा यो भिडियो प्रयोग गर्न स्वतन्त्र महसुस गर्नुहोस्!\n\nहामी स्थानीयकरणको लागि गुगल अनुवाद सेवा प्रयोग गर्दछौं। यदि तपाईंले केहि गल्तीहरू फेला पार्नुभयो भने, कृपया हामीलाई खबर गर्नुहोस्।\n"
    },
    {
      "Lang": "nl",
      "Title": "Engelse grammatica-oefeningen | Gemakkelijk Brits ⭐️ #78 Could you?",
      "Description": "Leer Engelse grammatica! Verander een woord in een zin.\n\n\n\n0:05 1:18 2:31 \nCould you turn off the music ?\nkʊd ju tərn ɔf ðə mˈjuzɪk \nKun je de muziek uitzetten?\n\n0:19 1:32 2:45 \nCould you close the door ?\nkʊd ju kloʊz ðə dɔr \nZou je de deur kunnen sluiten?\n\n0:33 1:46 2:59 \nCould you pass the milk ?\nkʊd ju pæs ðə mɪlk \nZou je de melk kunnen doorgeven?\n\n0:47 2:00 3:13 \nCould you improve the quality ?\nkʊd ju ˌɪmˈpruv ðə kˈwɑləti \nKunt u de kwaliteit verbeteren?\n\n1:01 2:14 3:27 \nCould you close the window ?\nkʊd ju kloʊz ðə ˈwɪndoʊ \nZou je het raam kunnen sluiten?\n\n\n\nAan leraren en scholen:\nDeze video is gepubliceerd onder Creative Commons License.\n  CC BY 3.0 https://creativecommons.org/licenses/by/3.0/ \nVoel je vrij om deze video in je lessen te gebruiken!\n\nWe gebruiken de Google Translate-service voor lokalisatie. Laat het ons weten als u fouten ontdekt.\n"
    },
    {
      "Lang": "no",
      "Title": "Engelsk grammatikkøvelser | Enkel British ⭐️ #78 Could you?",
      "Description": "Lær engelsk grammatikk! Endre et ord i en setning.\n\n\n\n0:05 1:18 2:31 \nCould you turn off the music ?\nkʊd ju tərn ɔf ðə mˈjuzɪk \nKunne du slå av musikken?\n\n0:19 1:32 2:45 \nCould you close the door ?\nkʊd ju kloʊz ðə dɔr \nKunne du lukke døra?\n\n0:33 1:46 2:59 \nCould you pass the milk ?\nkʊd ju pæs ðə mɪlk \nKunne du passere melken?\n\n0:47 2:00 3:13 \nCould you improve the quality ?\nkʊd ju ˌɪmˈpruv ðə kˈwɑləti \nKan du forbedre kvaliteten?\n\n1:01 2:14 3:27 \nCould you close the window ?\nkʊd ju kloʊz ðə ˈwɪndoʊ \nKunne du lukke vinduet?\n\n\n\nTil lærere og skoler:\nDenne videoen er publisert under Creative Commons License.\n  CC BY 3.0 https://creativecommons.org/licenses/by/3.0/ \nBruk gjerne denne videoen i klassene dine!\n\nVi bruker Google Translate-tjenesten for lokalisering. Gi beskjed hvis du finner noen feil.\n"
    },
    {
      "Lang": "pa",
      "Title": "ਅੰਗਰੇਜ਼ੀ ਵਿਆਕਰਣ ਅਭਿਆਸ | ਆਸਾਨ ਬ੍ਰਿਟਿਸ਼ ⭐️ #78 Could you?",
      "Description": "ਅੰਗਰੇਜ਼ੀ ਵਿਆਕਰਣ ਸਿੱਖੋ! ਇੱਕ ਵਾਕ ਵਿੱਚ ਇੱਕ ਸ਼ਬਦ ਬਦਲੋ.\n\n\n\n0:05 1:18 2:31 \nCould you turn off the music ?\nkʊd ju tərn ɔf ðə mˈjuzɪk \nਕੀ ਤੁਸੀਂ ਸੰਗੀਤ ਬੰਦ ਕਰ ਸਕਦੇ ਹੋ?\n\n0:19 1:32 2:45 \nCould you close the door ?\nkʊd ju kloʊz ðə dɔr \nਕੀ ਤੁਸੀਂ ਦਰਵਾਜਾ ਬੰਦ ਕਰ ਸਕਦੇ ਹੋ?\n\n0:33 1:46 2:59 \nCould you pass the milk ?\nkʊd ju pæs ðə mɪlk \nਕੀ ਤੁਸੀਂ ਦੁੱਧ ਲੰਘ ਸਕਦੇ ਹੋ?\n\n0:47 2:00 3:13 \nCould you improve the quality ?\nkʊd ju ˌɪmˈpruv ðə kˈwɑləti \nਕੀ ਤੁਸੀਂ ਗੁਣਵੱਤਾ ਵਿੱਚ ਸੁਧਾਰ ਕਰ ਸਕਦੇ ਹੋ?\n\n1:01 2:14 3:27 \nCould you close the window ?\nkʊd ju kloʊz ðə ˈwɪndoʊ \nਕੀ ਤੁਸੀਂ ਵਿੰਡੋ ਬੰਦ ਕਰ ਸਕਦੇ ਹੋ?\n\n\n\nਅਧਿਆਪਕਾਂ ਅਤੇ ਸਕੂਲਾਂ ਨੂੰ:\nਇਹ ਵੀਡੀਓ ਕਰੀਏਟਿਵ ਕਾਮਨਜ਼ ਲਾਇਸੈਂਸ ਅਧੀਨ ਪ੍ਰਕਾਸ਼ਤ ਕੀਤਾ ਗਿਆ ਹੈ.\n  CC BY 3.0 https://creativecommons.org/licenses/by/3.0/ \nਇਸ ਕਲਾਸ ਨੂੰ ਆਪਣੀਆਂ ਕਲਾਸਾਂ ਵਿਚ ਵਰਤਣ ਲਈ ਮੁਫ਼ਤ ਮਹਿਸੂਸ ਕਰੋ!\n\nਅਸੀਂ ਸਥਾਨਕਕਰਨ ਲਈ ਗੂਗਲ ਅਨੁਵਾਦ ਸੇਵਾ ਦੀ ਵਰਤੋਂ ਕਰਦੇ ਹਾਂ. ਜੇ ਤੁਹਾਨੂੰ ਕੁਝ ਗਲਤੀਆਂ ਮਿਲਦੀਆਂ ਹਨ, ਤਾਂ ਕਿਰਪਾ ਕਰਕੇ ਸਾਨੂੰ ਦੱਸੋ.\n"
    },
    {
      "Lang": "pl",
      "Title": "Gramatyka angielska | Prosty brytyjski ⭐️ #78 Could you?",
      "Description": "Ucz się gramatyki angielskiej! Zmień słowo w zdaniu.\n\n\n\n0:05 1:18 2:31 \nCould you turn off the music ?\nkʊd ju tərn ɔf ðə mˈjuzɪk \nCzy możesz wyłączyć muzykę?\n\n0:19 1:32 2:45 \nCould you close the door ?\nkʊd ju kloʊz ðə dɔr \nCzy mógłbyś zamknąć drzwi?\n\n0:33 1:46 2:59 \nCould you pass the milk ?\nkʊd ju pæs ðə mɪlk \nCzy możesz podać mleko?\n\n0:47 2:00 3:13 \nCould you improve the quality ?\nkʊd ju ˌɪmˈpruv ðə kˈwɑləti \nCzy możesz poprawić jakość?\n\n1:01 2:14 3:27 \nCould you close the window ?\nkʊd ju kloʊz ðə ˈwɪndoʊ \nCzy możesz zamknąć okno?\n\n\n\nDo nauczycieli i szkół:\nTen film jest opublikowany na licencji Creative Commons.\n  CC BY 3.0 https://creativecommons.org/licenses/by/3.0/ \nZachęcamy do korzystania z tego filmu na zajęciach!\n\nDo lokalizacji używamy usługi Tłumacz Google. Jeśli znajdziesz jakieś błędy, daj nam znać.\n"
    },
    {
      "Lang": "ps",
      "Title": "انګلیسي ګرامر تمرینونه | ساده برتانوي ⭐️ #78 Could you?",
      "Description": "انګلیسي ګرامر زده کړئ! یوه جمله په یوه جمله بدله کړئ.\n\n\n\n0:05 1:18 2:31 \nCould you turn off the music ?\nkʊd ju tərn ɔf ðə mˈjuzɪk \nایا تاسو میوزیک بندولی شئ؟\n\n0:19 1:32 2:45 \nCould you close the door ?\nkʊd ju kloʊz ðə dɔr \nکولی شی دروازه وتړی؟\n\n0:33 1:46 2:59 \nCould you pass the milk ?\nkʊd ju pæs ðə mɪlk \nکولی شی شیدی تیر کړی؟\n\n0:47 2:00 3:13 \nCould you improve the quality ?\nkʊd ju ˌɪmˈpruv ðə kˈwɑləti \nایا تاسو کیفیت ښه کولی شئ؟\n\n1:01 2:14 3:27 \nCould you close the window ?\nkʊd ju kloʊz ðə ˈwɪndoʊ \nایا تاسو کړکۍ بندولی شئ؟\n\n\n\nښوونکو او ښوونځیو ته:\nدا ویډیو د کریټیو کامنز لایسنس لاندې خپره شوې ده.\n  CC BY 3.0 https://creativecommons.org/licenses/by/3.0/ \nپه خپلو ټولګیو کې د دې ویډیو کارولو لپاره وړیا احساس وکړئ!\n\nموږ د ځایی کولو لپاره د ګوګل ژباړن خدمت کاروو. که تاسو ځینې غلطۍ ومومئ ، مهرباني وکړئ موږ ته خبر راکړئ.\n"
    },
    {
      "Lang": "pt",
      "Title": "Exercícios de gramática inglesa | Simples britânico ⭐️ #78 Could you?",
      "Description": "Aprenda gramática inglesa! Mude uma palavra em uma frase.\n\n\n\n0:05 1:18 2:31 \nCould you turn off the music ?\nkʊd ju tərn ɔf ðə mˈjuzɪk \nVocê poderia desligar a música?\n\n0:19 1:32 2:45 \nCould you close the door ?\nkʊd ju kloʊz ðə dɔr \nVocê poderia fechar a porta?\n\n0:33 1:46 2:59 \nCould you pass the milk ?\nkʊd ju pæs ðə mɪlk \nVocê poderia passar o leite?\n\n0:47 2:00 3:13 \nCould you improve the quality ?\nkʊd ju ˌɪmˈpruv ðə kˈwɑləti \nVocê poderia melhorar a qualidade?\n\n1:01 2:14 3:27 \nCould you close the window ?\nkʊd ju kloʊz ðə ˈwɪndoʊ \nVocê poderia fechar a janela?\n\n\n\nPara professores e escolas:\nEste vídeo é publicado sob licença Creative Commons.\n  CC BY 3.0 https://creativecommons.org/licenses/by/3.0/ \nSinta-se livre para usar este vídeo em suas aulas!\n\nUsamos o serviço Google Translate para localização. Se você encontrar algum erro, informe-nos.\n"
    },
    {
      "Lang": "ro",
      "Title": "Exerciții de gramatică engleză | Simplu britanic ⭐️ #78 Could you?",
      "Description": "Învață gramatica engleză! Schimbă un cuvânt într-o propoziție.\n\n\n\n0:05 1:18 2:31 \nCould you turn off the music ?\nkʊd ju tərn ɔf ðə mˈjuzɪk \nAți putea opri muzica?\n\n0:19 1:32 2:45 \nCould you close the door ?\nkʊd ju kloʊz ðə dɔr \nAți putea închide ușa?\n\n0:33 1:46 2:59 \nCould you pass the milk ?\nkʊd ju pæs ðə mɪlk \nPuteți trece laptele?\n\n0:47 2:00 3:13 \nCould you improve the quality ?\nkʊd ju ˌɪmˈpruv ðə kˈwɑləti \nAți putea îmbunătăți calitatea?\n\n1:01 2:14 3:27 \nCould you close the window ?\nkʊd ju kloʊz ðə ˈwɪndoʊ \nAți putea închide fereastra?\n\n\n\nPentru profesori și școli:\nAcest videoclip este publicat sub licență Creative Commons.\n  CC BY 3.0 https://creativecommons.org/licenses/by/3.0/ \nSimte-te liber să folosești acest videoclip în orele tale!\n\nFolosim serviciul Google Translate pentru localizare. Dacă găsiți unele greșeli, vă rugăm să ne informați.\n"
    },
    {
      "Lang": "ru",
      "Title": "Упражнения по английской грамматике | просто Британская ⭐️ #78 Could you?",
      "Description": "Изучай английскую грамматику! Изменить слово в предложении.\n\n\n\n0:05 1:18 2:31 \nCould you turn off the music ?\nkʊd ju tərn ɔf ðə mˈjuzɪk \nНе могли бы вы выключить музыку?\n\n0:19 1:32 2:45 \nCould you close the door ?\nkʊd ju kloʊz ðə dɔr \nНе могли бы вы закрыть дверь?\n\n0:33 1:46 2:59 \nCould you pass the milk ?\nkʊd ju pæs ðə mɪlk \nНе могли бы вы передать молоко?\n\n0:47 2:00 3:13 \nCould you improve the quality ?\nkʊd ju ˌɪmˈpruv ðə kˈwɑləti \nНе могли бы вы улучшить качество?\n\n1:01 2:14 3:27 \nCould you close the window ?\nkʊd ju kloʊz ðə ˈwɪndoʊ \nНе могли бы вы закрыть окно?\n\n\n\nУчителям и школам:\nЭто видео опубликовано под лицензией Creative Commons.\n  CC BY 3.0 https://creativecommons.org/licenses/by/3.0/ \nНе стесняйтесь использовать это видео в своих классах!\n\nМы используем сервис Google Translate для локализации. Если вы обнаружите ошибки, сообщите нам.\n"
    },
    {
      "Lang": "sd",
      "Title": "سنڌي گرامر مشق | سادو انگريزن ⭐️ #78 Could you?",
      "Description": "انگريزي گرامر سکو! ھڪ لفظ ۾ ھڪڙي تبديلي آڻيو.\n\n\n\n0:05 1:18 2:31 \nCould you turn off the music ?\nkʊd ju tərn ɔf ðə mˈjuzɪk \nڇا تون موسيقي بند ڪري سگھين ٿو؟\n\n0:19 1:32 2:45 \nCould you close the door ?\nkʊd ju kloʊz ðə dɔr \nڇا تون دروازو بند ڪري سگھين ٿو؟\n\n0:33 1:46 2:59 \nCould you pass the milk ?\nkʊd ju pæs ðə mɪlk \nڇا تون کير پاس ڪري سگهين ٿو؟\n\n0:47 2:00 3:13 \nCould you improve the quality ?\nkʊd ju ˌɪmˈpruv ðə kˈwɑləti \nڇا توهان کي معيار بهتر ڪري سگهي ٿي؟\n\n1:01 2:14 3:27 \nCould you close the window ?\nkʊd ju kloʊz ðə ˈwɪndoʊ \nڇا تون ونڊو بند ڪري سگھين ٿو؟\n\n\n\nاستاد ۽ اسڪولن ڏانهن:\nهيء وڊيو تخليقي العام لائسنس هيٺ شايع ٿيل آهي.\n  CC BY 3.0 https://creativecommons.org/licenses/by/3.0/ \nپنهنجي وڊيوز ۾ هن وڊيو کي استعمال ڪرڻ لاء آزاد ٿيو!\n\nاسان مقامي ڪرڻ لاء گوگل ترجمو سروس استعمال ڪندا آهيون. جيڪڏهن توهان ڪجهه غلطي ڳوليندا آهيو، مهرباني ڪري اسان کي ڄاڻ ڏيو.\n"
    },
    {
      "Lang": "si",
      "Title": "ඉංග්‍රීසි ව්‍යාකරණ අභ්‍යාස | සරල බ්‍රිතාන්‍ය ⭐️ #78 Could you?",
      "Description": "ඉංග්‍රීසි ව්‍යාකරණ ඉගෙන ගන්න! වාක්‍යයක වචනයක් වෙනස් කරන්න.\n\n\n\n0:05 1:18 2:31 \nCould you turn off the music ?\nkʊd ju tərn ɔf ðə mˈjuzɪk \nඔබට සංගීතය අක්‍රිය කළ හැකිද?\n\n0:19 1:32 2:45 \nCould you close the door ?\nkʊd ju kloʊz ðə dɔr \nඔබට දොර වැසිය හැකිද?\n\n0:33 1:46 2:59 \nCould you pass the milk ?\nkʊd ju pæs ðə mɪlk \nඔබට කිරි සමත් විය හැකිද?\n\n0:47 2:00 3:13 \nCould you improve the quality ?\nkʊd ju ˌɪmˈpruv ðə kˈwɑləti \nඔබට ගුණාත්මකභාවය වැඩි දියුණු කළ හැකිද?\n\n1:01 2:14 3:27 \nCould you close the window ?\nkʊd ju kloʊz ðə ˈwɪndoʊ \nඔබට කවුළුව වසා දැමිය හැකිද?\n\n\n\nගුරුවරුන්ට සහ පාසල්වලට:\nමෙම වීඩියෝව නිර්මාණාත්මක පොදු බලපත්‍රය යටතේ ප්‍රකාශයට පත් කෙරේ.\n  CC BY 3.0 https://creativecommons.org/licenses/by/3.0/ \nඔබේ පංතිවල මෙම වීඩියෝව භාවිතා කිරීමට නිදහස් වන්න!\n\nප්‍රාදේශීයකරණය සඳහා අපි ගූගල් පරිවර්තන සේවාව භාවිතා කරමු. ඔබ යම් වැරැද්දක් සොයා ගන්නේ නම්, කරුණාකර අපට දන්වන්න.\n"
    },
    {
      "Lang": "sk",
      "Title": "Anglické gramatické cvičenia | prostý britský ⭐️ #78 Could you?",
      "Description": "Naučte sa anglickú gramatiku! Zmeniť slovo vo vete.\n\n\n\n0:05 1:18 2:31 \nCould you turn off the music ?\nkʊd ju tərn ɔf ðə mˈjuzɪk \nMohli by ste vypnúť hudbu?\n\n0:19 1:32 2:45 \nCould you close the door ?\nkʊd ju kloʊz ðə dɔr \nMohli by ste zatvoriť dvere?\n\n0:33 1:46 2:59 \nCould you pass the milk ?\nkʊd ju pæs ðə mɪlk \nMôžete prejsť mliekom?\n\n0:47 2:00 3:13 \nCould you improve the quality ?\nkʊd ju ˌɪmˈpruv ðə kˈwɑləti \nMohli by ste zlepšiť kvalitu?\n\n1:01 2:14 3:27 \nCould you close the window ?\nkʊd ju kloʊz ðə ˈwɪndoʊ \nMohli by ste zatvoriť okno?\n\n\n\nPre učiteľov a školy:\nToto video je publikované pod licenciou Creative Commons License.\n  CC BY 3.0 https://creativecommons.org/licenses/by/3.0/ \nNeváhajte použiť toto video vo svojich triedach!\n\nNa lokalizáciu používame službu Prekladač Google. Ak nájdete nejaké chyby, dajte nám vedieť.\n"
    },
    {
      "Lang": "sl",
      "Title": "Angleške slovnične vaje | Preprosto Britanci ⭐️ #78 Could you?",
      "Description": "Naučite se angleške slovnice! Spremenite besedo v stavku.\n\n\n\n0:05 1:18 2:31 \nCould you turn off the music ?\nkʊd ju tərn ɔf ðə mˈjuzɪk \nBi lahko izklopili glasbo?\n\n0:19 1:32 2:45 \nCould you close the door ?\nkʊd ju kloʊz ðə dɔr \nBi lahko zaprli vrata?\n\n0:33 1:46 2:59 \nCould you pass the milk ?\nkʊd ju pæs ðə mɪlk \nLahko prenesete mleko?\n\n0:47 2:00 3:13 \nCould you improve the quality ?\nkʊd ju ˌɪmˈpruv ðə kˈwɑləti \nBi lahko izboljšali kakovost?\n\n1:01 2:14 3:27 \nCould you close the window ?\nkʊd ju kloʊz ðə ˈwɪndoʊ \nBi lahko zaprli okno?\n\n\n\nUčiteljem in šolam:\nTa videoposnetek je objavljen pod licenco Creative Commons.\n  CC BY 3.0 https://creativecommons.org/licenses/by/3.0/ \nUporabite ta video v svojih razredih!\n\nZa lokalizacijo uporabljamo storitev Google Translate. Če najdete nekaj napak, nas obvestite.\n"
    },
    {
      "Lang": "sm",
      "Title": "Gagana o le gagana Gagana Peretania | Faigofie Peretania ⭐️ #78 Could you?",
      "Description": "Aoao le gagana Gagana Peretania! Sui se upu i se fuaiupu.\n\n\n\n0:05 1:18 2:31 \nCould you turn off the music ?\nkʊd ju tərn ɔf ðə mˈjuzɪk \nE mafai ona e tape le musika?\n\n0:19 1:32 2:45 \nCould you close the door ?\nkʊd ju kloʊz ðə dɔr \nE mafai ona e tapuni le faitotoa?\n\n0:33 1:46 2:59 \nCould you pass the milk ?\nkʊd ju pæs ðə mɪlk \nE mafai ona e pasia le susu?\n\n0:47 2:00 3:13 \nCould you improve the quality ?\nkʊd ju ˌɪmˈpruv ðə kˈwɑləti \nE mafai ona e faaleleia le tulaga lelei?\n\n1:01 2:14 3:27 \nCould you close the window ?\nkʊd ju kloʊz ðə ˈwɪndoʊ \nE mafai ona e tapunia le faamalama?\n\n\n\nI faiaoga ma aʻoga:\nO lenei vitio ua lomia i lalo o le Creative Commons License.\n  CC BY 3.0 https://creativecommons.org/licenses/by/3.0/ \nLagona le saoloto e faʻaaoga lenei vitio i au vasega!\n\nMatou te faʻaaoga le Google Translate auaunaga mo le faʻasalalauga. Afai e te maua ni mea sese, faʻamolemole ia e iloa.\n"
    },
    {
      "Lang": "sn",
      "Title": "Chirungu grammar Exercise | Nyore Britain ⭐️ #78 Could you?",
      "Description": "Dzidza mutauro wechirungu! Chinja izwi muchirevo.\n\n\n\n0:05 1:18 2:31 \nCould you turn off the music ?\nkʊd ju tərn ɔf ðə mˈjuzɪk \nUnogona kudzima mimhanzi here?\n\n0:19 1:32 2:45 \nCould you close the door ?\nkʊd ju kloʊz ðə dɔr \nUnogona kuvhara musuwo here?\n\n0:33 1:46 2:59 \nCould you pass the milk ?\nkʊd ju pæs ðə mɪlk \nUnogona kupfuudza mukaka here?\n\n0:47 2:00 3:13 \nCould you improve the quality ?\nkʊd ju ˌɪmˈpruv ðə kˈwɑləti \nUnogona kuvandudza kunaka kwacho here?\n\n1:01 2:14 3:27 \nCould you close the window ?\nkʊd ju kloʊz ðə ˈwɪndoʊ \nUnogona kuvhara hwindo here?\n\n\n\nKune vadzidzisi uye zvikoro:\nVhidhiyo iyi inoburitswa pasi peCreative Commons License.\n  CC BY 3.0 https://creativecommons.org/licenses/by/3.0/ \nInzwa wakasununguka kushandisa iyi vhidhiyo mumakirasi ako!\n\nIsu tinoshandisa Google Dhumiro sevhisi. Kana iwe ukawana zvimwe zvikanganiso, tapota titiudze.\n"
    },
    {
      "Lang": "so",
      "Title": "Jimicsiga naxwaha Ingiriisiga | Fudud Ingiriiska ⭐️ #78 Could you?",
      "Description": "Baro naxwaha Ingiriisiga! U beddelo eray weedh.\n\n\n\n0:05 1:18 2:31 \nCould you turn off the music ?\nkʊd ju tərn ɔf ðə mˈjuzɪk \nMiyaad damin kartaa muusikada?\n\n0:19 1:32 2:45 \nCould you close the door ?\nkʊd ju kloʊz ðə dɔr \nAlbaab ma xiri kartaa?\n\n0:33 1:46 2:59 \nCould you pass the milk ?\nkʊd ju pæs ðə mɪlk \nMiyaad caano u gudbin kartaa?\n\n0:47 2:00 3:13 \nCould you improve the quality ?\nkʊd ju ˌɪmˈpruv ðə kˈwɑləti \nMiyaad hagaajin kartaa tayada?\n\n1:01 2:14 3:27 \nCould you close the window ?\nkʊd ju kloʊz ðə ˈwɪndoʊ \nMa xiri kartaa daaqadda?\n\n\n\nKu socota macallimiinta iyo iskuulada:\nMuuqaalkan fiidiyaha ah waxaa lagu daabacay hoosta hal-abuurnimada Hal-abuurka.\n  CC BY 3.0 https://creativecommons.org/licenses/by/3.0/ \nXor baad u leedahay inaad fiidiyaha u isticmaasho fasalladaaga!\n\nWaxaan u adeegsanaa adeega Google tarjumaha si aan ugu tarjunno. Hadaad khaladaad hesho, fadlan nala socodsii.\n"
    },
    {
      "Lang": "sq",
      "Title": "Ushtrime gramatikore angleze | i thjeshtë britanik ⭐️ #78 Could you?",
      "Description": "Mësoni gramatikën angleze! Ndryshoni një fjalë në një fjali.\n\n\n\n0:05 1:18 2:31 \nCould you turn off the music ?\nkʊd ju tərn ɔf ðə mˈjuzɪk \nMund ta fikësh muzikën?\n\n0:19 1:32 2:45 \nCould you close the door ?\nkʊd ju kloʊz ðə dɔr \nMund të mbyllni derën?\n\n0:33 1:46 2:59 \nCould you pass the milk ?\nkʊd ju pæs ðə mɪlk \nMund ta kaloni qumështin?\n\n0:47 2:00 3:13 \nCould you improve the quality ?\nkʊd ju ˌɪmˈpruv ðə kˈwɑləti \nMund të përmirësoni cilësinë?\n\n1:01 2:14 3:27 \nCould you close the window ?\nkʊd ju kloʊz ðə ˈwɪndoʊ \nMund të mbyllni dritaren?\n\n\n\nPër mësuesit dhe shkollat:\nKjo video është botuar nën licencën Creative Commons.\n  CC BY 3.0 https://creativecommons.org/licenses/by/3.0/ \nMos ngurroni të përdorni këtë video në klasat tuaja!\n\nNe përdorim shërbimin Google Translate për lokalizimin. Nëse gjeni disa gabime, ju lutemi na tregoni.\n"
    },
    {
      "Lang": "sr",
      "Title": "Вежбе енглеске граматике | Једноставно Британци ⭐️ #78 Could you?",
      "Description": "Научите енглеску граматику! Промените реч у реченици.\n\n\n\n0:05 1:18 2:31 \nCould you turn off the music ?\nkʊd ju tərn ɔf ðə mˈjuzɪk \nМожете ли искључити музику?\n\n0:19 1:32 2:45 \nCould you close the door ?\nkʊd ju kloʊz ðə dɔr \nМожете ли затворити врата?\n\n0:33 1:46 2:59 \nCould you pass the milk ?\nkʊd ju pæs ðə mɪlk \nМожете ли пренијети млеко?\n\n0:47 2:00 3:13 \nCould you improve the quality ?\nkʊd ju ˌɪmˈpruv ðə kˈwɑləti \nМожете ли побољшати квалитет?\n\n1:01 2:14 3:27 \nCould you close the window ?\nkʊd ju kloʊz ðə ˈwɪndoʊ \nМожете ли затворити прозор?\n\n\n\nНаставницима и школама:\nОвај видео је објављен под Цреативе Цоммонс лиценцом.\n  CC BY 3.0 https://creativecommons.org/licenses/by/3.0/ \nСлободно користите овај видеозапис у својим предавањима!\n\nЗа локализацију користимо услугу Гоогле Транслате. Ако нађете неке грешке, јавите нам се.\n"
    },
    {
      "Lang": "st",
      "Title": "Boikoetliso ba puo ea Senyesemane | E bonolo Borithane ⭐️ #78 Could you?",
      "Description": "Ithute puo ea Senyesemane! Fetola lentsoe polelo.\n\n\n\n0:05 1:18 2:31 \nCould you turn off the music ?\nkʊd ju tərn ɔf ðə mˈjuzɪk \nA na u ka tima 'mino?\n\n0:19 1:32 2:45 \nCould you close the door ?\nkʊd ju kloʊz ðə dɔr \nO ka koala lemati?\n\n0:33 1:46 2:59 \nCould you pass the milk ?\nkʊd ju pæs ðə mɪlk \nO ka feta lebese?\n\n0:47 2:00 3:13 \nCould you improve the quality ?\nkʊd ju ˌɪmˈpruv ðə kˈwɑləti \nO ka ntlafatsa boleng?\n\n1:01 2:14 3:27 \nCould you close the window ?\nkʊd ju kloʊz ðə ˈwɪndoʊ \nO ka koala fensetere?\n\n\n\nHo matichere le likolo:\nVideo ena e phatlalalitsoe tlas'a Creative Commons License.\n  CC BY 3.0 https://creativecommons.org/licenses/by/3.0/ \nIkutloe u lokolohile ho sebelisa video ena litlelaseng tsa hau!\n\nRe sebelisa tšebeletso ea Google Tafsiri bakeng sa lehae. Haeba u fumana liphoso, ka kopo re tsebise.\n"
    },
    {
      "Lang": "su",
      "Title": "Latihan tata basa Inggris | Basajan Inggris ⭐️ #78 Could you?",
      "Description": "Diajar grammar Inggris! Ngarobih kecap dina hiji kalimat.\n\n\n\n0:05 1:18 2:31 \nCould you turn off the music ?\nkʊd ju tərn ɔf ðə mˈjuzɪk \nNaha anjeun tiasa mareuman musik?\n\n0:19 1:32 2:45 \nCould you close the door ?\nkʊd ju kloʊz ðə dɔr \nNaha anjeun tiasa nutup panto?\n\n0:33 1:46 2:59 \nCould you pass the milk ?\nkʊd ju pæs ðə mɪlk \nNaha anjeun tiasa ngasuh susu?\n\n0:47 2:00 3:13 \nCould you improve the quality ?\nkʊd ju ˌɪmˈpruv ðə kˈwɑləti \nNaha anjeun tiasa ningkatkeun kualitasna?\n\n1:01 2:14 3:27 \nCould you close the window ?\nkʊd ju kloʊz ðə ˈwɪndoʊ \nNaha anjeun tiasa nutup jandela?\n\n\n\nPikeun guru sareng sakola:\nPidéo ieu dikaluarkeun dina Lisensi Lisénsi Creative Commons.\n  CC BY 3.0 https://creativecommons.org/licenses/by/3.0/ \nTong ngosongkeun pidéo ieu di kelas!\n\nKami nganggo jasa Google Translate pikeun lokalisasi. Upami anjeun mendakan sababaraha kasalahan, punten terangkeun ka urang.\n"
    },
    {
      "Lang": "sv",
      "Title": "Engelska grammatiska övningar | Enkel British ⭐️ #78 Could you?",
      "Description": "Lär dig engelska grammatik! Ändra ett ord i en mening.\n\n\n\n0:05 1:18 2:31 \nCould you turn off the music ?\nkʊd ju tərn ɔf ðə mˈjuzɪk \nKan du stänga av musiken?\n\n0:19 1:32 2:45 \nCould you close the door ?\nkʊd ju kloʊz ðə dɔr \nKan du stänga dörren?\n\n0:33 1:46 2:59 \nCould you pass the milk ?\nkʊd ju pæs ðə mɪlk \nKan du skicka mjölken?\n\n0:47 2:00 3:13 \nCould you improve the quality ?\nkʊd ju ˌɪmˈpruv ðə kˈwɑləti \nKan du förbättra kvaliteten?\n\n1:01 2:14 3:27 \nCould you close the window ?\nkʊd ju kloʊz ðə ˈwɪndoʊ \nKan du stänga fönstret?\n\n\n\nTill lärare och skolor:\nDenna video publiceras under Creative Commons License.\n  CC BY 3.0 https://creativecommons.org/licenses/by/3.0/ \nAnvänd gärna den här videon i dina klasser!\n\nVi använder Google Translate-tjänst för lokalisering. Låt oss veta om du hittar några misstag.\n"
    },
    {
      "Lang": "sw",
      "Title": "Mazoezi ya sarufi ya Kiingereza | Rahisi Briteni ⭐️ #78 Could you?",
      "Description": "Jifunze sarufi ya Kiingereza! Badilisha neno katika sentensi.\n\n\n\n0:05 1:18 2:31 \nCould you turn off the music ?\nkʊd ju tərn ɔf ðə mˈjuzɪk \nJe! Unaweza kuzima muziki?\n\n0:19 1:32 2:45 \nCould you close the door ?\nkʊd ju kloʊz ðə dɔr \nJe! Unaweza kufunga mlango?\n\n0:33 1:46 2:59 \nCould you pass the milk ?\nkʊd ju pæs ðə mɪlk \nJe! Unaweza kupitisha maziwa?\n\n0:47 2:00 3:13 \nCould you improve the quality ?\nkʊd ju ˌɪmˈpruv ðə kˈwɑləti \nJe! Unaweza kuboresha ubora?\n\n1:01 2:14 3:27 \nCould you close the window ?\nkʊd ju kloʊz ðə ˈwɪndoʊ \nJe! Unaweza kufunga dirisha?\n\n\n\nKwa waalimu na shule:\nVideo hii imechapishwa chini ya Leseni ya Creative Commons.\n  CC BY 3.0 https://creativecommons.org/licenses/by/3.0/ \nJisikie huru kutumia video hii kwenye darasa lako!\n\nTunatumia huduma ya Tafsiri ya Google kwa ujanibishaji. Ikiwa utapata makosa, tafadhali tujulishe.\n"
    },
    {
      "Lang": "ta",
      "Title": "ஆங்கில இலக்கண பயிற்சிகள் | எளிய பிரிட்டிஷ் ⭐️ #78 Could you?",
      "Description": "ஆங்கில இலக்கணம் கற்றுக்கொள்ளுங்கள்! ஒரு வாக்கியத்தில் ஒரு வார்த்தையை மாற்றவும்.\n\n\n\n0:05 1:18 2:31 \nCould you turn off the music ?\nkʊd ju tərn ɔf ðə mˈjuzɪk \nநீங்கள் இசையை அணைக்க முடியுமா?\n\n0:19 1:32 2:45 \nCould you close the door ?\nkʊd ju kloʊz ðə dɔr \nநீங்கள் கதவை மூட முடியுமா?\n\n0:33 1:46 2:59 \nCould you pass the milk ?\nkʊd ju pæs ðə mɪlk \nநீங்கள் பாலை கடக்க முடியுமா?\n\n0:47 2:00 3:13 \nCould you improve the quality ?\nkʊd ju ˌɪmˈpruv ðə kˈwɑləti \nதரத்தை மேம்படுத்த முடியுமா?\n\n1:01 2:14 3:27 \nCould you close the window ?\nkʊd ju kloʊz ðə ˈwɪndoʊ \nசாளரத்தை மூட முடியுமா?\n\n\n\nஆசிரியர்கள் மற்றும் பள்ளிகளுக்கு:\nஇந்த வீடியோ கிரியேட்டிவ் காமன்ஸ் உரிமத்தின் கீழ் வெளியிடப்பட்டுள்ளது.\n  CC BY 3.0 https://creativecommons.org/licenses/by/3.0/ \nஉங்கள் வகுப்புகளில் இந்த வீடியோவைப் பயன்படுத்த தயங்காதீர்கள்!\n\nஉள்ளூர்மயமாக்க Google மொழிபெயர்ப்பு சேவையைப் பயன்படுத்துகிறோம். நீங்கள் சில தவறுகளைக் கண்டால், எங்களுக்குத் தெரியப்படுத்துங்கள்.\n"
    },
    {
      "Lang": "te",
      "Title": "ఇంగ్లీష్ వ్యాకరణ వ్యాయామాలు | సాధారణ బ్రిటిష్ ⭐️ #78 Could you?",
      "Description": "ఇంగ్లీష్ వ్యాకరణం నేర్చుకోండి! ఒక వాక్యంలో ఒక పదాన్ని మార్చండి.\n\n\n\n0:05 1:18 2:31 \nCould you turn off the music ?\nkʊd ju tərn ɔf ðə mˈjuzɪk \nమీరు సంగీతాన్ని ఆపివేయగలరా?\n\n0:19 1:32 2:45 \nCould you close the door ?\nkʊd ju kloʊz ðə dɔr \nమీరు తలుపు మూసివేయగలరా?\n\n0:33 1:46 2:59 \nCould you pass the milk ?\nkʊd ju pæs ðə mɪlk \nమీరు పాలు పాస్ చేయగలరా?\n\n0:47 2:00 3:13 \nCould you improve the quality ?\nkʊd ju ˌɪmˈpruv ðə kˈwɑləti \nమీరు నాణ్యతను మెరుగుపరచగలరా?\n\n1:01 2:14 3:27 \nCould you close the window ?\nkʊd ju kloʊz ðə ˈwɪndoʊ \nమీరు విండోను మూసివేయగలరా?\n\n\n\nఉపాధ్యాయులకు మరియు పాఠశాలలకు:\nఈ వీడియో క్రియేటివ్ కామన్స్ లైసెన్స్ క్రింద ప్రచురించబడింది.\n  CC BY 3.0 https://creativecommons.org/licenses/by/3.0/ \nమీ తరగతుల్లో ఈ వీడియోను ఉపయోగించడానికి సంకోచించకండి!\n\nస్థానికీకరణ కోసం మేము Google అనువాద సేవను ఉపయోగిస్తాము. మీరు కొన్ని తప్పులు కనుగొంటే, దయచేసి మాకు తెలియజేయండి.\n"
    },
    {
      "Lang": "tg",
      "Title": "Машқҳои грамматикаи забони англисӣ | Оддӣ Бритониё ⭐️ #78 Could you?",
      "Description": "Грамматикаи забони англисиро омӯзед! Калимаро дар як ҷумла иваз кунед.\n\n\n\n0:05 1:18 2:31 \nCould you turn off the music ?\nkʊd ju tərn ɔf ðə mˈjuzɪk \nМетавонед мусиқиро хомӯш кунед?\n\n0:19 1:32 2:45 \nCould you close the door ?\nkʊd ju kloʊz ðə dɔr \nШумо метавонед дарро пӯшед?\n\n0:33 1:46 2:59 \nCould you pass the milk ?\nkʊd ju pæs ðə mɪlk \nШумо ширро дода метавонед?\n\n0:47 2:00 3:13 \nCould you improve the quality ?\nkʊd ju ˌɪmˈpruv ðə kˈwɑləti \nОё шумо сифатро боло бурда метавонед?\n\n1:01 2:14 3:27 \nCould you close the window ?\nkʊd ju kloʊz ðə ˈwɪndoʊ \nОё шумо тирезаро пӯшида метавонед?\n\n\n\nБа муаллимон ва мактабҳо:\nИн видео зери иҷозатномаи Creative Commons нашр шудааст.\n  CC BY 3.0 https://creativecommons.org/licenses/by/3.0/ \nИн видеоро дар дарсҳои худ истифода баред!\n\nМо барои локализатсия аз хидмати Google Translate истифода мебарем. Агар шумо ягон хатогӣ дарёфт кунед, лутфан ба мо хабар диҳед.\n"
    },
    {
      "Lang": "th",
      "Title": "แบบฝึกหัดไวยากรณ์ภาษาอังกฤษ | ง่าย อังกฤษ ⭐️ #78 Could you?",
      "Description": "เรียนรู้ไวยากรณ์ภาษาอังกฤษ! เปลี่ยนคำในประโยค\n\n\n\n0:05 1:18 2:31 \nCould you turn off the music ?\nkʊd ju tərn ɔf ðə mˈjuzɪk \nคุณสามารถปิดเพลงได้ไหม\n\n0:19 1:32 2:45 \nCould you close the door ?\nkʊd ju kloʊz ðə dɔr \nคุณปิดประตูได้ไหม\n\n0:33 1:46 2:59 \nCould you pass the milk ?\nkʊd ju pæs ðə mɪlk \nคุณสามารถส่งผ่านนมหรือไม่\n\n0:47 2:00 3:13 \nCould you improve the quality ?\nkʊd ju ˌɪmˈpruv ðə kˈwɑləti \nคุณสามารถปรับปรุงคุณภาพหรือไม่\n\n1:01 2:14 3:27 \nCould you close the window ?\nkʊd ju kloʊz ðə ˈwɪndoʊ \nคุณสามารถปิดหน้าต่างได้ไหม\n\n\n\nถึงครูและโรงเรียน:\nวิดีโอนี้เผยแพร่ภายใต้สัญญาอนุญาตครีเอทีฟคอมมอนส์\n  CC BY 3.0 https://creativecommons.org/licenses/by/3.0/ \nอย่าลังเลที่จะใช้วิดีโอนี้ในชั้นเรียนของคุณ!\n\nเราใช้บริการ Google แปลภาษาเพื่อการแปล หากคุณพบข้อผิดพลาดบางอย่างโปรดแจ้งให้เราทราบ\n"
    },
    {
      "Lang": "tr",
      "Title": "İngilizce gramer çalışmaları | Basit ingiliz ⭐️ #78 Could you?",
      "Description": "İngilizce gramerini öğren! Bir cümle içindeki bir kelimeyi değiştirin.\n\n\n\n0:05 1:18 2:31 \nCould you turn off the music ?\nkʊd ju tərn ɔf ðə mˈjuzɪk \nMüziği kapatabilir misin?\n\n0:19 1:32 2:45 \nCould you close the door ?\nkʊd ju kloʊz ðə dɔr \nKapıyı kapatır mısın?\n\n0:33 1:46 2:59 \nCould you pass the milk ?\nkʊd ju pæs ðə mɪlk \nSütü geçebilir misin?\n\n0:47 2:00 3:13 \nCould you improve the quality ?\nkʊd ju ˌɪmˈpruv ðə kˈwɑləti \nKaliteyi artırabilir misiniz?\n\n1:01 2:14 3:27 \nCould you close the window ?\nkʊd ju kloʊz ðə ˈwɪndoʊ \nPencereyi kapatır mısın?\n\n\n\nÖğretmenlere ve okullara:\nBu video Creative Commons License. Altında yayınlandı.\n  CC BY 3.0 https://creativecommons.org/licenses/by/3.0/ \nBu videoyu derslerinizde kullanmaktan çekinmeyin!\n\nYerelleştirme için Google Çeviri hizmetini kullanıyoruz. Bazı hatalar bulursanız lütfen bize bildirin.\n"
    },
    {
      "Lang": "uk",
      "Title": "Граматичні вправи з англійської мови | Простий Британці ⭐️ #78 Could you?",
      "Description": "Вивчіть англійську граматику! Змініть слово у реченні.\n\n\n\n0:05 1:18 2:31 \nCould you turn off the music ?\nkʊd ju tərn ɔf ðə mˈjuzɪk \nНе могли б ви вимкнути музику?\n\n0:19 1:32 2:45 \nCould you close the door ?\nkʊd ju kloʊz ðə dɔr \nНе могли б ви зачинити двері?\n\n0:33 1:46 2:59 \nCould you pass the milk ?\nkʊd ju pæs ðə mɪlk \nНе могли б ви передати молоко?\n\n0:47 2:00 3:13 \nCould you improve the quality ?\nkʊd ju ˌɪmˈpruv ðə kˈwɑləti \nНе могли б ви покращити якість?\n\n1:01 2:14 3:27 \nCould you close the window ?\nkʊd ju kloʊz ðə ˈwɪndoʊ \nНе могли б ви закрити вікно?\n\n\n\nДля вчителів та шкіл:\nЦе відео опубліковане під ліцензією Creative Commons.\n  CC BY 3.0 https://creativecommons.org/licenses/by/3.0/ \nСміливо використовуйте це відео у своїх класах!\n\nМи використовуємо послугу Google Translate для локалізації. Якщо ви виявили деякі помилки, повідомте нас про це.\n"
    },
    {
      "Lang": "ur",
      "Title": "انگریزی گرائمر کی ورزشیں | آسان برطانوی ⭐️ #78 Could you?",
      "Description": "انگریزی گرائمر سیکھیں! ایک جملے میں ایک لفظ تبدیل کریں۔\n\n\n\n0:05 1:18 2:31 \nCould you turn off the music ?\nkʊd ju tərn ɔf ðə mˈjuzɪk \nکیا آپ موسیقی بند کرسکتے ہیں؟\n\n0:19 1:32 2:45 \nCould you close the door ?\nkʊd ju kloʊz ðə dɔr \nکیا آپ دروازہ بند کرسکتے ہیں؟\n\n0:33 1:46 2:59 \nCould you pass the milk ?\nkʊd ju pæs ðə mɪlk \nکیا آپ دودھ دے سکتے ہو؟\n\n0:47 2:00 3:13 \nCould you improve the quality ?\nkʊd ju ˌɪmˈpruv ðə kˈwɑləti \nکیا آپ معیار کو بہتر بناسکتے ہیں؟\n\n1:01 2:14 3:27 \nCould you close the window ?\nkʊd ju kloʊz ðə ˈwɪndoʊ \nکیا آپ کھڑکی بند کرسکتے ہیں؟\n\n\n\nاساتذہ اور اسکولوں کے لئے:\nیہ ویڈیو تخلیقی العام لائسنس کے تحت شائع ہوا ہے۔\n  CC BY 3.0 https://creativecommons.org/licenses/by/3.0/ \nاپنی ویڈیو کو اپنی کلاسوں میں آزادانہ طور پر استعمال کریں!\n\nہم لوکلائزیشن کے لئے گوگل ٹرانسلیٹ سروس استعمال کرتے ہیں۔ اگر آپ کو کچھ غلطیاں ملتی ہیں تو ، براہ کرم ہمیں بتائیں۔\n"
    },
    {
      "Lang": "uz",
      "Title": "Ingliz tili grammatik mashqlari | Oddiy Britaniya ⭐️ #78 Could you?",
      "Description": "Ingliz tilining grammatikasini o'rganing! Bir so'zni jumlada o'zgartiring.\n\n\n\n0:05 1:18 2:31 \nCould you turn off the music ?\nkʊd ju tərn ɔf ðə mˈjuzɪk \nMusiqani o'chirib qo'ya olasizmi?\n\n0:19 1:32 2:45 \nCould you close the door ?\nkʊd ju kloʊz ðə dɔr \nEshikni yopa olasizmi?\n\n0:33 1:46 2:59 \nCould you pass the milk ?\nkʊd ju pæs ðə mɪlk \nSutni bera olasizmi?\n\n0:47 2:00 3:13 \nCould you improve the quality ?\nkʊd ju ˌɪmˈpruv ðə kˈwɑləti \nSiz sifatni yaxshilay olasizmi?\n\n1:01 2:14 3:27 \nCould you close the window ?\nkʊd ju kloʊz ðə ˈwɪndoʊ \nOynani yopib bera olasizmi?\n\n\n\nO'qituvchilar va maktablarga:\nUshbu video Creative Commons litsenziyasi ostida joylashtirilgan.\n  CC BY 3.0 https://creativecommons.org/licenses/by/3.0/ \nUshbu videoni o'z sinflaringizda ishlatish bepul!\n\nBiz Google Translate xizmatidan lokalizatsiya uchun foydalanamiz. Agar siz biron bir xato topsangiz, iltimos, bizga xabar bering.\n"
    },
    {
      "Lang": "vi",
      "Title": "Bài tập ngữ pháp tiếng anh | Đơn giản người Anh ⭐️ #78 Could you?",
      "Description": "Học ngữ pháp tiếng Anh! Thay đổi một từ trong một câu.\n\n\n\n0:05 1:18 2:31 \nCould you turn off the music ?\nkʊd ju tərn ɔf ðə mˈjuzɪk \nBạn có thể tắt nhạc không?\n\n0:19 1:32 2:45 \nCould you close the door ?\nkʊd ju kloʊz ðə dɔr \nBạn có thể đóng cửa giúp được không ?\n\n0:33 1:46 2:59 \nCould you pass the milk ?\nkʊd ju pæs ðə mɪlk \nBạn có thể vượt qua sữa?\n\n0:47 2:00 3:13 \nCould you improve the quality ?\nkʊd ju ˌɪmˈpruv ðə kˈwɑləti \nBạn có thể cải thiện chất lượng?\n\n1:01 2:14 3:27 \nCould you close the window ?\nkʊd ju kloʊz ðə ˈwɪndoʊ \nBạn có thể đóng cửa sổ?\n\n\n\nGửi giáo viên và nhà trường:\nVideo này được xuất bản theo Giấy phép Creative Commons.\n  CC BY 3.0 https://creativecommons.org/licenses/by/3.0/ \nHãy sử dụng video này trong các lớp học của bạn!\n\nChúng tôi sử dụng dịch vụ Google Dịch để bản địa hóa. Nếu bạn tìm thấy một số sai lầm, xin vui lòng cho chúng tôi biết.\n"
    },
    {
      "Lang": "xh",
      "Title": "Ukuziqhelanisa negrama yesiNgesi | Elula Bhritane ⭐️ #78 Could you?",
      "Description": "Funda igrama yesiNgesi! Guqula igama kwisivakalisi.\n\n\n\n0:05 1:18 2:31 \nCould you turn off the music ?\nkʊd ju tərn ɔf ðə mˈjuzɪk \nNgaba ungawucima umculo?\n\n0:19 1:32 2:45 \nCould you close the door ?\nkʊd ju kloʊz ðə dɔr \nNgaba ungavala ucango?\n\n0:33 1:46 2:59 \nCould you pass the milk ?\nkʊd ju pæs ðə mɪlk \nUngaludlulisa ubisi?\n\n0:47 2:00 3:13 \nCould you improve the quality ?\nkʊd ju ˌɪmˈpruv ðə kˈwɑləti \nNgaba ungawuphucula umgangatho?\n\n1:01 2:14 3:27 \nCould you close the window ?\nkʊd ju kloʊz ðə ˈwɪndoʊ \nNgaba ungavala ifestile?\n\n\n\nKootitshala nakwizikolo:\nLe vidiyo ipapashwa phantsi kwelayisensi yeCreative Commons.\n  CC BY 3.0 https://creativecommons.org/licenses/by/3.0/ \nZive ukhululekile ukusebenzisa le vidiyo kwiiklasi zakho!\n\nSisebenzisa inkonzo yokuTolika kaGoogle ukuze sifumane indawo. Ukuba ufumana iimpazamo ezithile, nceda usazise.\n"
    },
    {
      "Lang": "yi",
      "Title": "ענגליש גראַמאַטיק עקסערסייזיז | פּשוט בריטיש ⭐️ #78 Could you?",
      "Description": "לערן ענגליש גראַמאַטיק! טוישן אַ וואָרט אין אַ זאַץ.\n\n\n\n0:05 1:18 2:31 \nCould you turn off the music ?\nkʊd ju tərn ɔf ðə mˈjuzɪk \nקען איר קער אַוועק די מוזיק?\n\n0:19 1:32 2:45 \nCould you close the door ?\nkʊd ju kloʊz ðə dɔr \nקען איר פאַרמאַכן די טיר?\n\n0:33 1:46 2:59 \nCould you pass the milk ?\nkʊd ju pæs ðə mɪlk \nקען איר פאָרן די מילך?\n\n0:47 2:00 3:13 \nCould you improve the quality ?\nkʊd ju ˌɪmˈpruv ðə kˈwɑləti \nקען איר פֿאַרבעסערן די קוואַליטעט?\n\n1:01 2:14 3:27 \nCould you close the window ?\nkʊd ju kloʊz ðə ˈwɪndoʊ \nקען איר פאַרמאַכן די פֿענצטער?\n\n\n\nצו לערערס און שולן:\nדער ווידעא איז ארויס אונטער Creative Commons License.\n  CC BY 3.0 https://creativecommons.org/licenses/by/3.0/ \nפילן פריי צו נוצן דעם ווידעא אין דיין קלאסן!\n\nמיר נוצן Google Translate דינסט פֿאַר לאָוקאַלאַזיישאַן. אויב איר געפֿינען עטלעכע מיסטייקס, ביטע לאָזן אונדז וויסן.\n"
    },
    {
      "Lang": "yo",
      "Title": "Awọn adaṣe gẹẹsi Gẹẹsi | Rọrun Ara ilu Gẹẹsi ⭐️ #78 Could you?",
      "Description": "Kọ ẹkọ gẹẹsi Gẹẹsi! Yi ọrọ pada ninu gbolohun ọrọ.\n\n\n\n0:05 1:18 2:31 \nCould you turn off the music ?\nkʊd ju tərn ɔf ðə mˈjuzɪk \nṢe o le pa orin naa?\n\n0:19 1:32 2:45 \nCould you close the door ?\nkʊd ju kloʊz ðə dɔr \nṢe o le ti ilẹkun?\n\n0:33 1:46 2:59 \nCould you pass the milk ?\nkʊd ju pæs ðə mɪlk \nṢe o le mu wara?\n\n0:47 2:00 3:13 \nCould you improve the quality ?\nkʊd ju ˌɪmˈpruv ðə kˈwɑləti \nṢe o le mu didara naa dara sii?\n\n1:01 2:14 3:27 \nCould you close the window ?\nkʊd ju kloʊz ðə ˈwɪndoʊ \nṢe o le pari window naa?\n\n\n\nSi awọn olukọ ati awọn ile-iwe:\nFidio yii ni a tẹjade labẹ Iwe-aṣẹ Creative Commons.\n  CC BY 3.0 https://creativecommons.org/licenses/by/3.0/ \nLero lati lo fidio yii ninu awọn kilasi rẹ!\n\nA lo iṣẹ Google Translate fun agbegbe. Ti o ba rii diẹ ninu awọn aṣiṣe, jọwọ jẹ ki a mọ.\n"
    },
    {
      "Lang": "zh-Hans",
      "Title": "英语语法练习 | 简单 英式 ⭐️ #78 Could you?",
      "Description": "学习英语语法！ 更改句子中的单词。\n\n\n\n0:05 1:18 2:31 \nCould you turn off the music ?\nkʊd ju tərn ɔf ðə mˈjuzɪk \n你能关掉音乐吗？\n\n0:19 1:32 2:45 \nCould you close the door ?\nkʊd ju kloʊz ðə dɔr \n你能关上门吗？\n\n0:33 1:46 2:59 \nCould you pass the milk ?\nkʊd ju pæs ðə mɪlk \n你可以把牛奶通过吗？\n\n0:47 2:00 3:13 \nCould you improve the quality ?\nkʊd ju ˌɪmˈpruv ðə kˈwɑləti \n你能提高质量吗？\n\n1:01 2:14 3:27 \nCould you close the window ?\nkʊd ju kloʊz ðə ˈwɪndoʊ \n你能关上窗户吗？\n\n\n\n致老师和学校：\n该视频是根据知识共享许可发布的。\n  CC BY 3.0 https://creativecommons.org/licenses/by/3.0/ \n随时在您的课程中使用此视频！\n\n我们使用Google翻译服务进行本地化。如果您发现一些错误，请告诉我们。\n"
    },
    {
      "Lang": "zh-Hant",
      "Title": "英語語法練習 | 簡單 英式 ⭐️ #78 Could you?",
      "Description": "學習英語語法！ 更改句子中的單詞。\n\n\n\n0:05 1:18 2:31 \nCould you turn off the music ?\nkʊd ju tərn ɔf ðə mˈjuzɪk \n你能關掉音樂嗎？\n\n0:19 1:32 2:45 \nCould you close the door ?\nkʊd ju kloʊz ðə dɔr \n你能關上門嗎？\n\n0:33 1:46 2:59 \nCould you pass the milk ?\nkʊd ju pæs ðə mɪlk \n你可以把牛奶通過嗎？\n\n0:47 2:00 3:13 \nCould you improve the quality ?\nkʊd ju ˌɪmˈpruv ðə kˈwɑləti \n你能提高質量嗎？\n\n1:01 2:14 3:27 \nCould you close the window ?\nkʊd ju kloʊz ðə ˈwɪndoʊ \n你能關上窗戶嗎？\n\n\n\n致老師和學校：\n該視頻是根據知識共享許可發布的。\n  CC BY 3.0 https://creativecommons.org/licenses/by/3.0/ \n隨時在您的課程中使用此視頻！\n\n我們使用Google翻譯服務進行本地化。如果您發現一些錯誤，請告訴我們。\n"
    },
    {
      "Lang": "zu",
      "Title": "Ukuzivocavoca kolimi lwesiNgisi | Elula IBritish ⭐️ #78 Could you?",
      "Description": "Funda uhlelo lolimi lwesiNgisi! Shintsha igama emshweni.\n\n\n\n0:05 1:18 2:31 \nCould you turn off the music ?\nkʊd ju tərn ɔf ðə mˈjuzɪk \nUngawucima umculo?\n\n0:19 1:32 2:45 \nCould you close the door ?\nkʊd ju kloʊz ðə dɔr \nUngakwazi ukuvala umnyango?\n\n0:33 1:46 2:59 \nCould you pass the milk ?\nkʊd ju pæs ðə mɪlk \nUngaludlulisa ubisi?\n\n0:47 2:00 3:13 \nCould you improve the quality ?\nkʊd ju ˌɪmˈpruv ðə kˈwɑləti \nUngalithuthukisa ikhwalithi?\n\n1:01 2:14 3:27 \nCould you close the window ?\nkʊd ju kloʊz ðə ˈwɪndoʊ \nUngakwazi ukuvala iwindi?\n\n\n\nKothisha nasezikoleni:\nLe vidiyo ishicilelwe ngaphansi kwelayisensi yeCreative Commons.\n  CC BY 3.0 https://creativecommons.org/licenses/by/3.0/ \nZizwe ukhululekile ukusebenzisa le vidiyo emakilasini akho!\n\nSisebenzisa insiza ye-Google Humusha ukwenza okwasendaweni. Uma uthola amanye amaphutha, sicela usazise.\n"
    }
  ]
}