{
  "File": "grammar-en-beginner-simple_18_A.mp4",
  "ID": "TMizUrDYLNI",
  "AudioLang": "en",
  "DefaultLang": "my",
  "Title": "အင်္ဂလိပ်သဒ္ဒါလေ့ကျင့်ခန်း | ရိုးရှင်းသော ⭐️ #18 -ing",
  "Description": "အင်္ဂလိပ်သဒ္ဒါကိုလေ့လာပါ။ ဝါကျတွင်စကားလုံးတစ်လုံးပြောင်းပါ။\n\n\n\n0:04 1:16 2:24 \nYou are running\nju ər ˈrənɪŋ\nသင်ပြေးနေတယ်\n\n0:18 1:29 2:37 \nShe is running\nʃi ɪz ˈrənɪŋ\nသူမပြေးနေပြီ\n\n0:32 1:42 2:50 \nWe are running\nwi ər ˈrənɪŋ\nငါတို့ပြေးနေတယ်\n\n0:45 1:55 3:03 \nWe are laughing\nwi ər ˈlæfɪŋ\nငါတို့ရယ်တယ်\n\n0:59 2:08 3:16 \nShe is laughing\nʃi ɪz ˈlæfɪŋ\nသူမသည်ရယ်နေသည်\n\n\n\nဆရာများနှင့်ကျောင်းများသို့\nဒီဗီဒီယိုကို Creative Commons လိုင်စင်အောက်မှာထုတ်ဝေထားတယ်။\n  CC BY 3.0 https://creativecommons.org/licenses/by/3.0/ \nဤဗီဒီယိုကိုသင်၏အတန်းများ၌အခမဲ့အသုံးပြုပါ။\n\nကျွန်ုပ်တို့သည်ဒေသခံဘာသာပြန်အတွက် Google Translate ဝန်ဆောင်မှုကိုအသုံးပြုသည်။ သင်အမှားအယွင်းများအချို့ရှိပါကကျွန်ုပ်တို့အားအသိပေးပါ။\n",
  "VideoTags": "အင်္ဂလိပ်သဒ်ဒါ,영문법,Gramera Englishngilîzî,Gagana Peretania,Grammar Inggris,English grammar,Engleska gramatika,gramática inglesa,Ulimi lwesiNgisi,angol nyelvtan,gramatica engleza,engelsk grammatik,Ағылшын грамматикасы,αγγλική γραμματική,अंग्रेजी व्याकरण",
  "YoutubeSynced": true,
  "ThumbnailUploaded": true,
  "Localizations": [
    {
      "Lang": "af",
      "Title": "Engelse grammatika-oefeninge | eenvoudige ⭐️ #18 -ing",
      "Description": "Leer Engelse grammatika! Verander 'n woord in 'n sin.\n\n\n\n0:04 1:16 2:24 \nYou are running\nju ər ˈrənɪŋ\nJy hardloop\n\n0:18 1:29 2:37 \nShe is running\nʃi ɪz ˈrənɪŋ\nSy hardloop\n\n0:32 1:42 2:50 \nWe are running\nwi ər ˈrənɪŋ\nOns hardloop\n\n0:45 1:55 3:03 \nWe are laughing\nwi ər ˈlæfɪŋ\nOns lag\n\n0:59 2:08 3:16 \nShe is laughing\nʃi ɪz ˈlæfɪŋ\nSy lag\n\n\n\nAan onderwysers en skole:\nHierdie video word onder Creative Commons-lisensie gepubliseer.\n  CC BY 3.0 https://creativecommons.org/licenses/by/3.0/ \nGebruik gerus hierdie video in u klasse!\n\nOns gebruik Google Translate-diens vir lokalisering. Laat weet ons as u foute ervaar.\n"
    },
    {
      "Lang": "am",
      "Title": "የእንግሊዝኛ ሰዋሰው ልምምዶች | ቀላል ⭐️ #18 -ing",
      "Description": "የእንግሊዝኛ ሰዋስው ይማሩ! በአረፍተ ነገር ውስጥ አንድ ቃል ይለውጡ ፡፡\n\n\n\n0:04 1:16 2:24 \nYou are running\nju ər ˈrənɪŋ\nእየሮጡ ነው\n\n0:18 1:29 2:37 \nShe is running\nʃi ɪz ˈrənɪŋ\nእየሮጠች ነው\n\n0:32 1:42 2:50 \nWe are running\nwi ər ˈrənɪŋ\nእኛ እየሮጥን ነው\n\n0:45 1:55 3:03 \nWe are laughing\nwi ər ˈlæfɪŋ\nእየሳቅን ነው\n\n0:59 2:08 3:16 \nShe is laughing\nʃi ɪz ˈlæfɪŋ\nእሷ እየሳቀች ነው\n\n\n\nለመምህራን እና ለት / ቤቶች\nይህ ቪዲዮ በ Creative Commons ፈቃድ ስር ታትሟል ፡፡\n  CC BY 3.0 https://creativecommons.org/licenses/by/3.0/ \nይህንን ቪዲዮ በትምህርቶችዎ ውስጥ ለመጠቀም ነፃ ይሁኑ!\n\nለትርጉም የ Google ትርጉም አገልግሎትን እንጠቀማለን። አንዳንድ ስህተቶች ካገኙ እባክዎ ያሳውቁን።\n"
    },
    {
      "Lang": "ar",
      "Title": "تمارين قواعد اللغة الإنجليزية | بسيط ⭐️ #18 -ing",
      "Description": "تعلم قواعد اللغة الإنجليزية! تغيير كلمة في جملة.\n\n\n\n0:04 1:16 2:24 \nYou are running\nju ər ˈrənɪŋ\nأنت تركض\n\n0:18 1:29 2:37 \nShe is running\nʃi ɪz ˈrənɪŋ\nانها تجري\n\n0:32 1:42 2:50 \nWe are running\nwi ər ˈrənɪŋ\nنحن نركض\n\n0:45 1:55 3:03 \nWe are laughing\nwi ər ˈlæfɪŋ\nنحن نضحك\n\n0:59 2:08 3:16 \nShe is laughing\nʃi ɪz ˈlæfɪŋ\nإنها تضحك\n\n\n\nللمعلمين والمدارس:\nتم نشر هذا الفيديو تحت رخصة المشاع الإبداعي.\n  CC BY 3.0 https://creativecommons.org/licenses/by/3.0/ \nلا تتردد في استخدام هذا الفيديو في الفصول الدراسية!\n\nنستخدم خدمة الترجمة من Google للترجمة. إذا وجدت بعض الأخطاء ، يرجى إعلامنا.\n"
    },
    {
      "Lang": "az",
      "Title": "İngilis qrammatikası təlimləri | Sadə ⭐️ #18 -ing",
      "Description": "İngilis dili qrammatikasını öyrənin! Bir cümlədə bir söz dəyişdirin.\n\n\n\n0:04 1:16 2:24 \nYou are running\nju ər ˈrənɪŋ\nQaçırsınız\n\n0:18 1:29 2:37 \nShe is running\nʃi ɪz ˈrənɪŋ\nO qaçır\n\n0:32 1:42 2:50 \nWe are running\nwi ər ˈrənɪŋ\nQaçırıq\n\n0:45 1:55 3:03 \nWe are laughing\nwi ər ˈlæfɪŋ\nGülürük\n\n0:59 2:08 3:16 \nShe is laughing\nʃi ɪz ˈlæfɪŋ\nGülür\n\n\n\nMüəllimlərə və məktəblərə:\nBu video Creative Commons lisenziyası altında yayımlanıb.\n  CC BY 3.0 https://creativecommons.org/licenses/by/3.0/ \nBu videonu dərslərinizdə istifadə etməkdən çekinmeyin!\n\nLokallaşdırma üçün Google Translate xidmətindən istifadə edirik. Bəzi səhvlər taparsanız, bizə bildirin.\n"
    },
    {
      "Lang": "be",
      "Title": "Граматычныя практыкаванні на англійскай мове | Просты ⭐️ #18 -ing",
      "Description": "Вывучайце англійскую граматыку! Змяніце слова ў сказе.\n\n\n\n0:04 1:16 2:24 \nYou are running\nju ər ˈrənɪŋ\nВы бегаеце\n\n0:18 1:29 2:37 \nShe is running\nʃi ɪz ˈrənɪŋ\nЯна працуе\n\n0:32 1:42 2:50 \nWe are running\nwi ər ˈrənɪŋ\nМы бяжым\n\n0:45 1:55 3:03 \nWe are laughing\nwi ər ˈlæfɪŋ\nМы смяемся\n\n0:59 2:08 3:16 \nShe is laughing\nʃi ɪz ˈlæfɪŋ\nЯна смяецца\n\n\n\nДля настаўнікаў і школ:\nГэта відэа публікуецца пад ліцэнзіяй Creative Commons.\n  CC BY 3.0 https://creativecommons.org/licenses/by/3.0/ \nНе саромейцеся выкарыстоўваць гэта відэа ў сваіх класах!\n\nМы выкарыстоўваем паслугу Google Translate для лакалізацыі. Калі вы выявілі некаторыя памылкі, калі ласка, паведаміце нам пра гэта.\n"
    },
    {
      "Lang": "bg",
      "Title": "Английски граматически упражнения | прост ⭐️ #18 -ing",
      "Description": "Научете английска граматика! Промяна на дума в изречение.\n\n\n\n0:04 1:16 2:24 \nYou are running\nju ər ˈrənɪŋ\nТи бягаш\n\n0:18 1:29 2:37 \nShe is running\nʃi ɪz ˈrənɪŋ\nТя бяга\n\n0:32 1:42 2:50 \nWe are running\nwi ər ˈrənɪŋ\nБягаме\n\n0:45 1:55 3:03 \nWe are laughing\nwi ər ˈlæfɪŋ\nСмеем се\n\n0:59 2:08 3:16 \nShe is laughing\nʃi ɪz ˈlæfɪŋ\nТя се смее\n\n\n\nЗа учители и училища:\nТози видеоклип е публикуван под Creative Commons License.\n  CC BY 3.0 https://creativecommons.org/licenses/by/3.0/ \nЧувствайте се свободни да използвате това видео в класовете си!\n\nНие използваме услугата Google Translate за локализация. Ако откриете някои грешки, моля, уведомете ни.\n"
    },
    {
      "Lang": "bn",
      "Title": "ইংরেজি ব্যাকরণ অনুশীলন | সহজ ⭐️ #18 -ing",
      "Description": "ইংরেজি ব্যাকরণ শিখুন! একটি বাক্যে একটি শব্দ পরিবর্তন করুন।\n\n\n\n0:04 1:16 2:24 \nYou are running\nju ər ˈrənɪŋ\nতুমি দৌড়াচ্ছ\n\n0:18 1:29 2:37 \nShe is running\nʃi ɪz ˈrənɪŋ\nতিনি চলমান\n\n0:32 1:42 2:50 \nWe are running\nwi ər ˈrənɪŋ\nআমরা চলছে\n\n0:45 1:55 3:03 \nWe are laughing\nwi ər ˈlæfɪŋ\nআমরা হাসছি\n\n0:59 2:08 3:16 \nShe is laughing\nʃi ɪz ˈlæfɪŋ\nসে হাসছে\n\n\n\nশিক্ষক এবং বিদ্যালয়ের কাছে:\nএই ভিডিওটি ক্রিয়েটিভ কমন্স লাইসেন্সের আওতায় প্রকাশিত হয়েছে।\n  CC BY 3.0 https://creativecommons.org/licenses/by/3.0/ \nআপনার ক্লাসে এই ভিডিওটি নির্দ্বিধায় ব্যবহার করুন!\n\nআমরা স্থানীয়করণের জন্য গুগল অনুবাদ পরিষেবা ব্যবহার করি। আপনি যদি কিছু ভুল খুঁজে পান তবে দয়া করে আমাদের জানান।\n"
    },
    {
      "Lang": "bs",
      "Title": "Engleske gramatičke vježbe | Jednostavno ⭐️ #18 -ing",
      "Description": "Naučite englesku gramatiku! Promenite reč u rečenici.\n\n\n\n0:04 1:16 2:24 \nYou are running\nju ər ˈrənɪŋ\nTečeš\n\n0:18 1:29 2:37 \nShe is running\nʃi ɪz ˈrənɪŋ\nOna trči\n\n0:32 1:42 2:50 \nWe are running\nwi ər ˈrənɪŋ\nMi trčimo\n\n0:45 1:55 3:03 \nWe are laughing\nwi ər ˈlæfɪŋ\nSmijamo se\n\n0:59 2:08 3:16 \nShe is laughing\nʃi ɪz ˈlæfɪŋ\nOna se smije\n\n\n\nNastavnicima i školama:\nOvaj video je objavljen pod Creative Commons licencom.\n  CC BY 3.0 https://creativecommons.org/licenses/by/3.0/ \nSlobodno koristite ovaj videozapis u svojim predavanjima!\n\nZa lokalizaciju koristimo uslugu Google Translate. Ako pronađete neke greške, javite nam se.\n"
    },
    {
      "Lang": "ca",
      "Title": "Exercicis de gramàtica anglesa | Senzill ⭐️ #18 -ing",
      "Description": "Apreneu gramàtica anglesa! Canvia una paraula en una frase.\n\n\n\n0:04 1:16 2:24 \nYou are running\nju ər ˈrənɪŋ\nEstàs corrent\n\n0:18 1:29 2:37 \nShe is running\nʃi ɪz ˈrənɪŋ\nElla corre\n\n0:32 1:42 2:50 \nWe are running\nwi ər ˈrənɪŋ\nEstem corrent\n\n0:45 1:55 3:03 \nWe are laughing\nwi ər ˈlæfɪŋ\nEstem rient\n\n0:59 2:08 3:16 \nShe is laughing\nʃi ɪz ˈlæfɪŋ\nElla està rient\n\n\n\nA professors i escoles:\nAquest vídeo es publica sota llicència Creative Commons.\n  CC BY 3.0 https://creativecommons.org/licenses/by/3.0/ \nNo dubteu a utilitzar aquest vídeo a les vostres classes.\n\nUtilitzem el servei de Google Translate per a la localització. Si trobeu alguns errors, feu-nos-ho saber.\n"
    },
    {
      "Lang": "co",
      "Title": "Esercizii di grammatica inglese | Semplice ⭐️ #18 -ing",
      "Description": "Amparate a grammatica inglese! Cambia una parolla in una frase.\n\n\n\n0:04 1:16 2:24 \nYou are running\nju ər ˈrənɪŋ\nCorrete\n\n0:18 1:29 2:37 \nShe is running\nʃi ɪz ˈrənɪŋ\nCorre\n\n0:32 1:42 2:50 \nWe are running\nwi ər ˈrənɪŋ\nCorrem\n\n0:45 1:55 3:03 \nWe are laughing\nwi ər ˈlæfɪŋ\nSimu risi\n\n0:59 2:08 3:16 \nShe is laughing\nʃi ɪz ˈlæfɪŋ\nElla hè a risa\n\n\n\nÀ i prufessori è à e scole:\nStu video hè publicatu sottu licenza Creative Commons.\n  CC BY 3.0 https://creativecommons.org/licenses/by/3.0/ \nSentitevi liberi d'utilizà stu video in i vostri classi!\n\nUsu u serviziu di Google Translate per a localizazione. Se truvate qualchì sbagli, per piaceci di sapè.\n"
    },
    {
      "Lang": "cs",
      "Title": "Cvičení anglické gramatiky | Jednoduchý ⭐️ #18 -ing",
      "Description": "Naučte se anglickou gramatiku! Změňte slovo ve větě.\n\n\n\n0:04 1:16 2:24 \nYou are running\nju ər ˈrənɪŋ\nTy běžíš\n\n0:18 1:29 2:37 \nShe is running\nʃi ɪz ˈrənɪŋ\nOna běží\n\n0:32 1:42 2:50 \nWe are running\nwi ər ˈrənɪŋ\nBěžíme\n\n0:45 1:55 3:03 \nWe are laughing\nwi ər ˈlæfɪŋ\nSmějeme se\n\n0:59 2:08 3:16 \nShe is laughing\nʃi ɪz ˈlæfɪŋ\nSměje se\n\n\n\nUčitelům a školám:\nToto video je publikováno pod licencí Creative Commons License.\n  CC BY 3.0 https://creativecommons.org/licenses/by/3.0/ \nNeváhejte použít toto video ve svých třídách!\n\nK lokalizaci používáme službu Google Translate. Pokud narazíte na nějaké chyby, dejte nám prosím vědět.\n"
    },
    {
      "Lang": "cy",
      "Title": "Ymarferion gramadeg Saesneg | Syml ⭐️ #18 -ing",
      "Description": "Dysgu gramadeg Saesneg! Newid gair mewn brawddeg.\n\n\n\n0:04 1:16 2:24 \nYou are running\nju ər ˈrənɪŋ\nRydych chi'n rhedeg\n\n0:18 1:29 2:37 \nShe is running\nʃi ɪz ˈrənɪŋ\nMae hi'n rhedeg\n\n0:32 1:42 2:50 \nWe are running\nwi ər ˈrənɪŋ\nRydyn ni'n rhedeg\n\n0:45 1:55 3:03 \nWe are laughing\nwi ər ˈlæfɪŋ\nRydyn ni'n chwerthin\n\n0:59 2:08 3:16 \nShe is laughing\nʃi ɪz ˈlæfɪŋ\nMae hi'n chwerthin\n\n\n\nI athrawon ac ysgolion:\nCyhoeddir y fideo hon o dan Creative Commons License.\n  CC BY 3.0 https://creativecommons.org/licenses/by/3.0/ \nMae croeso i chi ddefnyddio'r fideo hon yn eich dosbarthiadau!\n\nRydym yn defnyddio gwasanaeth Google Translate ar gyfer lleoleiddio. Os dewch chi o hyd i rai camgymeriadau, rhowch wybod i ni.\n"
    },
    {
      "Lang": "da",
      "Title": "Engelsk grammatikøvelser | Enkel ⭐️ #18 -ing",
      "Description": "Lær engelsk grammatik! Skift et ord i en sætning.\n\n\n\n0:04 1:16 2:24 \nYou are running\nju ər ˈrənɪŋ\nDu kører\n\n0:18 1:29 2:37 \nShe is running\nʃi ɪz ˈrənɪŋ\nHun løber\n\n0:32 1:42 2:50 \nWe are running\nwi ər ˈrənɪŋ\nVi kører\n\n0:45 1:55 3:03 \nWe are laughing\nwi ər ˈlæfɪŋ\nVi griner\n\n0:59 2:08 3:16 \nShe is laughing\nʃi ɪz ˈlæfɪŋ\nHun griner\n\n\n\nTil lærere og skoler:\nDenne video er offentliggjort under Creative Commons License.\n  CC BY 3.0 https://creativecommons.org/licenses/by/3.0/ \nBrug gjerne denne video i dine klasser!\n\nVi bruger Google Translate-tjenesten til lokalisering. Hvis du finder nogle fejl, så lad os vide det.\n"
    },
    {
      "Lang": "de",
      "Title": "Englische Grammatikübungen | Einfach ⭐️ #18 -ing",
      "Description": "Lerne englische Grammatik! Ändern Sie ein Wort in einem Satz.\n\n\n\n0:04 1:16 2:24 \nYou are running\nju ər ˈrənɪŋ\nDu läufst\n\n0:18 1:29 2:37 \nShe is running\nʃi ɪz ˈrənɪŋ\nSie läuft\n\n0:32 1:42 2:50 \nWe are running\nwi ər ˈrənɪŋ\nWir rennen\n\n0:45 1:55 3:03 \nWe are laughing\nwi ər ˈlæfɪŋ\nWir lachen\n\n0:59 2:08 3:16 \nShe is laughing\nʃi ɪz ˈlæfɪŋ\nSie lacht\n\n\n\nAn Lehrer und Schulen:\nDieses Video wird unter der Creative Commons License veröffentlicht.\n  CC BY 3.0 https://creativecommons.org/licenses/by/3.0/ \nFühlen Sie sich frei, dieses Video in Ihren Klassen zu verwenden!\n\nWir verwenden den Google Translate-Dienst zur Lokalisierung. Wenn Sie Fehler finden, teilen Sie uns dies bitte mit.\n"
    },
    {
      "Lang": "el",
      "Title": "Αγγλικές ασκήσεις γραμματικής | Απλός ⭐️ #18 -ing",
      "Description": "Μάθετε αγγλική γραμματική! Αλλάξτε μια λέξη σε μια πρόταση.\n\n\n\n0:04 1:16 2:24 \nYou are running\nju ər ˈrənɪŋ\nΤρέχεις\n\n0:18 1:29 2:37 \nShe is running\nʃi ɪz ˈrənɪŋ\nΑυτή τρέχει\n\n0:32 1:42 2:50 \nWe are running\nwi ər ˈrənɪŋ\nΤρέχουμε\n\n0:45 1:55 3:03 \nWe are laughing\nwi ər ˈlæfɪŋ\nΓελώντας\n\n0:59 2:08 3:16 \nShe is laughing\nʃi ɪz ˈlæfɪŋ\nΓελώνει\n\n\n\nΣτους εκπαιδευτικούς και τα σχολεία:\nΑυτό το βίντεο δημοσιεύεται υπό Creative Commons License.\n  CC BY 3.0 https://creativecommons.org/licenses/by/3.0/ \nΜπορείτε να χρησιμοποιήσετε αυτό το βίντεο στις τάξεις σας!\n\nΧρησιμοποιούμε την υπηρεσία Google Translate για εντοπισμό. Αν βρείτε κάποια λάθη, ενημερώστε μας.\n"
    },
    {
      "Lang": "en",
      "Title": "English grammar exercises | Simple ⭐️ #18 -ing",
      "Description": "Learn English grammar! Change a word in a sentence.\n\n\n\n0:04 1:16 2:24 \nYou are running\nju ər ˈrənɪŋ\nYou are running\n\n0:18 1:29 2:37 \nShe is running\nʃi ɪz ˈrənɪŋ\nShe is running\n\n0:32 1:42 2:50 \nWe are running\nwi ər ˈrənɪŋ\nWe are running\n\n0:45 1:55 3:03 \nWe are laughing\nwi ər ˈlæfɪŋ\nWe are laughing\n\n0:59 2:08 3:16 \nShe is laughing\nʃi ɪz ˈlæfɪŋ\nShe is laughing\n\n\n\nTo teachers and schools:\nThis video is published under Creative Commons License.\n  CC BY 3.0 https://creativecommons.org/licenses/by/3.0/ \nFeel free to use this video in your classes!\n\nWe use Google Translate service for localization. If you find some mistakes, please let us know.\n"
    },
    {
      "Lang": "es",
      "Title": "Ejercicios de gramática inglesa | Sencillo ⭐️ #18 -ing",
      "Description": "¡Aprende gramática inglesa! Cambiar una palabra en una oración.\n\n\n\n0:04 1:16 2:24 \nYou are running\nju ər ˈrənɪŋ\nEstas corriendo\n\n0:18 1:29 2:37 \nShe is running\nʃi ɪz ˈrənɪŋ\nElla está corriendo\n\n0:32 1:42 2:50 \nWe are running\nwi ər ˈrənɪŋ\nEstamos corriendo\n\n0:45 1:55 3:03 \nWe are laughing\nwi ər ˈlæfɪŋ\nNos estamos riendo\n\n0:59 2:08 3:16 \nShe is laughing\nʃi ɪz ˈlæfɪŋ\nElla se está riendo\n\n\n\nA profesores y escuelas:\nEste video se publica bajo licencia Creative Commons.\n  CC BY 3.0 https://creativecommons.org/licenses/by/3.0/ \n¡Siéntete libre de usar este video en tus clases!\n\nUtilizamos el servicio Google Translate para la localización. Si encuentra algunos errores, háganoslo saber.\n"
    },
    {
      "Lang": "et",
      "Title": "Inglise keele grammatika harjutused | Lihtne ⭐️ #18 -ing",
      "Description": "Õpi inglise keele grammatikat! Muutke lauses sõna.\n\n\n\n0:04 1:16 2:24 \nYou are running\nju ər ˈrənɪŋ\nSa jooksed\n\n0:18 1:29 2:37 \nShe is running\nʃi ɪz ˈrənɪŋ\nTa jookseb\n\n0:32 1:42 2:50 \nWe are running\nwi ər ˈrənɪŋ\nMe jookseme\n\n0:45 1:55 3:03 \nWe are laughing\nwi ər ˈlæfɪŋ\nMe naerame\n\n0:59 2:08 3:16 \nShe is laughing\nʃi ɪz ˈlæfɪŋ\nTa naerab\n\n\n\nÕpetajatele ja koolidele:\nSee video on avaldatud Creative Commonsi litsentsi all.\n  CC BY 3.0 https://creativecommons.org/licenses/by/3.0/ \nKasutage seda videot julgelt oma tundides!\n\nLokaliseerimiseks kasutame Google'i tõlke teenust. Kui leiate vigu, palun andke meile sellest teada.\n"
    },
    {
      "Lang": "eu",
      "Title": "Ingelesezko gramatika ariketak | simple ⭐️ #18 -ing",
      "Description": "Ikasi ingelesezko gramatika! Aldatu esaldi batean hitzak.\n\n\n\n0:04 1:16 2:24 \nYou are running\nju ər ˈrənɪŋ\nKorrika ari zara\n\n0:18 1:29 2:37 \nShe is running\nʃi ɪz ˈrənɪŋ\nKorrika ari da\n\n0:32 1:42 2:50 \nWe are running\nwi ər ˈrənɪŋ\nKorrika ari gara\n\n0:45 1:55 3:03 \nWe are laughing\nwi ər ˈlæfɪŋ\nBarrez ari gara\n\n0:59 2:08 3:16 \nShe is laughing\nʃi ɪz ˈlæfɪŋ\nBarrez ari da\n\n\n\nIrakasleei eta ikastetxeei:\nBideo hau Creative Commons lizentziapean argitaratzen da.\n  CC BY 3.0 https://creativecommons.org/licenses/by/3.0/ \nEz ahaztu bideo hau zure klaseetan erabiltzeko!\n\nGoogle Translate zerbitzua erabiltzen dugu lokalizaziorako. Akats batzuk aurkitzen badituzu, adierazi iezaguzu\n"
    },
    {
      "Lang": "fa",
      "Title": "تمرین های دستور زبان انگلیسی | ساده ⭐️ #18 -ing",
      "Description": "گرامر انگلیسی را بیاموزید! یک کلمه را در یک جمله تغییر دهید.\n\n\n\n0:04 1:16 2:24 \nYou are running\nju ər ˈrənɪŋ\nشما در حال دویدن هستید\n\n0:18 1:29 2:37 \nShe is running\nʃi ɪz ˈrənɪŋ\nاو در حال دویدن است\n\n0:32 1:42 2:50 \nWe are running\nwi ər ˈrənɪŋ\nما در حال دویدن هستیم\n\n0:45 1:55 3:03 \nWe are laughing\nwi ər ˈlæfɪŋ\nما می خندیم\n\n0:59 2:08 3:16 \nShe is laughing\nʃi ɪz ˈlæfɪŋ\nاو دارد میخندد\n\n\n\nبه معلمان و مدارس:\nاین ویدیو تحت مجوز Creative Commons منتشر شده است.\n  CC BY 3.0 https://creativecommons.org/licenses/by/3.0/ \nدر استفاده از این فیلم در کلاس های خود احساس راحتی کنید!\n\nما از خدمات Google Translate برای محلی سازی استفاده می کنیم. اگر شما برخی از اشتباهات ، لطفا به ما اطلاع دهید.\n"
    },
    {
      "Lang": "fi",
      "Title": "Englannin kieliopin harjoitukset | Yksinkertainen ⭐️ #18 -ing",
      "Description": "Opi englannin kielioppi! Vaihda sana lauseessa.\n\n\n\n0:04 1:16 2:24 \nYou are running\nju ər ˈrənɪŋ\nJuokset\n\n0:18 1:29 2:37 \nShe is running\nʃi ɪz ˈrənɪŋ\nHän juoksee\n\n0:32 1:42 2:50 \nWe are running\nwi ər ˈrənɪŋ\nMe juoksemme\n\n0:45 1:55 3:03 \nWe are laughing\nwi ər ˈlæfɪŋ\nMe nauramme\n\n0:59 2:08 3:16 \nShe is laughing\nʃi ɪz ˈlæfɪŋ\nHän nauraa\n\n\n\nOpettajille ja kouluille:\nTämä video on julkaistu Creative Commons -lisenssillä.\n  CC BY 3.0 https://creativecommons.org/licenses/by/3.0/ \nVoit vapaasti käyttää tätä videota luokissa!\n\nKäytämme lokalisointiin Google Translate -palvelua. Jos löydät virheitä, ota meihin yhteyttä.\n"
    },
    {
      "Lang": "fil",
      "Title": "Pagsasanay sa grammar ng Ingles | Simple ⭐️ #18 -ing",
      "Description": "Alamin ang grammar ng Ingles! Baguhin ang isang salita sa isang pangungusap.\n\n\n\n0:04 1:16 2:24 \nYou are running\nju ər ˈrənɪŋ\nIkaw ay tumatakbo\n\n0:18 1:29 2:37 \nShe is running\nʃi ɪz ˈrənɪŋ\nTumatakbo siya\n\n0:32 1:42 2:50 \nWe are running\nwi ər ˈrənɪŋ\nTayo ay tumatakbo\n\n0:45 1:55 3:03 \nWe are laughing\nwi ər ˈlæfɪŋ\nNagtatawanan kami\n\n0:59 2:08 3:16 \nShe is laughing\nʃi ɪz ˈlæfɪŋ\nTumatawa siya\n\n\n\nSa mga guro at paaralan:\nAng video na ito ay nai-publish sa ilalim ng Lisensya ng Creative Commons.\n  CC BY 3.0 https://creativecommons.org/licenses/by/3.0/ \nHuwag mag-atubiling gamitin ang video na ito sa iyong mga klase!\n\nWe use Google Translate service for localization. If you find some mistakes, please let us know.\n"
    },
    {
      "Lang": "fr",
      "Title": "Exercices de grammaire anglaise | Facile ⭐️ #18 -ing",
      "Description": "Apprenez la grammaire anglaise! Changer un mot dans une phrase.\n\n\n\n0:04 1:16 2:24 \nYou are running\nju ər ˈrənɪŋ\nTu cours\n\n0:18 1:29 2:37 \nShe is running\nʃi ɪz ˈrənɪŋ\nElle court\n\n0:32 1:42 2:50 \nWe are running\nwi ər ˈrənɪŋ\nNous courons\n\n0:45 1:55 3:03 \nWe are laughing\nwi ər ˈlæfɪŋ\nNous rions\n\n0:59 2:08 3:16 \nShe is laughing\nʃi ɪz ˈlæfɪŋ\nElle rigole\n\n\n\nAux enseignants et aux écoles:\nCette vidéo est publiée sous licence Creative Commons.\n  CC BY 3.0 https://creativecommons.org/licenses/by/3.0/ \nN'hésitez pas à utiliser cette vidéo dans vos cours!\n\nNous utilisons le service Google Translate pour la localisation. Si vous trouvez des erreurs, veuillez nous en informer.\n"
    },
    {
      "Lang": "fy",
      "Title": "Ingelske oefeningen foar grammatika | Ienfâldich ⭐️ #18 -ing",
      "Description": "Learje Ingelske grammatika! Feroarje in wurd yn in sin.\n\n\n\n0:04 1:16 2:24 \nYou are running\nju ər ˈrənɪŋ\nJo rinne\n\n0:18 1:29 2:37 \nShe is running\nʃi ɪz ˈrənɪŋ\nSe rint\n\n0:32 1:42 2:50 \nWe are running\nwi ər ˈrənɪŋ\nWy rinne\n\n0:45 1:55 3:03 \nWe are laughing\nwi ər ˈlæfɪŋ\nWy laitsje\n\n0:59 2:08 3:16 \nShe is laughing\nʃi ɪz ˈlæfɪŋ\nSe laket\n\n\n\nOan dosinten en skoallen:\nDizze fideo wurdt publisearre ûnder Creative Commons License.\n  CC BY 3.0 https://creativecommons.org/licenses/by/3.0/ \nFiel jo frij om dizze fideo te brûken yn jo klassen!\n\nWy brûke Google Translate tsjinst foar lokalisaasje. As jo wat flaters fine, lit it ús dan witte.\n"
    },
    {
      "Lang": "gd",
      "Title": "Eacarsaichean gràmair Beurla | Gu sìmplidh ⭐️ #18 -ing",
      "Description": "Ionnsaich gràmar Beurla! Atharraich facal ann an seantans.\n\n\n\n0:04 1:16 2:24 \nYou are running\nju ər ˈrənɪŋ\nTha thu a ’ruith\n\n0:18 1:29 2:37 \nShe is running\nʃi ɪz ˈrənɪŋ\nTha i a ’ruith\n\n0:32 1:42 2:50 \nWe are running\nwi ər ˈrənɪŋ\nTha sinn a ’ruith\n\n0:45 1:55 3:03 \nWe are laughing\nwi ər ˈlæfɪŋ\nTha sinn a ’gàireachdainn\n\n0:59 2:08 3:16 \nShe is laughing\nʃi ɪz ˈlæfɪŋ\nTha i a ’gàireachdainn\n\n\n\nDo thidsearan agus sgoiltean:\nTha a ’bhidio seo air fhoillseachadh fo Creative Commons License.\n  CC BY 3.0 https://creativecommons.org/licenses/by/3.0/ \nFaodaidh tu am bhidio seo a chleachdadh anns na clasaichean agad!\n\nBidh sinn a ’cleachdadh seirbheis Google Translate airson sgìreachadh. Ma lorgas tu cuid de mhearachdan, feuch an innis thu dhuinn.\n"
    },
    {
      "Lang": "gl",
      "Title": "Exercicios de gramática inglesa | Sinxelo ⭐️ #18 -ing",
      "Description": "Aprende gramática inglesa! Cambia unha palabra nunha frase.\n\n\n\n0:04 1:16 2:24 \nYou are running\nju ər ˈrənɪŋ\nEstá a correr\n\n0:18 1:29 2:37 \nShe is running\nʃi ɪz ˈrənɪŋ\nEla corre\n\n0:32 1:42 2:50 \nWe are running\nwi ər ˈrənɪŋ\nEstamos correndo\n\n0:45 1:55 3:03 \nWe are laughing\nwi ər ˈlæfɪŋ\nEstamos rindo\n\n0:59 2:08 3:16 \nShe is laughing\nʃi ɪz ˈlæfɪŋ\nEla está a rir\n\n\n\nPara profesores e colexios:\nEste vídeo está publicado baixo a licenza Creative Commons.\n  CC BY 3.0 https://creativecommons.org/licenses/by/3.0/ \nNon dubides en usar este vídeo nas túas clases.\n\nUsamos o servizo Google Translate para a súa localización. Se atopas algún erro, comunícanos.\n"
    },
    {
      "Lang": "gu",
      "Title": "અંગ્રેજી વ્યાકરણ વ્યાયામ | સરળ ⭐️ #18 -ing",
      "Description": "અંગ્રેજી વ્યાકરણ શીખો! એક વાક્યમાં એક શબ્દ બદલો.\n\n\n\n0:04 1:16 2:24 \nYou are running\nju ər ˈrənɪŋ\nતમે દોડી રહ્યા છો\n\n0:18 1:29 2:37 \nShe is running\nʃi ɪz ˈrənɪŋ\nતે ચાલી રહી છે\n\n0:32 1:42 2:50 \nWe are running\nwi ər ˈrənɪŋ\nઅમે દોડીએ છીએ\n\n0:45 1:55 3:03 \nWe are laughing\nwi ər ˈlæfɪŋ\nઆપણે હસીએ છીએ\n\n0:59 2:08 3:16 \nShe is laughing\nʃi ɪz ˈlæfɪŋ\nતે હસી રહી છે\n\n\n\nશિક્ષકો અને શાળાઓને:\nઆ વિડિઓ ક્રિએટિવ કonsમન્સ લાઇસન્સ હેઠળ પ્રકાશિત છે.\n  CC BY 3.0 https://creativecommons.org/licenses/by/3.0/ \nતમારા વર્ગોમાં આ વિડિઓનો ઉપયોગ કરવા માટે મફત લાગે!\n\nઅમે સ્થાનિકીકરણ માટે Google ભાષાંતર સેવાનો ઉપયોગ કરીએ છીએ. જો તમને કેટલીક ભૂલો લાગે છે, તો કૃપા કરીને અમને જણાવો.\n"
    },
    {
      "Lang": "ha",
      "Title": "Darasi na ilimin nahawu na Turanci | Mai sauki ⭐️ #18 -ing",
      "Description": "Koyi ilimin nahawu Turanci! Canja kalma a cikin jumla.\n\n\n\n0:04 1:16 2:24 \nYou are running\nju ər ˈrənɪŋ\nKuna gudana\n\n0:18 1:29 2:37 \nShe is running\nʃi ɪz ˈrənɪŋ\nTana gudu\n\n0:32 1:42 2:50 \nWe are running\nwi ər ˈrənɪŋ\nMuna gudana\n\n0:45 1:55 3:03 \nWe are laughing\nwi ər ˈlæfɪŋ\nMuna dariya\n\n0:59 2:08 3:16 \nShe is laughing\nʃi ɪz ˈlæfɪŋ\nTana dariya\n\n\n\nGa malamai da makarantu:\nWannan bidiyon an buga shi a ƙarƙashin lasisin Creative Commons.\n  CC BY 3.0 https://creativecommons.org/licenses/by/3.0/ \nJin kyauta don amfani da wannan bidiyon a cikin azuzuwanku!\n\nMuna amfani da sabis na Google Fassara don fassarar. Idan ka sami wasu kurakurai, da fatan za a sanar da mu.\n"
    },
    {
      "Lang": "hi",
      "Title": "अंग्रेजी व्याकरण अभ्यास | सरल ⭐️ #18 -ing",
      "Description": "अंग्रेजी व्याकरण जानें! एक वाक्य में एक शब्द बदलें।\n\n\n\n0:04 1:16 2:24 \nYou are running\nju ər ˈrənɪŋ\nतुम दौड़ रहे हो\n\n0:18 1:29 2:37 \nShe is running\nʃi ɪz ˈrənɪŋ\nवह दौड़ रही है\n\n0:32 1:42 2:50 \nWe are running\nwi ər ˈrənɪŋ\nहम दौड़ रहे हैं\n\n0:45 1:55 3:03 \nWe are laughing\nwi ər ˈlæfɪŋ\nहम हंस रहे हैं\n\n0:59 2:08 3:16 \nShe is laughing\nʃi ɪz ˈlæfɪŋ\nवह हंस रही है\n\n\n\nशिक्षकों और स्कूलों के लिए:\nयह वीडियो क्रिएटिव कॉमन्स लाइसेंस के तहत प्रकाशित हुआ है।\n  CC BY 3.0 https://creativecommons.org/licenses/by/3.0/ \nअपनी कक्षाओं में इस वीडियो का उपयोग करने के लिए स्वतंत्र महसूस करें!\n\nहम स्थानीयकरण के लिए Google अनुवाद सेवा का उपयोग करते हैं। यदि आप कुछ गलतियाँ पाते हैं, तो कृपया हमें बताएँ।\n"
    },
    {
      "Lang": "hr",
      "Title": "Gramatičke vježbe engleskog jezika | Jednostavan ⭐️ #18 -ing",
      "Description": "Naučite englesku gramatiku! Promijenite riječ u rečenici.\n\n\n\n0:04 1:16 2:24 \nYou are running\nju ər ˈrənɪŋ\nVi trčite\n\n0:18 1:29 2:37 \nShe is running\nʃi ɪz ˈrənɪŋ\nOna trči\n\n0:32 1:42 2:50 \nWe are running\nwi ər ˈrənɪŋ\nMi trčimo\n\n0:45 1:55 3:03 \nWe are laughing\nwi ər ˈlæfɪŋ\nSmijemo se\n\n0:59 2:08 3:16 \nShe is laughing\nʃi ɪz ˈlæfɪŋ\nOna se smije\n\n\n\nNastavnicima i školama:\nOvaj videozapis objavljen je pod licencom Creative Commons.\n  CC BY 3.0 https://creativecommons.org/licenses/by/3.0/ \nSlobodno upotrijebite ovaj videozapis u svojim predavanjima!\n\nZa lokalizaciju koristimo uslugu Google Translate. Ako pronađete neke pogreške, javite nam se.\n"
    },
    {
      "Lang": "hu",
      "Title": "Angol nyelvtan gyakorlatok | Egyszerű ⭐️ #18 -ing",
      "Description": "Tanulj angol nyelvtant! Változtasson egy szót egy mondatban.\n\n\n\n0:04 1:16 2:24 \nYou are running\nju ər ˈrənɪŋ\nTe futsz\n\n0:18 1:29 2:37 \nShe is running\nʃi ɪz ˈrənɪŋ\nŐ fut\n\n0:32 1:42 2:50 \nWe are running\nwi ər ˈrənɪŋ\nFutunk\n\n0:45 1:55 3:03 \nWe are laughing\nwi ər ˈlæfɪŋ\nNevetünk\n\n0:59 2:08 3:16 \nShe is laughing\nʃi ɪz ˈlæfɪŋ\nNevet\n\n\n\nTanároknak és iskoláknak:\nEz a videó a Creative Commons License alatt jelenik meg.\n  CC BY 3.0 https://creativecommons.org/licenses/by/3.0/ \nNyugodtan használja ezt a videót az osztályokban!\n\nA lokalizációhoz a Google Translate szolgáltatást használjuk. Ha hibát talál, kérjük, ossza meg velünk.\n"
    },
    {
      "Lang": "hy",
      "Title": "Անգլերենի քերականական վարժություններ | Պարզ ⭐️ #18 -ing",
      "Description": "Իմացեք անգլերեն քերականությունը: Մի նախադասությամբ մի բառ փոխեք:\n\n\n\n0:04 1:16 2:24 \nYou are running\nju ər ˈrənɪŋ\nԴուք վազում եք\n\n0:18 1:29 2:37 \nShe is running\nʃi ɪz ˈrənɪŋ\nՆա վազում է\n\n0:32 1:42 2:50 \nWe are running\nwi ər ˈrənɪŋ\nՄենք վազում ենք\n\n0:45 1:55 3:03 \nWe are laughing\nwi ər ˈlæfɪŋ\nՄենք ծիծաղում ենք\n\n0:59 2:08 3:16 \nShe is laughing\nʃi ɪz ˈlæfɪŋ\nՆա ծիծաղում է\n\n\n\nՈւսուցիչներին և դպրոցներին.\nԱյս տեսանյութը հրապարակված է Creative Commons արտոնագրի ներքո:\n  CC BY 3.0 https://creativecommons.org/licenses/by/3.0/ \nԱզատորեն օգտվեք այս տեսանյութից ձեր դասերից:\n\nՄենք օգտագործում ենք Google Translate ծառայությունը տեղայնացման համար: Եթե որոշ սխալներ եք գտնում, խնդրում ենք տեղեկացնել մեզ:\n"
    },
    {
      "Lang": "id",
      "Title": "Latihan tata bahasa Inggris | Sederhana ⭐️ #18 -ing",
      "Description": "Belajar tata bahasa Inggris! Ubah kata dalam kalimat.\n\n\n\n0:04 1:16 2:24 \nYou are running\nju ər ˈrənɪŋ\nKamu sedang berlari\n\n0:18 1:29 2:37 \nShe is running\nʃi ɪz ˈrənɪŋ\nDia sedang berlari\n\n0:32 1:42 2:50 \nWe are running\nwi ər ˈrənɪŋ\nKami berlari\n\n0:45 1:55 3:03 \nWe are laughing\nwi ər ˈlæfɪŋ\nKami tertawa\n\n0:59 2:08 3:16 \nShe is laughing\nʃi ɪz ˈlæfɪŋ\nDia sedang tertawa\n\n\n\nKepada guru dan sekolah:\nVideo ini diterbitkan di bawah Lisensi Creative Commons.\n  CC BY 3.0 https://creativecommons.org/licenses/by/3.0/ \nJangan ragu untuk menggunakan video ini di kelas Anda!\n\nKami menggunakan layanan Google Terjemahan untuk pelokalan. Jika Anda menemukan beberapa kesalahan, beri tahu kami.\n"
    },
    {
      "Lang": "ig",
      "Title": "Ọmụmụ asụsụ ụtọ asụsụ Bekee | Dị Mfe ⭐️ #18 -ing",
      "Description": "Muta asusu bekee! Gbanwee okwu na ahịrịokwu.\n\n\n\n0:04 1:16 2:24 \nYou are running\nju ər ˈrənɪŋ\nAre na-agba\n\n0:18 1:29 2:37 \nShe is running\nʃi ɪz ˈrənɪŋ\nỌ na-agba ọsọ\n\n0:32 1:42 2:50 \nWe are running\nwi ər ˈrənɪŋ\nAnyị na-agba ọsọ\n\n0:45 1:55 3:03 \nWe are laughing\nwi ər ˈlæfɪŋ\nAnyị na-achị ọchị\n\n0:59 2:08 3:16 \nShe is laughing\nʃi ɪz ˈlæfɪŋ\nỌ na-achị ọchị\n\n\n\nMaka ndị nkuzi na ụlọ akwụkwọ:\nEdere vidiyo a n'okpuru ikikere Creative Commons.\n  CC BY 3.0 https://creativecommons.org/licenses/by/3.0/ \nNwere onwe gị iji vidiyo a na klaasị gị!\n\nAnyị na-eji ọrụ ntụgharị Google emegharị. Ọ bụrụ n’ịhụ ụfọdụ mmejọ, biko mee ka anyị mara.\n"
    },
    {
      "Lang": "is",
      "Title": "Enskar málfræðiæfingar | Einfalt ⭐️ #18 -ing",
      "Description": "Lærðu ensku málfræði! Skiptu um orð í setningu.\n\n\n\n0:04 1:16 2:24 \nYou are running\nju ər ˈrənɪŋ\nÞú ert að hlaupa\n\n0:18 1:29 2:37 \nShe is running\nʃi ɪz ˈrənɪŋ\nHún er að hlaupa\n\n0:32 1:42 2:50 \nWe are running\nwi ər ˈrənɪŋ\nVið erum í gangi\n\n0:45 1:55 3:03 \nWe are laughing\nwi ər ˈlæfɪŋ\nVið erum að hlæja\n\n0:59 2:08 3:16 \nShe is laughing\nʃi ɪz ˈlæfɪŋ\nHún hlær\n\n\n\nTil kennara og skóla:\nÞetta myndband er birt undir Creative Commons leyfi.\n  CC BY 3.0 https://creativecommons.org/licenses/by/3.0/ \nEkki hika við að nota þetta myndband í bekkjum þínum!\n\nVið notum Google Translate þjónustu til að staðsetja. Láttu okkur vita ef þú finnur fyrir einhverjum mistökum.\n"
    },
    {
      "Lang": "it",
      "Title": "Esercizi di grammatica inglese | Semplice ⭐️ #18 -ing",
      "Description": "Impara la grammatica inglese! Cambia una parola in una frase.\n\n\n\n0:04 1:16 2:24 \nYou are running\nju ər ˈrənɪŋ\nStai correndo\n\n0:18 1:29 2:37 \nShe is running\nʃi ɪz ˈrənɪŋ\nLei sta correndo\n\n0:32 1:42 2:50 \nWe are running\nwi ər ˈrənɪŋ\nStiamo correndo\n\n0:45 1:55 3:03 \nWe are laughing\nwi ər ˈlæfɪŋ\nStiamo ridendo\n\n0:59 2:08 3:16 \nShe is laughing\nʃi ɪz ˈlæfɪŋ\nLei sta ridendo\n\n\n\nPer insegnanti e scuole:\nQuesto video è pubblicato sotto la licenza Creative Commons.\n  CC BY 3.0 https://creativecommons.org/licenses/by/3.0/ \nSentiti libero di usare questo video nelle tue lezioni!\n\nUtilizziamo il servizio Google Translate per la localizzazione. Se trovi qualche errore, faccelo sapere.\n"
    },
    {
      "Lang": "iw",
      "Title": "תרגילי דקדוק באנגלית | פשוט ⭐️ #18 -ing",
      "Description": "למד דקדוק באנגלית! שנה מילה במשפט.\n\n\n\n0:04 1:16 2:24 \nYou are running\nju ər ˈrənɪŋ\nאתה רץ\n\n0:18 1:29 2:37 \nShe is running\nʃi ɪz ˈrənɪŋ\nהיא רצה\n\n0:32 1:42 2:50 \nWe are running\nwi ər ˈrənɪŋ\nאנחנו רצים\n\n0:45 1:55 3:03 \nWe are laughing\nwi ər ˈlæfɪŋ\nאנחנו צוחקים\n\n0:59 2:08 3:16 \nShe is laughing\nʃi ɪz ˈlæfɪŋ\nהיא צוחקת\n\n\n\nלמורים ובתי ספר:\nסרטון זה מתפרסם תחת רישיון Creative Commons.\n  CC BY 3.0 https://creativecommons.org/licenses/by/3.0/ \nאל תהסס להשתמש בסרטון זה בשיעורים שלך!\n\nאנו משתמשים בשירות Google Translate לצורך לוקליזציה. אם אתה מוצא טעויות, אנא הודע לנו על כך.\n"
    },
    {
      "Lang": "ja",
      "Title": "英文法練習 | シンプル ⭐️ #18 -ing",
      "Description": "英語の文法を学びましょう！ 文中の単語を変更します。\n\n\n\n0:04 1:16 2:24 \nYou are running\nju ər ˈrənɪŋ\nあなたは走っている\n\n0:18 1:29 2:37 \nShe is running\nʃi ɪz ˈrənɪŋ\n彼女は走っている\n\n0:32 1:42 2:50 \nWe are running\nwi ər ˈrənɪŋ\n私たちは走っています\n\n0:45 1:55 3:03 \nWe are laughing\nwi ər ˈlæfɪŋ\n私たちは笑っている\n\n0:59 2:08 3:16 \nShe is laughing\nʃi ɪz ˈlæfɪŋ\n彼女は笑っている\n\n\n\n先生と学校へ：\nこのビデオは、クリエイティブコモンズライセンスの下で公開されています。\n  CC BY 3.0 https://creativecommons.org/licenses/by/3.0/ \nこのビデオをクラスで自由に使用してください！\n\nローカライズにはGoogle翻訳サービスを使用しています。間違いを見つけた場合はお知らせください。\n"
    },
    {
      "Lang": "jv",
      "Title": "Latihan grammar Inggris | Prasaja ⭐️ #18 -ing",
      "Description": "Sinau tata basa Inggris! Ngganti tembung sajrone ukara.\n\n\n\n0:04 1:16 2:24 \nYou are running\nju ər ˈrənɪŋ\nSampeyan mlaku\n\n0:18 1:29 2:37 \nShe is running\nʃi ɪz ˈrənɪŋ\nDheweke mlaku\n\n0:32 1:42 2:50 \nWe are running\nwi ər ˈrənɪŋ\nKita lagi mlaku\n\n0:45 1:55 3:03 \nWe are laughing\nwi ər ˈlæfɪŋ\nKita padha ngguyu\n\n0:59 2:08 3:16 \nShe is laughing\nʃi ɪz ˈlæfɪŋ\nDheweke ngguyu\n\n\n\nTumrap guru lan sekolah:\nVideo iki diterbitake ing lisensi Creative Commons.\n  CC BY 3.0 https://creativecommons.org/licenses/by/3.0/ \nOjo nggunakake video iki ing kelas sampeyan!\n\nKita nggunakake layanan Google Translate kanggo lokalisasi. Yen sampeyan nemokake sawetara kesalahan, kabari.\n"
    },
    {
      "Lang": "ka",
      "Title": "ინგლისური გრამატიკის სავარჯიშოები | მარტივი ⭐️ #18 -ing",
      "Description": "შეიტყვეთ ინგლისური ენის გრამატიკა! წინადადებაში შეცვალეთ სიტყვა.\n\n\n\n0:04 1:16 2:24 \nYou are running\nju ər ˈrənɪŋ\nშენ გარბოდი\n\n0:18 1:29 2:37 \nShe is running\nʃi ɪz ˈrənɪŋ\nᲘს დარბის\n\n0:32 1:42 2:50 \nWe are running\nwi ər ˈrənɪŋ\nჩვენ გარბოდა\n\n0:45 1:55 3:03 \nWe are laughing\nwi ər ˈlæfɪŋ\nვიცინი\n\n0:59 2:08 3:16 \nShe is laughing\nʃi ɪz ˈlæfɪŋ\nიგი იცინის\n\n\n\nმასწავლებლებსა და სკოლებს:\nეს ვიდეო გამოქვეყნებულია Creative Commons- ის ლიცენზიით.\n  CC BY 3.0 https://creativecommons.org/licenses/by/3.0/ \nშეგიძლიათ გამოიყენოთ ეს ვიდეო თქვენს კლასებში!\n\nჩვენ ვიყენებთ Google Translate სერვისს ლოკალიზაციისთვის. თუ შეცდომებს იპოვნით, გთხოვთ, შეგვატყობინოთ.\n"
    },
    {
      "Lang": "kk",
      "Title": "Ағылшын грамматикалық жаттығулары | Қарапайым ⭐️ #18 -ing",
      "Description": "Ағылшын грамматикасын үйрен! Сөйлемдегі сөзді өзгертіңіз.\n\n\n\n0:04 1:16 2:24 \nYou are running\nju ər ˈrənɪŋ\nСіз жүгіріп жүрсіз\n\n0:18 1:29 2:37 \nShe is running\nʃi ɪz ˈrənɪŋ\nОл жүгіріп келеді\n\n0:32 1:42 2:50 \nWe are running\nwi ər ˈrənɪŋ\nБіз жүгіріп жүрміз\n\n0:45 1:55 3:03 \nWe are laughing\nwi ər ˈlæfɪŋ\nКүлеміз\n\n0:59 2:08 3:16 \nShe is laughing\nʃi ɪz ˈlæfɪŋ\nКүліп жатыр\n\n\n\nОқытушылар мен мектептерге:\nБұл бейне Creative Commons лицензиясы бойынша жарияланған.\n  CC BY 3.0 https://creativecommons.org/licenses/by/3.0/ \nБұл бейнені өз сабақтарыңызда қолдануға болады!\n\nGoogle Translate қызметін локализациялау үшін қолданамыз. Егер сіз қате тапсаңыз, бізге хабарлаңыз.\n"
    },
    {
      "Lang": "km",
      "Title": "លំហាត់វេយ្យាករណ៍អង់គ្លេស | សាមញ្ញ ⭐️ #18 -ing",
      "Description": "រៀនវេយ្យាករណ៍អង់គ្លេស! ផ្លាស់ប្តូរពាក្យនៅក្នុងប្រយោគមួយ។\n\n\n\n0:04 1:16 2:24 \nYou are running\nju ər ˈrənɪŋ\nអ្នកកំពុងរត់\n\n0:18 1:29 2:37 \nShe is running\nʃi ɪz ˈrənɪŋ\nនាង​កំពុង​រត់\n\n0:32 1:42 2:50 \nWe are running\nwi ər ˈrənɪŋ\nយើងកំពុងដំណើរការ\n\n0:45 1:55 3:03 \nWe are laughing\nwi ər ˈlæfɪŋ\nយើងកំពុងសើច\n\n0:59 2:08 3:16 \nShe is laughing\nʃi ɪz ˈlæfɪŋ\nនាងកំពុងសើច\n\n\n\nជូនដល់គ្រូនិងសាលា៖\nវីដេអូនេះត្រូវបានផ្សព្វផ្សាយក្រោមអាជ្ញាប័ណ្ណច្នៃប្រឌិត។\n  CC BY 3.0 https://creativecommons.org/licenses/by/3.0/ \nសូមប្រើវីដេអូនេះនៅក្នុងថ្នាក់របស់អ្នកដោយឥតគិតថ្លៃ!\n\nយើងប្រើសេវាកម្មបកប្រែហ្គូហ្គលសម្រាប់ការធ្វើមូលដ្ឋានីយកម្ម។ ប្រសិនបើអ្នករកឃើញកំហុសខ្លះសូមប្រាប់ឱ្យយើងដឹង។\n"
    },
    {
      "Lang": "kn",
      "Title": "ಇಂಗ್ಲಿಷ್ ವ್ಯಾಕರಣ ವ್ಯಾಯಾಮ | ಸರಳ ⭐️ #18 -ing",
      "Description": "ಇಂಗ್ಲಿಷ್ ವ್ಯಾಕರಣ ಕಲಿಯಿರಿ! ಒಂದು ವಾಕ್ಯದಲ್ಲಿ ಪದವನ್ನು ಬದಲಾಯಿಸಿ.\n\n\n\n0:04 1:16 2:24 \nYou are running\nju ər ˈrənɪŋ\nನೀವು ಓಡುತ್ತಿದ್ದೀರಿ\n\n0:18 1:29 2:37 \nShe is running\nʃi ɪz ˈrənɪŋ\nಅವಳು ಓಡುತ್ತಿದ್ದಾಳೆ\n\n0:32 1:42 2:50 \nWe are running\nwi ər ˈrənɪŋ\nನಾವು ಓಡುತ್ತಿದ್ದೇವೆ\n\n0:45 1:55 3:03 \nWe are laughing\nwi ər ˈlæfɪŋ\nನಾವು ನಗುತ್ತಿದ್ದೇವೆ\n\n0:59 2:08 3:16 \nShe is laughing\nʃi ɪz ˈlæfɪŋ\nಅವಳು ನಗುತ್ತಿದ್ದಾಳೆ\n\n\n\nಶಿಕ್ಷಕರು ಮತ್ತು ಶಾಲೆಗಳಿಗೆ:\nಈ ವೀಡಿಯೊವನ್ನು ಕ್ರಿಯೇಟಿವ್ ಕಾಮನ್ಸ್ ಪರವಾನಗಿ ಅಡಿಯಲ್ಲಿ ಪ್ರಕಟಿಸಲಾಗಿದೆ.\n  CC BY 3.0 https://creativecommons.org/licenses/by/3.0/ \nನಿಮ್ಮ ತರಗತಿಗಳಲ್ಲಿ ಈ ವೀಡಿಯೊವನ್ನು ಬಳಸಲು ಹಿಂಜರಿಯಬೇಡಿ!\n\nಸ್ಥಳೀಕರಣಕ್ಕಾಗಿ ನಾವು Google ಅನುವಾದ ಸೇವೆಯನ್ನು ಬಳಸುತ್ತೇವೆ. ನೀವು ಕೆಲವು ತಪ್ಪುಗಳನ್ನು ಕಂಡುಕೊಂಡರೆ, ದಯವಿಟ್ಟು ನಮಗೆ ತಿಳಿಸಿ.\n"
    },
    {
      "Lang": "ko",
      "Title": "영어 문법 연습 | 단순한 ⭐️ #18 -ing",
      "Description": "영어 문법 배우기! 문장에서 단어를 변경하십시오.\n\n\n\n0:04 1:16 2:24 \nYou are running\nju ər ˈrənɪŋ\n당신은 실행\n\n0:18 1:29 2:37 \nShe is running\nʃi ɪz ˈrənɪŋ\n그녀는 달리고있다\n\n0:32 1:42 2:50 \nWe are running\nwi ər ˈrənɪŋ\n우리는 달리고있다\n\n0:45 1:55 3:03 \nWe are laughing\nwi ər ˈlæfɪŋ\n우린 웃고있어\n\n0:59 2:08 3:16 \nShe is laughing\nʃi ɪz ˈlæfɪŋ\n그녀는 웃고있다\n\n\n\n교사와 학교 :\n이 비디오는 Creative Commons License에 따라 게시됩니다.\n  CC BY 3.0 https://creativecommons.org/licenses/by/3.0/ \n이 비디오를 수업에 자유롭게 사용하십시오!\n\n현지화를 위해 Google 번역 서비스를 사용합니다. 실수가 있으면 알려주세요.\n"
    },
    {
      "Lang": "ku",
      "Title": "Pratîkên rêzimanê Englishngilîzî | Asan ⭐️ #18 -ing",
      "Description": "Gramera Englishngilîzî fêr bibin! Di hevokan de peyvek diguhezin.\n\n\n\n0:04 1:16 2:24 \nYou are running\nju ər ˈrənɪŋ\nHûn direvin\n\n0:18 1:29 2:37 \nShe is running\nʃi ɪz ˈrənɪŋ\nEw direve\n\n0:32 1:42 2:50 \nWe are running\nwi ər ˈrənɪŋ\nEm dimeşin\n\n0:45 1:55 3:03 \nWe are laughing\nwi ər ˈlæfɪŋ\nEm dikenin\n\n0:59 2:08 3:16 \nShe is laughing\nʃi ɪz ˈlæfɪŋ\nEw kenîn\n\n\n\nJi mamoste û dibistanan re:\nEv vîdyoyê di bin lîsansa Creative Commons-ê de hatî weşandin.\n  CC BY 3.0 https://creativecommons.org/licenses/by/3.0/ \nHêsan e ku hûn vê vîdyoyê di sinifên xwe de bikar bînin!\n\nEm ji bo herêmbûnê karûbarê Google Translate kar dikin. Heke hûn hin xeletiyan bibînin, ji kerema xwe ji me re agahdar bikin.\n"
    },
    {
      "Lang": "ky",
      "Title": "Англис тилинин грамматикасы боюнча көнүгүүлөр | жөнөкөй ⭐️ #18 -ing",
      "Description": "Үйрөнүү Англис тилинин грамматикасы! Сүйлөмдөгү Сөздү өзгөртүү.\n\n\n\n0:04 1:16 2:24 \nYou are running\nju ər ˈrənɪŋ\nСиз иштеп жатат\n\n0:18 1:29 2:37 \nShe is running\nʃi ɪz ˈrənɪŋ\nАл иштеп жатат\n\n0:32 1:42 2:50 \nWe are running\nwi ər ˈrənɪŋ\nБиз иштеп жатабыз\n\n0:45 1:55 3:03 \nWe are laughing\nwi ər ˈlæfɪŋ\nКүлгөндө\n\n0:59 2:08 3:16 \nShe is laughing\nʃi ɪz ˈlæfɪŋ\nАл күлүп жатат\n\n\n\nмугалимдер жана мектептер үчүн:\nБул көргөзмө Creative Commons лиссиэнсийэ усулуобуйатынан жарыяланат.\n  CC BY 3.0 https://creativecommons.org/licenses/by/3.0/ \nСиздин класстары колдонсо болот!\n\nБиз Google локалдаштыруу үчүн Котормо кызматын пайдаланышат. Эгер кээ бир ката болсо, бизге айтып койуу.\n"
    },
    {
      "Lang": "lb",
      "Title": "Englesch Grammatikübungen | Einfach ⭐️ #18 -ing",
      "Description": "Léiert Englesch Grammatik! Ännert e Wuert an engem Saz.\n\n\n\n0:04 1:16 2:24 \nYou are running\nju ər ˈrənɪŋ\nDir lafen\n\n0:18 1:29 2:37 \nShe is running\nʃi ɪz ˈrənɪŋ\nHatt leeft\n\n0:32 1:42 2:50 \nWe are running\nwi ər ˈrənɪŋ\nMir lafen\n\n0:45 1:55 3:03 \nWe are laughing\nwi ər ˈlæfɪŋ\nMir sinn ze laachen\n\n0:59 2:08 3:16 \nShe is laughing\nʃi ɪz ˈlæfɪŋ\nSi ass ze laachen\n\n\n\nUn de Schoulmeeschteren an d'Schoulen:\nDëse Video ass ënner der Creative Commons Lizenz verëffentlecht.\n  CC BY 3.0 https://creativecommons.org/licenses/by/3.0/ \nFillt gratis dësen Video zu Ären Klassen ze benotzen!\n\nMir benotzen den Google Translate Service fir d'Lokalisatioun. Wann Dir e puer Feeler fannt, da sot eis w.e.g.\n"
    },
    {
      "Lang": "lo",
      "Title": "ບົດເຝິກຫັດໄວຍາກອນພາສາອັງກິດ | ງ່າຍດາຍ ⭐️ #18 -ing",
      "Description": "ຮຽນຮູ້ຫລັກໄວຍາກອນພາສາອັງກິດ! ປ່ຽນ ຄຳ ສັບໃນປະໂຫຍກ.\n\n\n\n0:04 1:16 2:24 \nYou are running\nju ər ˈrənɪŋ\nທ່ານ ກຳ ລັງແລ່ນຢູ່\n\n0:18 1:29 2:37 \nShe is running\nʃi ɪz ˈrənɪŋ\nນາງ ກຳ ລັງແລ່ນຢູ່\n\n0:32 1:42 2:50 \nWe are running\nwi ər ˈrənɪŋ\nພວກເຮົາ ກຳ ລັງແລ່ນຢູ່\n\n0:45 1:55 3:03 \nWe are laughing\nwi ər ˈlæfɪŋ\nພວກເຮົາ ກຳ ລັງຫົວເລາະ\n\n0:59 2:08 3:16 \nShe is laughing\nʃi ɪz ˈlæfɪŋ\nນາງ ກຳ ລັງຫົວຂວັນ\n\n\n\nເຖິງຄູອາຈານແລະໂຮງຮຽນ:\nວິດີໂອນີ້ລົງພາຍໃຕ້ໃບອະນຸຍາດສ້າງສັນ.\n  CC BY 3.0 https://creativecommons.org/licenses/by/3.0/ \nຮູ້ສຶກວ່າບໍ່ເສຍຄ່າທີ່ຈະໃຊ້ວິດີໂອນີ້ໃນຫ້ອງຮຽນຂອງທ່ານ!\n\nພວກເຮົາໃຊ້ບໍລິການ Google Translate ສຳ ລັບການແປພາສາທ້ອງຖິ່ນ. ຖ້າທ່ານພົບຂໍ້ຜິດພາດບາງຢ່າງ, ກະລຸນາແຈ້ງພວກເຮົາ.\n"
    },
    {
      "Lang": "lt",
      "Title": "Anglų kalbos gramatikos pratimai | Paprasta ⭐️ #18 -ing",
      "Description": "Išmokite anglų kalbos gramatiką! Pakeiskite žodį sakinyje.\n\n\n\n0:04 1:16 2:24 \nYou are running\nju ər ˈrənɪŋ\nJūs bėgate\n\n0:18 1:29 2:37 \nShe is running\nʃi ɪz ˈrənɪŋ\nJi bėga\n\n0:32 1:42 2:50 \nWe are running\nwi ər ˈrənɪŋ\nMes bėgame\n\n0:45 1:55 3:03 \nWe are laughing\nwi ər ˈlæfɪŋ\nMes juokiamės\n\n0:59 2:08 3:16 \nShe is laughing\nʃi ɪz ˈlæfɪŋ\nJi juokiasi\n\n\n\nMokytojams ir mokykloms:\nŠis vaizdo įrašas paskelbtas naudojant „Creative Commons“ licenciją.\n  CC BY 3.0 https://creativecommons.org/licenses/by/3.0/ \nNesivaržykite naudotis šiuo vaizdo įrašu savo klasėse!\n\nLokalizavimui naudojame „Google Translate“ paslaugą. Jei radote klaidų, praneškite mums.\n"
    },
    {
      "Lang": "lv",
      "Title": "Angļu valodas gramatikas vingrinājumi | Vienkārši ⭐️ #18 -ing",
      "Description": "Mācieties angļu valodas gramatiku! Mainiet vārdu teikumā.\n\n\n\n0:04 1:16 2:24 \nYou are running\nju ər ˈrənɪŋ\nJūs skrienat\n\n0:18 1:29 2:37 \nShe is running\nʃi ɪz ˈrənɪŋ\nViņa skrien\n\n0:32 1:42 2:50 \nWe are running\nwi ər ˈrənɪŋ\nMēs skrienam\n\n0:45 1:55 3:03 \nWe are laughing\nwi ər ˈlæfɪŋ\nMēs smejamies\n\n0:59 2:08 3:16 \nShe is laughing\nʃi ɪz ˈlæfɪŋ\nViņa smejas\n\n\n\nSkolotājiem un skolām:\nŠis video ir publicēts saskaņā ar Creative Commons licenci.\n  CC BY 3.0 https://creativecommons.org/licenses/by/3.0/ \nJūtieties brīvi izmantot šo video savās nodarbībās!\n\nLokalizācijai mēs izmantojam Google Translate pakalpojumu. Ja atrodat dažas kļūdas, lūdzu, paziņojiet mums.\n"
    },
    {
      "Lang": "mg",
      "Title": "Fanatanjahantena anglisy | Simple ⭐️ #18 -ing",
      "Description": "Ianaro ny fitsipi-pitenenana anglisy! Manova teny amin'ny fehezanteny iray.\n\n\n\n0:04 1:16 2:24 \nYou are running\nju ər ˈrənɪŋ\nMihazakazaka ianao\n\n0:18 1:29 2:37 \nShe is running\nʃi ɪz ˈrənɪŋ\nMihazakazaka izy\n\n0:32 1:42 2:50 \nWe are running\nwi ər ˈrənɪŋ\nMihazakazaka izahay\n\n0:45 1:55 3:03 \nWe are laughing\nwi ər ˈlæfɪŋ\nMihomehy izahay\n\n0:59 2:08 3:16 \nShe is laughing\nʃi ɪz ˈlæfɪŋ\nNihomehy izy\n\n\n\nHo an'ireo mpampianatra sy sekoly:\nIty horonantsary ity dia navoaka eo ambanin'ny lisansa Creative Commons.\n  CC BY 3.0 https://creativecommons.org/licenses/by/3.0/ \nAza misalasala mampiasa an'io horonantsary io amin'ny kilasinao!\n\nMampiasa ny serivisy Google Translate izahay amin'ny fananganana toerana. Raha mahita hadisoana vitsivitsy ianao dia mba ampahafantaro anay.\n"
    },
    {
      "Lang": "mi",
      "Title": "Mahi whakangungu Ingarihi | He ngawari ⭐️ #18 -ing",
      "Description": "Akohia te paanui Ingarihi! Hurihia he kupu ki tetahi rerenga rerenga.\n\n\n\n0:04 1:16 2:24 \nYou are running\nju ər ˈrənɪŋ\nKei te rere koutou\n\n0:18 1:29 2:37 \nShe is running\nʃi ɪz ˈrənɪŋ\nKei te rere a ia\n\n0:32 1:42 2:50 \nWe are running\nwi ər ˈrənɪŋ\nKei te rere tatou\n\n0:45 1:55 3:03 \nWe are laughing\nwi ər ˈlæfɪŋ\nE kata ana matou\n\n0:59 2:08 3:16 \nShe is laughing\nʃi ɪz ˈlæfɪŋ\nE kata ana ia\n\n\n\nKi nga kaiako me nga kura:\nKei te whakaputaina tenei ataata i raro i te Raihana Hoahoatanga.\n  CC BY 3.0 https://creativecommons.org/licenses/by/3.0/ \nKia kore e pai ki te whakamahi i tenei ataata i roto i o akomanga!\n\nKa whakamahia e matou he whakamaoritanga a Google mo te whakangao. Mena ka kitea e koe etahi he, tena koa kia mohio.\n"
    },
    {
      "Lang": "mk",
      "Title": "Вежби за граматика на англиски јазик | Едноставно ⭐️ #18 -ing",
      "Description": "Дознајте англиска граматика! Променете збор во реченица.\n\n\n\n0:04 1:16 2:24 \nYou are running\nju ər ˈrənɪŋ\nВие трчате\n\n0:18 1:29 2:37 \nShe is running\nʃi ɪz ˈrənɪŋ\nТаа трча\n\n0:32 1:42 2:50 \nWe are running\nwi ər ˈrənɪŋ\nТрчаме\n\n0:45 1:55 3:03 \nWe are laughing\nwi ər ˈlæfɪŋ\nСе смееме\n\n0:59 2:08 3:16 \nShe is laughing\nʃi ɪz ˈlæfɪŋ\nТаа се смее\n\n\n\nДо наставниците и училиштата:\nОва видео е објавено под лиценца Криејтив комонс.\n  CC BY 3.0 https://creativecommons.org/licenses/by/3.0/ \nСлободно можете да го користите ова видео во вашите часови!\n\nНие користиме услуга Google Translate за локализација. Ако најдете некои грешки, ве молиме кажете ни.\n"
    },
    {
      "Lang": "ml",
      "Title": "ഇംഗ്ലീഷ് വ്യാകരണ വ്യായാമങ്ങൾ | ലളിതം ⭐️ #18 -ing",
      "Description": "ഇംഗ്ലീഷ് വ്യാകരണം പഠിക്കൂ! ഒരു വാക്യത്തിൽ ഒരു വാക്ക് മാറ്റുക.\n\n\n\n0:04 1:16 2:24 \nYou are running\nju ər ˈrənɪŋ\nനിങ്ങൾ ഓടുന്നു\n\n0:18 1:29 2:37 \nShe is running\nʃi ɪz ˈrənɪŋ\nഅവൾ ഓടുകയാണ്\n\n0:32 1:42 2:50 \nWe are running\nwi ər ˈrənɪŋ\nഞങ്ങൾ ഓടുന്നു\n\n0:45 1:55 3:03 \nWe are laughing\nwi ər ˈlæfɪŋ\nഞങ്ങൾ ചിരിക്കുന്നു\n\n0:59 2:08 3:16 \nShe is laughing\nʃi ɪz ˈlæfɪŋ\nഅവൾ ചിരിക്കുന്നു\n\n\n\nഅധ്യാപകർക്കും സ്കൂളുകൾക്കും:\nക്രിയേറ്റീവ് കോമൺസ് ലൈസൻസിന് കീഴിൽ ഈ വീഡിയോ പ്രസിദ്ധീകരിച്ചു.\n  CC BY 3.0 https://creativecommons.org/licenses/by/3.0/ \nനിങ്ങളുടെ ക്ലാസുകളിൽ ഈ വീഡിയോ ഉപയോഗിക്കാൻ മടിക്കേണ്ടതില്ല!\n\nപ്രാദേശികവൽക്കരണത്തിനായി ഞങ്ങൾ Google വിവർത്തന സേവനം ഉപയോഗിക്കുന്നു. നിങ്ങൾ ചില തെറ്റുകൾ കണ്ടെത്തുകയാണെങ്കിൽ, ഞങ്ങളെ അറിയിക്കുക.\n"
    },
    {
      "Lang": "mn",
      "Title": "Англи хэлний дүрмийн дасгал | Энгийн ⭐️ #18 -ing",
      "Description": "Англи хэлний дүрмийн мэдлэгийг сур! Үгийг өгүүлбэр болгон өөрчил.\n\n\n\n0:04 1:16 2:24 \nYou are running\nju ər ˈrənɪŋ\nТа гүйж байна\n\n0:18 1:29 2:37 \nShe is running\nʃi ɪz ˈrənɪŋ\nТэр гүйж байна\n\n0:32 1:42 2:50 \nWe are running\nwi ər ˈrənɪŋ\nБид гүйж байна\n\n0:45 1:55 3:03 \nWe are laughing\nwi ər ˈlæfɪŋ\nБид инээж байна\n\n0:59 2:08 3:16 \nShe is laughing\nʃi ɪz ˈlæfɪŋ\nТэр инээж байна\n\n\n\nБагш, сургуулиудад:\nЭнэ видео нь Creative Commons License лиценз дээр нийтлэгдсэн.\n  CC BY 3.0 https://creativecommons.org/licenses/by/3.0/ \nЭнэ видеог өөрийн ангиудад ашиглах боломжтой шүү!\n\nБид Google Translate үйлчилгээг нутагшуулах зорилгоор ашигладаг. Хэрэв та алдаа олвол бидэнд мэдэгдээрэй.\n"
    },
    {
      "Lang": "mr",
      "Title": "इंग्रजी व्याकरण व्यायाम | सोपे ⭐️ #18 -ing",
      "Description": "इंग्रजी व्याकरण जाणून घ्या! एका वाक्यात शब्द बदला.\n\n\n\n0:04 1:16 2:24 \nYou are running\nju ər ˈrənɪŋ\nआपण चालत आहात\n\n0:18 1:29 2:37 \nShe is running\nʃi ɪz ˈrənɪŋ\nती धावत आहे\n\n0:32 1:42 2:50 \nWe are running\nwi ər ˈrənɪŋ\nआम्ही पळत आहोत\n\n0:45 1:55 3:03 \nWe are laughing\nwi ər ˈlæfɪŋ\nआम्ही हसत आहोत\n\n0:59 2:08 3:16 \nShe is laughing\nʃi ɪz ˈlæfɪŋ\nती हसत आहे\n\n\n\nशिक्षक आणि शाळा यांना:\nहा व्हिडिओ क्रिएटिव्ह कॉमन्स परवान्या अंतर्गत प्रकाशित झाला आहे.\n  CC BY 3.0 https://creativecommons.org/licenses/by/3.0/ \nआपल्या वर्गांमध्ये हा व्हिडिओ वापरण्यास मोकळ्या मनाने!\n\nआम्ही स्थानिकीकरणासाठी Google भाषांतर सेवा वापरतो. आपल्याला काही चुका आढळल्यास कृपया आम्हाला कळवा.\n"
    },
    {
      "Lang": "ms",
      "Title": "Latihan tatabahasa Bahasa Inggeris | Mudah ⭐️ #18 -ing",
      "Description": "Belajar bahasa Inggeris! Tukar perkataan dalam ayat.\n\n\n\n0:04 1:16 2:24 \nYou are running\nju ər ˈrənɪŋ\nAnda sedang berjalan\n\n0:18 1:29 2:37 \nShe is running\nʃi ɪz ˈrənɪŋ\nDia berlari\n\n0:32 1:42 2:50 \nWe are running\nwi ər ˈrənɪŋ\nKami berjalan\n\n0:45 1:55 3:03 \nWe are laughing\nwi ər ˈlæfɪŋ\nKita ketawa\n\n0:59 2:08 3:16 \nShe is laughing\nʃi ɪz ˈlæfɪŋ\nDia ketawa\n\n\n\nKepada guru dan sekolah:\nVideo ini diterbitkan di bawah Lesen Creative Commons.\n  CC BY 3.0 https://creativecommons.org/licenses/by/3.0/ \nJangan ragu untuk menggunakan video ini dalam kelas anda!\n\nKami menggunakan perkhidmatan Terjemahan Google untuk penyetempatan. Jika anda mendapati beberapa kesilapan, sila beritahu kami.\n"
    },
    {
      "Lang": "mt",
      "Title": "Eżerċizzji ta 'grammatika Ingliża | Sempliċi ⭐️ #18 -ing",
      "Description": "Tgħallem il-grammatika Ingliża! Ibdel kelma f’sentenza.\n\n\n\n0:04 1:16 2:24 \nYou are running\nju ər ˈrənɪŋ\nInt qed taħdem\n\n0:18 1:29 2:37 \nShe is running\nʃi ɪz ˈrənɪŋ\nHija qiegħda tiġri\n\n0:32 1:42 2:50 \nWe are running\nwi ər ˈrənɪŋ\nQegħdin norganizzaw\n\n0:45 1:55 3:03 \nWe are laughing\nwi ər ˈlæfɪŋ\nAħna qed tidħaq\n\n0:59 2:08 3:16 \nShe is laughing\nʃi ɪz ˈlæfɪŋ\nHija tidħaq\n\n\n\nGħalliema u skejjel:\nDan il-video huwa ppublikat taħt il-Liċenzja Creative Commons.\n  CC BY 3.0 https://creativecommons.org/licenses/by/3.0/ \nĦossok liberu li tuża dan il-video fil-klassijiet tiegħek!\n\nAħna nużaw servizz Google Translate għall-lokalizzazzjoni. Jekk issib xi żbalji, jekk jogħġbok għarrafna.\n"
    },
    {
      "Lang": "my",
      "Title": "အင်္ဂလိပ်သဒ္ဒါလေ့ကျင့်ခန်း | ရိုးရှင်းသော ⭐️ #18 -ing",
      "Description": "အင်္ဂလိပ်သဒ္ဒါကိုလေ့လာပါ။ ဝါကျတွင်စကားလုံးတစ်လုံးပြောင်းပါ။\n\n\n\n0:04 1:16 2:24 \nYou are running\nju ər ˈrənɪŋ\nသင်ပြေးနေတယ်\n\n0:18 1:29 2:37 \nShe is running\nʃi ɪz ˈrənɪŋ\nသူမပြေးနေပြီ\n\n0:32 1:42 2:50 \nWe are running\nwi ər ˈrənɪŋ\nငါတို့ပြေးနေတယ်\n\n0:45 1:55 3:03 \nWe are laughing\nwi ər ˈlæfɪŋ\nငါတို့ရယ်တယ်\n\n0:59 2:08 3:16 \nShe is laughing\nʃi ɪz ˈlæfɪŋ\nသူမသည်ရယ်နေသည်\n\n\n\nဆရာများနှင့်ကျောင်းများသို့\nဒီဗီဒီယိုကို Creative Commons လိုင်စင်အောက်မှာထုတ်ဝေထားတယ်။\n  CC BY 3.0 https://creativecommons.org/licenses/by/3.0/ \nဤဗီဒီယိုကိုသင်၏အတန်းများ၌အခမဲ့အသုံးပြုပါ။\n\nကျွန်ုပ်တို့သည်ဒေသခံဘာသာပြန်အတွက် Google Translate ဝန်ဆောင်မှုကိုအသုံးပြုသည်။ သင်အမှားအယွင်းများအချို့ရှိပါကကျွန်ုပ်တို့အားအသိပေးပါ။\n"
    },
    {
      "Lang": "ne",
      "Title": "अंग्रेजी व्याकरण व्यायाम | सरल ⭐️ #18 -ing",
      "Description": "अंग्रेजी व्याकरण सिक्नुहोस्! एक वाक्य मा एक शब्द बदल्नुहोस्।\n\n\n\n0:04 1:16 2:24 \nYou are running\nju ər ˈrənɪŋ\nतपाईं दौडँदै हुनुहुन्छ\n\n0:18 1:29 2:37 \nShe is running\nʃi ɪz ˈrənɪŋ\nउनी भागिरहेकी छिन्\n\n0:32 1:42 2:50 \nWe are running\nwi ər ˈrənɪŋ\nहामी दौडिरहेका छौं\n\n0:45 1:55 3:03 \nWe are laughing\nwi ər ˈlæfɪŋ\nहामी हाँस्दै छौं\n\n0:59 2:08 3:16 \nShe is laughing\nʃi ɪz ˈlæfɪŋ\nउनी हाँस्दैछिन्\n\n\n\nशिक्षक र विद्यालयहरुलाई:\nयो भिडियो क्रिएटिभ कमन्स लाइसेन्स अन्तर्गत प्रकाशित गरिएको छ।\n  CC BY 3.0 https://creativecommons.org/licenses/by/3.0/ \nतपाईंको कक्षामा यो भिडियो प्रयोग गर्न स्वतन्त्र महसुस गर्नुहोस्!\n\nहामी स्थानीयकरणको लागि गुगल अनुवाद सेवा प्रयोग गर्दछौं। यदि तपाईंले केहि गल्तीहरू फेला पार्नुभयो भने, कृपया हामीलाई खबर गर्नुहोस्।\n"
    },
    {
      "Lang": "nl",
      "Title": "Engelse grammatica-oefeningen | Gemakkelijk ⭐️ #18 -ing",
      "Description": "Leer Engelse grammatica! Verander een woord in een zin.\n\n\n\n0:04 1:16 2:24 \nYou are running\nju ər ˈrənɪŋ\nJij bent aan het rennen\n\n0:18 1:29 2:37 \nShe is running\nʃi ɪz ˈrənɪŋ\nZij is aan het rennen\n\n0:32 1:42 2:50 \nWe are running\nwi ər ˈrənɪŋ\nWe zijn aan het rennen\n\n0:45 1:55 3:03 \nWe are laughing\nwi ər ˈlæfɪŋ\nWe zijn aan het lachen\n\n0:59 2:08 3:16 \nShe is laughing\nʃi ɪz ˈlæfɪŋ\nZe lacht\n\n\n\nAan leraren en scholen:\nDeze video is gepubliceerd onder Creative Commons License.\n  CC BY 3.0 https://creativecommons.org/licenses/by/3.0/ \nVoel je vrij om deze video in je lessen te gebruiken!\n\nWe gebruiken de Google Translate-service voor lokalisatie. Laat het ons weten als u fouten ontdekt.\n"
    },
    {
      "Lang": "no",
      "Title": "Engelsk grammatikkøvelser | Enkel ⭐️ #18 -ing",
      "Description": "Lær engelsk grammatikk! Endre et ord i en setning.\n\n\n\n0:04 1:16 2:24 \nYou are running\nju ər ˈrənɪŋ\nDu løper\n\n0:18 1:29 2:37 \nShe is running\nʃi ɪz ˈrənɪŋ\nHun løper\n\n0:32 1:42 2:50 \nWe are running\nwi ər ˈrənɪŋ\nVi løper\n\n0:45 1:55 3:03 \nWe are laughing\nwi ər ˈlæfɪŋ\nVi ler\n\n0:59 2:08 3:16 \nShe is laughing\nʃi ɪz ˈlæfɪŋ\nHun ler\n\n\n\nTil lærere og skoler:\nDenne videoen er publisert under Creative Commons License.\n  CC BY 3.0 https://creativecommons.org/licenses/by/3.0/ \nBruk gjerne denne videoen i klassene dine!\n\nVi bruker Google Translate-tjenesten for lokalisering. Gi beskjed hvis du finner noen feil.\n"
    },
    {
      "Lang": "pa",
      "Title": "ਅੰਗਰੇਜ਼ੀ ਵਿਆਕਰਣ ਅਭਿਆਸ | ਆਸਾਨ ⭐️ #18 -ing",
      "Description": "ਅੰਗਰੇਜ਼ੀ ਵਿਆਕਰਣ ਸਿੱਖੋ! ਇੱਕ ਵਾਕ ਵਿੱਚ ਇੱਕ ਸ਼ਬਦ ਬਦਲੋ.\n\n\n\n0:04 1:16 2:24 \nYou are running\nju ər ˈrənɪŋ\nਤੁਸੀਂ ਚੱਲ ਰਹੇ ਹੋ\n\n0:18 1:29 2:37 \nShe is running\nʃi ɪz ˈrənɪŋ\nਉਹ ਚੱਲ ਰਹੀ ਹੈ\n\n0:32 1:42 2:50 \nWe are running\nwi ər ˈrənɪŋ\nਅਸੀਂ ਚੱਲ ਰਹੇ ਹਾਂ\n\n0:45 1:55 3:03 \nWe are laughing\nwi ər ˈlæfɪŋ\nਅਸੀਂ ਹੱਸ ਰਹੇ ਹਾਂ\n\n0:59 2:08 3:16 \nShe is laughing\nʃi ɪz ˈlæfɪŋ\nਉਹ ਹੱਸ ਰਹੀ ਹੈ\n\n\n\nਅਧਿਆਪਕਾਂ ਅਤੇ ਸਕੂਲਾਂ ਨੂੰ:\nਇਹ ਵੀਡੀਓ ਕਰੀਏਟਿਵ ਕਾਮਨਜ਼ ਲਾਇਸੈਂਸ ਅਧੀਨ ਪ੍ਰਕਾਸ਼ਤ ਕੀਤਾ ਗਿਆ ਹੈ.\n  CC BY 3.0 https://creativecommons.org/licenses/by/3.0/ \nਇਸ ਕਲਾਸ ਨੂੰ ਆਪਣੀਆਂ ਕਲਾਸਾਂ ਵਿਚ ਵਰਤਣ ਲਈ ਮੁਫ਼ਤ ਮਹਿਸੂਸ ਕਰੋ!\n\nਅਸੀਂ ਸਥਾਨਕਕਰਨ ਲਈ ਗੂਗਲ ਅਨੁਵਾਦ ਸੇਵਾ ਦੀ ਵਰਤੋਂ ਕਰਦੇ ਹਾਂ. ਜੇ ਤੁਹਾਨੂੰ ਕੁਝ ਗਲਤੀਆਂ ਮਿਲਦੀਆਂ ਹਨ, ਤਾਂ ਕਿਰਪਾ ਕਰਕੇ ਸਾਨੂੰ ਦੱਸੋ.\n"
    },
    {
      "Lang": "pl",
      "Title": "Gramatyka angielska | Prosty ⭐️ #18 -ing",
      "Description": "Ucz się gramatyki angielskiej! Zmień słowo w zdaniu.\n\n\n\n0:04 1:16 2:24 \nYou are running\nju ər ˈrənɪŋ\nBiegniesz\n\n0:18 1:29 2:37 \nShe is running\nʃi ɪz ˈrənɪŋ\nOna biegnie\n\n0:32 1:42 2:50 \nWe are running\nwi ər ˈrənɪŋ\nBiegniemy\n\n0:45 1:55 3:03 \nWe are laughing\nwi ər ˈlæfɪŋ\nŚmiejemy się\n\n0:59 2:08 3:16 \nShe is laughing\nʃi ɪz ˈlæfɪŋ\nOna śmieje się\n\n\n\nDo nauczycieli i szkół:\nTen film jest opublikowany na licencji Creative Commons.\n  CC BY 3.0 https://creativecommons.org/licenses/by/3.0/ \nZachęcamy do korzystania z tego filmu na zajęciach!\n\nDo lokalizacji używamy usługi Tłumacz Google. Jeśli znajdziesz jakieś błędy, daj nam znać.\n"
    },
    {
      "Lang": "ps",
      "Title": "انګلیسي ګرامر تمرینونه | ساده ⭐️ #18 -ing",
      "Description": "انګلیسي ګرامر زده کړئ! یوه جمله په یوه جمله بدله کړئ.\n\n\n\n0:04 1:16 2:24 \nYou are running\nju ər ˈrənɪŋ\nته منډې وهي\n\n0:18 1:29 2:37 \nShe is running\nʃi ɪz ˈrənɪŋ\nهغه منډه وهي\n\n0:32 1:42 2:50 \nWe are running\nwi ər ˈrənɪŋ\nمونږ منډې وهو\n\n0:45 1:55 3:03 \nWe are laughing\nwi ər ˈlæfɪŋ\nموږ خاندي\n\n0:59 2:08 3:16 \nShe is laughing\nʃi ɪz ˈlæfɪŋ\nهغه خاندي\n\n\n\nښوونکو او ښوونځیو ته:\nدا ویډیو د کریټیو کامنز لایسنس لاندې خپره شوې ده.\n  CC BY 3.0 https://creativecommons.org/licenses/by/3.0/ \nپه خپلو ټولګیو کې د دې ویډیو کارولو لپاره وړیا احساس وکړئ!\n\nموږ د ځایی کولو لپاره د ګوګل ژباړن خدمت کاروو. که تاسو ځینې غلطۍ ومومئ ، مهرباني وکړئ موږ ته خبر راکړئ.\n"
    },
    {
      "Lang": "pt",
      "Title": "Exercícios de gramática inglesa | Simples ⭐️ #18 -ing",
      "Description": "Aprenda gramática inglesa! Mude uma palavra em uma frase.\n\n\n\n0:04 1:16 2:24 \nYou are running\nju ər ˈrənɪŋ\nVocê está correndo\n\n0:18 1:29 2:37 \nShe is running\nʃi ɪz ˈrənɪŋ\nEla está correndo\n\n0:32 1:42 2:50 \nWe are running\nwi ər ˈrənɪŋ\nNós estamos correndo\n\n0:45 1:55 3:03 \nWe are laughing\nwi ər ˈlæfɪŋ\nNós estamos rindo\n\n0:59 2:08 3:16 \nShe is laughing\nʃi ɪz ˈlæfɪŋ\nEla está rindo\n\n\n\nPara professores e escolas:\nEste vídeo é publicado sob licença Creative Commons.\n  CC BY 3.0 https://creativecommons.org/licenses/by/3.0/ \nSinta-se livre para usar este vídeo em suas aulas!\n\nUsamos o serviço Google Translate para localização. Se você encontrar algum erro, informe-nos.\n"
    },
    {
      "Lang": "ro",
      "Title": "Exerciții de gramatică engleză | Simplu ⭐️ #18 -ing",
      "Description": "Învață gramatica engleză! Schimbă un cuvânt într-o propoziție.\n\n\n\n0:04 1:16 2:24 \nYou are running\nju ər ˈrənɪŋ\nTu alergi\n\n0:18 1:29 2:37 \nShe is running\nʃi ɪz ˈrənɪŋ\nEa aleargă\n\n0:32 1:42 2:50 \nWe are running\nwi ər ˈrənɪŋ\nAlergam\n\n0:45 1:55 3:03 \nWe are laughing\nwi ər ˈlæfɪŋ\nRâdem\n\n0:59 2:08 3:16 \nShe is laughing\nʃi ɪz ˈlæfɪŋ\nEa râde\n\n\n\nPentru profesori și școli:\nAcest videoclip este publicat sub licență Creative Commons.\n  CC BY 3.0 https://creativecommons.org/licenses/by/3.0/ \nSimte-te liber să folosești acest videoclip în orele tale!\n\nFolosim serviciul Google Translate pentru localizare. Dacă găsiți unele greșeli, vă rugăm să ne informați.\n"
    },
    {
      "Lang": "ru",
      "Title": "Упражнения по английской грамматике | просто ⭐️ #18 -ing",
      "Description": "Изучай английскую грамматику! Изменить слово в предложении.\n\n\n\n0:04 1:16 2:24 \nYou are running\nju ər ˈrənɪŋ\nТы бежишь\n\n0:18 1:29 2:37 \nShe is running\nʃi ɪz ˈrənɪŋ\nОна бежит\n\n0:32 1:42 2:50 \nWe are running\nwi ər ˈrənɪŋ\nМы бежим\n\n0:45 1:55 3:03 \nWe are laughing\nwi ər ˈlæfɪŋ\nМы смеемся\n\n0:59 2:08 3:16 \nShe is laughing\nʃi ɪz ˈlæfɪŋ\nОна смеется\n\n\n\nУчителям и школам:\nЭто видео опубликовано под лицензией Creative Commons.\n  CC BY 3.0 https://creativecommons.org/licenses/by/3.0/ \nНе стесняйтесь использовать это видео в своих классах!\n\nМы используем сервис Google Translate для локализации. Если вы обнаружите ошибки, сообщите нам.\n"
    },
    {
      "Lang": "sd",
      "Title": "سنڌي گرامر مشق | سادو ⭐️ #18 -ing",
      "Description": "انگريزي گرامر سکو! ھڪ لفظ ۾ ھڪڙي تبديلي آڻيو.\n\n\n\n0:04 1:16 2:24 \nYou are running\nju ər ˈrənɪŋ\nتوهان ڊوڙندا آهيو\n\n0:18 1:29 2:37 \nShe is running\nʃi ɪz ˈrənɪŋ\nهوء ڊوڙندو آهي\n\n0:32 1:42 2:50 \nWe are running\nwi ər ˈrənɪŋ\nاسان ڊوڙندا آهيون\n\n0:45 1:55 3:03 \nWe are laughing\nwi ər ˈlæfɪŋ\nاسان کلندا آهيون\n\n0:59 2:08 3:16 \nShe is laughing\nʃi ɪz ˈlæfɪŋ\nهوء کلڻ لڳي\n\n\n\nاستاد ۽ اسڪولن ڏانهن:\nهيء وڊيو تخليقي العام لائسنس هيٺ شايع ٿيل آهي.\n  CC BY 3.0 https://creativecommons.org/licenses/by/3.0/ \nپنهنجي وڊيوز ۾ هن وڊيو کي استعمال ڪرڻ لاء آزاد ٿيو!\n\nاسان مقامي ڪرڻ لاء گوگل ترجمو سروس استعمال ڪندا آهيون. جيڪڏهن توهان ڪجهه غلطي ڳوليندا آهيو، مهرباني ڪري اسان کي ڄاڻ ڏيو.\n"
    },
    {
      "Lang": "si",
      "Title": "ඉංග්‍රීසි ව්‍යාකරණ අභ්‍යාස | සරල ⭐️ #18 -ing",
      "Description": "ඉංග්‍රීසි ව්‍යාකරණ ඉගෙන ගන්න! වාක්‍යයක වචනයක් වෙනස් කරන්න.\n\n\n\n0:04 1:16 2:24 \nYou are running\nju ər ˈrənɪŋ\nඔබ දුවනවා\n\n0:18 1:29 2:37 \nShe is running\nʃi ɪz ˈrənɪŋ\nඇය දුවනවා\n\n0:32 1:42 2:50 \nWe are running\nwi ər ˈrənɪŋ\nඅපි දුවනවා\n\n0:45 1:55 3:03 \nWe are laughing\nwi ər ˈlæfɪŋ\nඅපි සිනාසෙමු\n\n0:59 2:08 3:16 \nShe is laughing\nʃi ɪz ˈlæfɪŋ\nඇය සිනාසෙයි\n\n\n\nගුරුවරුන්ට සහ පාසල්වලට:\nමෙම වීඩියෝව නිර්මාණාත්මක පොදු බලපත්‍රය යටතේ ප්‍රකාශයට පත් කෙරේ.\n  CC BY 3.0 https://creativecommons.org/licenses/by/3.0/ \nඔබේ පංතිවල මෙම වීඩියෝව භාවිතා කිරීමට නිදහස් වන්න!\n\nප්‍රාදේශීයකරණය සඳහා අපි ගූගල් පරිවර්තන සේවාව භාවිතා කරමු. ඔබ යම් වැරැද්දක් සොයා ගන්නේ නම්, කරුණාකර අපට දන්වන්න.\n"
    },
    {
      "Lang": "sk",
      "Title": "Anglické gramatické cvičenia | prostý ⭐️ #18 -ing",
      "Description": "Naučte sa anglickú gramatiku! Zmeniť slovo vo vete.\n\n\n\n0:04 1:16 2:24 \nYou are running\nju ər ˈrənɪŋ\nBežíte\n\n0:18 1:29 2:37 \nShe is running\nʃi ɪz ˈrənɪŋ\nOna beží\n\n0:32 1:42 2:50 \nWe are running\nwi ər ˈrənɪŋ\nBežíme\n\n0:45 1:55 3:03 \nWe are laughing\nwi ər ˈlæfɪŋ\nSmejeme sa\n\n0:59 2:08 3:16 \nShe is laughing\nʃi ɪz ˈlæfɪŋ\nSmeje sa\n\n\n\nPre učiteľov a školy:\nToto video je publikované pod licenciou Creative Commons License.\n  CC BY 3.0 https://creativecommons.org/licenses/by/3.0/ \nNeváhajte použiť toto video vo svojich triedach!\n\nNa lokalizáciu používame službu Prekladač Google. Ak nájdete nejaké chyby, dajte nám vedieť.\n"
    },
    {
      "Lang": "sl",
      "Title": "Angleške slovnične vaje | Preprosto ⭐️ #18 -ing",
      "Description": "Naučite se angleške slovnice! Spremenite besedo v stavku.\n\n\n\n0:04 1:16 2:24 \nYou are running\nju ər ˈrənɪŋ\nTečete\n\n0:18 1:29 2:37 \nShe is running\nʃi ɪz ˈrənɪŋ\nOna teče\n\n0:32 1:42 2:50 \nWe are running\nwi ər ˈrənɪŋ\nTečemo\n\n0:45 1:55 3:03 \nWe are laughing\nwi ər ˈlæfɪŋ\nSmejimo se\n\n0:59 2:08 3:16 \nShe is laughing\nʃi ɪz ˈlæfɪŋ\nOna se smeji\n\n\n\nUčiteljem in šolam:\nTa videoposnetek je objavljen pod licenco Creative Commons.\n  CC BY 3.0 https://creativecommons.org/licenses/by/3.0/ \nUporabite ta video v svojih razredih!\n\nZa lokalizacijo uporabljamo storitev Google Translate. Če najdete nekaj napak, nas obvestite.\n"
    },
    {
      "Lang": "sm",
      "Title": "Gagana o le gagana Gagana Peretania | Faigofie ⭐️ #18 -ing",
      "Description": "Aoao le gagana Gagana Peretania! Sui se upu i se fuaiupu.\n\n\n\n0:04 1:16 2:24 \nYou are running\nju ər ˈrənɪŋ\nO loʻo e tamoe\n\n0:18 1:29 2:37 \nShe is running\nʃi ɪz ˈrənɪŋ\nO loʻo tamoe\n\n0:32 1:42 2:50 \nWe are running\nwi ər ˈrənɪŋ\nMatou te tamoe\n\n0:45 1:55 3:03 \nWe are laughing\nwi ər ˈlæfɪŋ\nTatou te talie\n\n0:59 2:08 3:16 \nShe is laughing\nʃi ɪz ˈlæfɪŋ\nO loo ata o ia\n\n\n\nI faiaoga ma aʻoga:\nO lenei vitio ua lomia i lalo o le Creative Commons License.\n  CC BY 3.0 https://creativecommons.org/licenses/by/3.0/ \nLagona le saoloto e faʻaaoga lenei vitio i au vasega!\n\nMatou te faʻaaoga le Google Translate auaunaga mo le faʻasalalauga. Afai e te maua ni mea sese, faʻamolemole ia e iloa.\n"
    },
    {
      "Lang": "sn",
      "Title": "Chirungu grammar Exercise | Nyore ⭐️ #18 -ing",
      "Description": "Dzidza mutauro wechirungu! Chinja izwi muchirevo.\n\n\n\n0:04 1:16 2:24 \nYou are running\nju ər ˈrənɪŋ\nUnomhanya\n\n0:18 1:29 2:37 \nShe is running\nʃi ɪz ˈrənɪŋ\nAri kumhanya\n\n0:32 1:42 2:50 \nWe are running\nwi ər ˈrənɪŋ\nTiri kumhanya\n\n0:45 1:55 3:03 \nWe are laughing\nwi ər ˈlæfɪŋ\nTiri kuseka\n\n0:59 2:08 3:16 \nShe is laughing\nʃi ɪz ˈlæfɪŋ\nAri kuseka\n\n\n\nKune vadzidzisi uye zvikoro:\nVhidhiyo iyi inoburitswa pasi peCreative Commons License.\n  CC BY 3.0 https://creativecommons.org/licenses/by/3.0/ \nInzwa wakasununguka kushandisa iyi vhidhiyo mumakirasi ako!\n\nIsu tinoshandisa Google Dhumiro sevhisi. Kana iwe ukawana zvimwe zvikanganiso, tapota titiudze.\n"
    },
    {
      "Lang": "so",
      "Title": "Jimicsiga naxwaha Ingiriisiga | Fudud ⭐️ #18 -ing",
      "Description": "Baro naxwaha Ingiriisiga! U beddelo eray weedh.\n\n\n\n0:04 1:16 2:24 \nYou are running\nju ər ˈrənɪŋ\nWaad ordaa\n\n0:18 1:29 2:37 \nShe is running\nʃi ɪz ˈrənɪŋ\nWay ordaa\n\n0:32 1:42 2:50 \nWe are running\nwi ər ˈrənɪŋ\nWaan wadnaa\n\n0:45 1:55 3:03 \nWe are laughing\nwi ər ˈlæfɪŋ\nWaan qoslay\n\n0:59 2:08 3:16 \nShe is laughing\nʃi ɪz ˈlæfɪŋ\nWay qoslaysaa\n\n\n\nKu socota macallimiinta iyo iskuulada:\nMuuqaalkan fiidiyaha ah waxaa lagu daabacay hoosta hal-abuurnimada Hal-abuurka.\n  CC BY 3.0 https://creativecommons.org/licenses/by/3.0/ \nXor baad u leedahay inaad fiidiyaha u isticmaasho fasalladaaga!\n\nWaxaan u adeegsanaa adeega Google tarjumaha si aan ugu tarjunno. Hadaad khaladaad hesho, fadlan nala socodsii.\n"
    },
    {
      "Lang": "sq",
      "Title": "Ushtrime gramatikore angleze | i thjeshtë ⭐️ #18 -ing",
      "Description": "Mësoni gramatikën angleze! Ndryshoni një fjalë në një fjali.\n\n\n\n0:04 1:16 2:24 \nYou are running\nju ər ˈrənɪŋ\nJu jeni duke vrapuar\n\n0:18 1:29 2:37 \nShe is running\nʃi ɪz ˈrənɪŋ\nAjo është duke vrapuar\n\n0:32 1:42 2:50 \nWe are running\nwi ər ˈrənɪŋ\nNe jemi duke vrapuar\n\n0:45 1:55 3:03 \nWe are laughing\nwi ər ˈlæfɪŋ\nNe jemi duke qeshur\n\n0:59 2:08 3:16 \nShe is laughing\nʃi ɪz ˈlæfɪŋ\nAjo është duke qeshur\n\n\n\nPër mësuesit dhe shkollat:\nKjo video është botuar nën licencën Creative Commons.\n  CC BY 3.0 https://creativecommons.org/licenses/by/3.0/ \nMos ngurroni të përdorni këtë video në klasat tuaja!\n\nNe përdorim shërbimin Google Translate për lokalizimin. Nëse gjeni disa gabime, ju lutemi na tregoni.\n"
    },
    {
      "Lang": "sr",
      "Title": "Вежбе енглеске граматике | Једноставно ⭐️ #18 -ing",
      "Description": "Научите енглеску граматику! Промените реч у реченици.\n\n\n\n0:04 1:16 2:24 \nYou are running\nju ər ˈrənɪŋ\nВи користите\n\n0:18 1:29 2:37 \nShe is running\nʃi ɪz ˈrənɪŋ\nОна трчи\n\n0:32 1:42 2:50 \nWe are running\nwi ər ˈrənɪŋ\nТрчимо\n\n0:45 1:55 3:03 \nWe are laughing\nwi ər ˈlæfɪŋ\nСмејемо се\n\n0:59 2:08 3:16 \nShe is laughing\nʃi ɪz ˈlæfɪŋ\nСмеје се\n\n\n\nНаставницима и школама:\nОвај видео је објављен под Цреативе Цоммонс лиценцом.\n  CC BY 3.0 https://creativecommons.org/licenses/by/3.0/ \nСлободно користите овај видеозапис у својим предавањима!\n\nЗа локализацију користимо услугу Гоогле Транслате. Ако нађете неке грешке, јавите нам се.\n"
    },
    {
      "Lang": "st",
      "Title": "Boikoetliso ba puo ea Senyesemane | E bonolo ⭐️ #18 -ing",
      "Description": "Ithute puo ea Senyesemane! Fetola lentsoe polelo.\n\n\n\n0:04 1:16 2:24 \nYou are running\nju ər ˈrənɪŋ\nOa sebetsa\n\n0:18 1:29 2:37 \nShe is running\nʃi ɪz ˈrənɪŋ\nOa matha\n\n0:32 1:42 2:50 \nWe are running\nwi ər ˈrənɪŋ\nRe ntse re matha\n\n0:45 1:55 3:03 \nWe are laughing\nwi ər ˈlæfɪŋ\nRe tšeha\n\n0:59 2:08 3:16 \nShe is laughing\nʃi ɪz ˈlæfɪŋ\nO oa tšeha\n\n\n\nHo matichere le likolo:\nVideo ena e phatlalalitsoe tlas'a Creative Commons License.\n  CC BY 3.0 https://creativecommons.org/licenses/by/3.0/ \nIkutloe u lokolohile ho sebelisa video ena litlelaseng tsa hau!\n\nRe sebelisa tšebeletso ea Google Tafsiri bakeng sa lehae. Haeba u fumana liphoso, ka kopo re tsebise.\n"
    },
    {
      "Lang": "su",
      "Title": "Latihan tata basa Inggris | Basajan ⭐️ #18 -ing",
      "Description": "Diajar grammar Inggris! Ngarobih kecap dina hiji kalimat.\n\n\n\n0:04 1:16 2:24 \nYou are running\nju ər ˈrənɪŋ\nAnjeun ngajalankeun\n\n0:18 1:29 2:37 \nShe is running\nʃi ɪz ˈrənɪŋ\nAnjeunna ngajalankeun\n\n0:32 1:42 2:50 \nWe are running\nwi ər ˈrənɪŋ\nKami ngajalankeun\n\n0:45 1:55 3:03 \nWe are laughing\nwi ər ˈlæfɪŋ\nKami seuri\n\n0:59 2:08 3:16 \nShe is laughing\nʃi ɪz ˈlæfɪŋ\nAnjeunna seuri\n\n\n\nPikeun guru sareng sakola:\nPidéo ieu dikaluarkeun dina Lisensi Lisénsi Creative Commons.\n  CC BY 3.0 https://creativecommons.org/licenses/by/3.0/ \nTong ngosongkeun pidéo ieu di kelas!\n\nKami nganggo jasa Google Translate pikeun lokalisasi. Upami anjeun mendakan sababaraha kasalahan, punten terangkeun ka urang.\n"
    },
    {
      "Lang": "sv",
      "Title": "Engelska grammatiska övningar | Enkel ⭐️ #18 -ing",
      "Description": "Lär dig engelska grammatik! Ändra ett ord i en mening.\n\n\n\n0:04 1:16 2:24 \nYou are running\nju ər ˈrənɪŋ\nDu springer\n\n0:18 1:29 2:37 \nShe is running\nʃi ɪz ˈrənɪŋ\nHon springer\n\n0:32 1:42 2:50 \nWe are running\nwi ər ˈrənɪŋ\nVi springer\n\n0:45 1:55 3:03 \nWe are laughing\nwi ər ˈlæfɪŋ\nVi skrattar\n\n0:59 2:08 3:16 \nShe is laughing\nʃi ɪz ˈlæfɪŋ\nHon skrattar\n\n\n\nTill lärare och skolor:\nDenna video publiceras under Creative Commons License.\n  CC BY 3.0 https://creativecommons.org/licenses/by/3.0/ \nAnvänd gärna den här videon i dina klasser!\n\nVi använder Google Translate-tjänst för lokalisering. Låt oss veta om du hittar några misstag.\n"
    },
    {
      "Lang": "sw",
      "Title": "Mazoezi ya sarufi ya Kiingereza | Rahisi ⭐️ #18 -ing",
      "Description": "Jifunze sarufi ya Kiingereza! Badilisha neno katika sentensi.\n\n\n\n0:04 1:16 2:24 \nYou are running\nju ər ˈrənɪŋ\nUnaendesha\n\n0:18 1:29 2:37 \nShe is running\nʃi ɪz ˈrənɪŋ\nAnaendesha\n\n0:32 1:42 2:50 \nWe are running\nwi ər ˈrənɪŋ\nTunaendesha\n\n0:45 1:55 3:03 \nWe are laughing\nwi ər ˈlæfɪŋ\nTunacheka\n\n0:59 2:08 3:16 \nShe is laughing\nʃi ɪz ˈlæfɪŋ\nYeye anacheka\n\n\n\nKwa waalimu na shule:\nVideo hii imechapishwa chini ya Leseni ya Creative Commons.\n  CC BY 3.0 https://creativecommons.org/licenses/by/3.0/ \nJisikie huru kutumia video hii kwenye darasa lako!\n\nTunatumia huduma ya Tafsiri ya Google kwa ujanibishaji. Ikiwa utapata makosa, tafadhali tujulishe.\n"
    },
    {
      "Lang": "ta",
      "Title": "ஆங்கில இலக்கண பயிற்சிகள் | எளிய ⭐️ #18 -ing",
      "Description": "ஆங்கில இலக்கணம் கற்றுக்கொள்ளுங்கள்! ஒரு வாக்கியத்தில் ஒரு வார்த்தையை மாற்றவும்.\n\n\n\n0:04 1:16 2:24 \nYou are running\nju ər ˈrənɪŋ\nநீங்கள் ஓடுகிறீர்கள்\n\n0:18 1:29 2:37 \nShe is running\nʃi ɪz ˈrənɪŋ\nஅவள் ஓடுகிறாள்\n\n0:32 1:42 2:50 \nWe are running\nwi ər ˈrənɪŋ\nநாங்கள் ஓடுகிறோம்\n\n0:45 1:55 3:03 \nWe are laughing\nwi ər ˈlæfɪŋ\nநாங்கள் சிரிக்கிறோம்\n\n0:59 2:08 3:16 \nShe is laughing\nʃi ɪz ˈlæfɪŋ\nஅவள் சிரிக்கிறாள்\n\n\n\nஆசிரியர்கள் மற்றும் பள்ளிகளுக்கு:\nஇந்த வீடியோ கிரியேட்டிவ் காமன்ஸ் உரிமத்தின் கீழ் வெளியிடப்பட்டுள்ளது.\n  CC BY 3.0 https://creativecommons.org/licenses/by/3.0/ \nஉங்கள் வகுப்புகளில் இந்த வீடியோவைப் பயன்படுத்த தயங்காதீர்கள்!\n\nஉள்ளூர்மயமாக்க Google மொழிபெயர்ப்பு சேவையைப் பயன்படுத்துகிறோம். நீங்கள் சில தவறுகளைக் கண்டால், எங்களுக்குத் தெரியப்படுத்துங்கள்.\n"
    },
    {
      "Lang": "te",
      "Title": "ఇంగ్లీష్ వ్యాకరణ వ్యాయామాలు | సాధారణ ⭐️ #18 -ing",
      "Description": "ఇంగ్లీష్ వ్యాకరణం నేర్చుకోండి! ఒక వాక్యంలో ఒక పదాన్ని మార్చండి.\n\n\n\n0:04 1:16 2:24 \nYou are running\nju ər ˈrənɪŋ\nమీరు నడుస్తున్నారు\n\n0:18 1:29 2:37 \nShe is running\nʃi ɪz ˈrənɪŋ\nఆమె నడుస్తోంది\n\n0:32 1:42 2:50 \nWe are running\nwi ər ˈrənɪŋ\nమేము నడుస్తున్నాము\n\n0:45 1:55 3:03 \nWe are laughing\nwi ər ˈlæfɪŋ\nమేము నవ్వుతున్నాము\n\n0:59 2:08 3:16 \nShe is laughing\nʃi ɪz ˈlæfɪŋ\nఆమె నవ్వుతోంది\n\n\n\nఉపాధ్యాయులకు మరియు పాఠశాలలకు:\nఈ వీడియో క్రియేటివ్ కామన్స్ లైసెన్స్ క్రింద ప్రచురించబడింది.\n  CC BY 3.0 https://creativecommons.org/licenses/by/3.0/ \nమీ తరగతుల్లో ఈ వీడియోను ఉపయోగించడానికి సంకోచించకండి!\n\nస్థానికీకరణ కోసం మేము Google అనువాద సేవను ఉపయోగిస్తాము. మీరు కొన్ని తప్పులు కనుగొంటే, దయచేసి మాకు తెలియజేయండి.\n"
    },
    {
      "Lang": "tg",
      "Title": "Машқҳои грамматикаи забони англисӣ | Оддӣ ⭐️ #18 -ing",
      "Description": "Грамматикаи забони англисиро омӯзед! Калимаро дар як ҷумла иваз кунед.\n\n\n\n0:04 1:16 2:24 \nYou are running\nju ər ˈrənɪŋ\nШумо давида истодаед\n\n0:18 1:29 2:37 \nShe is running\nʃi ɪz ˈrənɪŋ\nВай ran мезанад\n\n0:32 1:42 2:50 \nWe are running\nwi ər ˈrənɪŋ\nМо давида истодаем\n\n0:45 1:55 3:03 \nWe are laughing\nwi ər ˈlæfɪŋ\nМо механдем\n\n0:59 2:08 3:16 \nShe is laughing\nʃi ɪz ˈlæfɪŋ\nВай хандид\n\n\n\nБа муаллимон ва мактабҳо:\nИн видео зери иҷозатномаи Creative Commons нашр шудааст.\n  CC BY 3.0 https://creativecommons.org/licenses/by/3.0/ \nИн видеоро дар дарсҳои худ истифода баред!\n\nМо барои локализатсия аз хидмати Google Translate истифода мебарем. Агар шумо ягон хатогӣ дарёфт кунед, лутфан ба мо хабар диҳед.\n"
    },
    {
      "Lang": "th",
      "Title": "แบบฝึกหัดไวยากรณ์ภาษาอังกฤษ | ง่าย ⭐️ #18 -ing",
      "Description": "เรียนรู้ไวยากรณ์ภาษาอังกฤษ! เปลี่ยนคำในประโยค\n\n\n\n0:04 1:16 2:24 \nYou are running\nju ər ˈrənɪŋ\nคุณกำลังวิ่ง\n\n0:18 1:29 2:37 \nShe is running\nʃi ɪz ˈrənɪŋ\nเธอกำลังวิ่ง\n\n0:32 1:42 2:50 \nWe are running\nwi ər ˈrənɪŋ\nพวกเรากำลังวิ่ง\n\n0:45 1:55 3:03 \nWe are laughing\nwi ər ˈlæfɪŋ\nเรากำลังหัวเราะ\n\n0:59 2:08 3:16 \nShe is laughing\nʃi ɪz ˈlæfɪŋ\nเธอกำลังหัวเราะ\n\n\n\nถึงครูและโรงเรียน:\nวิดีโอนี้เผยแพร่ภายใต้สัญญาอนุญาตครีเอทีฟคอมมอนส์\n  CC BY 3.0 https://creativecommons.org/licenses/by/3.0/ \nอย่าลังเลที่จะใช้วิดีโอนี้ในชั้นเรียนของคุณ!\n\nเราใช้บริการ Google แปลภาษาเพื่อการแปล หากคุณพบข้อผิดพลาดบางอย่างโปรดแจ้งให้เราทราบ\n"
    },
    {
      "Lang": "tr",
      "Title": "İngilizce gramer çalışmaları | Basit ⭐️ #18 -ing",
      "Description": "İngilizce gramerini öğren! Bir cümle içindeki bir kelimeyi değiştirin.\n\n\n\n0:04 1:16 2:24 \nYou are running\nju ər ˈrənɪŋ\nKoşuyorsun\n\n0:18 1:29 2:37 \nShe is running\nʃi ɪz ˈrənɪŋ\nO koşuyor\n\n0:32 1:42 2:50 \nWe are running\nwi ər ˈrənɪŋ\nKoşuyoruz\n\n0:45 1:55 3:03 \nWe are laughing\nwi ər ˈlæfɪŋ\nGülüyoruz\n\n0:59 2:08 3:16 \nShe is laughing\nʃi ɪz ˈlæfɪŋ\nO gülüyor\n\n\n\nÖğretmenlere ve okullara:\nBu video Creative Commons License. Altında yayınlandı.\n  CC BY 3.0 https://creativecommons.org/licenses/by/3.0/ \nBu videoyu derslerinizde kullanmaktan çekinmeyin!\n\nYerelleştirme için Google Çeviri hizmetini kullanıyoruz. Bazı hatalar bulursanız lütfen bize bildirin.\n"
    },
    {
      "Lang": "uk",
      "Title": "Граматичні вправи з англійської мови | Простий ⭐️ #18 -ing",
      "Description": "Вивчіть англійську граматику! Змініть слово у реченні.\n\n\n\n0:04 1:16 2:24 \nYou are running\nju ər ˈrənɪŋ\nВи бігаєте\n\n0:18 1:29 2:37 \nShe is running\nʃi ɪz ˈrənɪŋ\nВона біжить\n\n0:32 1:42 2:50 \nWe are running\nwi ər ˈrənɪŋ\nМи бігаємо\n\n0:45 1:55 3:03 \nWe are laughing\nwi ər ˈlæfɪŋ\nМи сміємось\n\n0:59 2:08 3:16 \nShe is laughing\nʃi ɪz ˈlæfɪŋ\nВона сміється\n\n\n\nДля вчителів та шкіл:\nЦе відео опубліковане під ліцензією Creative Commons.\n  CC BY 3.0 https://creativecommons.org/licenses/by/3.0/ \nСміливо використовуйте це відео у своїх класах!\n\nМи використовуємо послугу Google Translate для локалізації. Якщо ви виявили деякі помилки, повідомте нас про це.\n"
    },
    {
      "Lang": "ur",
      "Title": "انگریزی گرائمر کی ورزشیں | آسان ⭐️ #18 -ing",
      "Description": "انگریزی گرائمر سیکھیں! ایک جملے میں ایک لفظ تبدیل کریں۔\n\n\n\n0:04 1:16 2:24 \nYou are running\nju ər ˈrənɪŋ\nآپ بھاگ رہے ہیں\n\n0:18 1:29 2:37 \nShe is running\nʃi ɪz ˈrənɪŋ\nوہ بھاگ رہی ہے\n\n0:32 1:42 2:50 \nWe are running\nwi ər ˈrənɪŋ\nہم چل رہے ہیں\n\n0:45 1:55 3:03 \nWe are laughing\nwi ər ˈlæfɪŋ\nہم ہنس رہے ہیں\n\n0:59 2:08 3:16 \nShe is laughing\nʃi ɪz ˈlæfɪŋ\nوہ ہنس رہی ہے\n\n\n\nاساتذہ اور اسکولوں کے لئے:\nیہ ویڈیو تخلیقی العام لائسنس کے تحت شائع ہوا ہے۔\n  CC BY 3.0 https://creativecommons.org/licenses/by/3.0/ \nاپنی ویڈیو کو اپنی کلاسوں میں آزادانہ طور پر استعمال کریں!\n\nہم لوکلائزیشن کے لئے گوگل ٹرانسلیٹ سروس استعمال کرتے ہیں۔ اگر آپ کو کچھ غلطیاں ملتی ہیں تو ، براہ کرم ہمیں بتائیں۔\n"
    },
    {
      "Lang": "uz",
      "Title": "Ingliz tili grammatik mashqlari | Oddiy ⭐️ #18 -ing",
      "Description": "Ingliz tilining grammatikasini o'rganing! Bir so'zni jumlada o'zgartiring.\n\n\n\n0:04 1:16 2:24 \nYou are running\nju ər ˈrənɪŋ\nSiz yugurayapsiz\n\n0:18 1:29 2:37 \nShe is running\nʃi ɪz ˈrənɪŋ\nU yugurmoqda\n\n0:32 1:42 2:50 \nWe are running\nwi ər ˈrənɪŋ\nBiz yugurayapmiz\n\n0:45 1:55 3:03 \nWe are laughing\nwi ər ˈlæfɪŋ\nBiz kulayapmiz\n\n0:59 2:08 3:16 \nShe is laughing\nʃi ɪz ˈlæfɪŋ\nU kulmoqda\n\n\n\nO'qituvchilar va maktablarga:\nUshbu video Creative Commons litsenziyasi ostida joylashtirilgan.\n  CC BY 3.0 https://creativecommons.org/licenses/by/3.0/ \nUshbu videoni o'z sinflaringizda ishlatish bepul!\n\nBiz Google Translate xizmatidan lokalizatsiya uchun foydalanamiz. Agar siz biron bir xato topsangiz, iltimos, bizga xabar bering.\n"
    },
    {
      "Lang": "vi",
      "Title": "Bài tập ngữ pháp tiếng anh | Đơn giản ⭐️ #18 -ing",
      "Description": "Học ngữ pháp tiếng Anh! Thay đổi một từ trong một câu.\n\n\n\n0:04 1:16 2:24 \nYou are running\nju ər ˈrənɪŋ\nBạn đang chạy\n\n0:18 1:29 2:37 \nShe is running\nʃi ɪz ˈrənɪŋ\nCô ấy đang chạy\n\n0:32 1:42 2:50 \nWe are running\nwi ər ˈrənɪŋ\nChúng tôi đang chạy\n\n0:45 1:55 3:03 \nWe are laughing\nwi ər ˈlæfɪŋ\nChúng tôi đang cười\n\n0:59 2:08 3:16 \nShe is laughing\nʃi ɪz ˈlæfɪŋ\nCô ấy đang cười\n\n\n\nGửi giáo viên và nhà trường:\nVideo này được xuất bản theo Giấy phép Creative Commons.\n  CC BY 3.0 https://creativecommons.org/licenses/by/3.0/ \nHãy sử dụng video này trong các lớp học của bạn!\n\nChúng tôi sử dụng dịch vụ Google Dịch để bản địa hóa. Nếu bạn tìm thấy một số sai lầm, xin vui lòng cho chúng tôi biết.\n"
    },
    {
      "Lang": "xh",
      "Title": "Ukuziqhelanisa negrama yesiNgesi | Elula ⭐️ #18 -ing",
      "Description": "Funda igrama yesiNgesi! Guqula igama kwisivakalisi.\n\n\n\n0:04 1:16 2:24 \nYou are running\nju ər ˈrənɪŋ\nUyabaleka\n\n0:18 1:29 2:37 \nShe is running\nʃi ɪz ˈrənɪŋ\nUyabaleka\n\n0:32 1:42 2:50 \nWe are running\nwi ər ˈrənɪŋ\nSiyabaleka\n\n0:45 1:55 3:03 \nWe are laughing\nwi ər ˈlæfɪŋ\nSahleka\n\n0:59 2:08 3:16 \nShe is laughing\nʃi ɪz ˈlæfɪŋ\nUtsho ehleka\n\n\n\nKootitshala nakwizikolo:\nLe vidiyo ipapashwa phantsi kwelayisensi yeCreative Commons.\n  CC BY 3.0 https://creativecommons.org/licenses/by/3.0/ \nZive ukhululekile ukusebenzisa le vidiyo kwiiklasi zakho!\n\nSisebenzisa inkonzo yokuTolika kaGoogle ukuze sifumane indawo. Ukuba ufumana iimpazamo ezithile, nceda usazise.\n"
    },
    {
      "Lang": "yi",
      "Title": "ענגליש גראַמאַטיק עקסערסייזיז | פּשוט ⭐️ #18 -ing",
      "Description": "לערן ענגליש גראַמאַטיק! טוישן אַ וואָרט אין אַ זאַץ.\n\n\n\n0:04 1:16 2:24 \nYou are running\nju ər ˈrənɪŋ\nאיר זענט פליסנדיק\n\n0:18 1:29 2:37 \nShe is running\nʃi ɪz ˈrənɪŋ\nזי לויפט\n\n0:32 1:42 2:50 \nWe are running\nwi ər ˈrənɪŋ\nמיר לויפן\n\n0:45 1:55 3:03 \nWe are laughing\nwi ər ˈlæfɪŋ\nמיר לאַכן\n\n0:59 2:08 3:16 \nShe is laughing\nʃi ɪz ˈlæfɪŋ\nזי איז לאַפינג\n\n\n\nצו לערערס און שולן:\nדער ווידעא איז ארויס אונטער Creative Commons License.\n  CC BY 3.0 https://creativecommons.org/licenses/by/3.0/ \nפילן פריי צו נוצן דעם ווידעא אין דיין קלאסן!\n\nמיר נוצן Google Translate דינסט פֿאַר לאָוקאַלאַזיישאַן. אויב איר געפֿינען עטלעכע מיסטייקס, ביטע לאָזן אונדז וויסן.\n"
    },
    {
      "Lang": "yo",
      "Title": "Awọn adaṣe gẹẹsi Gẹẹsi | Rọrun ⭐️ #18 -ing",
      "Description": "Kọ ẹkọ gẹẹsi Gẹẹsi! Yi ọrọ pada ninu gbolohun ọrọ.\n\n\n\n0:04 1:16 2:24 \nYou are running\nju ər ˈrənɪŋ\nO ti wa ni nṣiṣẹ\n\n0:18 1:29 2:37 \nShe is running\nʃi ɪz ˈrənɪŋ\nO n sare\n\n0:32 1:42 2:50 \nWe are running\nwi ər ˈrənɪŋ\nA nṣiṣẹ\n\n0:45 1:55 3:03 \nWe are laughing\nwi ər ˈlæfɪŋ\nA n rẹrin\n\n0:59 2:08 3:16 \nShe is laughing\nʃi ɪz ˈlæfɪŋ\nO rerin\n\n\n\nSi awọn olukọ ati awọn ile-iwe:\nFidio yii ni a tẹjade labẹ Iwe-aṣẹ Creative Commons.\n  CC BY 3.0 https://creativecommons.org/licenses/by/3.0/ \nLero lati lo fidio yii ninu awọn kilasi rẹ!\n\nA lo iṣẹ Google Translate fun agbegbe. Ti o ba rii diẹ ninu awọn aṣiṣe, jọwọ jẹ ki a mọ.\n"
    },
    {
      "Lang": "zh-Hans",
      "Title": "英语语法练习 | 简单 ⭐️ #18 -ing",
      "Description": "学习英语语法！ 更改句子中的单词。\n\n\n\n0:04 1:16 2:24 \nYou are running\nju ər ˈrənɪŋ\n你在跑步\n\n0:18 1:29 2:37 \nShe is running\nʃi ɪz ˈrənɪŋ\n她正在跑\n\n0:32 1:42 2:50 \nWe are running\nwi ər ˈrənɪŋ\n我们正在跑步\n\n0:45 1:55 3:03 \nWe are laughing\nwi ər ˈlæfɪŋ\n我们在笑\n\n0:59 2:08 3:16 \nShe is laughing\nʃi ɪz ˈlæfɪŋ\n她在笑\n\n\n\n致老师和学校：\n该视频是根据知识共享许可发布的。\n  CC BY 3.0 https://creativecommons.org/licenses/by/3.0/ \n随时在您的课程中使用此视频！\n\n我们使用Google翻译服务进行本地化。如果您发现一些错误，请告诉我们。\n"
    },
    {
      "Lang": "zh-Hant",
      "Title": "英語語法練習 | 簡單 ⭐️ #18 -ing",
      "Description": "學習英語語法！ 更改句子中的單詞。\n\n\n\n0:04 1:16 2:24 \nYou are running\nju ər ˈrənɪŋ\n你在跑步\n\n0:18 1:29 2:37 \nShe is running\nʃi ɪz ˈrənɪŋ\n她正在跑\n\n0:32 1:42 2:50 \nWe are running\nwi ər ˈrənɪŋ\n我們正在跑步\n\n0:45 1:55 3:03 \nWe are laughing\nwi ər ˈlæfɪŋ\n我們在笑\n\n0:59 2:08 3:16 \nShe is laughing\nʃi ɪz ˈlæfɪŋ\n她在笑\n\n\n\n致老師和學校：\n該視頻是根據知識共享許可發布的。\n  CC BY 3.0 https://creativecommons.org/licenses/by/3.0/ \n隨時在您的課程中使用此視頻！\n\n我們使用Google翻譯服務進行本地化。如果您發現一些錯誤，請告訴我們。\n"
    },
    {
      "Lang": "zu",
      "Title": "Ukuzivocavoca kolimi lwesiNgisi | Elula ⭐️ #18 -ing",
      "Description": "Funda uhlelo lolimi lwesiNgisi! Shintsha igama emshweni.\n\n\n\n0:04 1:16 2:24 \nYou are running\nju ər ˈrənɪŋ\nUyasebenza\n\n0:18 1:29 2:37 \nShe is running\nʃi ɪz ˈrənɪŋ\nUyasebenza\n\n0:32 1:42 2:50 \nWe are running\nwi ər ˈrənɪŋ\nSiyagijima\n\n0:45 1:55 3:03 \nWe are laughing\nwi ər ˈlæfɪŋ\nSihleke\n\n0:59 2:08 3:16 \nShe is laughing\nʃi ɪz ˈlæfɪŋ\nAhleke\n\n\n\nKothisha nasezikoleni:\nLe vidiyo ishicilelwe ngaphansi kwelayisensi yeCreative Commons.\n  CC BY 3.0 https://creativecommons.org/licenses/by/3.0/ \nZizwe ukhululekile ukusebenzisa le vidiyo emakilasini akho!\n\nSisebenzisa insiza ye-Google Humusha ukwenza okwasendaweni. Uma uthola amanye amaphutha, sicela usazise.\n"
    }
  ],
  "HatenaPermalink": "https://b.hatena.ne.jp/isonschool/20200216#bookmark-4681576344898552450"
}