{
  "File": "grammar-en-beginner-simple_74_A.mp4",
  "ID": "sD2RxfQCRIc",
  "AudioLang": "en",
  "DefaultLang": "no",
  "Title": "Engelsk grammatikkøvelser | Enkel ⭐️ #74 can",
  "Description": "Lær engelsk grammatikk! Endre et ord i en setning.\n\n\n\n0:05 1:21 2:37 \nNancy can not go to the meeting\nˈnænsi kən nɑt goʊ tɪ ðə ˈmitɪŋ\nNancy kan ikke gå på møtet\n\n0:19 1:35 2:51 \nNancy can go to the meeting\nˈnænsi kən goʊ tɪ ðə ˈmitɪŋ\nNancy kan gå på møtet\n\n0:32 1:48 3:04 \nNancy can do it\nˈnænsi kən du ɪt\nNancy kan gjøre det\n\n0:45 2:01 3:17 \nNancy can not do it\nˈnænsi kən nɑt du ɪt\nNancy kan ikke gjøre det\n\n1:01 2:17 3:33 \nMy grandmother can not do it\nmaɪ ˈgrændˌməðər kən nɑt du ɪt\nMin bestemor kan ikke gjøre det\n\n\n\nTil lærere og skoler:\nDenne videoen er publisert under Creative Commons License.\n  CC BY 3.0 https://creativecommons.org/licenses/by/3.0/ \nBruk gjerne denne videoen i klassene dine!\n\nVi bruker Google Translate-tjenesten for lokalisering. Gi beskjed hvis du finner noen feil.\n",
  "VideoTags": "engelsk gramatikk,Anglická gramatika,ingilizce dilbilgisi,Англи хэлний дүрмийн,דקדוק אנגלי,हिंदी व्याकरण,ಇಂಗ್ಲಿಷ್ ವ್ಯಾಕರಣ,ინგლისური გრამატიკა,Grammatica inglese,Englesch Grammatik,Gràmar Beurla,Грамматикаи англисӣ,英文法,Gramàtica anglesa,Ingelesezko gramatika",
  "YoutubeSynced": true,
  "ThumbnailUploaded": true,
  "Localizations": [
    {
      "Lang": "af",
      "Title": "Engelse grammatika-oefeninge | eenvoudige ⭐️ #74 can",
      "Description": "Leer Engelse grammatika! Verander 'n woord in 'n sin.\n\n\n\n0:05 1:21 2:37 \nNancy can not go to the meeting\nˈnænsi kən nɑt goʊ tɪ ðə ˈmitɪŋ\nNancy kan nie na die vergadering gaan nie\n\n0:19 1:35 2:51 \nNancy can go to the meeting\nˈnænsi kən goʊ tɪ ðə ˈmitɪŋ\nNancy kan na die vergadering gaan\n\n0:32 1:48 3:04 \nNancy can do it\nˈnænsi kən du ɪt\nNancy kan dit doen\n\n0:45 2:01 3:17 \nNancy can not do it\nˈnænsi kən nɑt du ɪt\nNancy kan dit nie doen nie\n\n1:01 2:17 3:33 \nMy grandmother can not do it\nmaɪ ˈgrændˌməðər kən nɑt du ɪt\nMy ouma kan dit nie doen nie\n\n\n\nAan onderwysers en skole:\nHierdie video word onder Creative Commons-lisensie gepubliseer.\n  CC BY 3.0 https://creativecommons.org/licenses/by/3.0/ \nGebruik gerus hierdie video in u klasse!\n\nOns gebruik Google Translate-diens vir lokalisering. Laat weet ons as u foute ervaar.\n"
    },
    {
      "Lang": "am",
      "Title": "የእንግሊዝኛ ሰዋሰው ልምምዶች | ቀላል ⭐️ #74 can",
      "Description": "የእንግሊዝኛ ሰዋስው ይማሩ! በአረፍተ ነገር ውስጥ አንድ ቃል ይለውጡ ፡፡\n\n\n\n0:05 1:21 2:37 \nNancy can not go to the meeting\nˈnænsi kən nɑt goʊ tɪ ðə ˈmitɪŋ\nናንሲ ወደ ስብሰባው መሄድ አትችልም\n\n0:19 1:35 2:51 \nNancy can go to the meeting\nˈnænsi kən goʊ tɪ ðə ˈmitɪŋ\nናንሲ ወደ ስብሰባው መሄድ ትችላለች\n\n0:32 1:48 3:04 \nNancy can do it\nˈnænsi kən du ɪt\nናንሲ ማድረግ ትችላለች\n\n0:45 2:01 3:17 \nNancy can not do it\nˈnænsi kən nɑt du ɪt\nናንሲ ማድረግ አልቻለችም\n\n1:01 2:17 3:33 \nMy grandmother can not do it\nmaɪ ˈgrændˌməðər kən nɑt du ɪt\nአያቴ ማድረግ አልቻለችም\n\n\n\nለመምህራን እና ለት / ቤቶች\nይህ ቪዲዮ በ Creative Commons ፈቃድ ስር ታትሟል ፡፡\n  CC BY 3.0 https://creativecommons.org/licenses/by/3.0/ \nይህንን ቪዲዮ በትምህርቶችዎ ውስጥ ለመጠቀም ነፃ ይሁኑ!\n\nለትርጉም የ Google ትርጉም አገልግሎትን እንጠቀማለን። አንዳንድ ስህተቶች ካገኙ እባክዎ ያሳውቁን።\n"
    },
    {
      "Lang": "ar",
      "Title": "تمارين قواعد اللغة الإنجليزية | بسيط ⭐️ #74 can",
      "Description": "تعلم قواعد اللغة الإنجليزية! تغيير كلمة في جملة.\n\n\n\n0:05 1:21 2:37 \nNancy can not go to the meeting\nˈnænsi kən nɑt goʊ tɪ ðə ˈmitɪŋ\nنانسي لا تستطيع الذهاب إلى الاجتماع\n\n0:19 1:35 2:51 \nNancy can go to the meeting\nˈnænsi kən goʊ tɪ ðə ˈmitɪŋ\nيمكن نانسي الذهاب إلى الاجتماع\n\n0:32 1:48 3:04 \nNancy can do it\nˈnænsi kən du ɪt\nنانسي تستطيع أن تفعل ذلك\n\n0:45 2:01 3:17 \nNancy can not do it\nˈnænsi kən nɑt du ɪt\nنانسي لا تستطيع أن تفعل ذلك\n\n1:01 2:17 3:33 \nMy grandmother can not do it\nmaɪ ˈgrændˌməðər kən nɑt du ɪt\nجدتي لا تستطيع أن تفعل ذلك\n\n\n\nللمعلمين والمدارس:\nتم نشر هذا الفيديو تحت رخصة المشاع الإبداعي.\n  CC BY 3.0 https://creativecommons.org/licenses/by/3.0/ \nلا تتردد في استخدام هذا الفيديو في الفصول الدراسية!\n\nنستخدم خدمة الترجمة من Google للترجمة. إذا وجدت بعض الأخطاء ، يرجى إعلامنا.\n"
    },
    {
      "Lang": "az",
      "Title": "İngilis qrammatikası təlimləri | Sadə ⭐️ #74 can",
      "Description": "İngilis dili qrammatikasını öyrənin! Bir cümlədə bir söz dəyişdirin.\n\n\n\n0:05 1:21 2:37 \nNancy can not go to the meeting\nˈnænsi kən nɑt goʊ tɪ ðə ˈmitɪŋ\nNensi görüşə gedə bilmir\n\n0:19 1:35 2:51 \nNancy can go to the meeting\nˈnænsi kən goʊ tɪ ðə ˈmitɪŋ\nNensi görüşə gedə bilər\n\n0:32 1:48 3:04 \nNancy can do it\nˈnænsi kən du ɪt\nNensi edə bilər\n\n0:45 2:01 3:17 \nNancy can not do it\nˈnænsi kən nɑt du ɪt\nNensi edə bilməz\n\n1:01 2:17 3:33 \nMy grandmother can not do it\nmaɪ ˈgrændˌməðər kən nɑt du ɪt\nNənəm bunu edə bilməz\n\n\n\nMüəllimlərə və məktəblərə:\nBu video Creative Commons lisenziyası altında yayımlanıb.\n  CC BY 3.0 https://creativecommons.org/licenses/by/3.0/ \nBu videonu dərslərinizdə istifadə etməkdən çekinmeyin!\n\nLokallaşdırma üçün Google Translate xidmətindən istifadə edirik. Bəzi səhvlər taparsanız, bizə bildirin.\n"
    },
    {
      "Lang": "be",
      "Title": "Граматычныя практыкаванні на англійскай мове | Просты ⭐️ #74 can",
      "Description": "Вывучайце англійскую граматыку! Змяніце слова ў сказе.\n\n\n\n0:05 1:21 2:37 \nNancy can not go to the meeting\nˈnænsi kən nɑt goʊ tɪ ðə ˈmitɪŋ\nНэнсі не можа ісці на сустрэчу\n\n0:19 1:35 2:51 \nNancy can go to the meeting\nˈnænsi kən goʊ tɪ ðə ˈmitɪŋ\nНэнсі можа пайсці на сустрэчу\n\n0:32 1:48 3:04 \nNancy can do it\nˈnænsi kən du ɪt\nНэнсі можа зрабіць гэта\n\n0:45 2:01 3:17 \nNancy can not do it\nˈnænsi kən nɑt du ɪt\nНэнсі гэта зрабіць не можа\n\n1:01 2:17 3:33 \nMy grandmother can not do it\nmaɪ ˈgrændˌməðər kən nɑt du ɪt\nМая бабуля не можа гэтага зрабіць\n\n\n\nДля настаўнікаў і школ:\nГэта відэа публікуецца пад ліцэнзіяй Creative Commons.\n  CC BY 3.0 https://creativecommons.org/licenses/by/3.0/ \nНе саромейцеся выкарыстоўваць гэта відэа ў сваіх класах!\n\nМы выкарыстоўваем паслугу Google Translate для лакалізацыі. Калі вы выявілі некаторыя памылкі, калі ласка, паведаміце нам пра гэта.\n"
    },
    {
      "Lang": "bg",
      "Title": "Английски граматически упражнения | прост ⭐️ #74 can",
      "Description": "Научете английска граматика! Промяна на дума в изречение.\n\n\n\n0:05 1:21 2:37 \nNancy can not go to the meeting\nˈnænsi kən nɑt goʊ tɪ ðə ˈmitɪŋ\nНанси не може да отиде на срещата\n\n0:19 1:35 2:51 \nNancy can go to the meeting\nˈnænsi kən goʊ tɪ ðə ˈmitɪŋ\nНанси може да отиде на срещата\n\n0:32 1:48 3:04 \nNancy can do it\nˈnænsi kən du ɪt\nНанси може да го направи\n\n0:45 2:01 3:17 \nNancy can not do it\nˈnænsi kən nɑt du ɪt\nНанси не може да го направи\n\n1:01 2:17 3:33 \nMy grandmother can not do it\nmaɪ ˈgrændˌməðər kən nɑt du ɪt\nБаба ми не може да го направи\n\n\n\nЗа учители и училища:\nТози видеоклип е публикуван под Creative Commons License.\n  CC BY 3.0 https://creativecommons.org/licenses/by/3.0/ \nЧувствайте се свободни да използвате това видео в класовете си!\n\nНие използваме услугата Google Translate за локализация. Ако откриете някои грешки, моля, уведомете ни.\n"
    },
    {
      "Lang": "bn",
      "Title": "ইংরেজি ব্যাকরণ অনুশীলন | সহজ ⭐️ #74 can",
      "Description": "ইংরেজি ব্যাকরণ শিখুন! একটি বাক্যে একটি শব্দ পরিবর্তন করুন।\n\n\n\n0:05 1:21 2:37 \nNancy can not go to the meeting\nˈnænsi kən nɑt goʊ tɪ ðə ˈmitɪŋ\nন্যান্সি মিটিংয়ে যেতে পারবেন না\n\n0:19 1:35 2:51 \nNancy can go to the meeting\nˈnænsi kən goʊ tɪ ðə ˈmitɪŋ\nন্যান্সি সভায় যেতে পারেন\n\n0:32 1:48 3:04 \nNancy can do it\nˈnænsi kən du ɪt\nন্যান্সি এটা করতে পারে\n\n0:45 2:01 3:17 \nNancy can not do it\nˈnænsi kən nɑt du ɪt\nন্যান্সি এটা করতে পারে না\n\n1:01 2:17 3:33 \nMy grandmother can not do it\nmaɪ ˈgrændˌməðər kən nɑt du ɪt\nআমার ঠাকুমা এটা করতে পারে না\n\n\n\nশিক্ষক এবং বিদ্যালয়ের কাছে:\nএই ভিডিওটি ক্রিয়েটিভ কমন্স লাইসেন্সের আওতায় প্রকাশিত হয়েছে।\n  CC BY 3.0 https://creativecommons.org/licenses/by/3.0/ \nআপনার ক্লাসে এই ভিডিওটি নির্দ্বিধায় ব্যবহার করুন!\n\nআমরা স্থানীয়করণের জন্য গুগল অনুবাদ পরিষেবা ব্যবহার করি। আপনি যদি কিছু ভুল খুঁজে পান তবে দয়া করে আমাদের জানান।\n"
    },
    {
      "Lang": "bs",
      "Title": "Engleske gramatičke vježbe | Jednostavno ⭐️ #74 can",
      "Description": "Naučite englesku gramatiku! Promenite reč u rečenici.\n\n\n\n0:05 1:21 2:37 \nNancy can not go to the meeting\nˈnænsi kən nɑt goʊ tɪ ðə ˈmitɪŋ\nNancy ne može ići na sastanak\n\n0:19 1:35 2:51 \nNancy can go to the meeting\nˈnænsi kən goʊ tɪ ðə ˈmitɪŋ\nNancy može ići na sastanak\n\n0:32 1:48 3:04 \nNancy can do it\nˈnænsi kən du ɪt\nNancy to može\n\n0:45 2:01 3:17 \nNancy can not do it\nˈnænsi kən nɑt du ɪt\nNancy to ne može\n\n1:01 2:17 3:33 \nMy grandmother can not do it\nmaɪ ˈgrændˌməðər kən nɑt du ɪt\nMoja baka to ne može\n\n\n\nNastavnicima i školama:\nOvaj video je objavljen pod Creative Commons licencom.\n  CC BY 3.0 https://creativecommons.org/licenses/by/3.0/ \nSlobodno koristite ovaj videozapis u svojim predavanjima!\n\nZa lokalizaciju koristimo uslugu Google Translate. Ako pronađete neke greške, javite nam se.\n"
    },
    {
      "Lang": "ca",
      "Title": "Exercicis de gramàtica anglesa | Senzill ⭐️ #74 can",
      "Description": "Apreneu gramàtica anglesa! Canvia una paraula en una frase.\n\n\n\n0:05 1:21 2:37 \nNancy can not go to the meeting\nˈnænsi kən nɑt goʊ tɪ ðə ˈmitɪŋ\nNancy no pot anar a la reunió\n\n0:19 1:35 2:51 \nNancy can go to the meeting\nˈnænsi kən goʊ tɪ ðə ˈmitɪŋ\nNancy pot anar a la reunió\n\n0:32 1:48 3:04 \nNancy can do it\nˈnænsi kən du ɪt\nNancy pot fer-ho\n\n0:45 2:01 3:17 \nNancy can not do it\nˈnænsi kən nɑt du ɪt\nNancy no ho pot fer\n\n1:01 2:17 3:33 \nMy grandmother can not do it\nmaɪ ˈgrændˌməðər kən nɑt du ɪt\nLa meva àvia no ho pot fer\n\n\n\nA professors i escoles:\nAquest vídeo es publica sota llicència Creative Commons.\n  CC BY 3.0 https://creativecommons.org/licenses/by/3.0/ \nNo dubteu a utilitzar aquest vídeo a les vostres classes.\n\nUtilitzem el servei de Google Translate per a la localització. Si trobeu alguns errors, feu-nos-ho saber.\n"
    },
    {
      "Lang": "co",
      "Title": "Esercizii di grammatica inglese | Semplice ⭐️ #74 can",
      "Description": "Amparate a grammatica inglese! Cambia una parolla in una frase.\n\n\n\n0:05 1:21 2:37 \nNancy can not go to the meeting\nˈnænsi kən nɑt goʊ tɪ ðə ˈmitɪŋ\nNancy ùn pò micca andà à a riunione\n\n0:19 1:35 2:51 \nNancy can go to the meeting\nˈnænsi kən goʊ tɪ ðə ˈmitɪŋ\nNancy pò andà à a riunione\n\n0:32 1:48 3:04 \nNancy can do it\nˈnænsi kən du ɪt\nNancy pò fà\n\n0:45 2:01 3:17 \nNancy can not do it\nˈnænsi kən nɑt du ɪt\nNancy ùn pò micca fà\n\n1:01 2:17 3:33 \nMy grandmother can not do it\nmaɪ ˈgrændˌməðər kən nɑt du ɪt\nA me nanna ùn pò micca fà\n\n\n\nÀ i prufessori è à e scole:\nStu video hè publicatu sottu licenza Creative Commons.\n  CC BY 3.0 https://creativecommons.org/licenses/by/3.0/ \nSentitevi liberi d'utilizà stu video in i vostri classi!\n\nUsu u serviziu di Google Translate per a localizazione. Se truvate qualchì sbagli, per piaceci di sapè.\n"
    },
    {
      "Lang": "cs",
      "Title": "Cvičení anglické gramatiky | Jednoduchý ⭐️ #74 can",
      "Description": "Naučte se anglickou gramatiku! Změňte slovo ve větě.\n\n\n\n0:05 1:21 2:37 \nNancy can not go to the meeting\nˈnænsi kən nɑt goʊ tɪ ðə ˈmitɪŋ\nNancy nemůže jít na schůzku\n\n0:19 1:35 2:51 \nNancy can go to the meeting\nˈnænsi kən goʊ tɪ ðə ˈmitɪŋ\nNancy může jít na schůzku\n\n0:32 1:48 3:04 \nNancy can do it\nˈnænsi kən du ɪt\nNancy to dokáže\n\n0:45 2:01 3:17 \nNancy can not do it\nˈnænsi kən nɑt du ɪt\nNancy to nemůže udělat\n\n1:01 2:17 3:33 \nMy grandmother can not do it\nmaɪ ˈgrændˌməðər kən nɑt du ɪt\nMoje babička to nemůže udělat\n\n\n\nUčitelům a školám:\nToto video je publikováno pod licencí Creative Commons License.\n  CC BY 3.0 https://creativecommons.org/licenses/by/3.0/ \nNeváhejte použít toto video ve svých třídách!\n\nK lokalizaci používáme službu Google Translate. Pokud narazíte na nějaké chyby, dejte nám prosím vědět.\n"
    },
    {
      "Lang": "cy",
      "Title": "Ymarferion gramadeg Saesneg | Syml ⭐️ #74 can",
      "Description": "Dysgu gramadeg Saesneg! Newid gair mewn brawddeg.\n\n\n\n0:05 1:21 2:37 \nNancy can not go to the meeting\nˈnænsi kən nɑt goʊ tɪ ðə ˈmitɪŋ\nNi all Nancy fynd i'r cyfarfod\n\n0:19 1:35 2:51 \nNancy can go to the meeting\nˈnænsi kən goʊ tɪ ðə ˈmitɪŋ\nGall Nancy fynd i'r cyfarfod\n\n0:32 1:48 3:04 \nNancy can do it\nˈnænsi kən du ɪt\nGall Nancy ei wneud\n\n0:45 2:01 3:17 \nNancy can not do it\nˈnænsi kən nɑt du ɪt\nNi all Nancy ei wneud\n\n1:01 2:17 3:33 \nMy grandmother can not do it\nmaɪ ˈgrændˌməðər kən nɑt du ɪt\nNi all fy nain ei wneud\n\n\n\nI athrawon ac ysgolion:\nCyhoeddir y fideo hon o dan Creative Commons License.\n  CC BY 3.0 https://creativecommons.org/licenses/by/3.0/ \nMae croeso i chi ddefnyddio'r fideo hon yn eich dosbarthiadau!\n\nRydym yn defnyddio gwasanaeth Google Translate ar gyfer lleoleiddio. Os dewch chi o hyd i rai camgymeriadau, rhowch wybod i ni.\n"
    },
    {
      "Lang": "da",
      "Title": "Engelsk grammatikøvelser | Enkel ⭐️ #74 can",
      "Description": "Lær engelsk grammatik! Skift et ord i en sætning.\n\n\n\n0:05 1:21 2:37 \nNancy can not go to the meeting\nˈnænsi kən nɑt goʊ tɪ ðə ˈmitɪŋ\nNancy kan ikke gå til mødet\n\n0:19 1:35 2:51 \nNancy can go to the meeting\nˈnænsi kən goʊ tɪ ðə ˈmitɪŋ\nNancy kan gå til mødet\n\n0:32 1:48 3:04 \nNancy can do it\nˈnænsi kən du ɪt\nNancy kan gøre det\n\n0:45 2:01 3:17 \nNancy can not do it\nˈnænsi kən nɑt du ɪt\nNancy kan ikke gøre det\n\n1:01 2:17 3:33 \nMy grandmother can not do it\nmaɪ ˈgrændˌməðər kən nɑt du ɪt\nMin bedstemor kan ikke gøre det\n\n\n\nTil lærere og skoler:\nDenne video er offentliggjort under Creative Commons License.\n  CC BY 3.0 https://creativecommons.org/licenses/by/3.0/ \nBrug gjerne denne video i dine klasser!\n\nVi bruger Google Translate-tjenesten til lokalisering. Hvis du finder nogle fejl, så lad os vide det.\n"
    },
    {
      "Lang": "de",
      "Title": "Englische Grammatikübungen | Einfach ⭐️ #74 can",
      "Description": "Lerne englische Grammatik! Ändern Sie ein Wort in einem Satz.\n\n\n\n0:05 1:21 2:37 \nNancy can not go to the meeting\nˈnænsi kən nɑt goʊ tɪ ðə ˈmitɪŋ\nNancy kann nicht zum Treffen gehen\n\n0:19 1:35 2:51 \nNancy can go to the meeting\nˈnænsi kən goʊ tɪ ðə ˈmitɪŋ\nNancy kann zum Treffen gehen\n\n0:32 1:48 3:04 \nNancy can do it\nˈnænsi kən du ɪt\nNancy kann es schaffen\n\n0:45 2:01 3:17 \nNancy can not do it\nˈnænsi kən nɑt du ɪt\nNancy kann es nicht tun\n\n1:01 2:17 3:33 \nMy grandmother can not do it\nmaɪ ˈgrændˌməðər kən nɑt du ɪt\nMeine Großmutter kann das nicht\n\n\n\nAn Lehrer und Schulen:\nDieses Video wird unter der Creative Commons License veröffentlicht.\n  CC BY 3.0 https://creativecommons.org/licenses/by/3.0/ \nFühlen Sie sich frei, dieses Video in Ihren Klassen zu verwenden!\n\nWir verwenden den Google Translate-Dienst zur Lokalisierung. Wenn Sie Fehler finden, teilen Sie uns dies bitte mit.\n"
    },
    {
      "Lang": "el",
      "Title": "Αγγλικές ασκήσεις γραμματικής | Απλός ⭐️ #74 can",
      "Description": "Μάθετε αγγλική γραμματική! Αλλάξτε μια λέξη σε μια πρόταση.\n\n\n\n0:05 1:21 2:37 \nNancy can not go to the meeting\nˈnænsi kən nɑt goʊ tɪ ðə ˈmitɪŋ\nΗ Νανσί δεν μπορεί να πάει στη συνάντηση\n\n0:19 1:35 2:51 \nNancy can go to the meeting\nˈnænsi kən goʊ tɪ ðə ˈmitɪŋ\nΗ Νανσί μπορεί να πάει στη συνάντηση\n\n0:32 1:48 3:04 \nNancy can do it\nˈnænsi kən du ɪt\nΗ Νανσί μπορεί να το κάνει\n\n0:45 2:01 3:17 \nNancy can not do it\nˈnænsi kən nɑt du ɪt\nΗ Νανσί δεν μπορεί να το κάνει\n\n1:01 2:17 3:33 \nMy grandmother can not do it\nmaɪ ˈgrændˌməðər kən nɑt du ɪt\nΗ γιαγιά μου δεν μπορεί να το κάνει\n\n\n\nΣτους εκπαιδευτικούς και τα σχολεία:\nΑυτό το βίντεο δημοσιεύεται υπό Creative Commons License.\n  CC BY 3.0 https://creativecommons.org/licenses/by/3.0/ \nΜπορείτε να χρησιμοποιήσετε αυτό το βίντεο στις τάξεις σας!\n\nΧρησιμοποιούμε την υπηρεσία Google Translate για εντοπισμό. Αν βρείτε κάποια λάθη, ενημερώστε μας.\n"
    },
    {
      "Lang": "en",
      "Title": "English grammar exercises | Simple ⭐️ #74 can",
      "Description": "Learn English grammar! Change a word in a sentence.\n\n\n\n0:05 1:21 2:37 \nNancy can not go to the meeting\nˈnænsi kən nɑt goʊ tɪ ðə ˈmitɪŋ\nNancy can not go to the meeting\n\n0:19 1:35 2:51 \nNancy can go to the meeting\nˈnænsi kən goʊ tɪ ðə ˈmitɪŋ\nNancy can go to the meeting\n\n0:32 1:48 3:04 \nNancy can do it\nˈnænsi kən du ɪt\nNancy can do it\n\n0:45 2:01 3:17 \nNancy can not do it\nˈnænsi kən nɑt du ɪt\nNancy can not do it\n\n1:01 2:17 3:33 \nMy grandmother can not do it\nmaɪ ˈgrændˌməðər kən nɑt du ɪt\nMy grandmother can not do it\n\n\n\nTo teachers and schools:\nThis video is published under Creative Commons License.\n  CC BY 3.0 https://creativecommons.org/licenses/by/3.0/ \nFeel free to use this video in your classes!\n\nWe use Google Translate service for localization. If you find some mistakes, please let us know.\n"
    },
    {
      "Lang": "es",
      "Title": "Ejercicios de gramática inglesa | Sencillo ⭐️ #74 can",
      "Description": "¡Aprende gramática inglesa! Cambiar una palabra en una oración.\n\n\n\n0:05 1:21 2:37 \nNancy can not go to the meeting\nˈnænsi kən nɑt goʊ tɪ ðə ˈmitɪŋ\nNancy no puede ir a la reunión\n\n0:19 1:35 2:51 \nNancy can go to the meeting\nˈnænsi kən goʊ tɪ ðə ˈmitɪŋ\nNancy puede ir a la reunión\n\n0:32 1:48 3:04 \nNancy can do it\nˈnænsi kən du ɪt\nNancy puede hacerlo\n\n0:45 2:01 3:17 \nNancy can not do it\nˈnænsi kən nɑt du ɪt\nNancy no puede hacerlo\n\n1:01 2:17 3:33 \nMy grandmother can not do it\nmaɪ ˈgrændˌməðər kən nɑt du ɪt\nMi abuela no puede hacerlo\n\n\n\nA profesores y escuelas:\nEste video se publica bajo licencia Creative Commons.\n  CC BY 3.0 https://creativecommons.org/licenses/by/3.0/ \n¡Siéntete libre de usar este video en tus clases!\n\nUtilizamos el servicio Google Translate para la localización. Si encuentra algunos errores, háganoslo saber.\n"
    },
    {
      "Lang": "et",
      "Title": "Inglise keele grammatika harjutused | Lihtne ⭐️ #74 can",
      "Description": "Õpi inglise keele grammatikat! Muutke lauses sõna.\n\n\n\n0:05 1:21 2:37 \nNancy can not go to the meeting\nˈnænsi kən nɑt goʊ tɪ ðə ˈmitɪŋ\nNancy ei saa koosolekule minna\n\n0:19 1:35 2:51 \nNancy can go to the meeting\nˈnænsi kən goʊ tɪ ðə ˈmitɪŋ\nNancy võib koosolekule minna\n\n0:32 1:48 3:04 \nNancy can do it\nˈnænsi kən du ɪt\nNancy saab sellega hakkama\n\n0:45 2:01 3:17 \nNancy can not do it\nˈnænsi kən nɑt du ɪt\nNancy ei saa seda teha\n\n1:01 2:17 3:33 \nMy grandmother can not do it\nmaɪ ˈgrændˌməðər kən nɑt du ɪt\nMu vanaema ei saa seda teha\n\n\n\nÕpetajatele ja koolidele:\nSee video on avaldatud Creative Commonsi litsentsi all.\n  CC BY 3.0 https://creativecommons.org/licenses/by/3.0/ \nKasutage seda videot julgelt oma tundides!\n\nLokaliseerimiseks kasutame Google'i tõlke teenust. Kui leiate vigu, palun andke meile sellest teada.\n"
    },
    {
      "Lang": "eu",
      "Title": "Ingelesezko gramatika ariketak | simple ⭐️ #74 can",
      "Description": "Ikasi ingelesezko gramatika! Aldatu esaldi batean hitzak.\n\n\n\n0:05 1:21 2:37 \nNancy can not go to the meeting\nˈnænsi kən nɑt goʊ tɪ ðə ˈmitɪŋ\nNancy ezin da bilerara joan\n\n0:19 1:35 2:51 \nNancy can go to the meeting\nˈnænsi kən goʊ tɪ ðə ˈmitɪŋ\nNancy bilerara joan daiteke\n\n0:32 1:48 3:04 \nNancy can do it\nˈnænsi kən du ɪt\nNancyk egin dezake\n\n0:45 2:01 3:17 \nNancy can not do it\nˈnænsi kən nɑt du ɪt\nNancyk ezin du egin\n\n1:01 2:17 3:33 \nMy grandmother can not do it\nmaɪ ˈgrændˌməðər kən nɑt du ɪt\nNire amonak ezin du egin\n\n\n\nIrakasleei eta ikastetxeei:\nBideo hau Creative Commons lizentziapean argitaratzen da.\n  CC BY 3.0 https://creativecommons.org/licenses/by/3.0/ \nEz ahaztu bideo hau zure klaseetan erabiltzeko!\n\nGoogle Translate zerbitzua erabiltzen dugu lokalizaziorako. Akats batzuk aurkitzen badituzu, adierazi iezaguzu\n"
    },
    {
      "Lang": "fa",
      "Title": "تمرین های دستور زبان انگلیسی | ساده ⭐️ #74 can",
      "Description": "گرامر انگلیسی را بیاموزید! یک کلمه را در یک جمله تغییر دهید.\n\n\n\n0:05 1:21 2:37 \nNancy can not go to the meeting\nˈnænsi kən nɑt goʊ tɪ ðə ˈmitɪŋ\nنانسی نمی تواند به جلسه برود\n\n0:19 1:35 2:51 \nNancy can go to the meeting\nˈnænsi kən goʊ tɪ ðə ˈmitɪŋ\nنانسی می تواند به جلسه برود\n\n0:32 1:48 3:04 \nNancy can do it\nˈnænsi kən du ɪt\nنانسی می تواند این کار را انجام دهد\n\n0:45 2:01 3:17 \nNancy can not do it\nˈnænsi kən nɑt du ɪt\nنانسی نمی تواند این کار را انجام دهد\n\n1:01 2:17 3:33 \nMy grandmother can not do it\nmaɪ ˈgrændˌməðər kən nɑt du ɪt\nمادربزرگم نمی تواند این کار را انجام دهد\n\n\n\nبه معلمان و مدارس:\nاین ویدیو تحت مجوز Creative Commons منتشر شده است.\n  CC BY 3.0 https://creativecommons.org/licenses/by/3.0/ \nدر استفاده از این فیلم در کلاس های خود احساس راحتی کنید!\n\nما از خدمات Google Translate برای محلی سازی استفاده می کنیم. اگر شما برخی از اشتباهات ، لطفا به ما اطلاع دهید.\n"
    },
    {
      "Lang": "fi",
      "Title": "Englannin kieliopin harjoitukset | Yksinkertainen ⭐️ #74 can",
      "Description": "Opi englannin kielioppi! Vaihda sana lauseessa.\n\n\n\n0:05 1:21 2:37 \nNancy can not go to the meeting\nˈnænsi kən nɑt goʊ tɪ ðə ˈmitɪŋ\nNancy ei voi mennä kokoukseen\n\n0:19 1:35 2:51 \nNancy can go to the meeting\nˈnænsi kən goʊ tɪ ðə ˈmitɪŋ\nNancy voi mennä kokoukseen\n\n0:32 1:48 3:04 \nNancy can do it\nˈnænsi kən du ɪt\nNancy osaa tehdä sen\n\n0:45 2:01 3:17 \nNancy can not do it\nˈnænsi kən nɑt du ɪt\nNancy ei voi tehdä sitä\n\n1:01 2:17 3:33 \nMy grandmother can not do it\nmaɪ ˈgrændˌməðər kən nɑt du ɪt\nIsoäitini ei voi tehdä sitä\n\n\n\nOpettajille ja kouluille:\nTämä video on julkaistu Creative Commons -lisenssillä.\n  CC BY 3.0 https://creativecommons.org/licenses/by/3.0/ \nVoit vapaasti käyttää tätä videota luokissa!\n\nKäytämme lokalisointiin Google Translate -palvelua. Jos löydät virheitä, ota meihin yhteyttä.\n"
    },
    {
      "Lang": "fil",
      "Title": "Pagsasanay sa grammar ng Ingles | Simple ⭐️ #74 can",
      "Description": "Alamin ang grammar ng Ingles! Baguhin ang isang salita sa isang pangungusap.\n\n\n\n0:05 1:21 2:37 \nNancy can not go to the meeting\nˈnænsi kən nɑt goʊ tɪ ðə ˈmitɪŋ\nHindi makapunta si Nancy sa pagpupulong\n\n0:19 1:35 2:51 \nNancy can go to the meeting\nˈnænsi kən goʊ tɪ ðə ˈmitɪŋ\nPwedeng pumunta si Nancy sa pagpupulong\n\n0:32 1:48 3:04 \nNancy can do it\nˈnænsi kən du ɪt\nMagagawa ito ni Nancy\n\n0:45 2:01 3:17 \nNancy can not do it\nˈnænsi kən nɑt du ɪt\nHindi ito magagawa ni Nancy\n\n1:01 2:17 3:33 \nMy grandmother can not do it\nmaɪ ˈgrændˌməðər kən nɑt du ɪt\nHindi ito magawa ng lola ko\n\n\n\nSa mga guro at paaralan:\nAng video na ito ay nai-publish sa ilalim ng Lisensya ng Creative Commons.\n  CC BY 3.0 https://creativecommons.org/licenses/by/3.0/ \nHuwag mag-atubiling gamitin ang video na ito sa iyong mga klase!\n\nWe use Google Translate service for localization. If you find some mistakes, please let us know.\n"
    },
    {
      "Lang": "fr",
      "Title": "Exercices de grammaire anglaise | Facile ⭐️ #74 can",
      "Description": "Apprenez la grammaire anglaise! Changer un mot dans une phrase.\n\n\n\n0:05 1:21 2:37 \nNancy can not go to the meeting\nˈnænsi kən nɑt goʊ tɪ ðə ˈmitɪŋ\nNancy ne peut pas aller à la réunion\n\n0:19 1:35 2:51 \nNancy can go to the meeting\nˈnænsi kən goʊ tɪ ðə ˈmitɪŋ\nNancy peut aller à la réunion\n\n0:32 1:48 3:04 \nNancy can do it\nˈnænsi kən du ɪt\nNancy peut le faire\n\n0:45 2:01 3:17 \nNancy can not do it\nˈnænsi kən nɑt du ɪt\nNancy ne peut pas le faire\n\n1:01 2:17 3:33 \nMy grandmother can not do it\nmaɪ ˈgrændˌməðər kən nɑt du ɪt\nMa grand-mère ne peut pas le faire\n\n\n\nAux enseignants et aux écoles:\nCette vidéo est publiée sous licence Creative Commons.\n  CC BY 3.0 https://creativecommons.org/licenses/by/3.0/ \nN'hésitez pas à utiliser cette vidéo dans vos cours!\n\nNous utilisons le service Google Translate pour la localisation. Si vous trouvez des erreurs, veuillez nous en informer.\n"
    },
    {
      "Lang": "fy",
      "Title": "Ingelske oefeningen foar grammatika | Ienfâldich ⭐️ #74 can",
      "Description": "Learje Ingelske grammatika! Feroarje in wurd yn in sin.\n\n\n\n0:05 1:21 2:37 \nNancy can not go to the meeting\nˈnænsi kən nɑt goʊ tɪ ðə ˈmitɪŋ\nNancy kin net nei de gearkomste\n\n0:19 1:35 2:51 \nNancy can go to the meeting\nˈnænsi kən goʊ tɪ ðə ˈmitɪŋ\nNancy kin nei de gearkomste gean\n\n0:32 1:48 3:04 \nNancy can do it\nˈnænsi kən du ɪt\nNancy kin it dwaan\n\n0:45 2:01 3:17 \nNancy can not do it\nˈnænsi kən nɑt du ɪt\nNancy kin it net dwaan\n\n1:01 2:17 3:33 \nMy grandmother can not do it\nmaɪ ˈgrændˌməðər kən nɑt du ɪt\nMyn beppe kin it net dwaan\n\n\n\nOan dosinten en skoallen:\nDizze fideo wurdt publisearre ûnder Creative Commons License.\n  CC BY 3.0 https://creativecommons.org/licenses/by/3.0/ \nFiel jo frij om dizze fideo te brûken yn jo klassen!\n\nWy brûke Google Translate tsjinst foar lokalisaasje. As jo wat flaters fine, lit it ús dan witte.\n"
    },
    {
      "Lang": "gd",
      "Title": "Eacarsaichean gràmair Beurla | Gu sìmplidh ⭐️ #74 can",
      "Description": "Ionnsaich gràmar Beurla! Atharraich facal ann an seantans.\n\n\n\n0:05 1:21 2:37 \nNancy can not go to the meeting\nˈnænsi kən nɑt goʊ tɪ ðə ˈmitɪŋ\nChan urrainn dha Nancy a dhol chun choinneamh\n\n0:19 1:35 2:51 \nNancy can go to the meeting\nˈnænsi kən goʊ tɪ ðə ˈmitɪŋ\nFaodaidh Nancy a dhol chun choinneamh\n\n0:32 1:48 3:04 \nNancy can do it\nˈnænsi kən du ɪt\nFaodaidh Nancy a dhèanamh\n\n0:45 2:01 3:17 \nNancy can not do it\nˈnænsi kən nɑt du ɪt\nChan urrainn dha Nancy a dhèanamh\n\n1:01 2:17 3:33 \nMy grandmother can not do it\nmaɪ ˈgrændˌməðər kən nɑt du ɪt\nChan urrainn dha mo sheanmhair a dhèanamh\n\n\n\nDo thidsearan agus sgoiltean:\nTha a ’bhidio seo air fhoillseachadh fo Creative Commons License.\n  CC BY 3.0 https://creativecommons.org/licenses/by/3.0/ \nFaodaidh tu am bhidio seo a chleachdadh anns na clasaichean agad!\n\nBidh sinn a ’cleachdadh seirbheis Google Translate airson sgìreachadh. Ma lorgas tu cuid de mhearachdan, feuch an innis thu dhuinn.\n"
    },
    {
      "Lang": "gl",
      "Title": "Exercicios de gramática inglesa | Sinxelo ⭐️ #74 can",
      "Description": "Aprende gramática inglesa! Cambia unha palabra nunha frase.\n\n\n\n0:05 1:21 2:37 \nNancy can not go to the meeting\nˈnænsi kən nɑt goʊ tɪ ðə ˈmitɪŋ\nNancy non pode ir á reunión\n\n0:19 1:35 2:51 \nNancy can go to the meeting\nˈnænsi kən goʊ tɪ ðə ˈmitɪŋ\nNancy pode ir á reunión\n\n0:32 1:48 3:04 \nNancy can do it\nˈnænsi kən du ɪt\nNancy pode facelo\n\n0:45 2:01 3:17 \nNancy can not do it\nˈnænsi kən nɑt du ɪt\nNancy non pode facelo\n\n1:01 2:17 3:33 \nMy grandmother can not do it\nmaɪ ˈgrændˌməðər kən nɑt du ɪt\nA miña avoa non pode facelo\n\n\n\nPara profesores e colexios:\nEste vídeo está publicado baixo a licenza Creative Commons.\n  CC BY 3.0 https://creativecommons.org/licenses/by/3.0/ \nNon dubides en usar este vídeo nas túas clases.\n\nUsamos o servizo Google Translate para a súa localización. Se atopas algún erro, comunícanos.\n"
    },
    {
      "Lang": "gu",
      "Title": "અંગ્રેજી વ્યાકરણ વ્યાયામ | સરળ ⭐️ #74 can",
      "Description": "અંગ્રેજી વ્યાકરણ શીખો! એક વાક્યમાં એક શબ્દ બદલો.\n\n\n\n0:05 1:21 2:37 \nNancy can not go to the meeting\nˈnænsi kən nɑt goʊ tɪ ðə ˈmitɪŋ\nનેન્સી મીટિંગમાં જઈ શકશે નહીં\n\n0:19 1:35 2:51 \nNancy can go to the meeting\nˈnænsi kən goʊ tɪ ðə ˈmitɪŋ\nનેન્સી મીટિંગમાં જઈ શકે છે\n\n0:32 1:48 3:04 \nNancy can do it\nˈnænsi kən du ɪt\nનેન્સી તે કરી શકે છે\n\n0:45 2:01 3:17 \nNancy can not do it\nˈnænsi kən nɑt du ɪt\nનેન્સી તે કરી શકતા નથી\n\n1:01 2:17 3:33 \nMy grandmother can not do it\nmaɪ ˈgrændˌməðər kən nɑt du ɪt\nમારી દાદી તે કરી શકતા નથી\n\n\n\nશિક્ષકો અને શાળાઓને:\nઆ વિડિઓ ક્રિએટિવ કonsમન્સ લાઇસન્સ હેઠળ પ્રકાશિત છે.\n  CC BY 3.0 https://creativecommons.org/licenses/by/3.0/ \nતમારા વર્ગોમાં આ વિડિઓનો ઉપયોગ કરવા માટે મફત લાગે!\n\nઅમે સ્થાનિકીકરણ માટે Google ભાષાંતર સેવાનો ઉપયોગ કરીએ છીએ. જો તમને કેટલીક ભૂલો લાગે છે, તો કૃપા કરીને અમને જણાવો.\n"
    },
    {
      "Lang": "ha",
      "Title": "Darasi na ilimin nahawu na Turanci | Mai sauki ⭐️ #74 can",
      "Description": "Koyi ilimin nahawu Turanci! Canja kalma a cikin jumla.\n\n\n\n0:05 1:21 2:37 \nNancy can not go to the meeting\nˈnænsi kən nɑt goʊ tɪ ðə ˈmitɪŋ\nNancy ba za ta iya zuwa wurin taron ba\n\n0:19 1:35 2:51 \nNancy can go to the meeting\nˈnænsi kən goʊ tɪ ðə ˈmitɪŋ\nNancy na iya zuwa wurin taron\n\n0:32 1:48 3:04 \nNancy can do it\nˈnænsi kən du ɪt\nNancy zata iya yi\n\n0:45 2:01 3:17 \nNancy can not do it\nˈnænsi kən nɑt du ɪt\nNancy ba zata iya yi ba\n\n1:01 2:17 3:33 \nMy grandmother can not do it\nmaɪ ˈgrændˌməðər kən nɑt du ɪt\nKakata ba zata iya ba\n\n\n\nGa malamai da makarantu:\nWannan bidiyon an buga shi a ƙarƙashin lasisin Creative Commons.\n  CC BY 3.0 https://creativecommons.org/licenses/by/3.0/ \nJin kyauta don amfani da wannan bidiyon a cikin azuzuwanku!\n\nMuna amfani da sabis na Google Fassara don fassarar. Idan ka sami wasu kurakurai, da fatan za a sanar da mu.\n"
    },
    {
      "Lang": "hi",
      "Title": "अंग्रेजी व्याकरण अभ्यास | सरल ⭐️ #74 can",
      "Description": "अंग्रेजी व्याकरण जानें! एक वाक्य में एक शब्द बदलें।\n\n\n\n0:05 1:21 2:37 \nNancy can not go to the meeting\nˈnænsi kən nɑt goʊ tɪ ðə ˈmitɪŋ\nनैंसी बैठक में नहीं जा सकतीं\n\n0:19 1:35 2:51 \nNancy can go to the meeting\nˈnænsi kən goʊ tɪ ðə ˈmitɪŋ\nनैंसी बैठक में जा सकती हैं\n\n0:32 1:48 3:04 \nNancy can do it\nˈnænsi kən du ɪt\nनैन्सी इसे कर सकती है\n\n0:45 2:01 3:17 \nNancy can not do it\nˈnænsi kən nɑt du ɪt\nनैन्सी ऐसा नहीं कर सकती\n\n1:01 2:17 3:33 \nMy grandmother can not do it\nmaɪ ˈgrændˌməðər kən nɑt du ɪt\nमेरी दादी ऐसा नहीं कर सकती\n\n\n\nशिक्षकों और स्कूलों के लिए:\nयह वीडियो क्रिएटिव कॉमन्स लाइसेंस के तहत प्रकाशित हुआ है।\n  CC BY 3.0 https://creativecommons.org/licenses/by/3.0/ \nअपनी कक्षाओं में इस वीडियो का उपयोग करने के लिए स्वतंत्र महसूस करें!\n\nहम स्थानीयकरण के लिए Google अनुवाद सेवा का उपयोग करते हैं। यदि आप कुछ गलतियाँ पाते हैं, तो कृपया हमें बताएँ।\n"
    },
    {
      "Lang": "hr",
      "Title": "Gramatičke vježbe engleskog jezika | Jednostavan ⭐️ #74 can",
      "Description": "Naučite englesku gramatiku! Promijenite riječ u rečenici.\n\n\n\n0:05 1:21 2:37 \nNancy can not go to the meeting\nˈnænsi kən nɑt goʊ tɪ ðə ˈmitɪŋ\nNancy ne može ići na sastanak\n\n0:19 1:35 2:51 \nNancy can go to the meeting\nˈnænsi kən goʊ tɪ ðə ˈmitɪŋ\nNancy može ići na sastanak\n\n0:32 1:48 3:04 \nNancy can do it\nˈnænsi kən du ɪt\nNancy to može\n\n0:45 2:01 3:17 \nNancy can not do it\nˈnænsi kən nɑt du ɪt\nNancy to ne može\n\n1:01 2:17 3:33 \nMy grandmother can not do it\nmaɪ ˈgrændˌməðər kən nɑt du ɪt\nMoja baka to ne može\n\n\n\nNastavnicima i školama:\nOvaj videozapis objavljen je pod licencom Creative Commons.\n  CC BY 3.0 https://creativecommons.org/licenses/by/3.0/ \nSlobodno upotrijebite ovaj videozapis u svojim predavanjima!\n\nZa lokalizaciju koristimo uslugu Google Translate. Ako pronađete neke pogreške, javite nam se.\n"
    },
    {
      "Lang": "hu",
      "Title": "Angol nyelvtan gyakorlatok | Egyszerű ⭐️ #74 can",
      "Description": "Tanulj angol nyelvtant! Változtasson egy szót egy mondatban.\n\n\n\n0:05 1:21 2:37 \nNancy can not go to the meeting\nˈnænsi kən nɑt goʊ tɪ ðə ˈmitɪŋ\nNancy nem mehet a találkozóra\n\n0:19 1:35 2:51 \nNancy can go to the meeting\nˈnænsi kən goʊ tɪ ðə ˈmitɪŋ\nNancy elmehet a találkozóra\n\n0:32 1:48 3:04 \nNancy can do it\nˈnænsi kən du ɪt\nNancy meg tudja csinálni\n\n0:45 2:01 3:17 \nNancy can not do it\nˈnænsi kən nɑt du ɪt\nNancy nem tudja megtenni\n\n1:01 2:17 3:33 \nMy grandmother can not do it\nmaɪ ˈgrændˌməðər kən nɑt du ɪt\nA nagymamám nem tudja megtenni\n\n\n\nTanároknak és iskoláknak:\nEz a videó a Creative Commons License alatt jelenik meg.\n  CC BY 3.0 https://creativecommons.org/licenses/by/3.0/ \nNyugodtan használja ezt a videót az osztályokban!\n\nA lokalizációhoz a Google Translate szolgáltatást használjuk. Ha hibát talál, kérjük, ossza meg velünk.\n"
    },
    {
      "Lang": "hy",
      "Title": "Անգլերենի քերականական վարժություններ | Պարզ ⭐️ #74 can",
      "Description": "Իմացեք անգլերեն քերականությունը: Մի նախադասությամբ մի բառ փոխեք:\n\n\n\n0:05 1:21 2:37 \nNancy can not go to the meeting\nˈnænsi kən nɑt goʊ tɪ ðə ˈmitɪŋ\nՆենսին չի կարող գնալ հանդիպման\n\n0:19 1:35 2:51 \nNancy can go to the meeting\nˈnænsi kən goʊ tɪ ðə ˈmitɪŋ\nՆենսին կարող է գնալ հանդիպման\n\n0:32 1:48 3:04 \nNancy can do it\nˈnænsi kən du ɪt\nՆենսին կարող է դա անել\n\n0:45 2:01 3:17 \nNancy can not do it\nˈnænsi kən nɑt du ɪt\nՆենսին չի կարող դա անել\n\n1:01 2:17 3:33 \nMy grandmother can not do it\nmaɪ ˈgrændˌməðər kən nɑt du ɪt\nՏատս չի կարող դա անել\n\n\n\nՈւսուցիչներին և դպրոցներին.\nԱյս տեսանյութը հրապարակված է Creative Commons արտոնագրի ներքո:\n  CC BY 3.0 https://creativecommons.org/licenses/by/3.0/ \nԱզատորեն օգտվեք այս տեսանյութից ձեր դասերից:\n\nՄենք օգտագործում ենք Google Translate ծառայությունը տեղայնացման համար: Եթե որոշ սխալներ եք գտնում, խնդրում ենք տեղեկացնել մեզ:\n"
    },
    {
      "Lang": "id",
      "Title": "Latihan tata bahasa Inggris | Sederhana ⭐️ #74 can",
      "Description": "Belajar tata bahasa Inggris! Ubah kata dalam kalimat.\n\n\n\n0:05 1:21 2:37 \nNancy can not go to the meeting\nˈnænsi kən nɑt goʊ tɪ ðə ˈmitɪŋ\nNancy tidak bisa pergi ke pertemuan\n\n0:19 1:35 2:51 \nNancy can go to the meeting\nˈnænsi kən goʊ tɪ ðə ˈmitɪŋ\nNancy bisa pergi ke pertemuan\n\n0:32 1:48 3:04 \nNancy can do it\nˈnænsi kən du ɪt\nNancy bisa melakukannya\n\n0:45 2:01 3:17 \nNancy can not do it\nˈnænsi kən nɑt du ɪt\nNancy tidak bisa melakukannya\n\n1:01 2:17 3:33 \nMy grandmother can not do it\nmaɪ ˈgrændˌməðər kən nɑt du ɪt\nNenek saya tidak bisa melakukannya\n\n\n\nKepada guru dan sekolah:\nVideo ini diterbitkan di bawah Lisensi Creative Commons.\n  CC BY 3.0 https://creativecommons.org/licenses/by/3.0/ \nJangan ragu untuk menggunakan video ini di kelas Anda!\n\nKami menggunakan layanan Google Terjemahan untuk pelokalan. Jika Anda menemukan beberapa kesalahan, beri tahu kami.\n"
    },
    {
      "Lang": "ig",
      "Title": "Ọmụmụ asụsụ ụtọ asụsụ Bekee | Dị Mfe ⭐️ #74 can",
      "Description": "Muta asusu bekee! Gbanwee okwu na ahịrịokwu.\n\n\n\n0:05 1:21 2:37 \nNancy can not go to the meeting\nˈnænsi kən nɑt goʊ tɪ ðə ˈmitɪŋ\nNancy enweghị ike ịga nzukọ ahụ\n\n0:19 1:35 2:51 \nNancy can go to the meeting\nˈnænsi kən goʊ tɪ ðə ˈmitɪŋ\nNancy nwere ike ịga nzukọ ahụ\n\n0:32 1:48 3:04 \nNancy can do it\nˈnænsi kən du ɪt\nNancy nwere ike ime ya\n\n0:45 2:01 3:17 \nNancy can not do it\nˈnænsi kən nɑt du ɪt\nNancy enweghị ike ime ya\n\n1:01 2:17 3:33 \nMy grandmother can not do it\nmaɪ ˈgrændˌməðər kən nɑt du ɪt\nNne nne m apughi ime ya\n\n\n\nMaka ndị nkuzi na ụlọ akwụkwọ:\nEdere vidiyo a n'okpuru ikikere Creative Commons.\n  CC BY 3.0 https://creativecommons.org/licenses/by/3.0/ \nNwere onwe gị iji vidiyo a na klaasị gị!\n\nAnyị na-eji ọrụ ntụgharị Google emegharị. Ọ bụrụ n’ịhụ ụfọdụ mmejọ, biko mee ka anyị mara.\n"
    },
    {
      "Lang": "is",
      "Title": "Enskar málfræðiæfingar | Einfalt ⭐️ #74 can",
      "Description": "Lærðu ensku málfræði! Skiptu um orð í setningu.\n\n\n\n0:05 1:21 2:37 \nNancy can not go to the meeting\nˈnænsi kən nɑt goʊ tɪ ðə ˈmitɪŋ\nNancy getur ekki farið á fundinn\n\n0:19 1:35 2:51 \nNancy can go to the meeting\nˈnænsi kən goʊ tɪ ðə ˈmitɪŋ\nNancy getur farið á fundinn\n\n0:32 1:48 3:04 \nNancy can do it\nˈnænsi kən du ɪt\nNancy getur gert það\n\n0:45 2:01 3:17 \nNancy can not do it\nˈnænsi kən nɑt du ɪt\nNancy getur ekki gert það\n\n1:01 2:17 3:33 \nMy grandmother can not do it\nmaɪ ˈgrændˌməðər kən nɑt du ɪt\nAmma mín getur það ekki\n\n\n\nTil kennara og skóla:\nÞetta myndband er birt undir Creative Commons leyfi.\n  CC BY 3.0 https://creativecommons.org/licenses/by/3.0/ \nEkki hika við að nota þetta myndband í bekkjum þínum!\n\nVið notum Google Translate þjónustu til að staðsetja. Láttu okkur vita ef þú finnur fyrir einhverjum mistökum.\n"
    },
    {
      "Lang": "it",
      "Title": "Esercizi di grammatica inglese | Semplice ⭐️ #74 can",
      "Description": "Impara la grammatica inglese! Cambia una parola in una frase.\n\n\n\n0:05 1:21 2:37 \nNancy can not go to the meeting\nˈnænsi kən nɑt goʊ tɪ ðə ˈmitɪŋ\nNancy non può andare alla riunione\n\n0:19 1:35 2:51 \nNancy can go to the meeting\nˈnænsi kən goʊ tɪ ðə ˈmitɪŋ\nNancy può andare alla riunione\n\n0:32 1:48 3:04 \nNancy can do it\nˈnænsi kən du ɪt\nNancy può farlo\n\n0:45 2:01 3:17 \nNancy can not do it\nˈnænsi kən nɑt du ɪt\nNancy non ce la fa\n\n1:01 2:17 3:33 \nMy grandmother can not do it\nmaɪ ˈgrændˌməðər kən nɑt du ɪt\nMia nonna non può farlo\n\n\n\nPer insegnanti e scuole:\nQuesto video è pubblicato sotto la licenza Creative Commons.\n  CC BY 3.0 https://creativecommons.org/licenses/by/3.0/ \nSentiti libero di usare questo video nelle tue lezioni!\n\nUtilizziamo il servizio Google Translate per la localizzazione. Se trovi qualche errore, faccelo sapere.\n"
    },
    {
      "Lang": "iw",
      "Title": "תרגילי דקדוק באנגלית | פשוט ⭐️ #74 can",
      "Description": "למד דקדוק באנגלית! שנה מילה במשפט.\n\n\n\n0:05 1:21 2:37 \nNancy can not go to the meeting\nˈnænsi kən nɑt goʊ tɪ ðə ˈmitɪŋ\nננסי לא יכולה ללכת לפגישה\n\n0:19 1:35 2:51 \nNancy can go to the meeting\nˈnænsi kən goʊ tɪ ðə ˈmitɪŋ\nננסי יכולה ללכת לפגישה\n\n0:32 1:48 3:04 \nNancy can do it\nˈnænsi kən du ɪt\nננסי יכולה לעשות את זה\n\n0:45 2:01 3:17 \nNancy can not do it\nˈnænsi kən nɑt du ɪt\nננסי לא יכולה לעשות את זה\n\n1:01 2:17 3:33 \nMy grandmother can not do it\nmaɪ ˈgrændˌməðər kən nɑt du ɪt\nסבתא שלי לא יכולה לעשות את זה\n\n\n\nלמורים ובתי ספר:\nסרטון זה מתפרסם תחת רישיון Creative Commons.\n  CC BY 3.0 https://creativecommons.org/licenses/by/3.0/ \nאל תהסס להשתמש בסרטון זה בשיעורים שלך!\n\nאנו משתמשים בשירות Google Translate לצורך לוקליזציה. אם אתה מוצא טעויות, אנא הודע לנו על כך.\n"
    },
    {
      "Lang": "ja",
      "Title": "英文法練習 | シンプル ⭐️ #74 can",
      "Description": "英語の文法を学びましょう！ 文中の単語を変更します。\n\n\n\n0:05 1:21 2:37 \nNancy can not go to the meeting\nˈnænsi kən nɑt goʊ tɪ ðə ˈmitɪŋ\nナンシーは会議に行くことができません\n\n0:19 1:35 2:51 \nNancy can go to the meeting\nˈnænsi kən goʊ tɪ ðə ˈmitɪŋ\nナンシーは会議に行くことができます\n\n0:32 1:48 3:04 \nNancy can do it\nˈnænsi kən du ɪt\nナンシーができる\n\n0:45 2:01 3:17 \nNancy can not do it\nˈnænsi kən nɑt du ɪt\nナンシーはできない\n\n1:01 2:17 3:33 \nMy grandmother can not do it\nmaɪ ˈgrændˌməðər kən nɑt du ɪt\n祖母はできません\n\n\n\n先生と学校へ：\nこのビデオは、クリエイティブコモンズライセンスの下で公開されています。\n  CC BY 3.0 https://creativecommons.org/licenses/by/3.0/ \nこのビデオをクラスで自由に使用してください！\n\nローカライズにはGoogle翻訳サービスを使用しています。間違いを見つけた場合はお知らせください。\n"
    },
    {
      "Lang": "jv",
      "Title": "Latihan grammar Inggris | Prasaja ⭐️ #74 can",
      "Description": "Sinau tata basa Inggris! Ngganti tembung sajrone ukara.\n\n\n\n0:05 1:21 2:37 \nNancy can not go to the meeting\nˈnænsi kən nɑt goʊ tɪ ðə ˈmitɪŋ\nNancy ora bisa mlebu ing rapat kasebut\n\n0:19 1:35 2:51 \nNancy can go to the meeting\nˈnænsi kən goʊ tɪ ðə ˈmitɪŋ\nNancy bisa mlebu ing rapat kasebut\n\n0:32 1:48 3:04 \nNancy can do it\nˈnænsi kən du ɪt\nNancy bisa nindakake iku\n\n0:45 2:01 3:17 \nNancy can not do it\nˈnænsi kən nɑt du ɪt\nNancy ora bisa nglakoni\n\n1:01 2:17 3:33 \nMy grandmother can not do it\nmaɪ ˈgrændˌməðər kən nɑt du ɪt\nSimbahku ora bisa nglakoni\n\n\n\nTumrap guru lan sekolah:\nVideo iki diterbitake ing lisensi Creative Commons.\n  CC BY 3.0 https://creativecommons.org/licenses/by/3.0/ \nOjo nggunakake video iki ing kelas sampeyan!\n\nKita nggunakake layanan Google Translate kanggo lokalisasi. Yen sampeyan nemokake sawetara kesalahan, kabari.\n"
    },
    {
      "Lang": "ka",
      "Title": "ინგლისური გრამატიკის სავარჯიშოები | მარტივი ⭐️ #74 can",
      "Description": "შეიტყვეთ ინგლისური ენის გრამატიკა! წინადადებაში შეცვალეთ სიტყვა.\n\n\n\n0:05 1:21 2:37 \nNancy can not go to the meeting\nˈnænsi kən nɑt goʊ tɪ ðə ˈmitɪŋ\nნენსი შეხვედრაზე ვერ წავა\n\n0:19 1:35 2:51 \nNancy can go to the meeting\nˈnænsi kən goʊ tɪ ðə ˈmitɪŋ\nნენსს შეუძლია შეხვედრაზე წასვლა\n\n0:32 1:48 3:04 \nNancy can do it\nˈnænsi kən du ɪt\nნენსს შეუძლია ამის გაკეთება\n\n0:45 2:01 3:17 \nNancy can not do it\nˈnænsi kən nɑt du ɪt\nნენსი ამას ვერ გააკეთებს\n\n1:01 2:17 3:33 \nMy grandmother can not do it\nmaɪ ˈgrændˌməðər kən nɑt du ɪt\nბებია ამას ვერ გააკეთებს\n\n\n\nმასწავლებლებსა და სკოლებს:\nეს ვიდეო გამოქვეყნებულია Creative Commons- ის ლიცენზიით.\n  CC BY 3.0 https://creativecommons.org/licenses/by/3.0/ \nშეგიძლიათ გამოიყენოთ ეს ვიდეო თქვენს კლასებში!\n\nჩვენ ვიყენებთ Google Translate სერვისს ლოკალიზაციისთვის. თუ შეცდომებს იპოვნით, გთხოვთ, შეგვატყობინოთ.\n"
    },
    {
      "Lang": "kk",
      "Title": "Ағылшын грамматикалық жаттығулары | Қарапайым ⭐️ #74 can",
      "Description": "Ағылшын грамматикасын үйрен! Сөйлемдегі сөзді өзгертіңіз.\n\n\n\n0:05 1:21 2:37 \nNancy can not go to the meeting\nˈnænsi kən nɑt goʊ tɪ ðə ˈmitɪŋ\nНэнси кездесуге бара алмайды\n\n0:19 1:35 2:51 \nNancy can go to the meeting\nˈnænsi kən goʊ tɪ ðə ˈmitɪŋ\nНэнси кездесуге бара алады\n\n0:32 1:48 3:04 \nNancy can do it\nˈnænsi kən du ɪt\nНэнси жасай алады\n\n0:45 2:01 3:17 \nNancy can not do it\nˈnænsi kən nɑt du ɪt\nНэнси оны жасай алмайды\n\n1:01 2:17 3:33 \nMy grandmother can not do it\nmaɪ ˈgrændˌməðər kən nɑt du ɪt\nМенің әжем жасай алмайды\n\n\n\nОқытушылар мен мектептерге:\nБұл бейне Creative Commons лицензиясы бойынша жарияланған.\n  CC BY 3.0 https://creativecommons.org/licenses/by/3.0/ \nБұл бейнені өз сабақтарыңызда қолдануға болады!\n\nGoogle Translate қызметін локализациялау үшін қолданамыз. Егер сіз қате тапсаңыз, бізге хабарлаңыз.\n"
    },
    {
      "Lang": "km",
      "Title": "លំហាត់វេយ្យាករណ៍អង់គ្លេស | សាមញ្ញ ⭐️ #74 can",
      "Description": "រៀនវេយ្យាករណ៍អង់គ្លេស! ផ្លាស់ប្តូរពាក្យនៅក្នុងប្រយោគមួយ។\n\n\n\n0:05 1:21 2:37 \nNancy can not go to the meeting\nˈnænsi kən nɑt goʊ tɪ ðə ˈmitɪŋ\nណាន់មិនអាចចូលប្រជុំបានទេ\n\n0:19 1:35 2:51 \nNancy can go to the meeting\nˈnænsi kən goʊ tɪ ðə ˈmitɪŋ\nណាន់អាចទៅប្រជុំបាន\n\n0:32 1:48 3:04 \nNancy can do it\nˈnænsi kən du ɪt\nណាន់អាចធ្វើវាបាន\n\n0:45 2:01 3:17 \nNancy can not do it\nˈnænsi kən nɑt du ɪt\nណាន់មិនអាចធ្វើវាបានទេ\n\n1:01 2:17 3:33 \nMy grandmother can not do it\nmaɪ ˈgrændˌməðər kən nɑt du ɪt\nជីដូនរបស់ខ្ញុំមិនអាចធ្វើបានទេ\n\n\n\nជូនដល់គ្រូនិងសាលា៖\nវីដេអូនេះត្រូវបានផ្សព្វផ្សាយក្រោមអាជ្ញាប័ណ្ណច្នៃប្រឌិត។\n  CC BY 3.0 https://creativecommons.org/licenses/by/3.0/ \nសូមប្រើវីដេអូនេះនៅក្នុងថ្នាក់របស់អ្នកដោយឥតគិតថ្លៃ!\n\nយើងប្រើសេវាកម្មបកប្រែហ្គូហ្គលសម្រាប់ការធ្វើមូលដ្ឋានីយកម្ម។ ប្រសិនបើអ្នករកឃើញកំហុសខ្លះសូមប្រាប់ឱ្យយើងដឹង។\n"
    },
    {
      "Lang": "kn",
      "Title": "ಇಂಗ್ಲಿಷ್ ವ್ಯಾಕರಣ ವ್ಯಾಯಾಮ | ಸರಳ ⭐️ #74 can",
      "Description": "ಇಂಗ್ಲಿಷ್ ವ್ಯಾಕರಣ ಕಲಿಯಿರಿ! ಒಂದು ವಾಕ್ಯದಲ್ಲಿ ಪದವನ್ನು ಬದಲಾಯಿಸಿ.\n\n\n\n0:05 1:21 2:37 \nNancy can not go to the meeting\nˈnænsi kən nɑt goʊ tɪ ðə ˈmitɪŋ\nನ್ಯಾನ್ಸಿ ಸಭೆಗೆ ಹೋಗಲು ಸಾಧ್ಯವಿಲ್ಲ\n\n0:19 1:35 2:51 \nNancy can go to the meeting\nˈnænsi kən goʊ tɪ ðə ˈmitɪŋ\nನ್ಯಾನ್ಸಿ ಸಭೆಗೆ ಹೋಗಬಹುದು\n\n0:32 1:48 3:04 \nNancy can do it\nˈnænsi kən du ɪt\nನ್ಯಾನ್ಸಿ ಇದನ್ನು ಮಾಡಬಹುದು\n\n0:45 2:01 3:17 \nNancy can not do it\nˈnænsi kən nɑt du ɪt\nನ್ಯಾನ್ಸಿ ಅದನ್ನು ಮಾಡಲು ಸಾಧ್ಯವಿಲ್ಲ\n\n1:01 2:17 3:33 \nMy grandmother can not do it\nmaɪ ˈgrændˌməðər kən nɑt du ɪt\nನನ್ನ ಅಜ್ಜಿ ಅದನ್ನು ಮಾಡಲು ಸಾಧ್ಯವಿಲ್ಲ\n\n\n\nಶಿಕ್ಷಕರು ಮತ್ತು ಶಾಲೆಗಳಿಗೆ:\nಈ ವೀಡಿಯೊವನ್ನು ಕ್ರಿಯೇಟಿವ್ ಕಾಮನ್ಸ್ ಪರವಾನಗಿ ಅಡಿಯಲ್ಲಿ ಪ್ರಕಟಿಸಲಾಗಿದೆ.\n  CC BY 3.0 https://creativecommons.org/licenses/by/3.0/ \nನಿಮ್ಮ ತರಗತಿಗಳಲ್ಲಿ ಈ ವೀಡಿಯೊವನ್ನು ಬಳಸಲು ಹಿಂಜರಿಯಬೇಡಿ!\n\nಸ್ಥಳೀಕರಣಕ್ಕಾಗಿ ನಾವು Google ಅನುವಾದ ಸೇವೆಯನ್ನು ಬಳಸುತ್ತೇವೆ. ನೀವು ಕೆಲವು ತಪ್ಪುಗಳನ್ನು ಕಂಡುಕೊಂಡರೆ, ದಯವಿಟ್ಟು ನಮಗೆ ತಿಳಿಸಿ.\n"
    },
    {
      "Lang": "ko",
      "Title": "영어 문법 연습 | 단순한 ⭐️ #74 can",
      "Description": "영어 문법 배우기! 문장에서 단어를 변경하십시오.\n\n\n\n0:05 1:21 2:37 \nNancy can not go to the meeting\nˈnænsi kən nɑt goʊ tɪ ðə ˈmitɪŋ\n낸시는 회의에 갈 수 없습니다\n\n0:19 1:35 2:51 \nNancy can go to the meeting\nˈnænsi kən goʊ tɪ ðə ˈmitɪŋ\n낸시는 회의에 갈 수있다\n\n0:32 1:48 3:04 \nNancy can do it\nˈnænsi kən du ɪt\n낸시는 할 수있어\n\n0:45 2:01 3:17 \nNancy can not do it\nˈnænsi kən nɑt du ɪt\n낸시는 할 수 없어\n\n1:01 2:17 3:33 \nMy grandmother can not do it\nmaɪ ˈgrændˌməðər kən nɑt du ɪt\n할머니는 할 수 없어\n\n\n\n교사와 학교 :\n이 비디오는 Creative Commons License에 따라 게시됩니다.\n  CC BY 3.0 https://creativecommons.org/licenses/by/3.0/ \n이 비디오를 수업에 자유롭게 사용하십시오!\n\n현지화를 위해 Google 번역 서비스를 사용합니다. 실수가 있으면 알려주세요.\n"
    },
    {
      "Lang": "ku",
      "Title": "Pratîkên rêzimanê Englishngilîzî | Asan ⭐️ #74 can",
      "Description": "Gramera Englishngilîzî fêr bibin! Di hevokan de peyvek diguhezin.\n\n\n\n0:05 1:21 2:37 \nNancy can not go to the meeting\nˈnænsi kən nɑt goʊ tɪ ðə ˈmitɪŋ\nNancy nikare nekeve civînê\n\n0:19 1:35 2:51 \nNancy can go to the meeting\nˈnænsi kən goʊ tɪ ðə ˈmitɪŋ\nNancy dikare biçin civînê\n\n0:32 1:48 3:04 \nNancy can do it\nˈnænsi kən du ɪt\nNancy dikare wê bike\n\n0:45 2:01 3:17 \nNancy can not do it\nˈnænsi kən nɑt du ɪt\nNancy nikare wê bike\n\n1:01 2:17 3:33 \nMy grandmother can not do it\nmaɪ ˈgrændˌməðər kən nɑt du ɪt\nDapîrê min nikare wê bike\n\n\n\nJi mamoste û dibistanan re:\nEv vîdyoyê di bin lîsansa Creative Commons-ê de hatî weşandin.\n  CC BY 3.0 https://creativecommons.org/licenses/by/3.0/ \nHêsan e ku hûn vê vîdyoyê di sinifên xwe de bikar bînin!\n\nEm ji bo herêmbûnê karûbarê Google Translate kar dikin. Heke hûn hin xeletiyan bibînin, ji kerema xwe ji me re agahdar bikin.\n"
    },
    {
      "Lang": "ky",
      "Title": "Англис тилинин грамматикасы боюнча көнүгүүлөр | жөнөкөй ⭐️ #74 can",
      "Description": "Үйрөнүү Англис тилинин грамматикасы! Сүйлөмдөгү Сөздү өзгөртүү.\n\n\n\n0:05 1:21 2:37 \nNancy can not go to the meeting\nˈnænsi kən nɑt goʊ tɪ ðə ˈmitɪŋ\nНэнси жолугушууга бара албайм\n\n0:19 1:35 2:51 \nNancy can go to the meeting\nˈnænsi kən goʊ tɪ ðə ˈmitɪŋ\nНэнси жолугушууга барып,\n\n0:32 1:48 3:04 \nNancy can do it\nˈnænsi kən du ɪt\nНэнси ал эмне кыла алат\n\n0:45 2:01 3:17 \nNancy can not do it\nˈnænsi kən nɑt du ɪt\nНэнси муну кыла албайбыз\n\n1:01 2:17 3:33 \nMy grandmother can not do it\nmaɪ ˈgrændˌməðər kən nɑt du ɪt\nТаенем муну кыла албайбыз\n\n\n\nмугалимдер жана мектептер үчүн:\nБул көргөзмө Creative Commons лиссиэнсийэ усулуобуйатынан жарыяланат.\n  CC BY 3.0 https://creativecommons.org/licenses/by/3.0/ \nСиздин класстары колдонсо болот!\n\nБиз Google локалдаштыруу үчүн Котормо кызматын пайдаланышат. Эгер кээ бир ката болсо, бизге айтып койуу.\n"
    },
    {
      "Lang": "lb",
      "Title": "Englesch Grammatikübungen | Einfach ⭐️ #74 can",
      "Description": "Léiert Englesch Grammatik! Ännert e Wuert an engem Saz.\n\n\n\n0:05 1:21 2:37 \nNancy can not go to the meeting\nˈnænsi kən nɑt goʊ tɪ ðə ˈmitɪŋ\nD'Nancy kann net op d'Sitzung goen\n\n0:19 1:35 2:51 \nNancy can go to the meeting\nˈnænsi kən goʊ tɪ ðə ˈmitɪŋ\nD'Nancy kann op d'Sëtzung goen\n\n0:32 1:48 3:04 \nNancy can do it\nˈnænsi kən du ɪt\nD'Nancy kann et maachen\n\n0:45 2:01 3:17 \nNancy can not do it\nˈnænsi kən nɑt du ɪt\nD'Nancy kann et net maachen\n\n1:01 2:17 3:33 \nMy grandmother can not do it\nmaɪ ˈgrændˌməðər kən nɑt du ɪt\nMeng Groussmamm kann et net maachen\n\n\n\nUn de Schoulmeeschteren an d'Schoulen:\nDëse Video ass ënner der Creative Commons Lizenz verëffentlecht.\n  CC BY 3.0 https://creativecommons.org/licenses/by/3.0/ \nFillt gratis dësen Video zu Ären Klassen ze benotzen!\n\nMir benotzen den Google Translate Service fir d'Lokalisatioun. Wann Dir e puer Feeler fannt, da sot eis w.e.g.\n"
    },
    {
      "Lang": "lo",
      "Title": "ບົດເຝິກຫັດໄວຍາກອນພາສາອັງກິດ | ງ່າຍດາຍ ⭐️ #74 can",
      "Description": "ຮຽນຮູ້ຫລັກໄວຍາກອນພາສາອັງກິດ! ປ່ຽນ ຄຳ ສັບໃນປະໂຫຍກ.\n\n\n\n0:05 1:21 2:37 \nNancy can not go to the meeting\nˈnænsi kən nɑt goʊ tɪ ðə ˈmitɪŋ\nNancy ບໍ່ສາມາດໄປປະຊຸມໄດ້\n\n0:19 1:35 2:51 \nNancy can go to the meeting\nˈnænsi kən goʊ tɪ ðə ˈmitɪŋ\nNancy ສາມາດໄປປະຊຸມໄດ້\n\n0:32 1:48 3:04 \nNancy can do it\nˈnænsi kən du ɪt\nNancy ສາມາດເຮັດໄດ້\n\n0:45 2:01 3:17 \nNancy can not do it\nˈnænsi kən nɑt du ɪt\nNancy ບໍ່ສາມາດເຮັດໄດ້\n\n1:01 2:17 3:33 \nMy grandmother can not do it\nmaɪ ˈgrændˌməðər kən nɑt du ɪt\nແມ່ຕູ້ຂອງຂ້ອຍບໍ່ສາມາດເຮັດໄດ້\n\n\n\nເຖິງຄູອາຈານແລະໂຮງຮຽນ:\nວິດີໂອນີ້ລົງພາຍໃຕ້ໃບອະນຸຍາດສ້າງສັນ.\n  CC BY 3.0 https://creativecommons.org/licenses/by/3.0/ \nຮູ້ສຶກວ່າບໍ່ເສຍຄ່າທີ່ຈະໃຊ້ວິດີໂອນີ້ໃນຫ້ອງຮຽນຂອງທ່ານ!\n\nພວກເຮົາໃຊ້ບໍລິການ Google Translate ສຳ ລັບການແປພາສາທ້ອງຖິ່ນ. ຖ້າທ່ານພົບຂໍ້ຜິດພາດບາງຢ່າງ, ກະລຸນາແຈ້ງພວກເຮົາ.\n"
    },
    {
      "Lang": "lt",
      "Title": "Anglų kalbos gramatikos pratimai | Paprasta ⭐️ #74 can",
      "Description": "Išmokite anglų kalbos gramatiką! Pakeiskite žodį sakinyje.\n\n\n\n0:05 1:21 2:37 \nNancy can not go to the meeting\nˈnænsi kən nɑt goʊ tɪ ðə ˈmitɪŋ\nNancy negali eiti į susitikimą\n\n0:19 1:35 2:51 \nNancy can go to the meeting\nˈnænsi kən goʊ tɪ ðə ˈmitɪŋ\nNancy gali eiti į susitikimą\n\n0:32 1:48 3:04 \nNancy can do it\nˈnænsi kən du ɪt\nNancy gali tai padaryti\n\n0:45 2:01 3:17 \nNancy can not do it\nˈnænsi kən nɑt du ɪt\nNancy negali to padaryti\n\n1:01 2:17 3:33 \nMy grandmother can not do it\nmaɪ ˈgrændˌməðər kən nɑt du ɪt\nMano močiutė to negali\n\n\n\nMokytojams ir mokykloms:\nŠis vaizdo įrašas paskelbtas naudojant „Creative Commons“ licenciją.\n  CC BY 3.0 https://creativecommons.org/licenses/by/3.0/ \nNesivaržykite naudotis šiuo vaizdo įrašu savo klasėse!\n\nLokalizavimui naudojame „Google Translate“ paslaugą. Jei radote klaidų, praneškite mums.\n"
    },
    {
      "Lang": "lv",
      "Title": "Angļu valodas gramatikas vingrinājumi | Vienkārši ⭐️ #74 can",
      "Description": "Mācieties angļu valodas gramatiku! Mainiet vārdu teikumā.\n\n\n\n0:05 1:21 2:37 \nNancy can not go to the meeting\nˈnænsi kən nɑt goʊ tɪ ðə ˈmitɪŋ\nNensija nevar iet uz sapulci\n\n0:19 1:35 2:51 \nNancy can go to the meeting\nˈnænsi kən goʊ tɪ ðə ˈmitɪŋ\nNensija var doties uz sapulci\n\n0:32 1:48 3:04 \nNancy can do it\nˈnænsi kən du ɪt\nNensija to var izdarīt\n\n0:45 2:01 3:17 \nNancy can not do it\nˈnænsi kən nɑt du ɪt\nNensija to nevar izdarīt\n\n1:01 2:17 3:33 \nMy grandmother can not do it\nmaɪ ˈgrændˌməðər kən nɑt du ɪt\nMana vecmāmiņa to nevar izdarīt\n\n\n\nSkolotājiem un skolām:\nŠis video ir publicēts saskaņā ar Creative Commons licenci.\n  CC BY 3.0 https://creativecommons.org/licenses/by/3.0/ \nJūtieties brīvi izmantot šo video savās nodarbībās!\n\nLokalizācijai mēs izmantojam Google Translate pakalpojumu. Ja atrodat dažas kļūdas, lūdzu, paziņojiet mums.\n"
    },
    {
      "Lang": "mg",
      "Title": "Fanatanjahantena anglisy | Simple ⭐️ #74 can",
      "Description": "Ianaro ny fitsipi-pitenenana anglisy! Manova teny amin'ny fehezanteny iray.\n\n\n\n0:05 1:21 2:37 \nNancy can not go to the meeting\nˈnænsi kən nɑt goʊ tɪ ðə ˈmitɪŋ\nTsy afaka mandeha any amin'ny fivoriana i Nancy\n\n0:19 1:35 2:51 \nNancy can go to the meeting\nˈnænsi kən goʊ tɪ ðə ˈmitɪŋ\nAfaka mandeha any amin'ny fivoriana i Nancy\n\n0:32 1:48 3:04 \nNancy can do it\nˈnænsi kən du ɪt\nAfaka manao izany i Nancy\n\n0:45 2:01 3:17 \nNancy can not do it\nˈnænsi kən nɑt du ɪt\nTsy afaka manao izany i Nancy\n\n1:01 2:17 3:33 \nMy grandmother can not do it\nmaɪ ˈgrændˌməðər kən nɑt du ɪt\nTsy afaka manao izany ny renibeny\n\n\n\nHo an'ireo mpampianatra sy sekoly:\nIty horonantsary ity dia navoaka eo ambanin'ny lisansa Creative Commons.\n  CC BY 3.0 https://creativecommons.org/licenses/by/3.0/ \nAza misalasala mampiasa an'io horonantsary io amin'ny kilasinao!\n\nMampiasa ny serivisy Google Translate izahay amin'ny fananganana toerana. Raha mahita hadisoana vitsivitsy ianao dia mba ampahafantaro anay.\n"
    },
    {
      "Lang": "mi",
      "Title": "Mahi whakangungu Ingarihi | He ngawari ⭐️ #74 can",
      "Description": "Akohia te paanui Ingarihi! Hurihia he kupu ki tetahi rerenga rerenga.\n\n\n\n0:05 1:21 2:37 \nNancy can not go to the meeting\nˈnænsi kən nɑt goʊ tɪ ðə ˈmitɪŋ\nKaore e taea e Nancy te haere ki te hui\n\n0:19 1:35 2:51 \nNancy can go to the meeting\nˈnænsi kən goʊ tɪ ðə ˈmitɪŋ\nKa taea e Nancy te haere ki te hui\n\n0:32 1:48 3:04 \nNancy can do it\nˈnænsi kən du ɪt\nKa taea e Nancy te mahi\n\n0:45 2:01 3:17 \nNancy can not do it\nˈnænsi kən nɑt du ɪt\nKaore e taea e Nancy te mahi\n\n1:01 2:17 3:33 \nMy grandmother can not do it\nmaɪ ˈgrændˌməðər kən nɑt du ɪt\nKaore e taea e taku maatua\n\n\n\nKi nga kaiako me nga kura:\nKei te whakaputaina tenei ataata i raro i te Raihana Hoahoatanga.\n  CC BY 3.0 https://creativecommons.org/licenses/by/3.0/ \nKia kore e pai ki te whakamahi i tenei ataata i roto i o akomanga!\n\nKa whakamahia e matou he whakamaoritanga a Google mo te whakangao. Mena ka kitea e koe etahi he, tena koa kia mohio.\n"
    },
    {
      "Lang": "mk",
      "Title": "Вежби за граматика на англиски јазик | Едноставно ⭐️ #74 can",
      "Description": "Дознајте англиска граматика! Променете збор во реченица.\n\n\n\n0:05 1:21 2:37 \nNancy can not go to the meeting\nˈnænsi kən nɑt goʊ tɪ ðə ˈmitɪŋ\nНанси не може да оди на состанокот\n\n0:19 1:35 2:51 \nNancy can go to the meeting\nˈnænsi kən goʊ tɪ ðə ˈmitɪŋ\nНанси може да оди на состанокот\n\n0:32 1:48 3:04 \nNancy can do it\nˈnænsi kən du ɪt\nНанси може да го стори тоа\n\n0:45 2:01 3:17 \nNancy can not do it\nˈnænsi kən nɑt du ɪt\nНенси не може да го стори тоа\n\n1:01 2:17 3:33 \nMy grandmother can not do it\nmaɪ ˈgrændˌməðər kən nɑt du ɪt\nБаба ми не може да го стори тоа\n\n\n\nДо наставниците и училиштата:\nОва видео е објавено под лиценца Криејтив комонс.\n  CC BY 3.0 https://creativecommons.org/licenses/by/3.0/ \nСлободно можете да го користите ова видео во вашите часови!\n\nНие користиме услуга Google Translate за локализација. Ако најдете некои грешки, ве молиме кажете ни.\n"
    },
    {
      "Lang": "ml",
      "Title": "ഇംഗ്ലീഷ് വ്യാകരണ വ്യായാമങ്ങൾ | ലളിതം ⭐️ #74 can",
      "Description": "ഇംഗ്ലീഷ് വ്യാകരണം പഠിക്കൂ! ഒരു വാക്യത്തിൽ ഒരു വാക്ക് മാറ്റുക.\n\n\n\n0:05 1:21 2:37 \nNancy can not go to the meeting\nˈnænsi kən nɑt goʊ tɪ ðə ˈmitɪŋ\nനാൻസിക്ക് മീറ്റിംഗിലേക്ക് പോകാൻ കഴിയില്ല\n\n0:19 1:35 2:51 \nNancy can go to the meeting\nˈnænsi kən goʊ tɪ ðə ˈmitɪŋ\nനാൻസിക്ക് മീറ്റിംഗിലേക്ക് പോകാം\n\n0:32 1:48 3:04 \nNancy can do it\nˈnænsi kən du ɪt\nനാൻസിക്ക് അത് ചെയ്യാൻ കഴിയും\n\n0:45 2:01 3:17 \nNancy can not do it\nˈnænsi kən nɑt du ɪt\nനാൻസിക്ക് അത് ചെയ്യാൻ കഴിയില്ല\n\n1:01 2:17 3:33 \nMy grandmother can not do it\nmaɪ ˈgrændˌməðər kən nɑt du ɪt\nഎന്റെ മുത്തശ്ശിക്ക് അത് ചെയ്യാൻ കഴിയില്ല\n\n\n\nഅധ്യാപകർക്കും സ്കൂളുകൾക്കും:\nക്രിയേറ്റീവ് കോമൺസ് ലൈസൻസിന് കീഴിൽ ഈ വീഡിയോ പ്രസിദ്ധീകരിച്ചു.\n  CC BY 3.0 https://creativecommons.org/licenses/by/3.0/ \nനിങ്ങളുടെ ക്ലാസുകളിൽ ഈ വീഡിയോ ഉപയോഗിക്കാൻ മടിക്കേണ്ടതില്ല!\n\nപ്രാദേശികവൽക്കരണത്തിനായി ഞങ്ങൾ Google വിവർത്തന സേവനം ഉപയോഗിക്കുന്നു. നിങ്ങൾ ചില തെറ്റുകൾ കണ്ടെത്തുകയാണെങ്കിൽ, ഞങ്ങളെ അറിയിക്കുക.\n"
    },
    {
      "Lang": "mn",
      "Title": "Англи хэлний дүрмийн дасгал | Энгийн ⭐️ #74 can",
      "Description": "Англи хэлний дүрмийн мэдлэгийг сур! Үгийг өгүүлбэр болгон өөрчил.\n\n\n\n0:05 1:21 2:37 \nNancy can not go to the meeting\nˈnænsi kən nɑt goʊ tɪ ðə ˈmitɪŋ\nНэнси уулзалтад очиж чадахгүй\n\n0:19 1:35 2:51 \nNancy can go to the meeting\nˈnænsi kən goʊ tɪ ðə ˈmitɪŋ\nНэнси уулзалтад очиж болно\n\n0:32 1:48 3:04 \nNancy can do it\nˈnænsi kən du ɪt\nНэнси үүнийг хийж чадна\n\n0:45 2:01 3:17 \nNancy can not do it\nˈnænsi kən nɑt du ɪt\nНэнси үүнийг хийж чадахгүй\n\n1:01 2:17 3:33 \nMy grandmother can not do it\nmaɪ ˈgrændˌməðər kən nɑt du ɪt\nЭмээ маань үүнийг хийж чадахгүй\n\n\n\nБагш, сургуулиудад:\nЭнэ видео нь Creative Commons License лиценз дээр нийтлэгдсэн.\n  CC BY 3.0 https://creativecommons.org/licenses/by/3.0/ \nЭнэ видеог өөрийн ангиудад ашиглах боломжтой шүү!\n\nБид Google Translate үйлчилгээг нутагшуулах зорилгоор ашигладаг. Хэрэв та алдаа олвол бидэнд мэдэгдээрэй.\n"
    },
    {
      "Lang": "mr",
      "Title": "इंग्रजी व्याकरण व्यायाम | सोपे ⭐️ #74 can",
      "Description": "इंग्रजी व्याकरण जाणून घ्या! एका वाक्यात शब्द बदला.\n\n\n\n0:05 1:21 2:37 \nNancy can not go to the meeting\nˈnænsi kən nɑt goʊ tɪ ðə ˈmitɪŋ\nनॅन्सी सभेला जाऊ शकत नाही\n\n0:19 1:35 2:51 \nNancy can go to the meeting\nˈnænsi kən goʊ tɪ ðə ˈmitɪŋ\nनॅन्सी बैठकीला जाऊ शकते\n\n0:32 1:48 3:04 \nNancy can do it\nˈnænsi kən du ɪt\nनॅन्सी हे करू शकते\n\n0:45 2:01 3:17 \nNancy can not do it\nˈnænsi kən nɑt du ɪt\nनॅन्सी हे करू शकत नाही\n\n1:01 2:17 3:33 \nMy grandmother can not do it\nmaɪ ˈgrændˌməðər kən nɑt du ɪt\nमाझी आजी हे करू शकत नाही\n\n\n\nशिक्षक आणि शाळा यांना:\nहा व्हिडिओ क्रिएटिव्ह कॉमन्स परवान्या अंतर्गत प्रकाशित झाला आहे.\n  CC BY 3.0 https://creativecommons.org/licenses/by/3.0/ \nआपल्या वर्गांमध्ये हा व्हिडिओ वापरण्यास मोकळ्या मनाने!\n\nआम्ही स्थानिकीकरणासाठी Google भाषांतर सेवा वापरतो. आपल्याला काही चुका आढळल्यास कृपया आम्हाला कळवा.\n"
    },
    {
      "Lang": "ms",
      "Title": "Latihan tatabahasa Bahasa Inggeris | Mudah ⭐️ #74 can",
      "Description": "Belajar bahasa Inggeris! Tukar perkataan dalam ayat.\n\n\n\n0:05 1:21 2:37 \nNancy can not go to the meeting\nˈnænsi kən nɑt goʊ tɪ ðə ˈmitɪŋ\nNancy tidak boleh pergi ke mesyuarat itu\n\n0:19 1:35 2:51 \nNancy can go to the meeting\nˈnænsi kən goʊ tɪ ðə ˈmitɪŋ\nNancy boleh pergi ke mesyuarat itu\n\n0:32 1:48 3:04 \nNancy can do it\nˈnænsi kən du ɪt\nNancy boleh melakukannya\n\n0:45 2:01 3:17 \nNancy can not do it\nˈnænsi kən nɑt du ɪt\nNancy tidak boleh melakukannya\n\n1:01 2:17 3:33 \nMy grandmother can not do it\nmaɪ ˈgrændˌməðər kən nɑt du ɪt\nNenek saya tidak boleh melakukannya\n\n\n\nKepada guru dan sekolah:\nVideo ini diterbitkan di bawah Lesen Creative Commons.\n  CC BY 3.0 https://creativecommons.org/licenses/by/3.0/ \nJangan ragu untuk menggunakan video ini dalam kelas anda!\n\nKami menggunakan perkhidmatan Terjemahan Google untuk penyetempatan. Jika anda mendapati beberapa kesilapan, sila beritahu kami.\n"
    },
    {
      "Lang": "mt",
      "Title": "Eżerċizzji ta 'grammatika Ingliża | Sempliċi ⭐️ #74 can",
      "Description": "Tgħallem il-grammatika Ingliża! Ibdel kelma f’sentenza.\n\n\n\n0:05 1:21 2:37 \nNancy can not go to the meeting\nˈnænsi kən nɑt goʊ tɪ ðə ˈmitɪŋ\nNancy ma tistax tmur għal-laqgħa\n\n0:19 1:35 2:51 \nNancy can go to the meeting\nˈnænsi kən goʊ tɪ ðə ˈmitɪŋ\nNancy tista 'tmur għal-laqgħa\n\n0:32 1:48 3:04 \nNancy can do it\nˈnænsi kən du ɪt\nNancy tista 'tagħmel dan\n\n0:45 2:01 3:17 \nNancy can not do it\nˈnænsi kən nɑt du ɪt\nNancy ma tistax tagħmel dan\n\n1:01 2:17 3:33 \nMy grandmother can not do it\nmaɪ ˈgrændˌməðər kən nɑt du ɪt\nIn-nanna tiegħi ma tistax tagħmel dan\n\n\n\nGħalliema u skejjel:\nDan il-video huwa ppublikat taħt il-Liċenzja Creative Commons.\n  CC BY 3.0 https://creativecommons.org/licenses/by/3.0/ \nĦossok liberu li tuża dan il-video fil-klassijiet tiegħek!\n\nAħna nużaw servizz Google Translate għall-lokalizzazzjoni. Jekk issib xi żbalji, jekk jogħġbok għarrafna.\n"
    },
    {
      "Lang": "my",
      "Title": "အင်္ဂလိပ်သဒ္ဒါလေ့ကျင့်ခန်း | ရိုးရှင်းသော ⭐️ #74 can",
      "Description": "အင်္ဂလိပ်သဒ္ဒါကိုလေ့လာပါ။ ဝါကျတွင်စကားလုံးတစ်လုံးပြောင်းပါ။\n\n\n\n0:05 1:21 2:37 \nNancy can not go to the meeting\nˈnænsi kən nɑt goʊ tɪ ðə ˈmitɪŋ\nနန်စီအစည်းအဝေးကိုမသွားနိုင်ပါ\n\n0:19 1:35 2:51 \nNancy can go to the meeting\nˈnænsi kən goʊ tɪ ðə ˈmitɪŋ\nနန်စီအစည်းအဝေးကိုသွားနိုင်သည်\n\n0:32 1:48 3:04 \nNancy can do it\nˈnænsi kən du ɪt\nနန်စီကလုပ်နိုင်တယ်\n\n0:45 2:01 3:17 \nNancy can not do it\nˈnænsi kən nɑt du ɪt\nနန်စီကမလုပ်နိုင်ပါ\n\n1:01 2:17 3:33 \nMy grandmother can not do it\nmaɪ ˈgrændˌməðər kən nɑt du ɪt\nငါ့အဖွားကမလုပ်နိုင်ဘူး\n\n\n\nဆရာများနှင့်ကျောင်းများသို့\nဒီဗီဒီယိုကို Creative Commons လိုင်စင်အောက်မှာထုတ်ဝေထားတယ်။\n  CC BY 3.0 https://creativecommons.org/licenses/by/3.0/ \nဤဗီဒီယိုကိုသင်၏အတန်းများ၌အခမဲ့အသုံးပြုပါ။\n\nကျွန်ုပ်တို့သည်ဒေသခံဘာသာပြန်အတွက် Google Translate ဝန်ဆောင်မှုကိုအသုံးပြုသည်။ သင်အမှားအယွင်းများအချို့ရှိပါကကျွန်ုပ်တို့အားအသိပေးပါ။\n"
    },
    {
      "Lang": "ne",
      "Title": "अंग्रेजी व्याकरण व्यायाम | सरल ⭐️ #74 can",
      "Description": "अंग्रेजी व्याकरण सिक्नुहोस्! एक वाक्य मा एक शब्द बदल्नुहोस्।\n\n\n\n0:05 1:21 2:37 \nNancy can not go to the meeting\nˈnænsi kən nɑt goʊ tɪ ðə ˈmitɪŋ\nनैन्सी बैठकमा जान सक्दैनन्\n\n0:19 1:35 2:51 \nNancy can go to the meeting\nˈnænsi kən goʊ tɪ ðə ˈmitɪŋ\nनैन्सी बैठकमा जान सक्दछन्\n\n0:32 1:48 3:04 \nNancy can do it\nˈnænsi kən du ɪt\nनैन्सीले यो गर्न सक्दछन्\n\n0:45 2:01 3:17 \nNancy can not do it\nˈnænsi kən nɑt du ɪt\nनैन्सीले यो गर्न सक्दैन\n\n1:01 2:17 3:33 \nMy grandmother can not do it\nmaɪ ˈgrændˌməðər kən nɑt du ɪt\nमेरो हजुरआमाले यो गर्न सक्नुहुन्न\n\n\n\nशिक्षक र विद्यालयहरुलाई:\nयो भिडियो क्रिएटिभ कमन्स लाइसेन्स अन्तर्गत प्रकाशित गरिएको छ।\n  CC BY 3.0 https://creativecommons.org/licenses/by/3.0/ \nतपाईंको कक्षामा यो भिडियो प्रयोग गर्न स्वतन्त्र महसुस गर्नुहोस्!\n\nहामी स्थानीयकरणको लागि गुगल अनुवाद सेवा प्रयोग गर्दछौं। यदि तपाईंले केहि गल्तीहरू फेला पार्नुभयो भने, कृपया हामीलाई खबर गर्नुहोस्।\n"
    },
    {
      "Lang": "nl",
      "Title": "Engelse grammatica-oefeningen | Gemakkelijk ⭐️ #74 can",
      "Description": "Leer Engelse grammatica! Verander een woord in een zin.\n\n\n\n0:05 1:21 2:37 \nNancy can not go to the meeting\nˈnænsi kən nɑt goʊ tɪ ðə ˈmitɪŋ\nNancy kan niet naar de vergadering gaan\n\n0:19 1:35 2:51 \nNancy can go to the meeting\nˈnænsi kən goʊ tɪ ðə ˈmitɪŋ\nNancy kan naar de vergadering gaan\n\n0:32 1:48 3:04 \nNancy can do it\nˈnænsi kən du ɪt\nNancy kan het\n\n0:45 2:01 3:17 \nNancy can not do it\nˈnænsi kən nɑt du ɪt\nNancy kan het niet\n\n1:01 2:17 3:33 \nMy grandmother can not do it\nmaɪ ˈgrændˌməðər kən nɑt du ɪt\nMijn oma kan het niet\n\n\n\nAan leraren en scholen:\nDeze video is gepubliceerd onder Creative Commons License.\n  CC BY 3.0 https://creativecommons.org/licenses/by/3.0/ \nVoel je vrij om deze video in je lessen te gebruiken!\n\nWe gebruiken de Google Translate-service voor lokalisatie. Laat het ons weten als u fouten ontdekt.\n"
    },
    {
      "Lang": "no",
      "Title": "Engelsk grammatikkøvelser | Enkel ⭐️ #74 can",
      "Description": "Lær engelsk grammatikk! Endre et ord i en setning.\n\n\n\n0:05 1:21 2:37 \nNancy can not go to the meeting\nˈnænsi kən nɑt goʊ tɪ ðə ˈmitɪŋ\nNancy kan ikke gå på møtet\n\n0:19 1:35 2:51 \nNancy can go to the meeting\nˈnænsi kən goʊ tɪ ðə ˈmitɪŋ\nNancy kan gå på møtet\n\n0:32 1:48 3:04 \nNancy can do it\nˈnænsi kən du ɪt\nNancy kan gjøre det\n\n0:45 2:01 3:17 \nNancy can not do it\nˈnænsi kən nɑt du ɪt\nNancy kan ikke gjøre det\n\n1:01 2:17 3:33 \nMy grandmother can not do it\nmaɪ ˈgrændˌməðər kən nɑt du ɪt\nMin bestemor kan ikke gjøre det\n\n\n\nTil lærere og skoler:\nDenne videoen er publisert under Creative Commons License.\n  CC BY 3.0 https://creativecommons.org/licenses/by/3.0/ \nBruk gjerne denne videoen i klassene dine!\n\nVi bruker Google Translate-tjenesten for lokalisering. Gi beskjed hvis du finner noen feil.\n"
    },
    {
      "Lang": "pa",
      "Title": "ਅੰਗਰੇਜ਼ੀ ਵਿਆਕਰਣ ਅਭਿਆਸ | ਆਸਾਨ ⭐️ #74 can",
      "Description": "ਅੰਗਰੇਜ਼ੀ ਵਿਆਕਰਣ ਸਿੱਖੋ! ਇੱਕ ਵਾਕ ਵਿੱਚ ਇੱਕ ਸ਼ਬਦ ਬਦਲੋ.\n\n\n\n0:05 1:21 2:37 \nNancy can not go to the meeting\nˈnænsi kən nɑt goʊ tɪ ðə ˈmitɪŋ\nਨੈਨਸੀ ਮੀਟਿੰਗ ਵਿਚ ਨਹੀਂ ਜਾ ਸਕਦੀ\n\n0:19 1:35 2:51 \nNancy can go to the meeting\nˈnænsi kən goʊ tɪ ðə ˈmitɪŋ\nਨੈਨਸੀ ਮੀਟਿੰਗ ਵਿਚ ਜਾ ਸਕਦੀ ਹੈ\n\n0:32 1:48 3:04 \nNancy can do it\nˈnænsi kən du ɪt\nਨੈਨਸੀ ਇਹ ਕਰ ਸਕਦੀ ਹੈ\n\n0:45 2:01 3:17 \nNancy can not do it\nˈnænsi kən nɑt du ɪt\nਨੈਨਸੀ ਇਹ ਨਹੀਂ ਕਰ ਸਕਦੀ\n\n1:01 2:17 3:33 \nMy grandmother can not do it\nmaɪ ˈgrændˌməðər kən nɑt du ɪt\nਮੇਰੀ ਦਾਦੀ ਇਹ ਨਹੀਂ ਕਰ ਸਕਦੀ\n\n\n\nਅਧਿਆਪਕਾਂ ਅਤੇ ਸਕੂਲਾਂ ਨੂੰ:\nਇਹ ਵੀਡੀਓ ਕਰੀਏਟਿਵ ਕਾਮਨਜ਼ ਲਾਇਸੈਂਸ ਅਧੀਨ ਪ੍ਰਕਾਸ਼ਤ ਕੀਤਾ ਗਿਆ ਹੈ.\n  CC BY 3.0 https://creativecommons.org/licenses/by/3.0/ \nਇਸ ਕਲਾਸ ਨੂੰ ਆਪਣੀਆਂ ਕਲਾਸਾਂ ਵਿਚ ਵਰਤਣ ਲਈ ਮੁਫ਼ਤ ਮਹਿਸੂਸ ਕਰੋ!\n\nਅਸੀਂ ਸਥਾਨਕਕਰਨ ਲਈ ਗੂਗਲ ਅਨੁਵਾਦ ਸੇਵਾ ਦੀ ਵਰਤੋਂ ਕਰਦੇ ਹਾਂ. ਜੇ ਤੁਹਾਨੂੰ ਕੁਝ ਗਲਤੀਆਂ ਮਿਲਦੀਆਂ ਹਨ, ਤਾਂ ਕਿਰਪਾ ਕਰਕੇ ਸਾਨੂੰ ਦੱਸੋ.\n"
    },
    {
      "Lang": "pl",
      "Title": "Gramatyka angielska | Prosty ⭐️ #74 can",
      "Description": "Ucz się gramatyki angielskiej! Zmień słowo w zdaniu.\n\n\n\n0:05 1:21 2:37 \nNancy can not go to the meeting\nˈnænsi kən nɑt goʊ tɪ ðə ˈmitɪŋ\nNancy nie może iść na spotkanie\n\n0:19 1:35 2:51 \nNancy can go to the meeting\nˈnænsi kən goʊ tɪ ðə ˈmitɪŋ\nNancy może iść na spotkanie\n\n0:32 1:48 3:04 \nNancy can do it\nˈnænsi kən du ɪt\nNancy może to zrobić\n\n0:45 2:01 3:17 \nNancy can not do it\nˈnænsi kən nɑt du ɪt\nNancy nie może tego zrobić\n\n1:01 2:17 3:33 \nMy grandmother can not do it\nmaɪ ˈgrændˌməðər kən nɑt du ɪt\nMoja babcia nie może tego zrobić\n\n\n\nDo nauczycieli i szkół:\nTen film jest opublikowany na licencji Creative Commons.\n  CC BY 3.0 https://creativecommons.org/licenses/by/3.0/ \nZachęcamy do korzystania z tego filmu na zajęciach!\n\nDo lokalizacji używamy usługi Tłumacz Google. Jeśli znajdziesz jakieś błędy, daj nam znać.\n"
    },
    {
      "Lang": "ps",
      "Title": "انګلیسي ګرامر تمرینونه | ساده ⭐️ #74 can",
      "Description": "انګلیسي ګرامر زده کړئ! یوه جمله په یوه جمله بدله کړئ.\n\n\n\n0:05 1:21 2:37 \nNancy can not go to the meeting\nˈnænsi kən nɑt goʊ tɪ ðə ˈmitɪŋ\nنانسی نشي کولی غونډې ته لاړ نشي\n\n0:19 1:35 2:51 \nNancy can go to the meeting\nˈnænsi kən goʊ tɪ ðə ˈmitɪŋ\nنانسی کولی شي غونډې ته لاړ شي\n\n0:32 1:48 3:04 \nNancy can do it\nˈnænsi kən du ɪt\nنانسي دا کولی شي\n\n0:45 2:01 3:17 \nNancy can not do it\nˈnænsi kən nɑt du ɪt\nنانسي دا نشي کولی\n\n1:01 2:17 3:33 \nMy grandmother can not do it\nmaɪ ˈgrændˌməðər kən nɑt du ɪt\nزما انا دا نشي کولی\n\n\n\nښوونکو او ښوونځیو ته:\nدا ویډیو د کریټیو کامنز لایسنس لاندې خپره شوې ده.\n  CC BY 3.0 https://creativecommons.org/licenses/by/3.0/ \nپه خپلو ټولګیو کې د دې ویډیو کارولو لپاره وړیا احساس وکړئ!\n\nموږ د ځایی کولو لپاره د ګوګل ژباړن خدمت کاروو. که تاسو ځینې غلطۍ ومومئ ، مهرباني وکړئ موږ ته خبر راکړئ.\n"
    },
    {
      "Lang": "pt",
      "Title": "Exercícios de gramática inglesa | Simples ⭐️ #74 can",
      "Description": "Aprenda gramática inglesa! Mude uma palavra em uma frase.\n\n\n\n0:05 1:21 2:37 \nNancy can not go to the meeting\nˈnænsi kən nɑt goʊ tɪ ðə ˈmitɪŋ\nNancy não pode ir à reunião\n\n0:19 1:35 2:51 \nNancy can go to the meeting\nˈnænsi kən goʊ tɪ ðə ˈmitɪŋ\nNancy pode ir à reunião\n\n0:32 1:48 3:04 \nNancy can do it\nˈnænsi kən du ɪt\nNancy pode fazer isso\n\n0:45 2:01 3:17 \nNancy can not do it\nˈnænsi kən nɑt du ɪt\nNancy não pode fazer isso\n\n1:01 2:17 3:33 \nMy grandmother can not do it\nmaɪ ˈgrændˌməðər kən nɑt du ɪt\nMinha avó não pode fazer isso\n\n\n\nPara professores e escolas:\nEste vídeo é publicado sob licença Creative Commons.\n  CC BY 3.0 https://creativecommons.org/licenses/by/3.0/ \nSinta-se livre para usar este vídeo em suas aulas!\n\nUsamos o serviço Google Translate para localização. Se você encontrar algum erro, informe-nos.\n"
    },
    {
      "Lang": "ro",
      "Title": "Exerciții de gramatică engleză | Simplu ⭐️ #74 can",
      "Description": "Învață gramatica engleză! Schimbă un cuvânt într-o propoziție.\n\n\n\n0:05 1:21 2:37 \nNancy can not go to the meeting\nˈnænsi kən nɑt goʊ tɪ ðə ˈmitɪŋ\nNancy nu poate merge la întâlnire\n\n0:19 1:35 2:51 \nNancy can go to the meeting\nˈnænsi kən goʊ tɪ ðə ˈmitɪŋ\nNancy poate merge la întâlnire\n\n0:32 1:48 3:04 \nNancy can do it\nˈnænsi kən du ɪt\nNancy o poate face\n\n0:45 2:01 3:17 \nNancy can not do it\nˈnænsi kən nɑt du ɪt\nNancy nu o poate face\n\n1:01 2:17 3:33 \nMy grandmother can not do it\nmaɪ ˈgrændˌməðər kən nɑt du ɪt\nBunica mea nu o poate face\n\n\n\nPentru profesori și școli:\nAcest videoclip este publicat sub licență Creative Commons.\n  CC BY 3.0 https://creativecommons.org/licenses/by/3.0/ \nSimte-te liber să folosești acest videoclip în orele tale!\n\nFolosim serviciul Google Translate pentru localizare. Dacă găsiți unele greșeli, vă rugăm să ne informați.\n"
    },
    {
      "Lang": "ru",
      "Title": "Упражнения по английской грамматике | просто ⭐️ #74 can",
      "Description": "Изучай английскую грамматику! Изменить слово в предложении.\n\n\n\n0:05 1:21 2:37 \nNancy can not go to the meeting\nˈnænsi kən nɑt goʊ tɪ ðə ˈmitɪŋ\nНэнси не может пойти на встречу\n\n0:19 1:35 2:51 \nNancy can go to the meeting\nˈnænsi kən goʊ tɪ ðə ˈmitɪŋ\nНэнси может пойти на встречу\n\n0:32 1:48 3:04 \nNancy can do it\nˈnænsi kən du ɪt\nНэнси может сделать это\n\n0:45 2:01 3:17 \nNancy can not do it\nˈnænsi kən nɑt du ɪt\nНэнси не может этого сделать\n\n1:01 2:17 3:33 \nMy grandmother can not do it\nmaɪ ˈgrændˌməðər kən nɑt du ɪt\nМоя бабушка не может этого сделать\n\n\n\nУчителям и школам:\nЭто видео опубликовано под лицензией Creative Commons.\n  CC BY 3.0 https://creativecommons.org/licenses/by/3.0/ \nНе стесняйтесь использовать это видео в своих классах!\n\nМы используем сервис Google Translate для локализации. Если вы обнаружите ошибки, сообщите нам.\n"
    },
    {
      "Lang": "sd",
      "Title": "سنڌي گرامر مشق | سادو ⭐️ #74 can",
      "Description": "انگريزي گرامر سکو! ھڪ لفظ ۾ ھڪڙي تبديلي آڻيو.\n\n\n\n0:05 1:21 2:37 \nNancy can not go to the meeting\nˈnænsi kən nɑt goʊ tɪ ðə ˈmitɪŋ\nنينسي اجلاس ملڻ نه ٿو اچي\n\n0:19 1:35 2:51 \nNancy can go to the meeting\nˈnænsi kən goʊ tɪ ðə ˈmitɪŋ\nنينسي ملڻ لاء وڃو\n\n0:32 1:48 3:04 \nNancy can do it\nˈnænsi kən du ɪt\nنينسي اهو ڪري سگهان ٿو\n\n0:45 2:01 3:17 \nNancy can not do it\nˈnænsi kən nɑt du ɪt\nنينسي اهو نٿو ڪري سگهي\n\n1:01 2:17 3:33 \nMy grandmother can not do it\nmaɪ ˈgrændˌməðər kən nɑt du ɪt\nمنهنجي ناني اهو ڪري نٿو سگهي\n\n\n\nاستاد ۽ اسڪولن ڏانهن:\nهيء وڊيو تخليقي العام لائسنس هيٺ شايع ٿيل آهي.\n  CC BY 3.0 https://creativecommons.org/licenses/by/3.0/ \nپنهنجي وڊيوز ۾ هن وڊيو کي استعمال ڪرڻ لاء آزاد ٿيو!\n\nاسان مقامي ڪرڻ لاء گوگل ترجمو سروس استعمال ڪندا آهيون. جيڪڏهن توهان ڪجهه غلطي ڳوليندا آهيو، مهرباني ڪري اسان کي ڄاڻ ڏيو.\n"
    },
    {
      "Lang": "si",
      "Title": "ඉංග්‍රීසි ව්‍යාකරණ අභ්‍යාස | සරල ⭐️ #74 can",
      "Description": "ඉංග්‍රීසි ව්‍යාකරණ ඉගෙන ගන්න! වාක්‍යයක වචනයක් වෙනස් කරන්න.\n\n\n\n0:05 1:21 2:37 \nNancy can not go to the meeting\nˈnænsi kən nɑt goʊ tɪ ðə ˈmitɪŋ\nනැන්සිට රැස්වීමට යන්න බැහැ\n\n0:19 1:35 2:51 \nNancy can go to the meeting\nˈnænsi kən goʊ tɪ ðə ˈmitɪŋ\nනැන්සිට රැස්වීමට යන්න පුළුවන්\n\n0:32 1:48 3:04 \nNancy can do it\nˈnænsi kən du ɪt\nනැන්සිට එය කළ හැකිය\n\n0:45 2:01 3:17 \nNancy can not do it\nˈnænsi kən nɑt du ɪt\nනැන්සිට එය කළ නොහැක\n\n1:01 2:17 3:33 \nMy grandmother can not do it\nmaɪ ˈgrændˌməðər kən nɑt du ɪt\nමගේ ආච්චිට ඒක කරන්න බැහැ\n\n\n\nගුරුවරුන්ට සහ පාසල්වලට:\nමෙම වීඩියෝව නිර්මාණාත්මක පොදු බලපත්‍රය යටතේ ප්‍රකාශයට පත් කෙරේ.\n  CC BY 3.0 https://creativecommons.org/licenses/by/3.0/ \nඔබේ පංතිවල මෙම වීඩියෝව භාවිතා කිරීමට නිදහස් වන්න!\n\nප්‍රාදේශීයකරණය සඳහා අපි ගූගල් පරිවර්තන සේවාව භාවිතා කරමු. ඔබ යම් වැරැද්දක් සොයා ගන්නේ නම්, කරුණාකර අපට දන්වන්න.\n"
    },
    {
      "Lang": "sk",
      "Title": "Anglické gramatické cvičenia | prostý ⭐️ #74 can",
      "Description": "Naučte sa anglickú gramatiku! Zmeniť slovo vo vete.\n\n\n\n0:05 1:21 2:37 \nNancy can not go to the meeting\nˈnænsi kən nɑt goʊ tɪ ðə ˈmitɪŋ\nNancy nemôže ísť na stretnutie\n\n0:19 1:35 2:51 \nNancy can go to the meeting\nˈnænsi kən goʊ tɪ ðə ˈmitɪŋ\nNancy môže ísť na stretnutie\n\n0:32 1:48 3:04 \nNancy can do it\nˈnænsi kən du ɪt\nNancy to dokáže\n\n0:45 2:01 3:17 \nNancy can not do it\nˈnænsi kən nɑt du ɪt\nNancy to nemôže urobiť\n\n1:01 2:17 3:33 \nMy grandmother can not do it\nmaɪ ˈgrændˌməðər kən nɑt du ɪt\nMoja babička to nemôže urobiť\n\n\n\nPre učiteľov a školy:\nToto video je publikované pod licenciou Creative Commons License.\n  CC BY 3.0 https://creativecommons.org/licenses/by/3.0/ \nNeváhajte použiť toto video vo svojich triedach!\n\nNa lokalizáciu používame službu Prekladač Google. Ak nájdete nejaké chyby, dajte nám vedieť.\n"
    },
    {
      "Lang": "sl",
      "Title": "Angleške slovnične vaje | Preprosto ⭐️ #74 can",
      "Description": "Naučite se angleške slovnice! Spremenite besedo v stavku.\n\n\n\n0:05 1:21 2:37 \nNancy can not go to the meeting\nˈnænsi kən nɑt goʊ tɪ ðə ˈmitɪŋ\nNancy ne more iti na sestanek\n\n0:19 1:35 2:51 \nNancy can go to the meeting\nˈnænsi kən goʊ tɪ ðə ˈmitɪŋ\nNancy lahko gre na sestanek\n\n0:32 1:48 3:04 \nNancy can do it\nˈnænsi kən du ɪt\nNancy to zmore\n\n0:45 2:01 3:17 \nNancy can not do it\nˈnænsi kən nɑt du ɪt\nNancy tega ne zmore\n\n1:01 2:17 3:33 \nMy grandmother can not do it\nmaɪ ˈgrændˌməðər kən nɑt du ɪt\nMoja babica tega ne zmore\n\n\n\nUčiteljem in šolam:\nTa videoposnetek je objavljen pod licenco Creative Commons.\n  CC BY 3.0 https://creativecommons.org/licenses/by/3.0/ \nUporabite ta video v svojih razredih!\n\nZa lokalizacijo uporabljamo storitev Google Translate. Če najdete nekaj napak, nas obvestite.\n"
    },
    {
      "Lang": "sm",
      "Title": "Gagana o le gagana Gagana Peretania | Faigofie ⭐️ #74 can",
      "Description": "Aoao le gagana Gagana Peretania! Sui se upu i se fuaiupu.\n\n\n\n0:05 1:21 2:37 \nNancy can not go to the meeting\nˈnænsi kən nɑt goʊ tɪ ðə ˈmitɪŋ\nE le mafai e Nancy ona alu i le fonotaga\n\n0:19 1:35 2:51 \nNancy can go to the meeting\nˈnænsi kən goʊ tɪ ðə ˈmitɪŋ\nNancy e mafai ona alu i le fonotaga\n\n0:32 1:48 3:04 \nNancy can do it\nˈnænsi kən du ɪt\nE mafai e Nancy ona faia\n\n0:45 2:01 3:17 \nNancy can not do it\nˈnænsi kən nɑt du ɪt\nE le mafai e Nancy ona faia\n\n1:01 2:17 3:33 \nMy grandmother can not do it\nmaɪ ˈgrændˌməðər kən nɑt du ɪt\nE le mafai e loʻu tinamatua ona faia\n\n\n\nI faiaoga ma aʻoga:\nO lenei vitio ua lomia i lalo o le Creative Commons License.\n  CC BY 3.0 https://creativecommons.org/licenses/by/3.0/ \nLagona le saoloto e faʻaaoga lenei vitio i au vasega!\n\nMatou te faʻaaoga le Google Translate auaunaga mo le faʻasalalauga. Afai e te maua ni mea sese, faʻamolemole ia e iloa.\n"
    },
    {
      "Lang": "sn",
      "Title": "Chirungu grammar Exercise | Nyore ⭐️ #74 can",
      "Description": "Dzidza mutauro wechirungu! Chinja izwi muchirevo.\n\n\n\n0:05 1:21 2:37 \nNancy can not go to the meeting\nˈnænsi kən nɑt goʊ tɪ ðə ˈmitɪŋ\nNancy haagone kuenda kumusangano\n\n0:19 1:35 2:51 \nNancy can go to the meeting\nˈnænsi kən goʊ tɪ ðə ˈmitɪŋ\nNancy anogona kuenda kumusangano\n\n0:32 1:48 3:04 \nNancy can do it\nˈnænsi kən du ɪt\nNancy anogona kuzviita\n\n0:45 2:01 3:17 \nNancy can not do it\nˈnænsi kən nɑt du ɪt\nNancy haagone kuzviita\n\n1:01 2:17 3:33 \nMy grandmother can not do it\nmaɪ ˈgrændˌməðər kən nɑt du ɪt\nAmbuya vangu havagone kuzviita\n\n\n\nKune vadzidzisi uye zvikoro:\nVhidhiyo iyi inoburitswa pasi peCreative Commons License.\n  CC BY 3.0 https://creativecommons.org/licenses/by/3.0/ \nInzwa wakasununguka kushandisa iyi vhidhiyo mumakirasi ako!\n\nIsu tinoshandisa Google Dhumiro sevhisi. Kana iwe ukawana zvimwe zvikanganiso, tapota titiudze.\n"
    },
    {
      "Lang": "so",
      "Title": "Jimicsiga naxwaha Ingiriisiga | Fudud ⭐️ #74 can",
      "Description": "Baro naxwaha Ingiriisiga! U beddelo eray weedh.\n\n\n\n0:05 1:21 2:37 \nNancy can not go to the meeting\nˈnænsi kən nɑt goʊ tɪ ðə ˈmitɪŋ\nNancy uma tagi karto kulanka\n\n0:19 1:35 2:51 \nNancy can go to the meeting\nˈnænsi kən goʊ tɪ ðə ˈmitɪŋ\nNancy way tagi kartaa kulanka\n\n0:32 1:48 3:04 \nNancy can do it\nˈnænsi kən du ɪt\nNancy way sameyn kartaa\n\n0:45 2:01 3:17 \nNancy can not do it\nˈnænsi kən nɑt du ɪt\nNancy ma qaban karto\n\n1:01 2:17 3:33 \nMy grandmother can not do it\nmaɪ ˈgrændˌməðər kən nɑt du ɪt\nAyeeyaday ma qaban karto\n\n\n\nKu socota macallimiinta iyo iskuulada:\nMuuqaalkan fiidiyaha ah waxaa lagu daabacay hoosta hal-abuurnimada Hal-abuurka.\n  CC BY 3.0 https://creativecommons.org/licenses/by/3.0/ \nXor baad u leedahay inaad fiidiyaha u isticmaasho fasalladaaga!\n\nWaxaan u adeegsanaa adeega Google tarjumaha si aan ugu tarjunno. Hadaad khaladaad hesho, fadlan nala socodsii.\n"
    },
    {
      "Lang": "sq",
      "Title": "Ushtrime gramatikore angleze | i thjeshtë ⭐️ #74 can",
      "Description": "Mësoni gramatikën angleze! Ndryshoni një fjalë në një fjali.\n\n\n\n0:05 1:21 2:37 \nNancy can not go to the meeting\nˈnænsi kən nɑt goʊ tɪ ðə ˈmitɪŋ\nNancy nuk mund të shkojë në mbledhje\n\n0:19 1:35 2:51 \nNancy can go to the meeting\nˈnænsi kən goʊ tɪ ðə ˈmitɪŋ\nNancy mund të shkojë në takim\n\n0:32 1:48 3:04 \nNancy can do it\nˈnænsi kən du ɪt\nNancy mund ta bëjë këtë\n\n0:45 2:01 3:17 \nNancy can not do it\nˈnænsi kən nɑt du ɪt\nNancy nuk mund ta bëjë këtë\n\n1:01 2:17 3:33 \nMy grandmother can not do it\nmaɪ ˈgrændˌməðər kən nɑt du ɪt\nGjyshja ime nuk mund ta bëjë këtë\n\n\n\nPër mësuesit dhe shkollat:\nKjo video është botuar nën licencën Creative Commons.\n  CC BY 3.0 https://creativecommons.org/licenses/by/3.0/ \nMos ngurroni të përdorni këtë video në klasat tuaja!\n\nNe përdorim shërbimin Google Translate për lokalizimin. Nëse gjeni disa gabime, ju lutemi na tregoni.\n"
    },
    {
      "Lang": "sr",
      "Title": "Вежбе енглеске граматике | Једноставно ⭐️ #74 can",
      "Description": "Научите енглеску граматику! Промените реч у реченици.\n\n\n\n0:05 1:21 2:37 \nNancy can not go to the meeting\nˈnænsi kən nɑt goʊ tɪ ðə ˈmitɪŋ\nНанци не може ићи на састанак\n\n0:19 1:35 2:51 \nNancy can go to the meeting\nˈnænsi kən goʊ tɪ ðə ˈmitɪŋ\nНанци може ићи на састанак\n\n0:32 1:48 3:04 \nNancy can do it\nˈnænsi kən du ɪt\nНанци то може\n\n0:45 2:01 3:17 \nNancy can not do it\nˈnænsi kən nɑt du ɪt\nНанци то не може\n\n1:01 2:17 3:33 \nMy grandmother can not do it\nmaɪ ˈgrændˌməðər kən nɑt du ɪt\nМоја бака то не може\n\n\n\nНаставницима и школама:\nОвај видео је објављен под Цреативе Цоммонс лиценцом.\n  CC BY 3.0 https://creativecommons.org/licenses/by/3.0/ \nСлободно користите овај видеозапис у својим предавањима!\n\nЗа локализацију користимо услугу Гоогле Транслате. Ако нађете неке грешке, јавите нам се.\n"
    },
    {
      "Lang": "st",
      "Title": "Boikoetliso ba puo ea Senyesemane | E bonolo ⭐️ #74 can",
      "Description": "Ithute puo ea Senyesemane! Fetola lentsoe polelo.\n\n\n\n0:05 1:21 2:37 \nNancy can not go to the meeting\nˈnænsi kən nɑt goʊ tɪ ðə ˈmitɪŋ\nNancy ha a khone ho ea libokeng\n\n0:19 1:35 2:51 \nNancy can go to the meeting\nˈnænsi kən goʊ tɪ ðə ˈmitɪŋ\nNancy a ka ea libokeng\n\n0:32 1:48 3:04 \nNancy can do it\nˈnænsi kən du ɪt\nNancy a ka e etsa\n\n0:45 2:01 3:17 \nNancy can not do it\nˈnænsi kən nɑt du ɪt\nNancy ha a khone ho e etsa\n\n1:01 2:17 3:33 \nMy grandmother can not do it\nmaɪ ˈgrændˌməðər kən nɑt du ɪt\nNtate-moholo o sitoa ho e etsa\n\n\n\nHo matichere le likolo:\nVideo ena e phatlalalitsoe tlas'a Creative Commons License.\n  CC BY 3.0 https://creativecommons.org/licenses/by/3.0/ \nIkutloe u lokolohile ho sebelisa video ena litlelaseng tsa hau!\n\nRe sebelisa tšebeletso ea Google Tafsiri bakeng sa lehae. Haeba u fumana liphoso, ka kopo re tsebise.\n"
    },
    {
      "Lang": "su",
      "Title": "Latihan tata basa Inggris | Basajan ⭐️ #74 can",
      "Description": "Diajar grammar Inggris! Ngarobih kecap dina hiji kalimat.\n\n\n\n0:05 1:21 2:37 \nNancy can not go to the meeting\nˈnænsi kən nɑt goʊ tɪ ðə ˈmitɪŋ\nNancy moal tiasa angkat kana rapat\n\n0:19 1:35 2:51 \nNancy can go to the meeting\nˈnænsi kən goʊ tɪ ðə ˈmitɪŋ\nNancy tiasa angkat kana rapat\n\n0:32 1:48 3:04 \nNancy can do it\nˈnænsi kən du ɪt\nNancy tiasa ngalakukeun éta\n\n0:45 2:01 3:17 \nNancy can not do it\nˈnænsi kən nɑt du ɪt\nNancy teu tiasa ngalakukeun éta\n\n1:01 2:17 3:33 \nMy grandmother can not do it\nmaɪ ˈgrændˌməðər kən nɑt du ɪt\nNini abdi henteu tiasa ngalakukeun\n\n\n\nPikeun guru sareng sakola:\nPidéo ieu dikaluarkeun dina Lisensi Lisénsi Creative Commons.\n  CC BY 3.0 https://creativecommons.org/licenses/by/3.0/ \nTong ngosongkeun pidéo ieu di kelas!\n\nKami nganggo jasa Google Translate pikeun lokalisasi. Upami anjeun mendakan sababaraha kasalahan, punten terangkeun ka urang.\n"
    },
    {
      "Lang": "sv",
      "Title": "Engelska grammatiska övningar | Enkel ⭐️ #74 can",
      "Description": "Lär dig engelska grammatik! Ändra ett ord i en mening.\n\n\n\n0:05 1:21 2:37 \nNancy can not go to the meeting\nˈnænsi kən nɑt goʊ tɪ ðə ˈmitɪŋ\nNancy kan inte gå till mötet\n\n0:19 1:35 2:51 \nNancy can go to the meeting\nˈnænsi kən goʊ tɪ ðə ˈmitɪŋ\nNancy kan gå till mötet\n\n0:32 1:48 3:04 \nNancy can do it\nˈnænsi kən du ɪt\nNancy kan göra det\n\n0:45 2:01 3:17 \nNancy can not do it\nˈnænsi kən nɑt du ɪt\nNancy kan inte göra det\n\n1:01 2:17 3:33 \nMy grandmother can not do it\nmaɪ ˈgrændˌməðər kən nɑt du ɪt\nMin mormor kan inte göra det\n\n\n\nTill lärare och skolor:\nDenna video publiceras under Creative Commons License.\n  CC BY 3.0 https://creativecommons.org/licenses/by/3.0/ \nAnvänd gärna den här videon i dina klasser!\n\nVi använder Google Translate-tjänst för lokalisering. Låt oss veta om du hittar några misstag.\n"
    },
    {
      "Lang": "sw",
      "Title": "Mazoezi ya sarufi ya Kiingereza | Rahisi ⭐️ #74 can",
      "Description": "Jifunze sarufi ya Kiingereza! Badilisha neno katika sentensi.\n\n\n\n0:05 1:21 2:37 \nNancy can not go to the meeting\nˈnænsi kən nɑt goʊ tɪ ðə ˈmitɪŋ\nNancy hawezi kwenda kwenye mkutano\n\n0:19 1:35 2:51 \nNancy can go to the meeting\nˈnænsi kən goʊ tɪ ðə ˈmitɪŋ\nNancy anaweza kwenda kwenye mkutano\n\n0:32 1:48 3:04 \nNancy can do it\nˈnænsi kən du ɪt\nNancy anaweza kuifanya\n\n0:45 2:01 3:17 \nNancy can not do it\nˈnænsi kən nɑt du ɪt\nNancy hawezi kuifanya\n\n1:01 2:17 3:33 \nMy grandmother can not do it\nmaɪ ˈgrændˌməðər kən nɑt du ɪt\nBibi yangu hawezi kuifanya\n\n\n\nKwa waalimu na shule:\nVideo hii imechapishwa chini ya Leseni ya Creative Commons.\n  CC BY 3.0 https://creativecommons.org/licenses/by/3.0/ \nJisikie huru kutumia video hii kwenye darasa lako!\n\nTunatumia huduma ya Tafsiri ya Google kwa ujanibishaji. Ikiwa utapata makosa, tafadhali tujulishe.\n"
    },
    {
      "Lang": "ta",
      "Title": "ஆங்கில இலக்கண பயிற்சிகள் | எளிய ⭐️ #74 can",
      "Description": "ஆங்கில இலக்கணம் கற்றுக்கொள்ளுங்கள்! ஒரு வாக்கியத்தில் ஒரு வார்த்தையை மாற்றவும்.\n\n\n\n0:05 1:21 2:37 \nNancy can not go to the meeting\nˈnænsi kən nɑt goʊ tɪ ðə ˈmitɪŋ\nநான்சி கூட்டத்திற்கு செல்ல முடியாது\n\n0:19 1:35 2:51 \nNancy can go to the meeting\nˈnænsi kən goʊ tɪ ðə ˈmitɪŋ\nநான்சி கூட்டத்திற்கு செல்லலாம்\n\n0:32 1:48 3:04 \nNancy can do it\nˈnænsi kən du ɪt\nநான்சி அதை செய்ய முடியும்\n\n0:45 2:01 3:17 \nNancy can not do it\nˈnænsi kən nɑt du ɪt\nநான்சி அதை செய்ய முடியாது\n\n1:01 2:17 3:33 \nMy grandmother can not do it\nmaɪ ˈgrændˌməðər kən nɑt du ɪt\nஎன் பாட்டி அதை செய்ய முடியாது\n\n\n\nஆசிரியர்கள் மற்றும் பள்ளிகளுக்கு:\nஇந்த வீடியோ கிரியேட்டிவ் காமன்ஸ் உரிமத்தின் கீழ் வெளியிடப்பட்டுள்ளது.\n  CC BY 3.0 https://creativecommons.org/licenses/by/3.0/ \nஉங்கள் வகுப்புகளில் இந்த வீடியோவைப் பயன்படுத்த தயங்காதீர்கள்!\n\nஉள்ளூர்மயமாக்க Google மொழிபெயர்ப்பு சேவையைப் பயன்படுத்துகிறோம். நீங்கள் சில தவறுகளைக் கண்டால், எங்களுக்குத் தெரியப்படுத்துங்கள்.\n"
    },
    {
      "Lang": "te",
      "Title": "ఇంగ్లీష్ వ్యాకరణ వ్యాయామాలు | సాధారణ ⭐️ #74 can",
      "Description": "ఇంగ్లీష్ వ్యాకరణం నేర్చుకోండి! ఒక వాక్యంలో ఒక పదాన్ని మార్చండి.\n\n\n\n0:05 1:21 2:37 \nNancy can not go to the meeting\nˈnænsi kən nɑt goʊ tɪ ðə ˈmitɪŋ\nనాన్సీ సమావేశానికి వెళ్ళలేరు\n\n0:19 1:35 2:51 \nNancy can go to the meeting\nˈnænsi kən goʊ tɪ ðə ˈmitɪŋ\nనాన్సీ సమావేశానికి వెళ్ళవచ్చు\n\n0:32 1:48 3:04 \nNancy can do it\nˈnænsi kən du ɪt\nనాన్సీ దీన్ని చేయగలదు\n\n0:45 2:01 3:17 \nNancy can not do it\nˈnænsi kən nɑt du ɪt\nనాన్సీ దీన్ని చేయలేడు\n\n1:01 2:17 3:33 \nMy grandmother can not do it\nmaɪ ˈgrændˌməðər kən nɑt du ɪt\nనానమ్మ చేయలేరు\n\n\n\nఉపాధ్యాయులకు మరియు పాఠశాలలకు:\nఈ వీడియో క్రియేటివ్ కామన్స్ లైసెన్స్ క్రింద ప్రచురించబడింది.\n  CC BY 3.0 https://creativecommons.org/licenses/by/3.0/ \nమీ తరగతుల్లో ఈ వీడియోను ఉపయోగించడానికి సంకోచించకండి!\n\nస్థానికీకరణ కోసం మేము Google అనువాద సేవను ఉపయోగిస్తాము. మీరు కొన్ని తప్పులు కనుగొంటే, దయచేసి మాకు తెలియజేయండి.\n"
    },
    {
      "Lang": "tg",
      "Title": "Машқҳои грамматикаи забони англисӣ | Оддӣ ⭐️ #74 can",
      "Description": "Грамматикаи забони англисиро омӯзед! Калимаро дар як ҷумла иваз кунед.\n\n\n\n0:05 1:21 2:37 \nNancy can not go to the meeting\nˈnænsi kən nɑt goʊ tɪ ðə ˈmitɪŋ\nНэнси наметавонад ба маҷлис биравад\n\n0:19 1:35 2:51 \nNancy can go to the meeting\nˈnænsi kən goʊ tɪ ðə ˈmitɪŋ\nНэнси метавонад ба маҷлис биравад\n\n0:32 1:48 3:04 \nNancy can do it\nˈnænsi kən du ɪt\nНэнси инро карда метавонад\n\n0:45 2:01 3:17 \nNancy can not do it\nˈnænsi kən nɑt du ɪt\nНэнси инро карда наметавонад\n\n1:01 2:17 3:33 \nMy grandmother can not do it\nmaɪ ˈgrændˌməðər kən nɑt du ɪt\nБибиям ин корро карда наметавонад\n\n\n\nБа муаллимон ва мактабҳо:\nИн видео зери иҷозатномаи Creative Commons нашр шудааст.\n  CC BY 3.0 https://creativecommons.org/licenses/by/3.0/ \nИн видеоро дар дарсҳои худ истифода баред!\n\nМо барои локализатсия аз хидмати Google Translate истифода мебарем. Агар шумо ягон хатогӣ дарёфт кунед, лутфан ба мо хабар диҳед.\n"
    },
    {
      "Lang": "th",
      "Title": "แบบฝึกหัดไวยากรณ์ภาษาอังกฤษ | ง่าย ⭐️ #74 can",
      "Description": "เรียนรู้ไวยากรณ์ภาษาอังกฤษ! เปลี่ยนคำในประโยค\n\n\n\n0:05 1:21 2:37 \nNancy can not go to the meeting\nˈnænsi kən nɑt goʊ tɪ ðə ˈmitɪŋ\nแนนซี่ไม่สามารถไปประชุม\n\n0:19 1:35 2:51 \nNancy can go to the meeting\nˈnænsi kən goʊ tɪ ðə ˈmitɪŋ\nแนนซี่สามารถไปที่การประชุม\n\n0:32 1:48 3:04 \nNancy can do it\nˈnænsi kən du ɪt\nแนนซี่สามารถทำได้\n\n0:45 2:01 3:17 \nNancy can not do it\nˈnænsi kən nɑt du ɪt\nแนนซี่ไม่สามารถทำได้\n\n1:01 2:17 3:33 \nMy grandmother can not do it\nmaɪ ˈgrændˌməðər kən nɑt du ɪt\nยายของฉันไม่สามารถทำได้\n\n\n\nถึงครูและโรงเรียน:\nวิดีโอนี้เผยแพร่ภายใต้สัญญาอนุญาตครีเอทีฟคอมมอนส์\n  CC BY 3.0 https://creativecommons.org/licenses/by/3.0/ \nอย่าลังเลที่จะใช้วิดีโอนี้ในชั้นเรียนของคุณ!\n\nเราใช้บริการ Google แปลภาษาเพื่อการแปล หากคุณพบข้อผิดพลาดบางอย่างโปรดแจ้งให้เราทราบ\n"
    },
    {
      "Lang": "tr",
      "Title": "İngilizce gramer çalışmaları | Basit ⭐️ #74 can",
      "Description": "İngilizce gramerini öğren! Bir cümle içindeki bir kelimeyi değiştirin.\n\n\n\n0:05 1:21 2:37 \nNancy can not go to the meeting\nˈnænsi kən nɑt goʊ tɪ ðə ˈmitɪŋ\nNancy toplantıya gidemez\n\n0:19 1:35 2:51 \nNancy can go to the meeting\nˈnænsi kən goʊ tɪ ðə ˈmitɪŋ\nNancy toplantıya gidebilir\n\n0:32 1:48 3:04 \nNancy can do it\nˈnænsi kən du ɪt\nNancy yapabilir\n\n0:45 2:01 3:17 \nNancy can not do it\nˈnænsi kən nɑt du ɪt\nNancy yapamaz\n\n1:01 2:17 3:33 \nMy grandmother can not do it\nmaɪ ˈgrændˌməðər kən nɑt du ɪt\nBüyükannem yapamaz\n\n\n\nÖğretmenlere ve okullara:\nBu video Creative Commons License. Altında yayınlandı.\n  CC BY 3.0 https://creativecommons.org/licenses/by/3.0/ \nBu videoyu derslerinizde kullanmaktan çekinmeyin!\n\nYerelleştirme için Google Çeviri hizmetini kullanıyoruz. Bazı hatalar bulursanız lütfen bize bildirin.\n"
    },
    {
      "Lang": "uk",
      "Title": "Граматичні вправи з англійської мови | Простий ⭐️ #74 can",
      "Description": "Вивчіть англійську граматику! Змініть слово у реченні.\n\n\n\n0:05 1:21 2:37 \nNancy can not go to the meeting\nˈnænsi kən nɑt goʊ tɪ ðə ˈmitɪŋ\nНенсі не може йти на зустріч\n\n0:19 1:35 2:51 \nNancy can go to the meeting\nˈnænsi kən goʊ tɪ ðə ˈmitɪŋ\nНенсі може піти на зустріч\n\n0:32 1:48 3:04 \nNancy can do it\nˈnænsi kən du ɪt\nНенсі може це зробити\n\n0:45 2:01 3:17 \nNancy can not do it\nˈnænsi kən nɑt du ɪt\nНенсі не може цього зробити\n\n1:01 2:17 3:33 \nMy grandmother can not do it\nmaɪ ˈgrændˌməðər kən nɑt du ɪt\nБабуся не може цього зробити\n\n\n\nДля вчителів та шкіл:\nЦе відео опубліковане під ліцензією Creative Commons.\n  CC BY 3.0 https://creativecommons.org/licenses/by/3.0/ \nСміливо використовуйте це відео у своїх класах!\n\nМи використовуємо послугу Google Translate для локалізації. Якщо ви виявили деякі помилки, повідомте нас про це.\n"
    },
    {
      "Lang": "ur",
      "Title": "انگریزی گرائمر کی ورزشیں | آسان ⭐️ #74 can",
      "Description": "انگریزی گرائمر سیکھیں! ایک جملے میں ایک لفظ تبدیل کریں۔\n\n\n\n0:05 1:21 2:37 \nNancy can not go to the meeting\nˈnænsi kən nɑt goʊ tɪ ðə ˈmitɪŋ\nنینسی اجلاس میں نہیں جاسکتی ہیں\n\n0:19 1:35 2:51 \nNancy can go to the meeting\nˈnænsi kən goʊ tɪ ðə ˈmitɪŋ\nنینسی میٹنگ میں جاسکتی ہیں\n\n0:32 1:48 3:04 \nNancy can do it\nˈnænsi kən du ɪt\nنینسی یہ کر سکتی ہے\n\n0:45 2:01 3:17 \nNancy can not do it\nˈnænsi kən nɑt du ɪt\nنینسی یہ نہیں کر سکتی\n\n1:01 2:17 3:33 \nMy grandmother can not do it\nmaɪ ˈgrændˌməðər kən nɑt du ɪt\nمیری دادی یہ نہیں کر سکتی ہیں\n\n\n\nاساتذہ اور اسکولوں کے لئے:\nیہ ویڈیو تخلیقی العام لائسنس کے تحت شائع ہوا ہے۔\n  CC BY 3.0 https://creativecommons.org/licenses/by/3.0/ \nاپنی ویڈیو کو اپنی کلاسوں میں آزادانہ طور پر استعمال کریں!\n\nہم لوکلائزیشن کے لئے گوگل ٹرانسلیٹ سروس استعمال کرتے ہیں۔ اگر آپ کو کچھ غلطیاں ملتی ہیں تو ، براہ کرم ہمیں بتائیں۔\n"
    },
    {
      "Lang": "uz",
      "Title": "Ingliz tili grammatik mashqlari | Oddiy ⭐️ #74 can",
      "Description": "Ingliz tilining grammatikasini o'rganing! Bir so'zni jumlada o'zgartiring.\n\n\n\n0:05 1:21 2:37 \nNancy can not go to the meeting\nˈnænsi kən nɑt goʊ tɪ ðə ˈmitɪŋ\nNensi uchrashuvga bora olmaydi\n\n0:19 1:35 2:51 \nNancy can go to the meeting\nˈnænsi kən goʊ tɪ ðə ˈmitɪŋ\nNensi uchrashuvga borishi mumkin\n\n0:32 1:48 3:04 \nNancy can do it\nˈnænsi kən du ɪt\nNensi buni qila oladi\n\n0:45 2:01 3:17 \nNancy can not do it\nˈnænsi kən nɑt du ɪt\nNensi buni uddalay olmaydi\n\n1:01 2:17 3:33 \nMy grandmother can not do it\nmaɪ ˈgrændˌməðər kən nɑt du ɪt\nMening buvim buni qila olmaydi\n\n\n\nO'qituvchilar va maktablarga:\nUshbu video Creative Commons litsenziyasi ostida joylashtirilgan.\n  CC BY 3.0 https://creativecommons.org/licenses/by/3.0/ \nUshbu videoni o'z sinflaringizda ishlatish bepul!\n\nBiz Google Translate xizmatidan lokalizatsiya uchun foydalanamiz. Agar siz biron bir xato topsangiz, iltimos, bizga xabar bering.\n"
    },
    {
      "Lang": "vi",
      "Title": "Bài tập ngữ pháp tiếng anh | Đơn giản ⭐️ #74 can",
      "Description": "Học ngữ pháp tiếng Anh! Thay đổi một từ trong một câu.\n\n\n\n0:05 1:21 2:37 \nNancy can not go to the meeting\nˈnænsi kən nɑt goʊ tɪ ðə ˈmitɪŋ\nNancy không thể đi đến cuộc họp\n\n0:19 1:35 2:51 \nNancy can go to the meeting\nˈnænsi kən goʊ tɪ ðə ˈmitɪŋ\nNancy có thể đi đến cuộc họp\n\n0:32 1:48 3:04 \nNancy can do it\nˈnænsi kən du ɪt\nNancy có thể làm điều đó\n\n0:45 2:01 3:17 \nNancy can not do it\nˈnænsi kən nɑt du ɪt\nNancy không thể làm điều đó\n\n1:01 2:17 3:33 \nMy grandmother can not do it\nmaɪ ˈgrændˌməðər kən nɑt du ɪt\nBà tôi không làm được\n\n\n\nGửi giáo viên và nhà trường:\nVideo này được xuất bản theo Giấy phép Creative Commons.\n  CC BY 3.0 https://creativecommons.org/licenses/by/3.0/ \nHãy sử dụng video này trong các lớp học của bạn!\n\nChúng tôi sử dụng dịch vụ Google Dịch để bản địa hóa. Nếu bạn tìm thấy một số sai lầm, xin vui lòng cho chúng tôi biết.\n"
    },
    {
      "Lang": "xh",
      "Title": "Ukuziqhelanisa negrama yesiNgesi | Elula ⭐️ #74 can",
      "Description": "Funda igrama yesiNgesi! Guqula igama kwisivakalisi.\n\n\n\n0:05 1:21 2:37 \nNancy can not go to the meeting\nˈnænsi kən nɑt goʊ tɪ ðə ˈmitɪŋ\nUNancy akakwazi ukuya ezintlanganisweni\n\n0:19 1:35 2:51 \nNancy can go to the meeting\nˈnænsi kən goʊ tɪ ðə ˈmitɪŋ\nUNancy angaya ezintlanganisweni\n\n0:32 1:48 3:04 \nNancy can do it\nˈnænsi kən du ɪt\nUNancy angayenza\n\n0:45 2:01 3:17 \nNancy can not do it\nˈnænsi kən nɑt du ɪt\nUNancy akakwazi ukuyenza\n\n1:01 2:17 3:33 \nMy grandmother can not do it\nmaɪ ˈgrændˌməðər kən nɑt du ɪt\nUmakhulu wam akakwazi ukuyenza\n\n\n\nKootitshala nakwizikolo:\nLe vidiyo ipapashwa phantsi kwelayisensi yeCreative Commons.\n  CC BY 3.0 https://creativecommons.org/licenses/by/3.0/ \nZive ukhululekile ukusebenzisa le vidiyo kwiiklasi zakho!\n\nSisebenzisa inkonzo yokuTolika kaGoogle ukuze sifumane indawo. Ukuba ufumana iimpazamo ezithile, nceda usazise.\n"
    },
    {
      "Lang": "yi",
      "Title": "ענגליש גראַמאַטיק עקסערסייזיז | פּשוט ⭐️ #74 can",
      "Description": "לערן ענגליש גראַמאַטיק! טוישן אַ וואָרט אין אַ זאַץ.\n\n\n\n0:05 1:21 2:37 \nNancy can not go to the meeting\nˈnænsi kən nɑt goʊ tɪ ðə ˈmitɪŋ\nנאַנסי קען נישט גיין צו דער זיצונג\n\n0:19 1:35 2:51 \nNancy can go to the meeting\nˈnænsi kən goʊ tɪ ðə ˈmitɪŋ\nנאַנסי קען גיין צו דער זיצונג\n\n0:32 1:48 3:04 \nNancy can do it\nˈnænsi kən du ɪt\nנאַנסי קענען טאָן דאָס\n\n0:45 2:01 3:17 \nNancy can not do it\nˈnænsi kən nɑt du ɪt\nנאַנסי קען נישט טאָן דאָס\n\n1:01 2:17 3:33 \nMy grandmother can not do it\nmaɪ ˈgrændˌməðər kən nɑt du ɪt\nמייַן באָבע קען נישט טאָן דאָס\n\n\n\nצו לערערס און שולן:\nדער ווידעא איז ארויס אונטער Creative Commons License.\n  CC BY 3.0 https://creativecommons.org/licenses/by/3.0/ \nפילן פריי צו נוצן דעם ווידעא אין דיין קלאסן!\n\nמיר נוצן Google Translate דינסט פֿאַר לאָוקאַלאַזיישאַן. אויב איר געפֿינען עטלעכע מיסטייקס, ביטע לאָזן אונדז וויסן.\n"
    },
    {
      "Lang": "yo",
      "Title": "Awọn adaṣe gẹẹsi Gẹẹsi | Rọrun ⭐️ #74 can",
      "Description": "Kọ ẹkọ gẹẹsi Gẹẹsi! Yi ọrọ pada ninu gbolohun ọrọ.\n\n\n\n0:05 1:21 2:37 \nNancy can not go to the meeting\nˈnænsi kən nɑt goʊ tɪ ðə ˈmitɪŋ\nNancy ko le lọ si ibi ipade naa\n\n0:19 1:35 2:51 \nNancy can go to the meeting\nˈnænsi kən goʊ tɪ ðə ˈmitɪŋ\nNancy le lọ si ipade naa\n\n0:32 1:48 3:04 \nNancy can do it\nˈnænsi kən du ɪt\nNancy le ṣe\n\n0:45 2:01 3:17 \nNancy can not do it\nˈnænsi kən nɑt du ɪt\nNancy ko le ṣe\n\n1:01 2:17 3:33 \nMy grandmother can not do it\nmaɪ ˈgrændˌməðər kən nɑt du ɪt\nArabinrin iya mi ko le ṣe\n\n\n\nSi awọn olukọ ati awọn ile-iwe:\nFidio yii ni a tẹjade labẹ Iwe-aṣẹ Creative Commons.\n  CC BY 3.0 https://creativecommons.org/licenses/by/3.0/ \nLero lati lo fidio yii ninu awọn kilasi rẹ!\n\nA lo iṣẹ Google Translate fun agbegbe. Ti o ba rii diẹ ninu awọn aṣiṣe, jọwọ jẹ ki a mọ.\n"
    },
    {
      "Lang": "zh-Hans",
      "Title": "英语语法练习 | 简单 ⭐️ #74 can",
      "Description": "学习英语语法！ 更改句子中的单词。\n\n\n\n0:05 1:21 2:37 \nNancy can not go to the meeting\nˈnænsi kən nɑt goʊ tɪ ðə ˈmitɪŋ\n南希不能参加会议\n\n0:19 1:35 2:51 \nNancy can go to the meeting\nˈnænsi kən goʊ tɪ ðə ˈmitɪŋ\n南希可以参加会议\n\n0:32 1:48 3:04 \nNancy can do it\nˈnænsi kən du ɪt\n南希可以做到\n\n0:45 2:01 3:17 \nNancy can not do it\nˈnænsi kən nɑt du ɪt\n南希不能做到\n\n1:01 2:17 3:33 \nMy grandmother can not do it\nmaɪ ˈgrændˌməðər kən nɑt du ɪt\n我奶奶做不到\n\n\n\n致老师和学校：\n该视频是根据知识共享许可发布的。\n  CC BY 3.0 https://creativecommons.org/licenses/by/3.0/ \n随时在您的课程中使用此视频！\n\n我们使用Google翻译服务进行本地化。如果您发现一些错误，请告诉我们。\n"
    },
    {
      "Lang": "zh-Hant",
      "Title": "英語語法練習 | 簡單 ⭐️ #74 can",
      "Description": "學習英語語法！ 更改句子中的單詞。\n\n\n\n0:05 1:21 2:37 \nNancy can not go to the meeting\nˈnænsi kən nɑt goʊ tɪ ðə ˈmitɪŋ\n南希不能參加會議\n\n0:19 1:35 2:51 \nNancy can go to the meeting\nˈnænsi kən goʊ tɪ ðə ˈmitɪŋ\n南希可以參加會議\n\n0:32 1:48 3:04 \nNancy can do it\nˈnænsi kən du ɪt\n南希可以做到\n\n0:45 2:01 3:17 \nNancy can not do it\nˈnænsi kən nɑt du ɪt\n南希不能做到\n\n1:01 2:17 3:33 \nMy grandmother can not do it\nmaɪ ˈgrændˌməðər kən nɑt du ɪt\n我奶奶做不到\n\n\n\n致老師和學校：\n該視頻是根據知識共享許可發布的。\n  CC BY 3.0 https://creativecommons.org/licenses/by/3.0/ \n隨時在您的課程中使用此視頻！\n\n我們使用Google翻譯服務進行本地化。如果您發現一些錯誤，請告訴我們。\n"
    },
    {
      "Lang": "zu",
      "Title": "Ukuzivocavoca kolimi lwesiNgisi | Elula ⭐️ #74 can",
      "Description": "Funda uhlelo lolimi lwesiNgisi! Shintsha igama emshweni.\n\n\n\n0:05 1:21 2:37 \nNancy can not go to the meeting\nˈnænsi kən nɑt goʊ tɪ ðə ˈmitɪŋ\nUNancy akakwazi ukuya emhlanganweni\n\n0:19 1:35 2:51 \nNancy can go to the meeting\nˈnænsi kən goʊ tɪ ðə ˈmitɪŋ\nUNancy angaya emhlanganweni\n\n0:32 1:48 3:04 \nNancy can do it\nˈnænsi kən du ɪt\nUNancy angakwenza\n\n0:45 2:01 3:17 \nNancy can not do it\nˈnænsi kən nɑt du ɪt\nUNancy angikwazi ukukwenza\n\n1:01 2:17 3:33 \nMy grandmother can not do it\nmaɪ ˈgrændˌməðər kən nɑt du ɪt\nUgogo angikwazi ukukwenza\n\n\n\nKothisha nasezikoleni:\nLe vidiyo ishicilelwe ngaphansi kwelayisensi yeCreative Commons.\n  CC BY 3.0 https://creativecommons.org/licenses/by/3.0/ \nZizwe ukhululekile ukusebenzisa le vidiyo emakilasini akho!\n\nSisebenzisa insiza ye-Google Humusha ukwenza okwasendaweni. Uma uthola amanye amaphutha, sicela usazise.\n"
    }
  ],
  "HatenaPermalink": "https://b.hatena.ne.jp/isonschool/20200216#bookmark-4681576357246592994"
}