{
  "File": "grammar-en-beginner-simple_77_IN.mp4",
  "ID": "h-x0gh9XVvc",
  "AudioLang": "en",
  "DefaultLang": "si",
  "Title": "ඉංග්‍රීසි ව්‍යාකරණ අභ්‍යාස | සරල ඉන්දියාව ⭐️ #77 Could you?",
  "Description": "ඉංග්‍රීසි ව්‍යාකරණ ඉගෙන ගන්න! වාක්‍යයක වචනයක් වෙනස් කරන්න.\n\n\n\n0:05 1:18 2:31 \nCould you sing a song ?\nkʊd ju sɪŋ ə sɔŋ \nඔබට ගීතයක් ගායනා කළ හැකිද?\n\n0:19 1:32 2:45 \nCould you wait a moment ?\nkʊd ju wet ə ˈmoʊmənt \nඔබට මොහොතක් බලා සිටිය හැකිද?\n\n0:33 1:46 2:59 \nCould you open the window ?\nkʊd ju ˈoʊpən ðə ˈwɪndoʊ \nඔබට කවුළුව විවෘත කළ හැකිද?\n\n0:47 2:00 3:13 \nCould you play music ?\nkʊd ju ple mˈjuzɪk \nඔබට සංගීතය වාදනය කළ හැකිද?\n\n1:01 2:14 3:27 \nCould you open the door ?\nkʊd ju ˈoʊpən ðə dɔr \nඔබට දොර විවෘත කළ හැකිද?\n\n\n\nගුරුවරුන්ට සහ පාසල්වලට:\nමෙම වීඩියෝව නිර්මාණාත්මක පොදු බලපත්‍රය යටතේ ප්‍රකාශයට පත් කෙරේ.\n  CC BY 3.0 https://creativecommons.org/licenses/by/3.0/ \nඔබේ පංතිවල මෙම වීඩියෝව භාවිතා කිරීමට නිදහස් වන්න!\n\nප්‍රාදේශීයකරණය සඳහා අපි ගූගල් පරිවර්තන සේවාව භාවිතා කරමු. ඔබ යම් වැරැද්දක් සොයා ගන්නේ නම්, කරුණාකර අපට දන්වන්න.\n",
  "VideoTags": "ඉංග්‍රීසි ව්‍යාකරණ,វេយ្យាករណ៍អង់គ្លេស,Nahawu Turanci,Grammatika Ingliża,Chirungu,Igrama yesiNgesi,İngilis qrammatikası,engelsk grammatik,Grammaire Anglaise,Sarufi ya Kiingereza,Ingliz tili grammatikasi,Angleška slovnica,Граматыка англійскай мовы,английская грамматика,انگریزی قواعد",
  "YoutubeSynced": true,
  "ThumbnailUploaded": true,
  "Localizations": [
    {
      "Lang": "af",
      "Title": "Engelse grammatika-oefeninge | eenvoudige Indië ⭐️ #77 Could you?",
      "Description": "Leer Engelse grammatika! Verander 'n woord in 'n sin.\n\n\n\n0:05 1:18 2:31 \nCould you sing a song ?\nkʊd ju sɪŋ ə sɔŋ \nKon u 'n liedjie sing?\n\n0:19 1:32 2:45 \nCould you wait a moment ?\nkʊd ju wet ə ˈmoʊmənt \nKan u 'n oomblik wag?\n\n0:33 1:46 2:59 \nCould you open the window ?\nkʊd ju ˈoʊpən ðə ˈwɪndoʊ \nKon u die venster oopmaak?\n\n0:47 2:00 3:13 \nCould you play music ?\nkʊd ju ple mˈjuzɪk \nKon u musiek speel?\n\n1:01 2:14 3:27 \nCould you open the door ?\nkʊd ju ˈoʊpən ðə dɔr \nKon u die deur oopmaak?\n\n\n\nAan onderwysers en skole:\nHierdie video word onder Creative Commons-lisensie gepubliseer.\n  CC BY 3.0 https://creativecommons.org/licenses/by/3.0/ \nGebruik gerus hierdie video in u klasse!\n\nOns gebruik Google Translate-diens vir lokalisering. Laat weet ons as u foute ervaar.\n"
    },
    {
      "Lang": "am",
      "Title": "የእንግሊዝኛ ሰዋሰው ልምምዶች | ቀላል ሕንድ ⭐️ #77 Could you?",
      "Description": "የእንግሊዝኛ ሰዋስው ይማሩ! በአረፍተ ነገር ውስጥ አንድ ቃል ይለውጡ ፡፡\n\n\n\n0:05 1:18 2:31 \nCould you sing a song ?\nkʊd ju sɪŋ ə sɔŋ \nአንድ ዘፈን መዘመር ይችላሉ?\n\n0:19 1:32 2:45 \nCould you wait a moment ?\nkʊd ju wet ə ˈmoʊmənt \nትንሽ መጠበቅ ይችላሉ?\n\n0:33 1:46 2:59 \nCould you open the window ?\nkʊd ju ˈoʊpən ðə ˈwɪndoʊ \nመስኮቱን መክፈት ይችላሉ?\n\n0:47 2:00 3:13 \nCould you play music ?\nkʊd ju ple mˈjuzɪk \nሙዚቃ መጫወት ይችላሉ?\n\n1:01 2:14 3:27 \nCould you open the door ?\nkʊd ju ˈoʊpən ðə dɔr \nበሩን መክፈት ይችላሉ?\n\n\n\nለመምህራን እና ለት / ቤቶች\nይህ ቪዲዮ በ Creative Commons ፈቃድ ስር ታትሟል ፡፡\n  CC BY 3.0 https://creativecommons.org/licenses/by/3.0/ \nይህንን ቪዲዮ በትምህርቶችዎ ውስጥ ለመጠቀም ነፃ ይሁኑ!\n\nለትርጉም የ Google ትርጉም አገልግሎትን እንጠቀማለን። አንዳንድ ስህተቶች ካገኙ እባክዎ ያሳውቁን።\n"
    },
    {
      "Lang": "ar",
      "Title": "تمارين قواعد اللغة الإنجليزية | بسيط الهند ⭐️ #77 Could you?",
      "Description": "تعلم قواعد اللغة الإنجليزية! تغيير كلمة في جملة.\n\n\n\n0:05 1:18 2:31 \nCould you sing a song ?\nkʊd ju sɪŋ ə sɔŋ \nهل يمكن أن تغني أغنية؟\n\n0:19 1:32 2:45 \nCould you wait a moment ?\nkʊd ju wet ə ˈmoʊmənt \nهل يمكن أن تنتظر لحظة؟\n\n0:33 1:46 2:59 \nCould you open the window ?\nkʊd ju ˈoʊpən ðə ˈwɪndoʊ \nهل يمكن فتح نافذة ؟\n\n0:47 2:00 3:13 \nCould you play music ?\nkʊd ju ple mˈjuzɪk \nهل يمكن أن تلعب الموسيقى؟\n\n1:01 2:14 3:27 \nCould you open the door ?\nkʊd ju ˈoʊpən ðə dɔr \nهل يمكن أن تفتح الباب؟\n\n\n\nللمعلمين والمدارس:\nتم نشر هذا الفيديو تحت رخصة المشاع الإبداعي.\n  CC BY 3.0 https://creativecommons.org/licenses/by/3.0/ \nلا تتردد في استخدام هذا الفيديو في الفصول الدراسية!\n\nنستخدم خدمة الترجمة من Google للترجمة. إذا وجدت بعض الأخطاء ، يرجى إعلامنا.\n"
    },
    {
      "Lang": "az",
      "Title": "İngilis qrammatikası təlimləri | Sadə Hindistan ⭐️ #77 Could you?",
      "Description": "İngilis dili qrammatikasını öyrənin! Bir cümlədə bir söz dəyişdirin.\n\n\n\n0:05 1:18 2:31 \nCould you sing a song ?\nkʊd ju sɪŋ ə sɔŋ \nMahnı oxuya bilərsən?\n\n0:19 1:32 2:45 \nCould you wait a moment ?\nkʊd ju wet ə ˈmoʊmənt \nBir an gözləyə bilərsənmi?\n\n0:33 1:46 2:59 \nCould you open the window ?\nkʊd ju ˈoʊpən ðə ˈwɪndoʊ \nPəncərəni aça bilərsinizmi?\n\n0:47 2:00 3:13 \nCould you play music ?\nkʊd ju ple mˈjuzɪk \nMusiqi ifa edə bilərsən?\n\n1:01 2:14 3:27 \nCould you open the door ?\nkʊd ju ˈoʊpən ðə dɔr \nQapını aça bilərsən?\n\n\n\nMüəllimlərə və məktəblərə:\nBu video Creative Commons lisenziyası altında yayımlanıb.\n  CC BY 3.0 https://creativecommons.org/licenses/by/3.0/ \nBu videonu dərslərinizdə istifadə etməkdən çekinmeyin!\n\nLokallaşdırma üçün Google Translate xidmətindən istifadə edirik. Bəzi səhvlər taparsanız, bizə bildirin.\n"
    },
    {
      "Lang": "be",
      "Title": "Граматычныя практыкаванні на англійскай мове | Просты Індыя ⭐️ #77 Could you?",
      "Description": "Вывучайце англійскую граматыку! Змяніце слова ў сказе.\n\n\n\n0:05 1:18 2:31 \nCould you sing a song ?\nkʊd ju sɪŋ ə sɔŋ \nНе маглі б вы праспяваць песню?\n\n0:19 1:32 2:45 \nCould you wait a moment ?\nkʊd ju wet ə ˈmoʊmənt \nНе маглі б вы пачакаць хвіліну?\n\n0:33 1:46 2:59 \nCould you open the window ?\nkʊd ju ˈoʊpən ðə ˈwɪndoʊ \nНе маглі б вы адкрыць акно?\n\n0:47 2:00 3:13 \nCould you play music ?\nkʊd ju ple mˈjuzɪk \nЦі можаце вы гуляць музыку?\n\n1:01 2:14 3:27 \nCould you open the door ?\nkʊd ju ˈoʊpən ðə dɔr \nНе маглі б вы адчыніць дзверы?\n\n\n\nДля настаўнікаў і школ:\nГэта відэа публікуецца пад ліцэнзіяй Creative Commons.\n  CC BY 3.0 https://creativecommons.org/licenses/by/3.0/ \nНе саромейцеся выкарыстоўваць гэта відэа ў сваіх класах!\n\nМы выкарыстоўваем паслугу Google Translate для лакалізацыі. Калі вы выявілі некаторыя памылкі, калі ласка, паведаміце нам пра гэта.\n"
    },
    {
      "Lang": "bg",
      "Title": "Английски граматически упражнения | прост Индия ⭐️ #77 Could you?",
      "Description": "Научете английска граматика! Промяна на дума в изречение.\n\n\n\n0:05 1:18 2:31 \nCould you sing a song ?\nkʊd ju sɪŋ ə sɔŋ \nБихте ли могли да изпеете песен?\n\n0:19 1:32 2:45 \nCould you wait a moment ?\nkʊd ju wet ə ˈmoʊmənt \nМоже ли да изчакате малко?\n\n0:33 1:46 2:59 \nCould you open the window ?\nkʊd ju ˈoʊpən ðə ˈwɪndoʊ \nБихте ли отворили прозореца?\n\n0:47 2:00 3:13 \nCould you play music ?\nkʊd ju ple mˈjuzɪk \nБихте ли пускали музика?\n\n1:01 2:14 3:27 \nCould you open the door ?\nkʊd ju ˈoʊpən ðə dɔr \nБихте ли отворили вратата?\n\n\n\nЗа учители и училища:\nТози видеоклип е публикуван под Creative Commons License.\n  CC BY 3.0 https://creativecommons.org/licenses/by/3.0/ \nЧувствайте се свободни да използвате това видео в класовете си!\n\nНие използваме услугата Google Translate за локализация. Ако откриете някои грешки, моля, уведомете ни.\n"
    },
    {
      "Lang": "bn",
      "Title": "ইংরেজি ব্যাকরণ অনুশীলন | সহজ ভারত ⭐️ #77 Could you?",
      "Description": "ইংরেজি ব্যাকরণ শিখুন! একটি বাক্যে একটি শব্দ পরিবর্তন করুন।\n\n\n\n0:05 1:18 2:31 \nCould you sing a song ?\nkʊd ju sɪŋ ə sɔŋ \nআপনি একটি গান গাইতে পারেন?\n\n0:19 1:32 2:45 \nCould you wait a moment ?\nkʊd ju wet ə ˈmoʊmənt \nআপনি কি এক মুহুর্ত অপেক্ষা করতে পারেন?\n\n0:33 1:46 2:59 \nCould you open the window ?\nkʊd ju ˈoʊpən ðə ˈwɪndoʊ \nআপনি উইন্ডো খুলতে পারেন?\n\n0:47 2:00 3:13 \nCould you play music ?\nkʊd ju ple mˈjuzɪk \nতুমি কি গান বাজাতে পারো?\n\n1:01 2:14 3:27 \nCould you open the door ?\nkʊd ju ˈoʊpən ðə dɔr \nআপনি দরজা খুলতে পারেন?\n\n\n\nশিক্ষক এবং বিদ্যালয়ের কাছে:\nএই ভিডিওটি ক্রিয়েটিভ কমন্স লাইসেন্সের আওতায় প্রকাশিত হয়েছে।\n  CC BY 3.0 https://creativecommons.org/licenses/by/3.0/ \nআপনার ক্লাসে এই ভিডিওটি নির্দ্বিধায় ব্যবহার করুন!\n\nআমরা স্থানীয়করণের জন্য গুগল অনুবাদ পরিষেবা ব্যবহার করি। আপনি যদি কিছু ভুল খুঁজে পান তবে দয়া করে আমাদের জানান।\n"
    },
    {
      "Lang": "bs",
      "Title": "Engleske gramatičke vježbe | Jednostavno Indija ⭐️ #77 Could you?",
      "Description": "Naučite englesku gramatiku! Promenite reč u rečenici.\n\n\n\n0:05 1:18 2:31 \nCould you sing a song ?\nkʊd ju sɪŋ ə sɔŋ \nMožete li otpevati pesmu?\n\n0:19 1:32 2:45 \nCould you wait a moment ?\nkʊd ju wet ə ˈmoʊmənt \nMožete li sačekati trenutak?\n\n0:33 1:46 2:59 \nCould you open the window ?\nkʊd ju ˈoʊpən ðə ˈwɪndoʊ \nMožete li otvoriti prozor?\n\n0:47 2:00 3:13 \nCould you play music ?\nkʊd ju ple mˈjuzɪk \nMožete li puštati muziku?\n\n1:01 2:14 3:27 \nCould you open the door ?\nkʊd ju ˈoʊpən ðə dɔr \nMožete li otvoriti vrata?\n\n\n\nNastavnicima i školama:\nOvaj video je objavljen pod Creative Commons licencom.\n  CC BY 3.0 https://creativecommons.org/licenses/by/3.0/ \nSlobodno koristite ovaj videozapis u svojim predavanjima!\n\nZa lokalizaciju koristimo uslugu Google Translate. Ako pronađete neke greške, javite nam se.\n"
    },
    {
      "Lang": "ca",
      "Title": "Exercicis de gramàtica anglesa | Senzill Índia ⭐️ #77 Could you?",
      "Description": "Apreneu gramàtica anglesa! Canvia una paraula en una frase.\n\n\n\n0:05 1:18 2:31 \nCould you sing a song ?\nkʊd ju sɪŋ ə sɔŋ \nPodríeu cantar una cançó?\n\n0:19 1:32 2:45 \nCould you wait a moment ?\nkʊd ju wet ə ˈmoʊmənt \nPodries esperar un moment?\n\n0:33 1:46 2:59 \nCould you open the window ?\nkʊd ju ˈoʊpən ðə ˈwɪndoʊ \nPodríeu obrir la finestra?\n\n0:47 2:00 3:13 \nCould you play music ?\nkʊd ju ple mˈjuzɪk \nPodríeu tocar música?\n\n1:01 2:14 3:27 \nCould you open the door ?\nkʊd ju ˈoʊpən ðə dɔr \nPodríeu obrir la porta?\n\n\n\nA professors i escoles:\nAquest vídeo es publica sota llicència Creative Commons.\n  CC BY 3.0 https://creativecommons.org/licenses/by/3.0/ \nNo dubteu a utilitzar aquest vídeo a les vostres classes.\n\nUtilitzem el servei de Google Translate per a la localització. Si trobeu alguns errors, feu-nos-ho saber.\n"
    },
    {
      "Lang": "co",
      "Title": "Esercizii di grammatica inglese | Semplice India ⭐️ #77 Could you?",
      "Description": "Amparate a grammatica inglese! Cambia una parolla in una frase.\n\n\n\n0:05 1:18 2:31 \nCould you sing a song ?\nkʊd ju sɪŋ ə sɔŋ \nPudete cantà una canzona?\n\n0:19 1:32 2:45 \nCould you wait a moment ?\nkʊd ju wet ə ˈmoʊmənt \nPudete aspittà un momentu?\n\n0:33 1:46 2:59 \nCould you open the window ?\nkʊd ju ˈoʊpən ðə ˈwɪndoʊ \nPuderia apre a finestra?\n\n0:47 2:00 3:13 \nCould you play music ?\nkʊd ju ple mˈjuzɪk \nPudete ghjucà a musica?\n\n1:01 2:14 3:27 \nCould you open the door ?\nkʊd ju ˈoʊpən ðə dɔr \nPudete apre a porta?\n\n\n\nÀ i prufessori è à e scole:\nStu video hè publicatu sottu licenza Creative Commons.\n  CC BY 3.0 https://creativecommons.org/licenses/by/3.0/ \nSentitevi liberi d'utilizà stu video in i vostri classi!\n\nUsu u serviziu di Google Translate per a localizazione. Se truvate qualchì sbagli, per piaceci di sapè.\n"
    },
    {
      "Lang": "cs",
      "Title": "Cvičení anglické gramatiky | Jednoduchý Indie ⭐️ #77 Could you?",
      "Description": "Naučte se anglickou gramatiku! Změňte slovo ve větě.\n\n\n\n0:05 1:18 2:31 \nCould you sing a song ?\nkʊd ju sɪŋ ə sɔŋ \nMohl bys zpívat píseň?\n\n0:19 1:32 2:45 \nCould you wait a moment ?\nkʊd ju wet ə ˈmoʊmənt \nMůžete počkat chvilku?\n\n0:33 1:46 2:59 \nCould you open the window ?\nkʊd ju ˈoʊpən ðə ˈwɪndoʊ \nMůžete otevřít okno?\n\n0:47 2:00 3:13 \nCould you play music ?\nkʊd ju ple mˈjuzɪk \nDokážete hrát hudbu?\n\n1:01 2:14 3:27 \nCould you open the door ?\nkʊd ju ˈoʊpən ðə dɔr \nMohl bys otevřít dveře?\n\n\n\nUčitelům a školám:\nToto video je publikováno pod licencí Creative Commons License.\n  CC BY 3.0 https://creativecommons.org/licenses/by/3.0/ \nNeváhejte použít toto video ve svých třídách!\n\nK lokalizaci používáme službu Google Translate. Pokud narazíte na nějaké chyby, dejte nám prosím vědět.\n"
    },
    {
      "Lang": "cy",
      "Title": "Ymarferion gramadeg Saesneg | Syml India ⭐️ #77 Could you?",
      "Description": "Dysgu gramadeg Saesneg! Newid gair mewn brawddeg.\n\n\n\n0:05 1:18 2:31 \nCould you sing a song ?\nkʊd ju sɪŋ ə sɔŋ \nAllech chi ganu cân?\n\n0:19 1:32 2:45 \nCould you wait a moment ?\nkʊd ju wet ə ˈmoʊmənt \nAllech chi aros eiliad?\n\n0:33 1:46 2:59 \nCould you open the window ?\nkʊd ju ˈoʊpən ðə ˈwɪndoʊ \nA allech chi agor y ffenestr?\n\n0:47 2:00 3:13 \nCould you play music ?\nkʊd ju ple mˈjuzɪk \nAllech chi chwarae cerddoriaeth?\n\n1:01 2:14 3:27 \nCould you open the door ?\nkʊd ju ˈoʊpən ðə dɔr \nA allech chi agor y drws?\n\n\n\nI athrawon ac ysgolion:\nCyhoeddir y fideo hon o dan Creative Commons License.\n  CC BY 3.0 https://creativecommons.org/licenses/by/3.0/ \nMae croeso i chi ddefnyddio'r fideo hon yn eich dosbarthiadau!\n\nRydym yn defnyddio gwasanaeth Google Translate ar gyfer lleoleiddio. Os dewch chi o hyd i rai camgymeriadau, rhowch wybod i ni.\n"
    },
    {
      "Lang": "da",
      "Title": "Engelsk grammatikøvelser | Enkel Indien ⭐️ #77 Could you?",
      "Description": "Lær engelsk grammatik! Skift et ord i en sætning.\n\n\n\n0:05 1:18 2:31 \nCould you sing a song ?\nkʊd ju sɪŋ ə sɔŋ \nKunne du synge en sang?\n\n0:19 1:32 2:45 \nCould you wait a moment ?\nkʊd ju wet ə ˈmoʊmənt \nKunne du vente et øjeblik?\n\n0:33 1:46 2:59 \nCould you open the window ?\nkʊd ju ˈoʊpən ðə ˈwɪndoʊ \nKunne du åbne vinduet?\n\n0:47 2:00 3:13 \nCould you play music ?\nkʊd ju ple mˈjuzɪk \nKunne du spille musik?\n\n1:01 2:14 3:27 \nCould you open the door ?\nkʊd ju ˈoʊpən ðə dɔr \nKunne du åbne døren?\n\n\n\nTil lærere og skoler:\nDenne video er offentliggjort under Creative Commons License.\n  CC BY 3.0 https://creativecommons.org/licenses/by/3.0/ \nBrug gjerne denne video i dine klasser!\n\nVi bruger Google Translate-tjenesten til lokalisering. Hvis du finder nogle fejl, så lad os vide det.\n"
    },
    {
      "Lang": "de",
      "Title": "Englische Grammatikübungen | Einfach Indien ⭐️ #77 Could you?",
      "Description": "Lerne englische Grammatik! Ändern Sie ein Wort in einem Satz.\n\n\n\n0:05 1:18 2:31 \nCould you sing a song ?\nkʊd ju sɪŋ ə sɔŋ \nKönntest du ein Lied singen?\n\n0:19 1:32 2:45 \nCould you wait a moment ?\nkʊd ju wet ə ˈmoʊmənt \nKönnten Sie einen Moment warten?\n\n0:33 1:46 2:59 \nCould you open the window ?\nkʊd ju ˈoʊpən ðə ˈwɪndoʊ \nKannst du das Fenster öffnen ?\n\n0:47 2:00 3:13 \nCould you play music ?\nkʊd ju ple mˈjuzɪk \nKönntest du Musik spielen?\n\n1:01 2:14 3:27 \nCould you open the door ?\nkʊd ju ˈoʊpən ðə dɔr \nKönntest Du die Tür öffnen ?\n\n\n\nAn Lehrer und Schulen:\nDieses Video wird unter der Creative Commons License veröffentlicht.\n  CC BY 3.0 https://creativecommons.org/licenses/by/3.0/ \nFühlen Sie sich frei, dieses Video in Ihren Klassen zu verwenden!\n\nWir verwenden den Google Translate-Dienst zur Lokalisierung. Wenn Sie Fehler finden, teilen Sie uns dies bitte mit.\n"
    },
    {
      "Lang": "el",
      "Title": "Αγγλικές ασκήσεις γραμματικής | Απλός Ινδία ⭐️ #77 Could you?",
      "Description": "Μάθετε αγγλική γραμματική! Αλλάξτε μια λέξη σε μια πρόταση.\n\n\n\n0:05 1:18 2:31 \nCould you sing a song ?\nkʊd ju sɪŋ ə sɔŋ \nΘα μπορούσατε να τραγουδήσετε ένα τραγούδι;\n\n0:19 1:32 2:45 \nCould you wait a moment ?\nkʊd ju wet ə ˈmoʊmənt \nΜπορείτε να περιμένετε μια στιγμή;\n\n0:33 1:46 2:59 \nCould you open the window ?\nkʊd ju ˈoʊpən ðə ˈwɪndoʊ \nΘα μπορούσατε να ανοίξετε το παράθυρο;\n\n0:47 2:00 3:13 \nCould you play music ?\nkʊd ju ple mˈjuzɪk \nΜπορείτε να παίξετε μουσική;\n\n1:01 2:14 3:27 \nCould you open the door ?\nkʊd ju ˈoʊpən ðə dɔr \nΘα μπορούσατε να ανοίξετε την πόρτα;\n\n\n\nΣτους εκπαιδευτικούς και τα σχολεία:\nΑυτό το βίντεο δημοσιεύεται υπό Creative Commons License.\n  CC BY 3.0 https://creativecommons.org/licenses/by/3.0/ \nΜπορείτε να χρησιμοποιήσετε αυτό το βίντεο στις τάξεις σας!\n\nΧρησιμοποιούμε την υπηρεσία Google Translate για εντοπισμό. Αν βρείτε κάποια λάθη, ενημερώστε μας.\n"
    },
    {
      "Lang": "en",
      "Title": "English grammar exercises | Simple India ⭐️ #77 Could you?",
      "Description": "Learn English grammar! Change a word in a sentence.\n\n\n\n0:05 1:18 2:31 \nCould you sing a song ?\nkʊd ju sɪŋ ə sɔŋ \nCould you sing a song ?\n\n0:19 1:32 2:45 \nCould you wait a moment ?\nkʊd ju wet ə ˈmoʊmənt \nCould you wait a moment ?\n\n0:33 1:46 2:59 \nCould you open the window ?\nkʊd ju ˈoʊpən ðə ˈwɪndoʊ \nCould you open the window ?\n\n0:47 2:00 3:13 \nCould you play music ?\nkʊd ju ple mˈjuzɪk \nCould you play music ?\n\n1:01 2:14 3:27 \nCould you open the door ?\nkʊd ju ˈoʊpən ðə dɔr \nCould you open the door ?\n\n\n\nTo teachers and schools:\nThis video is published under Creative Commons License.\n  CC BY 3.0 https://creativecommons.org/licenses/by/3.0/ \nFeel free to use this video in your classes!\n\nWe use Google Translate service for localization. If you find some mistakes, please let us know.\n"
    },
    {
      "Lang": "es",
      "Title": "Ejercicios de gramática inglesa | Sencillo India ⭐️ #77 Could you?",
      "Description": "¡Aprende gramática inglesa! Cambiar una palabra en una oración.\n\n\n\n0:05 1:18 2:31 \nCould you sing a song ?\nkʊd ju sɪŋ ə sɔŋ \n¿Podrías cantar una canción?\n\n0:19 1:32 2:45 \nCould you wait a moment ?\nkʊd ju wet ə ˈmoʊmənt \n¿Podrías esperar un momento?\n\n0:33 1:46 2:59 \nCould you open the window ?\nkʊd ju ˈoʊpən ðə ˈwɪndoʊ \nPodrías abrir la ventana ?\n\n0:47 2:00 3:13 \nCould you play music ?\nkʊd ju ple mˈjuzɪk \n¿Podrías tocar música?\n\n1:01 2:14 3:27 \nCould you open the door ?\nkʊd ju ˈoʊpən ðə dɔr \nPodrías abrir la puerta ?\n\n\n\nA profesores y escuelas:\nEste video se publica bajo licencia Creative Commons.\n  CC BY 3.0 https://creativecommons.org/licenses/by/3.0/ \n¡Siéntete libre de usar este video en tus clases!\n\nUtilizamos el servicio Google Translate para la localización. Si encuentra algunos errores, háganoslo saber.\n"
    },
    {
      "Lang": "et",
      "Title": "Inglise keele grammatika harjutused | Lihtne India ⭐️ #77 Could you?",
      "Description": "Õpi inglise keele grammatikat! Muutke lauses sõna.\n\n\n\n0:05 1:18 2:31 \nCould you sing a song ?\nkʊd ju sɪŋ ə sɔŋ \nKas sa saaksid laulu laulda?\n\n0:19 1:32 2:45 \nCould you wait a moment ?\nkʊd ju wet ə ˈmoʊmənt \nKas võiksite hetke oodata?\n\n0:33 1:46 2:59 \nCould you open the window ?\nkʊd ju ˈoʊpən ðə ˈwɪndoʊ \nKas saaksite akna avada?\n\n0:47 2:00 3:13 \nCould you play music ?\nkʊd ju ple mˈjuzɪk \nKas sa saaksid muusikat mängida?\n\n1:01 2:14 3:27 \nCould you open the door ?\nkʊd ju ˈoʊpən ðə dɔr \nKas sa saaksid ukse avada?\n\n\n\nÕpetajatele ja koolidele:\nSee video on avaldatud Creative Commonsi litsentsi all.\n  CC BY 3.0 https://creativecommons.org/licenses/by/3.0/ \nKasutage seda videot julgelt oma tundides!\n\nLokaliseerimiseks kasutame Google'i tõlke teenust. Kui leiate vigu, palun andke meile sellest teada.\n"
    },
    {
      "Lang": "eu",
      "Title": "Ingelesezko gramatika ariketak | simple India ⭐️ #77 Could you?",
      "Description": "Ikasi ingelesezko gramatika! Aldatu esaldi batean hitzak.\n\n\n\n0:05 1:18 2:31 \nCould you sing a song ?\nkʊd ju sɪŋ ə sɔŋ \nAbesti bat abestuko zenuke?\n\n0:19 1:32 2:45 \nCould you wait a moment ?\nkʊd ju wet ə ˈmoʊmənt \nMomenturen bat itxaron al zenuke?\n\n0:33 1:46 2:59 \nCould you open the window ?\nkʊd ju ˈoʊpən ðə ˈwɪndoʊ \nLeihoa ireki al zenuke?\n\n0:47 2:00 3:13 \nCould you play music ?\nkʊd ju ple mˈjuzɪk \nMusika jotzen al zenuke?\n\n1:01 2:14 3:27 \nCould you open the door ?\nkʊd ju ˈoʊpən ðə dɔr \nAtea ireki al zenuke?\n\n\n\nIrakasleei eta ikastetxeei:\nBideo hau Creative Commons lizentziapean argitaratzen da.\n  CC BY 3.0 https://creativecommons.org/licenses/by/3.0/ \nEz ahaztu bideo hau zure klaseetan erabiltzeko!\n\nGoogle Translate zerbitzua erabiltzen dugu lokalizaziorako. Akats batzuk aurkitzen badituzu, adierazi iezaguzu\n"
    },
    {
      "Lang": "fa",
      "Title": "تمرین های دستور زبان انگلیسی | ساده هند ⭐️ #77 Could you?",
      "Description": "گرامر انگلیسی را بیاموزید! یک کلمه را در یک جمله تغییر دهید.\n\n\n\n0:05 1:18 2:31 \nCould you sing a song ?\nkʊd ju sɪŋ ə sɔŋ \nمیشه آهنگی بخونی؟\n\n0:19 1:32 2:45 \nCould you wait a moment ?\nkʊd ju wet ə ˈmoʊmənt \nمی توانید یک لحظه صبر کنید؟\n\n0:33 1:46 2:59 \nCould you open the window ?\nkʊd ju ˈoʊpən ðə ˈwɪndoʊ \nآیا می توانید پنجره را باز کنید؟\n\n0:47 2:00 3:13 \nCould you play music ?\nkʊd ju ple mˈjuzɪk \nمی توانید موسیقی بازی کنید؟\n\n1:01 2:14 3:27 \nCould you open the door ?\nkʊd ju ˈoʊpən ðə dɔr \nآیا می توانید در را باز کنید؟\n\n\n\nبه معلمان و مدارس:\nاین ویدیو تحت مجوز Creative Commons منتشر شده است.\n  CC BY 3.0 https://creativecommons.org/licenses/by/3.0/ \nدر استفاده از این فیلم در کلاس های خود احساس راحتی کنید!\n\nما از خدمات Google Translate برای محلی سازی استفاده می کنیم. اگر شما برخی از اشتباهات ، لطفا به ما اطلاع دهید.\n"
    },
    {
      "Lang": "fi",
      "Title": "Englannin kieliopin harjoitukset | Yksinkertainen Intia ⭐️ #77 Could you?",
      "Description": "Opi englannin kielioppi! Vaihda sana lauseessa.\n\n\n\n0:05 1:18 2:31 \nCould you sing a song ?\nkʊd ju sɪŋ ə sɔŋ \nVoisitko laulaa kappaleen?\n\n0:19 1:32 2:45 \nCould you wait a moment ?\nkʊd ju wet ə ˈmoʊmənt \nVoisitko odottaa hetken?\n\n0:33 1:46 2:59 \nCould you open the window ?\nkʊd ju ˈoʊpən ðə ˈwɪndoʊ \nVoisitko avata ikkunan?\n\n0:47 2:00 3:13 \nCould you play music ?\nkʊd ju ple mˈjuzɪk \nVoisitko soittaa musiikkia?\n\n1:01 2:14 3:27 \nCould you open the door ?\nkʊd ju ˈoʊpən ðə dɔr \nVoisitko avata oven?\n\n\n\nOpettajille ja kouluille:\nTämä video on julkaistu Creative Commons -lisenssillä.\n  CC BY 3.0 https://creativecommons.org/licenses/by/3.0/ \nVoit vapaasti käyttää tätä videota luokissa!\n\nKäytämme lokalisointiin Google Translate -palvelua. Jos löydät virheitä, ota meihin yhteyttä.\n"
    },
    {
      "Lang": "fil",
      "Title": "Pagsasanay sa grammar ng Ingles | Simple India ⭐️ #77 Could you?",
      "Description": "Alamin ang grammar ng Ingles! Baguhin ang isang salita sa isang pangungusap.\n\n\n\n0:05 1:18 2:31 \nCould you sing a song ?\nkʊd ju sɪŋ ə sɔŋ \nMaaari kang kumanta ng isang kanta?\n\n0:19 1:32 2:45 \nCould you wait a moment ?\nkʊd ju wet ə ˈmoʊmənt \nMaaari ka bang maghintay ng ilang sandali?\n\n0:33 1:46 2:59 \nCould you open the window ?\nkʊd ju ˈoʊpən ðə ˈwɪndoʊ \nMaaari mo bang buksan ang bintana?\n\n0:47 2:00 3:13 \nCould you play music ?\nkʊd ju ple mˈjuzɪk \nMaaari kang maglaro ng musika?\n\n1:01 2:14 3:27 \nCould you open the door ?\nkʊd ju ˈoʊpən ðə dɔr \nMaaari mo bang buksan ang pinto?\n\n\n\nSa mga guro at paaralan:\nAng video na ito ay nai-publish sa ilalim ng Lisensya ng Creative Commons.\n  CC BY 3.0 https://creativecommons.org/licenses/by/3.0/ \nHuwag mag-atubiling gamitin ang video na ito sa iyong mga klase!\n\nWe use Google Translate service for localization. If you find some mistakes, please let us know.\n"
    },
    {
      "Lang": "fr",
      "Title": "Exercices de grammaire anglaise | Facile Inde ⭐️ #77 Could you?",
      "Description": "Apprenez la grammaire anglaise! Changer un mot dans une phrase.\n\n\n\n0:05 1:18 2:31 \nCould you sing a song ?\nkʊd ju sɪŋ ə sɔŋ \nPourriez-vous chanter une chanson?\n\n0:19 1:32 2:45 \nCould you wait a moment ?\nkʊd ju wet ə ˈmoʊmənt \nPourriez-vous attendre un instant?\n\n0:33 1:46 2:59 \nCould you open the window ?\nkʊd ju ˈoʊpən ðə ˈwɪndoʊ \nPourriez-vous ouvrir la fenêtre?\n\n0:47 2:00 3:13 \nCould you play music ?\nkʊd ju ple mˈjuzɪk \nPourriez-vous jouer de la musique?\n\n1:01 2:14 3:27 \nCould you open the door ?\nkʊd ju ˈoʊpən ðə dɔr \nPeux-tu ouvrir la porte ?\n\n\n\nAux enseignants et aux écoles:\nCette vidéo est publiée sous licence Creative Commons.\n  CC BY 3.0 https://creativecommons.org/licenses/by/3.0/ \nN'hésitez pas à utiliser cette vidéo dans vos cours!\n\nNous utilisons le service Google Translate pour la localisation. Si vous trouvez des erreurs, veuillez nous en informer.\n"
    },
    {
      "Lang": "fy",
      "Title": "Ingelske oefeningen foar grammatika | Ienfâldich Yndia ⭐️ #77 Could you?",
      "Description": "Learje Ingelske grammatika! Feroarje in wurd yn in sin.\n\n\n\n0:05 1:18 2:31 \nCould you sing a song ?\nkʊd ju sɪŋ ə sɔŋ \nKoe jo in ferske sjonge?\n\n0:19 1:32 2:45 \nCould you wait a moment ?\nkʊd ju wet ə ˈmoʊmənt \nKoe jo in momint wachtsje?\n\n0:33 1:46 2:59 \nCould you open the window ?\nkʊd ju ˈoʊpən ðə ˈwɪndoʊ \nKoe jo it finster iepenje?\n\n0:47 2:00 3:13 \nCould you play music ?\nkʊd ju ple mˈjuzɪk \nKoe jo muzyk spielje?\n\n1:01 2:14 3:27 \nCould you open the door ?\nkʊd ju ˈoʊpən ðə dɔr \nKoe jo de doar iepenje?\n\n\n\nOan dosinten en skoallen:\nDizze fideo wurdt publisearre ûnder Creative Commons License.\n  CC BY 3.0 https://creativecommons.org/licenses/by/3.0/ \nFiel jo frij om dizze fideo te brûken yn jo klassen!\n\nWy brûke Google Translate tsjinst foar lokalisaasje. As jo wat flaters fine, lit it ús dan witte.\n"
    },
    {
      "Lang": "gd",
      "Title": "Eacarsaichean gràmair Beurla | Gu sìmplidh Na h-Innseachan ⭐️ #77 Could you?",
      "Description": "Ionnsaich gràmar Beurla! Atharraich facal ann an seantans.\n\n\n\n0:05 1:18 2:31 \nCould you sing a song ?\nkʊd ju sɪŋ ə sɔŋ \nAm b ’urrainn dhut òran a sheinn?\n\n0:19 1:32 2:45 \nCould you wait a moment ?\nkʊd ju wet ə ˈmoʊmənt \nAm b ’urrainn dhut feitheamh mionaid?\n\n0:33 1:46 2:59 \nCould you open the window ?\nkʊd ju ˈoʊpən ðə ˈwɪndoʊ \nAm b ’urrainn dhut an uinneag fhosgladh?\n\n0:47 2:00 3:13 \nCould you play music ?\nkʊd ju ple mˈjuzɪk \nAm b ’urrainn dhut ceòl a chluich?\n\n1:01 2:14 3:27 \nCould you open the door ?\nkʊd ju ˈoʊpən ðə dɔr \nAm b ’urrainn dhut an doras fhosgladh?\n\n\n\nDo thidsearan agus sgoiltean:\nTha a ’bhidio seo air fhoillseachadh fo Creative Commons License.\n  CC BY 3.0 https://creativecommons.org/licenses/by/3.0/ \nFaodaidh tu am bhidio seo a chleachdadh anns na clasaichean agad!\n\nBidh sinn a ’cleachdadh seirbheis Google Translate airson sgìreachadh. Ma lorgas tu cuid de mhearachdan, feuch an innis thu dhuinn.\n"
    },
    {
      "Lang": "gl",
      "Title": "Exercicios de gramática inglesa | Sinxelo India ⭐️ #77 Could you?",
      "Description": "Aprende gramática inglesa! Cambia unha palabra nunha frase.\n\n\n\n0:05 1:18 2:31 \nCould you sing a song ?\nkʊd ju sɪŋ ə sɔŋ \nPoderías cantar unha canción?\n\n0:19 1:32 2:45 \nCould you wait a moment ?\nkʊd ju wet ə ˈmoʊmənt \nPoderías esperar un momento?\n\n0:33 1:46 2:59 \nCould you open the window ?\nkʊd ju ˈoʊpən ðə ˈwɪndoʊ \n¿Pode abrir a xanela?\n\n0:47 2:00 3:13 \nCould you play music ?\nkʊd ju ple mˈjuzɪk \nPoderías tocar música?\n\n1:01 2:14 3:27 \nCould you open the door ?\nkʊd ju ˈoʊpən ðə dɔr \nPoderías abrir a porta?\n\n\n\nPara profesores e colexios:\nEste vídeo está publicado baixo a licenza Creative Commons.\n  CC BY 3.0 https://creativecommons.org/licenses/by/3.0/ \nNon dubides en usar este vídeo nas túas clases.\n\nUsamos o servizo Google Translate para a súa localización. Se atopas algún erro, comunícanos.\n"
    },
    {
      "Lang": "gu",
      "Title": "અંગ્રેજી વ્યાકરણ વ્યાયામ | સરળ ભારત ⭐️ #77 Could you?",
      "Description": "અંગ્રેજી વ્યાકરણ શીખો! એક વાક્યમાં એક શબ્દ બદલો.\n\n\n\n0:05 1:18 2:31 \nCould you sing a song ?\nkʊd ju sɪŋ ə sɔŋ \nતમે એક ગીત ગાવા શકે છે?\n\n0:19 1:32 2:45 \nCould you wait a moment ?\nkʊd ju wet ə ˈmoʊmənt \nતમે એક ક્ષણ રાહ જુઓ કરી શકો છો?\n\n0:33 1:46 2:59 \nCould you open the window ?\nkʊd ju ˈoʊpən ðə ˈwɪndoʊ \nતમે વિંડો ખોલી શકશો?\n\n0:47 2:00 3:13 \nCould you play music ?\nkʊd ju ple mˈjuzɪk \nતમે સંગીત વગાડી શકો છો?\n\n1:01 2:14 3:27 \nCould you open the door ?\nkʊd ju ˈoʊpən ðə dɔr \nતમે દરવાજો ખોલી શકશો?\n\n\n\nશિક્ષકો અને શાળાઓને:\nઆ વિડિઓ ક્રિએટિવ કonsમન્સ લાઇસન્સ હેઠળ પ્રકાશિત છે.\n  CC BY 3.0 https://creativecommons.org/licenses/by/3.0/ \nતમારા વર્ગોમાં આ વિડિઓનો ઉપયોગ કરવા માટે મફત લાગે!\n\nઅમે સ્થાનિકીકરણ માટે Google ભાષાંતર સેવાનો ઉપયોગ કરીએ છીએ. જો તમને કેટલીક ભૂલો લાગે છે, તો કૃપા કરીને અમને જણાવો.\n"
    },
    {
      "Lang": "ha",
      "Title": "Darasi na ilimin nahawu na Turanci | Mai sauki Indiya ⭐️ #77 Could you?",
      "Description": "Koyi ilimin nahawu Turanci! Canja kalma a cikin jumla.\n\n\n\n0:05 1:18 2:31 \nCould you sing a song ?\nkʊd ju sɪŋ ə sɔŋ \nZa ku iya rera waƙa?\n\n0:19 1:32 2:45 \nCould you wait a moment ?\nkʊd ju wet ə ˈmoʊmənt \nZa a iya jira na ɗan lokaci?\n\n0:33 1:46 2:59 \nCould you open the window ?\nkʊd ju ˈoʊpən ðə ˈwɪndoʊ \nZa a iya bude taga?\n\n0:47 2:00 3:13 \nCould you play music ?\nkʊd ju ple mˈjuzɪk \nZa ku iya kunna kiɗan?\n\n1:01 2:14 3:27 \nCould you open the door ?\nkʊd ju ˈoʊpən ðə dɔr \nZa a iya bude kofar?\n\n\n\nGa malamai da makarantu:\nWannan bidiyon an buga shi a ƙarƙashin lasisin Creative Commons.\n  CC BY 3.0 https://creativecommons.org/licenses/by/3.0/ \nJin kyauta don amfani da wannan bidiyon a cikin azuzuwanku!\n\nMuna amfani da sabis na Google Fassara don fassarar. Idan ka sami wasu kurakurai, da fatan za a sanar da mu.\n"
    },
    {
      "Lang": "hi",
      "Title": "अंग्रेजी व्याकरण अभ्यास | सरल भारत ⭐️ #77 Could you?",
      "Description": "अंग्रेजी व्याकरण जानें! एक वाक्य में एक शब्द बदलें।\n\n\n\n0:05 1:18 2:31 \nCould you sing a song ?\nkʊd ju sɪŋ ə sɔŋ \nक्या आप एक गीत गा सकते हैं?\n\n0:19 1:32 2:45 \nCould you wait a moment ?\nkʊd ju wet ə ˈmoʊmənt \nक्या आप एक पल रुक सकते हैं?\n\n0:33 1:46 2:59 \nCould you open the window ?\nkʊd ju ˈoʊpən ðə ˈwɪndoʊ \nक्या आप खिड़की खोल सकते हैं?\n\n0:47 2:00 3:13 \nCould you play music ?\nkʊd ju ple mˈjuzɪk \nआप संगीत खेल सकते हैं?\n\n1:01 2:14 3:27 \nCould you open the door ?\nkʊd ju ˈoʊpən ðə dɔr \nक्या आप दरवाज़ा खोल सकते हा ?\n\n\n\nशिक्षकों और स्कूलों के लिए:\nयह वीडियो क्रिएटिव कॉमन्स लाइसेंस के तहत प्रकाशित हुआ है।\n  CC BY 3.0 https://creativecommons.org/licenses/by/3.0/ \nअपनी कक्षाओं में इस वीडियो का उपयोग करने के लिए स्वतंत्र महसूस करें!\n\nहम स्थानीयकरण के लिए Google अनुवाद सेवा का उपयोग करते हैं। यदि आप कुछ गलतियाँ पाते हैं, तो कृपया हमें बताएँ।\n"
    },
    {
      "Lang": "hr",
      "Title": "Gramatičke vježbe engleskog jezika | Jednostavan Indija ⭐️ #77 Could you?",
      "Description": "Naučite englesku gramatiku! Promijenite riječ u rečenici.\n\n\n\n0:05 1:18 2:31 \nCould you sing a song ?\nkʊd ju sɪŋ ə sɔŋ \nMožete li otpjevati pjesmu?\n\n0:19 1:32 2:45 \nCould you wait a moment ?\nkʊd ju wet ə ˈmoʊmənt \nMožete li pričekati trenutak?\n\n0:33 1:46 2:59 \nCould you open the window ?\nkʊd ju ˈoʊpən ðə ˈwɪndoʊ \nMožete li otvoriti prozor?\n\n0:47 2:00 3:13 \nCould you play music ?\nkʊd ju ple mˈjuzɪk \nMožete li puštati glazbu?\n\n1:01 2:14 3:27 \nCould you open the door ?\nkʊd ju ˈoʊpən ðə dɔr \nMožete li otvoriti vrata?\n\n\n\nNastavnicima i školama:\nOvaj videozapis objavljen je pod licencom Creative Commons.\n  CC BY 3.0 https://creativecommons.org/licenses/by/3.0/ \nSlobodno upotrijebite ovaj videozapis u svojim predavanjima!\n\nZa lokalizaciju koristimo uslugu Google Translate. Ako pronađete neke pogreške, javite nam se.\n"
    },
    {
      "Lang": "hu",
      "Title": "Angol nyelvtan gyakorlatok | Egyszerű India ⭐️ #77 Could you?",
      "Description": "Tanulj angol nyelvtant! Változtasson egy szót egy mondatban.\n\n\n\n0:05 1:18 2:31 \nCould you sing a song ?\nkʊd ju sɪŋ ə sɔŋ \nTudna énekelni egy dalt?\n\n0:19 1:32 2:45 \nCould you wait a moment ?\nkʊd ju wet ə ˈmoʊmənt \nMeg tudnál várni egy pillanatra?\n\n0:33 1:46 2:59 \nCould you open the window ?\nkʊd ju ˈoʊpən ðə ˈwɪndoʊ \nNyisd ki az ablakot?\n\n0:47 2:00 3:13 \nCould you play music ?\nkʊd ju ple mˈjuzɪk \nTudna zenélni?\n\n1:01 2:14 3:27 \nCould you open the door ?\nkʊd ju ˈoʊpən ðə dɔr \nNyisd ki az ajtót?\n\n\n\nTanároknak és iskoláknak:\nEz a videó a Creative Commons License alatt jelenik meg.\n  CC BY 3.0 https://creativecommons.org/licenses/by/3.0/ \nNyugodtan használja ezt a videót az osztályokban!\n\nA lokalizációhoz a Google Translate szolgáltatást használjuk. Ha hibát talál, kérjük, ossza meg velünk.\n"
    },
    {
      "Lang": "hy",
      "Title": "Անգլերենի քերականական վարժություններ | Պարզ Հնդկաստան ⭐️ #77 Could you?",
      "Description": "Իմացեք անգլերեն քերականությունը: Մի նախադասությամբ մի բառ փոխեք:\n\n\n\n0:05 1:18 2:31 \nCould you sing a song ?\nkʊd ju sɪŋ ə sɔŋ \nԿարո՞ղ եք երգ երգել:\n\n0:19 1:32 2:45 \nCould you wait a moment ?\nkʊd ju wet ə ˈmoʊmənt \nԿարո՞ղ եք մի պահ սպասել:\n\n0:33 1:46 2:59 \nCould you open the window ?\nkʊd ju ˈoʊpən ðə ˈwɪndoʊ \nԿարո՞ղ եք բացել պատուհանը:\n\n0:47 2:00 3:13 \nCould you play music ?\nkʊd ju ple mˈjuzɪk \nԿարո՞ղ եք երաժշտություն նվագել:\n\n1:01 2:14 3:27 \nCould you open the door ?\nkʊd ju ˈoʊpən ðə dɔr \nԿարո՞ղ եք դուռը բացել:\n\n\n\nՈւսուցիչներին և դպրոցներին.\nԱյս տեսանյութը հրապարակված է Creative Commons արտոնագրի ներքո:\n  CC BY 3.0 https://creativecommons.org/licenses/by/3.0/ \nԱզատորեն օգտվեք այս տեսանյութից ձեր դասերից:\n\nՄենք օգտագործում ենք Google Translate ծառայությունը տեղայնացման համար: Եթե որոշ սխալներ եք գտնում, խնդրում ենք տեղեկացնել մեզ:\n"
    },
    {
      "Lang": "id",
      "Title": "Latihan tata bahasa Inggris | Sederhana India ⭐️ #77 Could you?",
      "Description": "Belajar tata bahasa Inggris! Ubah kata dalam kalimat.\n\n\n\n0:05 1:18 2:31 \nCould you sing a song ?\nkʊd ju sɪŋ ə sɔŋ \nBisakah Anda menyanyikan lagu?\n\n0:19 1:32 2:45 \nCould you wait a moment ?\nkʊd ju wet ə ˈmoʊmənt \nBisakah Anda menunggu sebentar?\n\n0:33 1:46 2:59 \nCould you open the window ?\nkʊd ju ˈoʊpən ðə ˈwɪndoʊ \nBisakah Anda membuka jendela?\n\n0:47 2:00 3:13 \nCould you play music ?\nkʊd ju ple mˈjuzɪk \nBisakah kamu memainkan musik?\n\n1:01 2:14 3:27 \nCould you open the door ?\nkʊd ju ˈoʊpən ðə dɔr \nBisakah Anda membuka pintu?\n\n\n\nKepada guru dan sekolah:\nVideo ini diterbitkan di bawah Lisensi Creative Commons.\n  CC BY 3.0 https://creativecommons.org/licenses/by/3.0/ \nJangan ragu untuk menggunakan video ini di kelas Anda!\n\nKami menggunakan layanan Google Terjemahan untuk pelokalan. Jika Anda menemukan beberapa kesalahan, beri tahu kami.\n"
    },
    {
      "Lang": "ig",
      "Title": "Ọmụmụ asụsụ ụtọ asụsụ Bekee | Dị Mfe India ⭐️ #77 Could you?",
      "Description": "Muta asusu bekee! Gbanwee okwu na ahịrịokwu.\n\n\n\n0:05 1:18 2:31 \nCould you sing a song ?\nkʊd ju sɪŋ ə sɔŋ \nYou nwere ike ịbụ abụ?\n\n0:19 1:32 2:45 \nCould you wait a moment ?\nkʊd ju wet ə ˈmoʊmənt \nYou nwere ike ịchetụ nwa oge?\n\n0:33 1:46 2:59 \nCould you open the window ?\nkʊd ju ˈoʊpən ðə ˈwɪndoʊ \nCould nwere ike imepe windo?\n\n0:47 2:00 3:13 \nCould you play music ?\nkʊd ju ple mˈjuzɪk \nCould nwere ike ịkpọ egwu?\n\n1:01 2:14 3:27 \nCould you open the door ?\nkʊd ju ˈoʊpən ðə dɔr \nCould nwere ike imeghe ụzọ?\n\n\n\nMaka ndị nkuzi na ụlọ akwụkwọ:\nEdere vidiyo a n'okpuru ikikere Creative Commons.\n  CC BY 3.0 https://creativecommons.org/licenses/by/3.0/ \nNwere onwe gị iji vidiyo a na klaasị gị!\n\nAnyị na-eji ọrụ ntụgharị Google emegharị. Ọ bụrụ n’ịhụ ụfọdụ mmejọ, biko mee ka anyị mara.\n"
    },
    {
      "Lang": "is",
      "Title": "Enskar málfræðiæfingar | Einfalt Indland ⭐️ #77 Could you?",
      "Description": "Lærðu ensku málfræði! Skiptu um orð í setningu.\n\n\n\n0:05 1:18 2:31 \nCould you sing a song ?\nkʊd ju sɪŋ ə sɔŋ \nGætirðu sungið lag?\n\n0:19 1:32 2:45 \nCould you wait a moment ?\nkʊd ju wet ə ˈmoʊmənt \nGætirðu beðið í smá stund?\n\n0:33 1:46 2:59 \nCould you open the window ?\nkʊd ju ˈoʊpən ðə ˈwɪndoʊ \nGætirðu opnað gluggann?\n\n0:47 2:00 3:13 \nCould you play music ?\nkʊd ju ple mˈjuzɪk \nGætirðu spilað tónlist?\n\n1:01 2:14 3:27 \nCould you open the door ?\nkʊd ju ˈoʊpən ðə dɔr \nGætirðu opnað hurðina?\n\n\n\nTil kennara og skóla:\nÞetta myndband er birt undir Creative Commons leyfi.\n  CC BY 3.0 https://creativecommons.org/licenses/by/3.0/ \nEkki hika við að nota þetta myndband í bekkjum þínum!\n\nVið notum Google Translate þjónustu til að staðsetja. Láttu okkur vita ef þú finnur fyrir einhverjum mistökum.\n"
    },
    {
      "Lang": "it",
      "Title": "Esercizi di grammatica inglese | Semplice India ⭐️ #77 Could you?",
      "Description": "Impara la grammatica inglese! Cambia una parola in una frase.\n\n\n\n0:05 1:18 2:31 \nCould you sing a song ?\nkʊd ju sɪŋ ə sɔŋ \nPotresti cantare una canzone?\n\n0:19 1:32 2:45 \nCould you wait a moment ?\nkʊd ju wet ə ˈmoʊmənt \nPotresti aspettare un momento?\n\n0:33 1:46 2:59 \nCould you open the window ?\nkʊd ju ˈoʊpən ðə ˈwɪndoʊ \nPotresti aprire la finestra?\n\n0:47 2:00 3:13 \nCould you play music ?\nkʊd ju ple mˈjuzɪk \nPotresti suonare musica?\n\n1:01 2:14 3:27 \nCould you open the door ?\nkʊd ju ˈoʊpən ðə dɔr \nPotresti aprire la porta?\n\n\n\nPer insegnanti e scuole:\nQuesto video è pubblicato sotto la licenza Creative Commons.\n  CC BY 3.0 https://creativecommons.org/licenses/by/3.0/ \nSentiti libero di usare questo video nelle tue lezioni!\n\nUtilizziamo il servizio Google Translate per la localizzazione. Se trovi qualche errore, faccelo sapere.\n"
    },
    {
      "Lang": "iw",
      "Title": "תרגילי דקדוק באנגלית | פשוט הודו ⭐️ #77 Could you?",
      "Description": "למד דקדוק באנגלית! שנה מילה במשפט.\n\n\n\n0:05 1:18 2:31 \nCould you sing a song ?\nkʊd ju sɪŋ ə sɔŋ \nהאם אתה יכול לשיר שיר?\n\n0:19 1:32 2:45 \nCould you wait a moment ?\nkʊd ju wet ə ˈmoʊmənt \nהאם תוכל לחכות רגע?\n\n0:33 1:46 2:59 \nCould you open the window ?\nkʊd ju ˈoʊpən ðə ˈwɪndoʊ \nהאם תוכל לפתוח את החלון?\n\n0:47 2:00 3:13 \nCould you play music ?\nkʊd ju ple mˈjuzɪk \nהאם אתה יכול לנגן מוסיקה?\n\n1:01 2:14 3:27 \nCould you open the door ?\nkʊd ju ˈoʊpən ðə dɔr \nהאם אתה יכול לפתוח את הדלת ?\n\n\n\nלמורים ובתי ספר:\nסרטון זה מתפרסם תחת רישיון Creative Commons.\n  CC BY 3.0 https://creativecommons.org/licenses/by/3.0/ \nאל תהסס להשתמש בסרטון זה בשיעורים שלך!\n\nאנו משתמשים בשירות Google Translate לצורך לוקליזציה. אם אתה מוצא טעויות, אנא הודע לנו על כך.\n"
    },
    {
      "Lang": "ja",
      "Title": "英文法練習 | シンプル インド ⭐️ #77 Could you?",
      "Description": "英語の文法を学びましょう！ 文中の単語を変更します。\n\n\n\n0:05 1:18 2:31 \nCould you sing a song ?\nkʊd ju sɪŋ ə sɔŋ \n歌を歌えますか？\n\n0:19 1:32 2:45 \nCould you wait a moment ?\nkʊd ju wet ə ˈmoʊmənt \nちょっと待ってください。\n\n0:33 1:46 2:59 \nCould you open the window ?\nkʊd ju ˈoʊpən ðə ˈwɪndoʊ \n窓を開けていただけますか？\n\n0:47 2:00 3:13 \nCould you play music ?\nkʊd ju ple mˈjuzɪk \n音楽を演奏してもらえますか？\n\n1:01 2:14 3:27 \nCould you open the door ?\nkʊd ju ˈoʊpən ðə dɔr \nドアを開けてもらえますか？\n\n\n\n先生と学校へ：\nこのビデオは、クリエイティブコモンズライセンスの下で公開されています。\n  CC BY 3.0 https://creativecommons.org/licenses/by/3.0/ \nこのビデオをクラスで自由に使用してください！\n\nローカライズにはGoogle翻訳サービスを使用しています。間違いを見つけた場合はお知らせください。\n"
    },
    {
      "Lang": "jv",
      "Title": "Latihan grammar Inggris | Prasaja India ⭐️ #77 Could you?",
      "Description": "Sinau tata basa Inggris! Ngganti tembung sajrone ukara.\n\n\n\n0:05 1:18 2:31 \nCould you sing a song ?\nkʊd ju sɪŋ ə sɔŋ \nApa sampeyan bisa nyanyi lagu?\n\n0:19 1:32 2:45 \nCould you wait a moment ?\nkʊd ju wet ə ˈmoʊmənt \nApa sampeyan bisa ngenteni?\n\n0:33 1:46 2:59 \nCould you open the window ?\nkʊd ju ˈoʊpən ðə ˈwɪndoʊ \nApa sampeyan bisa mbukak jendhela?\n\n0:47 2:00 3:13 \nCould you play music ?\nkʊd ju ple mˈjuzɪk \nApa sampeyan bisa muter musik?\n\n1:01 2:14 3:27 \nCould you open the door ?\nkʊd ju ˈoʊpən ðə dɔr \nApa sampeyan bisa mbukak lawang?\n\n\n\nTumrap guru lan sekolah:\nVideo iki diterbitake ing lisensi Creative Commons.\n  CC BY 3.0 https://creativecommons.org/licenses/by/3.0/ \nOjo nggunakake video iki ing kelas sampeyan!\n\nKita nggunakake layanan Google Translate kanggo lokalisasi. Yen sampeyan nemokake sawetara kesalahan, kabari.\n"
    },
    {
      "Lang": "ka",
      "Title": "ინგლისური გრამატიკის სავარჯიშოები | მარტივი ინდოეთი ⭐️ #77 Could you?",
      "Description": "შეიტყვეთ ინგლისური ენის გრამატიკა! წინადადებაში შეცვალეთ სიტყვა.\n\n\n\n0:05 1:18 2:31 \nCould you sing a song ?\nkʊd ju sɪŋ ə sɔŋ \nშეგიძლია სიმღერა იმღერო?\n\n0:19 1:32 2:45 \nCould you wait a moment ?\nkʊd ju wet ə ˈmoʊmənt \nშეიძლება ერთი წუთით მოითმინოთ?\n\n0:33 1:46 2:59 \nCould you open the window ?\nkʊd ju ˈoʊpən ðə ˈwɪndoʊ \nშეგიძლიათ ფანჯრის გახსნა?\n\n0:47 2:00 3:13 \nCould you play music ?\nkʊd ju ple mˈjuzɪk \nშეგიძლია მუსიკის დაკვრა?\n\n1:01 2:14 3:27 \nCould you open the door ?\nkʊd ju ˈoʊpən ðə dɔr \nშეგიძლიათ კარი გააღოთ?\n\n\n\nმასწავლებლებსა და სკოლებს:\nეს ვიდეო გამოქვეყნებულია Creative Commons- ის ლიცენზიით.\n  CC BY 3.0 https://creativecommons.org/licenses/by/3.0/ \nშეგიძლიათ გამოიყენოთ ეს ვიდეო თქვენს კლასებში!\n\nჩვენ ვიყენებთ Google Translate სერვისს ლოკალიზაციისთვის. თუ შეცდომებს იპოვნით, გთხოვთ, შეგვატყობინოთ.\n"
    },
    {
      "Lang": "kk",
      "Title": "Ағылшын грамматикалық жаттығулары | Қарапайым Үндістан ⭐️ #77 Could you?",
      "Description": "Ағылшын грамматикасын үйрен! Сөйлемдегі сөзді өзгертіңіз.\n\n\n\n0:05 1:18 2:31 \nCould you sing a song ?\nkʊd ju sɪŋ ə sɔŋ \nСіз ән айта аласыз ба?\n\n0:19 1:32 2:45 \nCould you wait a moment ?\nkʊd ju wet ə ˈmoʊmənt \nСіз біраз күте аласыз ба?\n\n0:33 1:46 2:59 \nCould you open the window ?\nkʊd ju ˈoʊpən ðə ˈwɪndoʊ \nСіз терезені аша аласыз ба?\n\n0:47 2:00 3:13 \nCould you play music ?\nkʊd ju ple mˈjuzɪk \nСіз музыка ойнай аласыз ба?\n\n1:01 2:14 3:27 \nCould you open the door ?\nkʊd ju ˈoʊpən ðə dɔr \nЕсікті аша аласыз ба?\n\n\n\nОқытушылар мен мектептерге:\nБұл бейне Creative Commons лицензиясы бойынша жарияланған.\n  CC BY 3.0 https://creativecommons.org/licenses/by/3.0/ \nБұл бейнені өз сабақтарыңызда қолдануға болады!\n\nGoogle Translate қызметін локализациялау үшін қолданамыз. Егер сіз қате тапсаңыз, бізге хабарлаңыз.\n"
    },
    {
      "Lang": "km",
      "Title": "លំហាត់វេយ្យាករណ៍អង់គ្លេស | សាមញ្ញ ឥណ្ឌា ⭐️ #77 Could you?",
      "Description": "រៀនវេយ្យាករណ៍អង់គ្លេស! ផ្លាស់ប្តូរពាក្យនៅក្នុងប្រយោគមួយ។\n\n\n\n0:05 1:18 2:31 \nCould you sing a song ?\nkʊd ju sɪŋ ə sɔŋ \nតើអ្នកអាចច្រៀងចម្រៀងបានទេ?\n\n0:19 1:32 2:45 \nCould you wait a moment ?\nkʊd ju wet ə ˈmoʊmənt \nតើអ្នកអាចរង់ចាំមួយភ្លែតបានទេ?\n\n0:33 1:46 2:59 \nCould you open the window ?\nkʊd ju ˈoʊpən ðə ˈwɪndoʊ \nតើអ្នកអាចបើកបង្អួចបានទេ?\n\n0:47 2:00 3:13 \nCould you play music ?\nkʊd ju ple mˈjuzɪk \nអ្នកអាចលេងភ្លេងបានទេ?\n\n1:01 2:14 3:27 \nCould you open the door ?\nkʊd ju ˈoʊpən ðə dɔr \nតើអ្នកអាចបើកទ្វារបានទេ?\n\n\n\nជូនដល់គ្រូនិងសាលា៖\nវីដេអូនេះត្រូវបានផ្សព្វផ្សាយក្រោមអាជ្ញាប័ណ្ណច្នៃប្រឌិត។\n  CC BY 3.0 https://creativecommons.org/licenses/by/3.0/ \nសូមប្រើវីដេអូនេះនៅក្នុងថ្នាក់របស់អ្នកដោយឥតគិតថ្លៃ!\n\nយើងប្រើសេវាកម្មបកប្រែហ្គូហ្គលសម្រាប់ការធ្វើមូលដ្ឋានីយកម្ម។ ប្រសិនបើអ្នករកឃើញកំហុសខ្លះសូមប្រាប់ឱ្យយើងដឹង។\n"
    },
    {
      "Lang": "kn",
      "Title": "ಇಂಗ್ಲಿಷ್ ವ್ಯಾಕರಣ ವ್ಯಾಯಾಮ | ಸರಳ ಭಾರತ ⭐️ #77 Could you?",
      "Description": "ಇಂಗ್ಲಿಷ್ ವ್ಯಾಕರಣ ಕಲಿಯಿರಿ! ಒಂದು ವಾಕ್ಯದಲ್ಲಿ ಪದವನ್ನು ಬದಲಾಯಿಸಿ.\n\n\n\n0:05 1:18 2:31 \nCould you sing a song ?\nkʊd ju sɪŋ ə sɔŋ \nನೀವು ಹಾಡು ಹಾಡಬಹುದೇ?\n\n0:19 1:32 2:45 \nCould you wait a moment ?\nkʊd ju wet ə ˈmoʊmənt \nನೀವು ಸ್ವಲ್ಪ ಸಮಯ ಕಾಯಬಹುದೇ?\n\n0:33 1:46 2:59 \nCould you open the window ?\nkʊd ju ˈoʊpən ðə ˈwɪndoʊ \nನೀವು ವಿಂಡೋವನ್ನು ತೆರೆಯಬಹುದೇ?\n\n0:47 2:00 3:13 \nCould you play music ?\nkʊd ju ple mˈjuzɪk \nನೀವು ಸಂಗೀತ ನುಡಿಸಬಹುದೇ?\n\n1:01 2:14 3:27 \nCould you open the door ?\nkʊd ju ˈoʊpən ðə dɔr \nನೀವು ಬಾಗಿಲು ತೆರೆಯಬಹುದೇ?\n\n\n\nಶಿಕ್ಷಕರು ಮತ್ತು ಶಾಲೆಗಳಿಗೆ:\nಈ ವೀಡಿಯೊವನ್ನು ಕ್ರಿಯೇಟಿವ್ ಕಾಮನ್ಸ್ ಪರವಾನಗಿ ಅಡಿಯಲ್ಲಿ ಪ್ರಕಟಿಸಲಾಗಿದೆ.\n  CC BY 3.0 https://creativecommons.org/licenses/by/3.0/ \nನಿಮ್ಮ ತರಗತಿಗಳಲ್ಲಿ ಈ ವೀಡಿಯೊವನ್ನು ಬಳಸಲು ಹಿಂಜರಿಯಬೇಡಿ!\n\nಸ್ಥಳೀಕರಣಕ್ಕಾಗಿ ನಾವು Google ಅನುವಾದ ಸೇವೆಯನ್ನು ಬಳಸುತ್ತೇವೆ. ನೀವು ಕೆಲವು ತಪ್ಪುಗಳನ್ನು ಕಂಡುಕೊಂಡರೆ, ದಯವಿಟ್ಟು ನಮಗೆ ತಿಳಿಸಿ.\n"
    },
    {
      "Lang": "ko",
      "Title": "영어 문법 연습 | 단순한 인도 ⭐️ #77 Could you?",
      "Description": "영어 문법 배우기! 문장에서 단어를 변경하십시오.\n\n\n\n0:05 1:18 2:31 \nCould you sing a song ?\nkʊd ju sɪŋ ə sɔŋ \n노래 부를 수 있니?\n\n0:19 1:32 2:45 \nCould you wait a moment ?\nkʊd ju wet ə ˈmoʊmənt \n잠시만 기다려 주시겠습니까?\n\n0:33 1:46 2:59 \nCould you open the window ?\nkʊd ju ˈoʊpən ðə ˈwɪndoʊ \n창문 좀 열어 줄래?\n\n0:47 2:00 3:13 \nCould you play music ?\nkʊd ju ple mˈjuzɪk \n당신은 음악을 재생할 수 있습니까?\n\n1:01 2:14 3:27 \nCould you open the door ?\nkʊd ju ˈoʊpən ðə dɔr \n문 좀 열어 줄래?\n\n\n\n교사와 학교 :\n이 비디오는 Creative Commons License에 따라 게시됩니다.\n  CC BY 3.0 https://creativecommons.org/licenses/by/3.0/ \n이 비디오를 수업에 자유롭게 사용하십시오!\n\n현지화를 위해 Google 번역 서비스를 사용합니다. 실수가 있으면 알려주세요.\n"
    },
    {
      "Lang": "ku",
      "Title": "Pratîkên rêzimanê Englishngilîzî | Asan Hindistan ⭐️ #77 Could you?",
      "Description": "Gramera Englishngilîzî fêr bibin! Di hevokan de peyvek diguhezin.\n\n\n\n0:05 1:18 2:31 \nCould you sing a song ?\nkʊd ju sɪŋ ə sɔŋ \nMa hûn dikarin stranek bêjin?\n\n0:19 1:32 2:45 \nCould you wait a moment ?\nkʊd ju wet ə ˈmoʊmənt \nHûn dikarin demek bisekinin?\n\n0:33 1:46 2:59 \nCould you open the window ?\nkʊd ju ˈoʊpən ðə ˈwɪndoʊ \nHûn dikarin pencereyê vekin?\n\n0:47 2:00 3:13 \nCould you play music ?\nkʊd ju ple mˈjuzɪk \nHûn dikarin muzîkê bilîzin?\n\n1:01 2:14 3:27 \nCould you open the door ?\nkʊd ju ˈoʊpən ðə dɔr \nHûn dikarin derî vekin?\n\n\n\nJi mamoste û dibistanan re:\nEv vîdyoyê di bin lîsansa Creative Commons-ê de hatî weşandin.\n  CC BY 3.0 https://creativecommons.org/licenses/by/3.0/ \nHêsan e ku hûn vê vîdyoyê di sinifên xwe de bikar bînin!\n\nEm ji bo herêmbûnê karûbarê Google Translate kar dikin. Heke hûn hin xeletiyan bibînin, ji kerema xwe ji me re agahdar bikin.\n"
    },
    {
      "Lang": "ky",
      "Title": "Англис тилинин грамматикасы боюнча көнүгүүлөр | жөнөкөй Индия ⭐️ #77 Could you?",
      "Description": "Үйрөнүү Англис тилинин грамматикасы! Сүйлөмдөгү Сөздү өзгөртүү.\n\n\n\n0:05 1:18 2:31 \nCould you sing a song ?\nkʊd ju sɪŋ ə sɔŋ \nЭгер ыр ырдап мүмкүнбү?\n\n0:19 1:32 2:45 \nCould you wait a moment ?\nkʊd ju wet ə ˈmoʊmənt \nЭгер бир аз күтө алат беле?\n\n0:33 1:46 2:59 \nCould you open the window ?\nkʊd ju ˈoʊpən ðə ˈwɪndoʊ \nСиз терезени ачуу мүмкүнбү?\n\n0:47 2:00 3:13 \nCould you play music ?\nkʊd ju ple mˈjuzɪk \nСен да музыканы ойной алат?\n\n1:01 2:14 3:27 \nCould you open the door ?\nkʊd ju ˈoʊpən ðə dɔr \nэшикти ачып бере алат беле?\n\n\n\nмугалимдер жана мектептер үчүн:\nБул көргөзмө Creative Commons лиссиэнсийэ усулуобуйатынан жарыяланат.\n  CC BY 3.0 https://creativecommons.org/licenses/by/3.0/ \nСиздин класстары колдонсо болот!\n\nБиз Google локалдаштыруу үчүн Котормо кызматын пайдаланышат. Эгер кээ бир ката болсо, бизге айтып койуу.\n"
    },
    {
      "Lang": "lb",
      "Title": "Englesch Grammatikübungen | Einfach Indien ⭐️ #77 Could you?",
      "Description": "Léiert Englesch Grammatik! Ännert e Wuert an engem Saz.\n\n\n\n0:05 1:18 2:31 \nCould you sing a song ?\nkʊd ju sɪŋ ə sɔŋ \nKonnt Dir e Lidd sangen?\n\n0:19 1:32 2:45 \nCould you wait a moment ?\nkʊd ju wet ə ˈmoʊmənt \nKanns de e Moment waarden?\n\n0:33 1:46 2:59 \nCould you open the window ?\nkʊd ju ˈoʊpən ðə ˈwɪndoʊ \nKënnt Dir d'Fenster opmaachen?\n\n0:47 2:00 3:13 \nCould you play music ?\nkʊd ju ple mˈjuzɪk \nKanns du Musek spillen?\n\n1:01 2:14 3:27 \nCould you open the door ?\nkʊd ju ˈoʊpən ðə dɔr \nKonnt Dir d'Dier opmaachen?\n\n\n\nUn de Schoulmeeschteren an d'Schoulen:\nDëse Video ass ënner der Creative Commons Lizenz verëffentlecht.\n  CC BY 3.0 https://creativecommons.org/licenses/by/3.0/ \nFillt gratis dësen Video zu Ären Klassen ze benotzen!\n\nMir benotzen den Google Translate Service fir d'Lokalisatioun. Wann Dir e puer Feeler fannt, da sot eis w.e.g.\n"
    },
    {
      "Lang": "lo",
      "Title": "ບົດເຝິກຫັດໄວຍາກອນພາສາອັງກິດ | ງ່າຍດາຍ ອິນເດຍ ⭐️ #77 Could you?",
      "Description": "ຮຽນຮູ້ຫລັກໄວຍາກອນພາສາອັງກິດ! ປ່ຽນ ຄຳ ສັບໃນປະໂຫຍກ.\n\n\n\n0:05 1:18 2:31 \nCould you sing a song ?\nkʊd ju sɪŋ ə sɔŋ \nເຈົ້າຮ້ອງເພງໄດ້ບໍ?\n\n0:19 1:32 2:45 \nCould you wait a moment ?\nkʊd ju wet ə ˈmoʊmənt \nທ່ານສາມາດລໍຖ້າເວລາບໍ່?\n\n0:33 1:46 2:59 \nCould you open the window ?\nkʊd ju ˈoʊpən ðə ˈwɪndoʊ \nເຈົ້າສາມາດເປີດປ່ອງຢ້ຽມໄດ້ບໍ?\n\n0:47 2:00 3:13 \nCould you play music ?\nkʊd ju ple mˈjuzɪk \nເຈົ້າຫຼີ້ນດົນຕີໄດ້ບໍ?\n\n1:01 2:14 3:27 \nCould you open the door ?\nkʊd ju ˈoʊpən ðə dɔr \nເຈົ້າສາມາດເປີດປະຕູໄດ້ບໍ?\n\n\n\nເຖິງຄູອາຈານແລະໂຮງຮຽນ:\nວິດີໂອນີ້ລົງພາຍໃຕ້ໃບອະນຸຍາດສ້າງສັນ.\n  CC BY 3.0 https://creativecommons.org/licenses/by/3.0/ \nຮູ້ສຶກວ່າບໍ່ເສຍຄ່າທີ່ຈະໃຊ້ວິດີໂອນີ້ໃນຫ້ອງຮຽນຂອງທ່ານ!\n\nພວກເຮົາໃຊ້ບໍລິການ Google Translate ສຳ ລັບການແປພາສາທ້ອງຖິ່ນ. ຖ້າທ່ານພົບຂໍ້ຜິດພາດບາງຢ່າງ, ກະລຸນາແຈ້ງພວກເຮົາ.\n"
    },
    {
      "Lang": "lt",
      "Title": "Anglų kalbos gramatikos pratimai | Paprasta Indija ⭐️ #77 Could you?",
      "Description": "Išmokite anglų kalbos gramatiką! Pakeiskite žodį sakinyje.\n\n\n\n0:05 1:18 2:31 \nCould you sing a song ?\nkʊd ju sɪŋ ə sɔŋ \nAr galėtum dainuoti dainą?\n\n0:19 1:32 2:45 \nCould you wait a moment ?\nkʊd ju wet ə ˈmoʊmənt \nAr galėtum palaukti akimirkos?\n\n0:33 1:46 2:59 \nCould you open the window ?\nkʊd ju ˈoʊpən ðə ˈwɪndoʊ \nAr galėtum atidaryti langą?\n\n0:47 2:00 3:13 \nCould you play music ?\nkʊd ju ple mˈjuzɪk \nAr galėtum groti muziką?\n\n1:01 2:14 3:27 \nCould you open the door ?\nkʊd ju ˈoʊpən ðə dɔr \nAr galėtum atidaryti duris?\n\n\n\nMokytojams ir mokykloms:\nŠis vaizdo įrašas paskelbtas naudojant „Creative Commons“ licenciją.\n  CC BY 3.0 https://creativecommons.org/licenses/by/3.0/ \nNesivaržykite naudotis šiuo vaizdo įrašu savo klasėse!\n\nLokalizavimui naudojame „Google Translate“ paslaugą. Jei radote klaidų, praneškite mums.\n"
    },
    {
      "Lang": "lv",
      "Title": "Angļu valodas gramatikas vingrinājumi | Vienkārši Indija ⭐️ #77 Could you?",
      "Description": "Mācieties angļu valodas gramatiku! Mainiet vārdu teikumā.\n\n\n\n0:05 1:18 2:31 \nCould you sing a song ?\nkʊd ju sɪŋ ə sɔŋ \nVai jūs varētu nodziedāt dziesmu?\n\n0:19 1:32 2:45 \nCould you wait a moment ?\nkʊd ju wet ə ˈmoʊmənt \nVai jūs varētu kādu brīdi nogaidīt?\n\n0:33 1:46 2:59 \nCould you open the window ?\nkʊd ju ˈoʊpən ðə ˈwɪndoʊ \nVai jūs varētu atvērt logu?\n\n0:47 2:00 3:13 \nCould you play music ?\nkʊd ju ple mˈjuzɪk \nVai jūs varētu spēlēt mūziku?\n\n1:01 2:14 3:27 \nCould you open the door ?\nkʊd ju ˈoʊpən ðə dɔr \nVai jūs varētu atvērt durvis?\n\n\n\nSkolotājiem un skolām:\nŠis video ir publicēts saskaņā ar Creative Commons licenci.\n  CC BY 3.0 https://creativecommons.org/licenses/by/3.0/ \nJūtieties brīvi izmantot šo video savās nodarbībās!\n\nLokalizācijai mēs izmantojam Google Translate pakalpojumu. Ja atrodat dažas kļūdas, lūdzu, paziņojiet mums.\n"
    },
    {
      "Lang": "mg",
      "Title": "Fanatanjahantena anglisy | Simple India ⭐️ #77 Could you?",
      "Description": "Ianaro ny fitsipi-pitenenana anglisy! Manova teny amin'ny fehezanteny iray.\n\n\n\n0:05 1:18 2:31 \nCould you sing a song ?\nkʊd ju sɪŋ ə sɔŋ \nAzonao atao ve ny mihira hira?\n\n0:19 1:32 2:45 \nCould you wait a moment ?\nkʊd ju wet ə ˈmoʊmənt \nAfaka miandry vetivety ve ianao?\n\n0:33 1:46 2:59 \nCould you open the window ?\nkʊd ju ˈoʊpən ðə ˈwɪndoʊ \nAfaka manokatra varavarankely ve ianao?\n\n0:47 2:00 3:13 \nCould you play music ?\nkʊd ju ple mˈjuzɪk \nAfaka manao mozika ve ianao?\n\n1:01 2:14 3:27 \nCould you open the door ?\nkʊd ju ˈoʊpən ðə dɔr \nAfaka manokatra varavarana ve ianao?\n\n\n\nHo an'ireo mpampianatra sy sekoly:\nIty horonantsary ity dia navoaka eo ambanin'ny lisansa Creative Commons.\n  CC BY 3.0 https://creativecommons.org/licenses/by/3.0/ \nAza misalasala mampiasa an'io horonantsary io amin'ny kilasinao!\n\nMampiasa ny serivisy Google Translate izahay amin'ny fananganana toerana. Raha mahita hadisoana vitsivitsy ianao dia mba ampahafantaro anay.\n"
    },
    {
      "Lang": "mi",
      "Title": "Mahi whakangungu Ingarihi | He ngawari Inia ⭐️ #77 Could you?",
      "Description": "Akohia te paanui Ingarihi! Hurihia he kupu ki tetahi rerenga rerenga.\n\n\n\n0:05 1:18 2:31 \nCould you sing a song ?\nkʊd ju sɪŋ ə sɔŋ \nKa taea e koe te waiata i tetahi waiata?\n\n0:19 1:32 2:45 \nCould you wait a moment ?\nkʊd ju wet ə ˈmoʊmənt \nKa taea e koe te tatari i tetahi wa?\n\n0:33 1:46 2:59 \nCould you open the window ?\nkʊd ju ˈoʊpən ðə ˈwɪndoʊ \nKa taea e koe te whakatuwhera i te matapihi?\n\n0:47 2:00 3:13 \nCould you play music ?\nkʊd ju ple mˈjuzɪk \nKa taea e koe te purei i te puoro?\n\n1:01 2:14 3:27 \nCould you open the door ?\nkʊd ju ˈoʊpən ðə dɔr \nKa taea e koe te whakatuwhera i te tatau?\n\n\n\nKi nga kaiako me nga kura:\nKei te whakaputaina tenei ataata i raro i te Raihana Hoahoatanga.\n  CC BY 3.0 https://creativecommons.org/licenses/by/3.0/ \nKia kore e pai ki te whakamahi i tenei ataata i roto i o akomanga!\n\nKa whakamahia e matou he whakamaoritanga a Google mo te whakangao. Mena ka kitea e koe etahi he, tena koa kia mohio.\n"
    },
    {
      "Lang": "mk",
      "Title": "Вежби за граматика на англиски јазик | Едноставно Индија ⭐️ #77 Could you?",
      "Description": "Дознајте англиска граматика! Променете збор во реченица.\n\n\n\n0:05 1:18 2:31 \nCould you sing a song ?\nkʊd ju sɪŋ ə sɔŋ \nМожеш ли да пееш песна?\n\n0:19 1:32 2:45 \nCould you wait a moment ?\nkʊd ju wet ə ˈmoʊmənt \nМожете ли да почекате еден момент?\n\n0:33 1:46 2:59 \nCould you open the window ?\nkʊd ju ˈoʊpən ðə ˈwɪndoʊ \nМожете ли да го отворите прозорецот?\n\n0:47 2:00 3:13 \nCould you play music ?\nkʊd ju ple mˈjuzɪk \nМожеш ли да свириш музика?\n\n1:01 2:14 3:27 \nCould you open the door ?\nkʊd ju ˈoʊpən ðə dɔr \nМожете ли да ја отворите вратата?\n\n\n\nДо наставниците и училиштата:\nОва видео е објавено под лиценца Криејтив комонс.\n  CC BY 3.0 https://creativecommons.org/licenses/by/3.0/ \nСлободно можете да го користите ова видео во вашите часови!\n\nНие користиме услуга Google Translate за локализација. Ако најдете некои грешки, ве молиме кажете ни.\n"
    },
    {
      "Lang": "ml",
      "Title": "ഇംഗ്ലീഷ് വ്യാകരണ വ്യായാമങ്ങൾ | ലളിതം ഇന്ത്യ ⭐️ #77 Could you?",
      "Description": "ഇംഗ്ലീഷ് വ്യാകരണം പഠിക്കൂ! ഒരു വാക്യത്തിൽ ഒരു വാക്ക് മാറ്റുക.\n\n\n\n0:05 1:18 2:31 \nCould you sing a song ?\nkʊd ju sɪŋ ə sɔŋ \nനിങ്ങൾക്ക് ഒരു പാട്ട് പാടാമോ?\n\n0:19 1:32 2:45 \nCould you wait a moment ?\nkʊd ju wet ə ˈmoʊmənt \nനിങ്ങൾക്ക് ഒരു നിമിഷം കാത്തിരിക്കാമോ?\n\n0:33 1:46 2:59 \nCould you open the window ?\nkʊd ju ˈoʊpən ðə ˈwɪndoʊ \nനിങ്ങൾക്ക് വിൻഡോ തുറക്കാൻ കഴിയുമോ?\n\n0:47 2:00 3:13 \nCould you play music ?\nkʊd ju ple mˈjuzɪk \nനിങ്ങൾക്ക് സംഗീതം പ്ലേ ചെയ്യാൻ കഴിയുമോ?\n\n1:01 2:14 3:27 \nCould you open the door ?\nkʊd ju ˈoʊpən ðə dɔr \nനിങ്ങൾക്ക് വാതിൽ തുറക്കാൻ കഴിയുമോ?\n\n\n\nഅധ്യാപകർക്കും സ്കൂളുകൾക്കും:\nക്രിയേറ്റീവ് കോമൺസ് ലൈസൻസിന് കീഴിൽ ഈ വീഡിയോ പ്രസിദ്ധീകരിച്ചു.\n  CC BY 3.0 https://creativecommons.org/licenses/by/3.0/ \nനിങ്ങളുടെ ക്ലാസുകളിൽ ഈ വീഡിയോ ഉപയോഗിക്കാൻ മടിക്കേണ്ടതില്ല!\n\nപ്രാദേശികവൽക്കരണത്തിനായി ഞങ്ങൾ Google വിവർത്തന സേവനം ഉപയോഗിക്കുന്നു. നിങ്ങൾ ചില തെറ്റുകൾ കണ്ടെത്തുകയാണെങ്കിൽ, ഞങ്ങളെ അറിയിക്കുക.\n"
    },
    {
      "Lang": "mn",
      "Title": "Англи хэлний дүрмийн дасгал | Энгийн Энэтхэг ⭐️ #77 Could you?",
      "Description": "Англи хэлний дүрмийн мэдлэгийг сур! Үгийг өгүүлбэр болгон өөрчил.\n\n\n\n0:05 1:18 2:31 \nCould you sing a song ?\nkʊd ju sɪŋ ə sɔŋ \nДуу дуулж болох уу?\n\n0:19 1:32 2:45 \nCould you wait a moment ?\nkʊd ju wet ə ˈmoʊmənt \nТа түр хүлээнэ үү?\n\n0:33 1:46 2:59 \nCould you open the window ?\nkʊd ju ˈoʊpən ðə ˈwɪndoʊ \nТа цонхоо онгойлгож чадах уу?\n\n0:47 2:00 3:13 \nCould you play music ?\nkʊd ju ple mˈjuzɪk \nХөгжим тоглож болох уу?\n\n1:01 2:14 3:27 \nCould you open the door ?\nkʊd ju ˈoʊpən ðə dɔr \nТа хаалгаа онгойлгож чадах уу?\n\n\n\nБагш, сургуулиудад:\nЭнэ видео нь Creative Commons License лиценз дээр нийтлэгдсэн.\n  CC BY 3.0 https://creativecommons.org/licenses/by/3.0/ \nЭнэ видеог өөрийн ангиудад ашиглах боломжтой шүү!\n\nБид Google Translate үйлчилгээг нутагшуулах зорилгоор ашигладаг. Хэрэв та алдаа олвол бидэнд мэдэгдээрэй.\n"
    },
    {
      "Lang": "mr",
      "Title": "इंग्रजी व्याकरण व्यायाम | सोपे भारत ⭐️ #77 Could you?",
      "Description": "इंग्रजी व्याकरण जाणून घ्या! एका वाक्यात शब्द बदला.\n\n\n\n0:05 1:18 2:31 \nCould you sing a song ?\nkʊd ju sɪŋ ə sɔŋ \nआपण गाणे गाऊ शकता?\n\n0:19 1:32 2:45 \nCould you wait a moment ?\nkʊd ju wet ə ˈmoʊmənt \nआपण एक क्षण प्रतीक्षा करू शकता?\n\n0:33 1:46 2:59 \nCould you open the window ?\nkʊd ju ˈoʊpən ðə ˈwɪndoʊ \nआपण विंडो उघडू शकता?\n\n0:47 2:00 3:13 \nCould you play music ?\nkʊd ju ple mˈjuzɪk \nआपण संगीत प्ले करू शकता?\n\n1:01 2:14 3:27 \nCould you open the door ?\nkʊd ju ˈoʊpən ðə dɔr \nआपण दार उघडू शकता?\n\n\n\nशिक्षक आणि शाळा यांना:\nहा व्हिडिओ क्रिएटिव्ह कॉमन्स परवान्या अंतर्गत प्रकाशित झाला आहे.\n  CC BY 3.0 https://creativecommons.org/licenses/by/3.0/ \nआपल्या वर्गांमध्ये हा व्हिडिओ वापरण्यास मोकळ्या मनाने!\n\nआम्ही स्थानिकीकरणासाठी Google भाषांतर सेवा वापरतो. आपल्याला काही चुका आढळल्यास कृपया आम्हाला कळवा.\n"
    },
    {
      "Lang": "ms",
      "Title": "Latihan tatabahasa Bahasa Inggeris | Mudah India ⭐️ #77 Could you?",
      "Description": "Belajar bahasa Inggeris! Tukar perkataan dalam ayat.\n\n\n\n0:05 1:18 2:31 \nCould you sing a song ?\nkʊd ju sɪŋ ə sɔŋ \nBolehkah anda menyanyi lagu?\n\n0:19 1:32 2:45 \nCould you wait a moment ?\nkʊd ju wet ə ˈmoʊmənt \nBolehkah anda tunggu sebentar?\n\n0:33 1:46 2:59 \nCould you open the window ?\nkʊd ju ˈoʊpən ðə ˈwɪndoʊ \nBolehkah anda membuka tingkap?\n\n0:47 2:00 3:13 \nCould you play music ?\nkʊd ju ple mˈjuzɪk \nBolehkah anda memainkan muzik?\n\n1:01 2:14 3:27 \nCould you open the door ?\nkʊd ju ˈoʊpən ðə dɔr \nBolehkah anda membuka pintu?\n\n\n\nKepada guru dan sekolah:\nVideo ini diterbitkan di bawah Lesen Creative Commons.\n  CC BY 3.0 https://creativecommons.org/licenses/by/3.0/ \nJangan ragu untuk menggunakan video ini dalam kelas anda!\n\nKami menggunakan perkhidmatan Terjemahan Google untuk penyetempatan. Jika anda mendapati beberapa kesilapan, sila beritahu kami.\n"
    },
    {
      "Lang": "mt",
      "Title": "Eżerċizzji ta 'grammatika Ingliża | Sempliċi Indja ⭐️ #77 Could you?",
      "Description": "Tgħallem il-grammatika Ingliża! Ibdel kelma f’sentenza.\n\n\n\n0:05 1:18 2:31 \nCould you sing a song ?\nkʊd ju sɪŋ ə sɔŋ \nTista 'tkanta kanzunetta?\n\n0:19 1:32 2:45 \nCould you wait a moment ?\nkʊd ju wet ə ˈmoʊmənt \nTista 'tistenna mument?\n\n0:33 1:46 2:59 \nCould you open the window ?\nkʊd ju ˈoʊpən ðə ˈwɪndoʊ \nTista 'tiftaħ it-tieqa?\n\n0:47 2:00 3:13 \nCould you play music ?\nkʊd ju ple mˈjuzɪk \nTista 'tilgħab mużika?\n\n1:01 2:14 3:27 \nCould you open the door ?\nkʊd ju ˈoʊpən ðə dɔr \nTista 'tiftaħ il-bieb?\n\n\n\nGħalliema u skejjel:\nDan il-video huwa ppublikat taħt il-Liċenzja Creative Commons.\n  CC BY 3.0 https://creativecommons.org/licenses/by/3.0/ \nĦossok liberu li tuża dan il-video fil-klassijiet tiegħek!\n\nAħna nużaw servizz Google Translate għall-lokalizzazzjoni. Jekk issib xi żbalji, jekk jogħġbok għarrafna.\n"
    },
    {
      "Lang": "my",
      "Title": "အင်္ဂလိပ်သဒ္ဒါလေ့ကျင့်ခန်း | ရိုးရှင်းသော အိန္ဒိယ ⭐️ #77 Could you?",
      "Description": "အင်္ဂလိပ်သဒ္ဒါကိုလေ့လာပါ။ ဝါကျတွင်စကားလုံးတစ်လုံးပြောင်းပါ။\n\n\n\n0:05 1:18 2:31 \nCould you sing a song ?\nkʊd ju sɪŋ ə sɔŋ \nသီချင်းတစ်ပုဒ်ဆိုနိုင်မလား။\n\n0:19 1:32 2:45 \nCould you wait a moment ?\nkʊd ju wet ə ˈmoʊmənt \nခဏစောင့်နိုင်မလား?\n\n0:33 1:46 2:59 \nCould you open the window ?\nkʊd ju ˈoʊpən ðə ˈwɪndoʊ \nပြတင်းပေါက်ဖွင့်လို့ရမလား\n\n0:47 2:00 3:13 \nCould you play music ?\nkʊd ju ple mˈjuzɪk \nသီချင်းဖွင့်လို့ရမလား\n\n1:01 2:14 3:27 \nCould you open the door ?\nkʊd ju ˈoʊpən ðə dɔr \nတံခါးဖွင့်လို့ရမလား\n\n\n\nဆရာများနှင့်ကျောင်းများသို့\nဒီဗီဒီယိုကို Creative Commons လိုင်စင်အောက်မှာထုတ်ဝေထားတယ်။\n  CC BY 3.0 https://creativecommons.org/licenses/by/3.0/ \nဤဗီဒီယိုကိုသင်၏အတန်းများ၌အခမဲ့အသုံးပြုပါ။\n\nကျွန်ုပ်တို့သည်ဒေသခံဘာသာပြန်အတွက် Google Translate ဝန်ဆောင်မှုကိုအသုံးပြုသည်။ သင်အမှားအယွင်းများအချို့ရှိပါကကျွန်ုပ်တို့အားအသိပေးပါ။\n"
    },
    {
      "Lang": "ne",
      "Title": "अंग्रेजी व्याकरण व्यायाम | सरल भारत ⭐️ #77 Could you?",
      "Description": "अंग्रेजी व्याकरण सिक्नुहोस्! एक वाक्य मा एक शब्द बदल्नुहोस्।\n\n\n\n0:05 1:18 2:31 \nCould you sing a song ?\nkʊd ju sɪŋ ə sɔŋ \nके तिमी गीत गाउन सक्छौ?\n\n0:19 1:32 2:45 \nCould you wait a moment ?\nkʊd ju wet ə ˈmoʊmənt \nके तपाईं एक क्षण प्रतीक्षा गर्न सक्नुहुन्छ?\n\n0:33 1:46 2:59 \nCould you open the window ?\nkʊd ju ˈoʊpən ðə ˈwɪndoʊ \nके तपाईं विन्डो खोल्न सक्नुहुन्छ?\n\n0:47 2:00 3:13 \nCould you play music ?\nkʊd ju ple mˈjuzɪk \nके तपाईं संगीत बजाउन सक्नुहुन्छ?\n\n1:01 2:14 3:27 \nCould you open the door ?\nkʊd ju ˈoʊpən ðə dɔr \nके तिमी ढोका खोल्न सक्छौ?\n\n\n\nशिक्षक र विद्यालयहरुलाई:\nयो भिडियो क्रिएटिभ कमन्स लाइसेन्स अन्तर्गत प्रकाशित गरिएको छ।\n  CC BY 3.0 https://creativecommons.org/licenses/by/3.0/ \nतपाईंको कक्षामा यो भिडियो प्रयोग गर्न स्वतन्त्र महसुस गर्नुहोस्!\n\nहामी स्थानीयकरणको लागि गुगल अनुवाद सेवा प्रयोग गर्दछौं। यदि तपाईंले केहि गल्तीहरू फेला पार्नुभयो भने, कृपया हामीलाई खबर गर्नुहोस्।\n"
    },
    {
      "Lang": "nl",
      "Title": "Engelse grammatica-oefeningen | Gemakkelijk India ⭐️ #77 Could you?",
      "Description": "Leer Engelse grammatica! Verander een woord in een zin.\n\n\n\n0:05 1:18 2:31 \nCould you sing a song ?\nkʊd ju sɪŋ ə sɔŋ \nZou je een liedje kunnen zingen?\n\n0:19 1:32 2:45 \nCould you wait a moment ?\nkʊd ju wet ə ˈmoʊmənt \nZou je even kunnen wachten?\n\n0:33 1:46 2:59 \nCould you open the window ?\nkʊd ju ˈoʊpən ðə ˈwɪndoʊ \nZou je het raam kunnen openen?\n\n0:47 2:00 3:13 \nCould you play music ?\nkʊd ju ple mˈjuzɪk \nZou je muziek kunnen spelen?\n\n1:01 2:14 3:27 \nCould you open the door ?\nkʊd ju ˈoʊpən ðə dɔr \nKan je de deur openen ?\n\n\n\nAan leraren en scholen:\nDeze video is gepubliceerd onder Creative Commons License.\n  CC BY 3.0 https://creativecommons.org/licenses/by/3.0/ \nVoel je vrij om deze video in je lessen te gebruiken!\n\nWe gebruiken de Google Translate-service voor lokalisatie. Laat het ons weten als u fouten ontdekt.\n"
    },
    {
      "Lang": "no",
      "Title": "Engelsk grammatikkøvelser | Enkel India ⭐️ #77 Could you?",
      "Description": "Lær engelsk grammatikk! Endre et ord i en setning.\n\n\n\n0:05 1:18 2:31 \nCould you sing a song ?\nkʊd ju sɪŋ ə sɔŋ \nKunne du synge en sang?\n\n0:19 1:32 2:45 \nCould you wait a moment ?\nkʊd ju wet ə ˈmoʊmənt \nKunne du vente et øyeblikk?\n\n0:33 1:46 2:59 \nCould you open the window ?\nkʊd ju ˈoʊpən ðə ˈwɪndoʊ \nKunne du åpne vinduet?\n\n0:47 2:00 3:13 \nCould you play music ?\nkʊd ju ple mˈjuzɪk \nKunne du spilt musikk?\n\n1:01 2:14 3:27 \nCould you open the door ?\nkʊd ju ˈoʊpən ðə dɔr \nKunne du åpne døren?\n\n\n\nTil lærere og skoler:\nDenne videoen er publisert under Creative Commons License.\n  CC BY 3.0 https://creativecommons.org/licenses/by/3.0/ \nBruk gjerne denne videoen i klassene dine!\n\nVi bruker Google Translate-tjenesten for lokalisering. Gi beskjed hvis du finner noen feil.\n"
    },
    {
      "Lang": "pa",
      "Title": "ਅੰਗਰੇਜ਼ੀ ਵਿਆਕਰਣ ਅਭਿਆਸ | ਆਸਾਨ ਭਾਰਤ ⭐️ #77 Could you?",
      "Description": "ਅੰਗਰੇਜ਼ੀ ਵਿਆਕਰਣ ਸਿੱਖੋ! ਇੱਕ ਵਾਕ ਵਿੱਚ ਇੱਕ ਸ਼ਬਦ ਬਦਲੋ.\n\n\n\n0:05 1:18 2:31 \nCould you sing a song ?\nkʊd ju sɪŋ ə sɔŋ \nਕੀ ਤੁਸੀਂ ਕੋਈ ਗਾਣਾ ਗਾ ਸਕਦੇ ਹੋ?\n\n0:19 1:32 2:45 \nCould you wait a moment ?\nkʊd ju wet ə ˈmoʊmənt \nਕੀ ਤੁਸੀਂ ਇੱਕ ਪਲ ਇੰਤਜ਼ਾਰ ਕਰ ਸਕਦੇ ਹੋ?\n\n0:33 1:46 2:59 \nCould you open the window ?\nkʊd ju ˈoʊpən ðə ˈwɪndoʊ \nਕੀ ਤੁਸੀਂ ਵਿੰਡੋ ਖੋਲ੍ਹ ਸਕਦੇ ਹੋ?\n\n0:47 2:00 3:13 \nCould you play music ?\nkʊd ju ple mˈjuzɪk \nਕੀ ਤੁਸੀਂ ਸੰਗੀਤ ਵਜਾ ਸਕਦੇ ਹੋ?\n\n1:01 2:14 3:27 \nCould you open the door ?\nkʊd ju ˈoʊpən ðə dɔr \nਕੀ ਤੁਸੀਂ ਦਰਵਾਜ਼ਾ ਖੋਲ੍ਹ ਸਕਦੇ ਹੋ?\n\n\n\nਅਧਿਆਪਕਾਂ ਅਤੇ ਸਕੂਲਾਂ ਨੂੰ:\nਇਹ ਵੀਡੀਓ ਕਰੀਏਟਿਵ ਕਾਮਨਜ਼ ਲਾਇਸੈਂਸ ਅਧੀਨ ਪ੍ਰਕਾਸ਼ਤ ਕੀਤਾ ਗਿਆ ਹੈ.\n  CC BY 3.0 https://creativecommons.org/licenses/by/3.0/ \nਇਸ ਕਲਾਸ ਨੂੰ ਆਪਣੀਆਂ ਕਲਾਸਾਂ ਵਿਚ ਵਰਤਣ ਲਈ ਮੁਫ਼ਤ ਮਹਿਸੂਸ ਕਰੋ!\n\nਅਸੀਂ ਸਥਾਨਕਕਰਨ ਲਈ ਗੂਗਲ ਅਨੁਵਾਦ ਸੇਵਾ ਦੀ ਵਰਤੋਂ ਕਰਦੇ ਹਾਂ. ਜੇ ਤੁਹਾਨੂੰ ਕੁਝ ਗਲਤੀਆਂ ਮਿਲਦੀਆਂ ਹਨ, ਤਾਂ ਕਿਰਪਾ ਕਰਕੇ ਸਾਨੂੰ ਦੱਸੋ.\n"
    },
    {
      "Lang": "pl",
      "Title": "Gramatyka angielska | Prosty Indie ⭐️ #77 Could you?",
      "Description": "Ucz się gramatyki angielskiej! Zmień słowo w zdaniu.\n\n\n\n0:05 1:18 2:31 \nCould you sing a song ?\nkʊd ju sɪŋ ə sɔŋ \nCzy mógłbyś zaśpiewać piosenkę?\n\n0:19 1:32 2:45 \nCould you wait a moment ?\nkʊd ju wet ə ˈmoʊmənt \nCzy mógłbyś chwilę poczekać?\n\n0:33 1:46 2:59 \nCould you open the window ?\nkʊd ju ˈoʊpən ðə ˈwɪndoʊ \nCzy możesz otworzyć okno?\n\n0:47 2:00 3:13 \nCould you play music ?\nkʊd ju ple mˈjuzɪk \nCzy możesz odtwarzać muzykę?\n\n1:01 2:14 3:27 \nCould you open the door ?\nkʊd ju ˈoʊpən ðə dɔr \nCzy mógłbyś otworzyć drzwi ?\n\n\n\nDo nauczycieli i szkół:\nTen film jest opublikowany na licencji Creative Commons.\n  CC BY 3.0 https://creativecommons.org/licenses/by/3.0/ \nZachęcamy do korzystania z tego filmu na zajęciach!\n\nDo lokalizacji używamy usługi Tłumacz Google. Jeśli znajdziesz jakieś błędy, daj nam znać.\n"
    },
    {
      "Lang": "ps",
      "Title": "انګلیسي ګرامر تمرینونه | ساده هند ⭐️ #77 Could you?",
      "Description": "انګلیسي ګرامر زده کړئ! یوه جمله په یوه جمله بدله کړئ.\n\n\n\n0:05 1:18 2:31 \nCould you sing a song ?\nkʊd ju sɪŋ ə sɔŋ \nکولی شئ یوه سندره ووایاست؟\n\n0:19 1:32 2:45 \nCould you wait a moment ?\nkʊd ju wet ə ˈmoʊmənt \nیو شیبه ته انتظار کولی شی؟\n\n0:33 1:46 2:59 \nCould you open the window ?\nkʊd ju ˈoʊpən ðə ˈwɪndoʊ \nایا ته کړکۍ خلاصولی شې؟\n\n0:47 2:00 3:13 \nCould you play music ?\nkʊd ju ple mˈjuzɪk \nکولی شی میوزیک غږوی؟\n\n1:01 2:14 3:27 \nCould you open the door ?\nkʊd ju ˈoʊpən ðə dɔr \nکولی شی دروازه خلاصه کړی؟\n\n\n\nښوونکو او ښوونځیو ته:\nدا ویډیو د کریټیو کامنز لایسنس لاندې خپره شوې ده.\n  CC BY 3.0 https://creativecommons.org/licenses/by/3.0/ \nپه خپلو ټولګیو کې د دې ویډیو کارولو لپاره وړیا احساس وکړئ!\n\nموږ د ځایی کولو لپاره د ګوګل ژباړن خدمت کاروو. که تاسو ځینې غلطۍ ومومئ ، مهرباني وکړئ موږ ته خبر راکړئ.\n"
    },
    {
      "Lang": "pt",
      "Title": "Exercícios de gramática inglesa | Simples Índia ⭐️ #77 Could you?",
      "Description": "Aprenda gramática inglesa! Mude uma palavra em uma frase.\n\n\n\n0:05 1:18 2:31 \nCould you sing a song ?\nkʊd ju sɪŋ ə sɔŋ \nVocê poderia cantar uma música?\n\n0:19 1:32 2:45 \nCould you wait a moment ?\nkʊd ju wet ə ˈmoʊmənt \nVocê poderia esperar um momento?\n\n0:33 1:46 2:59 \nCould you open the window ?\nkʊd ju ˈoʊpən ðə ˈwɪndoʊ \nVocê poderia abrir a janela?\n\n0:47 2:00 3:13 \nCould you play music ?\nkʊd ju ple mˈjuzɪk \nVocê pode tocar música?\n\n1:01 2:14 3:27 \nCould you open the door ?\nkʊd ju ˈoʊpən ðə dɔr \nVocê poderia abrir a porta ?\n\n\n\nPara professores e escolas:\nEste vídeo é publicado sob licença Creative Commons.\n  CC BY 3.0 https://creativecommons.org/licenses/by/3.0/ \nSinta-se livre para usar este vídeo em suas aulas!\n\nUsamos o serviço Google Translate para localização. Se você encontrar algum erro, informe-nos.\n"
    },
    {
      "Lang": "ro",
      "Title": "Exerciții de gramatică engleză | Simplu India ⭐️ #77 Could you?",
      "Description": "Învață gramatica engleză! Schimbă un cuvânt într-o propoziție.\n\n\n\n0:05 1:18 2:31 \nCould you sing a song ?\nkʊd ju sɪŋ ə sɔŋ \nAți putea cânta o melodie?\n\n0:19 1:32 2:45 \nCould you wait a moment ?\nkʊd ju wet ə ˈmoʊmənt \nAți putea aștepta un moment?\n\n0:33 1:46 2:59 \nCould you open the window ?\nkʊd ju ˈoʊpən ðə ˈwɪndoʊ \nAți putea deschide fereastra?\n\n0:47 2:00 3:13 \nCould you play music ?\nkʊd ju ple mˈjuzɪk \nAți putea cânta muzică?\n\n1:01 2:14 3:27 \nCould you open the door ?\nkʊd ju ˈoʊpən ðə dɔr \nAți putea deschide ușa?\n\n\n\nPentru profesori și școli:\nAcest videoclip este publicat sub licență Creative Commons.\n  CC BY 3.0 https://creativecommons.org/licenses/by/3.0/ \nSimte-te liber să folosești acest videoclip în orele tale!\n\nFolosim serviciul Google Translate pentru localizare. Dacă găsiți unele greșeli, vă rugăm să ne informați.\n"
    },
    {
      "Lang": "ru",
      "Title": "Упражнения по английской грамматике | просто Индия ⭐️ #77 Could you?",
      "Description": "Изучай английскую грамматику! Изменить слово в предложении.\n\n\n\n0:05 1:18 2:31 \nCould you sing a song ?\nkʊd ju sɪŋ ə sɔŋ \nНе могли бы вы спеть песню?\n\n0:19 1:32 2:45 \nCould you wait a moment ?\nkʊd ju wet ə ˈmoʊmənt \nНе могли бы вы подождать минуту?\n\n0:33 1:46 2:59 \nCould you open the window ?\nkʊd ju ˈoʊpən ðə ˈwɪndoʊ \nНе могли бы вы открыть окно?\n\n0:47 2:00 3:13 \nCould you play music ?\nkʊd ju ple mˈjuzɪk \nТы умеешь играть музыку?\n\n1:01 2:14 3:27 \nCould you open the door ?\nkʊd ju ˈoʊpən ðə dɔr \nНе могли бы вы открыть дверь?\n\n\n\nУчителям и школам:\nЭто видео опубликовано под лицензией Creative Commons.\n  CC BY 3.0 https://creativecommons.org/licenses/by/3.0/ \nНе стесняйтесь использовать это видео в своих классах!\n\nМы используем сервис Google Translate для локализации. Если вы обнаружите ошибки, сообщите нам.\n"
    },
    {
      "Lang": "sd",
      "Title": "سنڌي گرامر مشق | سادو انڊيا ⭐️ #77 Could you?",
      "Description": "انگريزي گرامر سکو! ھڪ لفظ ۾ ھڪڙي تبديلي آڻيو.\n\n\n\n0:05 1:18 2:31 \nCould you sing a song ?\nkʊd ju sɪŋ ə sɔŋ \nڇا تون گيت گائي سگهين ٿو؟\n\n0:19 1:32 2:45 \nCould you wait a moment ?\nkʊd ju wet ə ˈmoʊmənt \nڇا توهان هڪ پل انتظار ڪري سگهو ٿا؟\n\n0:33 1:46 2:59 \nCould you open the window ?\nkʊd ju ˈoʊpən ðə ˈwɪndoʊ \nڇا تون ونڊو کولين ٿو؟\n\n0:47 2:00 3:13 \nCould you play music ?\nkʊd ju ple mˈjuzɪk \nڇا تون موسيقي راند ڪري سگهين ٿو؟\n\n1:01 2:14 3:27 \nCould you open the door ?\nkʊd ju ˈoʊpən ðə dɔr \nڇا تون در کولين ٿو؟\n\n\n\nاستاد ۽ اسڪولن ڏانهن:\nهيء وڊيو تخليقي العام لائسنس هيٺ شايع ٿيل آهي.\n  CC BY 3.0 https://creativecommons.org/licenses/by/3.0/ \nپنهنجي وڊيوز ۾ هن وڊيو کي استعمال ڪرڻ لاء آزاد ٿيو!\n\nاسان مقامي ڪرڻ لاء گوگل ترجمو سروس استعمال ڪندا آهيون. جيڪڏهن توهان ڪجهه غلطي ڳوليندا آهيو، مهرباني ڪري اسان کي ڄاڻ ڏيو.\n"
    },
    {
      "Lang": "si",
      "Title": "ඉංග්‍රීසි ව්‍යාකරණ අභ්‍යාස | සරල ඉන්දියාව ⭐️ #77 Could you?",
      "Description": "ඉංග්‍රීසි ව්‍යාකරණ ඉගෙන ගන්න! වාක්‍යයක වචනයක් වෙනස් කරන්න.\n\n\n\n0:05 1:18 2:31 \nCould you sing a song ?\nkʊd ju sɪŋ ə sɔŋ \nඔබට ගීතයක් ගායනා කළ හැකිද?\n\n0:19 1:32 2:45 \nCould you wait a moment ?\nkʊd ju wet ə ˈmoʊmənt \nඔබට මොහොතක් බලා සිටිය හැකිද?\n\n0:33 1:46 2:59 \nCould you open the window ?\nkʊd ju ˈoʊpən ðə ˈwɪndoʊ \nඔබට කවුළුව විවෘත කළ හැකිද?\n\n0:47 2:00 3:13 \nCould you play music ?\nkʊd ju ple mˈjuzɪk \nඔබට සංගීතය වාදනය කළ හැකිද?\n\n1:01 2:14 3:27 \nCould you open the door ?\nkʊd ju ˈoʊpən ðə dɔr \nඔබට දොර විවෘත කළ හැකිද?\n\n\n\nගුරුවරුන්ට සහ පාසල්වලට:\nමෙම වීඩියෝව නිර්මාණාත්මක පොදු බලපත්‍රය යටතේ ප්‍රකාශයට පත් කෙරේ.\n  CC BY 3.0 https://creativecommons.org/licenses/by/3.0/ \nඔබේ පංතිවල මෙම වීඩියෝව භාවිතා කිරීමට නිදහස් වන්න!\n\nප්‍රාදේශීයකරණය සඳහා අපි ගූගල් පරිවර්තන සේවාව භාවිතා කරමු. ඔබ යම් වැරැද්දක් සොයා ගන්නේ නම්, කරුණාකර අපට දන්වන්න.\n"
    },
    {
      "Lang": "sk",
      "Title": "Anglické gramatické cvičenia | prostý India ⭐️ #77 Could you?",
      "Description": "Naučte sa anglickú gramatiku! Zmeniť slovo vo vete.\n\n\n\n0:05 1:18 2:31 \nCould you sing a song ?\nkʊd ju sɪŋ ə sɔŋ \nMohli by ste spievať pieseň?\n\n0:19 1:32 2:45 \nCould you wait a moment ?\nkʊd ju wet ə ˈmoʊmənt \nMohli by ste počkať chvíľu?\n\n0:33 1:46 2:59 \nCould you open the window ?\nkʊd ju ˈoʊpən ðə ˈwɪndoʊ \nMohli by ste otvoriť okno?\n\n0:47 2:00 3:13 \nCould you play music ?\nkʊd ju ple mˈjuzɪk \nViete hrať hudbu?\n\n1:01 2:14 3:27 \nCould you open the door ?\nkʊd ju ˈoʊpən ðə dɔr \nMohli by ste otvoriť dvere?\n\n\n\nPre učiteľov a školy:\nToto video je publikované pod licenciou Creative Commons License.\n  CC BY 3.0 https://creativecommons.org/licenses/by/3.0/ \nNeváhajte použiť toto video vo svojich triedach!\n\nNa lokalizáciu používame službu Prekladač Google. Ak nájdete nejaké chyby, dajte nám vedieť.\n"
    },
    {
      "Lang": "sl",
      "Title": "Angleške slovnične vaje | Preprosto Indija ⭐️ #77 Could you?",
      "Description": "Naučite se angleške slovnice! Spremenite besedo v stavku.\n\n\n\n0:05 1:18 2:31 \nCould you sing a song ?\nkʊd ju sɪŋ ə sɔŋ \nBi lahko zapela pesem?\n\n0:19 1:32 2:45 \nCould you wait a moment ?\nkʊd ju wet ə ˈmoʊmənt \nLahko počakate trenutek?\n\n0:33 1:46 2:59 \nCould you open the window ?\nkʊd ju ˈoʊpən ðə ˈwɪndoʊ \nBi lahko odprli okno?\n\n0:47 2:00 3:13 \nCould you play music ?\nkʊd ju ple mˈjuzɪk \nBi lahko predvajali glasbo?\n\n1:01 2:14 3:27 \nCould you open the door ?\nkʊd ju ˈoʊpən ðə dɔr \nBi lahko odprli vrata?\n\n\n\nUčiteljem in šolam:\nTa videoposnetek je objavljen pod licenco Creative Commons.\n  CC BY 3.0 https://creativecommons.org/licenses/by/3.0/ \nUporabite ta video v svojih razredih!\n\nZa lokalizacijo uporabljamo storitev Google Translate. Če najdete nekaj napak, nas obvestite.\n"
    },
    {
      "Lang": "sm",
      "Title": "Gagana o le gagana Gagana Peretania | Faigofie Initia ⭐️ #77 Could you?",
      "Description": "Aoao le gagana Gagana Peretania! Sui se upu i se fuaiupu.\n\n\n\n0:05 1:18 2:31 \nCould you sing a song ?\nkʊd ju sɪŋ ə sɔŋ \nE mafai ona e usuina se pese?\n\n0:19 1:32 2:45 \nCould you wait a moment ?\nkʊd ju wet ə ˈmoʊmənt \nE mafai ona e faʻatali mo se taimi?\n\n0:33 1:46 2:59 \nCould you open the window ?\nkʊd ju ˈoʊpən ðə ˈwɪndoʊ \nE mafai ona e tatalaina le faamalama?\n\n0:47 2:00 3:13 \nCould you play music ?\nkʊd ju ple mˈjuzɪk \nE mafai ona e taina musika?\n\n1:01 2:14 3:27 \nCould you open the door ?\nkʊd ju ˈoʊpən ðə dɔr \nE mafai ona tatala le faitotoa?\n\n\n\nI faiaoga ma aʻoga:\nO lenei vitio ua lomia i lalo o le Creative Commons License.\n  CC BY 3.0 https://creativecommons.org/licenses/by/3.0/ \nLagona le saoloto e faʻaaoga lenei vitio i au vasega!\n\nMatou te faʻaaoga le Google Translate auaunaga mo le faʻasalalauga. Afai e te maua ni mea sese, faʻamolemole ia e iloa.\n"
    },
    {
      "Lang": "sn",
      "Title": "Chirungu grammar Exercise | Nyore India ⭐️ #77 Could you?",
      "Description": "Dzidza mutauro wechirungu! Chinja izwi muchirevo.\n\n\n\n0:05 1:18 2:31 \nCould you sing a song ?\nkʊd ju sɪŋ ə sɔŋ \nUngaimba rwiyo here?\n\n0:19 1:32 2:45 \nCould you wait a moment ?\nkʊd ju wet ə ˈmoʊmənt \nUnogona kumirira chinguva here?\n\n0:33 1:46 2:59 \nCould you open the window ?\nkʊd ju ˈoʊpən ðə ˈwɪndoʊ \nUnogona kuvhura hwindo here?\n\n0:47 2:00 3:13 \nCould you play music ?\nkʊd ju ple mˈjuzɪk \nUnogona kutamba mimhanzi?\n\n1:01 2:14 3:27 \nCould you open the door ?\nkʊd ju ˈoʊpən ðə dɔr \nUnogona kuvhura musuwo here?\n\n\n\nKune vadzidzisi uye zvikoro:\nVhidhiyo iyi inoburitswa pasi peCreative Commons License.\n  CC BY 3.0 https://creativecommons.org/licenses/by/3.0/ \nInzwa wakasununguka kushandisa iyi vhidhiyo mumakirasi ako!\n\nIsu tinoshandisa Google Dhumiro sevhisi. Kana iwe ukawana zvimwe zvikanganiso, tapota titiudze.\n"
    },
    {
      "Lang": "so",
      "Title": "Jimicsiga naxwaha Ingiriisiga | Fudud Hindiya ⭐️ #77 Could you?",
      "Description": "Baro naxwaha Ingiriisiga! U beddelo eray weedh.\n\n\n\n0:05 1:18 2:31 \nCould you sing a song ?\nkʊd ju sɪŋ ə sɔŋ \nMa heesi kartaa hees?\n\n0:19 1:32 2:45 \nCould you wait a moment ?\nkʊd ju wet ə ˈmoʊmənt \nMiyaad sugi kartaa xoogaa\n\n0:33 1:46 2:59 \nCould you open the window ?\nkʊd ju ˈoʊpən ðə ˈwɪndoʊ \nMa furi kartaa daaqadda?\n\n0:47 2:00 3:13 \nCould you play music ?\nkʊd ju ple mˈjuzɪk \nMa ciyaari kartaa muusig?\n\n1:01 2:14 3:27 \nCould you open the door ?\nkʊd ju ˈoʊpən ðə dɔr \nAlbaab ma furi kartaa?\n\n\n\nKu socota macallimiinta iyo iskuulada:\nMuuqaalkan fiidiyaha ah waxaa lagu daabacay hoosta hal-abuurnimada Hal-abuurka.\n  CC BY 3.0 https://creativecommons.org/licenses/by/3.0/ \nXor baad u leedahay inaad fiidiyaha u isticmaasho fasalladaaga!\n\nWaxaan u adeegsanaa adeega Google tarjumaha si aan ugu tarjunno. Hadaad khaladaad hesho, fadlan nala socodsii.\n"
    },
    {
      "Lang": "sq",
      "Title": "Ushtrime gramatikore angleze | i thjeshtë Indi ⭐️ #77 Could you?",
      "Description": "Mësoni gramatikën angleze! Ndryshoni një fjalë në një fjali.\n\n\n\n0:05 1:18 2:31 \nCould you sing a song ?\nkʊd ju sɪŋ ə sɔŋ \nMund të këndoni një këngë?\n\n0:19 1:32 2:45 \nCould you wait a moment ?\nkʊd ju wet ə ˈmoʊmənt \nMund të prisni një moment?\n\n0:33 1:46 2:59 \nCould you open the window ?\nkʊd ju ˈoʊpən ðə ˈwɪndoʊ \nMund të hapni dritaren?\n\n0:47 2:00 3:13 \nCould you play music ?\nkʊd ju ple mˈjuzɪk \nMund të luani muzikë?\n\n1:01 2:14 3:27 \nCould you open the door ?\nkʊd ju ˈoʊpən ðə dɔr \nMund të hapni derën?\n\n\n\nPër mësuesit dhe shkollat:\nKjo video është botuar nën licencën Creative Commons.\n  CC BY 3.0 https://creativecommons.org/licenses/by/3.0/ \nMos ngurroni të përdorni këtë video në klasat tuaja!\n\nNe përdorim shërbimin Google Translate për lokalizimin. Nëse gjeni disa gabime, ju lutemi na tregoni.\n"
    },
    {
      "Lang": "sr",
      "Title": "Вежбе енглеске граматике | Једноставно Индија ⭐️ #77 Could you?",
      "Description": "Научите енглеску граматику! Промените реч у реченици.\n\n\n\n0:05 1:18 2:31 \nCould you sing a song ?\nkʊd ju sɪŋ ə sɔŋ \nМожете ли отпевати песму?\n\n0:19 1:32 2:45 \nCould you wait a moment ?\nkʊd ju wet ə ˈmoʊmənt \nМожете ли сачекати тренутак?\n\n0:33 1:46 2:59 \nCould you open the window ?\nkʊd ju ˈoʊpən ðə ˈwɪndoʊ \nМожете ли отворити прозор?\n\n0:47 2:00 3:13 \nCould you play music ?\nkʊd ju ple mˈjuzɪk \nМожете ли пуштати музику?\n\n1:01 2:14 3:27 \nCould you open the door ?\nkʊd ju ˈoʊpən ðə dɔr \nМожете ли отворити врата?\n\n\n\nНаставницима и школама:\nОвај видео је објављен под Цреативе Цоммонс лиценцом.\n  CC BY 3.0 https://creativecommons.org/licenses/by/3.0/ \nСлободно користите овај видеозапис у својим предавањима!\n\nЗа локализацију користимо услугу Гоогле Транслате. Ако нађете неке грешке, јавите нам се.\n"
    },
    {
      "Lang": "st",
      "Title": "Boikoetliso ba puo ea Senyesemane | E bonolo India ⭐️ #77 Could you?",
      "Description": "Ithute puo ea Senyesemane! Fetola lentsoe polelo.\n\n\n\n0:05 1:18 2:31 \nCould you sing a song ?\nkʊd ju sɪŋ ə sɔŋ \nO ka bina pina?\n\n0:19 1:32 2:45 \nCould you wait a moment ?\nkʊd ju wet ə ˈmoʊmənt \nO ka ema hanyane?\n\n0:33 1:46 2:59 \nCould you open the window ?\nkʊd ju ˈoʊpən ðə ˈwɪndoʊ \nO ka bula fensetere?\n\n0:47 2:00 3:13 \nCould you play music ?\nkʊd ju ple mˈjuzɪk \nO ka bapala 'mino?\n\n1:01 2:14 3:27 \nCould you open the door ?\nkʊd ju ˈoʊpən ðə dɔr \nO ka bula lemati?\n\n\n\nHo matichere le likolo:\nVideo ena e phatlalalitsoe tlas'a Creative Commons License.\n  CC BY 3.0 https://creativecommons.org/licenses/by/3.0/ \nIkutloe u lokolohile ho sebelisa video ena litlelaseng tsa hau!\n\nRe sebelisa tšebeletso ea Google Tafsiri bakeng sa lehae. Haeba u fumana liphoso, ka kopo re tsebise.\n"
    },
    {
      "Lang": "su",
      "Title": "Latihan tata basa Inggris | Basajan India ⭐️ #77 Could you?",
      "Description": "Diajar grammar Inggris! Ngarobih kecap dina hiji kalimat.\n\n\n\n0:05 1:18 2:31 \nCould you sing a song ?\nkʊd ju sɪŋ ə sɔŋ \nNaha anjeun tiasa nyanyi lagu?\n\n0:19 1:32 2:45 \nCould you wait a moment ?\nkʊd ju wet ə ˈmoʊmənt \nNaha anjeun tiasa ngantosan sakedap?\n\n0:33 1:46 2:59 \nCould you open the window ?\nkʊd ju ˈoʊpən ðə ˈwɪndoʊ \nNaha anjeun tiasa muka jandela?\n\n0:47 2:00 3:13 \nCould you play music ?\nkʊd ju ple mˈjuzɪk \nNaha anjeun tiasa maénkeun musik?\n\n1:01 2:14 3:27 \nCould you open the door ?\nkʊd ju ˈoʊpən ðə dɔr \nNaha anjeun tiasa muka panto?\n\n\n\nPikeun guru sareng sakola:\nPidéo ieu dikaluarkeun dina Lisensi Lisénsi Creative Commons.\n  CC BY 3.0 https://creativecommons.org/licenses/by/3.0/ \nTong ngosongkeun pidéo ieu di kelas!\n\nKami nganggo jasa Google Translate pikeun lokalisasi. Upami anjeun mendakan sababaraha kasalahan, punten terangkeun ka urang.\n"
    },
    {
      "Lang": "sv",
      "Title": "Engelska grammatiska övningar | Enkel Indien ⭐️ #77 Could you?",
      "Description": "Lär dig engelska grammatik! Ändra ett ord i en mening.\n\n\n\n0:05 1:18 2:31 \nCould you sing a song ?\nkʊd ju sɪŋ ə sɔŋ \nKan du sjunga en låt?\n\n0:19 1:32 2:45 \nCould you wait a moment ?\nkʊd ju wet ə ˈmoʊmənt \nKan du vänta ett ögonblick?\n\n0:33 1:46 2:59 \nCould you open the window ?\nkʊd ju ˈoʊpən ðə ˈwɪndoʊ \nKan du öppna fönstret?\n\n0:47 2:00 3:13 \nCould you play music ?\nkʊd ju ple mˈjuzɪk \nKan du spela musik?\n\n1:01 2:14 3:27 \nCould you open the door ?\nkʊd ju ˈoʊpən ðə dɔr \nKan du öppna dörren?\n\n\n\nTill lärare och skolor:\nDenna video publiceras under Creative Commons License.\n  CC BY 3.0 https://creativecommons.org/licenses/by/3.0/ \nAnvänd gärna den här videon i dina klasser!\n\nVi använder Google Translate-tjänst för lokalisering. Låt oss veta om du hittar några misstag.\n"
    },
    {
      "Lang": "sw",
      "Title": "Mazoezi ya sarufi ya Kiingereza | Rahisi India ⭐️ #77 Could you?",
      "Description": "Jifunze sarufi ya Kiingereza! Badilisha neno katika sentensi.\n\n\n\n0:05 1:18 2:31 \nCould you sing a song ?\nkʊd ju sɪŋ ə sɔŋ \nJe! Unaweza kuimba wimbo?\n\n0:19 1:32 2:45 \nCould you wait a moment ?\nkʊd ju wet ə ˈmoʊmənt \nJe! Unaweza kungojea kidogo?\n\n0:33 1:46 2:59 \nCould you open the window ?\nkʊd ju ˈoʊpən ðə ˈwɪndoʊ \nJe! Unaweza kufungua dirisha?\n\n0:47 2:00 3:13 \nCould you play music ?\nkʊd ju ple mˈjuzɪk \nJe! Unaweza kucheza muziki?\n\n1:01 2:14 3:27 \nCould you open the door ?\nkʊd ju ˈoʊpən ðə dɔr \nJe! Unaweza kufungua mlango?\n\n\n\nKwa waalimu na shule:\nVideo hii imechapishwa chini ya Leseni ya Creative Commons.\n  CC BY 3.0 https://creativecommons.org/licenses/by/3.0/ \nJisikie huru kutumia video hii kwenye darasa lako!\n\nTunatumia huduma ya Tafsiri ya Google kwa ujanibishaji. Ikiwa utapata makosa, tafadhali tujulishe.\n"
    },
    {
      "Lang": "ta",
      "Title": "ஆங்கில இலக்கண பயிற்சிகள் | எளிய இந்தியா ⭐️ #77 Could you?",
      "Description": "ஆங்கில இலக்கணம் கற்றுக்கொள்ளுங்கள்! ஒரு வாக்கியத்தில் ஒரு வார்த்தையை மாற்றவும்.\n\n\n\n0:05 1:18 2:31 \nCould you sing a song ?\nkʊd ju sɪŋ ə sɔŋ \nநீங்கள் ஒரு பாடலைப் பாட முடியுமா?\n\n0:19 1:32 2:45 \nCould you wait a moment ?\nkʊd ju wet ə ˈmoʊmənt \nநீங்கள் ஒரு கணம் காத்திருக்க முடியுமா?\n\n0:33 1:46 2:59 \nCould you open the window ?\nkʊd ju ˈoʊpən ðə ˈwɪndoʊ \nசாளரத்தைத் திறக்க முடியுமா?\n\n0:47 2:00 3:13 \nCould you play music ?\nkʊd ju ple mˈjuzɪk \nநீங்கள் இசை விளையாட முடியுமா?\n\n1:01 2:14 3:27 \nCould you open the door ?\nkʊd ju ˈoʊpən ðə dɔr \nநீங்கள் கதவைத் திறக்க முடியுமா?\n\n\n\nஆசிரியர்கள் மற்றும் பள்ளிகளுக்கு:\nஇந்த வீடியோ கிரியேட்டிவ் காமன்ஸ் உரிமத்தின் கீழ் வெளியிடப்பட்டுள்ளது.\n  CC BY 3.0 https://creativecommons.org/licenses/by/3.0/ \nஉங்கள் வகுப்புகளில் இந்த வீடியோவைப் பயன்படுத்த தயங்காதீர்கள்!\n\nஉள்ளூர்மயமாக்க Google மொழிபெயர்ப்பு சேவையைப் பயன்படுத்துகிறோம். நீங்கள் சில தவறுகளைக் கண்டால், எங்களுக்குத் தெரியப்படுத்துங்கள்.\n"
    },
    {
      "Lang": "te",
      "Title": "ఇంగ్లీష్ వ్యాకరణ వ్యాయామాలు | సాధారణ భారతదేశం ⭐️ #77 Could you?",
      "Description": "ఇంగ్లీష్ వ్యాకరణం నేర్చుకోండి! ఒక వాక్యంలో ఒక పదాన్ని మార్చండి.\n\n\n\n0:05 1:18 2:31 \nCould you sing a song ?\nkʊd ju sɪŋ ə sɔŋ \nమీరు పాట పాడగలరా?\n\n0:19 1:32 2:45 \nCould you wait a moment ?\nkʊd ju wet ə ˈmoʊmənt \nమీరు ఒక్క క్షణం వేచి ఉండగలరా?\n\n0:33 1:46 2:59 \nCould you open the window ?\nkʊd ju ˈoʊpən ðə ˈwɪndoʊ \nమీరు విండోను తెరవగలరా?\n\n0:47 2:00 3:13 \nCould you play music ?\nkʊd ju ple mˈjuzɪk \nమీరు సంగీతం ఆడగలరా?\n\n1:01 2:14 3:27 \nCould you open the door ?\nkʊd ju ˈoʊpən ðə dɔr \nమీరు తలుపు తెరవగలరా?\n\n\n\nఉపాధ్యాయులకు మరియు పాఠశాలలకు:\nఈ వీడియో క్రియేటివ్ కామన్స్ లైసెన్స్ క్రింద ప్రచురించబడింది.\n  CC BY 3.0 https://creativecommons.org/licenses/by/3.0/ \nమీ తరగతుల్లో ఈ వీడియోను ఉపయోగించడానికి సంకోచించకండి!\n\nస్థానికీకరణ కోసం మేము Google అనువాద సేవను ఉపయోగిస్తాము. మీరు కొన్ని తప్పులు కనుగొంటే, దయచేసి మాకు తెలియజేయండి.\n"
    },
    {
      "Lang": "tg",
      "Title": "Машқҳои грамматикаи забони англисӣ | Оддӣ Ҳиндустон ⭐️ #77 Could you?",
      "Description": "Грамматикаи забони англисиро омӯзед! Калимаро дар як ҷумла иваз кунед.\n\n\n\n0:05 1:18 2:31 \nCould you sing a song ?\nkʊd ju sɪŋ ə sɔŋ \nМетавонед суруд хонед?\n\n0:19 1:32 2:45 \nCould you wait a moment ?\nkʊd ju wet ə ˈmoʊmənt \nМетавонед як лаҳза интизор шавед?\n\n0:33 1:46 2:59 \nCould you open the window ?\nkʊd ju ˈoʊpən ðə ˈwɪndoʊ \nШумо тирезаро мекушоед?\n\n0:47 2:00 3:13 \nCould you play music ?\nkʊd ju ple mˈjuzɪk \nШумо метавонед мусиқӣ нависед?\n\n1:01 2:14 3:27 \nCould you open the door ?\nkʊd ju ˈoʊpən ðə dɔr \nШумо метавонед дарро боз кунед?\n\n\n\nБа муаллимон ва мактабҳо:\nИн видео зери иҷозатномаи Creative Commons нашр шудааст.\n  CC BY 3.0 https://creativecommons.org/licenses/by/3.0/ \nИн видеоро дар дарсҳои худ истифода баред!\n\nМо барои локализатсия аз хидмати Google Translate истифода мебарем. Агар шумо ягон хатогӣ дарёфт кунед, лутфан ба мо хабар диҳед.\n"
    },
    {
      "Lang": "th",
      "Title": "แบบฝึกหัดไวยากรณ์ภาษาอังกฤษ | ง่าย อินเดีย ⭐️ #77 Could you?",
      "Description": "เรียนรู้ไวยากรณ์ภาษาอังกฤษ! เปลี่ยนคำในประโยค\n\n\n\n0:05 1:18 2:31 \nCould you sing a song ?\nkʊd ju sɪŋ ə sɔŋ \nคุณร้องเพลงได้ไหม\n\n0:19 1:32 2:45 \nCould you wait a moment ?\nkʊd ju wet ə ˈmoʊmənt \nรอสักครู่ได้ไหม\n\n0:33 1:46 2:59 \nCould you open the window ?\nkʊd ju ˈoʊpən ðə ˈwɪndoʊ \nคุณเปิดหน้าต่างได้ไหม\n\n0:47 2:00 3:13 \nCould you play music ?\nkʊd ju ple mˈjuzɪk \nคุณเล่นเพลงได้ไหม\n\n1:01 2:14 3:27 \nCould you open the door ?\nkʊd ju ˈoʊpən ðə dɔr \nคุณเปิดประตูได้ไหม\n\n\n\nถึงครูและโรงเรียน:\nวิดีโอนี้เผยแพร่ภายใต้สัญญาอนุญาตครีเอทีฟคอมมอนส์\n  CC BY 3.0 https://creativecommons.org/licenses/by/3.0/ \nอย่าลังเลที่จะใช้วิดีโอนี้ในชั้นเรียนของคุณ!\n\nเราใช้บริการ Google แปลภาษาเพื่อการแปล หากคุณพบข้อผิดพลาดบางอย่างโปรดแจ้งให้เราทราบ\n"
    },
    {
      "Lang": "tr",
      "Title": "İngilizce gramer çalışmaları | Basit Hindistan ⭐️ #77 Could you?",
      "Description": "İngilizce gramerini öğren! Bir cümle içindeki bir kelimeyi değiştirin.\n\n\n\n0:05 1:18 2:31 \nCould you sing a song ?\nkʊd ju sɪŋ ə sɔŋ \nBir şarkı söyleyebilir misin?\n\n0:19 1:32 2:45 \nCould you wait a moment ?\nkʊd ju wet ə ˈmoʊmənt \nBiraz bekler misin?\n\n0:33 1:46 2:59 \nCould you open the window ?\nkʊd ju ˈoʊpən ðə ˈwɪndoʊ \nPencereyi açabilir miydin ?\n\n0:47 2:00 3:13 \nCould you play music ?\nkʊd ju ple mˈjuzɪk \nMüzik çalabilir misin?\n\n1:01 2:14 3:27 \nCould you open the door ?\nkʊd ju ˈoʊpən ðə dɔr \nKapıyı açar mısın ?\n\n\n\nÖğretmenlere ve okullara:\nBu video Creative Commons License. Altında yayınlandı.\n  CC BY 3.0 https://creativecommons.org/licenses/by/3.0/ \nBu videoyu derslerinizde kullanmaktan çekinmeyin!\n\nYerelleştirme için Google Çeviri hizmetini kullanıyoruz. Bazı hatalar bulursanız lütfen bize bildirin.\n"
    },
    {
      "Lang": "uk",
      "Title": "Граматичні вправи з англійської мови | Простий Індія ⭐️ #77 Could you?",
      "Description": "Вивчіть англійську граматику! Змініть слово у реченні.\n\n\n\n0:05 1:18 2:31 \nCould you sing a song ?\nkʊd ju sɪŋ ə sɔŋ \nВи могли б заспівати пісню?\n\n0:19 1:32 2:45 \nCould you wait a moment ?\nkʊd ju wet ə ˈmoʊmənt \nВи можете зачекати хвилинку?\n\n0:33 1:46 2:59 \nCould you open the window ?\nkʊd ju ˈoʊpən ðə ˈwɪndoʊ \nНе могли б ви відкрити вікно?\n\n0:47 2:00 3:13 \nCould you play music ?\nkʊd ju ple mˈjuzɪk \nНе могли б ви грати музику?\n\n1:01 2:14 3:27 \nCould you open the door ?\nkʊd ju ˈoʊpən ðə dɔr \nНе могли б ви відкрити двері?\n\n\n\nДля вчителів та шкіл:\nЦе відео опубліковане під ліцензією Creative Commons.\n  CC BY 3.0 https://creativecommons.org/licenses/by/3.0/ \nСміливо використовуйте це відео у своїх класах!\n\nМи використовуємо послугу Google Translate для локалізації. Якщо ви виявили деякі помилки, повідомте нас про це.\n"
    },
    {
      "Lang": "ur",
      "Title": "انگریزی گرائمر کی ورزشیں | آسان ہندوستان ⭐️ #77 Could you?",
      "Description": "انگریزی گرائمر سیکھیں! ایک جملے میں ایک لفظ تبدیل کریں۔\n\n\n\n0:05 1:18 2:31 \nCould you sing a song ?\nkʊd ju sɪŋ ə sɔŋ \nکیا آپ گانا گا سکتے ہیں؟\n\n0:19 1:32 2:45 \nCould you wait a moment ?\nkʊd ju wet ə ˈmoʊmənt \nکیا آپ ایک لمحہ انتظار کرسکتے ہیں؟\n\n0:33 1:46 2:59 \nCould you open the window ?\nkʊd ju ˈoʊpən ðə ˈwɪndoʊ \nکیا آپ کھڑکی کھول سکتے ہیں؟\n\n0:47 2:00 3:13 \nCould you play music ?\nkʊd ju ple mˈjuzɪk \nکیا آپ میوزک چلا سکتے ہیں؟\n\n1:01 2:14 3:27 \nCould you open the door ?\nkʊd ju ˈoʊpən ðə dɔr \nکیا آپ دروازہ کھول سکتے ہیں؟\n\n\n\nاساتذہ اور اسکولوں کے لئے:\nیہ ویڈیو تخلیقی العام لائسنس کے تحت شائع ہوا ہے۔\n  CC BY 3.0 https://creativecommons.org/licenses/by/3.0/ \nاپنی ویڈیو کو اپنی کلاسوں میں آزادانہ طور پر استعمال کریں!\n\nہم لوکلائزیشن کے لئے گوگل ٹرانسلیٹ سروس استعمال کرتے ہیں۔ اگر آپ کو کچھ غلطیاں ملتی ہیں تو ، براہ کرم ہمیں بتائیں۔\n"
    },
    {
      "Lang": "uz",
      "Title": "Ingliz tili grammatik mashqlari | Oddiy Hindiston ⭐️ #77 Could you?",
      "Description": "Ingliz tilining grammatikasini o'rganing! Bir so'zni jumlada o'zgartiring.\n\n\n\n0:05 1:18 2:31 \nCould you sing a song ?\nkʊd ju sɪŋ ə sɔŋ \nSiz qo'shiq kuylay olasizmi?\n\n0:19 1:32 2:45 \nCould you wait a moment ?\nkʊd ju wet ə ˈmoʊmənt \nBir oz kutib tura olasizmi?\n\n0:33 1:46 2:59 \nCould you open the window ?\nkʊd ju ˈoʊpən ðə ˈwɪndoʊ \nOynani ocholmaysizmi?\n\n0:47 2:00 3:13 \nCould you play music ?\nkʊd ju ple mˈjuzɪk \nMusiqa tinglay olasizmi?\n\n1:01 2:14 3:27 \nCould you open the door ?\nkʊd ju ˈoʊpən ðə dɔr \nEshikni ocholmaysizmi?\n\n\n\nO'qituvchilar va maktablarga:\nUshbu video Creative Commons litsenziyasi ostida joylashtirilgan.\n  CC BY 3.0 https://creativecommons.org/licenses/by/3.0/ \nUshbu videoni o'z sinflaringizda ishlatish bepul!\n\nBiz Google Translate xizmatidan lokalizatsiya uchun foydalanamiz. Agar siz biron bir xato topsangiz, iltimos, bizga xabar bering.\n"
    },
    {
      "Lang": "vi",
      "Title": "Bài tập ngữ pháp tiếng anh | Đơn giản Ấn Độ ⭐️ #77 Could you?",
      "Description": "Học ngữ pháp tiếng Anh! Thay đổi một từ trong một câu.\n\n\n\n0:05 1:18 2:31 \nCould you sing a song ?\nkʊd ju sɪŋ ə sɔŋ \nBạn có thể hát một bài hát không?\n\n0:19 1:32 2:45 \nCould you wait a moment ?\nkʊd ju wet ə ˈmoʊmənt \nBạn có thể đợi một lát không?\n\n0:33 1:46 2:59 \nCould you open the window ?\nkʊd ju ˈoʊpən ðə ˈwɪndoʊ \nBạn có thể mở cửa sổ giúp tôi được không ?\n\n0:47 2:00 3:13 \nCould you play music ?\nkʊd ju ple mˈjuzɪk \nBạn có thể chơi nhạc không?\n\n1:01 2:14 3:27 \nCould you open the door ?\nkʊd ju ˈoʊpən ðə dɔr \nBạn có thể mở cửa?\n\n\n\nGửi giáo viên và nhà trường:\nVideo này được xuất bản theo Giấy phép Creative Commons.\n  CC BY 3.0 https://creativecommons.org/licenses/by/3.0/ \nHãy sử dụng video này trong các lớp học của bạn!\n\nChúng tôi sử dụng dịch vụ Google Dịch để bản địa hóa. Nếu bạn tìm thấy một số sai lầm, xin vui lòng cho chúng tôi biết.\n"
    },
    {
      "Lang": "xh",
      "Title": "Ukuziqhelanisa negrama yesiNgesi | Elula Indiya ⭐️ #77 Could you?",
      "Description": "Funda igrama yesiNgesi! Guqula igama kwisivakalisi.\n\n\n\n0:05 1:18 2:31 \nCould you sing a song ?\nkʊd ju sɪŋ ə sɔŋ \nNgaba ungacula ingoma?\n\n0:19 1:32 2:45 \nCould you wait a moment ?\nkʊd ju wet ə ˈmoʊmənt \nNgaba ungalinda umzuzwana?\n\n0:33 1:46 2:59 \nCould you open the window ?\nkʊd ju ˈoʊpən ðə ˈwɪndoʊ \nNgaba ungavula ifestile?\n\n0:47 2:00 3:13 \nCould you play music ?\nkʊd ju ple mˈjuzɪk \nNgaba ungawudlala umculo?\n\n1:01 2:14 3:27 \nCould you open the door ?\nkʊd ju ˈoʊpən ðə dɔr \nNgaba ungavula ucango?\n\n\n\nKootitshala nakwizikolo:\nLe vidiyo ipapashwa phantsi kwelayisensi yeCreative Commons.\n  CC BY 3.0 https://creativecommons.org/licenses/by/3.0/ \nZive ukhululekile ukusebenzisa le vidiyo kwiiklasi zakho!\n\nSisebenzisa inkonzo yokuTolika kaGoogle ukuze sifumane indawo. Ukuba ufumana iimpazamo ezithile, nceda usazise.\n"
    },
    {
      "Lang": "yi",
      "Title": "ענגליש גראַמאַטיק עקסערסייזיז | פּשוט ינדיאַ ⭐️ #77 Could you?",
      "Description": "לערן ענגליש גראַמאַטיק! טוישן אַ וואָרט אין אַ זאַץ.\n\n\n\n0:05 1:18 2:31 \nCould you sing a song ?\nkʊd ju sɪŋ ə sɔŋ \nקען איר זינגען אַ ליד?\n\n0:19 1:32 2:45 \nCould you wait a moment ?\nkʊd ju wet ə ˈmoʊmənt \nקען איר וואַרטן אַ מאָמענט?\n\n0:33 1:46 2:59 \nCould you open the window ?\nkʊd ju ˈoʊpən ðə ˈwɪndoʊ \nקען איר עפענען די פֿענצטער?\n\n0:47 2:00 3:13 \nCould you play music ?\nkʊd ju ple mˈjuzɪk \nקען איר שפּילן מוזיק?\n\n1:01 2:14 3:27 \nCould you open the door ?\nkʊd ju ˈoʊpən ðə dɔr \nקען איר עפֿענען די טיר?\n\n\n\nצו לערערס און שולן:\nדער ווידעא איז ארויס אונטער Creative Commons License.\n  CC BY 3.0 https://creativecommons.org/licenses/by/3.0/ \nפילן פריי צו נוצן דעם ווידעא אין דיין קלאסן!\n\nמיר נוצן Google Translate דינסט פֿאַר לאָוקאַלאַזיישאַן. אויב איר געפֿינען עטלעכע מיסטייקס, ביטע לאָזן אונדז וויסן.\n"
    },
    {
      "Lang": "yo",
      "Title": "Awọn adaṣe gẹẹsi Gẹẹsi | Rọrun India ⭐️ #77 Could you?",
      "Description": "Kọ ẹkọ gẹẹsi Gẹẹsi! Yi ọrọ pada ninu gbolohun ọrọ.\n\n\n\n0:05 1:18 2:31 \nCould you sing a song ?\nkʊd ju sɪŋ ə sɔŋ \nṢe o le kọ orin kan?\n\n0:19 1:32 2:45 \nCould you wait a moment ?\nkʊd ju wet ə ˈmoʊmənt \nṢe o le duro diẹ diẹ?\n\n0:33 1:46 2:59 \nCould you open the window ?\nkʊd ju ˈoʊpən ðə ˈwɪndoʊ \nṢe o le ṣii window naa?\n\n0:47 2:00 3:13 \nCould you play music ?\nkʊd ju ple mˈjuzɪk \nṢe o le mu orin ṣiṣẹ?\n\n1:01 2:14 3:27 \nCould you open the door ?\nkʊd ju ˈoʊpən ðə dɔr \nṢe o le ṣii ilẹkun?\n\n\n\nSi awọn olukọ ati awọn ile-iwe:\nFidio yii ni a tẹjade labẹ Iwe-aṣẹ Creative Commons.\n  CC BY 3.0 https://creativecommons.org/licenses/by/3.0/ \nLero lati lo fidio yii ninu awọn kilasi rẹ!\n\nA lo iṣẹ Google Translate fun agbegbe. Ti o ba rii diẹ ninu awọn aṣiṣe, jọwọ jẹ ki a mọ.\n"
    },
    {
      "Lang": "zh-Hans",
      "Title": "英语语法练习 | 简单 印度 ⭐️ #77 Could you?",
      "Description": "学习英语语法！ 更改句子中的单词。\n\n\n\n0:05 1:18 2:31 \nCould you sing a song ?\nkʊd ju sɪŋ ə sɔŋ \n你可以唱歌吗？\n\n0:19 1:32 2:45 \nCould you wait a moment ?\nkʊd ju wet ə ˈmoʊmənt \n你可以等一下吗？\n\n0:33 1:46 2:59 \nCould you open the window ?\nkʊd ju ˈoʊpən ðə ˈwɪndoʊ \n你能打开窗户吗？\n\n0:47 2:00 3:13 \nCould you play music ?\nkʊd ju ple mˈjuzɪk \n你可以播放音乐吗？\n\n1:01 2:14 3:27 \nCould you open the door ?\nkʊd ju ˈoʊpən ðə dɔr \n你能开门吗？\n\n\n\n致老师和学校：\n该视频是根据知识共享许可发布的。\n  CC BY 3.0 https://creativecommons.org/licenses/by/3.0/ \n随时在您的课程中使用此视频！\n\n我们使用Google翻译服务进行本地化。如果您发现一些错误，请告诉我们。\n"
    },
    {
      "Lang": "zh-Hant",
      "Title": "英語語法練習 | 簡單 印度 ⭐️ #77 Could you?",
      "Description": "學習英語語法！ 更改句子中的單詞。\n\n\n\n0:05 1:18 2:31 \nCould you sing a song ?\nkʊd ju sɪŋ ə sɔŋ \n你可以唱歌嗎？\n\n0:19 1:32 2:45 \nCould you wait a moment ?\nkʊd ju wet ə ˈmoʊmənt \n你可以等一下嗎？\n\n0:33 1:46 2:59 \nCould you open the window ?\nkʊd ju ˈoʊpən ðə ˈwɪndoʊ \n你能打開窗戶嗎？\n\n0:47 2:00 3:13 \nCould you play music ?\nkʊd ju ple mˈjuzɪk \n你可以播放音樂嗎？\n\n1:01 2:14 3:27 \nCould you open the door ?\nkʊd ju ˈoʊpən ðə dɔr \n你能開門嗎？\n\n\n\n致老師和學校：\n該視頻是根據知識共享許可發布的。\n  CC BY 3.0 https://creativecommons.org/licenses/by/3.0/ \n隨時在您的課程中使用此視頻！\n\n我們使用Google翻譯服務進行本地化。如果您發現一些錯誤，請告訴我們。\n"
    },
    {
      "Lang": "zu",
      "Title": "Ukuzivocavoca kolimi lwesiNgisi | Elula India ⭐️ #77 Could you?",
      "Description": "Funda uhlelo lolimi lwesiNgisi! Shintsha igama emshweni.\n\n\n\n0:05 1:18 2:31 \nCould you sing a song ?\nkʊd ju sɪŋ ə sɔŋ \nUngacula iculo?\n\n0:19 1:32 2:45 \nCould you wait a moment ?\nkʊd ju wet ə ˈmoʊmənt \nUngalinda isikhashana?\n\n0:33 1:46 2:59 \nCould you open the window ?\nkʊd ju ˈoʊpən ðə ˈwɪndoʊ \nUngavula iwindi?\n\n0:47 2:00 3:13 \nCould you play music ?\nkʊd ju ple mˈjuzɪk \nUngawudlala umculo?\n\n1:01 2:14 3:27 \nCould you open the door ?\nkʊd ju ˈoʊpən ðə dɔr \nUngavula umnyango?\n\n\n\nKothisha nasezikoleni:\nLe vidiyo ishicilelwe ngaphansi kwelayisensi yeCreative Commons.\n  CC BY 3.0 https://creativecommons.org/licenses/by/3.0/ \nZizwe ukhululekile ukusebenzisa le vidiyo emakilasini akho!\n\nSisebenzisa insiza ye-Google Humusha ukwenza okwasendaweni. Uma uthola amanye amaphutha, sicela usazise.\n"
    }
  ]
}