{
  "File": "grammar-en-beginner-simple_69_A.mp4",
  "ID": "o_bWE9WEd8Y",
  "AudioLang": "en",
  "DefaultLang": "sw",
  "Title": "Mazoezi ya sarufi ya Kiingereza | Rahisi ⭐️ #69 might",
  "Description": "Jifunze sarufi ya Kiingereza! Badilisha neno katika sentensi.\n\n\n\n0:04 1:18 2:32 \nHe might go to the library\nhi maɪt goʊ tɪ ðə ˈlaɪbrɛˌri\nAnaweza kwenda maktaba\n\n0:19 1:33 2:47 \nHe might go to work\nhi maɪt goʊ tɪ wərk\nAnaweza kwenda kufanya kazi\n\n0:32 1:46 3:00 \nI might go to work\naɪ maɪt goʊ tɪ wərk\nNipate kwenda kufanya kazi\n\n0:46 2:00 3:14 \nI might not go to work\naɪ maɪt nɑt goʊ tɪ wərk\nLabda nisiende kazini\n\n0:59 2:13 3:27 \nHe might not go to work\nhi maɪt nɑt goʊ tɪ wərk\nLabda asiende kazini\n\n\n\nKwa waalimu na shule:\nVideo hii imechapishwa chini ya Leseni ya Creative Commons.\n  CC BY 3.0 https://creativecommons.org/licenses/by/3.0/ \nJisikie huru kutumia video hii kwenye darasa lako!\n\nTunatumia huduma ya Tafsiri ya Google kwa ujanibishaji. Ikiwa utapata makosa, tafadhali tujulishe.\n",
  "VideoTags": "Sarufi ya Kiingereza,Ingliz tili grammatikasi,Angleška slovnica,Граматыка англійскай мовы,английская грамматика,انگریزی قواعد,ইংরেজি ব্যাকরণ,ഇംഗ്ലീഷ് വ്യാകരണം,የእንግሊዝኛ ሰዋስው,Ingelske grammatika,Grammar anglisy,Sehopotso sa Senyesemane,Gramadeg Saesneg,Engelse grammatika,anglická gramatika",
  "YoutubeSynced": true,
  "ThumbnailUploaded": true,
  "Localizations": [
    {
      "Lang": "af",
      "Title": "Engelse grammatika-oefeninge | eenvoudige ⭐️ #69 might",
      "Description": "Leer Engelse grammatika! Verander 'n woord in 'n sin.\n\n\n\n0:04 1:18 2:32 \nHe might go to the library\nhi maɪt goʊ tɪ ðə ˈlaɪbrɛˌri\nHy gaan moontlik na die biblioteek\n\n0:19 1:33 2:47 \nHe might go to work\nhi maɪt goʊ tɪ wərk\nHy gaan dalk werk toe\n\n0:32 1:46 3:00 \nI might go to work\naɪ maɪt goʊ tɪ wərk\nEk sal miskien werk toe gaan\n\n0:46 2:00 3:14 \nI might not go to work\naɪ maɪt nɑt goʊ tɪ wərk\nEk sal miskien nie werk toe gaan nie\n\n0:59 2:13 3:27 \nHe might not go to work\nhi maɪt nɑt goʊ tɪ wərk\nHy gaan miskien nie werk toe nie\n\n\n\nAan onderwysers en skole:\nHierdie video word onder Creative Commons-lisensie gepubliseer.\n  CC BY 3.0 https://creativecommons.org/licenses/by/3.0/ \nGebruik gerus hierdie video in u klasse!\n\nOns gebruik Google Translate-diens vir lokalisering. Laat weet ons as u foute ervaar.\n"
    },
    {
      "Lang": "am",
      "Title": "የእንግሊዝኛ ሰዋሰው ልምምዶች | ቀላል ⭐️ #69 might",
      "Description": "የእንግሊዝኛ ሰዋስው ይማሩ! በአረፍተ ነገር ውስጥ አንድ ቃል ይለውጡ ፡፡\n\n\n\n0:04 1:18 2:32 \nHe might go to the library\nhi maɪt goʊ tɪ ðə ˈlaɪbrɛˌri\nወደ ቤተመጽሐፍቱ ሊሄድ ይችላል\n\n0:19 1:33 2:47 \nHe might go to work\nhi maɪt goʊ tɪ wərk\nወደ ሥራው ሊሄድ ይችላል\n\n0:32 1:46 3:00 \nI might go to work\naɪ maɪt goʊ tɪ wərk\nወደ ሥራ መሄድ እችል ነበር\n\n0:46 2:00 3:14 \nI might not go to work\naɪ maɪt nɑt goʊ tɪ wərk\nወደ ሥራ መሄድ አልችል ይሆናል\n\n0:59 2:13 3:27 \nHe might not go to work\nhi maɪt nɑt goʊ tɪ wərk\nወደ ሥራው ላይሄድ ይችላል\n\n\n\nለመምህራን እና ለት / ቤቶች\nይህ ቪዲዮ በ Creative Commons ፈቃድ ስር ታትሟል ፡፡\n  CC BY 3.0 https://creativecommons.org/licenses/by/3.0/ \nይህንን ቪዲዮ በትምህርቶችዎ ውስጥ ለመጠቀም ነፃ ይሁኑ!\n\nለትርጉም የ Google ትርጉም አገልግሎትን እንጠቀማለን። አንዳንድ ስህተቶች ካገኙ እባክዎ ያሳውቁን።\n"
    },
    {
      "Lang": "ar",
      "Title": "تمارين قواعد اللغة الإنجليزية | بسيط ⭐️ #69 might",
      "Description": "تعلم قواعد اللغة الإنجليزية! تغيير كلمة في جملة.\n\n\n\n0:04 1:18 2:32 \nHe might go to the library\nhi maɪt goʊ tɪ ðə ˈlaɪbrɛˌri\nقد يذهب إلى المكتبة\n\n0:19 1:33 2:47 \nHe might go to work\nhi maɪt goʊ tɪ wərk\nقد يذهب إلى العمل\n\n0:32 1:46 3:00 \nI might go to work\naɪ maɪt goʊ tɪ wərk\nقد أذهب إلى العمل\n\n0:46 2:00 3:14 \nI might not go to work\naɪ maɪt nɑt goʊ tɪ wərk\nقد لا أذهب إلى العمل\n\n0:59 2:13 3:27 \nHe might not go to work\nhi maɪt nɑt goʊ tɪ wərk\nقد لا يذهب إلى العمل\n\n\n\nللمعلمين والمدارس:\nتم نشر هذا الفيديو تحت رخصة المشاع الإبداعي.\n  CC BY 3.0 https://creativecommons.org/licenses/by/3.0/ \nلا تتردد في استخدام هذا الفيديو في الفصول الدراسية!\n\nنستخدم خدمة الترجمة من Google للترجمة. إذا وجدت بعض الأخطاء ، يرجى إعلامنا.\n"
    },
    {
      "Lang": "az",
      "Title": "İngilis qrammatikası təlimləri | Sadə ⭐️ #69 might",
      "Description": "İngilis dili qrammatikasını öyrənin! Bir cümlədə bir söz dəyişdirin.\n\n\n\n0:04 1:18 2:32 \nHe might go to the library\nhi maɪt goʊ tɪ ðə ˈlaɪbrɛˌri\nKitabxanaya gedə bilər\n\n0:19 1:33 2:47 \nHe might go to work\nhi maɪt goʊ tɪ wərk\nİşə gedə bilər\n\n0:32 1:46 3:00 \nI might go to work\naɪ maɪt goʊ tɪ wərk\nİşə gedə bilərəm\n\n0:46 2:00 3:14 \nI might not go to work\naɪ maɪt nɑt goʊ tɪ wərk\nİşə getməyəcəyəm\n\n0:59 2:13 3:27 \nHe might not go to work\nhi maɪt nɑt goʊ tɪ wərk\nİşə getməməsi ola bilər\n\n\n\nMüəllimlərə və məktəblərə:\nBu video Creative Commons lisenziyası altında yayımlanıb.\n  CC BY 3.0 https://creativecommons.org/licenses/by/3.0/ \nBu videonu dərslərinizdə istifadə etməkdən çekinmeyin!\n\nLokallaşdırma üçün Google Translate xidmətindən istifadə edirik. Bəzi səhvlər taparsanız, bizə bildirin.\n"
    },
    {
      "Lang": "be",
      "Title": "Граматычныя практыкаванні на англійскай мове | Просты ⭐️ #69 might",
      "Description": "Вывучайце англійскую граматыку! Змяніце слова ў сказе.\n\n\n\n0:04 1:18 2:32 \nHe might go to the library\nhi maɪt goʊ tɪ ðə ˈlaɪbrɛˌri\nЁн можа пайсці ў бібліятэку\n\n0:19 1:33 2:47 \nHe might go to work\nhi maɪt goʊ tɪ wərk\nЁн можа пайсці працаваць\n\n0:32 1:46 3:00 \nI might go to work\naɪ maɪt goʊ tɪ wərk\nЯ мог бы пайсці на працу\n\n0:46 2:00 3:14 \nI might not go to work\naɪ maɪt nɑt goʊ tɪ wərk\nЯ, магчыма, не іду на працу\n\n0:59 2:13 3:27 \nHe might not go to work\nhi maɪt nɑt goʊ tɪ wərk\nЁн можа і не працаваць\n\n\n\nДля настаўнікаў і школ:\nГэта відэа публікуецца пад ліцэнзіяй Creative Commons.\n  CC BY 3.0 https://creativecommons.org/licenses/by/3.0/ \nНе саромейцеся выкарыстоўваць гэта відэа ў сваіх класах!\n\nМы выкарыстоўваем паслугу Google Translate для лакалізацыі. Калі вы выявілі некаторыя памылкі, калі ласка, паведаміце нам пра гэта.\n"
    },
    {
      "Lang": "bg",
      "Title": "Английски граматически упражнения | прост ⭐️ #69 might",
      "Description": "Научете английска граматика! Промяна на дума в изречение.\n\n\n\n0:04 1:18 2:32 \nHe might go to the library\nhi maɪt goʊ tɪ ðə ˈlaɪbrɛˌri\nМоже да отиде в библиотеката\n\n0:19 1:33 2:47 \nHe might go to work\nhi maɪt goʊ tɪ wərk\nМоже да отиде на работа\n\n0:32 1:46 3:00 \nI might go to work\naɪ maɪt goʊ tɪ wərk\nМоже да отида на работа\n\n0:46 2:00 3:14 \nI might not go to work\naɪ maɪt nɑt goʊ tɪ wərk\nМоже да не ходя на работа\n\n0:59 2:13 3:27 \nHe might not go to work\nhi maɪt nɑt goʊ tɪ wərk\nМоже да не ходи на работа\n\n\n\nЗа учители и училища:\nТози видеоклип е публикуван под Creative Commons License.\n  CC BY 3.0 https://creativecommons.org/licenses/by/3.0/ \nЧувствайте се свободни да използвате това видео в класовете си!\n\nНие използваме услугата Google Translate за локализация. Ако откриете някои грешки, моля, уведомете ни.\n"
    },
    {
      "Lang": "bn",
      "Title": "ইংরেজি ব্যাকরণ অনুশীলন | সহজ ⭐️ #69 might",
      "Description": "ইংরেজি ব্যাকরণ শিখুন! একটি বাক্যে একটি শব্দ পরিবর্তন করুন।\n\n\n\n0:04 1:18 2:32 \nHe might go to the library\nhi maɪt goʊ tɪ ðə ˈlaɪbrɛˌri\nতিনি লাইব্রেরিতে যেতে পারেন\n\n0:19 1:33 2:47 \nHe might go to work\nhi maɪt goʊ tɪ wərk\nসে কাজে যেতে পারে\n\n0:32 1:46 3:00 \nI might go to work\naɪ maɪt goʊ tɪ wərk\nআমি হয়ত কাজে যাব\n\n0:46 2:00 3:14 \nI might not go to work\naɪ maɪt nɑt goʊ tɪ wərk\nআমি হয়ত কাজে যাব না\n\n0:59 2:13 3:27 \nHe might not go to work\nhi maɪt nɑt goʊ tɪ wərk\nসে হয়তো কাজে না যায়\n\n\n\nশিক্ষক এবং বিদ্যালয়ের কাছে:\nএই ভিডিওটি ক্রিয়েটিভ কমন্স লাইসেন্সের আওতায় প্রকাশিত হয়েছে।\n  CC BY 3.0 https://creativecommons.org/licenses/by/3.0/ \nআপনার ক্লাসে এই ভিডিওটি নির্দ্বিধায় ব্যবহার করুন!\n\nআমরা স্থানীয়করণের জন্য গুগল অনুবাদ পরিষেবা ব্যবহার করি। আপনি যদি কিছু ভুল খুঁজে পান তবে দয়া করে আমাদের জানান।\n"
    },
    {
      "Lang": "bs",
      "Title": "Engleske gramatičke vježbe | Jednostavno ⭐️ #69 might",
      "Description": "Naučite englesku gramatiku! Promenite reč u rečenici.\n\n\n\n0:04 1:18 2:32 \nHe might go to the library\nhi maɪt goʊ tɪ ðə ˈlaɪbrɛˌri\nMožda će otići u biblioteku\n\n0:19 1:33 2:47 \nHe might go to work\nhi maɪt goʊ tɪ wərk\nMožda će ići na posao\n\n0:32 1:46 3:00 \nI might go to work\naɪ maɪt goʊ tɪ wərk\nMogla bih da odem na posao\n\n0:46 2:00 3:14 \nI might not go to work\naɪ maɪt nɑt goʊ tɪ wərk\nMožda ne bih išao na posao\n\n0:59 2:13 3:27 \nHe might not go to work\nhi maɪt nɑt goʊ tɪ wərk\nMožda neće ići na posao\n\n\n\nNastavnicima i školama:\nOvaj video je objavljen pod Creative Commons licencom.\n  CC BY 3.0 https://creativecommons.org/licenses/by/3.0/ \nSlobodno koristite ovaj videozapis u svojim predavanjima!\n\nZa lokalizaciju koristimo uslugu Google Translate. Ako pronađete neke greške, javite nam se.\n"
    },
    {
      "Lang": "ca",
      "Title": "Exercicis de gramàtica anglesa | Senzill ⭐️ #69 might",
      "Description": "Apreneu gramàtica anglesa! Canvia una paraula en una frase.\n\n\n\n0:04 1:18 2:32 \nHe might go to the library\nhi maɪt goʊ tɪ ðə ˈlaɪbrɛˌri\nPotser aniria a la biblioteca\n\n0:19 1:33 2:47 \nHe might go to work\nhi maɪt goʊ tɪ wərk\nPodria anar a treballar\n\n0:32 1:46 3:00 \nI might go to work\naɪ maɪt goʊ tɪ wərk\nPodria anar a treballar\n\n0:46 2:00 3:14 \nI might not go to work\naɪ maɪt nɑt goʊ tɪ wərk\nPotser no aniria a treballar\n\n0:59 2:13 3:27 \nHe might not go to work\nhi maɪt nɑt goʊ tɪ wərk\nÉs possible que no vagi a treballar\n\n\n\nA professors i escoles:\nAquest vídeo es publica sota llicència Creative Commons.\n  CC BY 3.0 https://creativecommons.org/licenses/by/3.0/ \nNo dubteu a utilitzar aquest vídeo a les vostres classes.\n\nUtilitzem el servei de Google Translate per a la localització. Si trobeu alguns errors, feu-nos-ho saber.\n"
    },
    {
      "Lang": "co",
      "Title": "Esercizii di grammatica inglese | Semplice ⭐️ #69 might",
      "Description": "Amparate a grammatica inglese! Cambia una parolla in una frase.\n\n\n\n0:04 1:18 2:32 \nHe might go to the library\nhi maɪt goʊ tɪ ðə ˈlaɪbrɛˌri\nPuderia à a biblioteca\n\n0:19 1:33 2:47 \nHe might go to work\nhi maɪt goʊ tɪ wərk\nPuderia andà à travaglià\n\n0:32 1:46 3:00 \nI might go to work\naɪ maɪt goʊ tɪ wərk\nForse à u travagliu\n\n0:46 2:00 3:14 \nI might not go to work\naɪ maɪt nɑt goʊ tɪ wərk\nPuderaghju micca di travaglià\n\n0:59 2:13 3:27 \nHe might not go to work\nhi maɪt nɑt goʊ tɪ wərk\nForse ùn puderia micca andà à travaglià\n\n\n\nÀ i prufessori è à e scole:\nStu video hè publicatu sottu licenza Creative Commons.\n  CC BY 3.0 https://creativecommons.org/licenses/by/3.0/ \nSentitevi liberi d'utilizà stu video in i vostri classi!\n\nUsu u serviziu di Google Translate per a localizazione. Se truvate qualchì sbagli, per piaceci di sapè.\n"
    },
    {
      "Lang": "cs",
      "Title": "Cvičení anglické gramatiky | Jednoduchý ⭐️ #69 might",
      "Description": "Naučte se anglickou gramatiku! Změňte slovo ve větě.\n\n\n\n0:04 1:18 2:32 \nHe might go to the library\nhi maɪt goʊ tɪ ðə ˈlaɪbrɛˌri\nMohl by jít do knihovny\n\n0:19 1:33 2:47 \nHe might go to work\nhi maɪt goʊ tɪ wərk\nMohl by jít do práce\n\n0:32 1:46 3:00 \nI might go to work\naɪ maɪt goʊ tɪ wərk\nMohl bych jít do práce\n\n0:46 2:00 3:14 \nI might not go to work\naɪ maɪt nɑt goʊ tɪ wərk\nMožná nebudu chodit do práce\n\n0:59 2:13 3:27 \nHe might not go to work\nhi maɪt nɑt goʊ tɪ wərk\nMožná nebude chodit do práce\n\n\n\nUčitelům a školám:\nToto video je publikováno pod licencí Creative Commons License.\n  CC BY 3.0 https://creativecommons.org/licenses/by/3.0/ \nNeváhejte použít toto video ve svých třídách!\n\nK lokalizaci používáme službu Google Translate. Pokud narazíte na nějaké chyby, dejte nám prosím vědět.\n"
    },
    {
      "Lang": "cy",
      "Title": "Ymarferion gramadeg Saesneg | Syml ⭐️ #69 might",
      "Description": "Dysgu gramadeg Saesneg! Newid gair mewn brawddeg.\n\n\n\n0:04 1:18 2:32 \nHe might go to the library\nhi maɪt goʊ tɪ ðə ˈlaɪbrɛˌri\nEfallai y bydd yn mynd i'r llyfrgell\n\n0:19 1:33 2:47 \nHe might go to work\nhi maɪt goʊ tɪ wərk\nEfallai y byddai'n mynd i'r gwaith\n\n0:32 1:46 3:00 \nI might go to work\naɪ maɪt goʊ tɪ wərk\nEfallai y byddaf yn mynd i'r gwaith\n\n0:46 2:00 3:14 \nI might not go to work\naɪ maɪt nɑt goʊ tɪ wərk\nEfallai na fyddaf yn mynd i'r gwaith\n\n0:59 2:13 3:27 \nHe might not go to work\nhi maɪt nɑt goʊ tɪ wərk\nEfallai na fydd yn mynd i'r gwaith\n\n\n\nI athrawon ac ysgolion:\nCyhoeddir y fideo hon o dan Creative Commons License.\n  CC BY 3.0 https://creativecommons.org/licenses/by/3.0/ \nMae croeso i chi ddefnyddio'r fideo hon yn eich dosbarthiadau!\n\nRydym yn defnyddio gwasanaeth Google Translate ar gyfer lleoleiddio. Os dewch chi o hyd i rai camgymeriadau, rhowch wybod i ni.\n"
    },
    {
      "Lang": "da",
      "Title": "Engelsk grammatikøvelser | Enkel ⭐️ #69 might",
      "Description": "Lær engelsk grammatik! Skift et ord i en sætning.\n\n\n\n0:04 1:18 2:32 \nHe might go to the library\nhi maɪt goʊ tɪ ðə ˈlaɪbrɛˌri\nHan går måske på biblioteket\n\n0:19 1:33 2:47 \nHe might go to work\nhi maɪt goʊ tɪ wərk\nHan går måske på arbejde\n\n0:32 1:46 3:00 \nI might go to work\naɪ maɪt goʊ tɪ wərk\nJeg går måske på arbejde\n\n0:46 2:00 3:14 \nI might not go to work\naɪ maɪt nɑt goʊ tɪ wərk\nJeg går måske ikke på arbejde\n\n0:59 2:13 3:27 \nHe might not go to work\nhi maɪt nɑt goʊ tɪ wərk\nHan går måske ikke på arbejde\n\n\n\nTil lærere og skoler:\nDenne video er offentliggjort under Creative Commons License.\n  CC BY 3.0 https://creativecommons.org/licenses/by/3.0/ \nBrug gjerne denne video i dine klasser!\n\nVi bruger Google Translate-tjenesten til lokalisering. Hvis du finder nogle fejl, så lad os vide det.\n"
    },
    {
      "Lang": "de",
      "Title": "Englische Grammatikübungen | Einfach ⭐️ #69 might",
      "Description": "Lerne englische Grammatik! Ändern Sie ein Wort in einem Satz.\n\n\n\n0:04 1:18 2:32 \nHe might go to the library\nhi maɪt goʊ tɪ ðə ˈlaɪbrɛˌri\nEr könnte in die Bibliothek gehen\n\n0:19 1:33 2:47 \nHe might go to work\nhi maɪt goʊ tɪ wərk\nEr könnte zur Arbeit gehen\n\n0:32 1:46 3:00 \nI might go to work\naɪ maɪt goʊ tɪ wərk\nIch könnte zur Arbeit gehen\n\n0:46 2:00 3:14 \nI might not go to work\naɪ maɪt nɑt goʊ tɪ wərk\nIch könnte nicht zur Arbeit gehen\n\n0:59 2:13 3:27 \nHe might not go to work\nhi maɪt nɑt goʊ tɪ wərk\nEr könnte nicht zur Arbeit gehen\n\n\n\nAn Lehrer und Schulen:\nDieses Video wird unter der Creative Commons License veröffentlicht.\n  CC BY 3.0 https://creativecommons.org/licenses/by/3.0/ \nFühlen Sie sich frei, dieses Video in Ihren Klassen zu verwenden!\n\nWir verwenden den Google Translate-Dienst zur Lokalisierung. Wenn Sie Fehler finden, teilen Sie uns dies bitte mit.\n"
    },
    {
      "Lang": "el",
      "Title": "Αγγλικές ασκήσεις γραμματικής | Απλός ⭐️ #69 might",
      "Description": "Μάθετε αγγλική γραμματική! Αλλάξτε μια λέξη σε μια πρόταση.\n\n\n\n0:04 1:18 2:32 \nHe might go to the library\nhi maɪt goʊ tɪ ðə ˈlaɪbrɛˌri\nΜπορεί να πάει στη βιβλιοθήκη\n\n0:19 1:33 2:47 \nHe might go to work\nhi maɪt goʊ tɪ wərk\nΜπορεί να πάει στη δουλειά\n\n0:32 1:46 3:00 \nI might go to work\naɪ maɪt goʊ tɪ wərk\nΜπορώ να πάω στη δουλειά\n\n0:46 2:00 3:14 \nI might not go to work\naɪ maɪt nɑt goʊ tɪ wərk\nΊσως να μην πάω στη δουλειά\n\n0:59 2:13 3:27 \nHe might not go to work\nhi maɪt nɑt goʊ tɪ wərk\nΜπορεί να μην πάει στη δουλειά\n\n\n\nΣτους εκπαιδευτικούς και τα σχολεία:\nΑυτό το βίντεο δημοσιεύεται υπό Creative Commons License.\n  CC BY 3.0 https://creativecommons.org/licenses/by/3.0/ \nΜπορείτε να χρησιμοποιήσετε αυτό το βίντεο στις τάξεις σας!\n\nΧρησιμοποιούμε την υπηρεσία Google Translate για εντοπισμό. Αν βρείτε κάποια λάθη, ενημερώστε μας.\n"
    },
    {
      "Lang": "en",
      "Title": "English grammar exercises | Simple ⭐️ #69 might",
      "Description": "Learn English grammar! Change a word in a sentence.\n\n\n\n0:04 1:18 2:32 \nHe might go to the library\nhi maɪt goʊ tɪ ðə ˈlaɪbrɛˌri\nHe might go to the library\n\n0:19 1:33 2:47 \nHe might go to work\nhi maɪt goʊ tɪ wərk\nHe might go to work\n\n0:32 1:46 3:00 \nI might go to work\naɪ maɪt goʊ tɪ wərk\nI might go to work\n\n0:46 2:00 3:14 \nI might not go to work\naɪ maɪt nɑt goʊ tɪ wərk\nI might not go to work\n\n0:59 2:13 3:27 \nHe might not go to work\nhi maɪt nɑt goʊ tɪ wərk\nHe might not go to work\n\n\n\nTo teachers and schools:\nThis video is published under Creative Commons License.\n  CC BY 3.0 https://creativecommons.org/licenses/by/3.0/ \nFeel free to use this video in your classes!\n\nWe use Google Translate service for localization. If you find some mistakes, please let us know.\n"
    },
    {
      "Lang": "es",
      "Title": "Ejercicios de gramática inglesa | Sencillo ⭐️ #69 might",
      "Description": "¡Aprende gramática inglesa! Cambiar una palabra en una oración.\n\n\n\n0:04 1:18 2:32 \nHe might go to the library\nhi maɪt goʊ tɪ ðə ˈlaɪbrɛˌri\nEl podria ir a la biblioteca\n\n0:19 1:33 2:47 \nHe might go to work\nhi maɪt goʊ tɪ wərk\nEl podria ir a trabajar\n\n0:32 1:46 3:00 \nI might go to work\naɪ maɪt goʊ tɪ wərk\nPodría ir a trabajar\n\n0:46 2:00 3:14 \nI might not go to work\naɪ maɪt nɑt goʊ tɪ wərk\nTal vez no vaya a trabajar\n\n0:59 2:13 3:27 \nHe might not go to work\nhi maɪt nɑt goʊ tɪ wərk\nPuede que no vaya a trabajar\n\n\n\nA profesores y escuelas:\nEste video se publica bajo licencia Creative Commons.\n  CC BY 3.0 https://creativecommons.org/licenses/by/3.0/ \n¡Siéntete libre de usar este video en tus clases!\n\nUtilizamos el servicio Google Translate para la localización. Si encuentra algunos errores, háganoslo saber.\n"
    },
    {
      "Lang": "et",
      "Title": "Inglise keele grammatika harjutused | Lihtne ⭐️ #69 might",
      "Description": "Õpi inglise keele grammatikat! Muutke lauses sõna.\n\n\n\n0:04 1:18 2:32 \nHe might go to the library\nhi maɪt goʊ tɪ ðə ˈlaɪbrɛˌri\nTa võib minna raamatukokku\n\n0:19 1:33 2:47 \nHe might go to work\nhi maɪt goʊ tɪ wərk\nTa võib minna tööle\n\n0:32 1:46 3:00 \nI might go to work\naɪ maɪt goʊ tɪ wərk\nMa vőin minna tööle\n\n0:46 2:00 3:14 \nI might not go to work\naɪ maɪt nɑt goʊ tɪ wərk\nMa ei pruugi tööle minna\n\n0:59 2:13 3:27 \nHe might not go to work\nhi maɪt nɑt goʊ tɪ wərk\nTa ei pruugi tööle minna\n\n\n\nÕpetajatele ja koolidele:\nSee video on avaldatud Creative Commonsi litsentsi all.\n  CC BY 3.0 https://creativecommons.org/licenses/by/3.0/ \nKasutage seda videot julgelt oma tundides!\n\nLokaliseerimiseks kasutame Google'i tõlke teenust. Kui leiate vigu, palun andke meile sellest teada.\n"
    },
    {
      "Lang": "eu",
      "Title": "Ingelesezko gramatika ariketak | simple ⭐️ #69 might",
      "Description": "Ikasi ingelesezko gramatika! Aldatu esaldi batean hitzak.\n\n\n\n0:04 1:18 2:32 \nHe might go to the library\nhi maɪt goʊ tɪ ðə ˈlaɪbrɛˌri\nBaliteke liburutegira joatea\n\n0:19 1:33 2:47 \nHe might go to work\nhi maɪt goʊ tɪ wərk\nLanera joan liteke\n\n0:32 1:46 3:00 \nI might go to work\naɪ maɪt goʊ tɪ wərk\nLanera joango naiz agian\n\n0:46 2:00 3:14 \nI might not go to work\naɪ maɪt nɑt goʊ tɪ wərk\nAgian ez naiz lanera joango\n\n0:59 2:13 3:27 \nHe might not go to work\nhi maɪt nɑt goʊ tɪ wərk\nAgian ez zen lanera joango\n\n\n\nIrakasleei eta ikastetxeei:\nBideo hau Creative Commons lizentziapean argitaratzen da.\n  CC BY 3.0 https://creativecommons.org/licenses/by/3.0/ \nEz ahaztu bideo hau zure klaseetan erabiltzeko!\n\nGoogle Translate zerbitzua erabiltzen dugu lokalizaziorako. Akats batzuk aurkitzen badituzu, adierazi iezaguzu\n"
    },
    {
      "Lang": "fa",
      "Title": "تمرین های دستور زبان انگلیسی | ساده ⭐️ #69 might",
      "Description": "گرامر انگلیسی را بیاموزید! یک کلمه را در یک جمله تغییر دهید.\n\n\n\n0:04 1:18 2:32 \nHe might go to the library\nhi maɪt goʊ tɪ ðə ˈlaɪbrɛˌri\nاو ممکن است به کتابخانه برود\n\n0:19 1:33 2:47 \nHe might go to work\nhi maɪt goʊ tɪ wərk\nاو ممکن است به سر کار برود\n\n0:32 1:46 3:00 \nI might go to work\naɪ maɪt goʊ tɪ wərk\nممکن است به سر کار بروم\n\n0:46 2:00 3:14 \nI might not go to work\naɪ maɪt nɑt goʊ tɪ wərk\nممکن است سر کار نروم\n\n0:59 2:13 3:27 \nHe might not go to work\nhi maɪt nɑt goʊ tɪ wərk\nاو ممکن است به سر کار نرود\n\n\n\nبه معلمان و مدارس:\nاین ویدیو تحت مجوز Creative Commons منتشر شده است.\n  CC BY 3.0 https://creativecommons.org/licenses/by/3.0/ \nدر استفاده از این فیلم در کلاس های خود احساس راحتی کنید!\n\nما از خدمات Google Translate برای محلی سازی استفاده می کنیم. اگر شما برخی از اشتباهات ، لطفا به ما اطلاع دهید.\n"
    },
    {
      "Lang": "fi",
      "Title": "Englannin kieliopin harjoitukset | Yksinkertainen ⭐️ #69 might",
      "Description": "Opi englannin kielioppi! Vaihda sana lauseessa.\n\n\n\n0:04 1:18 2:32 \nHe might go to the library\nhi maɪt goʊ tɪ ðə ˈlaɪbrɛˌri\nHän saattaa mennä kirjastoon\n\n0:19 1:33 2:47 \nHe might go to work\nhi maɪt goʊ tɪ wərk\nHän saattaa mennä töihin\n\n0:32 1:46 3:00 \nI might go to work\naɪ maɪt goʊ tɪ wərk\nVoin mennä töihin\n\n0:46 2:00 3:14 \nI might not go to work\naɪ maɪt nɑt goʊ tɪ wərk\nEn ehkä mene töihin\n\n0:59 2:13 3:27 \nHe might not go to work\nhi maɪt nɑt goʊ tɪ wərk\nHän ei ehkä mene töihin\n\n\n\nOpettajille ja kouluille:\nTämä video on julkaistu Creative Commons -lisenssillä.\n  CC BY 3.0 https://creativecommons.org/licenses/by/3.0/ \nVoit vapaasti käyttää tätä videota luokissa!\n\nKäytämme lokalisointiin Google Translate -palvelua. Jos löydät virheitä, ota meihin yhteyttä.\n"
    },
    {
      "Lang": "fil",
      "Title": "Pagsasanay sa grammar ng Ingles | Simple ⭐️ #69 might",
      "Description": "Alamin ang grammar ng Ingles! Baguhin ang isang salita sa isang pangungusap.\n\n\n\n0:04 1:18 2:32 \nHe might go to the library\nhi maɪt goʊ tɪ ðə ˈlaɪbrɛˌri\nMaaaring pumunta siya sa library\n\n0:19 1:33 2:47 \nHe might go to work\nhi maɪt goʊ tɪ wərk\nMaaaring pumunta siya sa trabaho\n\n0:32 1:46 3:00 \nI might go to work\naɪ maɪt goʊ tɪ wərk\nBaka pumunta ako sa trabaho\n\n0:46 2:00 3:14 \nI might not go to work\naɪ maɪt nɑt goʊ tɪ wərk\nBaka hindi ako pumasok sa trabaho\n\n0:59 2:13 3:27 \nHe might not go to work\nhi maɪt nɑt goʊ tɪ wərk\nBaka hindi siya pumasok sa trabaho\n\n\n\nSa mga guro at paaralan:\nAng video na ito ay nai-publish sa ilalim ng Lisensya ng Creative Commons.\n  CC BY 3.0 https://creativecommons.org/licenses/by/3.0/ \nHuwag mag-atubiling gamitin ang video na ito sa iyong mga klase!\n\nWe use Google Translate service for localization. If you find some mistakes, please let us know.\n"
    },
    {
      "Lang": "fr",
      "Title": "Exercices de grammaire anglaise | Facile ⭐️ #69 might",
      "Description": "Apprenez la grammaire anglaise! Changer un mot dans une phrase.\n\n\n\n0:04 1:18 2:32 \nHe might go to the library\nhi maɪt goʊ tɪ ðə ˈlaɪbrɛˌri\nIl pourrait aller à la bibliothèque\n\n0:19 1:33 2:47 \nHe might go to work\nhi maɪt goʊ tɪ wərk\nIl pourrait aller travailler\n\n0:32 1:46 3:00 \nI might go to work\naɪ maɪt goʊ tɪ wərk\nJe pourrais aller travailler\n\n0:46 2:00 3:14 \nI might not go to work\naɪ maɪt nɑt goʊ tɪ wərk\nJe pourrais ne pas aller travailler\n\n0:59 2:13 3:27 \nHe might not go to work\nhi maɪt nɑt goʊ tɪ wərk\nIl pourrait ne pas aller travailler\n\n\n\nAux enseignants et aux écoles:\nCette vidéo est publiée sous licence Creative Commons.\n  CC BY 3.0 https://creativecommons.org/licenses/by/3.0/ \nN'hésitez pas à utiliser cette vidéo dans vos cours!\n\nNous utilisons le service Google Translate pour la localisation. Si vous trouvez des erreurs, veuillez nous en informer.\n"
    },
    {
      "Lang": "fy",
      "Title": "Ingelske oefeningen foar grammatika | Ienfâldich ⭐️ #69 might",
      "Description": "Learje Ingelske grammatika! Feroarje in wurd yn in sin.\n\n\n\n0:04 1:18 2:32 \nHe might go to the library\nhi maɪt goʊ tɪ ðə ˈlaɪbrɛˌri\nHy soe miskien nei de biblioteek gean\n\n0:19 1:33 2:47 \nHe might go to work\nhi maɪt goʊ tɪ wərk\nHy soe miskien oan it wurk gean\n\n0:32 1:46 3:00 \nI might go to work\naɪ maɪt goʊ tɪ wərk\nIk soe miskien oan it wurk gean\n\n0:46 2:00 3:14 \nI might not go to work\naɪ maɪt nɑt goʊ tɪ wərk\nIk soe miskien net oan it wurk gean\n\n0:59 2:13 3:27 \nHe might not go to work\nhi maɪt nɑt goʊ tɪ wərk\nHy soe miskien net oan it wurk gean\n\n\n\nOan dosinten en skoallen:\nDizze fideo wurdt publisearre ûnder Creative Commons License.\n  CC BY 3.0 https://creativecommons.org/licenses/by/3.0/ \nFiel jo frij om dizze fideo te brûken yn jo klassen!\n\nWy brûke Google Translate tsjinst foar lokalisaasje. As jo wat flaters fine, lit it ús dan witte.\n"
    },
    {
      "Lang": "gd",
      "Title": "Eacarsaichean gràmair Beurla | Gu sìmplidh ⭐️ #69 might",
      "Description": "Ionnsaich gràmar Beurla! Atharraich facal ann an seantans.\n\n\n\n0:04 1:18 2:32 \nHe might go to the library\nhi maɪt goʊ tɪ ðə ˈlaɪbrɛˌri\nIs dòcha gun tèid e don leabharlann\n\n0:19 1:33 2:47 \nHe might go to work\nhi maɪt goʊ tɪ wərk\nIs dòcha gun tèid e a dh ’obair\n\n0:32 1:46 3:00 \nI might go to work\naɪ maɪt goʊ tɪ wərk\nIs dòcha gun tèid mi a dh'obair\n\n0:46 2:00 3:14 \nI might not go to work\naɪ maɪt nɑt goʊ tɪ wərk\nIs dòcha nach tèid mi a dh ’obair\n\n0:59 2:13 3:27 \nHe might not go to work\nhi maɪt nɑt goʊ tɪ wərk\nIs dòcha nach deach e a dh ’obair\n\n\n\nDo thidsearan agus sgoiltean:\nTha a ’bhidio seo air fhoillseachadh fo Creative Commons License.\n  CC BY 3.0 https://creativecommons.org/licenses/by/3.0/ \nFaodaidh tu am bhidio seo a chleachdadh anns na clasaichean agad!\n\nBidh sinn a ’cleachdadh seirbheis Google Translate airson sgìreachadh. Ma lorgas tu cuid de mhearachdan, feuch an innis thu dhuinn.\n"
    },
    {
      "Lang": "gl",
      "Title": "Exercicios de gramática inglesa | Sinxelo ⭐️ #69 might",
      "Description": "Aprende gramática inglesa! Cambia unha palabra nunha frase.\n\n\n\n0:04 1:18 2:32 \nHe might go to the library\nhi maɪt goʊ tɪ ðə ˈlaɪbrɛˌri\nPode ir á biblioteca\n\n0:19 1:33 2:47 \nHe might go to work\nhi maɪt goʊ tɪ wərk\nPode ir ao traballo\n\n0:32 1:46 3:00 \nI might go to work\naɪ maɪt goʊ tɪ wərk\nPodería ir traballar\n\n0:46 2:00 3:14 \nI might not go to work\naɪ maɪt nɑt goʊ tɪ wərk\nPode que non vaia traballar\n\n0:59 2:13 3:27 \nHe might not go to work\nhi maɪt nɑt goʊ tɪ wərk\nPode que non vaia traballar\n\n\n\nPara profesores e colexios:\nEste vídeo está publicado baixo a licenza Creative Commons.\n  CC BY 3.0 https://creativecommons.org/licenses/by/3.0/ \nNon dubides en usar este vídeo nas túas clases.\n\nUsamos o servizo Google Translate para a súa localización. Se atopas algún erro, comunícanos.\n"
    },
    {
      "Lang": "gu",
      "Title": "અંગ્રેજી વ્યાકરણ વ્યાયામ | સરળ ⭐️ #69 might",
      "Description": "અંગ્રેજી વ્યાકરણ શીખો! એક વાક્યમાં એક શબ્દ બદલો.\n\n\n\n0:04 1:18 2:32 \nHe might go to the library\nhi maɪt goʊ tɪ ðə ˈlaɪbrɛˌri\nતે કદાચ પુસ્તકાલયમાં જઇ શકે\n\n0:19 1:33 2:47 \nHe might go to work\nhi maɪt goʊ tɪ wərk\nતે કામ પર જાય છે\n\n0:32 1:46 3:00 \nI might go to work\naɪ maɪt goʊ tɪ wərk\nહું કામ પર જઇ શકું છું\n\n0:46 2:00 3:14 \nI might not go to work\naɪ maɪt nɑt goʊ tɪ wərk\nહું કદાચ કામ પર ન જઉં\n\n0:59 2:13 3:27 \nHe might not go to work\nhi maɪt nɑt goʊ tɪ wərk\nતે કદાચ કામ પર ન જાય\n\n\n\nશિક્ષકો અને શાળાઓને:\nઆ વિડિઓ ક્રિએટિવ કonsમન્સ લાઇસન્સ હેઠળ પ્રકાશિત છે.\n  CC BY 3.0 https://creativecommons.org/licenses/by/3.0/ \nતમારા વર્ગોમાં આ વિડિઓનો ઉપયોગ કરવા માટે મફત લાગે!\n\nઅમે સ્થાનિકીકરણ માટે Google ભાષાંતર સેવાનો ઉપયોગ કરીએ છીએ. જો તમને કેટલીક ભૂલો લાગે છે, તો કૃપા કરીને અમને જણાવો.\n"
    },
    {
      "Lang": "ha",
      "Title": "Darasi na ilimin nahawu na Turanci | Mai sauki ⭐️ #69 might",
      "Description": "Koyi ilimin nahawu Turanci! Canja kalma a cikin jumla.\n\n\n\n0:04 1:18 2:32 \nHe might go to the library\nhi maɪt goʊ tɪ ðə ˈlaɪbrɛˌri\nYana iya zuwa ɗakin karatu\n\n0:19 1:33 2:47 \nHe might go to work\nhi maɪt goʊ tɪ wərk\nYana iya zuwa aiki\n\n0:32 1:46 3:00 \nI might go to work\naɪ maɪt goʊ tɪ wərk\nZan iya zuwa aiki\n\n0:46 2:00 3:14 \nI might not go to work\naɪ maɪt nɑt goʊ tɪ wərk\nBa zan iya zuwa wurin aiki ba\n\n0:59 2:13 3:27 \nHe might not go to work\nhi maɪt nɑt goʊ tɪ wərk\nWataƙila ba zai je wurin aiki ba\n\n\n\nGa malamai da makarantu:\nWannan bidiyon an buga shi a ƙarƙashin lasisin Creative Commons.\n  CC BY 3.0 https://creativecommons.org/licenses/by/3.0/ \nJin kyauta don amfani da wannan bidiyon a cikin azuzuwanku!\n\nMuna amfani da sabis na Google Fassara don fassarar. Idan ka sami wasu kurakurai, da fatan za a sanar da mu.\n"
    },
    {
      "Lang": "hi",
      "Title": "अंग्रेजी व्याकरण अभ्यास | सरल ⭐️ #69 might",
      "Description": "अंग्रेजी व्याकरण जानें! एक वाक्य में एक शब्द बदलें।\n\n\n\n0:04 1:18 2:32 \nHe might go to the library\nhi maɪt goʊ tɪ ðə ˈlaɪbrɛˌri\nवह पुस्तकालय में जा सकता है\n\n0:19 1:33 2:47 \nHe might go to work\nhi maɪt goʊ tɪ wərk\nवह काम पर जा सकता है\n\n0:32 1:46 3:00 \nI might go to work\naɪ maɪt goʊ tɪ wərk\nमैं काम पर जा सकता हूं\n\n0:46 2:00 3:14 \nI might not go to work\naɪ maɪt nɑt goʊ tɪ wərk\nमैं काम पर नहीं जा सकता\n\n0:59 2:13 3:27 \nHe might not go to work\nhi maɪt nɑt goʊ tɪ wərk\nवह काम पर नहीं जा सकता है\n\n\n\nशिक्षकों और स्कूलों के लिए:\nयह वीडियो क्रिएटिव कॉमन्स लाइसेंस के तहत प्रकाशित हुआ है।\n  CC BY 3.0 https://creativecommons.org/licenses/by/3.0/ \nअपनी कक्षाओं में इस वीडियो का उपयोग करने के लिए स्वतंत्र महसूस करें!\n\nहम स्थानीयकरण के लिए Google अनुवाद सेवा का उपयोग करते हैं। यदि आप कुछ गलतियाँ पाते हैं, तो कृपया हमें बताएँ।\n"
    },
    {
      "Lang": "hr",
      "Title": "Gramatičke vježbe engleskog jezika | Jednostavan ⭐️ #69 might",
      "Description": "Naučite englesku gramatiku! Promijenite riječ u rečenici.\n\n\n\n0:04 1:18 2:32 \nHe might go to the library\nhi maɪt goʊ tɪ ðə ˈlaɪbrɛˌri\nMožda će otići u knjižnicu\n\n0:19 1:33 2:47 \nHe might go to work\nhi maɪt goʊ tɪ wərk\nMogao bi ići na posao\n\n0:32 1:46 3:00 \nI might go to work\naɪ maɪt goʊ tɪ wərk\nMogla bih otići na posao\n\n0:46 2:00 3:14 \nI might not go to work\naɪ maɪt nɑt goʊ tɪ wərk\nMožda ne bih išao na posao\n\n0:59 2:13 3:27 \nHe might not go to work\nhi maɪt nɑt goʊ tɪ wərk\nMožda neće ići na posao\n\n\n\nNastavnicima i školama:\nOvaj videozapis objavljen je pod licencom Creative Commons.\n  CC BY 3.0 https://creativecommons.org/licenses/by/3.0/ \nSlobodno upotrijebite ovaj videozapis u svojim predavanjima!\n\nZa lokalizaciju koristimo uslugu Google Translate. Ako pronađete neke pogreške, javite nam se.\n"
    },
    {
      "Lang": "hu",
      "Title": "Angol nyelvtan gyakorlatok | Egyszerű ⭐️ #69 might",
      "Description": "Tanulj angol nyelvtant! Változtasson egy szót egy mondatban.\n\n\n\n0:04 1:18 2:32 \nHe might go to the library\nhi maɪt goʊ tɪ ðə ˈlaɪbrɛˌri\nLehet, hogy bemegy a könyvtárba\n\n0:19 1:33 2:47 \nHe might go to work\nhi maɪt goʊ tɪ wərk\nLehet, hogy dolgozik\n\n0:32 1:46 3:00 \nI might go to work\naɪ maɪt goʊ tɪ wərk\nTalán dolgoznék\n\n0:46 2:00 3:14 \nI might not go to work\naɪ maɪt nɑt goʊ tɪ wərk\nLehet, hogy nem megyek dolgozni\n\n0:59 2:13 3:27 \nHe might not go to work\nhi maɪt nɑt goʊ tɪ wərk\nLehet, hogy nem megy dolgozni\n\n\n\nTanároknak és iskoláknak:\nEz a videó a Creative Commons License alatt jelenik meg.\n  CC BY 3.0 https://creativecommons.org/licenses/by/3.0/ \nNyugodtan használja ezt a videót az osztályokban!\n\nA lokalizációhoz a Google Translate szolgáltatást használjuk. Ha hibát talál, kérjük, ossza meg velünk.\n"
    },
    {
      "Lang": "hy",
      "Title": "Անգլերենի քերականական վարժություններ | Պարզ ⭐️ #69 might",
      "Description": "Իմացեք անգլերեն քերականությունը: Մի նախադասությամբ մի բառ փոխեք:\n\n\n\n0:04 1:18 2:32 \nHe might go to the library\nhi maɪt goʊ tɪ ðə ˈlaɪbrɛˌri\nԳուցե նա գնա գրադարան\n\n0:19 1:33 2:47 \nHe might go to work\nhi maɪt goʊ tɪ wərk\nՆա կարող է գնալ աշխատանքի\n\n0:32 1:46 3:00 \nI might go to work\naɪ maɪt goʊ tɪ wərk\nԵս կարող եմ գնալ աշխատանքի\n\n0:46 2:00 3:14 \nI might not go to work\naɪ maɪt nɑt goʊ tɪ wərk\nԵս գուցե չգնամ աշխատանքի\n\n0:59 2:13 3:27 \nHe might not go to work\nhi maɪt nɑt goʊ tɪ wərk\nՆա գուցե չի գնա աշխատանքի\n\n\n\nՈւսուցիչներին և դպրոցներին.\nԱյս տեսանյութը հրապարակված է Creative Commons արտոնագրի ներքո:\n  CC BY 3.0 https://creativecommons.org/licenses/by/3.0/ \nԱզատորեն օգտվեք այս տեսանյութից ձեր դասերից:\n\nՄենք օգտագործում ենք Google Translate ծառայությունը տեղայնացման համար: Եթե որոշ սխալներ եք գտնում, խնդրում ենք տեղեկացնել մեզ:\n"
    },
    {
      "Lang": "id",
      "Title": "Latihan tata bahasa Inggris | Sederhana ⭐️ #69 might",
      "Description": "Belajar tata bahasa Inggris! Ubah kata dalam kalimat.\n\n\n\n0:04 1:18 2:32 \nHe might go to the library\nhi maɪt goʊ tɪ ðə ˈlaɪbrɛˌri\nDia mungkin pergi ke perpustakaan\n\n0:19 1:33 2:47 \nHe might go to work\nhi maɪt goʊ tɪ wərk\nDia mungkin pergi bekerja\n\n0:32 1:46 3:00 \nI might go to work\naɪ maɪt goʊ tɪ wərk\nSaya mungkin pergi bekerja\n\n0:46 2:00 3:14 \nI might not go to work\naɪ maɪt nɑt goʊ tɪ wərk\nSaya mungkin tidak pergi bekerja\n\n0:59 2:13 3:27 \nHe might not go to work\nhi maɪt nɑt goʊ tɪ wərk\nDia mungkin tidak pergi bekerja\n\n\n\nKepada guru dan sekolah:\nVideo ini diterbitkan di bawah Lisensi Creative Commons.\n  CC BY 3.0 https://creativecommons.org/licenses/by/3.0/ \nJangan ragu untuk menggunakan video ini di kelas Anda!\n\nKami menggunakan layanan Google Terjemahan untuk pelokalan. Jika Anda menemukan beberapa kesalahan, beri tahu kami.\n"
    },
    {
      "Lang": "ig",
      "Title": "Ọmụmụ asụsụ ụtọ asụsụ Bekee | Dị Mfe ⭐️ #69 might",
      "Description": "Muta asusu bekee! Gbanwee okwu na ahịrịokwu.\n\n\n\n0:04 1:18 2:32 \nHe might go to the library\nhi maɪt goʊ tɪ ðə ˈlaɪbrɛˌri\nO nwere ike ịga n'ọbá akwụkwọ\n\n0:19 1:33 2:47 \nHe might go to work\nhi maɪt goʊ tɪ wərk\nỌ nwere ike gaa ọrụ\n\n0:32 1:46 3:00 \nI might go to work\naɪ maɪt goʊ tɪ wərk\nEnwere m ike ịga ọrụ\n\n0:46 2:00 3:14 \nI might not go to work\naɪ maɪt nɑt goʊ tɪ wərk\nApụghị m ịga ọrụ\n\n0:59 2:13 3:27 \nHe might not go to work\nhi maɪt nɑt goʊ tɪ wərk\nO nwere ike ọ gaghị arụ ọrụ\n\n\n\nMaka ndị nkuzi na ụlọ akwụkwọ:\nEdere vidiyo a n'okpuru ikikere Creative Commons.\n  CC BY 3.0 https://creativecommons.org/licenses/by/3.0/ \nNwere onwe gị iji vidiyo a na klaasị gị!\n\nAnyị na-eji ọrụ ntụgharị Google emegharị. Ọ bụrụ n’ịhụ ụfọdụ mmejọ, biko mee ka anyị mara.\n"
    },
    {
      "Lang": "is",
      "Title": "Enskar málfræðiæfingar | Einfalt ⭐️ #69 might",
      "Description": "Lærðu ensku málfræði! Skiptu um orð í setningu.\n\n\n\n0:04 1:18 2:32 \nHe might go to the library\nhi maɪt goʊ tɪ ðə ˈlaɪbrɛˌri\nHann gæti farið á bókasafnið\n\n0:19 1:33 2:47 \nHe might go to work\nhi maɪt goʊ tɪ wərk\nHann gæti farið til vinnu\n\n0:32 1:46 3:00 \nI might go to work\naɪ maɪt goʊ tɪ wərk\nÉg gæti farið að vinna\n\n0:46 2:00 3:14 \nI might not go to work\naɪ maɪt nɑt goʊ tɪ wərk\nÉg fer kannski ekki í vinnuna\n\n0:59 2:13 3:27 \nHe might not go to work\nhi maɪt nɑt goʊ tɪ wərk\nHann gæti ekki farið í vinnuna\n\n\n\nTil kennara og skóla:\nÞetta myndband er birt undir Creative Commons leyfi.\n  CC BY 3.0 https://creativecommons.org/licenses/by/3.0/ \nEkki hika við að nota þetta myndband í bekkjum þínum!\n\nVið notum Google Translate þjónustu til að staðsetja. Láttu okkur vita ef þú finnur fyrir einhverjum mistökum.\n"
    },
    {
      "Lang": "it",
      "Title": "Esercizi di grammatica inglese | Semplice ⭐️ #69 might",
      "Description": "Impara la grammatica inglese! Cambia una parola in una frase.\n\n\n\n0:04 1:18 2:32 \nHe might go to the library\nhi maɪt goʊ tɪ ðə ˈlaɪbrɛˌri\nPotrebbe andare in biblioteca\n\n0:19 1:33 2:47 \nHe might go to work\nhi maɪt goʊ tɪ wərk\nPotrebbe andare a lavorare\n\n0:32 1:46 3:00 \nI might go to work\naɪ maɪt goʊ tɪ wərk\nPotrei andare a lavorare\n\n0:46 2:00 3:14 \nI might not go to work\naɪ maɪt nɑt goʊ tɪ wərk\nPotrei non andare al lavoro\n\n0:59 2:13 3:27 \nHe might not go to work\nhi maɪt nɑt goʊ tɪ wərk\nPotrebbe non andare al lavoro\n\n\n\nPer insegnanti e scuole:\nQuesto video è pubblicato sotto la licenza Creative Commons.\n  CC BY 3.0 https://creativecommons.org/licenses/by/3.0/ \nSentiti libero di usare questo video nelle tue lezioni!\n\nUtilizziamo il servizio Google Translate per la localizzazione. Se trovi qualche errore, faccelo sapere.\n"
    },
    {
      "Lang": "iw",
      "Title": "תרגילי דקדוק באנגלית | פשוט ⭐️ #69 might",
      "Description": "למד דקדוק באנגלית! שנה מילה במשפט.\n\n\n\n0:04 1:18 2:32 \nHe might go to the library\nhi maɪt goʊ tɪ ðə ˈlaɪbrɛˌri\nהוא עשוי ללכת לספריה\n\n0:19 1:33 2:47 \nHe might go to work\nhi maɪt goʊ tɪ wərk\nהוא עשוי ללכת לעבודה\n\n0:32 1:46 3:00 \nI might go to work\naɪ maɪt goʊ tɪ wərk\nאולי אני אלך לעבוד\n\n0:46 2:00 3:14 \nI might not go to work\naɪ maɪt nɑt goʊ tɪ wərk\nאולי אני לא אלך לעבוד\n\n0:59 2:13 3:27 \nHe might not go to work\nhi maɪt nɑt goʊ tɪ wərk\nיתכן שהוא לא ילך לעבודה\n\n\n\nלמורים ובתי ספר:\nסרטון זה מתפרסם תחת רישיון Creative Commons.\n  CC BY 3.0 https://creativecommons.org/licenses/by/3.0/ \nאל תהסס להשתמש בסרטון זה בשיעורים שלך!\n\nאנו משתמשים בשירות Google Translate לצורך לוקליזציה. אם אתה מוצא טעויות, אנא הודע לנו על כך.\n"
    },
    {
      "Lang": "ja",
      "Title": "英文法練習 | シンプル ⭐️ #69 might",
      "Description": "英語の文法を学びましょう！ 文中の単語を変更します。\n\n\n\n0:04 1:18 2:32 \nHe might go to the library\nhi maɪt goʊ tɪ ðə ˈlaɪbrɛˌri\n彼は図書館に行くかもしれない\n\n0:19 1:33 2:47 \nHe might go to work\nhi maɪt goʊ tɪ wərk\n彼は仕事に行くかもしれない\n\n0:32 1:46 3:00 \nI might go to work\naɪ maɪt goʊ tɪ wərk\n仕事に行くかもしれない\n\n0:46 2:00 3:14 \nI might not go to work\naɪ maɪt nɑt goʊ tɪ wərk\n私は仕事に行かないかもしれない\n\n0:59 2:13 3:27 \nHe might not go to work\nhi maɪt nɑt goʊ tɪ wərk\n彼は仕事に行かないかもしれない\n\n\n\n先生と学校へ：\nこのビデオは、クリエイティブコモンズライセンスの下で公開されています。\n  CC BY 3.0 https://creativecommons.org/licenses/by/3.0/ \nこのビデオをクラスで自由に使用してください！\n\nローカライズにはGoogle翻訳サービスを使用しています。間違いを見つけた場合はお知らせください。\n"
    },
    {
      "Lang": "jv",
      "Title": "Latihan grammar Inggris | Prasaja ⭐️ #69 might",
      "Description": "Sinau tata basa Inggris! Ngganti tembung sajrone ukara.\n\n\n\n0:04 1:18 2:32 \nHe might go to the library\nhi maɪt goʊ tɪ ðə ˈlaɪbrɛˌri\nDheweke bisa menyang perpustakaan\n\n0:19 1:33 2:47 \nHe might go to work\nhi maɪt goʊ tɪ wərk\nDheweke bisa uga kerja\n\n0:32 1:46 3:00 \nI might go to work\naɪ maɪt goʊ tɪ wərk\nAku bisa kerja\n\n0:46 2:00 3:14 \nI might not go to work\naɪ maɪt nɑt goʊ tɪ wərk\nAku ora bisa kerja\n\n0:59 2:13 3:27 \nHe might not go to work\nhi maɪt nɑt goʊ tɪ wərk\nDheweke bisa uga ora kerja\n\n\n\nTumrap guru lan sekolah:\nVideo iki diterbitake ing lisensi Creative Commons.\n  CC BY 3.0 https://creativecommons.org/licenses/by/3.0/ \nOjo nggunakake video iki ing kelas sampeyan!\n\nKita nggunakake layanan Google Translate kanggo lokalisasi. Yen sampeyan nemokake sawetara kesalahan, kabari.\n"
    },
    {
      "Lang": "ka",
      "Title": "ინგლისური გრამატიკის სავარჯიშოები | მარტივი ⭐️ #69 might",
      "Description": "შეიტყვეთ ინგლისური ენის გრამატიკა! წინადადებაში შეცვალეთ სიტყვა.\n\n\n\n0:04 1:18 2:32 \nHe might go to the library\nhi maɪt goʊ tɪ ðə ˈlaɪbrɛˌri\nის შეიძლება წავიდეს ბიბლიოთეკაში\n\n0:19 1:33 2:47 \nHe might go to work\nhi maɪt goʊ tɪ wərk\nის შეიძლება წავიდეს სამსახურში\n\n0:32 1:46 3:00 \nI might go to work\naɪ maɪt goʊ tɪ wərk\nშეიძლება სამსახურში წავიდე\n\n0:46 2:00 3:14 \nI might not go to work\naɪ maɪt nɑt goʊ tɪ wərk\nშეიძლება სამსახურში არ წავსულიყავი\n\n0:59 2:13 3:27 \nHe might not go to work\nhi maɪt nɑt goʊ tɪ wərk\nის შეიძლება არ წავიდეს სამსახურში\n\n\n\nმასწავლებლებსა და სკოლებს:\nეს ვიდეო გამოქვეყნებულია Creative Commons- ის ლიცენზიით.\n  CC BY 3.0 https://creativecommons.org/licenses/by/3.0/ \nშეგიძლიათ გამოიყენოთ ეს ვიდეო თქვენს კლასებში!\n\nჩვენ ვიყენებთ Google Translate სერვისს ლოკალიზაციისთვის. თუ შეცდომებს იპოვნით, გთხოვთ, შეგვატყობინოთ.\n"
    },
    {
      "Lang": "kk",
      "Title": "Ағылшын грамматикалық жаттығулары | Қарапайым ⭐️ #69 might",
      "Description": "Ағылшын грамматикасын үйрен! Сөйлемдегі сөзді өзгертіңіз.\n\n\n\n0:04 1:18 2:32 \nHe might go to the library\nhi maɪt goʊ tɪ ðə ˈlaɪbrɛˌri\nОл кітапханаға баруы мүмкін\n\n0:19 1:33 2:47 \nHe might go to work\nhi maɪt goʊ tɪ wərk\nОл жұмысқа кетуі мүмкін\n\n0:32 1:46 3:00 \nI might go to work\naɪ maɪt goʊ tɪ wərk\nМен жұмысқа баруым мүмкін\n\n0:46 2:00 3:14 \nI might not go to work\naɪ maɪt nɑt goʊ tɪ wərk\nМен жұмысқа бара алмайтын шығармын\n\n0:59 2:13 3:27 \nHe might not go to work\nhi maɪt nɑt goʊ tɪ wərk\nОл жұмысқа бармауы мүмкін\n\n\n\nОқытушылар мен мектептерге:\nБұл бейне Creative Commons лицензиясы бойынша жарияланған.\n  CC BY 3.0 https://creativecommons.org/licenses/by/3.0/ \nБұл бейнені өз сабақтарыңызда қолдануға болады!\n\nGoogle Translate қызметін локализациялау үшін қолданамыз. Егер сіз қате тапсаңыз, бізге хабарлаңыз.\n"
    },
    {
      "Lang": "km",
      "Title": "លំហាត់វេយ្យាករណ៍អង់គ្លេស | សាមញ្ញ ⭐️ #69 might",
      "Description": "រៀនវេយ្យាករណ៍អង់គ្លេស! ផ្លាស់ប្តូរពាក្យនៅក្នុងប្រយោគមួយ។\n\n\n\n0:04 1:18 2:32 \nHe might go to the library\nhi maɪt goʊ tɪ ðə ˈlaɪbrɛˌri\nគាត់ប្រហែលជាទៅបណ្ណាល័យ\n\n0:19 1:33 2:47 \nHe might go to work\nhi maɪt goʊ tɪ wərk\nគាត់ប្រហែលជាទៅធ្វើការ\n\n0:32 1:46 3:00 \nI might go to work\naɪ maɪt goʊ tɪ wərk\nខ្ញុំអាចទៅធ្វើការ\n\n0:46 2:00 3:14 \nI might not go to work\naɪ maɪt nɑt goʊ tɪ wərk\nខ្ញុំប្រហែលជាមិនទៅធ្វើការទេ\n\n0:59 2:13 3:27 \nHe might not go to work\nhi maɪt nɑt goʊ tɪ wərk\nគាត់ប្រហែលជាមិនទៅធ្វើការទេ\n\n\n\nជូនដល់គ្រូនិងសាលា៖\nវីដេអូនេះត្រូវបានផ្សព្វផ្សាយក្រោមអាជ្ញាប័ណ្ណច្នៃប្រឌិត។\n  CC BY 3.0 https://creativecommons.org/licenses/by/3.0/ \nសូមប្រើវីដេអូនេះនៅក្នុងថ្នាក់របស់អ្នកដោយឥតគិតថ្លៃ!\n\nយើងប្រើសេវាកម្មបកប្រែហ្គូហ្គលសម្រាប់ការធ្វើមូលដ្ឋានីយកម្ម។ ប្រសិនបើអ្នករកឃើញកំហុសខ្លះសូមប្រាប់ឱ្យយើងដឹង។\n"
    },
    {
      "Lang": "kn",
      "Title": "ಇಂಗ್ಲಿಷ್ ವ್ಯಾಕರಣ ವ್ಯಾಯಾಮ | ಸರಳ ⭐️ #69 might",
      "Description": "ಇಂಗ್ಲಿಷ್ ವ್ಯಾಕರಣ ಕಲಿಯಿರಿ! ಒಂದು ವಾಕ್ಯದಲ್ಲಿ ಪದವನ್ನು ಬದಲಾಯಿಸಿ.\n\n\n\n0:04 1:18 2:32 \nHe might go to the library\nhi maɪt goʊ tɪ ðə ˈlaɪbrɛˌri\nಅವನು ಗ್ರಂಥಾಲಯಕ್ಕೆ ಹೋಗಬಹುದು\n\n0:19 1:33 2:47 \nHe might go to work\nhi maɪt goʊ tɪ wərk\nಅವನು ಕೆಲಸಕ್ಕೆ ಹೋಗಬಹುದು\n\n0:32 1:46 3:00 \nI might go to work\naɪ maɪt goʊ tɪ wərk\nನಾನು ಕೆಲಸಕ್ಕೆ ಹೋಗಬಹುದು\n\n0:46 2:00 3:14 \nI might not go to work\naɪ maɪt nɑt goʊ tɪ wərk\nನಾನು ಕೆಲಸಕ್ಕೆ ಹೋಗದಿರಬಹುದು\n\n0:59 2:13 3:27 \nHe might not go to work\nhi maɪt nɑt goʊ tɪ wərk\nಅವನು ಕೆಲಸಕ್ಕೆ ಹೋಗದಿರಬಹುದು\n\n\n\nಶಿಕ್ಷಕರು ಮತ್ತು ಶಾಲೆಗಳಿಗೆ:\nಈ ವೀಡಿಯೊವನ್ನು ಕ್ರಿಯೇಟಿವ್ ಕಾಮನ್ಸ್ ಪರವಾನಗಿ ಅಡಿಯಲ್ಲಿ ಪ್ರಕಟಿಸಲಾಗಿದೆ.\n  CC BY 3.0 https://creativecommons.org/licenses/by/3.0/ \nನಿಮ್ಮ ತರಗತಿಗಳಲ್ಲಿ ಈ ವೀಡಿಯೊವನ್ನು ಬಳಸಲು ಹಿಂಜರಿಯಬೇಡಿ!\n\nಸ್ಥಳೀಕರಣಕ್ಕಾಗಿ ನಾವು Google ಅನುವಾದ ಸೇವೆಯನ್ನು ಬಳಸುತ್ತೇವೆ. ನೀವು ಕೆಲವು ತಪ್ಪುಗಳನ್ನು ಕಂಡುಕೊಂಡರೆ, ದಯವಿಟ್ಟು ನಮಗೆ ತಿಳಿಸಿ.\n"
    },
    {
      "Lang": "ko",
      "Title": "영어 문법 연습 | 단순한 ⭐️ #69 might",
      "Description": "영어 문법 배우기! 문장에서 단어를 변경하십시오.\n\n\n\n0:04 1:18 2:32 \nHe might go to the library\nhi maɪt goʊ tɪ ðə ˈlaɪbrɛˌri\n그는 도서관에 갈지도 모른다\n\n0:19 1:33 2:47 \nHe might go to work\nhi maɪt goʊ tɪ wərk\n그는 일하러 갈지도 모른다\n\n0:32 1:46 3:00 \nI might go to work\naɪ maɪt goʊ tɪ wərk\n나는 일하러 갈지도 모른다\n\n0:46 2:00 3:14 \nI might not go to work\naɪ maɪt nɑt goʊ tɪ wərk\n일하러 가지 않을 수도 있습니다\n\n0:59 2:13 3:27 \nHe might not go to work\nhi maɪt nɑt goʊ tɪ wərk\n그는 일하러 가지 않을 수도 있습니다\n\n\n\n교사와 학교 :\n이 비디오는 Creative Commons License에 따라 게시됩니다.\n  CC BY 3.0 https://creativecommons.org/licenses/by/3.0/ \n이 비디오를 수업에 자유롭게 사용하십시오!\n\n현지화를 위해 Google 번역 서비스를 사용합니다. 실수가 있으면 알려주세요.\n"
    },
    {
      "Lang": "ku",
      "Title": "Pratîkên rêzimanê Englishngilîzî | Asan ⭐️ #69 might",
      "Description": "Gramera Englishngilîzî fêr bibin! Di hevokan de peyvek diguhezin.\n\n\n\n0:04 1:18 2:32 \nHe might go to the library\nhi maɪt goʊ tɪ ðə ˈlaɪbrɛˌri\nEw dibe ku here pirtûkxanê\n\n0:19 1:33 2:47 \nHe might go to work\nhi maɪt goʊ tɪ wərk\nEw dibe ku biçin xebatê\n\n0:32 1:46 3:00 \nI might go to work\naɪ maɪt goʊ tɪ wərk\nEz dibe ku biçim kar\n\n0:46 2:00 3:14 \nI might not go to work\naɪ maɪt nɑt goʊ tɪ wərk\nDibe ku ez neçûm ser karê xwe\n\n0:59 2:13 3:27 \nHe might not go to work\nhi maɪt nɑt goʊ tɪ wərk\nEw dibe ku neçin xebatê\n\n\n\nJi mamoste û dibistanan re:\nEv vîdyoyê di bin lîsansa Creative Commons-ê de hatî weşandin.\n  CC BY 3.0 https://creativecommons.org/licenses/by/3.0/ \nHêsan e ku hûn vê vîdyoyê di sinifên xwe de bikar bînin!\n\nEm ji bo herêmbûnê karûbarê Google Translate kar dikin. Heke hûn hin xeletiyan bibînin, ji kerema xwe ji me re agahdar bikin.\n"
    },
    {
      "Lang": "ky",
      "Title": "Англис тилинин грамматикасы боюнча көнүгүүлөр | жөнөкөй ⭐️ #69 might",
      "Description": "Үйрөнүү Англис тилинин грамматикасы! Сүйлөмдөгү Сөздү өзгөртүү.\n\n\n\n0:04 1:18 2:32 \nHe might go to the library\nhi maɪt goʊ tɪ ðə ˈlaɪbrɛˌri\nАл китепканага барып мүмкүн\n\n0:19 1:33 2:47 \nHe might go to work\nhi maɪt goʊ tɪ wərk\nАл жумушка барышым мүмкүн\n\n0:32 1:46 3:00 \nI might go to work\naɪ maɪt goʊ tɪ wərk\nМен жумушка барышым мүмкүн\n\n0:46 2:00 3:14 \nI might not go to work\naɪ maɪt nɑt goʊ tɪ wərk\nМен жумушка барышым үчүн,\n\n0:59 2:13 3:27 \nHe might not go to work\nhi maɪt nɑt goʊ tɪ wərk\nАл жумушка бара албай калышы мүмкүн\n\n\n\nмугалимдер жана мектептер үчүн:\nБул көргөзмө Creative Commons лиссиэнсийэ усулуобуйатынан жарыяланат.\n  CC BY 3.0 https://creativecommons.org/licenses/by/3.0/ \nСиздин класстары колдонсо болот!\n\nБиз Google локалдаштыруу үчүн Котормо кызматын пайдаланышат. Эгер кээ бир ката болсо, бизге айтып койуу.\n"
    },
    {
      "Lang": "lb",
      "Title": "Englesch Grammatikübungen | Einfach ⭐️ #69 might",
      "Description": "Léiert Englesch Grammatik! Ännert e Wuert an engem Saz.\n\n\n\n0:04 1:18 2:32 \nHe might go to the library\nhi maɪt goʊ tɪ ðə ˈlaɪbrɛˌri\nHie kéint an d'Bibliothéik goen\n\n0:19 1:33 2:47 \nHe might go to work\nhi maɪt goʊ tɪ wərk\nHie kéint goen fir ze schaffen\n\n0:32 1:46 3:00 \nI might go to work\naɪ maɪt goʊ tɪ wərk\nEch kéint op d'Aarbecht goen\n\n0:46 2:00 3:14 \nI might not go to work\naɪ maɪt nɑt goʊ tɪ wərk\nEch wäert vläicht net op d'Aarbecht goen\n\n0:59 2:13 3:27 \nHe might not go to work\nhi maɪt nɑt goʊ tɪ wərk\nHie geet vläicht net op d'Aarbecht\n\n\n\nUn de Schoulmeeschteren an d'Schoulen:\nDëse Video ass ënner der Creative Commons Lizenz verëffentlecht.\n  CC BY 3.0 https://creativecommons.org/licenses/by/3.0/ \nFillt gratis dësen Video zu Ären Klassen ze benotzen!\n\nMir benotzen den Google Translate Service fir d'Lokalisatioun. Wann Dir e puer Feeler fannt, da sot eis w.e.g.\n"
    },
    {
      "Lang": "lo",
      "Title": "ບົດເຝິກຫັດໄວຍາກອນພາສາອັງກິດ | ງ່າຍດາຍ ⭐️ #69 might",
      "Description": "ຮຽນຮູ້ຫລັກໄວຍາກອນພາສາອັງກິດ! ປ່ຽນ ຄຳ ສັບໃນປະໂຫຍກ.\n\n\n\n0:04 1:18 2:32 \nHe might go to the library\nhi maɪt goʊ tɪ ðə ˈlaɪbrɛˌri\nລາວອາດຈະໄປຫ້ອງສະມຸດ\n\n0:19 1:33 2:47 \nHe might go to work\nhi maɪt goʊ tɪ wərk\nລາວອາດຈະໄປເຮັດວຽກ\n\n0:32 1:46 3:00 \nI might go to work\naɪ maɪt goʊ tɪ wərk\nຂ້ອຍອາດຈະໄປເຮັດວຽກ\n\n0:46 2:00 3:14 \nI might not go to work\naɪ maɪt nɑt goʊ tɪ wərk\nຂ້ອຍອາດຈະບໍ່ໄປເຮັດວຽກ\n\n0:59 2:13 3:27 \nHe might not go to work\nhi maɪt nɑt goʊ tɪ wərk\nລາວອາດຈະບໍ່ໄປເຮັດວຽກ\n\n\n\nເຖິງຄູອາຈານແລະໂຮງຮຽນ:\nວິດີໂອນີ້ລົງພາຍໃຕ້ໃບອະນຸຍາດສ້າງສັນ.\n  CC BY 3.0 https://creativecommons.org/licenses/by/3.0/ \nຮູ້ສຶກວ່າບໍ່ເສຍຄ່າທີ່ຈະໃຊ້ວິດີໂອນີ້ໃນຫ້ອງຮຽນຂອງທ່ານ!\n\nພວກເຮົາໃຊ້ບໍລິການ Google Translate ສຳ ລັບການແປພາສາທ້ອງຖິ່ນ. ຖ້າທ່ານພົບຂໍ້ຜິດພາດບາງຢ່າງ, ກະລຸນາແຈ້ງພວກເຮົາ.\n"
    },
    {
      "Lang": "lt",
      "Title": "Anglų kalbos gramatikos pratimai | Paprasta ⭐️ #69 might",
      "Description": "Išmokite anglų kalbos gramatiką! Pakeiskite žodį sakinyje.\n\n\n\n0:04 1:18 2:32 \nHe might go to the library\nhi maɪt goʊ tɪ ðə ˈlaɪbrɛˌri\nJis gali nueiti į biblioteką\n\n0:19 1:33 2:47 \nHe might go to work\nhi maɪt goʊ tɪ wərk\nJis gali eiti į darbą\n\n0:32 1:46 3:00 \nI might go to work\naɪ maɪt goʊ tɪ wərk\nGalbūt eisiu į darbą\n\n0:46 2:00 3:14 \nI might not go to work\naɪ maɪt nɑt goʊ tɪ wərk\nAš galbūt neisiu į darbą\n\n0:59 2:13 3:27 \nHe might not go to work\nhi maɪt nɑt goʊ tɪ wərk\nJis gali neiti į darbą\n\n\n\nMokytojams ir mokykloms:\nŠis vaizdo įrašas paskelbtas naudojant „Creative Commons“ licenciją.\n  CC BY 3.0 https://creativecommons.org/licenses/by/3.0/ \nNesivaržykite naudotis šiuo vaizdo įrašu savo klasėse!\n\nLokalizavimui naudojame „Google Translate“ paslaugą. Jei radote klaidų, praneškite mums.\n"
    },
    {
      "Lang": "lv",
      "Title": "Angļu valodas gramatikas vingrinājumi | Vienkārši ⭐️ #69 might",
      "Description": "Mācieties angļu valodas gramatiku! Mainiet vārdu teikumā.\n\n\n\n0:04 1:18 2:32 \nHe might go to the library\nhi maɪt goʊ tɪ ðə ˈlaɪbrɛˌri\nViņš varētu iet uz bibliotēku\n\n0:19 1:33 2:47 \nHe might go to work\nhi maɪt goʊ tɪ wərk\nViņš varētu iet uz darbu\n\n0:32 1:46 3:00 \nI might go to work\naɪ maɪt goʊ tɪ wərk\nEs varētu iet uz darbu\n\n0:46 2:00 3:14 \nI might not go to work\naɪ maɪt nɑt goʊ tɪ wərk\nEs varētu neiet uz darbu\n\n0:59 2:13 3:27 \nHe might not go to work\nhi maɪt nɑt goʊ tɪ wərk\nViņš varētu neiet uz darbu\n\n\n\nSkolotājiem un skolām:\nŠis video ir publicēts saskaņā ar Creative Commons licenci.\n  CC BY 3.0 https://creativecommons.org/licenses/by/3.0/ \nJūtieties brīvi izmantot šo video savās nodarbībās!\n\nLokalizācijai mēs izmantojam Google Translate pakalpojumu. Ja atrodat dažas kļūdas, lūdzu, paziņojiet mums.\n"
    },
    {
      "Lang": "mg",
      "Title": "Fanatanjahantena anglisy | Simple ⭐️ #69 might",
      "Description": "Ianaro ny fitsipi-pitenenana anglisy! Manova teny amin'ny fehezanteny iray.\n\n\n\n0:04 1:18 2:32 \nHe might go to the library\nhi maɪt goʊ tɪ ðə ˈlaɪbrɛˌri\nMety handeha amin'ny tranomboky izy\n\n0:19 1:33 2:47 \nHe might go to work\nhi maɪt goʊ tɪ wərk\nMety handeha hiasa izy\n\n0:32 1:46 3:00 \nI might go to work\naɪ maɪt goʊ tɪ wərk\nMety handeha hiasa aho\n\n0:46 2:00 3:14 \nI might not go to work\naɪ maɪt nɑt goʊ tɪ wərk\nMety tsy handeha hiasa aho\n\n0:59 2:13 3:27 \nHe might not go to work\nhi maɪt nɑt goʊ tɪ wərk\nMety tsy handeha hiasa izy\n\n\n\nHo an'ireo mpampianatra sy sekoly:\nIty horonantsary ity dia navoaka eo ambanin'ny lisansa Creative Commons.\n  CC BY 3.0 https://creativecommons.org/licenses/by/3.0/ \nAza misalasala mampiasa an'io horonantsary io amin'ny kilasinao!\n\nMampiasa ny serivisy Google Translate izahay amin'ny fananganana toerana. Raha mahita hadisoana vitsivitsy ianao dia mba ampahafantaro anay.\n"
    },
    {
      "Lang": "mi",
      "Title": "Mahi whakangungu Ingarihi | He ngawari ⭐️ #69 might",
      "Description": "Akohia te paanui Ingarihi! Hurihia he kupu ki tetahi rerenga rerenga.\n\n\n\n0:04 1:18 2:32 \nHe might go to the library\nhi maɪt goʊ tɪ ðə ˈlaɪbrɛˌri\nKa haere pea ia ki te whare pukapuka\n\n0:19 1:33 2:47 \nHe might go to work\nhi maɪt goʊ tɪ wərk\nKa haere pea ia ki te mahi\n\n0:32 1:46 3:00 \nI might go to work\naɪ maɪt goʊ tɪ wərk\nKa haere pea au ki te mahi\n\n0:46 2:00 3:14 \nI might not go to work\naɪ maɪt nɑt goʊ tɪ wərk\nE kore pea au e haere ki te mahi\n\n0:59 2:13 3:27 \nHe might not go to work\nhi maɪt nɑt goʊ tɪ wərk\nKaore pea ia e haere ki te mahi\n\n\n\nKi nga kaiako me nga kura:\nKei te whakaputaina tenei ataata i raro i te Raihana Hoahoatanga.\n  CC BY 3.0 https://creativecommons.org/licenses/by/3.0/ \nKia kore e pai ki te whakamahi i tenei ataata i roto i o akomanga!\n\nKa whakamahia e matou he whakamaoritanga a Google mo te whakangao. Mena ka kitea e koe etahi he, tena koa kia mohio.\n"
    },
    {
      "Lang": "mk",
      "Title": "Вежби за граматика на англиски јазик | Едноставно ⭐️ #69 might",
      "Description": "Дознајте англиска граматика! Променете збор во реченица.\n\n\n\n0:04 1:18 2:32 \nHe might go to the library\nhi maɪt goʊ tɪ ðə ˈlaɪbrɛˌri\nМожеби отиде во библиотеката\n\n0:19 1:33 2:47 \nHe might go to work\nhi maɪt goʊ tɪ wərk\nМожеби оди на работа\n\n0:32 1:46 3:00 \nI might go to work\naɪ maɪt goʊ tɪ wərk\nМожеби одам на работа\n\n0:46 2:00 3:14 \nI might not go to work\naɪ maɪt nɑt goʊ tɪ wərk\nМожеби не одам на работа\n\n0:59 2:13 3:27 \nHe might not go to work\nhi maɪt nɑt goʊ tɪ wərk\nМожеби нема да оди на работа\n\n\n\nДо наставниците и училиштата:\nОва видео е објавено под лиценца Криејтив комонс.\n  CC BY 3.0 https://creativecommons.org/licenses/by/3.0/ \nСлободно можете да го користите ова видео во вашите часови!\n\nНие користиме услуга Google Translate за локализација. Ако најдете некои грешки, ве молиме кажете ни.\n"
    },
    {
      "Lang": "ml",
      "Title": "ഇംഗ്ലീഷ് വ്യാകരണ വ്യായാമങ്ങൾ | ലളിതം ⭐️ #69 might",
      "Description": "ഇംഗ്ലീഷ് വ്യാകരണം പഠിക്കൂ! ഒരു വാക്യത്തിൽ ഒരു വാക്ക് മാറ്റുക.\n\n\n\n0:04 1:18 2:32 \nHe might go to the library\nhi maɪt goʊ tɪ ðə ˈlaɪbrɛˌri\nഅദ്ദേഹം ലൈബ്രറിയിലേക്ക് പോകാം\n\n0:19 1:33 2:47 \nHe might go to work\nhi maɪt goʊ tɪ wərk\nഅയാൾ ജോലിക്ക് പോയേക്കാം\n\n0:32 1:46 3:00 \nI might go to work\naɪ maɪt goʊ tɪ wərk\nഞാൻ ജോലിക്ക് പോകാം\n\n0:46 2:00 3:14 \nI might not go to work\naɪ maɪt nɑt goʊ tɪ wərk\nഞാൻ ജോലിക്ക് പോയില്ലായിരിക്കാം\n\n0:59 2:13 3:27 \nHe might not go to work\nhi maɪt nɑt goʊ tɪ wərk\nഅയാൾ ജോലിക്ക് പോയില്ലായിരിക്കാം\n\n\n\nഅധ്യാപകർക്കും സ്കൂളുകൾക്കും:\nക്രിയേറ്റീവ് കോമൺസ് ലൈസൻസിന് കീഴിൽ ഈ വീഡിയോ പ്രസിദ്ധീകരിച്ചു.\n  CC BY 3.0 https://creativecommons.org/licenses/by/3.0/ \nനിങ്ങളുടെ ക്ലാസുകളിൽ ഈ വീഡിയോ ഉപയോഗിക്കാൻ മടിക്കേണ്ടതില്ല!\n\nപ്രാദേശികവൽക്കരണത്തിനായി ഞങ്ങൾ Google വിവർത്തന സേവനം ഉപയോഗിക്കുന്നു. നിങ്ങൾ ചില തെറ്റുകൾ കണ്ടെത്തുകയാണെങ്കിൽ, ഞങ്ങളെ അറിയിക്കുക.\n"
    },
    {
      "Lang": "mn",
      "Title": "Англи хэлний дүрмийн дасгал | Энгийн ⭐️ #69 might",
      "Description": "Англи хэлний дүрмийн мэдлэгийг сур! Үгийг өгүүлбэр болгон өөрчил.\n\n\n\n0:04 1:18 2:32 \nHe might go to the library\nhi maɪt goʊ tɪ ðə ˈlaɪbrɛˌri\nТэр номын санд очиж магадгүй\n\n0:19 1:33 2:47 \nHe might go to work\nhi maɪt goʊ tɪ wərk\nТэр ажилдаа явж магадгүй юм\n\n0:32 1:46 3:00 \nI might go to work\naɪ maɪt goʊ tɪ wərk\nБи ажилдаа орж магадгүй юм\n\n0:46 2:00 3:14 \nI might not go to work\naɪ maɪt nɑt goʊ tɪ wərk\nБи ажилдаа явахгүй байж магадгүй юм\n\n0:59 2:13 3:27 \nHe might not go to work\nhi maɪt nɑt goʊ tɪ wərk\nТэр ажилдаа явахгүй байж магадгүй юм\n\n\n\nБагш, сургуулиудад:\nЭнэ видео нь Creative Commons License лиценз дээр нийтлэгдсэн.\n  CC BY 3.0 https://creativecommons.org/licenses/by/3.0/ \nЭнэ видеог өөрийн ангиудад ашиглах боломжтой шүү!\n\nБид Google Translate үйлчилгээг нутагшуулах зорилгоор ашигладаг. Хэрэв та алдаа олвол бидэнд мэдэгдээрэй.\n"
    },
    {
      "Lang": "mr",
      "Title": "इंग्रजी व्याकरण व्यायाम | सोपे ⭐️ #69 might",
      "Description": "इंग्रजी व्याकरण जाणून घ्या! एका वाक्यात शब्द बदला.\n\n\n\n0:04 1:18 2:32 \nHe might go to the library\nhi maɪt goʊ tɪ ðə ˈlaɪbrɛˌri\nतो कदाचित ग्रंथालयात जाईल\n\n0:19 1:33 2:47 \nHe might go to work\nhi maɪt goʊ tɪ wərk\nतो कदाचित कामावर जाईल\n\n0:32 1:46 3:00 \nI might go to work\naɪ maɪt goʊ tɪ wərk\nमी कदाचित कामावर जाऊ\n\n0:46 2:00 3:14 \nI might not go to work\naɪ maɪt nɑt goʊ tɪ wərk\nमी कदाचित कामावर जाऊ शकत नाही\n\n0:59 2:13 3:27 \nHe might not go to work\nhi maɪt nɑt goʊ tɪ wərk\nतो कदाचित कामावर जाऊ शकत नाही\n\n\n\nशिक्षक आणि शाळा यांना:\nहा व्हिडिओ क्रिएटिव्ह कॉमन्स परवान्या अंतर्गत प्रकाशित झाला आहे.\n  CC BY 3.0 https://creativecommons.org/licenses/by/3.0/ \nआपल्या वर्गांमध्ये हा व्हिडिओ वापरण्यास मोकळ्या मनाने!\n\nआम्ही स्थानिकीकरणासाठी Google भाषांतर सेवा वापरतो. आपल्याला काही चुका आढळल्यास कृपया आम्हाला कळवा.\n"
    },
    {
      "Lang": "ms",
      "Title": "Latihan tatabahasa Bahasa Inggeris | Mudah ⭐️ #69 might",
      "Description": "Belajar bahasa Inggeris! Tukar perkataan dalam ayat.\n\n\n\n0:04 1:18 2:32 \nHe might go to the library\nhi maɪt goʊ tɪ ðə ˈlaɪbrɛˌri\nDia mungkin pergi ke perpustakaan\n\n0:19 1:33 2:47 \nHe might go to work\nhi maɪt goʊ tɪ wərk\nDia mungkin pergi bekerja\n\n0:32 1:46 3:00 \nI might go to work\naɪ maɪt goʊ tɪ wərk\nSaya mungkin pergi bekerja\n\n0:46 2:00 3:14 \nI might not go to work\naɪ maɪt nɑt goʊ tɪ wərk\nSaya mungkin tidak pergi bekerja\n\n0:59 2:13 3:27 \nHe might not go to work\nhi maɪt nɑt goʊ tɪ wərk\nDia mungkin tidak pergi bekerja\n\n\n\nKepada guru dan sekolah:\nVideo ini diterbitkan di bawah Lesen Creative Commons.\n  CC BY 3.0 https://creativecommons.org/licenses/by/3.0/ \nJangan ragu untuk menggunakan video ini dalam kelas anda!\n\nKami menggunakan perkhidmatan Terjemahan Google untuk penyetempatan. Jika anda mendapati beberapa kesilapan, sila beritahu kami.\n"
    },
    {
      "Lang": "mt",
      "Title": "Eżerċizzji ta 'grammatika Ingliża | Sempliċi ⭐️ #69 might",
      "Description": "Tgħallem il-grammatika Ingliża! Ibdel kelma f’sentenza.\n\n\n\n0:04 1:18 2:32 \nHe might go to the library\nhi maɪt goʊ tɪ ðə ˈlaɪbrɛˌri\nHuwa jista 'jmur il-librerija\n\n0:19 1:33 2:47 \nHe might go to work\nhi maɪt goʊ tɪ wərk\nHuwa jista 'jmur għax-xogħol\n\n0:32 1:46 3:00 \nI might go to work\naɪ maɪt goʊ tɪ wərk\nJista 'mmur naħdem\n\n0:46 2:00 3:14 \nI might not go to work\naɪ maɪt nɑt goʊ tɪ wərk\nJista ’ma nkunx immur naħdem\n\n0:59 2:13 3:27 \nHe might not go to work\nhi maɪt nɑt goʊ tɪ wərk\nHu ma jistax imur għax-xogħol\n\n\n\nGħalliema u skejjel:\nDan il-video huwa ppublikat taħt il-Liċenzja Creative Commons.\n  CC BY 3.0 https://creativecommons.org/licenses/by/3.0/ \nĦossok liberu li tuża dan il-video fil-klassijiet tiegħek!\n\nAħna nużaw servizz Google Translate għall-lokalizzazzjoni. Jekk issib xi żbalji, jekk jogħġbok għarrafna.\n"
    },
    {
      "Lang": "my",
      "Title": "အင်္ဂလိပ်သဒ္ဒါလေ့ကျင့်ခန်း | ရိုးရှင်းသော ⭐️ #69 might",
      "Description": "အင်္ဂလိပ်သဒ္ဒါကိုလေ့လာပါ။ ဝါကျတွင်စကားလုံးတစ်လုံးပြောင်းပါ။\n\n\n\n0:04 1:18 2:32 \nHe might go to the library\nhi maɪt goʊ tɪ ðə ˈlaɪbrɛˌri\nသူကစာကြည့်တိုက်ကိုသွားမယ်\n\n0:19 1:33 2:47 \nHe might go to work\nhi maɪt goʊ tɪ wərk\nသူအလုပ်သွားနိုင်သည်\n\n0:32 1:46 3:00 \nI might go to work\naɪ maɪt goʊ tɪ wərk\nငါအလုပ်သွားနိုင်သည်\n\n0:46 2:00 3:14 \nI might not go to work\naɪ maɪt nɑt goʊ tɪ wərk\nငါအလုပ်သွားမသွားဘူး\n\n0:59 2:13 3:27 \nHe might not go to work\nhi maɪt nɑt goʊ tɪ wərk\nသူအလုပ်သွားမသွားဘူး\n\n\n\nဆရာများနှင့်ကျောင်းများသို့\nဒီဗီဒီယိုကို Creative Commons လိုင်စင်အောက်မှာထုတ်ဝေထားတယ်။\n  CC BY 3.0 https://creativecommons.org/licenses/by/3.0/ \nဤဗီဒီယိုကိုသင်၏အတန်းများ၌အခမဲ့အသုံးပြုပါ။\n\nကျွန်ုပ်တို့သည်ဒေသခံဘာသာပြန်အတွက် Google Translate ဝန်ဆောင်မှုကိုအသုံးပြုသည်။ သင်အမှားအယွင်းများအချို့ရှိပါကကျွန်ုပ်တို့အားအသိပေးပါ။\n"
    },
    {
      "Lang": "ne",
      "Title": "अंग्रेजी व्याकरण व्यायाम | सरल ⭐️ #69 might",
      "Description": "अंग्रेजी व्याकरण सिक्नुहोस्! एक वाक्य मा एक शब्द बदल्नुहोस्।\n\n\n\n0:04 1:18 2:32 \nHe might go to the library\nhi maɪt goʊ tɪ ðə ˈlaɪbrɛˌri\nऊ पुस्तकालयमा जान सक्छ\n\n0:19 1:33 2:47 \nHe might go to work\nhi maɪt goʊ tɪ wərk\nऊ काममा जान सक्छ\n\n0:32 1:46 3:00 \nI might go to work\naɪ maɪt goʊ tɪ wərk\nम काममा जान सक्छु\n\n0:46 2:00 3:14 \nI might not go to work\naɪ maɪt nɑt goʊ tɪ wərk\nम काममा जान सक्दिन\n\n0:59 2:13 3:27 \nHe might not go to work\nhi maɪt nɑt goʊ tɪ wərk\nऊ काममा जान सक्दैन\n\n\n\nशिक्षक र विद्यालयहरुलाई:\nयो भिडियो क्रिएटिभ कमन्स लाइसेन्स अन्तर्गत प्रकाशित गरिएको छ।\n  CC BY 3.0 https://creativecommons.org/licenses/by/3.0/ \nतपाईंको कक्षामा यो भिडियो प्रयोग गर्न स्वतन्त्र महसुस गर्नुहोस्!\n\nहामी स्थानीयकरणको लागि गुगल अनुवाद सेवा प्रयोग गर्दछौं। यदि तपाईंले केहि गल्तीहरू फेला पार्नुभयो भने, कृपया हामीलाई खबर गर्नुहोस्।\n"
    },
    {
      "Lang": "nl",
      "Title": "Engelse grammatica-oefeningen | Gemakkelijk ⭐️ #69 might",
      "Description": "Leer Engelse grammatica! Verander een woord in een zin.\n\n\n\n0:04 1:18 2:32 \nHe might go to the library\nhi maɪt goʊ tɪ ðə ˈlaɪbrɛˌri\nHij zou naar de bibliotheek kunnen gaan\n\n0:19 1:33 2:47 \nHe might go to work\nhi maɪt goʊ tɪ wərk\nHij zou kunnen gaan werken\n\n0:32 1:46 3:00 \nI might go to work\naɪ maɪt goʊ tɪ wərk\nIk ga misschien naar mijn werk\n\n0:46 2:00 3:14 \nI might not go to work\naɪ maɪt nɑt goʊ tɪ wərk\nIk ga misschien niet naar mijn werk\n\n0:59 2:13 3:27 \nHe might not go to work\nhi maɪt nɑt goʊ tɪ wərk\nHij gaat misschien niet naar zijn werk\n\n\n\nAan leraren en scholen:\nDeze video is gepubliceerd onder Creative Commons License.\n  CC BY 3.0 https://creativecommons.org/licenses/by/3.0/ \nVoel je vrij om deze video in je lessen te gebruiken!\n\nWe gebruiken de Google Translate-service voor lokalisatie. Laat het ons weten als u fouten ontdekt.\n"
    },
    {
      "Lang": "no",
      "Title": "Engelsk grammatikkøvelser | Enkel ⭐️ #69 might",
      "Description": "Lær engelsk grammatikk! Endre et ord i en setning.\n\n\n\n0:04 1:18 2:32 \nHe might go to the library\nhi maɪt goʊ tɪ ðə ˈlaɪbrɛˌri\nHan kan gå til biblioteket\n\n0:19 1:33 2:47 \nHe might go to work\nhi maɪt goʊ tɪ wərk\nHan kan gå på jobb\n\n0:32 1:46 3:00 \nI might go to work\naɪ maɪt goʊ tɪ wərk\nJeg går kanskje på jobb\n\n0:46 2:00 3:14 \nI might not go to work\naɪ maɪt nɑt goʊ tɪ wərk\nJeg kan ikke gå på jobb\n\n0:59 2:13 3:27 \nHe might not go to work\nhi maɪt nɑt goʊ tɪ wərk\nHan vil kanskje ikke gå på jobb\n\n\n\nTil lærere og skoler:\nDenne videoen er publisert under Creative Commons License.\n  CC BY 3.0 https://creativecommons.org/licenses/by/3.0/ \nBruk gjerne denne videoen i klassene dine!\n\nVi bruker Google Translate-tjenesten for lokalisering. Gi beskjed hvis du finner noen feil.\n"
    },
    {
      "Lang": "pa",
      "Title": "ਅੰਗਰੇਜ਼ੀ ਵਿਆਕਰਣ ਅਭਿਆਸ | ਆਸਾਨ ⭐️ #69 might",
      "Description": "ਅੰਗਰੇਜ਼ੀ ਵਿਆਕਰਣ ਸਿੱਖੋ! ਇੱਕ ਵਾਕ ਵਿੱਚ ਇੱਕ ਸ਼ਬਦ ਬਦਲੋ.\n\n\n\n0:04 1:18 2:32 \nHe might go to the library\nhi maɪt goʊ tɪ ðə ˈlaɪbrɛˌri\nਉਹ ਸ਼ਾਇਦ ਲਾਇਬ੍ਰੇਰੀ ਵਿਚ ਜਾ ਸਕੇ\n\n0:19 1:33 2:47 \nHe might go to work\nhi maɪt goʊ tɪ wərk\nਉਹ ਕੰਮ ਤੇ ਜਾ ਸਕਦਾ ਹੈ\n\n0:32 1:46 3:00 \nI might go to work\naɪ maɪt goʊ tɪ wərk\nਮੈਂ ਕੰਮ ਤੇ ਜਾ ਸਕਦਾ ਹਾਂ\n\n0:46 2:00 3:14 \nI might not go to work\naɪ maɪt nɑt goʊ tɪ wərk\nਮੈਂ ਸ਼ਾਇਦ ਕੰਮ ਤੇ ਨਹੀਂ ਜਾਵਾਂਗਾ\n\n0:59 2:13 3:27 \nHe might not go to work\nhi maɪt nɑt goʊ tɪ wərk\nਉਹ ਸ਼ਾਇਦ ਕੰਮ ਤੇ ਨਾ ਜਾਵੇ\n\n\n\nਅਧਿਆਪਕਾਂ ਅਤੇ ਸਕੂਲਾਂ ਨੂੰ:\nਇਹ ਵੀਡੀਓ ਕਰੀਏਟਿਵ ਕਾਮਨਜ਼ ਲਾਇਸੈਂਸ ਅਧੀਨ ਪ੍ਰਕਾਸ਼ਤ ਕੀਤਾ ਗਿਆ ਹੈ.\n  CC BY 3.0 https://creativecommons.org/licenses/by/3.0/ \nਇਸ ਕਲਾਸ ਨੂੰ ਆਪਣੀਆਂ ਕਲਾਸਾਂ ਵਿਚ ਵਰਤਣ ਲਈ ਮੁਫ਼ਤ ਮਹਿਸੂਸ ਕਰੋ!\n\nਅਸੀਂ ਸਥਾਨਕਕਰਨ ਲਈ ਗੂਗਲ ਅਨੁਵਾਦ ਸੇਵਾ ਦੀ ਵਰਤੋਂ ਕਰਦੇ ਹਾਂ. ਜੇ ਤੁਹਾਨੂੰ ਕੁਝ ਗਲਤੀਆਂ ਮਿਲਦੀਆਂ ਹਨ, ਤਾਂ ਕਿਰਪਾ ਕਰਕੇ ਸਾਨੂੰ ਦੱਸੋ.\n"
    },
    {
      "Lang": "pl",
      "Title": "Gramatyka angielska | Prosty ⭐️ #69 might",
      "Description": "Ucz się gramatyki angielskiej! Zmień słowo w zdaniu.\n\n\n\n0:04 1:18 2:32 \nHe might go to the library\nhi maɪt goʊ tɪ ðə ˈlaɪbrɛˌri\nMoże pójść do biblioteki\n\n0:19 1:33 2:47 \nHe might go to work\nhi maɪt goʊ tɪ wərk\nOn może iść do pracy\n\n0:32 1:46 3:00 \nI might go to work\naɪ maɪt goʊ tɪ wərk\nMogę iść do pracy\n\n0:46 2:00 3:14 \nI might not go to work\naɪ maɪt nɑt goʊ tɪ wərk\nMogę nie iść do pracy\n\n0:59 2:13 3:27 \nHe might not go to work\nhi maɪt nɑt goʊ tɪ wərk\nMoże nie iść do pracy\n\n\n\nDo nauczycieli i szkół:\nTen film jest opublikowany na licencji Creative Commons.\n  CC BY 3.0 https://creativecommons.org/licenses/by/3.0/ \nZachęcamy do korzystania z tego filmu na zajęciach!\n\nDo lokalizacji używamy usługi Tłumacz Google. Jeśli znajdziesz jakieś błędy, daj nam znać.\n"
    },
    {
      "Lang": "ps",
      "Title": "انګلیسي ګرامر تمرینونه | ساده ⭐️ #69 might",
      "Description": "انګلیسي ګرامر زده کړئ! یوه جمله په یوه جمله بدله کړئ.\n\n\n\n0:04 1:18 2:32 \nHe might go to the library\nhi maɪt goʊ tɪ ðə ˈlaɪbrɛˌri\nهغه شاید کتابتون ته لاړ شي\n\n0:19 1:33 2:47 \nHe might go to work\nhi maɪt goʊ tɪ wərk\nهغه ممکن کار ته لاړ شي\n\n0:32 1:46 3:00 \nI might go to work\naɪ maɪt goʊ tɪ wərk\nزه ممکن کار ته لاړ شم\n\n0:46 2:00 3:14 \nI might not go to work\naɪ maɪt nɑt goʊ tɪ wərk\nزه شاید کار ته نه ځم\n\n0:59 2:13 3:27 \nHe might not go to work\nhi maɪt nɑt goʊ tɪ wərk\nهغه ممکن کار ته لاړ نشي\n\n\n\nښوونکو او ښوونځیو ته:\nدا ویډیو د کریټیو کامنز لایسنس لاندې خپره شوې ده.\n  CC BY 3.0 https://creativecommons.org/licenses/by/3.0/ \nپه خپلو ټولګیو کې د دې ویډیو کارولو لپاره وړیا احساس وکړئ!\n\nموږ د ځایی کولو لپاره د ګوګل ژباړن خدمت کاروو. که تاسو ځینې غلطۍ ومومئ ، مهرباني وکړئ موږ ته خبر راکړئ.\n"
    },
    {
      "Lang": "pt",
      "Title": "Exercícios de gramática inglesa | Simples ⭐️ #69 might",
      "Description": "Aprenda gramática inglesa! Mude uma palavra em uma frase.\n\n\n\n0:04 1:18 2:32 \nHe might go to the library\nhi maɪt goʊ tɪ ðə ˈlaɪbrɛˌri\nEle pode ir à biblioteca\n\n0:19 1:33 2:47 \nHe might go to work\nhi maɪt goʊ tɪ wərk\nEle pode ir trabalhar\n\n0:32 1:46 3:00 \nI might go to work\naɪ maɪt goʊ tɪ wərk\nEu posso ir trabalhar\n\n0:46 2:00 3:14 \nI might not go to work\naɪ maɪt nɑt goʊ tɪ wərk\nEu posso não ir trabalhar\n\n0:59 2:13 3:27 \nHe might not go to work\nhi maɪt nɑt goʊ tɪ wərk\nEle pode não ir trabalhar\n\n\n\nPara professores e escolas:\nEste vídeo é publicado sob licença Creative Commons.\n  CC BY 3.0 https://creativecommons.org/licenses/by/3.0/ \nSinta-se livre para usar este vídeo em suas aulas!\n\nUsamos o serviço Google Translate para localização. Se você encontrar algum erro, informe-nos.\n"
    },
    {
      "Lang": "ro",
      "Title": "Exerciții de gramatică engleză | Simplu ⭐️ #69 might",
      "Description": "Învață gramatica engleză! Schimbă un cuvânt într-o propoziție.\n\n\n\n0:04 1:18 2:32 \nHe might go to the library\nhi maɪt goʊ tɪ ðə ˈlaɪbrɛˌri\nS-ar putea să meargă la bibliotecă\n\n0:19 1:33 2:47 \nHe might go to work\nhi maɪt goʊ tɪ wərk\nS-ar putea să meargă la muncă\n\n0:32 1:46 3:00 \nI might go to work\naɪ maɪt goʊ tɪ wərk\nS-ar putea să merg la serviciu\n\n0:46 2:00 3:14 \nI might not go to work\naɪ maɪt nɑt goʊ tɪ wərk\nS-ar putea să nu merg la serviciu\n\n0:59 2:13 3:27 \nHe might not go to work\nhi maɪt nɑt goʊ tɪ wərk\nS-ar putea să nu meargă la muncă\n\n\n\nPentru profesori și școli:\nAcest videoclip este publicat sub licență Creative Commons.\n  CC BY 3.0 https://creativecommons.org/licenses/by/3.0/ \nSimte-te liber să folosești acest videoclip în orele tale!\n\nFolosim serviciul Google Translate pentru localizare. Dacă găsiți unele greșeli, vă rugăm să ne informați.\n"
    },
    {
      "Lang": "ru",
      "Title": "Упражнения по английской грамматике | просто ⭐️ #69 might",
      "Description": "Изучай английскую грамматику! Изменить слово в предложении.\n\n\n\n0:04 1:18 2:32 \nHe might go to the library\nhi maɪt goʊ tɪ ðə ˈlaɪbrɛˌri\nОн может пойти в библиотеку\n\n0:19 1:33 2:47 \nHe might go to work\nhi maɪt goʊ tɪ wərk\nОн может пойти на работу\n\n0:32 1:46 3:00 \nI might go to work\naɪ maɪt goʊ tɪ wərk\nЯ мог бы пойти на работу\n\n0:46 2:00 3:14 \nI might not go to work\naɪ maɪt nɑt goʊ tɪ wərk\nЯ не могу идти на работу\n\n0:59 2:13 3:27 \nHe might not go to work\nhi maɪt nɑt goʊ tɪ wərk\nОн не может идти на работу\n\n\n\nУчителям и школам:\nЭто видео опубликовано под лицензией Creative Commons.\n  CC BY 3.0 https://creativecommons.org/licenses/by/3.0/ \nНе стесняйтесь использовать это видео в своих классах!\n\nМы используем сервис Google Translate для локализации. Если вы обнаружите ошибки, сообщите нам.\n"
    },
    {
      "Lang": "sd",
      "Title": "سنڌي گرامر مشق | سادو ⭐️ #69 might",
      "Description": "انگريزي گرامر سکو! ھڪ لفظ ۾ ھڪڙي تبديلي آڻيو.\n\n\n\n0:04 1:18 2:32 \nHe might go to the library\nhi maɪt goʊ tɪ ðə ˈlaɪbrɛˌri\nاھو لائبريري ڏانھن وڃو\n\n0:19 1:33 2:47 \nHe might go to work\nhi maɪt goʊ tɪ wərk\nهو ڪم تي وڃو\n\n0:32 1:46 3:00 \nI might go to work\naɪ maɪt goʊ tɪ wərk\nمان ڪم تي وڃان ٿو\n\n0:46 2:00 3:14 \nI might not go to work\naɪ maɪt nɑt goʊ tɪ wərk\nمان ڪم تي نه وڃان ٿو\n\n0:59 2:13 3:27 \nHe might not go to work\nhi maɪt nɑt goʊ tɪ wərk\nهو ڪم تي نه ٿي سگھي\n\n\n\nاستاد ۽ اسڪولن ڏانهن:\nهيء وڊيو تخليقي العام لائسنس هيٺ شايع ٿيل آهي.\n  CC BY 3.0 https://creativecommons.org/licenses/by/3.0/ \nپنهنجي وڊيوز ۾ هن وڊيو کي استعمال ڪرڻ لاء آزاد ٿيو!\n\nاسان مقامي ڪرڻ لاء گوگل ترجمو سروس استعمال ڪندا آهيون. جيڪڏهن توهان ڪجهه غلطي ڳوليندا آهيو، مهرباني ڪري اسان کي ڄاڻ ڏيو.\n"
    },
    {
      "Lang": "si",
      "Title": "ඉංග්‍රීසි ව්‍යාකරණ අභ්‍යාස | සරල ⭐️ #69 might",
      "Description": "ඉංග්‍රීසි ව්‍යාකරණ ඉගෙන ගන්න! වාක්‍යයක වචනයක් වෙනස් කරන්න.\n\n\n\n0:04 1:18 2:32 \nHe might go to the library\nhi maɪt goʊ tɪ ðə ˈlaɪbrɛˌri\nඔහු පුස්තකාලයට යා හැකිය\n\n0:19 1:33 2:47 \nHe might go to work\nhi maɪt goʊ tɪ wərk\nඔහු රැකියාවට යන්න ඇති\n\n0:32 1:46 3:00 \nI might go to work\naɪ maɪt goʊ tɪ wərk\nමට වැඩට යන්න පුළුවන්\n\n0:46 2:00 3:14 \nI might not go to work\naɪ maɪt nɑt goʊ tɪ wərk\nමම රැකියාවට නොයනු ඇත\n\n0:59 2:13 3:27 \nHe might not go to work\nhi maɪt nɑt goʊ tɪ wərk\nඔහු රැකියාවට නොයනු ඇත\n\n\n\nගුරුවරුන්ට සහ පාසල්වලට:\nමෙම වීඩියෝව නිර්මාණාත්මක පොදු බලපත්‍රය යටතේ ප්‍රකාශයට පත් කෙරේ.\n  CC BY 3.0 https://creativecommons.org/licenses/by/3.0/ \nඔබේ පංතිවල මෙම වීඩියෝව භාවිතා කිරීමට නිදහස් වන්න!\n\nප්‍රාදේශීයකරණය සඳහා අපි ගූගල් පරිවර්තන සේවාව භාවිතා කරමු. ඔබ යම් වැරැද්දක් සොයා ගන්නේ නම්, කරුණාකර අපට දන්වන්න.\n"
    },
    {
      "Lang": "sk",
      "Title": "Anglické gramatické cvičenia | prostý ⭐️ #69 might",
      "Description": "Naučte sa anglickú gramatiku! Zmeniť slovo vo vete.\n\n\n\n0:04 1:18 2:32 \nHe might go to the library\nhi maɪt goʊ tɪ ðə ˈlaɪbrɛˌri\nMohol by ísť do knižnice\n\n0:19 1:33 2:47 \nHe might go to work\nhi maɪt goʊ tɪ wərk\nMohol by ísť do práce\n\n0:32 1:46 3:00 \nI might go to work\naɪ maɪt goʊ tɪ wərk\nMohol by som ísť do práce\n\n0:46 2:00 3:14 \nI might not go to work\naɪ maɪt nɑt goʊ tɪ wərk\nMožno nebudem chodiť do práce\n\n0:59 2:13 3:27 \nHe might not go to work\nhi maɪt nɑt goʊ tɪ wərk\nMožno nebude chodiť do práce\n\n\n\nPre učiteľov a školy:\nToto video je publikované pod licenciou Creative Commons License.\n  CC BY 3.0 https://creativecommons.org/licenses/by/3.0/ \nNeváhajte použiť toto video vo svojich triedach!\n\nNa lokalizáciu používame službu Prekladač Google. Ak nájdete nejaké chyby, dajte nám vedieť.\n"
    },
    {
      "Lang": "sl",
      "Title": "Angleške slovnične vaje | Preprosto ⭐️ #69 might",
      "Description": "Naučite se angleške slovnice! Spremenite besedo v stavku.\n\n\n\n0:04 1:18 2:32 \nHe might go to the library\nhi maɪt goʊ tɪ ðə ˈlaɪbrɛˌri\nMorda bo šel v knjižnico\n\n0:19 1:33 2:47 \nHe might go to work\nhi maɪt goʊ tɪ wərk\nMorda bo šel v službo\n\n0:32 1:46 3:00 \nI might go to work\naɪ maɪt goʊ tɪ wərk\nLahko grem v službo\n\n0:46 2:00 3:14 \nI might not go to work\naɪ maɪt nɑt goʊ tɪ wərk\nMogoče ne bi šel v službo\n\n0:59 2:13 3:27 \nHe might not go to work\nhi maɪt nɑt goʊ tɪ wərk\nMorda ne bo šel v službo\n\n\n\nUčiteljem in šolam:\nTa videoposnetek je objavljen pod licenco Creative Commons.\n  CC BY 3.0 https://creativecommons.org/licenses/by/3.0/ \nUporabite ta video v svojih razredih!\n\nZa lokalizacijo uporabljamo storitev Google Translate. Če najdete nekaj napak, nas obvestite.\n"
    },
    {
      "Lang": "sm",
      "Title": "Gagana o le gagana Gagana Peretania | Faigofie ⭐️ #69 might",
      "Description": "Aoao le gagana Gagana Peretania! Sui se upu i se fuaiupu.\n\n\n\n0:04 1:18 2:32 \nHe might go to the library\nhi maɪt goʊ tɪ ðə ˈlaɪbrɛˌri\nE mafai ona alu i le faletusi\n\n0:19 1:33 2:47 \nHe might go to work\nhi maɪt goʊ tɪ wərk\nAtonu e alu o ia i le galuega\n\n0:32 1:46 3:00 \nI might go to work\naɪ maɪt goʊ tɪ wərk\nE mafai ona ou alu i le galuega\n\n0:46 2:00 3:14 \nI might not go to work\naɪ maɪt nɑt goʊ tɪ wərk\nAtonu ou te le alu e faigaluega\n\n0:59 2:13 3:27 \nHe might not go to work\nhi maɪt nɑt goʊ tɪ wərk\nAtonu e le alu e faigaluega\n\n\n\nI faiaoga ma aʻoga:\nO lenei vitio ua lomia i lalo o le Creative Commons License.\n  CC BY 3.0 https://creativecommons.org/licenses/by/3.0/ \nLagona le saoloto e faʻaaoga lenei vitio i au vasega!\n\nMatou te faʻaaoga le Google Translate auaunaga mo le faʻasalalauga. Afai e te maua ni mea sese, faʻamolemole ia e iloa.\n"
    },
    {
      "Lang": "sn",
      "Title": "Chirungu grammar Exercise | Nyore ⭐️ #69 might",
      "Description": "Dzidza mutauro wechirungu! Chinja izwi muchirevo.\n\n\n\n0:04 1:18 2:32 \nHe might go to the library\nhi maɪt goʊ tɪ ðə ˈlaɪbrɛˌri\nAnogona kuenda kuraibhurari\n\n0:19 1:33 2:47 \nHe might go to work\nhi maɪt goʊ tɪ wərk\nAnogona kuenda kubasa\n\n0:32 1:46 3:00 \nI might go to work\naɪ maɪt goʊ tɪ wərk\nIni ndingaende kubasa\n\n0:46 2:00 3:14 \nI might not go to work\naɪ maɪt nɑt goʊ tɪ wərk\nNdingadaro ndisingaendi kubasa\n\n0:59 2:13 3:27 \nHe might not go to work\nhi maɪt nɑt goʊ tɪ wərk\nAnogona kunge asiri kuenda kubasa\n\n\n\nKune vadzidzisi uye zvikoro:\nVhidhiyo iyi inoburitswa pasi peCreative Commons License.\n  CC BY 3.0 https://creativecommons.org/licenses/by/3.0/ \nInzwa wakasununguka kushandisa iyi vhidhiyo mumakirasi ako!\n\nIsu tinoshandisa Google Dhumiro sevhisi. Kana iwe ukawana zvimwe zvikanganiso, tapota titiudze.\n"
    },
    {
      "Lang": "so",
      "Title": "Jimicsiga naxwaha Ingiriisiga | Fudud ⭐️ #69 might",
      "Description": "Baro naxwaha Ingiriisiga! U beddelo eray weedh.\n\n\n\n0:04 1:18 2:32 \nHe might go to the library\nhi maɪt goʊ tɪ ðə ˈlaɪbrɛˌri\nWaxaa laga yaabaa inuu aado maktabada\n\n0:19 1:33 2:47 \nHe might go to work\nhi maɪt goʊ tɪ wərk\nWaxaa laga yaabaa inuu shaqada aado\n\n0:32 1:46 3:00 \nI might go to work\naɪ maɪt goʊ tɪ wərk\nWaa tagi karaa shaqada\n\n0:46 2:00 3:14 \nI might not go to work\naɪ maɪt nɑt goʊ tɪ wərk\nWaxaa laga yaabaa inaan shaqo tagin\n\n0:59 2:13 3:27 \nHe might not go to work\nhi maɪt nɑt goʊ tɪ wərk\nWaxaa laga yaabaa inuusan shaqo tagin\n\n\n\nKu socota macallimiinta iyo iskuulada:\nMuuqaalkan fiidiyaha ah waxaa lagu daabacay hoosta hal-abuurnimada Hal-abuurka.\n  CC BY 3.0 https://creativecommons.org/licenses/by/3.0/ \nXor baad u leedahay inaad fiidiyaha u isticmaasho fasalladaaga!\n\nWaxaan u adeegsanaa adeega Google tarjumaha si aan ugu tarjunno. Hadaad khaladaad hesho, fadlan nala socodsii.\n"
    },
    {
      "Lang": "sq",
      "Title": "Ushtrime gramatikore angleze | i thjeshtë ⭐️ #69 might",
      "Description": "Mësoni gramatikën angleze! Ndryshoni një fjalë në një fjali.\n\n\n\n0:04 1:18 2:32 \nHe might go to the library\nhi maɪt goʊ tɪ ðə ˈlaɪbrɛˌri\nAi mund të shkojë në bibliotekë\n\n0:19 1:33 2:47 \nHe might go to work\nhi maɪt goʊ tɪ wərk\nAi mund të shkojë në punë\n\n0:32 1:46 3:00 \nI might go to work\naɪ maɪt goʊ tɪ wərk\nUnë mund të shkoj në punë\n\n0:46 2:00 3:14 \nI might not go to work\naɪ maɪt nɑt goʊ tɪ wərk\nMund të mos shkoj në punë\n\n0:59 2:13 3:27 \nHe might not go to work\nhi maɪt nɑt goʊ tɪ wərk\nAi mund të mos shkojë në punë\n\n\n\nPër mësuesit dhe shkollat:\nKjo video është botuar nën licencën Creative Commons.\n  CC BY 3.0 https://creativecommons.org/licenses/by/3.0/ \nMos ngurroni të përdorni këtë video në klasat tuaja!\n\nNe përdorim shërbimin Google Translate për lokalizimin. Nëse gjeni disa gabime, ju lutemi na tregoni.\n"
    },
    {
      "Lang": "sr",
      "Title": "Вежбе енглеске граматике | Једноставно ⭐️ #69 might",
      "Description": "Научите енглеску граматику! Промените реч у реченици.\n\n\n\n0:04 1:18 2:32 \nHe might go to the library\nhi maɪt goʊ tɪ ðə ˈlaɪbrɛˌri\nМожда иде у библиотеку\n\n0:19 1:33 2:47 \nHe might go to work\nhi maɪt goʊ tɪ wərk\nМожда иде на посао\n\n0:32 1:46 3:00 \nI might go to work\naɪ maɪt goʊ tɪ wərk\nМогла бих да одем на посао\n\n0:46 2:00 3:14 \nI might not go to work\naɪ maɪt nɑt goʊ tɪ wərk\nМожда не бих ишао на посао\n\n0:59 2:13 3:27 \nHe might not go to work\nhi maɪt nɑt goʊ tɪ wərk\nМожда не иде на посао\n\n\n\nНаставницима и школама:\nОвај видео је објављен под Цреативе Цоммонс лиценцом.\n  CC BY 3.0 https://creativecommons.org/licenses/by/3.0/ \nСлободно користите овај видеозапис у својим предавањима!\n\nЗа локализацију користимо услугу Гоогле Транслате. Ако нађете неке грешке, јавите нам се.\n"
    },
    {
      "Lang": "st",
      "Title": "Boikoetliso ba puo ea Senyesemane | E bonolo ⭐️ #69 might",
      "Description": "Ithute puo ea Senyesemane! Fetola lentsoe polelo.\n\n\n\n0:04 1:18 2:32 \nHe might go to the library\nhi maɪt goʊ tɪ ðə ˈlaɪbrɛˌri\nA kanna a ea laebraring\n\n0:19 1:33 2:47 \nHe might go to work\nhi maɪt goʊ tɪ wərk\nA kanna a ea mosebetsing\n\n0:32 1:46 3:00 \nI might go to work\naɪ maɪt goʊ tɪ wərk\nNka 'na ka sebetsa\n\n0:46 2:00 3:14 \nI might not go to work\naɪ maɪt nɑt goʊ tɪ wərk\nE kanna eaba ha ke ee mosebetsing\n\n0:59 2:13 3:27 \nHe might not go to work\nhi maɪt nɑt goʊ tɪ wərk\nE kanna eaba ha a ee mosebetsing\n\n\n\nHo matichere le likolo:\nVideo ena e phatlalalitsoe tlas'a Creative Commons License.\n  CC BY 3.0 https://creativecommons.org/licenses/by/3.0/ \nIkutloe u lokolohile ho sebelisa video ena litlelaseng tsa hau!\n\nRe sebelisa tšebeletso ea Google Tafsiri bakeng sa lehae. Haeba u fumana liphoso, ka kopo re tsebise.\n"
    },
    {
      "Lang": "su",
      "Title": "Latihan tata basa Inggris | Basajan ⭐️ #69 might",
      "Description": "Diajar grammar Inggris! Ngarobih kecap dina hiji kalimat.\n\n\n\n0:04 1:18 2:32 \nHe might go to the library\nhi maɪt goʊ tɪ ðə ˈlaɪbrɛˌri\nAnjeunna tiasa angkat ka perpustakaan\n\n0:19 1:33 2:47 \nHe might go to work\nhi maɪt goʊ tɪ wərk\nAnjeunna tiasa angkat ka tempat padamelan\n\n0:32 1:46 3:00 \nI might go to work\naɪ maɪt goʊ tɪ wərk\nAbdi tiasa angkat damel\n\n0:46 2:00 3:14 \nI might not go to work\naɪ maɪt nɑt goʊ tɪ wərk\nAbdi moal tiasa angkat\n\n0:59 2:13 3:27 \nHe might not go to work\nhi maɪt nɑt goʊ tɪ wərk\nAnjeunna moal tiasa angkat damel\n\n\n\nPikeun guru sareng sakola:\nPidéo ieu dikaluarkeun dina Lisensi Lisénsi Creative Commons.\n  CC BY 3.0 https://creativecommons.org/licenses/by/3.0/ \nTong ngosongkeun pidéo ieu di kelas!\n\nKami nganggo jasa Google Translate pikeun lokalisasi. Upami anjeun mendakan sababaraha kasalahan, punten terangkeun ka urang.\n"
    },
    {
      "Lang": "sv",
      "Title": "Engelska grammatiska övningar | Enkel ⭐️ #69 might",
      "Description": "Lär dig engelska grammatik! Ändra ett ord i en mening.\n\n\n\n0:04 1:18 2:32 \nHe might go to the library\nhi maɪt goʊ tɪ ðə ˈlaɪbrɛˌri\nHan kanske går till biblioteket\n\n0:19 1:33 2:47 \nHe might go to work\nhi maɪt goʊ tɪ wərk\nHan kanske går på jobbet\n\n0:32 1:46 3:00 \nI might go to work\naɪ maɪt goʊ tɪ wərk\nJag kanske går på jobbet\n\n0:46 2:00 3:14 \nI might not go to work\naɪ maɪt nɑt goʊ tɪ wərk\nJag kanske inte går på jobbet\n\n0:59 2:13 3:27 \nHe might not go to work\nhi maɪt nɑt goʊ tɪ wərk\nHan kanske inte går på jobbet\n\n\n\nTill lärare och skolor:\nDenna video publiceras under Creative Commons License.\n  CC BY 3.0 https://creativecommons.org/licenses/by/3.0/ \nAnvänd gärna den här videon i dina klasser!\n\nVi använder Google Translate-tjänst för lokalisering. Låt oss veta om du hittar några misstag.\n"
    },
    {
      "Lang": "sw",
      "Title": "Mazoezi ya sarufi ya Kiingereza | Rahisi ⭐️ #69 might",
      "Description": "Jifunze sarufi ya Kiingereza! Badilisha neno katika sentensi.\n\n\n\n0:04 1:18 2:32 \nHe might go to the library\nhi maɪt goʊ tɪ ðə ˈlaɪbrɛˌri\nAnaweza kwenda maktaba\n\n0:19 1:33 2:47 \nHe might go to work\nhi maɪt goʊ tɪ wərk\nAnaweza kwenda kufanya kazi\n\n0:32 1:46 3:00 \nI might go to work\naɪ maɪt goʊ tɪ wərk\nNipate kwenda kufanya kazi\n\n0:46 2:00 3:14 \nI might not go to work\naɪ maɪt nɑt goʊ tɪ wərk\nLabda nisiende kazini\n\n0:59 2:13 3:27 \nHe might not go to work\nhi maɪt nɑt goʊ tɪ wərk\nLabda asiende kazini\n\n\n\nKwa waalimu na shule:\nVideo hii imechapishwa chini ya Leseni ya Creative Commons.\n  CC BY 3.0 https://creativecommons.org/licenses/by/3.0/ \nJisikie huru kutumia video hii kwenye darasa lako!\n\nTunatumia huduma ya Tafsiri ya Google kwa ujanibishaji. Ikiwa utapata makosa, tafadhali tujulishe.\n"
    },
    {
      "Lang": "ta",
      "Title": "ஆங்கில இலக்கண பயிற்சிகள் | எளிய ⭐️ #69 might",
      "Description": "ஆங்கில இலக்கணம் கற்றுக்கொள்ளுங்கள்! ஒரு வாக்கியத்தில் ஒரு வார்த்தையை மாற்றவும்.\n\n\n\n0:04 1:18 2:32 \nHe might go to the library\nhi maɪt goʊ tɪ ðə ˈlaɪbrɛˌri\nஅவர் நூலகத்திற்குச் செல்லக்கூடும்\n\n0:19 1:33 2:47 \nHe might go to work\nhi maɪt goʊ tɪ wərk\nஅவர் வேலைக்குச் செல்லக்கூடும்\n\n0:32 1:46 3:00 \nI might go to work\naɪ maɪt goʊ tɪ wərk\nநான் வேலைக்குச் செல்லக்கூடும்\n\n0:46 2:00 3:14 \nI might not go to work\naɪ maɪt nɑt goʊ tɪ wərk\nநான் வேலைக்குச் செல்லாமல் இருக்கலாம்\n\n0:59 2:13 3:27 \nHe might not go to work\nhi maɪt nɑt goʊ tɪ wərk\nஅவர் வேலைக்குச் செல்லக்கூடாது\n\n\n\nஆசிரியர்கள் மற்றும் பள்ளிகளுக்கு:\nஇந்த வீடியோ கிரியேட்டிவ் காமன்ஸ் உரிமத்தின் கீழ் வெளியிடப்பட்டுள்ளது.\n  CC BY 3.0 https://creativecommons.org/licenses/by/3.0/ \nஉங்கள் வகுப்புகளில் இந்த வீடியோவைப் பயன்படுத்த தயங்காதீர்கள்!\n\nஉள்ளூர்மயமாக்க Google மொழிபெயர்ப்பு சேவையைப் பயன்படுத்துகிறோம். நீங்கள் சில தவறுகளைக் கண்டால், எங்களுக்குத் தெரியப்படுத்துங்கள்.\n"
    },
    {
      "Lang": "te",
      "Title": "ఇంగ్లీష్ వ్యాకరణ వ్యాయామాలు | సాధారణ ⭐️ #69 might",
      "Description": "ఇంగ్లీష్ వ్యాకరణం నేర్చుకోండి! ఒక వాక్యంలో ఒక పదాన్ని మార్చండి.\n\n\n\n0:04 1:18 2:32 \nHe might go to the library\nhi maɪt goʊ tɪ ðə ˈlaɪbrɛˌri\nఅతను లైబ్రరీకి వెళ్ళవచ్చు\n\n0:19 1:33 2:47 \nHe might go to work\nhi maɪt goʊ tɪ wərk\nఅతను పనికి వెళ్ళవచ్చు\n\n0:32 1:46 3:00 \nI might go to work\naɪ maɪt goʊ tɪ wərk\nనేను పనికి వెళ్ళవచ్చు\n\n0:46 2:00 3:14 \nI might not go to work\naɪ maɪt nɑt goʊ tɪ wərk\nనేను పనికి వెళ్ళకపోవచ్చు\n\n0:59 2:13 3:27 \nHe might not go to work\nhi maɪt nɑt goʊ tɪ wərk\nఅతను పనికి వెళ్ళకపోవచ్చు\n\n\n\nఉపాధ్యాయులకు మరియు పాఠశాలలకు:\nఈ వీడియో క్రియేటివ్ కామన్స్ లైసెన్స్ క్రింద ప్రచురించబడింది.\n  CC BY 3.0 https://creativecommons.org/licenses/by/3.0/ \nమీ తరగతుల్లో ఈ వీడియోను ఉపయోగించడానికి సంకోచించకండి!\n\nస్థానికీకరణ కోసం మేము Google అనువాద సేవను ఉపయోగిస్తాము. మీరు కొన్ని తప్పులు కనుగొంటే, దయచేసి మాకు తెలియజేయండి.\n"
    },
    {
      "Lang": "tg",
      "Title": "Машқҳои грамматикаи забони англисӣ | Оддӣ ⭐️ #69 might",
      "Description": "Грамматикаи забони англисиро омӯзед! Калимаро дар як ҷумла иваз кунед.\n\n\n\n0:04 1:18 2:32 \nHe might go to the library\nhi maɪt goʊ tɪ ðə ˈlaɪbrɛˌri\nВай шояд ба китобхона равад\n\n0:19 1:33 2:47 \nHe might go to work\nhi maɪt goʊ tɪ wərk\nӮ метавонад ба кор равад\n\n0:32 1:46 3:00 \nI might go to work\naɪ maɪt goʊ tɪ wərk\nМан шояд ба кор равам\n\n0:46 2:00 3:14 \nI might not go to work\naɪ maɪt nɑt goʊ tɪ wərk\nМан шояд ба кор наравам\n\n0:59 2:13 3:27 \nHe might not go to work\nhi maɪt nɑt goʊ tɪ wərk\nВай шояд ба кор наравад\n\n\n\nБа муаллимон ва мактабҳо:\nИн видео зери иҷозатномаи Creative Commons нашр шудааст.\n  CC BY 3.0 https://creativecommons.org/licenses/by/3.0/ \nИн видеоро дар дарсҳои худ истифода баред!\n\nМо барои локализатсия аз хидмати Google Translate истифода мебарем. Агар шумо ягон хатогӣ дарёфт кунед, лутфан ба мо хабар диҳед.\n"
    },
    {
      "Lang": "th",
      "Title": "แบบฝึกหัดไวยากรณ์ภาษาอังกฤษ | ง่าย ⭐️ #69 might",
      "Description": "เรียนรู้ไวยากรณ์ภาษาอังกฤษ! เปลี่ยนคำในประโยค\n\n\n\n0:04 1:18 2:32 \nHe might go to the library\nhi maɪt goʊ tɪ ðə ˈlaɪbrɛˌri\nเขาอาจไปที่ห้องสมุด\n\n0:19 1:33 2:47 \nHe might go to work\nhi maɪt goʊ tɪ wərk\nเขาอาจไปทำงาน\n\n0:32 1:46 3:00 \nI might go to work\naɪ maɪt goʊ tɪ wərk\nฉันอาจไปทำงาน\n\n0:46 2:00 3:14 \nI might not go to work\naɪ maɪt nɑt goʊ tɪ wərk\nฉันอาจไม่ไปทำงาน\n\n0:59 2:13 3:27 \nHe might not go to work\nhi maɪt nɑt goʊ tɪ wərk\nเขาอาจไม่ไปทำงาน\n\n\n\nถึงครูและโรงเรียน:\nวิดีโอนี้เผยแพร่ภายใต้สัญญาอนุญาตครีเอทีฟคอมมอนส์\n  CC BY 3.0 https://creativecommons.org/licenses/by/3.0/ \nอย่าลังเลที่จะใช้วิดีโอนี้ในชั้นเรียนของคุณ!\n\nเราใช้บริการ Google แปลภาษาเพื่อการแปล หากคุณพบข้อผิดพลาดบางอย่างโปรดแจ้งให้เราทราบ\n"
    },
    {
      "Lang": "tr",
      "Title": "İngilizce gramer çalışmaları | Basit ⭐️ #69 might",
      "Description": "İngilizce gramerini öğren! Bir cümle içindeki bir kelimeyi değiştirin.\n\n\n\n0:04 1:18 2:32 \nHe might go to the library\nhi maɪt goʊ tɪ ðə ˈlaɪbrɛˌri\nKütüphaneye gidebilir\n\n0:19 1:33 2:47 \nHe might go to work\nhi maɪt goʊ tɪ wərk\nİşe gidebilir\n\n0:32 1:46 3:00 \nI might go to work\naɪ maɪt goʊ tɪ wərk\nİşe gidebilirim\n\n0:46 2:00 3:14 \nI might not go to work\naɪ maɪt nɑt goʊ tɪ wərk\nİşe gitmeyebilirim\n\n0:59 2:13 3:27 \nHe might not go to work\nhi maɪt nɑt goʊ tɪ wərk\nİşe gitmeyebilir\n\n\n\nÖğretmenlere ve okullara:\nBu video Creative Commons License. Altında yayınlandı.\n  CC BY 3.0 https://creativecommons.org/licenses/by/3.0/ \nBu videoyu derslerinizde kullanmaktan çekinmeyin!\n\nYerelleştirme için Google Çeviri hizmetini kullanıyoruz. Bazı hatalar bulursanız lütfen bize bildirin.\n"
    },
    {
      "Lang": "uk",
      "Title": "Граматичні вправи з англійської мови | Простий ⭐️ #69 might",
      "Description": "Вивчіть англійську граматику! Змініть слово у реченні.\n\n\n\n0:04 1:18 2:32 \nHe might go to the library\nhi maɪt goʊ tɪ ðə ˈlaɪbrɛˌri\nВін може зайти до бібліотеки\n\n0:19 1:33 2:47 \nHe might go to work\nhi maɪt goʊ tɪ wərk\nВін може піти на роботу\n\n0:32 1:46 3:00 \nI might go to work\naɪ maɪt goʊ tɪ wərk\nЯ можу піти на роботу\n\n0:46 2:00 3:14 \nI might not go to work\naɪ maɪt nɑt goʊ tɪ wərk\nЯ, можливо, не пішов на роботу\n\n0:59 2:13 3:27 \nHe might not go to work\nhi maɪt nɑt goʊ tɪ wərk\nВін може не піти на роботу\n\n\n\nДля вчителів та шкіл:\nЦе відео опубліковане під ліцензією Creative Commons.\n  CC BY 3.0 https://creativecommons.org/licenses/by/3.0/ \nСміливо використовуйте це відео у своїх класах!\n\nМи використовуємо послугу Google Translate для локалізації. Якщо ви виявили деякі помилки, повідомте нас про це.\n"
    },
    {
      "Lang": "ur",
      "Title": "انگریزی گرائمر کی ورزشیں | آسان ⭐️ #69 might",
      "Description": "انگریزی گرائمر سیکھیں! ایک جملے میں ایک لفظ تبدیل کریں۔\n\n\n\n0:04 1:18 2:32 \nHe might go to the library\nhi maɪt goʊ tɪ ðə ˈlaɪbrɛˌri\nوہ لائبریری جا سکتا ہے\n\n0:19 1:33 2:47 \nHe might go to work\nhi maɪt goʊ tɪ wərk\nوہ کام پر جاسکتا ہے\n\n0:32 1:46 3:00 \nI might go to work\naɪ maɪt goʊ tɪ wərk\nمیں کام پر جا سکتا ہوں\n\n0:46 2:00 3:14 \nI might not go to work\naɪ maɪt nɑt goʊ tɪ wərk\nمیں کام پر نہیں جا سکتا ہوں\n\n0:59 2:13 3:27 \nHe might not go to work\nhi maɪt nɑt goʊ tɪ wərk\nوہ کام پر نہیں جاسکتا ہے\n\n\n\nاساتذہ اور اسکولوں کے لئے:\nیہ ویڈیو تخلیقی العام لائسنس کے تحت شائع ہوا ہے۔\n  CC BY 3.0 https://creativecommons.org/licenses/by/3.0/ \nاپنی ویڈیو کو اپنی کلاسوں میں آزادانہ طور پر استعمال کریں!\n\nہم لوکلائزیشن کے لئے گوگل ٹرانسلیٹ سروس استعمال کرتے ہیں۔ اگر آپ کو کچھ غلطیاں ملتی ہیں تو ، براہ کرم ہمیں بتائیں۔\n"
    },
    {
      "Lang": "uz",
      "Title": "Ingliz tili grammatik mashqlari | Oddiy ⭐️ #69 might",
      "Description": "Ingliz tilining grammatikasini o'rganing! Bir so'zni jumlada o'zgartiring.\n\n\n\n0:04 1:18 2:32 \nHe might go to the library\nhi maɪt goʊ tɪ ðə ˈlaɪbrɛˌri\nU kutubxonaga borishi mumkin\n\n0:19 1:33 2:47 \nHe might go to work\nhi maɪt goʊ tɪ wərk\nU ishga ketishi mumkin\n\n0:32 1:46 3:00 \nI might go to work\naɪ maɪt goʊ tɪ wərk\nIshga borishim mumkin\n\n0:46 2:00 3:14 \nI might not go to work\naɪ maɪt nɑt goʊ tɪ wərk\nIshga bormasligim mumkin\n\n0:59 2:13 3:27 \nHe might not go to work\nhi maɪt nɑt goʊ tɪ wərk\nU ishga bormasligi mumkin\n\n\n\nO'qituvchilar va maktablarga:\nUshbu video Creative Commons litsenziyasi ostida joylashtirilgan.\n  CC BY 3.0 https://creativecommons.org/licenses/by/3.0/ \nUshbu videoni o'z sinflaringizda ishlatish bepul!\n\nBiz Google Translate xizmatidan lokalizatsiya uchun foydalanamiz. Agar siz biron bir xato topsangiz, iltimos, bizga xabar bering.\n"
    },
    {
      "Lang": "vi",
      "Title": "Bài tập ngữ pháp tiếng anh | Đơn giản ⭐️ #69 might",
      "Description": "Học ngữ pháp tiếng Anh! Thay đổi một từ trong một câu.\n\n\n\n0:04 1:18 2:32 \nHe might go to the library\nhi maɪt goʊ tɪ ðə ˈlaɪbrɛˌri\nAnh ấy có thể đi đến thư viện\n\n0:19 1:33 2:47 \nHe might go to work\nhi maɪt goʊ tɪ wərk\nAnh ấy có thể đi làm\n\n0:32 1:46 3:00 \nI might go to work\naɪ maɪt goʊ tɪ wərk\nTôi có thể đi làm\n\n0:46 2:00 3:14 \nI might not go to work\naɪ maɪt nɑt goʊ tɪ wərk\nTôi có thể không đi làm\n\n0:59 2:13 3:27 \nHe might not go to work\nhi maɪt nɑt goʊ tɪ wərk\nAnh ấy có thể không đi làm\n\n\n\nGửi giáo viên và nhà trường:\nVideo này được xuất bản theo Giấy phép Creative Commons.\n  CC BY 3.0 https://creativecommons.org/licenses/by/3.0/ \nHãy sử dụng video này trong các lớp học của bạn!\n\nChúng tôi sử dụng dịch vụ Google Dịch để bản địa hóa. Nếu bạn tìm thấy một số sai lầm, xin vui lòng cho chúng tôi biết.\n"
    },
    {
      "Lang": "xh",
      "Title": "Ukuziqhelanisa negrama yesiNgesi | Elula ⭐️ #69 might",
      "Description": "Funda igrama yesiNgesi! Guqula igama kwisivakalisi.\n\n\n\n0:04 1:18 2:32 \nHe might go to the library\nhi maɪt goʊ tɪ ðə ˈlaɪbrɛˌri\nAngaya elayibrari\n\n0:19 1:33 2:47 \nHe might go to work\nhi maɪt goʊ tɪ wərk\nUsenokuya emsebenzini\n\n0:32 1:46 3:00 \nI might go to work\naɪ maɪt goʊ tɪ wərk\nNdingade ndiye emsebenzini\n\n0:46 2:00 3:14 \nI might not go to work\naɪ maɪt nɑt goʊ tɪ wərk\nIbingase ndingayi emsebenzini\n\n0:59 2:13 3:27 \nHe might not go to work\nhi maɪt nɑt goʊ tɪ wərk\nUsenokungayi emsebenzini\n\n\n\nKootitshala nakwizikolo:\nLe vidiyo ipapashwa phantsi kwelayisensi yeCreative Commons.\n  CC BY 3.0 https://creativecommons.org/licenses/by/3.0/ \nZive ukhululekile ukusebenzisa le vidiyo kwiiklasi zakho!\n\nSisebenzisa inkonzo yokuTolika kaGoogle ukuze sifumane indawo. Ukuba ufumana iimpazamo ezithile, nceda usazise.\n"
    },
    {
      "Lang": "yi",
      "Title": "ענגליש גראַמאַטיק עקסערסייזיז | פּשוט ⭐️ #69 might",
      "Description": "לערן ענגליש גראַמאַטיק! טוישן אַ וואָרט אין אַ זאַץ.\n\n\n\n0:04 1:18 2:32 \nHe might go to the library\nhi maɪt goʊ tɪ ðə ˈlaɪbrɛˌri\nער זאל גיין צו די ביבליאָטעק\n\n0:19 1:33 2:47 \nHe might go to work\nhi maɪt goʊ tɪ wərk\nער זאל גיין צו אַרבעטן\n\n0:32 1:46 3:00 \nI might go to work\naɪ maɪt goʊ tɪ wərk\nאיך קען גיין צו אַרבעטן\n\n0:46 2:00 3:14 \nI might not go to work\naɪ maɪt nɑt goʊ tɪ wərk\nאיך קען נישט גיין צו אַרבעטן\n\n0:59 2:13 3:27 \nHe might not go to work\nhi maɪt nɑt goʊ tɪ wərk\nער זאל נישט גיין צו אַרבעטן\n\n\n\nצו לערערס און שולן:\nדער ווידעא איז ארויס אונטער Creative Commons License.\n  CC BY 3.0 https://creativecommons.org/licenses/by/3.0/ \nפילן פריי צו נוצן דעם ווידעא אין דיין קלאסן!\n\nמיר נוצן Google Translate דינסט פֿאַר לאָוקאַלאַזיישאַן. אויב איר געפֿינען עטלעכע מיסטייקס, ביטע לאָזן אונדז וויסן.\n"
    },
    {
      "Lang": "yo",
      "Title": "Awọn adaṣe gẹẹsi Gẹẹsi | Rọrun ⭐️ #69 might",
      "Description": "Kọ ẹkọ gẹẹsi Gẹẹsi! Yi ọrọ pada ninu gbolohun ọrọ.\n\n\n\n0:04 1:18 2:32 \nHe might go to the library\nhi maɪt goʊ tɪ ðə ˈlaɪbrɛˌri\nO le lọ si ile-ikawe\n\n0:19 1:33 2:47 \nHe might go to work\nhi maɪt goʊ tɪ wərk\nO le lọ si ibi iṣẹ\n\n0:32 1:46 3:00 \nI might go to work\naɪ maɪt goʊ tɪ wərk\nMo le lọ si iṣẹ\n\n0:46 2:00 3:14 \nI might not go to work\naɪ maɪt nɑt goʊ tɪ wərk\nMo le ma lọ si iṣẹ\n\n0:59 2:13 3:27 \nHe might not go to work\nhi maɪt nɑt goʊ tɪ wərk\nO le ma lọ si iṣẹ\n\n\n\nSi awọn olukọ ati awọn ile-iwe:\nFidio yii ni a tẹjade labẹ Iwe-aṣẹ Creative Commons.\n  CC BY 3.0 https://creativecommons.org/licenses/by/3.0/ \nLero lati lo fidio yii ninu awọn kilasi rẹ!\n\nA lo iṣẹ Google Translate fun agbegbe. Ti o ba rii diẹ ninu awọn aṣiṣe, jọwọ jẹ ki a mọ.\n"
    },
    {
      "Lang": "zh-Hans",
      "Title": "英语语法练习 | 简单 ⭐️ #69 might",
      "Description": "学习英语语法！ 更改句子中的单词。\n\n\n\n0:04 1:18 2:32 \nHe might go to the library\nhi maɪt goʊ tɪ ðə ˈlaɪbrɛˌri\n他可能去图书馆\n\n0:19 1:33 2:47 \nHe might go to work\nhi maɪt goʊ tɪ wərk\n他可能去上班\n\n0:32 1:46 3:00 \nI might go to work\naɪ maɪt goʊ tɪ wərk\n我可能去上班\n\n0:46 2:00 3:14 \nI might not go to work\naɪ maɪt nɑt goʊ tɪ wərk\n我可能不上班\n\n0:59 2:13 3:27 \nHe might not go to work\nhi maɪt nɑt goʊ tɪ wərk\n他可能不去上班\n\n\n\n致老师和学校：\n该视频是根据知识共享许可发布的。\n  CC BY 3.0 https://creativecommons.org/licenses/by/3.0/ \n随时在您的课程中使用此视频！\n\n我们使用Google翻译服务进行本地化。如果您发现一些错误，请告诉我们。\n"
    },
    {
      "Lang": "zh-Hant",
      "Title": "英語語法練習 | 簡單 ⭐️ #69 might",
      "Description": "學習英語語法！ 更改句子中的單詞。\n\n\n\n0:04 1:18 2:32 \nHe might go to the library\nhi maɪt goʊ tɪ ðə ˈlaɪbrɛˌri\n他可能去圖書館\n\n0:19 1:33 2:47 \nHe might go to work\nhi maɪt goʊ tɪ wərk\n他可能去上班\n\n0:32 1:46 3:00 \nI might go to work\naɪ maɪt goʊ tɪ wərk\n我可能去上班\n\n0:46 2:00 3:14 \nI might not go to work\naɪ maɪt nɑt goʊ tɪ wərk\n我可能不上班\n\n0:59 2:13 3:27 \nHe might not go to work\nhi maɪt nɑt goʊ tɪ wərk\n他可能不去上班\n\n\n\n致老師和學校：\n該視頻是根據知識共享許可發布的。\n  CC BY 3.0 https://creativecommons.org/licenses/by/3.0/ \n隨時在您的課程中使用此視頻！\n\n我們使用Google翻譯服務進行本地化。如果您發現一些錯誤，請告訴我們。\n"
    },
    {
      "Lang": "zu",
      "Title": "Ukuzivocavoca kolimi lwesiNgisi | Elula ⭐️ #69 might",
      "Description": "Funda uhlelo lolimi lwesiNgisi! Shintsha igama emshweni.\n\n\n\n0:04 1:18 2:32 \nHe might go to the library\nhi maɪt goʊ tɪ ðə ˈlaɪbrɛˌri\nAngase aye kumtapo wezincwadi\n\n0:19 1:33 2:47 \nHe might go to work\nhi maɪt goʊ tɪ wərk\nAngase aye emsebenzini\n\n0:32 1:46 3:00 \nI might go to work\naɪ maɪt goʊ tɪ wərk\nNgingahle ngisebenze\n\n0:46 2:00 3:14 \nI might not go to work\naɪ maɪt nɑt goʊ tɪ wərk\nKungenzeka ngingayi emsebenzini\n\n0:59 2:13 3:27 \nHe might not go to work\nhi maɪt nɑt goʊ tɪ wərk\nKungenzeka ukuthi angayi emsebenzini\n\n\n\nKothisha nasezikoleni:\nLe vidiyo ishicilelwe ngaphansi kwelayisensi yeCreative Commons.\n  CC BY 3.0 https://creativecommons.org/licenses/by/3.0/ \nZizwe ukhululekile ukusebenzisa le vidiyo emakilasini akho!\n\nSisebenzisa insiza ye-Google Humusha ukwenza okwasendaweni. Uma uthola amanye amaphutha, sicela usazise.\n"
    }
  ],
  "HatenaPermalink": "https://b.hatena.ne.jp/isonschool/20200216#bookmark-4681576356172850242"
}