{
  "File": "grammar-en-beginner-simple_35_AU.mp4",
  "ID": "wo7UTTyP_QM",
  "AudioLang": "en",
  "DefaultLang": "mn",
  "Title": "Англи хэлний дүрмийн дасгал | Энгийн Австрали ⭐️ #35 have lost",
  "Description": "Англи хэлний дүрмийн мэдлэгийг сур! Үгийг өгүүлбэр болгон өөрчил.\n\n\n\n0:04 1:22 2:34 \nI have not lost my shoes\naɪ hæv nɑt lɔst maɪ ʃuz\nБи гутлаа алдаагүй байна\n\n0:22 1:38 2:50 \nHe has not lost his shoes\nhi həz nɑt lɔst hɪz ʃuz\nТэр гутлаа алдаагүй байгаа\n\n0:36 1:52 3:04 \nHe has lost his shoes\nhi həz lɔst hɪz ʃuz\nТэр гутлаа алдчихсан\n\n0:51 2:05 3:17 \nI have lost my shoes\naɪ hæv lɔst maɪ ʃuz\nБи гутлаа алдчихлаа\n\n1:04 2:18 3:30 \nI have cleaned my shoes\naɪ hæv klind maɪ ʃuz\nБи гутлаа цэвэрлэв\n\n\n\nБагш, сургуулиудад:\nЭнэ видео нь Creative Commons License лиценз дээр нийтлэгдсэн.\n  CC BY 3.0 https://creativecommons.org/licenses/by/3.0/ \nЭнэ видеог өөрийн ангиудад ашиглах боломжтой шүү!\n\nБид Google Translate үйлчилгээг нутагшуулах зорилгоор ашигладаг. Хэрэв та алдаа олвол бидэнд мэдэгдээрэй.\n",
  "VideoTags": "Англи хэлний дүрмийн,דקדוק אנגלי,हिंदी व्याकरण,ಇಂಗ್ಲಿಷ್ ವ್ಯಾಕರಣ,ინგლისური გრამატიკა,Grammatica inglese,Englesch Grammatik,Gràmar Beurla,Грамматикаи англисӣ,英文法,Gramàtica anglesa,Ingelesezko gramatika,Ensk málfræði,Engelse grammatica,Gramatika angleze",
  "YoutubeSynced": true,
  "ThumbnailUploaded": true,
  "Localizations": [
    {
      "Lang": "af",
      "Title": "Engelse grammatika-oefeninge | eenvoudige Australië ⭐️ #35 have lost",
      "Description": "Leer Engelse grammatika! Verander 'n woord in 'n sin.\n\n\n\n0:04 1:22 2:34 \nI have not lost my shoes\naɪ hæv nɑt lɔst maɪ ʃuz\nEk het nie my skoene verloor nie\n\n0:22 1:38 2:50 \nHe has not lost his shoes\nhi həz nɑt lɔst hɪz ʃuz\nHy het nie sy skoene verloor nie\n\n0:36 1:52 3:04 \nHe has lost his shoes\nhi həz lɔst hɪz ʃuz\nHy het sy skoene verloor\n\n0:51 2:05 3:17 \nI have lost my shoes\naɪ hæv lɔst maɪ ʃuz\nEk het my skoene verloor\n\n1:04 2:18 3:30 \nI have cleaned my shoes\naɪ hæv klind maɪ ʃuz\nEk het my skoene skoongemaak\n\n\n\nAan onderwysers en skole:\nHierdie video word onder Creative Commons-lisensie gepubliseer.\n  CC BY 3.0 https://creativecommons.org/licenses/by/3.0/ \nGebruik gerus hierdie video in u klasse!\n\nOns gebruik Google Translate-diens vir lokalisering. Laat weet ons as u foute ervaar.\n"
    },
    {
      "Lang": "am",
      "Title": "የእንግሊዝኛ ሰዋሰው ልምምዶች | ቀላል አውስትራሊያ ⭐️ #35 have lost",
      "Description": "የእንግሊዝኛ ሰዋስው ይማሩ! በአረፍተ ነገር ውስጥ አንድ ቃል ይለውጡ ፡፡\n\n\n\n0:04 1:22 2:34 \nI have not lost my shoes\naɪ hæv nɑt lɔst maɪ ʃuz\nጫማዬን አላጣሁም\n\n0:22 1:38 2:50 \nHe has not lost his shoes\nhi həz nɑt lɔst hɪz ʃuz\nእሱ ጫማውን አላጣም\n\n0:36 1:52 3:04 \nHe has lost his shoes\nhi həz lɔst hɪz ʃuz\nጫማዎቹን አጥቷል\n\n0:51 2:05 3:17 \nI have lost my shoes\naɪ hæv lɔst maɪ ʃuz\nጫማዬን አጥቻለሁ\n\n1:04 2:18 3:30 \nI have cleaned my shoes\naɪ hæv klind maɪ ʃuz\nጫማዎቼን አጸዳለሁ\n\n\n\nለመምህራን እና ለት / ቤቶች\nይህ ቪዲዮ በ Creative Commons ፈቃድ ስር ታትሟል ፡፡\n  CC BY 3.0 https://creativecommons.org/licenses/by/3.0/ \nይህንን ቪዲዮ በትምህርቶችዎ ውስጥ ለመጠቀም ነፃ ይሁኑ!\n\nለትርጉም የ Google ትርጉም አገልግሎትን እንጠቀማለን። አንዳንድ ስህተቶች ካገኙ እባክዎ ያሳውቁን።\n"
    },
    {
      "Lang": "ar",
      "Title": "تمارين قواعد اللغة الإنجليزية | بسيط أستراليا ⭐️ #35 have lost",
      "Description": "تعلم قواعد اللغة الإنجليزية! تغيير كلمة في جملة.\n\n\n\n0:04 1:22 2:34 \nI have not lost my shoes\naɪ hæv nɑt lɔst maɪ ʃuz\nلم أفقد حذائي\n\n0:22 1:38 2:50 \nHe has not lost his shoes\nhi həz nɑt lɔst hɪz ʃuz\nلم يفقد حذائه\n\n0:36 1:52 3:04 \nHe has lost his shoes\nhi həz lɔst hɪz ʃuz\nلقد فقد حذائه\n\n0:51 2:05 3:17 \nI have lost my shoes\naɪ hæv lɔst maɪ ʃuz\nلقد فقدت حذائي\n\n1:04 2:18 3:30 \nI have cleaned my shoes\naɪ hæv klind maɪ ʃuz\nلقد قمت بتنظيف حذائي\n\n\n\nللمعلمين والمدارس:\nتم نشر هذا الفيديو تحت رخصة المشاع الإبداعي.\n  CC BY 3.0 https://creativecommons.org/licenses/by/3.0/ \nلا تتردد في استخدام هذا الفيديو في الفصول الدراسية!\n\nنستخدم خدمة الترجمة من Google للترجمة. إذا وجدت بعض الأخطاء ، يرجى إعلامنا.\n"
    },
    {
      "Lang": "az",
      "Title": "İngilis qrammatikası təlimləri | Sadə Avstraliya ⭐️ #35 have lost",
      "Description": "İngilis dili qrammatikasını öyrənin! Bir cümlədə bir söz dəyişdirin.\n\n\n\n0:04 1:22 2:34 \nI have not lost my shoes\naɪ hæv nɑt lɔst maɪ ʃuz\nAyaqqabılarımı itirməmişəm\n\n0:22 1:38 2:50 \nHe has not lost his shoes\nhi həz nɑt lɔst hɪz ʃuz\nAyaqqabılarını itirməyib\n\n0:36 1:52 3:04 \nHe has lost his shoes\nhi həz lɔst hɪz ʃuz\nAyaqqabılarını itirib\n\n0:51 2:05 3:17 \nI have lost my shoes\naɪ hæv lɔst maɪ ʃuz\nAyaqqabılarımı itirmişəm\n\n1:04 2:18 3:30 \nI have cleaned my shoes\naɪ hæv klind maɪ ʃuz\nAyaqqabılarımı təmizləmişəm\n\n\n\nMüəllimlərə və məktəblərə:\nBu video Creative Commons lisenziyası altında yayımlanıb.\n  CC BY 3.0 https://creativecommons.org/licenses/by/3.0/ \nBu videonu dərslərinizdə istifadə etməkdən çekinmeyin!\n\nLokallaşdırma üçün Google Translate xidmətindən istifadə edirik. Bəzi səhvlər taparsanız, bizə bildirin.\n"
    },
    {
      "Lang": "be",
      "Title": "Граматычныя практыкаванні на англійскай мове | Просты Аўстралія ⭐️ #35 have lost",
      "Description": "Вывучайце англійскую граматыку! Змяніце слова ў сказе.\n\n\n\n0:04 1:22 2:34 \nI have not lost my shoes\naɪ hæv nɑt lɔst maɪ ʃuz\nЯ не згубіў абутак\n\n0:22 1:38 2:50 \nHe has not lost his shoes\nhi həz nɑt lɔst hɪz ʃuz\nЁн не згубіў абутак\n\n0:36 1:52 3:04 \nHe has lost his shoes\nhi həz lɔst hɪz ʃuz\nЁн згубіў абутак\n\n0:51 2:05 3:17 \nI have lost my shoes\naɪ hæv lɔst maɪ ʃuz\nЯ страціў абутак\n\n1:04 2:18 3:30 \nI have cleaned my shoes\naɪ hæv klind maɪ ʃuz\nЯ чысціла абутак\n\n\n\nДля настаўнікаў і школ:\nГэта відэа публікуецца пад ліцэнзіяй Creative Commons.\n  CC BY 3.0 https://creativecommons.org/licenses/by/3.0/ \nНе саромейцеся выкарыстоўваць гэта відэа ў сваіх класах!\n\nМы выкарыстоўваем паслугу Google Translate для лакалізацыі. Калі вы выявілі некаторыя памылкі, калі ласка, паведаміце нам пра гэта.\n"
    },
    {
      "Lang": "bg",
      "Title": "Английски граматически упражнения | прост Австралия ⭐️ #35 have lost",
      "Description": "Научете английска граматика! Промяна на дума в изречение.\n\n\n\n0:04 1:22 2:34 \nI have not lost my shoes\naɪ hæv nɑt lɔst maɪ ʃuz\nНе съм загубил обувките си\n\n0:22 1:38 2:50 \nHe has not lost his shoes\nhi həz nɑt lɔst hɪz ʃuz\nНе е загубил обувките си\n\n0:36 1:52 3:04 \nHe has lost his shoes\nhi həz lɔst hɪz ʃuz\nИзгубил е обувките си\n\n0:51 2:05 3:17 \nI have lost my shoes\naɪ hæv lɔst maɪ ʃuz\nИзгубих си обувките\n\n1:04 2:18 3:30 \nI have cleaned my shoes\naɪ hæv klind maɪ ʃuz\nПочистих обувките си\n\n\n\nЗа учители и училища:\nТози видеоклип е публикуван под Creative Commons License.\n  CC BY 3.0 https://creativecommons.org/licenses/by/3.0/ \nЧувствайте се свободни да използвате това видео в класовете си!\n\nНие използваме услугата Google Translate за локализация. Ако откриете някои грешки, моля, уведомете ни.\n"
    },
    {
      "Lang": "bn",
      "Title": "ইংরেজি ব্যাকরণ অনুশীলন | সহজ অস্ট্রেলিয়া ⭐️ #35 have lost",
      "Description": "ইংরেজি ব্যাকরণ শিখুন! একটি বাক্যে একটি শব্দ পরিবর্তন করুন।\n\n\n\n0:04 1:22 2:34 \nI have not lost my shoes\naɪ hæv nɑt lɔst maɪ ʃuz\nআমি আমার জুতা হারিয়েছি না\n\n0:22 1:38 2:50 \nHe has not lost his shoes\nhi həz nɑt lɔst hɪz ʃuz\nতিনি নিজের জুতো হারান নি\n\n0:36 1:52 3:04 \nHe has lost his shoes\nhi həz lɔst hɪz ʃuz\nসে জুতো হারিয়েছে\n\n0:51 2:05 3:17 \nI have lost my shoes\naɪ hæv lɔst maɪ ʃuz\nআমি আমার জুতো হারিয়েছি\n\n1:04 2:18 3:30 \nI have cleaned my shoes\naɪ hæv klind maɪ ʃuz\nআমি আমার জুতো পরিষ্কার করেছি\n\n\n\nশিক্ষক এবং বিদ্যালয়ের কাছে:\nএই ভিডিওটি ক্রিয়েটিভ কমন্স লাইসেন্সের আওতায় প্রকাশিত হয়েছে।\n  CC BY 3.0 https://creativecommons.org/licenses/by/3.0/ \nআপনার ক্লাসে এই ভিডিওটি নির্দ্বিধায় ব্যবহার করুন!\n\nআমরা স্থানীয়করণের জন্য গুগল অনুবাদ পরিষেবা ব্যবহার করি। আপনি যদি কিছু ভুল খুঁজে পান তবে দয়া করে আমাদের জানান।\n"
    },
    {
      "Lang": "bs",
      "Title": "Engleske gramatičke vježbe | Jednostavno Australija ⭐️ #35 have lost",
      "Description": "Naučite englesku gramatiku! Promenite reč u rečenici.\n\n\n\n0:04 1:22 2:34 \nI have not lost my shoes\naɪ hæv nɑt lɔst maɪ ʃuz\nNisam izgubio cipele\n\n0:22 1:38 2:50 \nHe has not lost his shoes\nhi həz nɑt lɔst hɪz ʃuz\nNije izgubio cipele\n\n0:36 1:52 3:04 \nHe has lost his shoes\nhi həz lɔst hɪz ʃuz\nIzgubio je cipele\n\n0:51 2:05 3:17 \nI have lost my shoes\naɪ hæv lɔst maɪ ʃuz\nIzgubio sam cipele\n\n1:04 2:18 3:30 \nI have cleaned my shoes\naɪ hæv klind maɪ ʃuz\nOčistila sam cipele\n\n\n\nNastavnicima i školama:\nOvaj video je objavljen pod Creative Commons licencom.\n  CC BY 3.0 https://creativecommons.org/licenses/by/3.0/ \nSlobodno koristite ovaj videozapis u svojim predavanjima!\n\nZa lokalizaciju koristimo uslugu Google Translate. Ako pronađete neke greške, javite nam se.\n"
    },
    {
      "Lang": "ca",
      "Title": "Exercicis de gramàtica anglesa | Senzill Austràlia ⭐️ #35 have lost",
      "Description": "Apreneu gramàtica anglesa! Canvia una paraula en una frase.\n\n\n\n0:04 1:22 2:34 \nI have not lost my shoes\naɪ hæv nɑt lɔst maɪ ʃuz\nNo he perdut les sabates\n\n0:22 1:38 2:50 \nHe has not lost his shoes\nhi həz nɑt lɔst hɪz ʃuz\nNo ha perdut les sabates\n\n0:36 1:52 3:04 \nHe has lost his shoes\nhi həz lɔst hɪz ʃuz\nHa perdut les sabates\n\n0:51 2:05 3:17 \nI have lost my shoes\naɪ hæv lɔst maɪ ʃuz\nHe perdut les sabates\n\n1:04 2:18 3:30 \nI have cleaned my shoes\naɪ hæv klind maɪ ʃuz\nHe netejat les sabates\n\n\n\nA professors i escoles:\nAquest vídeo es publica sota llicència Creative Commons.\n  CC BY 3.0 https://creativecommons.org/licenses/by/3.0/ \nNo dubteu a utilitzar aquest vídeo a les vostres classes.\n\nUtilitzem el servei de Google Translate per a la localització. Si trobeu alguns errors, feu-nos-ho saber.\n"
    },
    {
      "Lang": "co",
      "Title": "Esercizii di grammatica inglese | Semplice Australia ⭐️ #35 have lost",
      "Description": "Amparate a grammatica inglese! Cambia una parolla in una frase.\n\n\n\n0:04 1:22 2:34 \nI have not lost my shoes\naɪ hæv nɑt lɔst maɪ ʃuz\nÙn aghju micca persu i mo scarpi\n\n0:22 1:38 2:50 \nHe has not lost his shoes\nhi həz nɑt lɔst hɪz ʃuz\nÙn ha persu u so scarpa\n\n0:36 1:52 3:04 \nHe has lost his shoes\nhi həz lɔst hɪz ʃuz\nHa persu i so scarpi\n\n0:51 2:05 3:17 \nI have lost my shoes\naɪ hæv lɔst maɪ ʃuz\nAghju persu i mo scarpi\n\n1:04 2:18 3:30 \nI have cleaned my shoes\naɪ hæv klind maɪ ʃuz\nAghju pulitu i mo scarpi\n\n\n\nÀ i prufessori è à e scole:\nStu video hè publicatu sottu licenza Creative Commons.\n  CC BY 3.0 https://creativecommons.org/licenses/by/3.0/ \nSentitevi liberi d'utilizà stu video in i vostri classi!\n\nUsu u serviziu di Google Translate per a localizazione. Se truvate qualchì sbagli, per piaceci di sapè.\n"
    },
    {
      "Lang": "cs",
      "Title": "Cvičení anglické gramatiky | Jednoduchý Austrálie ⭐️ #35 have lost",
      "Description": "Naučte se anglickou gramatiku! Změňte slovo ve větě.\n\n\n\n0:04 1:22 2:34 \nI have not lost my shoes\naɪ hæv nɑt lɔst maɪ ʃuz\nNeztratil jsem boty\n\n0:22 1:38 2:50 \nHe has not lost his shoes\nhi həz nɑt lɔst hɪz ʃuz\nNeztratil boty\n\n0:36 1:52 3:04 \nHe has lost his shoes\nhi həz lɔst hɪz ʃuz\nZtratil boty\n\n0:51 2:05 3:17 \nI have lost my shoes\naɪ hæv lɔst maɪ ʃuz\nZtratil jsem boty\n\n1:04 2:18 3:30 \nI have cleaned my shoes\naɪ hæv klind maɪ ʃuz\nVyčistil jsem si boty\n\n\n\nUčitelům a školám:\nToto video je publikováno pod licencí Creative Commons License.\n  CC BY 3.0 https://creativecommons.org/licenses/by/3.0/ \nNeváhejte použít toto video ve svých třídách!\n\nK lokalizaci používáme službu Google Translate. Pokud narazíte na nějaké chyby, dejte nám prosím vědět.\n"
    },
    {
      "Lang": "cy",
      "Title": "Ymarferion gramadeg Saesneg | Syml Awstralia ⭐️ #35 have lost",
      "Description": "Dysgu gramadeg Saesneg! Newid gair mewn brawddeg.\n\n\n\n0:04 1:22 2:34 \nI have not lost my shoes\naɪ hæv nɑt lɔst maɪ ʃuz\nNid wyf wedi colli fy esgidiau\n\n0:22 1:38 2:50 \nHe has not lost his shoes\nhi həz nɑt lɔst hɪz ʃuz\nNid yw wedi colli ei esgidiau\n\n0:36 1:52 3:04 \nHe has lost his shoes\nhi həz lɔst hɪz ʃuz\nMae wedi colli ei esgidiau\n\n0:51 2:05 3:17 \nI have lost my shoes\naɪ hæv lɔst maɪ ʃuz\nRwyf wedi colli fy esgidiau\n\n1:04 2:18 3:30 \nI have cleaned my shoes\naɪ hæv klind maɪ ʃuz\nRwyf wedi glanhau fy esgidiau\n\n\n\nI athrawon ac ysgolion:\nCyhoeddir y fideo hon o dan Creative Commons License.\n  CC BY 3.0 https://creativecommons.org/licenses/by/3.0/ \nMae croeso i chi ddefnyddio'r fideo hon yn eich dosbarthiadau!\n\nRydym yn defnyddio gwasanaeth Google Translate ar gyfer lleoleiddio. Os dewch chi o hyd i rai camgymeriadau, rhowch wybod i ni.\n"
    },
    {
      "Lang": "da",
      "Title": "Engelsk grammatikøvelser | Enkel Australien ⭐️ #35 have lost",
      "Description": "Lær engelsk grammatik! Skift et ord i en sætning.\n\n\n\n0:04 1:22 2:34 \nI have not lost my shoes\naɪ hæv nɑt lɔst maɪ ʃuz\nJeg har ikke mistet mine sko\n\n0:22 1:38 2:50 \nHe has not lost his shoes\nhi həz nɑt lɔst hɪz ʃuz\nHan har ikke mistet sine sko\n\n0:36 1:52 3:04 \nHe has lost his shoes\nhi həz lɔst hɪz ʃuz\nHan har mistet sine sko\n\n0:51 2:05 3:17 \nI have lost my shoes\naɪ hæv lɔst maɪ ʃuz\nJeg har mistet mine sko\n\n1:04 2:18 3:30 \nI have cleaned my shoes\naɪ hæv klind maɪ ʃuz\nJeg har renset mine sko\n\n\n\nTil lærere og skoler:\nDenne video er offentliggjort under Creative Commons License.\n  CC BY 3.0 https://creativecommons.org/licenses/by/3.0/ \nBrug gjerne denne video i dine klasser!\n\nVi bruger Google Translate-tjenesten til lokalisering. Hvis du finder nogle fejl, så lad os vide det.\n"
    },
    {
      "Lang": "de",
      "Title": "Englische Grammatikübungen | Einfach Australien ⭐️ #35 have lost",
      "Description": "Lerne englische Grammatik! Ändern Sie ein Wort in einem Satz.\n\n\n\n0:04 1:22 2:34 \nI have not lost my shoes\naɪ hæv nɑt lɔst maɪ ʃuz\nIch habe meine Schuhe nicht verloren\n\n0:22 1:38 2:50 \nHe has not lost his shoes\nhi həz nɑt lɔst hɪz ʃuz\nEr hat seine Schuhe nicht verloren\n\n0:36 1:52 3:04 \nHe has lost his shoes\nhi həz lɔst hɪz ʃuz\nEr hat seine Schuhe verloren\n\n0:51 2:05 3:17 \nI have lost my shoes\naɪ hæv lɔst maɪ ʃuz\nIch habe meine Schuhe verloren\n\n1:04 2:18 3:30 \nI have cleaned my shoes\naɪ hæv klind maɪ ʃuz\nIch habe meine Schuhe gereinigt\n\n\n\nAn Lehrer und Schulen:\nDieses Video wird unter der Creative Commons License veröffentlicht.\n  CC BY 3.0 https://creativecommons.org/licenses/by/3.0/ \nFühlen Sie sich frei, dieses Video in Ihren Klassen zu verwenden!\n\nWir verwenden den Google Translate-Dienst zur Lokalisierung. Wenn Sie Fehler finden, teilen Sie uns dies bitte mit.\n"
    },
    {
      "Lang": "el",
      "Title": "Αγγλικές ασκήσεις γραμματικής | Απλός Αυστραλία ⭐️ #35 have lost",
      "Description": "Μάθετε αγγλική γραμματική! Αλλάξτε μια λέξη σε μια πρόταση.\n\n\n\n0:04 1:22 2:34 \nI have not lost my shoes\naɪ hæv nɑt lɔst maɪ ʃuz\nΔεν έχω χάσει τα παπούτσια μου\n\n0:22 1:38 2:50 \nHe has not lost his shoes\nhi həz nɑt lɔst hɪz ʃuz\nΔεν έχει χάσει τα παπούτσια του\n\n0:36 1:52 3:04 \nHe has lost his shoes\nhi həz lɔst hɪz ʃuz\nΈχει χάσει τα παπούτσια του\n\n0:51 2:05 3:17 \nI have lost my shoes\naɪ hæv lɔst maɪ ʃuz\nΈχω χάσει τα παπούτσια μου\n\n1:04 2:18 3:30 \nI have cleaned my shoes\naɪ hæv klind maɪ ʃuz\nΈχω καθαρίσει τα παπούτσια μου\n\n\n\nΣτους εκπαιδευτικούς και τα σχολεία:\nΑυτό το βίντεο δημοσιεύεται υπό Creative Commons License.\n  CC BY 3.0 https://creativecommons.org/licenses/by/3.0/ \nΜπορείτε να χρησιμοποιήσετε αυτό το βίντεο στις τάξεις σας!\n\nΧρησιμοποιούμε την υπηρεσία Google Translate για εντοπισμό. Αν βρείτε κάποια λάθη, ενημερώστε μας.\n"
    },
    {
      "Lang": "en",
      "Title": "English grammar exercises | Simple Australia ⭐️ #35 have lost",
      "Description": "Learn English grammar! Change a word in a sentence.\n\n\n\n0:04 1:22 2:34 \nI have not lost my shoes\naɪ hæv nɑt lɔst maɪ ʃuz\nI have not lost my shoes\n\n0:22 1:38 2:50 \nHe has not lost his shoes\nhi həz nɑt lɔst hɪz ʃuz\nHe has not lost his shoes\n\n0:36 1:52 3:04 \nHe has lost his shoes\nhi həz lɔst hɪz ʃuz\nHe has lost his shoes\n\n0:51 2:05 3:17 \nI have lost my shoes\naɪ hæv lɔst maɪ ʃuz\nI have lost my shoes\n\n1:04 2:18 3:30 \nI have cleaned my shoes\naɪ hæv klind maɪ ʃuz\nI have cleaned my shoes\n\n\n\nTo teachers and schools:\nThis video is published under Creative Commons License.\n  CC BY 3.0 https://creativecommons.org/licenses/by/3.0/ \nFeel free to use this video in your classes!\n\nWe use Google Translate service for localization. If you find some mistakes, please let us know.\n"
    },
    {
      "Lang": "es",
      "Title": "Ejercicios de gramática inglesa | Sencillo Australia ⭐️ #35 have lost",
      "Description": "¡Aprende gramática inglesa! Cambiar una palabra en una oración.\n\n\n\n0:04 1:22 2:34 \nI have not lost my shoes\naɪ hæv nɑt lɔst maɪ ʃuz\nNo he perdido mis zapatos\n\n0:22 1:38 2:50 \nHe has not lost his shoes\nhi həz nɑt lɔst hɪz ʃuz\nNo ha perdido sus zapatos\n\n0:36 1:52 3:04 \nHe has lost his shoes\nhi həz lɔst hɪz ʃuz\nHa perdido sus zapatos\n\n0:51 2:05 3:17 \nI have lost my shoes\naɪ hæv lɔst maɪ ʃuz\nHe perdido mis zapatos\n\n1:04 2:18 3:30 \nI have cleaned my shoes\naɪ hæv klind maɪ ʃuz\nMe he limpiado los zapatos\n\n\n\nA profesores y escuelas:\nEste video se publica bajo licencia Creative Commons.\n  CC BY 3.0 https://creativecommons.org/licenses/by/3.0/ \n¡Siéntete libre de usar este video en tus clases!\n\nUtilizamos el servicio Google Translate para la localización. Si encuentra algunos errores, háganoslo saber.\n"
    },
    {
      "Lang": "et",
      "Title": "Inglise keele grammatika harjutused | Lihtne Austraalia ⭐️ #35 have lost",
      "Description": "Õpi inglise keele grammatikat! Muutke lauses sõna.\n\n\n\n0:04 1:22 2:34 \nI have not lost my shoes\naɪ hæv nɑt lɔst maɪ ʃuz\nMa pole oma kingi kaotanud\n\n0:22 1:38 2:50 \nHe has not lost his shoes\nhi həz nɑt lɔst hɪz ʃuz\nTa pole oma kingi kaotanud\n\n0:36 1:52 3:04 \nHe has lost his shoes\nhi həz lɔst hɪz ʃuz\nTa on kaotanud oma kingad\n\n0:51 2:05 3:17 \nI have lost my shoes\naɪ hæv lɔst maɪ ʃuz\nMul on jalanõud kadunud\n\n1:04 2:18 3:30 \nI have cleaned my shoes\naɪ hæv klind maɪ ʃuz\nMa olen oma kingad puhtaks teinud\n\n\n\nÕpetajatele ja koolidele:\nSee video on avaldatud Creative Commonsi litsentsi all.\n  CC BY 3.0 https://creativecommons.org/licenses/by/3.0/ \nKasutage seda videot julgelt oma tundides!\n\nLokaliseerimiseks kasutame Google'i tõlke teenust. Kui leiate vigu, palun andke meile sellest teada.\n"
    },
    {
      "Lang": "eu",
      "Title": "Ingelesezko gramatika ariketak | simple Australia ⭐️ #35 have lost",
      "Description": "Ikasi ingelesezko gramatika! Aldatu esaldi batean hitzak.\n\n\n\n0:04 1:22 2:34 \nI have not lost my shoes\naɪ hæv nɑt lɔst maɪ ʃuz\nEz ditut zapatak galdu\n\n0:22 1:38 2:50 \nHe has not lost his shoes\nhi həz nɑt lɔst hɪz ʃuz\nEz du zapatak galdu\n\n0:36 1:52 3:04 \nHe has lost his shoes\nhi həz lɔst hɪz ʃuz\nOinetakoak galdu ditu\n\n0:51 2:05 3:17 \nI have lost my shoes\naɪ hæv lɔst maɪ ʃuz\nOinetakoak galdu ditut\n\n1:04 2:18 3:30 \nI have cleaned my shoes\naɪ hæv klind maɪ ʃuz\nOinetakoak garbitu ditut\n\n\n\nIrakasleei eta ikastetxeei:\nBideo hau Creative Commons lizentziapean argitaratzen da.\n  CC BY 3.0 https://creativecommons.org/licenses/by/3.0/ \nEz ahaztu bideo hau zure klaseetan erabiltzeko!\n\nGoogle Translate zerbitzua erabiltzen dugu lokalizaziorako. Akats batzuk aurkitzen badituzu, adierazi iezaguzu\n"
    },
    {
      "Lang": "fa",
      "Title": "تمرین های دستور زبان انگلیسی | ساده استرالیا ⭐️ #35 have lost",
      "Description": "گرامر انگلیسی را بیاموزید! یک کلمه را در یک جمله تغییر دهید.\n\n\n\n0:04 1:22 2:34 \nI have not lost my shoes\naɪ hæv nɑt lɔst maɪ ʃuz\nکفشهایم را گم نکرده ام\n\n0:22 1:38 2:50 \nHe has not lost his shoes\nhi həz nɑt lɔst hɪz ʃuz\nاو کفش خود را گم نکرده است\n\n0:36 1:52 3:04 \nHe has lost his shoes\nhi həz lɔst hɪz ʃuz\nکفش خود را گم کرده است\n\n0:51 2:05 3:17 \nI have lost my shoes\naɪ hæv lɔst maɪ ʃuz\nکفش هایم را گم کرده ام\n\n1:04 2:18 3:30 \nI have cleaned my shoes\naɪ hæv klind maɪ ʃuz\nکفش هایم را تمیز کرده ام\n\n\n\nبه معلمان و مدارس:\nاین ویدیو تحت مجوز Creative Commons منتشر شده است.\n  CC BY 3.0 https://creativecommons.org/licenses/by/3.0/ \nدر استفاده از این فیلم در کلاس های خود احساس راحتی کنید!\n\nما از خدمات Google Translate برای محلی سازی استفاده می کنیم. اگر شما برخی از اشتباهات ، لطفا به ما اطلاع دهید.\n"
    },
    {
      "Lang": "fi",
      "Title": "Englannin kieliopin harjoitukset | Yksinkertainen Australia ⭐️ #35 have lost",
      "Description": "Opi englannin kielioppi! Vaihda sana lauseessa.\n\n\n\n0:04 1:22 2:34 \nI have not lost my shoes\naɪ hæv nɑt lɔst maɪ ʃuz\nEn ole menettänyt kenkäni\n\n0:22 1:38 2:50 \nHe has not lost his shoes\nhi həz nɑt lɔst hɪz ʃuz\nHän ei ole menettänyt kenkääänään\n\n0:36 1:52 3:04 \nHe has lost his shoes\nhi həz lɔst hɪz ʃuz\nHän on menettänyt kengänsä\n\n0:51 2:05 3:17 \nI have lost my shoes\naɪ hæv lɔst maɪ ʃuz\nOlen kadonnut kenkäni\n\n1:04 2:18 3:30 \nI have cleaned my shoes\naɪ hæv klind maɪ ʃuz\nOlen puhdistanut kenkäni\n\n\n\nOpettajille ja kouluille:\nTämä video on julkaistu Creative Commons -lisenssillä.\n  CC BY 3.0 https://creativecommons.org/licenses/by/3.0/ \nVoit vapaasti käyttää tätä videota luokissa!\n\nKäytämme lokalisointiin Google Translate -palvelua. Jos löydät virheitä, ota meihin yhteyttä.\n"
    },
    {
      "Lang": "fil",
      "Title": "Pagsasanay sa grammar ng Ingles | Simple Australia ⭐️ #35 have lost",
      "Description": "Alamin ang grammar ng Ingles! Baguhin ang isang salita sa isang pangungusap.\n\n\n\n0:04 1:22 2:34 \nI have not lost my shoes\naɪ hæv nɑt lɔst maɪ ʃuz\nHindi ko nawala ang aking sapatos\n\n0:22 1:38 2:50 \nHe has not lost his shoes\nhi həz nɑt lɔst hɪz ʃuz\nHindi niya nawala ang kanyang sapatos\n\n0:36 1:52 3:04 \nHe has lost his shoes\nhi həz lɔst hɪz ʃuz\nNawala ang sapatos niya\n\n0:51 2:05 3:17 \nI have lost my shoes\naɪ hæv lɔst maɪ ʃuz\nNawala ang sapatos ko\n\n1:04 2:18 3:30 \nI have cleaned my shoes\naɪ hæv klind maɪ ʃuz\nNilinis ko na ang sapatos ko\n\n\n\nSa mga guro at paaralan:\nAng video na ito ay nai-publish sa ilalim ng Lisensya ng Creative Commons.\n  CC BY 3.0 https://creativecommons.org/licenses/by/3.0/ \nHuwag mag-atubiling gamitin ang video na ito sa iyong mga klase!\n\nWe use Google Translate service for localization. If you find some mistakes, please let us know.\n"
    },
    {
      "Lang": "fr",
      "Title": "Exercices de grammaire anglaise | Facile Australie ⭐️ #35 have lost",
      "Description": "Apprenez la grammaire anglaise! Changer un mot dans une phrase.\n\n\n\n0:04 1:22 2:34 \nI have not lost my shoes\naɪ hæv nɑt lɔst maɪ ʃuz\nJe n'ai pas perdu mes chaussures\n\n0:22 1:38 2:50 \nHe has not lost his shoes\nhi həz nɑt lɔst hɪz ʃuz\nIl n'a pas perdu ses chaussures\n\n0:36 1:52 3:04 \nHe has lost his shoes\nhi həz lɔst hɪz ʃuz\nIl a perdu ses chaussures\n\n0:51 2:05 3:17 \nI have lost my shoes\naɪ hæv lɔst maɪ ʃuz\nJ'ai perdu mes chaussures\n\n1:04 2:18 3:30 \nI have cleaned my shoes\naɪ hæv klind maɪ ʃuz\nJ'ai nettoyé mes chaussures\n\n\n\nAux enseignants et aux écoles:\nCette vidéo est publiée sous licence Creative Commons.\n  CC BY 3.0 https://creativecommons.org/licenses/by/3.0/ \nN'hésitez pas à utiliser cette vidéo dans vos cours!\n\nNous utilisons le service Google Translate pour la localisation. Si vous trouvez des erreurs, veuillez nous en informer.\n"
    },
    {
      "Lang": "fy",
      "Title": "Ingelske oefeningen foar grammatika | Ienfâldich Austraalje ⭐️ #35 have lost",
      "Description": "Learje Ingelske grammatika! Feroarje in wurd yn in sin.\n\n\n\n0:04 1:22 2:34 \nI have not lost my shoes\naɪ hæv nɑt lɔst maɪ ʃuz\nIk haw myn skuon net ferlern\n\n0:22 1:38 2:50 \nHe has not lost his shoes\nhi həz nɑt lɔst hɪz ʃuz\nHy is syn skuon net kwytrekke\n\n0:36 1:52 3:04 \nHe has lost his shoes\nhi həz lɔst hɪz ʃuz\nHy is syn skuon kwytrekke\n\n0:51 2:05 3:17 \nI have lost my shoes\naɪ hæv lɔst maɪ ʃuz\nIk bin myn skuon kwytrekke\n\n1:04 2:18 3:30 \nI have cleaned my shoes\naɪ hæv klind maɪ ʃuz\nIk haw myn skuon skjinmakke\n\n\n\nOan dosinten en skoallen:\nDizze fideo wurdt publisearre ûnder Creative Commons License.\n  CC BY 3.0 https://creativecommons.org/licenses/by/3.0/ \nFiel jo frij om dizze fideo te brûken yn jo klassen!\n\nWy brûke Google Translate tsjinst foar lokalisaasje. As jo wat flaters fine, lit it ús dan witte.\n"
    },
    {
      "Lang": "gd",
      "Title": "Eacarsaichean gràmair Beurla | Gu sìmplidh Astràilia ⭐️ #35 have lost",
      "Description": "Ionnsaich gràmar Beurla! Atharraich facal ann an seantans.\n\n\n\n0:04 1:22 2:34 \nI have not lost my shoes\naɪ hæv nɑt lɔst maɪ ʃuz\nCha do chaill mi mo bhrògan\n\n0:22 1:38 2:50 \nHe has not lost his shoes\nhi həz nɑt lɔst hɪz ʃuz\nCha do chaill e a bhrògan\n\n0:36 1:52 3:04 \nHe has lost his shoes\nhi həz lɔst hɪz ʃuz\nTha e air a bhrògan a chall\n\n0:51 2:05 3:17 \nI have lost my shoes\naɪ hæv lɔst maɪ ʃuz\nTha mi air mo bhrògan a chall\n\n1:04 2:18 3:30 \nI have cleaned my shoes\naɪ hæv klind maɪ ʃuz\nTha mi air mo bhrògan a ghlanadh\n\n\n\nDo thidsearan agus sgoiltean:\nTha a ’bhidio seo air fhoillseachadh fo Creative Commons License.\n  CC BY 3.0 https://creativecommons.org/licenses/by/3.0/ \nFaodaidh tu am bhidio seo a chleachdadh anns na clasaichean agad!\n\nBidh sinn a ’cleachdadh seirbheis Google Translate airson sgìreachadh. Ma lorgas tu cuid de mhearachdan, feuch an innis thu dhuinn.\n"
    },
    {
      "Lang": "gl",
      "Title": "Exercicios de gramática inglesa | Sinxelo Australia ⭐️ #35 have lost",
      "Description": "Aprende gramática inglesa! Cambia unha palabra nunha frase.\n\n\n\n0:04 1:22 2:34 \nI have not lost my shoes\naɪ hæv nɑt lɔst maɪ ʃuz\nNon perdín os zapatos\n\n0:22 1:38 2:50 \nHe has not lost his shoes\nhi həz nɑt lɔst hɪz ʃuz\nNon perdeu os zapatos\n\n0:36 1:52 3:04 \nHe has lost his shoes\nhi həz lɔst hɪz ʃuz\nPerdeu os zapatos\n\n0:51 2:05 3:17 \nI have lost my shoes\naɪ hæv lɔst maɪ ʃuz\nPerdín os zapatos\n\n1:04 2:18 3:30 \nI have cleaned my shoes\naɪ hæv klind maɪ ʃuz\nLimpei os zapatos\n\n\n\nPara profesores e colexios:\nEste vídeo está publicado baixo a licenza Creative Commons.\n  CC BY 3.0 https://creativecommons.org/licenses/by/3.0/ \nNon dubides en usar este vídeo nas túas clases.\n\nUsamos o servizo Google Translate para a súa localización. Se atopas algún erro, comunícanos.\n"
    },
    {
      "Lang": "gu",
      "Title": "અંગ્રેજી વ્યાકરણ વ્યાયામ | સરળ .સ્ટ્રેલિયા ⭐️ #35 have lost",
      "Description": "અંગ્રેજી વ્યાકરણ શીખો! એક વાક્યમાં એક શબ્દ બદલો.\n\n\n\n0:04 1:22 2:34 \nI have not lost my shoes\naɪ hæv nɑt lɔst maɪ ʃuz\nમેં મારા પગરખાં ગુમાવ્યા નથી\n\n0:22 1:38 2:50 \nHe has not lost his shoes\nhi həz nɑt lɔst hɪz ʃuz\nતેણે પગરખાં ગુમાવ્યા નથી\n\n0:36 1:52 3:04 \nHe has lost his shoes\nhi həz lɔst hɪz ʃuz\nતેણે પગરખાં ગુમાવ્યા છે\n\n0:51 2:05 3:17 \nI have lost my shoes\naɪ hæv lɔst maɪ ʃuz\nમેં મારા પગરખાં ગુમાવ્યા છે\n\n1:04 2:18 3:30 \nI have cleaned my shoes\naɪ hæv klind maɪ ʃuz\nમેં મારા પગરખાં સાફ કર્યા છે\n\n\n\nશિક્ષકો અને શાળાઓને:\nઆ વિડિઓ ક્રિએટિવ કonsમન્સ લાઇસન્સ હેઠળ પ્રકાશિત છે.\n  CC BY 3.0 https://creativecommons.org/licenses/by/3.0/ \nતમારા વર્ગોમાં આ વિડિઓનો ઉપયોગ કરવા માટે મફત લાગે!\n\nઅમે સ્થાનિકીકરણ માટે Google ભાષાંતર સેવાનો ઉપયોગ કરીએ છીએ. જો તમને કેટલીક ભૂલો લાગે છે, તો કૃપા કરીને અમને જણાવો.\n"
    },
    {
      "Lang": "ha",
      "Title": "Darasi na ilimin nahawu na Turanci | Mai sauki Ostiraliya ⭐️ #35 have lost",
      "Description": "Koyi ilimin nahawu Turanci! Canja kalma a cikin jumla.\n\n\n\n0:04 1:22 2:34 \nI have not lost my shoes\naɪ hæv nɑt lɔst maɪ ʃuz\nBan batar da takalmanta ba\n\n0:22 1:38 2:50 \nHe has not lost his shoes\nhi həz nɑt lɔst hɪz ʃuz\nYa rasa takalmansa\n\n0:36 1:52 3:04 \nHe has lost his shoes\nhi həz lɔst hɪz ʃuz\nYa rasa takalmansa\n\n0:51 2:05 3:17 \nI have lost my shoes\naɪ hæv lɔst maɪ ʃuz\nNa batar da takalma na\n\n1:04 2:18 3:30 \nI have cleaned my shoes\naɪ hæv klind maɪ ʃuz\nNa tsabtace takalina\n\n\n\nGa malamai da makarantu:\nWannan bidiyon an buga shi a ƙarƙashin lasisin Creative Commons.\n  CC BY 3.0 https://creativecommons.org/licenses/by/3.0/ \nJin kyauta don amfani da wannan bidiyon a cikin azuzuwanku!\n\nMuna amfani da sabis na Google Fassara don fassarar. Idan ka sami wasu kurakurai, da fatan za a sanar da mu.\n"
    },
    {
      "Lang": "hi",
      "Title": "अंग्रेजी व्याकरण अभ्यास | सरल ऑस्ट्रेलिया ⭐️ #35 have lost",
      "Description": "अंग्रेजी व्याकरण जानें! एक वाक्य में एक शब्द बदलें।\n\n\n\n0:04 1:22 2:34 \nI have not lost my shoes\naɪ hæv nɑt lɔst maɪ ʃuz\nमैंने अपने जूते नहीं खोए हैं\n\n0:22 1:38 2:50 \nHe has not lost his shoes\nhi həz nɑt lɔst hɪz ʃuz\nउसने अपने जूते नहीं खोए हैं\n\n0:36 1:52 3:04 \nHe has lost his shoes\nhi həz lɔst hɪz ʃuz\nउसने अपने जूते खो दिए हैं\n\n0:51 2:05 3:17 \nI have lost my shoes\naɪ hæv lɔst maɪ ʃuz\nमैंने अपने जूते खो दिए हैं\n\n1:04 2:18 3:30 \nI have cleaned my shoes\naɪ hæv klind maɪ ʃuz\nमैंने अपने जूते साफ कर दिए हैं\n\n\n\nशिक्षकों और स्कूलों के लिए:\nयह वीडियो क्रिएटिव कॉमन्स लाइसेंस के तहत प्रकाशित हुआ है।\n  CC BY 3.0 https://creativecommons.org/licenses/by/3.0/ \nअपनी कक्षाओं में इस वीडियो का उपयोग करने के लिए स्वतंत्र महसूस करें!\n\nहम स्थानीयकरण के लिए Google अनुवाद सेवा का उपयोग करते हैं। यदि आप कुछ गलतियाँ पाते हैं, तो कृपया हमें बताएँ।\n"
    },
    {
      "Lang": "hr",
      "Title": "Gramatičke vježbe engleskog jezika | Jednostavan Australija ⭐️ #35 have lost",
      "Description": "Naučite englesku gramatiku! Promijenite riječ u rečenici.\n\n\n\n0:04 1:22 2:34 \nI have not lost my shoes\naɪ hæv nɑt lɔst maɪ ʃuz\nNisam izgubio cipele\n\n0:22 1:38 2:50 \nHe has not lost his shoes\nhi həz nɑt lɔst hɪz ʃuz\nNije izgubio cipele\n\n0:36 1:52 3:04 \nHe has lost his shoes\nhi həz lɔst hɪz ʃuz\nIzgubio je cipele\n\n0:51 2:05 3:17 \nI have lost my shoes\naɪ hæv lɔst maɪ ʃuz\nIzgubio sam cipele\n\n1:04 2:18 3:30 \nI have cleaned my shoes\naɪ hæv klind maɪ ʃuz\nOčistila sam cipele\n\n\n\nNastavnicima i školama:\nOvaj videozapis objavljen je pod licencom Creative Commons.\n  CC BY 3.0 https://creativecommons.org/licenses/by/3.0/ \nSlobodno upotrijebite ovaj videozapis u svojim predavanjima!\n\nZa lokalizaciju koristimo uslugu Google Translate. Ako pronađete neke pogreške, javite nam se.\n"
    },
    {
      "Lang": "hu",
      "Title": "Angol nyelvtan gyakorlatok | Egyszerű Ausztrália ⭐️ #35 have lost",
      "Description": "Tanulj angol nyelvtant! Változtasson egy szót egy mondatban.\n\n\n\n0:04 1:22 2:34 \nI have not lost my shoes\naɪ hæv nɑt lɔst maɪ ʃuz\nNem vesztettem el a cipőmet\n\n0:22 1:38 2:50 \nHe has not lost his shoes\nhi həz nɑt lɔst hɪz ʃuz\nNem vesztette el cipőjét\n\n0:36 1:52 3:04 \nHe has lost his shoes\nhi həz lɔst hɪz ʃuz\nElvesztette a cipőjét\n\n0:51 2:05 3:17 \nI have lost my shoes\naɪ hæv lɔst maɪ ʃuz\nElvesztettem a cipőmet\n\n1:04 2:18 3:30 \nI have cleaned my shoes\naɪ hæv klind maɪ ʃuz\nMegtisztítottam a cipőmet\n\n\n\nTanároknak és iskoláknak:\nEz a videó a Creative Commons License alatt jelenik meg.\n  CC BY 3.0 https://creativecommons.org/licenses/by/3.0/ \nNyugodtan használja ezt a videót az osztályokban!\n\nA lokalizációhoz a Google Translate szolgáltatást használjuk. Ha hibát talál, kérjük, ossza meg velünk.\n"
    },
    {
      "Lang": "hy",
      "Title": "Անգլերենի քերականական վարժություններ | Պարզ Ավստրալիա ⭐️ #35 have lost",
      "Description": "Իմացեք անգլերեն քերականությունը: Մի նախադասությամբ մի բառ փոխեք:\n\n\n\n0:04 1:22 2:34 \nI have not lost my shoes\naɪ hæv nɑt lɔst maɪ ʃuz\nԵս չեմ կորցրել կոշիկները\n\n0:22 1:38 2:50 \nHe has not lost his shoes\nhi həz nɑt lɔst hɪz ʃuz\nՆա չի կորցրել իր կոշիկները\n\n0:36 1:52 3:04 \nHe has lost his shoes\nhi həz lɔst hɪz ʃuz\nՆա կորցրել է իր կոշիկները\n\n0:51 2:05 3:17 \nI have lost my shoes\naɪ hæv lɔst maɪ ʃuz\nԿոշիկս կորցրել եմ\n\n1:04 2:18 3:30 \nI have cleaned my shoes\naɪ hæv klind maɪ ʃuz\nԵս կոշիկները մաքրել եմ\n\n\n\nՈւսուցիչներին և դպրոցներին.\nԱյս տեսանյութը հրապարակված է Creative Commons արտոնագրի ներքո:\n  CC BY 3.0 https://creativecommons.org/licenses/by/3.0/ \nԱզատորեն օգտվեք այս տեսանյութից ձեր դասերից:\n\nՄենք օգտագործում ենք Google Translate ծառայությունը տեղայնացման համար: Եթե որոշ սխալներ եք գտնում, խնդրում ենք տեղեկացնել մեզ:\n"
    },
    {
      "Lang": "id",
      "Title": "Latihan tata bahasa Inggris | Sederhana Australia ⭐️ #35 have lost",
      "Description": "Belajar tata bahasa Inggris! Ubah kata dalam kalimat.\n\n\n\n0:04 1:22 2:34 \nI have not lost my shoes\naɪ hæv nɑt lɔst maɪ ʃuz\nSaya belum kehilangan sepatu saya\n\n0:22 1:38 2:50 \nHe has not lost his shoes\nhi həz nɑt lɔst hɪz ʃuz\nDia tidak kehilangan sepatunya\n\n0:36 1:52 3:04 \nHe has lost his shoes\nhi həz lɔst hɪz ʃuz\nDia telah kehilangan sepatunya\n\n0:51 2:05 3:17 \nI have lost my shoes\naɪ hæv lɔst maɪ ʃuz\nSepatu saya hilang\n\n1:04 2:18 3:30 \nI have cleaned my shoes\naɪ hæv klind maɪ ʃuz\nSaya telah membersihkan sepatu saya\n\n\n\nKepada guru dan sekolah:\nVideo ini diterbitkan di bawah Lisensi Creative Commons.\n  CC BY 3.0 https://creativecommons.org/licenses/by/3.0/ \nJangan ragu untuk menggunakan video ini di kelas Anda!\n\nKami menggunakan layanan Google Terjemahan untuk pelokalan. Jika Anda menemukan beberapa kesalahan, beri tahu kami.\n"
    },
    {
      "Lang": "ig",
      "Title": "Ọmụmụ asụsụ ụtọ asụsụ Bekee | Dị Mfe Australia ⭐️ #35 have lost",
      "Description": "Muta asusu bekee! Gbanwee okwu na ahịrịokwu.\n\n\n\n0:04 1:22 2:34 \nI have not lost my shoes\naɪ hæv nɑt lɔst maɪ ʃuz\nAgbapula m akpụkpọ ụkwụ m\n\n0:22 1:38 2:50 \nHe has not lost his shoes\nhi həz nɑt lɔst hɪz ʃuz\nAkpụkpọ ụkwụ ya apụbeghị\n\n0:36 1:52 3:04 \nHe has lost his shoes\nhi həz lɔst hɪz ʃuz\nAkpụkpọ ụkwụ ya efuola\n\n0:51 2:05 3:17 \nI have lost my shoes\naɪ hæv lɔst maɪ ʃuz\nAkpụla akpụkpọ ụkwụ m\n\n1:04 2:18 3:30 \nI have cleaned my shoes\naɪ hæv klind maɪ ʃuz\nEmechaala m akpụkpọ ụkwụ m\n\n\n\nMaka ndị nkuzi na ụlọ akwụkwọ:\nEdere vidiyo a n'okpuru ikikere Creative Commons.\n  CC BY 3.0 https://creativecommons.org/licenses/by/3.0/ \nNwere onwe gị iji vidiyo a na klaasị gị!\n\nAnyị na-eji ọrụ ntụgharị Google emegharị. Ọ bụrụ n’ịhụ ụfọdụ mmejọ, biko mee ka anyị mara.\n"
    },
    {
      "Lang": "is",
      "Title": "Enskar málfræðiæfingar | Einfalt Ástralía ⭐️ #35 have lost",
      "Description": "Lærðu ensku málfræði! Skiptu um orð í setningu.\n\n\n\n0:04 1:22 2:34 \nI have not lost my shoes\naɪ hæv nɑt lɔst maɪ ʃuz\nÉg hef ekki misst skóna mína\n\n0:22 1:38 2:50 \nHe has not lost his shoes\nhi həz nɑt lɔst hɪz ʃuz\nHann hefur ekki misst skóna\n\n0:36 1:52 3:04 \nHe has lost his shoes\nhi həz lɔst hɪz ʃuz\nHann hefur misst skóna\n\n0:51 2:05 3:17 \nI have lost my shoes\naɪ hæv lɔst maɪ ʃuz\nÉg hef misst skóna mína\n\n1:04 2:18 3:30 \nI have cleaned my shoes\naɪ hæv klind maɪ ʃuz\nÉg hef hreinsað skóna mína\n\n\n\nTil kennara og skóla:\nÞetta myndband er birt undir Creative Commons leyfi.\n  CC BY 3.0 https://creativecommons.org/licenses/by/3.0/ \nEkki hika við að nota þetta myndband í bekkjum þínum!\n\nVið notum Google Translate þjónustu til að staðsetja. Láttu okkur vita ef þú finnur fyrir einhverjum mistökum.\n"
    },
    {
      "Lang": "it",
      "Title": "Esercizi di grammatica inglese | Semplice Australia ⭐️ #35 have lost",
      "Description": "Impara la grammatica inglese! Cambia una parola in una frase.\n\n\n\n0:04 1:22 2:34 \nI have not lost my shoes\naɪ hæv nɑt lɔst maɪ ʃuz\nNon ho perso le scarpe\n\n0:22 1:38 2:50 \nHe has not lost his shoes\nhi həz nɑt lɔst hɪz ʃuz\nNon ha perso le scarpe\n\n0:36 1:52 3:04 \nHe has lost his shoes\nhi həz lɔst hɪz ʃuz\nHa perso le scarpe\n\n0:51 2:05 3:17 \nI have lost my shoes\naɪ hæv lɔst maɪ ʃuz\nHo perso le scarpe\n\n1:04 2:18 3:30 \nI have cleaned my shoes\naɪ hæv klind maɪ ʃuz\nHo pulito le mie scarpe\n\n\n\nPer insegnanti e scuole:\nQuesto video è pubblicato sotto la licenza Creative Commons.\n  CC BY 3.0 https://creativecommons.org/licenses/by/3.0/ \nSentiti libero di usare questo video nelle tue lezioni!\n\nUtilizziamo il servizio Google Translate per la localizzazione. Se trovi qualche errore, faccelo sapere.\n"
    },
    {
      "Lang": "iw",
      "Title": "תרגילי דקדוק באנגלית | פשוט אוסטרליה ⭐️ #35 have lost",
      "Description": "למד דקדוק באנגלית! שנה מילה במשפט.\n\n\n\n0:04 1:22 2:34 \nI have not lost my shoes\naɪ hæv nɑt lɔst maɪ ʃuz\nלא איבדתי את הנעליים\n\n0:22 1:38 2:50 \nHe has not lost his shoes\nhi həz nɑt lɔst hɪz ʃuz\nהוא לא איבד את נעליו\n\n0:36 1:52 3:04 \nHe has lost his shoes\nhi həz lɔst hɪz ʃuz\nהוא איבד את נעליו\n\n0:51 2:05 3:17 \nI have lost my shoes\naɪ hæv lɔst maɪ ʃuz\nאיבדתי את הנעליים\n\n1:04 2:18 3:30 \nI have cleaned my shoes\naɪ hæv klind maɪ ʃuz\nניקיתי את הנעליים\n\n\n\nלמורים ובתי ספר:\nסרטון זה מתפרסם תחת רישיון Creative Commons.\n  CC BY 3.0 https://creativecommons.org/licenses/by/3.0/ \nאל תהסס להשתמש בסרטון זה בשיעורים שלך!\n\nאנו משתמשים בשירות Google Translate לצורך לוקליזציה. אם אתה מוצא טעויות, אנא הודע לנו על כך.\n"
    },
    {
      "Lang": "ja",
      "Title": "英文法練習 | シンプル オーストラリア ⭐️ #35 have lost",
      "Description": "英語の文法を学びましょう！ 文中の単語を変更します。\n\n\n\n0:04 1:22 2:34 \nI have not lost my shoes\naɪ hæv nɑt lɔst maɪ ʃuz\n靴を紛失していない\n\n0:22 1:38 2:50 \nHe has not lost his shoes\nhi həz nɑt lɔst hɪz ʃuz\n彼は靴を失っていない\n\n0:36 1:52 3:04 \nHe has lost his shoes\nhi həz lɔst hɪz ʃuz\n彼は靴を失った\n\n0:51 2:05 3:17 \nI have lost my shoes\naɪ hæv lɔst maɪ ʃuz\n靴をなくした\n\n1:04 2:18 3:30 \nI have cleaned my shoes\naɪ hæv klind maɪ ʃuz\n靴を掃除しました\n\n\n\n先生と学校へ：\nこのビデオは、クリエイティブコモンズライセンスの下で公開されています。\n  CC BY 3.0 https://creativecommons.org/licenses/by/3.0/ \nこのビデオをクラスで自由に使用してください！\n\nローカライズにはGoogle翻訳サービスを使用しています。間違いを見つけた場合はお知らせください。\n"
    },
    {
      "Lang": "jv",
      "Title": "Latihan grammar Inggris | Prasaja Australia ⭐️ #35 have lost",
      "Description": "Sinau tata basa Inggris! Ngganti tembung sajrone ukara.\n\n\n\n0:04 1:22 2:34 \nI have not lost my shoes\naɪ hæv nɑt lɔst maɪ ʃuz\nAku durung ilang sepatuku\n\n0:22 1:38 2:50 \nHe has not lost his shoes\nhi həz nɑt lɔst hɪz ʃuz\nDheweke durung ilang sepatune\n\n0:36 1:52 3:04 \nHe has lost his shoes\nhi həz lɔst hɪz ʃuz\nDheweke wis ilang sepatune\n\n0:51 2:05 3:17 \nI have lost my shoes\naɪ hæv lɔst maɪ ʃuz\nAku wis ilang sepatuku\n\n1:04 2:18 3:30 \nI have cleaned my shoes\naɪ hæv klind maɪ ʃuz\nAku wis ngresiki sepatuku\n\n\n\nTumrap guru lan sekolah:\nVideo iki diterbitake ing lisensi Creative Commons.\n  CC BY 3.0 https://creativecommons.org/licenses/by/3.0/ \nOjo nggunakake video iki ing kelas sampeyan!\n\nKita nggunakake layanan Google Translate kanggo lokalisasi. Yen sampeyan nemokake sawetara kesalahan, kabari.\n"
    },
    {
      "Lang": "ka",
      "Title": "ინგლისური გრამატიკის სავარჯიშოები | მარტივი ავსტრალია ⭐️ #35 have lost",
      "Description": "შეიტყვეთ ინგლისური ენის გრამატიკა! წინადადებაში შეცვალეთ სიტყვა.\n\n\n\n0:04 1:22 2:34 \nI have not lost my shoes\naɪ hæv nɑt lɔst maɪ ʃuz\nფეხსაცმელი არ დამეკარგა\n\n0:22 1:38 2:50 \nHe has not lost his shoes\nhi həz nɑt lɔst hɪz ʃuz\nმან ფეხსაცმელი არ დაკარგა\n\n0:36 1:52 3:04 \nHe has lost his shoes\nhi həz lɔst hɪz ʃuz\nმან ფეხსაცმელი დაკარგა\n\n0:51 2:05 3:17 \nI have lost my shoes\naɪ hæv lɔst maɪ ʃuz\nფეხსაცმელი დამეკარგა\n\n1:04 2:18 3:30 \nI have cleaned my shoes\naɪ hæv klind maɪ ʃuz\nფეხსაცმელი გამიწმინდა\n\n\n\nმასწავლებლებსა და სკოლებს:\nეს ვიდეო გამოქვეყნებულია Creative Commons- ის ლიცენზიით.\n  CC BY 3.0 https://creativecommons.org/licenses/by/3.0/ \nშეგიძლიათ გამოიყენოთ ეს ვიდეო თქვენს კლასებში!\n\nჩვენ ვიყენებთ Google Translate სერვისს ლოკალიზაციისთვის. თუ შეცდომებს იპოვნით, გთხოვთ, შეგვატყობინოთ.\n"
    },
    {
      "Lang": "kk",
      "Title": "Ағылшын грамматикалық жаттығулары | Қарапайым Австралия ⭐️ #35 have lost",
      "Description": "Ағылшын грамматикасын үйрен! Сөйлемдегі сөзді өзгертіңіз.\n\n\n\n0:04 1:22 2:34 \nI have not lost my shoes\naɪ hæv nɑt lɔst maɪ ʃuz\nМен аяқ киімімді жоғалтқан жоқпын\n\n0:22 1:38 2:50 \nHe has not lost his shoes\nhi həz nɑt lɔst hɪz ʃuz\nАяқ киімін жоғалтқан жоқ\n\n0:36 1:52 3:04 \nHe has lost his shoes\nhi həz lɔst hɪz ʃuz\nАяқ киімін жоғалтты\n\n0:51 2:05 3:17 \nI have lost my shoes\naɪ hæv lɔst maɪ ʃuz\nМен аяқ киімімді жоғалттым\n\n1:04 2:18 3:30 \nI have cleaned my shoes\naɪ hæv klind maɪ ʃuz\nМен аяқ киімдерімді тазаладым\n\n\n\nОқытушылар мен мектептерге:\nБұл бейне Creative Commons лицензиясы бойынша жарияланған.\n  CC BY 3.0 https://creativecommons.org/licenses/by/3.0/ \nБұл бейнені өз сабақтарыңызда қолдануға болады!\n\nGoogle Translate қызметін локализациялау үшін қолданамыз. Егер сіз қате тапсаңыз, бізге хабарлаңыз.\n"
    },
    {
      "Lang": "km",
      "Title": "លំហាត់វេយ្យាករណ៍អង់គ្លេស | សាមញ្ញ អូស្ត្រាលី ⭐️ #35 have lost",
      "Description": "រៀនវេយ្យាករណ៍អង់គ្លេស! ផ្លាស់ប្តូរពាក្យនៅក្នុងប្រយោគមួយ។\n\n\n\n0:04 1:22 2:34 \nI have not lost my shoes\naɪ hæv nɑt lɔst maɪ ʃuz\nខ្ញុំមិនបានបាត់បង់ស្បែកជើងទេ\n\n0:22 1:38 2:50 \nHe has not lost his shoes\nhi həz nɑt lɔst hɪz ʃuz\nគាត់មិនបានបាត់បង់ស្បែកជើងទេ\n\n0:36 1:52 3:04 \nHe has lost his shoes\nhi həz lɔst hɪz ʃuz\nគាត់បានបាត់បង់ស្បែកជើងរបស់គាត់\n\n0:51 2:05 3:17 \nI have lost my shoes\naɪ hæv lɔst maɪ ʃuz\nខ្ញុំបានបាត់បង់ស្បែកជើងរបស់ខ្ញុំ\n\n1:04 2:18 3:30 \nI have cleaned my shoes\naɪ hæv klind maɪ ʃuz\nខ្ញុំបានសម្អាតស្បែកជើងរបស់ខ្ញុំ\n\n\n\nជូនដល់គ្រូនិងសាលា៖\nវីដេអូនេះត្រូវបានផ្សព្វផ្សាយក្រោមអាជ្ញាប័ណ្ណច្នៃប្រឌិត។\n  CC BY 3.0 https://creativecommons.org/licenses/by/3.0/ \nសូមប្រើវីដេអូនេះនៅក្នុងថ្នាក់របស់អ្នកដោយឥតគិតថ្លៃ!\n\nយើងប្រើសេវាកម្មបកប្រែហ្គូហ្គលសម្រាប់ការធ្វើមូលដ្ឋានីយកម្ម។ ប្រសិនបើអ្នករកឃើញកំហុសខ្លះសូមប្រាប់ឱ្យយើងដឹង។\n"
    },
    {
      "Lang": "kn",
      "Title": "ಇಂಗ್ಲಿಷ್ ವ್ಯಾಕರಣ ವ್ಯಾಯಾಮ | ಸರಳ ಆಸ್ಟ್ರೇಲಿಯಾ ⭐️ #35 have lost",
      "Description": "ಇಂಗ್ಲಿಷ್ ವ್ಯಾಕರಣ ಕಲಿಯಿರಿ! ಒಂದು ವಾಕ್ಯದಲ್ಲಿ ಪದವನ್ನು ಬದಲಾಯಿಸಿ.\n\n\n\n0:04 1:22 2:34 \nI have not lost my shoes\naɪ hæv nɑt lɔst maɪ ʃuz\nನಾನು ನನ್ನ ಬೂಟುಗಳನ್ನು ಕಳೆದುಕೊಂಡಿಲ್ಲ\n\n0:22 1:38 2:50 \nHe has not lost his shoes\nhi həz nɑt lɔst hɪz ʃuz\nಅವನು ತನ್ನ ಬೂಟುಗಳನ್ನು ಕಳೆದುಕೊಂಡಿಲ್ಲ\n\n0:36 1:52 3:04 \nHe has lost his shoes\nhi həz lɔst hɪz ʃuz\nಅವನು ತನ್ನ ಬೂಟುಗಳನ್ನು ಕಳೆದುಕೊಂಡಿದ್ದಾನೆ\n\n0:51 2:05 3:17 \nI have lost my shoes\naɪ hæv lɔst maɪ ʃuz\nನಾನು ನನ್ನ ಬೂಟುಗಳನ್ನು ಕಳೆದುಕೊಂಡಿದ್ದೇನೆ\n\n1:04 2:18 3:30 \nI have cleaned my shoes\naɪ hæv klind maɪ ʃuz\nನಾನು ನನ್ನ ಬೂಟುಗಳನ್ನು ಸ್ವಚ್ have ಗೊಳಿಸಿದ್ದೇನೆ\n\n\n\nಶಿಕ್ಷಕರು ಮತ್ತು ಶಾಲೆಗಳಿಗೆ:\nಈ ವೀಡಿಯೊವನ್ನು ಕ್ರಿಯೇಟಿವ್ ಕಾಮನ್ಸ್ ಪರವಾನಗಿ ಅಡಿಯಲ್ಲಿ ಪ್ರಕಟಿಸಲಾಗಿದೆ.\n  CC BY 3.0 https://creativecommons.org/licenses/by/3.0/ \nನಿಮ್ಮ ತರಗತಿಗಳಲ್ಲಿ ಈ ವೀಡಿಯೊವನ್ನು ಬಳಸಲು ಹಿಂಜರಿಯಬೇಡಿ!\n\nಸ್ಥಳೀಕರಣಕ್ಕಾಗಿ ನಾವು Google ಅನುವಾದ ಸೇವೆಯನ್ನು ಬಳಸುತ್ತೇವೆ. ನೀವು ಕೆಲವು ತಪ್ಪುಗಳನ್ನು ಕಂಡುಕೊಂಡರೆ, ದಯವಿಟ್ಟು ನಮಗೆ ತಿಳಿಸಿ.\n"
    },
    {
      "Lang": "ko",
      "Title": "영어 문법 연습 | 단순한 호주 ⭐️ #35 have lost",
      "Description": "영어 문법 배우기! 문장에서 단어를 변경하십시오.\n\n\n\n0:04 1:22 2:34 \nI have not lost my shoes\naɪ hæv nɑt lɔst maɪ ʃuz\n나는 신발을 잃지 않았다\n\n0:22 1:38 2:50 \nHe has not lost his shoes\nhi həz nɑt lɔst hɪz ʃuz\n그는 신발을 잃지 않았다\n\n0:36 1:52 3:04 \nHe has lost his shoes\nhi həz lɔst hɪz ʃuz\n그는 신발을 잃어 버렸다\n\n0:51 2:05 3:17 \nI have lost my shoes\naɪ hæv lɔst maɪ ʃuz\n신발을 잃어 버렸습니다\n\n1:04 2:18 3:30 \nI have cleaned my shoes\naɪ hæv klind maɪ ʃuz\n신발을 청소했습니다\n\n\n\n교사와 학교 :\n이 비디오는 Creative Commons License에 따라 게시됩니다.\n  CC BY 3.0 https://creativecommons.org/licenses/by/3.0/ \n이 비디오를 수업에 자유롭게 사용하십시오!\n\n현지화를 위해 Google 번역 서비스를 사용합니다. 실수가 있으면 알려주세요.\n"
    },
    {
      "Lang": "ku",
      "Title": "Pratîkên rêzimanê Englishngilîzî | Asan Awistrelya ⭐️ #35 have lost",
      "Description": "Gramera Englishngilîzî fêr bibin! Di hevokan de peyvek diguhezin.\n\n\n\n0:04 1:22 2:34 \nI have not lost my shoes\naɪ hæv nɑt lɔst maɪ ʃuz\nMin kincên xwe wenda nekirine\n\n0:22 1:38 2:50 \nHe has not lost his shoes\nhi həz nɑt lɔst hɪz ʃuz\nPozên xwe negotî\n\n0:36 1:52 3:04 \nHe has lost his shoes\nhi həz lɔst hɪz ʃuz\nPozên xwe wenda kiriye\n\n0:51 2:05 3:17 \nI have lost my shoes\naɪ hæv lɔst maɪ ʃuz\nMin pêlavên xwe winda kirine\n\n1:04 2:18 3:30 \nI have cleaned my shoes\naɪ hæv klind maɪ ʃuz\nMin pêlavên xwe paqij kiriye\n\n\n\nJi mamoste û dibistanan re:\nEv vîdyoyê di bin lîsansa Creative Commons-ê de hatî weşandin.\n  CC BY 3.0 https://creativecommons.org/licenses/by/3.0/ \nHêsan e ku hûn vê vîdyoyê di sinifên xwe de bikar bînin!\n\nEm ji bo herêmbûnê karûbarê Google Translate kar dikin. Heke hûn hin xeletiyan bibînin, ji kerema xwe ji me re agahdar bikin.\n"
    },
    {
      "Lang": "ky",
      "Title": "Англис тилинин грамматикасы боюнча көнүгүүлөр | жөнөкөй Австралия ⭐️ #35 have lost",
      "Description": "Үйрөнүү Англис тилинин грамматикасы! Сүйлөмдөгү Сөздү өзгөртүү.\n\n\n\n0:04 1:22 2:34 \nI have not lost my shoes\naɪ hæv nɑt lɔst maɪ ʃuz\nМен бут жоготкон жок\n\n0:22 1:38 2:50 \nHe has not lost his shoes\nhi həz nɑt lɔst hɪz ʃuz\nАл бут жоготкон эмес\n\n0:36 1:52 3:04 \nHe has lost his shoes\nhi həz lɔst hɪz ʃuz\nАл бут жоготкон\n\n0:51 2:05 3:17 \nI have lost my shoes\naɪ hæv lɔst maɪ ʃuz\nМен бут жоготкон\n\n1:04 2:18 3:30 \nI have cleaned my shoes\naɪ hæv klind maɪ ʃuz\nМен бут кийим тазалап жатышат\n\n\n\nмугалимдер жана мектептер үчүн:\nБул көргөзмө Creative Commons лиссиэнсийэ усулуобуйатынан жарыяланат.\n  CC BY 3.0 https://creativecommons.org/licenses/by/3.0/ \nСиздин класстары колдонсо болот!\n\nБиз Google локалдаштыруу үчүн Котормо кызматын пайдаланышат. Эгер кээ бир ката болсо, бизге айтып койуу.\n"
    },
    {
      "Lang": "lb",
      "Title": "Englesch Grammatikübungen | Einfach Australien ⭐️ #35 have lost",
      "Description": "Léiert Englesch Grammatik! Ännert e Wuert an engem Saz.\n\n\n\n0:04 1:22 2:34 \nI have not lost my shoes\naɪ hæv nɑt lɔst maɪ ʃuz\nEch hu meng Schong net verluer\n\n0:22 1:38 2:50 \nHe has not lost his shoes\nhi həz nɑt lɔst hɪz ʃuz\nHien huet seng Schong net verluer\n\n0:36 1:52 3:04 \nHe has lost his shoes\nhi həz lɔst hɪz ʃuz\nHien huet seng Schong verluer\n\n0:51 2:05 3:17 \nI have lost my shoes\naɪ hæv lɔst maɪ ʃuz\nEch hu meng Schong verluer\n\n1:04 2:18 3:30 \nI have cleaned my shoes\naɪ hæv klind maɪ ʃuz\nEch hunn meng Schong gebotzt\n\n\n\nUn de Schoulmeeschteren an d'Schoulen:\nDëse Video ass ënner der Creative Commons Lizenz verëffentlecht.\n  CC BY 3.0 https://creativecommons.org/licenses/by/3.0/ \nFillt gratis dësen Video zu Ären Klassen ze benotzen!\n\nMir benotzen den Google Translate Service fir d'Lokalisatioun. Wann Dir e puer Feeler fannt, da sot eis w.e.g.\n"
    },
    {
      "Lang": "lo",
      "Title": "ບົດເຝິກຫັດໄວຍາກອນພາສາອັງກິດ | ງ່າຍດາຍ ອົດສະຕາລີ ⭐️ #35 have lost",
      "Description": "ຮຽນຮູ້ຫລັກໄວຍາກອນພາສາອັງກິດ! ປ່ຽນ ຄຳ ສັບໃນປະໂຫຍກ.\n\n\n\n0:04 1:22 2:34 \nI have not lost my shoes\naɪ hæv nɑt lɔst maɪ ʃuz\nຂ້ອຍບໍ່ໄດ້ສູນເສຍເກີບ\n\n0:22 1:38 2:50 \nHe has not lost his shoes\nhi həz nɑt lɔst hɪz ʃuz\nລາວບໍ່ໄດ້ສູນເສຍເກີບຂອງລາວ\n\n0:36 1:52 3:04 \nHe has lost his shoes\nhi həz lɔst hɪz ʃuz\nລາວໄດ້ສູນເສຍເກີບຂອງລາວ\n\n0:51 2:05 3:17 \nI have lost my shoes\naɪ hæv lɔst maɪ ʃuz\nຂ້ອຍໄດ້ສູນເສຍເກີບຂອງຂ້ອຍ\n\n1:04 2:18 3:30 \nI have cleaned my shoes\naɪ hæv klind maɪ ʃuz\nຂ້ອຍໄດ້ລ້າງເກີບຂອງຂ້ອຍແລ້ວ\n\n\n\nເຖິງຄູອາຈານແລະໂຮງຮຽນ:\nວິດີໂອນີ້ລົງພາຍໃຕ້ໃບອະນຸຍາດສ້າງສັນ.\n  CC BY 3.0 https://creativecommons.org/licenses/by/3.0/ \nຮູ້ສຶກວ່າບໍ່ເສຍຄ່າທີ່ຈະໃຊ້ວິດີໂອນີ້ໃນຫ້ອງຮຽນຂອງທ່ານ!\n\nພວກເຮົາໃຊ້ບໍລິການ Google Translate ສຳ ລັບການແປພາສາທ້ອງຖິ່ນ. ຖ້າທ່ານພົບຂໍ້ຜິດພາດບາງຢ່າງ, ກະລຸນາແຈ້ງພວກເຮົາ.\n"
    },
    {
      "Lang": "lt",
      "Title": "Anglų kalbos gramatikos pratimai | Paprasta Australija ⭐️ #35 have lost",
      "Description": "Išmokite anglų kalbos gramatiką! Pakeiskite žodį sakinyje.\n\n\n\n0:04 1:22 2:34 \nI have not lost my shoes\naɪ hæv nɑt lɔst maɪ ʃuz\nAš nepraradau batų\n\n0:22 1:38 2:50 \nHe has not lost his shoes\nhi həz nɑt lɔst hɪz ʃuz\nJis neprarado batų\n\n0:36 1:52 3:04 \nHe has lost his shoes\nhi həz lɔst hɪz ʃuz\nJis pametė batus\n\n0:51 2:05 3:17 \nI have lost my shoes\naɪ hæv lɔst maɪ ʃuz\nAš pamečiau batus\n\n1:04 2:18 3:30 \nI have cleaned my shoes\naɪ hæv klind maɪ ʃuz\nAš nusiprausiau batus\n\n\n\nMokytojams ir mokykloms:\nŠis vaizdo įrašas paskelbtas naudojant „Creative Commons“ licenciją.\n  CC BY 3.0 https://creativecommons.org/licenses/by/3.0/ \nNesivaržykite naudotis šiuo vaizdo įrašu savo klasėse!\n\nLokalizavimui naudojame „Google Translate“ paslaugą. Jei radote klaidų, praneškite mums.\n"
    },
    {
      "Lang": "lv",
      "Title": "Angļu valodas gramatikas vingrinājumi | Vienkārši Austrālija ⭐️ #35 have lost",
      "Description": "Mācieties angļu valodas gramatiku! Mainiet vārdu teikumā.\n\n\n\n0:04 1:22 2:34 \nI have not lost my shoes\naɪ hæv nɑt lɔst maɪ ʃuz\nEs neesmu pazaudējis kurpes\n\n0:22 1:38 2:50 \nHe has not lost his shoes\nhi həz nɑt lɔst hɪz ʃuz\nViņš nav zaudējis kurpes\n\n0:36 1:52 3:04 \nHe has lost his shoes\nhi həz lɔst hɪz ʃuz\nViņš ir pazaudējis kurpes\n\n0:51 2:05 3:17 \nI have lost my shoes\naɪ hæv lɔst maɪ ʃuz\nEsmu pazaudējusi kurpes\n\n1:04 2:18 3:30 \nI have cleaned my shoes\naɪ hæv klind maɪ ʃuz\nEs esmu notīrījis savas kurpes\n\n\n\nSkolotājiem un skolām:\nŠis video ir publicēts saskaņā ar Creative Commons licenci.\n  CC BY 3.0 https://creativecommons.org/licenses/by/3.0/ \nJūtieties brīvi izmantot šo video savās nodarbībās!\n\nLokalizācijai mēs izmantojam Google Translate pakalpojumu. Ja atrodat dažas kļūdas, lūdzu, paziņojiet mums.\n"
    },
    {
      "Lang": "mg",
      "Title": "Fanatanjahantena anglisy | Simple Aostralia ⭐️ #35 have lost",
      "Description": "Ianaro ny fitsipi-pitenenana anglisy! Manova teny amin'ny fehezanteny iray.\n\n\n\n0:04 1:22 2:34 \nI have not lost my shoes\naɪ hæv nɑt lɔst maɪ ʃuz\nTsy mbola very ny kiraroko\n\n0:22 1:38 2:50 \nHe has not lost his shoes\nhi həz nɑt lɔst hɪz ʃuz\nTsy namoy ny kirarony izy\n\n0:36 1:52 3:04 \nHe has lost his shoes\nhi həz lɔst hɪz ʃuz\nVery ny kirarony\n\n0:51 2:05 3:17 \nI have lost my shoes\naɪ hæv lɔst maɪ ʃuz\nVery ny kiraroko\n\n1:04 2:18 3:30 \nI have cleaned my shoes\naɪ hæv klind maɪ ʃuz\nEfa nodioviko ny kiraroko\n\n\n\nHo an'ireo mpampianatra sy sekoly:\nIty horonantsary ity dia navoaka eo ambanin'ny lisansa Creative Commons.\n  CC BY 3.0 https://creativecommons.org/licenses/by/3.0/ \nAza misalasala mampiasa an'io horonantsary io amin'ny kilasinao!\n\nMampiasa ny serivisy Google Translate izahay amin'ny fananganana toerana. Raha mahita hadisoana vitsivitsy ianao dia mba ampahafantaro anay.\n"
    },
    {
      "Lang": "mi",
      "Title": "Mahi whakangungu Ingarihi | He ngawari Ahitereiria ⭐️ #35 have lost",
      "Description": "Akohia te paanui Ingarihi! Hurihia he kupu ki tetahi rerenga rerenga.\n\n\n\n0:04 1:22 2:34 \nI have not lost my shoes\naɪ hæv nɑt lɔst maɪ ʃuz\nKaore au i te ngaro oku hu\n\n0:22 1:38 2:50 \nHe has not lost his shoes\nhi həz nɑt lɔst hɪz ʃuz\nKaore ano a ia e ngaro ona hu\n\n0:36 1:52 3:04 \nHe has lost his shoes\nhi həz lɔst hɪz ʃuz\nKua ngaro ona hu\n\n0:51 2:05 3:17 \nI have lost my shoes\naɪ hæv lɔst maɪ ʃuz\nKua heku oku taera\n\n1:04 2:18 3:30 \nI have cleaned my shoes\naɪ hæv klind maɪ ʃuz\nKua horoia oku hu\n\n\n\nKi nga kaiako me nga kura:\nKei te whakaputaina tenei ataata i raro i te Raihana Hoahoatanga.\n  CC BY 3.0 https://creativecommons.org/licenses/by/3.0/ \nKia kore e pai ki te whakamahi i tenei ataata i roto i o akomanga!\n\nKa whakamahia e matou he whakamaoritanga a Google mo te whakangao. Mena ka kitea e koe etahi he, tena koa kia mohio.\n"
    },
    {
      "Lang": "mk",
      "Title": "Вежби за граматика на англиски јазик | Едноставно Австралија ⭐️ #35 have lost",
      "Description": "Дознајте англиска граматика! Променете збор во реченица.\n\n\n\n0:04 1:22 2:34 \nI have not lost my shoes\naɪ hæv nɑt lɔst maɪ ʃuz\nНе ги изгубив чевлите\n\n0:22 1:38 2:50 \nHe has not lost his shoes\nhi həz nɑt lɔst hɪz ʃuz\nНе ги изгуби чевлите\n\n0:36 1:52 3:04 \nHe has lost his shoes\nhi həz lɔst hɪz ʃuz\nГи изгубил чевлите\n\n0:51 2:05 3:17 \nI have lost my shoes\naɪ hæv lɔst maɪ ʃuz\nГи изгубив чевлите\n\n1:04 2:18 3:30 \nI have cleaned my shoes\naɪ hæv klind maɪ ʃuz\nГи исчистив чевлите\n\n\n\nДо наставниците и училиштата:\nОва видео е објавено под лиценца Криејтив комонс.\n  CC BY 3.0 https://creativecommons.org/licenses/by/3.0/ \nСлободно можете да го користите ова видео во вашите часови!\n\nНие користиме услуга Google Translate за локализација. Ако најдете некои грешки, ве молиме кажете ни.\n"
    },
    {
      "Lang": "ml",
      "Title": "ഇംഗ്ലീഷ് വ്യാകരണ വ്യായാമങ്ങൾ | ലളിതം ഓസ്‌ട്രേലിയ ⭐️ #35 have lost",
      "Description": "ഇംഗ്ലീഷ് വ്യാകരണം പഠിക്കൂ! ഒരു വാക്യത്തിൽ ഒരു വാക്ക് മാറ്റുക.\n\n\n\n0:04 1:22 2:34 \nI have not lost my shoes\naɪ hæv nɑt lɔst maɪ ʃuz\nഎനിക്ക് എന്റെ ഷൂസ് നഷ്ടമായിട്ടില്ല\n\n0:22 1:38 2:50 \nHe has not lost his shoes\nhi həz nɑt lɔst hɪz ʃuz\nഅയാൾക്ക് ചെരുപ്പ് നഷ്ടപ്പെട്ടിട്ടില്ല\n\n0:36 1:52 3:04 \nHe has lost his shoes\nhi həz lɔst hɪz ʃuz\nചെരുപ്പ് നഷ്ടപ്പെട്ടു\n\n0:51 2:05 3:17 \nI have lost my shoes\naɪ hæv lɔst maɪ ʃuz\nഎനിക്ക് എന്റെ ഷൂസ് നഷ്ടപ്പെട്ടു\n\n1:04 2:18 3:30 \nI have cleaned my shoes\naɪ hæv klind maɪ ʃuz\nഞാൻ എന്റെ ഷൂസ് വൃത്തിയാക്കി\n\n\n\nഅധ്യാപകർക്കും സ്കൂളുകൾക്കും:\nക്രിയേറ്റീവ് കോമൺസ് ലൈസൻസിന് കീഴിൽ ഈ വീഡിയോ പ്രസിദ്ധീകരിച്ചു.\n  CC BY 3.0 https://creativecommons.org/licenses/by/3.0/ \nനിങ്ങളുടെ ക്ലാസുകളിൽ ഈ വീഡിയോ ഉപയോഗിക്കാൻ മടിക്കേണ്ടതില്ല!\n\nപ്രാദേശികവൽക്കരണത്തിനായി ഞങ്ങൾ Google വിവർത്തന സേവനം ഉപയോഗിക്കുന്നു. നിങ്ങൾ ചില തെറ്റുകൾ കണ്ടെത്തുകയാണെങ്കിൽ, ഞങ്ങളെ അറിയിക്കുക.\n"
    },
    {
      "Lang": "mn",
      "Title": "Англи хэлний дүрмийн дасгал | Энгийн Австрали ⭐️ #35 have lost",
      "Description": "Англи хэлний дүрмийн мэдлэгийг сур! Үгийг өгүүлбэр болгон өөрчил.\n\n\n\n0:04 1:22 2:34 \nI have not lost my shoes\naɪ hæv nɑt lɔst maɪ ʃuz\nБи гутлаа алдаагүй байна\n\n0:22 1:38 2:50 \nHe has not lost his shoes\nhi həz nɑt lɔst hɪz ʃuz\nТэр гутлаа алдаагүй байгаа\n\n0:36 1:52 3:04 \nHe has lost his shoes\nhi həz lɔst hɪz ʃuz\nТэр гутлаа алдчихсан\n\n0:51 2:05 3:17 \nI have lost my shoes\naɪ hæv lɔst maɪ ʃuz\nБи гутлаа алдчихлаа\n\n1:04 2:18 3:30 \nI have cleaned my shoes\naɪ hæv klind maɪ ʃuz\nБи гутлаа цэвэрлэв\n\n\n\nБагш, сургуулиудад:\nЭнэ видео нь Creative Commons License лиценз дээр нийтлэгдсэн.\n  CC BY 3.0 https://creativecommons.org/licenses/by/3.0/ \nЭнэ видеог өөрийн ангиудад ашиглах боломжтой шүү!\n\nБид Google Translate үйлчилгээг нутагшуулах зорилгоор ашигладаг. Хэрэв та алдаа олвол бидэнд мэдэгдээрэй.\n"
    },
    {
      "Lang": "mr",
      "Title": "इंग्रजी व्याकरण व्यायाम | सोपे ऑस्ट्रेलिया ⭐️ #35 have lost",
      "Description": "इंग्रजी व्याकरण जाणून घ्या! एका वाक्यात शब्द बदला.\n\n\n\n0:04 1:22 2:34 \nI have not lost my shoes\naɪ hæv nɑt lɔst maɪ ʃuz\nमी माझे बूट गमावले नाहीत\n\n0:22 1:38 2:50 \nHe has not lost his shoes\nhi həz nɑt lɔst hɪz ʃuz\nत्याने आपले बूट गमावले नाहीत\n\n0:36 1:52 3:04 \nHe has lost his shoes\nhi həz lɔst hɪz ʃuz\nत्याने आपले बूट गमावले आहेत\n\n0:51 2:05 3:17 \nI have lost my shoes\naɪ hæv lɔst maɪ ʃuz\nमी माझे चपले गमावले आहेत\n\n1:04 2:18 3:30 \nI have cleaned my shoes\naɪ hæv klind maɪ ʃuz\nमी माझे शूज साफ केले आहेत\n\n\n\nशिक्षक आणि शाळा यांना:\nहा व्हिडिओ क्रिएटिव्ह कॉमन्स परवान्या अंतर्गत प्रकाशित झाला आहे.\n  CC BY 3.0 https://creativecommons.org/licenses/by/3.0/ \nआपल्या वर्गांमध्ये हा व्हिडिओ वापरण्यास मोकळ्या मनाने!\n\nआम्ही स्थानिकीकरणासाठी Google भाषांतर सेवा वापरतो. आपल्याला काही चुका आढळल्यास कृपया आम्हाला कळवा.\n"
    },
    {
      "Lang": "ms",
      "Title": "Latihan tatabahasa Bahasa Inggeris | Mudah Australia ⭐️ #35 have lost",
      "Description": "Belajar bahasa Inggeris! Tukar perkataan dalam ayat.\n\n\n\n0:04 1:22 2:34 \nI have not lost my shoes\naɪ hæv nɑt lɔst maɪ ʃuz\nSaya tidak kehilangan kasut saya\n\n0:22 1:38 2:50 \nHe has not lost his shoes\nhi həz nɑt lɔst hɪz ʃuz\nDia tidak kehilangan kasutnya\n\n0:36 1:52 3:04 \nHe has lost his shoes\nhi həz lɔst hɪz ʃuz\nDia telah kehilangan kasutnya\n\n0:51 2:05 3:17 \nI have lost my shoes\naɪ hæv lɔst maɪ ʃuz\nSaya telah kehilangan kasut saya\n\n1:04 2:18 3:30 \nI have cleaned my shoes\naɪ hæv klind maɪ ʃuz\nSaya telah membersihkan kasut saya\n\n\n\nKepada guru dan sekolah:\nVideo ini diterbitkan di bawah Lesen Creative Commons.\n  CC BY 3.0 https://creativecommons.org/licenses/by/3.0/ \nJangan ragu untuk menggunakan video ini dalam kelas anda!\n\nKami menggunakan perkhidmatan Terjemahan Google untuk penyetempatan. Jika anda mendapati beberapa kesilapan, sila beritahu kami.\n"
    },
    {
      "Lang": "mt",
      "Title": "Eżerċizzji ta 'grammatika Ingliża | Sempliċi Awstralja ⭐️ #35 have lost",
      "Description": "Tgħallem il-grammatika Ingliża! Ibdel kelma f’sentenza.\n\n\n\n0:04 1:22 2:34 \nI have not lost my shoes\naɪ hæv nɑt lɔst maɪ ʃuz\nMa tilifx iż-żraben tiegħi\n\n0:22 1:38 2:50 \nHe has not lost his shoes\nhi həz nɑt lɔst hɪz ʃuz\nHuwa ma tilefx iż-żraben tiegħu\n\n0:36 1:52 3:04 \nHe has lost his shoes\nhi həz lɔst hɪz ʃuz\nHuwa tilef iż-żraben tiegħu\n\n0:51 2:05 3:17 \nI have lost my shoes\naɪ hæv lɔst maɪ ʃuz\nTlift iż-żraben tiegħi\n\n1:04 2:18 3:30 \nI have cleaned my shoes\naɪ hæv klind maɪ ʃuz\nImnaddaf iż-żraben tiegħi\n\n\n\nGħalliema u skejjel:\nDan il-video huwa ppublikat taħt il-Liċenzja Creative Commons.\n  CC BY 3.0 https://creativecommons.org/licenses/by/3.0/ \nĦossok liberu li tuża dan il-video fil-klassijiet tiegħek!\n\nAħna nużaw servizz Google Translate għall-lokalizzazzjoni. Jekk issib xi żbalji, jekk jogħġbok għarrafna.\n"
    },
    {
      "Lang": "my",
      "Title": "အင်္ဂလိပ်သဒ္ဒါလေ့ကျင့်ခန်း | ရိုးရှင်းသော သြစတြေးလျ ⭐️ #35 have lost",
      "Description": "အင်္ဂလိပ်သဒ္ဒါကိုလေ့လာပါ။ ဝါကျတွင်စကားလုံးတစ်လုံးပြောင်းပါ။\n\n\n\n0:04 1:22 2:34 \nI have not lost my shoes\naɪ hæv nɑt lɔst maɪ ʃuz\nငါ့ဖိနပ်မပျောက်ဘူး\n\n0:22 1:38 2:50 \nHe has not lost his shoes\nhi həz nɑt lɔst hɪz ʃuz\nသူကသူ့ဖိနပ်ကိုမဆုံးရှုံးခဲ့ပါဘူး\n\n0:36 1:52 3:04 \nHe has lost his shoes\nhi həz lɔst hɪz ʃuz\nသူကသူ့ဖိနပ်ကိုဆုံးရှုံးခဲ့ရသည်\n\n0:51 2:05 3:17 \nI have lost my shoes\naɪ hæv lɔst maɪ ʃuz\nငါ့ဖိနပ်ပျောက်သွားတယ်\n\n1:04 2:18 3:30 \nI have cleaned my shoes\naɪ hæv klind maɪ ʃuz\nငါ့ဖိနပ်ကိုသန့်ရှင်းတယ်\n\n\n\nဆရာများနှင့်ကျောင်းများသို့\nဒီဗီဒီယိုကို Creative Commons လိုင်စင်အောက်မှာထုတ်ဝေထားတယ်။\n  CC BY 3.0 https://creativecommons.org/licenses/by/3.0/ \nဤဗီဒီယိုကိုသင်၏အတန်းများ၌အခမဲ့အသုံးပြုပါ။\n\nကျွန်ုပ်တို့သည်ဒေသခံဘာသာပြန်အတွက် Google Translate ဝန်ဆောင်မှုကိုအသုံးပြုသည်။ သင်အမှားအယွင်းများအချို့ရှိပါကကျွန်ုပ်တို့အားအသိပေးပါ။\n"
    },
    {
      "Lang": "ne",
      "Title": "अंग्रेजी व्याकरण व्यायाम | सरल अष्ट्रेलिया ⭐️ #35 have lost",
      "Description": "अंग्रेजी व्याकरण सिक्नुहोस्! एक वाक्य मा एक शब्द बदल्नुहोस्।\n\n\n\n0:04 1:22 2:34 \nI have not lost my shoes\naɪ hæv nɑt lɔst maɪ ʃuz\nमैले मेरो जुत्ता हराएको छैन\n\n0:22 1:38 2:50 \nHe has not lost his shoes\nhi həz nɑt lɔst hɪz ʃuz\nउसले आफ्नो जुत्ता हराएको छैन\n\n0:36 1:52 3:04 \nHe has lost his shoes\nhi həz lɔst hɪz ʃuz\nउसले आफ्नो जुत्ता हरायो\n\n0:51 2:05 3:17 \nI have lost my shoes\naɪ hæv lɔst maɪ ʃuz\nमैले मेरो जुत्ता हराए\n\n1:04 2:18 3:30 \nI have cleaned my shoes\naɪ hæv klind maɪ ʃuz\nमैले मेरो जुत्ता सफा गरें\n\n\n\nशिक्षक र विद्यालयहरुलाई:\nयो भिडियो क्रिएटिभ कमन्स लाइसेन्स अन्तर्गत प्रकाशित गरिएको छ।\n  CC BY 3.0 https://creativecommons.org/licenses/by/3.0/ \nतपाईंको कक्षामा यो भिडियो प्रयोग गर्न स्वतन्त्र महसुस गर्नुहोस्!\n\nहामी स्थानीयकरणको लागि गुगल अनुवाद सेवा प्रयोग गर्दछौं। यदि तपाईंले केहि गल्तीहरू फेला पार्नुभयो भने, कृपया हामीलाई खबर गर्नुहोस्।\n"
    },
    {
      "Lang": "nl",
      "Title": "Engelse grammatica-oefeningen | Gemakkelijk Australië ⭐️ #35 have lost",
      "Description": "Leer Engelse grammatica! Verander een woord in een zin.\n\n\n\n0:04 1:22 2:34 \nI have not lost my shoes\naɪ hæv nɑt lɔst maɪ ʃuz\nIk ben mijn schoenen niet kwijt\n\n0:22 1:38 2:50 \nHe has not lost his shoes\nhi həz nɑt lɔst hɪz ʃuz\nHij heeft zijn schoenen niet verloren\n\n0:36 1:52 3:04 \nHe has lost his shoes\nhi həz lɔst hɪz ʃuz\nHij is zijn schoenen kwijt\n\n0:51 2:05 3:17 \nI have lost my shoes\naɪ hæv lɔst maɪ ʃuz\nIk ben mijn schoenen kwijt\n\n1:04 2:18 3:30 \nI have cleaned my shoes\naɪ hæv klind maɪ ʃuz\nIk heb mijn schoenen schoongemaakt\n\n\n\nAan leraren en scholen:\nDeze video is gepubliceerd onder Creative Commons License.\n  CC BY 3.0 https://creativecommons.org/licenses/by/3.0/ \nVoel je vrij om deze video in je lessen te gebruiken!\n\nWe gebruiken de Google Translate-service voor lokalisatie. Laat het ons weten als u fouten ontdekt.\n"
    },
    {
      "Lang": "no",
      "Title": "Engelsk grammatikkøvelser | Enkel Australia ⭐️ #35 have lost",
      "Description": "Lær engelsk grammatikk! Endre et ord i en setning.\n\n\n\n0:04 1:22 2:34 \nI have not lost my shoes\naɪ hæv nɑt lɔst maɪ ʃuz\nJeg har ikke mistet skoene mine\n\n0:22 1:38 2:50 \nHe has not lost his shoes\nhi həz nɑt lɔst hɪz ʃuz\nHan har ikke mistet skoene\n\n0:36 1:52 3:04 \nHe has lost his shoes\nhi həz lɔst hɪz ʃuz\nHan har mistet skoene\n\n0:51 2:05 3:17 \nI have lost my shoes\naɪ hæv lɔst maɪ ʃuz\nJeg har mistet skoene mine\n\n1:04 2:18 3:30 \nI have cleaned my shoes\naɪ hæv klind maɪ ʃuz\nJeg har renset skoene mine\n\n\n\nTil lærere og skoler:\nDenne videoen er publisert under Creative Commons License.\n  CC BY 3.0 https://creativecommons.org/licenses/by/3.0/ \nBruk gjerne denne videoen i klassene dine!\n\nVi bruker Google Translate-tjenesten for lokalisering. Gi beskjed hvis du finner noen feil.\n"
    },
    {
      "Lang": "pa",
      "Title": "ਅੰਗਰੇਜ਼ੀ ਵਿਆਕਰਣ ਅਭਿਆਸ | ਆਸਾਨ ਆਸਟਰੇਲੀਆ ⭐️ #35 have lost",
      "Description": "ਅੰਗਰੇਜ਼ੀ ਵਿਆਕਰਣ ਸਿੱਖੋ! ਇੱਕ ਵਾਕ ਵਿੱਚ ਇੱਕ ਸ਼ਬਦ ਬਦਲੋ.\n\n\n\n0:04 1:22 2:34 \nI have not lost my shoes\naɪ hæv nɑt lɔst maɪ ʃuz\nਮੈਂ ਆਪਣੀ ਜੁੱਤੀ ਨਹੀਂ ਗਵਾਇਆ ਹੈ\n\n0:22 1:38 2:50 \nHe has not lost his shoes\nhi həz nɑt lɔst hɪz ʃuz\nਉਸਨੇ ਆਪਣੀ ਜੁੱਤੀ ਨਹੀਂ ਗੁਆਈ ਹੈ\n\n0:36 1:52 3:04 \nHe has lost his shoes\nhi həz lɔst hɪz ʃuz\nਉਸਨੇ ਆਪਣੀਆਂ ਜੁੱਤੀਆਂ ਗਵਾ ਲਈਆਂ ਹਨ\n\n0:51 2:05 3:17 \nI have lost my shoes\naɪ hæv lɔst maɪ ʃuz\nਮੈਂ ਆਪਣੀਆਂ ਜੁੱਤੀਆਂ ਗਵਾ ਲਈਆਂ ਹਨ\n\n1:04 2:18 3:30 \nI have cleaned my shoes\naɪ hæv klind maɪ ʃuz\nਮੈਂ ਆਪਣੀਆਂ ਜੁੱਤੀਆਂ ਸਾਫ਼ ਕਰ ਲਈਆਂ ਹਨ\n\n\n\nਅਧਿਆਪਕਾਂ ਅਤੇ ਸਕੂਲਾਂ ਨੂੰ:\nਇਹ ਵੀਡੀਓ ਕਰੀਏਟਿਵ ਕਾਮਨਜ਼ ਲਾਇਸੈਂਸ ਅਧੀਨ ਪ੍ਰਕਾਸ਼ਤ ਕੀਤਾ ਗਿਆ ਹੈ.\n  CC BY 3.0 https://creativecommons.org/licenses/by/3.0/ \nਇਸ ਕਲਾਸ ਨੂੰ ਆਪਣੀਆਂ ਕਲਾਸਾਂ ਵਿਚ ਵਰਤਣ ਲਈ ਮੁਫ਼ਤ ਮਹਿਸੂਸ ਕਰੋ!\n\nਅਸੀਂ ਸਥਾਨਕਕਰਨ ਲਈ ਗੂਗਲ ਅਨੁਵਾਦ ਸੇਵਾ ਦੀ ਵਰਤੋਂ ਕਰਦੇ ਹਾਂ. ਜੇ ਤੁਹਾਨੂੰ ਕੁਝ ਗਲਤੀਆਂ ਮਿਲਦੀਆਂ ਹਨ, ਤਾਂ ਕਿਰਪਾ ਕਰਕੇ ਸਾਨੂੰ ਦੱਸੋ.\n"
    },
    {
      "Lang": "pl",
      "Title": "Gramatyka angielska | Prosty Australia ⭐️ #35 have lost",
      "Description": "Ucz się gramatyki angielskiej! Zmień słowo w zdaniu.\n\n\n\n0:04 1:22 2:34 \nI have not lost my shoes\naɪ hæv nɑt lɔst maɪ ʃuz\nNie zgubiłem butów\n\n0:22 1:38 2:50 \nHe has not lost his shoes\nhi həz nɑt lɔst hɪz ʃuz\nNie zgubił butów\n\n0:36 1:52 3:04 \nHe has lost his shoes\nhi həz lɔst hɪz ʃuz\nZgubił buty\n\n0:51 2:05 3:17 \nI have lost my shoes\naɪ hæv lɔst maɪ ʃuz\nZgubiłem buty\n\n1:04 2:18 3:30 \nI have cleaned my shoes\naɪ hæv klind maɪ ʃuz\nWyczyściłem buty\n\n\n\nDo nauczycieli i szkół:\nTen film jest opublikowany na licencji Creative Commons.\n  CC BY 3.0 https://creativecommons.org/licenses/by/3.0/ \nZachęcamy do korzystania z tego filmu na zajęciach!\n\nDo lokalizacji używamy usługi Tłumacz Google. Jeśli znajdziesz jakieś błędy, daj nam znać.\n"
    },
    {
      "Lang": "ps",
      "Title": "انګلیسي ګرامر تمرینونه | ساده آسټرالیا ⭐️ #35 have lost",
      "Description": "انګلیسي ګرامر زده کړئ! یوه جمله په یوه جمله بدله کړئ.\n\n\n\n0:04 1:22 2:34 \nI have not lost my shoes\naɪ hæv nɑt lɔst maɪ ʃuz\nما خپلې بوټونه نه دي ورک کړي\n\n0:22 1:38 2:50 \nHe has not lost his shoes\nhi həz nɑt lɔst hɪz ʃuz\nهغه خپل بوټان له لاسه نه دي ورکړي\n\n0:36 1:52 3:04 \nHe has lost his shoes\nhi həz lɔst hɪz ʃuz\nهغه خپلې بوټان ورک کړي\n\n0:51 2:05 3:17 \nI have lost my shoes\naɪ hæv lɔst maɪ ʃuz\nما خپلې بوټونه ورک کړي\n\n1:04 2:18 3:30 \nI have cleaned my shoes\naɪ hæv klind maɪ ʃuz\nما خپلې بوټونه پاک کړي دي\n\n\n\nښوونکو او ښوونځیو ته:\nدا ویډیو د کریټیو کامنز لایسنس لاندې خپره شوې ده.\n  CC BY 3.0 https://creativecommons.org/licenses/by/3.0/ \nپه خپلو ټولګیو کې د دې ویډیو کارولو لپاره وړیا احساس وکړئ!\n\nموږ د ځایی کولو لپاره د ګوګل ژباړن خدمت کاروو. که تاسو ځینې غلطۍ ومومئ ، مهرباني وکړئ موږ ته خبر راکړئ.\n"
    },
    {
      "Lang": "pt",
      "Title": "Exercícios de gramática inglesa | Simples Austrália ⭐️ #35 have lost",
      "Description": "Aprenda gramática inglesa! Mude uma palavra em uma frase.\n\n\n\n0:04 1:22 2:34 \nI have not lost my shoes\naɪ hæv nɑt lɔst maɪ ʃuz\nNão perdi meus sapatos\n\n0:22 1:38 2:50 \nHe has not lost his shoes\nhi həz nɑt lɔst hɪz ʃuz\nEle não perdeu os sapatos\n\n0:36 1:52 3:04 \nHe has lost his shoes\nhi həz lɔst hɪz ʃuz\nEle perdeu os sapatos\n\n0:51 2:05 3:17 \nI have lost my shoes\naɪ hæv lɔst maɪ ʃuz\nEu perdi meus sapatos\n\n1:04 2:18 3:30 \nI have cleaned my shoes\naɪ hæv klind maɪ ʃuz\nEu limpei meus sapatos\n\n\n\nPara professores e escolas:\nEste vídeo é publicado sob licença Creative Commons.\n  CC BY 3.0 https://creativecommons.org/licenses/by/3.0/ \nSinta-se livre para usar este vídeo em suas aulas!\n\nUsamos o serviço Google Translate para localização. Se você encontrar algum erro, informe-nos.\n"
    },
    {
      "Lang": "ro",
      "Title": "Exerciții de gramatică engleză | Simplu Australia ⭐️ #35 have lost",
      "Description": "Învață gramatica engleză! Schimbă un cuvânt într-o propoziție.\n\n\n\n0:04 1:22 2:34 \nI have not lost my shoes\naɪ hæv nɑt lɔst maɪ ʃuz\nNu mi-am pierdut pantofii\n\n0:22 1:38 2:50 \nHe has not lost his shoes\nhi həz nɑt lɔst hɪz ʃuz\nNu și-a pierdut pantofii\n\n0:36 1:52 3:04 \nHe has lost his shoes\nhi həz lɔst hɪz ʃuz\nȘi-a pierdut pantofii\n\n0:51 2:05 3:17 \nI have lost my shoes\naɪ hæv lɔst maɪ ʃuz\nMi-am pierdut pantofii\n\n1:04 2:18 3:30 \nI have cleaned my shoes\naɪ hæv klind maɪ ʃuz\nMi-am curățat pantofii\n\n\n\nPentru profesori și școli:\nAcest videoclip este publicat sub licență Creative Commons.\n  CC BY 3.0 https://creativecommons.org/licenses/by/3.0/ \nSimte-te liber să folosești acest videoclip în orele tale!\n\nFolosim serviciul Google Translate pentru localizare. Dacă găsiți unele greșeli, vă rugăm să ne informați.\n"
    },
    {
      "Lang": "ru",
      "Title": "Упражнения по английской грамматике | просто Австралия ⭐️ #35 have lost",
      "Description": "Изучай английскую грамматику! Изменить слово в предложении.\n\n\n\n0:04 1:22 2:34 \nI have not lost my shoes\naɪ hæv nɑt lɔst maɪ ʃuz\nЯ не потерял свою обувь\n\n0:22 1:38 2:50 \nHe has not lost his shoes\nhi həz nɑt lɔst hɪz ʃuz\nОн не потерял свою обувь\n\n0:36 1:52 3:04 \nHe has lost his shoes\nhi həz lɔst hɪz ʃuz\nОн потерял свою обувь\n\n0:51 2:05 3:17 \nI have lost my shoes\naɪ hæv lɔst maɪ ʃuz\nЯ потерял свою обувь\n\n1:04 2:18 3:30 \nI have cleaned my shoes\naɪ hæv klind maɪ ʃuz\nЯ почистил обувь\n\n\n\nУчителям и школам:\nЭто видео опубликовано под лицензией Creative Commons.\n  CC BY 3.0 https://creativecommons.org/licenses/by/3.0/ \nНе стесняйтесь использовать это видео в своих классах!\n\nМы используем сервис Google Translate для локализации. Если вы обнаружите ошибки, сообщите нам.\n"
    },
    {
      "Lang": "sd",
      "Title": "سنڌي گرامر مشق | سادو آسٽريليا ⭐️ #35 have lost",
      "Description": "انگريزي گرامر سکو! ھڪ لفظ ۾ ھڪڙي تبديلي آڻيو.\n\n\n\n0:04 1:22 2:34 \nI have not lost my shoes\naɪ hæv nɑt lɔst maɪ ʃuz\nمون کي منهنجو بوٽ نه وڃايو آهي\n\n0:22 1:38 2:50 \nHe has not lost his shoes\nhi həz nɑt lɔst hɪz ʃuz\nهن پنهنجي بوٽن کي وڃائي ڇڏيو آهي\n\n0:36 1:52 3:04 \nHe has lost his shoes\nhi həz lɔst hɪz ʃuz\nهن پنهنجي بوٽن کي وڃائي ڇڏيو آهي\n\n0:51 2:05 3:17 \nI have lost my shoes\naɪ hæv lɔst maɪ ʃuz\nمون کي منهنجو بوٽ وڃائي ڇڏيو آهي\n\n1:04 2:18 3:30 \nI have cleaned my shoes\naɪ hæv klind maɪ ʃuz\nمون پنهنجي بوٽن کي صاف ڪيو آهي\n\n\n\nاستاد ۽ اسڪولن ڏانهن:\nهيء وڊيو تخليقي العام لائسنس هيٺ شايع ٿيل آهي.\n  CC BY 3.0 https://creativecommons.org/licenses/by/3.0/ \nپنهنجي وڊيوز ۾ هن وڊيو کي استعمال ڪرڻ لاء آزاد ٿيو!\n\nاسان مقامي ڪرڻ لاء گوگل ترجمو سروس استعمال ڪندا آهيون. جيڪڏهن توهان ڪجهه غلطي ڳوليندا آهيو، مهرباني ڪري اسان کي ڄاڻ ڏيو.\n"
    },
    {
      "Lang": "si",
      "Title": "ඉංග්‍රීසි ව්‍යාකරණ අභ්‍යාස | සරල ඕස්ට්‍රේලියාව ⭐️ #35 have lost",
      "Description": "ඉංග්‍රීසි ව්‍යාකරණ ඉගෙන ගන්න! වාක්‍යයක වචනයක් වෙනස් කරන්න.\n\n\n\n0:04 1:22 2:34 \nI have not lost my shoes\naɪ hæv nɑt lɔst maɪ ʃuz\nමට මගේ සපත්තු නැති වෙලා නැහැ\n\n0:22 1:38 2:50 \nHe has not lost his shoes\nhi həz nɑt lɔst hɪz ʃuz\nඔහුට සපත්තු නැති වී නැත\n\n0:36 1:52 3:04 \nHe has lost his shoes\nhi həz lɔst hɪz ʃuz\nඔහුට සපත්තු නැති වී ඇත\n\n0:51 2:05 3:17 \nI have lost my shoes\naɪ hæv lɔst maɪ ʃuz\nමට මගේ සපත්තු නැති වෙලා\n\n1:04 2:18 3:30 \nI have cleaned my shoes\naɪ hæv klind maɪ ʃuz\nමම මගේ සපත්තු පිරිසිදු කර ඇත්තෙමි\n\n\n\nගුරුවරුන්ට සහ පාසල්වලට:\nමෙම වීඩියෝව නිර්මාණාත්මක පොදු බලපත්‍රය යටතේ ප්‍රකාශයට පත් කෙරේ.\n  CC BY 3.0 https://creativecommons.org/licenses/by/3.0/ \nඔබේ පංතිවල මෙම වීඩියෝව භාවිතා කිරීමට නිදහස් වන්න!\n\nප්‍රාදේශීයකරණය සඳහා අපි ගූගල් පරිවර්තන සේවාව භාවිතා කරමු. ඔබ යම් වැරැද්දක් සොයා ගන්නේ නම්, කරුණාකර අපට දන්වන්න.\n"
    },
    {
      "Lang": "sk",
      "Title": "Anglické gramatické cvičenia | prostý Austrália ⭐️ #35 have lost",
      "Description": "Naučte sa anglickú gramatiku! Zmeniť slovo vo vete.\n\n\n\n0:04 1:22 2:34 \nI have not lost my shoes\naɪ hæv nɑt lɔst maɪ ʃuz\nStratil som topánky\n\n0:22 1:38 2:50 \nHe has not lost his shoes\nhi həz nɑt lɔst hɪz ʃuz\nNestratil svoje topánky\n\n0:36 1:52 3:04 \nHe has lost his shoes\nhi həz lɔst hɪz ʃuz\nStratil topánky\n\n0:51 2:05 3:17 \nI have lost my shoes\naɪ hæv lɔst maɪ ʃuz\nStratil som topánky\n\n1:04 2:18 3:30 \nI have cleaned my shoes\naɪ hæv klind maɪ ʃuz\nVyčistil som si topánky\n\n\n\nPre učiteľov a školy:\nToto video je publikované pod licenciou Creative Commons License.\n  CC BY 3.0 https://creativecommons.org/licenses/by/3.0/ \nNeváhajte použiť toto video vo svojich triedach!\n\nNa lokalizáciu používame službu Prekladač Google. Ak nájdete nejaké chyby, dajte nám vedieť.\n"
    },
    {
      "Lang": "sl",
      "Title": "Angleške slovnične vaje | Preprosto Avstralija ⭐️ #35 have lost",
      "Description": "Naučite se angleške slovnice! Spremenite besedo v stavku.\n\n\n\n0:04 1:22 2:34 \nI have not lost my shoes\naɪ hæv nɑt lɔst maɪ ʃuz\nNisem izgubil čevljev\n\n0:22 1:38 2:50 \nHe has not lost his shoes\nhi həz nɑt lɔst hɪz ʃuz\nNi izgubil čevljev\n\n0:36 1:52 3:04 \nHe has lost his shoes\nhi həz lɔst hɪz ʃuz\nIzgubil je čevlje\n\n0:51 2:05 3:17 \nI have lost my shoes\naɪ hæv lɔst maɪ ʃuz\nIzgubil sem čevlje\n\n1:04 2:18 3:30 \nI have cleaned my shoes\naɪ hæv klind maɪ ʃuz\nOčistila sem si čevlje\n\n\n\nUčiteljem in šolam:\nTa videoposnetek je objavljen pod licenco Creative Commons.\n  CC BY 3.0 https://creativecommons.org/licenses/by/3.0/ \nUporabite ta video v svojih razredih!\n\nZa lokalizacijo uporabljamo storitev Google Translate. Če najdete nekaj napak, nas obvestite.\n"
    },
    {
      "Lang": "sm",
      "Title": "Gagana o le gagana Gagana Peretania | Faigofie Ausetalia ⭐️ #35 have lost",
      "Description": "Aoao le gagana Gagana Peretania! Sui se upu i se fuaiupu.\n\n\n\n0:04 1:22 2:34 \nI have not lost my shoes\naɪ hæv nɑt lɔst maɪ ʃuz\nE leiloa oʻu seevae\n\n0:22 1:38 2:50 \nHe has not lost his shoes\nhi həz nɑt lɔst hɪz ʃuz\nE lei galo ona seevae\n\n0:36 1:52 3:04 \nHe has lost his shoes\nhi həz lɔst hɪz ʃuz\nUa leiloa ona seevae\n\n0:51 2:05 3:17 \nI have lost my shoes\naɪ hæv lɔst maɪ ʃuz\nUa leiloa oʻu seevae\n\n1:04 2:18 3:30 \nI have cleaned my shoes\naɪ hæv klind maɪ ʃuz\nUa ou faamama oʻu seevae\n\n\n\nI faiaoga ma aʻoga:\nO lenei vitio ua lomia i lalo o le Creative Commons License.\n  CC BY 3.0 https://creativecommons.org/licenses/by/3.0/ \nLagona le saoloto e faʻaaoga lenei vitio i au vasega!\n\nMatou te faʻaaoga le Google Translate auaunaga mo le faʻasalalauga. Afai e te maua ni mea sese, faʻamolemole ia e iloa.\n"
    },
    {
      "Lang": "sn",
      "Title": "Chirungu grammar Exercise | Nyore Ositireriya ⭐️ #35 have lost",
      "Description": "Dzidza mutauro wechirungu! Chinja izwi muchirevo.\n\n\n\n0:04 1:22 2:34 \nI have not lost my shoes\naɪ hæv nɑt lɔst maɪ ʃuz\nHandisati ndarasikirwa neshangu dzangu\n\n0:22 1:38 2:50 \nHe has not lost his shoes\nhi həz nɑt lɔst hɪz ʃuz\nHaana kurasikirwa neshangu dzake\n\n0:36 1:52 3:04 \nHe has lost his shoes\nhi həz lɔst hɪz ʃuz\nAkadhara bhutsu\n\n0:51 2:05 3:17 \nI have lost my shoes\naɪ hæv lɔst maɪ ʃuz\nNdapererwa shangu\n\n1:04 2:18 3:30 \nI have cleaned my shoes\naɪ hæv klind maɪ ʃuz\nNdashambidza shangu dzangu\n\n\n\nKune vadzidzisi uye zvikoro:\nVhidhiyo iyi inoburitswa pasi peCreative Commons License.\n  CC BY 3.0 https://creativecommons.org/licenses/by/3.0/ \nInzwa wakasununguka kushandisa iyi vhidhiyo mumakirasi ako!\n\nIsu tinoshandisa Google Dhumiro sevhisi. Kana iwe ukawana zvimwe zvikanganiso, tapota titiudze.\n"
    },
    {
      "Lang": "so",
      "Title": "Jimicsiga naxwaha Ingiriisiga | Fudud Australia ⭐️ #35 have lost",
      "Description": "Baro naxwaha Ingiriisiga! U beddelo eray weedh.\n\n\n\n0:04 1:22 2:34 \nI have not lost my shoes\naɪ hæv nɑt lɔst maɪ ʃuz\nKabaha iga lumi maayo\n\n0:22 1:38 2:50 \nHe has not lost his shoes\nhi həz nɑt lɔst hɪz ʃuz\nKabaha kama uusan lumin\n\n0:36 1:52 3:04 \nHe has lost his shoes\nhi həz lɔst hɪz ʃuz\nKabo wuu lumay\n\n0:51 2:05 3:17 \nI have lost my shoes\naɪ hæv lɔst maɪ ʃuz\nKabo iga lumay\n\n1:04 2:18 3:30 \nI have cleaned my shoes\naɪ hæv klind maɪ ʃuz\nKabaha waan nadiifiyey\n\n\n\nKu socota macallimiinta iyo iskuulada:\nMuuqaalkan fiidiyaha ah waxaa lagu daabacay hoosta hal-abuurnimada Hal-abuurka.\n  CC BY 3.0 https://creativecommons.org/licenses/by/3.0/ \nXor baad u leedahay inaad fiidiyaha u isticmaasho fasalladaaga!\n\nWaxaan u adeegsanaa adeega Google tarjumaha si aan ugu tarjunno. Hadaad khaladaad hesho, fadlan nala socodsii.\n"
    },
    {
      "Lang": "sq",
      "Title": "Ushtrime gramatikore angleze | i thjeshtë Australi ⭐️ #35 have lost",
      "Description": "Mësoni gramatikën angleze! Ndryshoni një fjalë në një fjali.\n\n\n\n0:04 1:22 2:34 \nI have not lost my shoes\naɪ hæv nɑt lɔst maɪ ʃuz\nNuk i kam humbur këpucët\n\n0:22 1:38 2:50 \nHe has not lost his shoes\nhi həz nɑt lɔst hɪz ʃuz\nAi nuk i ka humbur këpucët\n\n0:36 1:52 3:04 \nHe has lost his shoes\nhi həz lɔst hɪz ʃuz\nAi ka humbur këpucët\n\n0:51 2:05 3:17 \nI have lost my shoes\naɪ hæv lɔst maɪ ʃuz\nI kam humbur këpucët\n\n1:04 2:18 3:30 \nI have cleaned my shoes\naɪ hæv klind maɪ ʃuz\nI kam pastruar këpucët\n\n\n\nPër mësuesit dhe shkollat:\nKjo video është botuar nën licencën Creative Commons.\n  CC BY 3.0 https://creativecommons.org/licenses/by/3.0/ \nMos ngurroni të përdorni këtë video në klasat tuaja!\n\nNe përdorim shërbimin Google Translate për lokalizimin. Nëse gjeni disa gabime, ju lutemi na tregoni.\n"
    },
    {
      "Lang": "sr",
      "Title": "Вежбе енглеске граматике | Једноставно Аустралија ⭐️ #35 have lost",
      "Description": "Научите енглеску граматику! Промените реч у реченици.\n\n\n\n0:04 1:22 2:34 \nI have not lost my shoes\naɪ hæv nɑt lɔst maɪ ʃuz\nНисам изгубио ципеле\n\n0:22 1:38 2:50 \nHe has not lost his shoes\nhi həz nɑt lɔst hɪz ʃuz\nНије изгубио ципеле\n\n0:36 1:52 3:04 \nHe has lost his shoes\nhi həz lɔst hɪz ʃuz\nИзгубио је ципеле\n\n0:51 2:05 3:17 \nI have lost my shoes\naɪ hæv lɔst maɪ ʃuz\nИзгубио сам ципеле\n\n1:04 2:18 3:30 \nI have cleaned my shoes\naɪ hæv klind maɪ ʃuz\nОчистила сам ципеле\n\n\n\nНаставницима и школама:\nОвај видео је објављен под Цреативе Цоммонс лиценцом.\n  CC BY 3.0 https://creativecommons.org/licenses/by/3.0/ \nСлободно користите овај видеозапис у својим предавањима!\n\nЗа локализацију користимо услугу Гоогле Транслате. Ако нађете неке грешке, јавите нам се.\n"
    },
    {
      "Lang": "st",
      "Title": "Boikoetliso ba puo ea Senyesemane | E bonolo Australia ⭐️ #35 have lost",
      "Description": "Ithute puo ea Senyesemane! Fetola lentsoe polelo.\n\n\n\n0:04 1:22 2:34 \nI have not lost my shoes\naɪ hæv nɑt lɔst maɪ ʃuz\nHa kea lahleheloa ke lieta\n\n0:22 1:38 2:50 \nHe has not lost his shoes\nhi həz nɑt lɔst hɪz ʃuz\nHa a lahleheloa ke lieta\n\n0:36 1:52 3:04 \nHe has lost his shoes\nhi həz lɔst hɪz ʃuz\nO lahlile lieta\n\n0:51 2:05 3:17 \nI have lost my shoes\naɪ hæv lɔst maɪ ʃuz\nKe lahlile lieta\n\n1:04 2:18 3:30 \nI have cleaned my shoes\naɪ hæv klind maɪ ʃuz\nKe hloekisitse lieta\n\n\n\nHo matichere le likolo:\nVideo ena e phatlalalitsoe tlas'a Creative Commons License.\n  CC BY 3.0 https://creativecommons.org/licenses/by/3.0/ \nIkutloe u lokolohile ho sebelisa video ena litlelaseng tsa hau!\n\nRe sebelisa tšebeletso ea Google Tafsiri bakeng sa lehae. Haeba u fumana liphoso, ka kopo re tsebise.\n"
    },
    {
      "Lang": "su",
      "Title": "Latihan tata basa Inggris | Basajan Australia ⭐️ #35 have lost",
      "Description": "Diajar grammar Inggris! Ngarobih kecap dina hiji kalimat.\n\n\n\n0:04 1:22 2:34 \nI have not lost my shoes\naɪ hæv nɑt lɔst maɪ ʃuz\nAbdi henteu kedah éléh sapatu kuring\n\n0:22 1:38 2:50 \nHe has not lost his shoes\nhi həz nɑt lɔst hɪz ʃuz\nAnjeunna henteu leungit tina sapatu-Na\n\n0:36 1:52 3:04 \nHe has lost his shoes\nhi həz lɔst hɪz ʃuz\nAnjeunna éléh sapatu na\n\n0:51 2:05 3:17 \nI have lost my shoes\naɪ hæv lɔst maɪ ʃuz\nAbdi kaicalan sapatu\n\n1:04 2:18 3:30 \nI have cleaned my shoes\naɪ hæv klind maɪ ʃuz\nAbdi parantos ngabersihkeun sapatu kuring\n\n\n\nPikeun guru sareng sakola:\nPidéo ieu dikaluarkeun dina Lisensi Lisénsi Creative Commons.\n  CC BY 3.0 https://creativecommons.org/licenses/by/3.0/ \nTong ngosongkeun pidéo ieu di kelas!\n\nKami nganggo jasa Google Translate pikeun lokalisasi. Upami anjeun mendakan sababaraha kasalahan, punten terangkeun ka urang.\n"
    },
    {
      "Lang": "sv",
      "Title": "Engelska grammatiska övningar | Enkel Australien ⭐️ #35 have lost",
      "Description": "Lär dig engelska grammatik! Ändra ett ord i en mening.\n\n\n\n0:04 1:22 2:34 \nI have not lost my shoes\naɪ hæv nɑt lɔst maɪ ʃuz\nJag har inte tappat mina skor\n\n0:22 1:38 2:50 \nHe has not lost his shoes\nhi həz nɑt lɔst hɪz ʃuz\nHan har inte tappat skorna\n\n0:36 1:52 3:04 \nHe has lost his shoes\nhi həz lɔst hɪz ʃuz\nHan har tappat skorna\n\n0:51 2:05 3:17 \nI have lost my shoes\naɪ hæv lɔst maɪ ʃuz\nJag har tappat mina skor\n\n1:04 2:18 3:30 \nI have cleaned my shoes\naɪ hæv klind maɪ ʃuz\nJag har rengjort mina skor\n\n\n\nTill lärare och skolor:\nDenna video publiceras under Creative Commons License.\n  CC BY 3.0 https://creativecommons.org/licenses/by/3.0/ \nAnvänd gärna den här videon i dina klasser!\n\nVi använder Google Translate-tjänst för lokalisering. Låt oss veta om du hittar några misstag.\n"
    },
    {
      "Lang": "sw",
      "Title": "Mazoezi ya sarufi ya Kiingereza | Rahisi Australia ⭐️ #35 have lost",
      "Description": "Jifunze sarufi ya Kiingereza! Badilisha neno katika sentensi.\n\n\n\n0:04 1:22 2:34 \nI have not lost my shoes\naɪ hæv nɑt lɔst maɪ ʃuz\nSijapoteza viatu vyangu\n\n0:22 1:38 2:50 \nHe has not lost his shoes\nhi həz nɑt lɔst hɪz ʃuz\nHajapoteza viatu vyake\n\n0:36 1:52 3:04 \nHe has lost his shoes\nhi həz lɔst hɪz ʃuz\nAmepoteza viatu vyake\n\n0:51 2:05 3:17 \nI have lost my shoes\naɪ hæv lɔst maɪ ʃuz\nNimepoteza viatu vyangu\n\n1:04 2:18 3:30 \nI have cleaned my shoes\naɪ hæv klind maɪ ʃuz\nNimesafisha viatu vyangu\n\n\n\nKwa waalimu na shule:\nVideo hii imechapishwa chini ya Leseni ya Creative Commons.\n  CC BY 3.0 https://creativecommons.org/licenses/by/3.0/ \nJisikie huru kutumia video hii kwenye darasa lako!\n\nTunatumia huduma ya Tafsiri ya Google kwa ujanibishaji. Ikiwa utapata makosa, tafadhali tujulishe.\n"
    },
    {
      "Lang": "ta",
      "Title": "ஆங்கில இலக்கண பயிற்சிகள் | எளிய ஆஸ்திரேலியா ⭐️ #35 have lost",
      "Description": "ஆங்கில இலக்கணம் கற்றுக்கொள்ளுங்கள்! ஒரு வாக்கியத்தில் ஒரு வார்த்தையை மாற்றவும்.\n\n\n\n0:04 1:22 2:34 \nI have not lost my shoes\naɪ hæv nɑt lɔst maɪ ʃuz\nநான் என் காலணிகளை இழக்கவில்லை\n\n0:22 1:38 2:50 \nHe has not lost his shoes\nhi həz nɑt lɔst hɪz ʃuz\nஅவர் காலணிகளை இழக்கவில்லை\n\n0:36 1:52 3:04 \nHe has lost his shoes\nhi həz lɔst hɪz ʃuz\nஅவர் காலணிகளை இழந்துவிட்டார்\n\n0:51 2:05 3:17 \nI have lost my shoes\naɪ hæv lɔst maɪ ʃuz\nநான் என் காலணிகளை இழந்துவிட்டேன்\n\n1:04 2:18 3:30 \nI have cleaned my shoes\naɪ hæv klind maɪ ʃuz\nநான் என் காலணிகளை சுத்தம் செய்துள்ளேன்\n\n\n\nஆசிரியர்கள் மற்றும் பள்ளிகளுக்கு:\nஇந்த வீடியோ கிரியேட்டிவ் காமன்ஸ் உரிமத்தின் கீழ் வெளியிடப்பட்டுள்ளது.\n  CC BY 3.0 https://creativecommons.org/licenses/by/3.0/ \nஉங்கள் வகுப்புகளில் இந்த வீடியோவைப் பயன்படுத்த தயங்காதீர்கள்!\n\nஉள்ளூர்மயமாக்க Google மொழிபெயர்ப்பு சேவையைப் பயன்படுத்துகிறோம். நீங்கள் சில தவறுகளைக் கண்டால், எங்களுக்குத் தெரியப்படுத்துங்கள்.\n"
    },
    {
      "Lang": "te",
      "Title": "ఇంగ్లీష్ వ్యాకరణ వ్యాయామాలు | సాధారణ ఆస్ట్రేలియా ⭐️ #35 have lost",
      "Description": "ఇంగ్లీష్ వ్యాకరణం నేర్చుకోండి! ఒక వాక్యంలో ఒక పదాన్ని మార్చండి.\n\n\n\n0:04 1:22 2:34 \nI have not lost my shoes\naɪ hæv nɑt lɔst maɪ ʃuz\nనేను నా బూట్లు కోల్పోలేదు\n\n0:22 1:38 2:50 \nHe has not lost his shoes\nhi həz nɑt lɔst hɪz ʃuz\nఅతను బూట్లు కోల్పోలేదు\n\n0:36 1:52 3:04 \nHe has lost his shoes\nhi həz lɔst hɪz ʃuz\nఅతను బూట్లు కోల్పోయాడు\n\n0:51 2:05 3:17 \nI have lost my shoes\naɪ hæv lɔst maɪ ʃuz\nనేను నా బూట్లు కోల్పోయాను\n\n1:04 2:18 3:30 \nI have cleaned my shoes\naɪ hæv klind maɪ ʃuz\nనేను నా బూట్లు శుభ్రం చేసాను\n\n\n\nఉపాధ్యాయులకు మరియు పాఠశాలలకు:\nఈ వీడియో క్రియేటివ్ కామన్స్ లైసెన్స్ క్రింద ప్రచురించబడింది.\n  CC BY 3.0 https://creativecommons.org/licenses/by/3.0/ \nమీ తరగతుల్లో ఈ వీడియోను ఉపయోగించడానికి సంకోచించకండి!\n\nస్థానికీకరణ కోసం మేము Google అనువాద సేవను ఉపయోగిస్తాము. మీరు కొన్ని తప్పులు కనుగొంటే, దయచేసి మాకు తెలియజేయండి.\n"
    },
    {
      "Lang": "tg",
      "Title": "Машқҳои грамматикаи забони англисӣ | Оддӣ Австралия ⭐️ #35 have lost",
      "Description": "Грамматикаи забони англисиро омӯзед! Калимаро дар як ҷумла иваз кунед.\n\n\n\n0:04 1:22 2:34 \nI have not lost my shoes\naɪ hæv nɑt lɔst maɪ ʃuz\nМан пойафзоли худро гум накардаам\n\n0:22 1:38 2:50 \nHe has not lost his shoes\nhi həz nɑt lɔst hɪz ʃuz\nӮ пойафзоли худро гум накардааст\n\n0:36 1:52 3:04 \nHe has lost his shoes\nhi həz lɔst hɪz ʃuz\nПойафзоли худро гум кардааст\n\n0:51 2:05 3:17 \nI have lost my shoes\naɪ hæv lɔst maɪ ʃuz\nМан пойафзоли худро гум кардам\n\n1:04 2:18 3:30 \nI have cleaned my shoes\naɪ hæv klind maɪ ʃuz\nМан пойафзоли худро тоза кардам\n\n\n\nБа муаллимон ва мактабҳо:\nИн видео зери иҷозатномаи Creative Commons нашр шудааст.\n  CC BY 3.0 https://creativecommons.org/licenses/by/3.0/ \nИн видеоро дар дарсҳои худ истифода баред!\n\nМо барои локализатсия аз хидмати Google Translate истифода мебарем. Агар шумо ягон хатогӣ дарёфт кунед, лутфан ба мо хабар диҳед.\n"
    },
    {
      "Lang": "th",
      "Title": "แบบฝึกหัดไวยากรณ์ภาษาอังกฤษ | ง่าย ออสเตรเลีย ⭐️ #35 have lost",
      "Description": "เรียนรู้ไวยากรณ์ภาษาอังกฤษ! เปลี่ยนคำในประโยค\n\n\n\n0:04 1:22 2:34 \nI have not lost my shoes\naɪ hæv nɑt lɔst maɪ ʃuz\nฉันไม่ได้ทำรองเท้าหาย\n\n0:22 1:38 2:50 \nHe has not lost his shoes\nhi həz nɑt lɔst hɪz ʃuz\nเขาไม่ได้สูญเสียรองเท้าของเขา\n\n0:36 1:52 3:04 \nHe has lost his shoes\nhi həz lɔst hɪz ʃuz\nเขาทำรองเท้าหาย\n\n0:51 2:05 3:17 \nI have lost my shoes\naɪ hæv lɔst maɪ ʃuz\nฉันทำรองเท้าหาย\n\n1:04 2:18 3:30 \nI have cleaned my shoes\naɪ hæv klind maɪ ʃuz\nฉันทำความสะอาดรองเท้าแล้ว\n\n\n\nถึงครูและโรงเรียน:\nวิดีโอนี้เผยแพร่ภายใต้สัญญาอนุญาตครีเอทีฟคอมมอนส์\n  CC BY 3.0 https://creativecommons.org/licenses/by/3.0/ \nอย่าลังเลที่จะใช้วิดีโอนี้ในชั้นเรียนของคุณ!\n\nเราใช้บริการ Google แปลภาษาเพื่อการแปล หากคุณพบข้อผิดพลาดบางอย่างโปรดแจ้งให้เราทราบ\n"
    },
    {
      "Lang": "tr",
      "Title": "İngilizce gramer çalışmaları | Basit Avustralya ⭐️ #35 have lost",
      "Description": "İngilizce gramerini öğren! Bir cümle içindeki bir kelimeyi değiştirin.\n\n\n\n0:04 1:22 2:34 \nI have not lost my shoes\naɪ hæv nɑt lɔst maɪ ʃuz\nAyakkabılarımı kaybetmedim\n\n0:22 1:38 2:50 \nHe has not lost his shoes\nhi həz nɑt lɔst hɪz ʃuz\nAyakkabılarını kaybetmedi\n\n0:36 1:52 3:04 \nHe has lost his shoes\nhi həz lɔst hɪz ʃuz\nAyakkabılarını kaybetti\n\n0:51 2:05 3:17 \nI have lost my shoes\naɪ hæv lɔst maɪ ʃuz\nAyakkabılarımı kaybettim\n\n1:04 2:18 3:30 \nI have cleaned my shoes\naɪ hæv klind maɪ ʃuz\nAyakkabılarımı temizledim\n\n\n\nÖğretmenlere ve okullara:\nBu video Creative Commons License. Altında yayınlandı.\n  CC BY 3.0 https://creativecommons.org/licenses/by/3.0/ \nBu videoyu derslerinizde kullanmaktan çekinmeyin!\n\nYerelleştirme için Google Çeviri hizmetini kullanıyoruz. Bazı hatalar bulursanız lütfen bize bildirin.\n"
    },
    {
      "Lang": "uk",
      "Title": "Граматичні вправи з англійської мови | Простий Австралія ⭐️ #35 have lost",
      "Description": "Вивчіть англійську граматику! Змініть слово у реченні.\n\n\n\n0:04 1:22 2:34 \nI have not lost my shoes\naɪ hæv nɑt lɔst maɪ ʃuz\nЯ не втратив взуття\n\n0:22 1:38 2:50 \nHe has not lost his shoes\nhi həz nɑt lɔst hɪz ʃuz\nВін не втратив взуття\n\n0:36 1:52 3:04 \nHe has lost his shoes\nhi həz lɔst hɪz ʃuz\nВін втратив черевики\n\n0:51 2:05 3:17 \nI have lost my shoes\naɪ hæv lɔst maɪ ʃuz\nЯ втратив черевики\n\n1:04 2:18 3:30 \nI have cleaned my shoes\naɪ hæv klind maɪ ʃuz\nЯ вбрав взуття\n\n\n\nДля вчителів та шкіл:\nЦе відео опубліковане під ліцензією Creative Commons.\n  CC BY 3.0 https://creativecommons.org/licenses/by/3.0/ \nСміливо використовуйте це відео у своїх класах!\n\nМи використовуємо послугу Google Translate для локалізації. Якщо ви виявили деякі помилки, повідомте нас про це.\n"
    },
    {
      "Lang": "ur",
      "Title": "انگریزی گرائمر کی ورزشیں | آسان آسٹریلیا ⭐️ #35 have lost",
      "Description": "انگریزی گرائمر سیکھیں! ایک جملے میں ایک لفظ تبدیل کریں۔\n\n\n\n0:04 1:22 2:34 \nI have not lost my shoes\naɪ hæv nɑt lɔst maɪ ʃuz\nمیں نے اپنے جوتوں کو کھویا نہیں ہے\n\n0:22 1:38 2:50 \nHe has not lost his shoes\nhi həz nɑt lɔst hɪz ʃuz\nوہ اپنے جوتوں سے محروم نہیں ہوا ہے\n\n0:36 1:52 3:04 \nHe has lost his shoes\nhi həz lɔst hɪz ʃuz\nاس نے اپنے جوتوں کو کھو دیا ہے\n\n0:51 2:05 3:17 \nI have lost my shoes\naɪ hæv lɔst maɪ ʃuz\nمیں نے اپنے جوتوں کو کھو دیا ہے\n\n1:04 2:18 3:30 \nI have cleaned my shoes\naɪ hæv klind maɪ ʃuz\nمیں نے اپنے جوتے صاف کردیئے ہیں\n\n\n\nاساتذہ اور اسکولوں کے لئے:\nیہ ویڈیو تخلیقی العام لائسنس کے تحت شائع ہوا ہے۔\n  CC BY 3.0 https://creativecommons.org/licenses/by/3.0/ \nاپنی ویڈیو کو اپنی کلاسوں میں آزادانہ طور پر استعمال کریں!\n\nہم لوکلائزیشن کے لئے گوگل ٹرانسلیٹ سروس استعمال کرتے ہیں۔ اگر آپ کو کچھ غلطیاں ملتی ہیں تو ، براہ کرم ہمیں بتائیں۔\n"
    },
    {
      "Lang": "uz",
      "Title": "Ingliz tili grammatik mashqlari | Oddiy Avstraliya ⭐️ #35 have lost",
      "Description": "Ingliz tilining grammatikasini o'rganing! Bir so'zni jumlada o'zgartiring.\n\n\n\n0:04 1:22 2:34 \nI have not lost my shoes\naɪ hæv nɑt lɔst maɪ ʃuz\nMen poyabzalimni yo'qotmadim\n\n0:22 1:38 2:50 \nHe has not lost his shoes\nhi həz nɑt lɔst hɪz ʃuz\nU oyoq kiyimlarini yo'qotmagan\n\n0:36 1:52 3:04 \nHe has lost his shoes\nhi həz lɔst hɪz ʃuz\nU oyoq kiyimlarini yo'qotib qo'ydi\n\n0:51 2:05 3:17 \nI have lost my shoes\naɪ hæv lɔst maɪ ʃuz\nMen poyabzalimni yo‘qotib qo‘ydim\n\n1:04 2:18 3:30 \nI have cleaned my shoes\naɪ hæv klind maɪ ʃuz\nMen poyabzalimni tozaladim\n\n\n\nO'qituvchilar va maktablarga:\nUshbu video Creative Commons litsenziyasi ostida joylashtirilgan.\n  CC BY 3.0 https://creativecommons.org/licenses/by/3.0/ \nUshbu videoni o'z sinflaringizda ishlatish bepul!\n\nBiz Google Translate xizmatidan lokalizatsiya uchun foydalanamiz. Agar siz biron bir xato topsangiz, iltimos, bizga xabar bering.\n"
    },
    {
      "Lang": "vi",
      "Title": "Bài tập ngữ pháp tiếng anh | Đơn giản Châu Úc ⭐️ #35 have lost",
      "Description": "Học ngữ pháp tiếng Anh! Thay đổi một từ trong một câu.\n\n\n\n0:04 1:22 2:34 \nI have not lost my shoes\naɪ hæv nɑt lɔst maɪ ʃuz\nTôi chưa mất giày\n\n0:22 1:38 2:50 \nHe has not lost his shoes\nhi həz nɑt lɔst hɪz ʃuz\nAnh ấy không bị mất giày\n\n0:36 1:52 3:04 \nHe has lost his shoes\nhi həz lɔst hɪz ʃuz\nAnh ấy bị mất giày\n\n0:51 2:05 3:17 \nI have lost my shoes\naɪ hæv lɔst maɪ ʃuz\nTôi bị mất giày\n\n1:04 2:18 3:30 \nI have cleaned my shoes\naɪ hæv klind maɪ ʃuz\nTôi đã làm sạch giày của tôi\n\n\n\nGửi giáo viên và nhà trường:\nVideo này được xuất bản theo Giấy phép Creative Commons.\n  CC BY 3.0 https://creativecommons.org/licenses/by/3.0/ \nHãy sử dụng video này trong các lớp học của bạn!\n\nChúng tôi sử dụng dịch vụ Google Dịch để bản địa hóa. Nếu bạn tìm thấy một số sai lầm, xin vui lòng cho chúng tôi biết.\n"
    },
    {
      "Lang": "xh",
      "Title": "Ukuziqhelanisa negrama yesiNgesi | Elula Ostreliya ⭐️ #35 have lost",
      "Description": "Funda igrama yesiNgesi! Guqula igama kwisivakalisi.\n\n\n\n0:04 1:22 2:34 \nI have not lost my shoes\naɪ hæv nɑt lɔst maɪ ʃuz\nAndizange ndilahle izihlangu zam\n\n0:22 1:38 2:50 \nHe has not lost his shoes\nhi həz nɑt lɔst hɪz ʃuz\nAkaphelelwa zihlangu\n\n0:36 1:52 3:04 \nHe has lost his shoes\nhi həz lɔst hɪz ʃuz\nUlahle izihlangu zakhe\n\n0:51 2:05 3:17 \nI have lost my shoes\naɪ hæv lɔst maɪ ʃuz\nNdilahle izihlangu zam\n\n1:04 2:18 3:30 \nI have cleaned my shoes\naɪ hæv klind maɪ ʃuz\nNdicocekile izihlangu zam\n\n\n\nKootitshala nakwizikolo:\nLe vidiyo ipapashwa phantsi kwelayisensi yeCreative Commons.\n  CC BY 3.0 https://creativecommons.org/licenses/by/3.0/ \nZive ukhululekile ukusebenzisa le vidiyo kwiiklasi zakho!\n\nSisebenzisa inkonzo yokuTolika kaGoogle ukuze sifumane indawo. Ukuba ufumana iimpazamo ezithile, nceda usazise.\n"
    },
    {
      "Lang": "yi",
      "Title": "ענגליש גראַמאַטיק עקסערסייזיז | פּשוט אויסטראַליע ⭐️ #35 have lost",
      "Description": "לערן ענגליש גראַמאַטיק! טוישן אַ וואָרט אין אַ זאַץ.\n\n\n\n0:04 1:22 2:34 \nI have not lost my shoes\naɪ hæv nɑt lɔst maɪ ʃuz\nאיך האב נישט פאַרלאָרן מיין שיכלעך\n\n0:22 1:38 2:50 \nHe has not lost his shoes\nhi həz nɑt lɔst hɪz ʃuz\nער האט נישט פאַרלאָרן זיין שיכלעך\n\n0:36 1:52 3:04 \nHe has lost his shoes\nhi həz lɔst hɪz ʃuz\nער האט פאַרלאָרן זיין שיכלעך\n\n0:51 2:05 3:17 \nI have lost my shoes\naɪ hæv lɔst maɪ ʃuz\nאיך האב פאַרלאָרן מיין שיכלעך\n\n1:04 2:18 3:30 \nI have cleaned my shoes\naɪ hæv klind maɪ ʃuz\nאיך האָבן קלינד מיין שיכלעך\n\n\n\nצו לערערס און שולן:\nדער ווידעא איז ארויס אונטער Creative Commons License.\n  CC BY 3.0 https://creativecommons.org/licenses/by/3.0/ \nפילן פריי צו נוצן דעם ווידעא אין דיין קלאסן!\n\nמיר נוצן Google Translate דינסט פֿאַר לאָוקאַלאַזיישאַן. אויב איר געפֿינען עטלעכע מיסטייקס, ביטע לאָזן אונדז וויסן.\n"
    },
    {
      "Lang": "yo",
      "Title": "Awọn adaṣe gẹẹsi Gẹẹsi | Rọrun Australia ⭐️ #35 have lost",
      "Description": "Kọ ẹkọ gẹẹsi Gẹẹsi! Yi ọrọ pada ninu gbolohun ọrọ.\n\n\n\n0:04 1:22 2:34 \nI have not lost my shoes\naɪ hæv nɑt lɔst maɪ ʃuz\nMi ko padanu awọn bata mi\n\n0:22 1:38 2:50 \nHe has not lost his shoes\nhi həz nɑt lɔst hɪz ʃuz\nO ko padanu awọn bata rẹ\n\n0:36 1:52 3:04 \nHe has lost his shoes\nhi həz lɔst hɪz ʃuz\nO ti padanu awọn bata rẹ\n\n0:51 2:05 3:17 \nI have lost my shoes\naɪ hæv lɔst maɪ ʃuz\nMo ti padanu awọn bata mi\n\n1:04 2:18 3:30 \nI have cleaned my shoes\naɪ hæv klind maɪ ʃuz\nMo ti sọ bata mi di mimọ\n\n\n\nSi awọn olukọ ati awọn ile-iwe:\nFidio yii ni a tẹjade labẹ Iwe-aṣẹ Creative Commons.\n  CC BY 3.0 https://creativecommons.org/licenses/by/3.0/ \nLero lati lo fidio yii ninu awọn kilasi rẹ!\n\nA lo iṣẹ Google Translate fun agbegbe. Ti o ba rii diẹ ninu awọn aṣiṣe, jọwọ jẹ ki a mọ.\n"
    },
    {
      "Lang": "zh-Hans",
      "Title": "英语语法练习 | 简单 澳大利亚 ⭐️ #35 have lost",
      "Description": "学习英语语法！ 更改句子中的单词。\n\n\n\n0:04 1:22 2:34 \nI have not lost my shoes\naɪ hæv nɑt lɔst maɪ ʃuz\n我没有丢鞋\n\n0:22 1:38 2:50 \nHe has not lost his shoes\nhi həz nɑt lɔst hɪz ʃuz\n他没有丢鞋\n\n0:36 1:52 3:04 \nHe has lost his shoes\nhi həz lɔst hɪz ʃuz\n他丢了鞋子\n\n0:51 2:05 3:17 \nI have lost my shoes\naɪ hæv lɔst maɪ ʃuz\n我丢了鞋子\n\n1:04 2:18 3:30 \nI have cleaned my shoes\naɪ hæv klind maɪ ʃuz\n我擦鞋了\n\n\n\n致老师和学校：\n该视频是根据知识共享许可发布的。\n  CC BY 3.0 https://creativecommons.org/licenses/by/3.0/ \n随时在您的课程中使用此视频！\n\n我们使用Google翻译服务进行本地化。如果您发现一些错误，请告诉我们。\n"
    },
    {
      "Lang": "zh-Hant",
      "Title": "英語語法練習 | 簡單 澳大利亞 ⭐️ #35 have lost",
      "Description": "學習英語語法！ 更改句子中的單詞。\n\n\n\n0:04 1:22 2:34 \nI have not lost my shoes\naɪ hæv nɑt lɔst maɪ ʃuz\n我沒有丟鞋\n\n0:22 1:38 2:50 \nHe has not lost his shoes\nhi həz nɑt lɔst hɪz ʃuz\n他沒有丟鞋\n\n0:36 1:52 3:04 \nHe has lost his shoes\nhi həz lɔst hɪz ʃuz\n他丟了鞋子\n\n0:51 2:05 3:17 \nI have lost my shoes\naɪ hæv lɔst maɪ ʃuz\n我丟了鞋子\n\n1:04 2:18 3:30 \nI have cleaned my shoes\naɪ hæv klind maɪ ʃuz\n我擦鞋了\n\n\n\n致老師和學校：\n該視頻是根據知識共享許可發布的。\n  CC BY 3.0 https://creativecommons.org/licenses/by/3.0/ \n隨時在您的課程中使用此視頻！\n\n我們使用Google翻譯服務進行本地化。如果您發現一些錯誤，請告訴我們。\n"
    },
    {
      "Lang": "zu",
      "Title": "Ukuzivocavoca kolimi lwesiNgisi | Elula E-Australia ⭐️ #35 have lost",
      "Description": "Funda uhlelo lolimi lwesiNgisi! Shintsha igama emshweni.\n\n\n\n0:04 1:22 2:34 \nI have not lost my shoes\naɪ hæv nɑt lɔst maɪ ʃuz\nAngizange ngilahlekelwe izicathulo zami\n\n0:22 1:38 2:50 \nHe has not lost his shoes\nhi həz nɑt lɔst hɪz ʃuz\nAkazange alahle izicathulo zakhe\n\n0:36 1:52 3:04 \nHe has lost his shoes\nhi həz lɔst hɪz ʃuz\nUlahle izicathulo\n\n0:51 2:05 3:17 \nI have lost my shoes\naɪ hæv lɔst maɪ ʃuz\nNgilahlekelwe izicathulo\n\n1:04 2:18 3:30 \nI have cleaned my shoes\naɪ hæv klind maɪ ʃuz\nNgihlanze izicathulo zami\n\n\n\nKothisha nasezikoleni:\nLe vidiyo ishicilelwe ngaphansi kwelayisensi yeCreative Commons.\n  CC BY 3.0 https://creativecommons.org/licenses/by/3.0/ \nZizwe ukhululekile ukusebenzisa le vidiyo emakilasini akho!\n\nSisebenzisa insiza ye-Google Humusha ukwenza okwasendaweni. Uma uthola amanye amaphutha, sicela usazise.\n"
    }
  ]
}