{
  "File": "grammar-en-beginner-simple_7_AU.mp4",
  "ID": "BbVI2n57cKw",
  "AudioLang": "en",
  "DefaultLang": "gl",
  "Title": "Exercicios de gramática inglesa | Sinxelo Australia ⭐️ #7 Am/Are/Is ?",
  "Description": "Aprende gramática inglesa! Cambia unha palabra nunha frase.\n\n\n\n0:04 1:03 1:59 \nAre you angry?\nər ju ˈæŋgri?\nEstás enfadado?\n\n0:17 1:15 2:11 \nAre your parents angry?\nər jʊr ˈpɛrənts ˈæŋgri?\nOs teus pais están enfadados?\n\n0:30 1:28 2:24 \nAre your parents tired?\nər jʊr ˈpɛrənts taɪərd?\nEstán cansos os teus pais?\n\n0:41 1:38 2:34 \nAre you tired?\nər ju taɪərd?\nEstás canso?\n\n0:51 1:47 2:43 \nAm I tired?\næm aɪ taɪərd?\nEstou canso?\n\n\n\nPara profesores e colexios:\nEste vídeo está publicado baixo a licenza Creative Commons.\n  CC BY 3.0 https://creativecommons.org/licenses/by/3.0/ \nNon dubides en usar este vídeo nas túas clases.\n\nUsamos o servizo Google Translate para a súa localización. Se atopas algún erro, comunícanos.\n",
  "VideoTags": "Gramática inglesa,Angļu valodas gramatika,Gramatyka angielska,Енглеска граматика,Английска граматика,Енглеска граматика,قواعد اللغة الإنجليزية,ਅੰਗਰੇਜ਼ੀ ਵਿਆਕਰਨ,ඉංග්‍රීසි ව්‍යාකරණ,វេយ្យាករណ៍អង់គ្លេស,Nahawu Turanci,Grammatika Ingliża,Chirungu,Igrama yesiNgesi,İngilis qrammatikası",
  "YoutubeSynced": true,
  "ThumbnailUploaded": true,
  "Localizations": [
    {
      "Lang": "af",
      "Title": "Engelse grammatika-oefeninge | eenvoudige Australië ⭐️ #7 Am/Are/Is ?",
      "Description": "Leer Engelse grammatika! Verander 'n woord in 'n sin.\n\n\n\n0:04 1:03 1:59 \nAre you angry?\nər ju ˈæŋgri?\nIs jy kwaad?\n\n0:17 1:15 2:11 \nAre your parents angry?\nər jʊr ˈpɛrənts ˈæŋgri?\nIs u ouers kwaad?\n\n0:30 1:28 2:24 \nAre your parents tired?\nər jʊr ˈpɛrənts taɪərd?\nIs u ouers moeg?\n\n0:41 1:38 2:34 \nAre you tired?\nər ju taɪərd?\nIs jy moeg?\n\n0:51 1:47 2:43 \nAm I tired?\næm aɪ taɪərd?\nIs ek moeg?\n\n\n\nAan onderwysers en skole:\nHierdie video word onder Creative Commons-lisensie gepubliseer.\n  CC BY 3.0 https://creativecommons.org/licenses/by/3.0/ \nGebruik gerus hierdie video in u klasse!\n\nOns gebruik Google Translate-diens vir lokalisering. Laat weet ons as u foute ervaar.\n"
    },
    {
      "Lang": "am",
      "Title": "የእንግሊዝኛ ሰዋሰው ልምምዶች | ቀላል አውስትራሊያ ⭐️ #7 Am/Are/Is ?",
      "Description": "የእንግሊዝኛ ሰዋስው ይማሩ! በአረፍተ ነገር ውስጥ አንድ ቃል ይለውጡ ፡፡\n\n\n\n0:04 1:03 1:59 \nAre you angry?\nər ju ˈæŋgri?\nተናደሃል?\n\n0:17 1:15 2:11 \nAre your parents angry?\nər jʊr ˈpɛrənts ˈæŋgri?\nወላጆችህ ተቆጡ?\n\n0:30 1:28 2:24 \nAre your parents tired?\nər jʊr ˈpɛrənts taɪərd?\nወላጆችህ ደክመዋል?\n\n0:41 1:38 2:34 \nAre you tired?\nər ju taɪərd?\nደክሞሃል እንዴ?\n\n0:51 1:47 2:43 \nAm I tired?\næm aɪ taɪərd?\nደክሞኛል?\n\n\n\nለመምህራን እና ለት / ቤቶች\nይህ ቪዲዮ በ Creative Commons ፈቃድ ስር ታትሟል ፡፡\n  CC BY 3.0 https://creativecommons.org/licenses/by/3.0/ \nይህንን ቪዲዮ በትምህርቶችዎ ውስጥ ለመጠቀም ነፃ ይሁኑ!\n\nለትርጉም የ Google ትርጉም አገልግሎትን እንጠቀማለን። አንዳንድ ስህተቶች ካገኙ እባክዎ ያሳውቁን።\n"
    },
    {
      "Lang": "ar",
      "Title": "تمارين قواعد اللغة الإنجليزية | بسيط أستراليا ⭐️ #7 Am/Are/Is ?",
      "Description": "تعلم قواعد اللغة الإنجليزية! تغيير كلمة في جملة.\n\n\n\n0:04 1:03 1:59 \nAre you angry?\nər ju ˈæŋgri?\nهل أنت غاضب؟\n\n0:17 1:15 2:11 \nAre your parents angry?\nər jʊr ˈpɛrənts ˈæŋgri?\nهل والديك غاضبين؟\n\n0:30 1:28 2:24 \nAre your parents tired?\nər jʊr ˈpɛrənts taɪərd?\nهل والداك متعبان؟\n\n0:41 1:38 2:34 \nAre you tired?\nər ju taɪərd?\nهل انت مرهق؟\n\n0:51 1:47 2:43 \nAm I tired?\næm aɪ taɪərd?\nهل أنا متعب؟\n\n\n\nللمعلمين والمدارس:\nتم نشر هذا الفيديو تحت رخصة المشاع الإبداعي.\n  CC BY 3.0 https://creativecommons.org/licenses/by/3.0/ \nلا تتردد في استخدام هذا الفيديو في الفصول الدراسية!\n\nنستخدم خدمة الترجمة من Google للترجمة. إذا وجدت بعض الأخطاء ، يرجى إعلامنا.\n"
    },
    {
      "Lang": "az",
      "Title": "İngilis qrammatikası təlimləri | Sadə Avstraliya ⭐️ #7 Am/Are/Is ?",
      "Description": "İngilis dili qrammatikasını öyrənin! Bir cümlədə bir söz dəyişdirin.\n\n\n\n0:04 1:03 1:59 \nAre you angry?\nər ju ˈæŋgri?\nSən əsəbisən?\n\n0:17 1:15 2:11 \nAre your parents angry?\nər jʊr ˈpɛrənts ˈæŋgri?\nValideynləriniz qəzəblidir?\n\n0:30 1:28 2:24 \nAre your parents tired?\nər jʊr ˈpɛrənts taɪərd?\nValideynləriniz yorulub?\n\n0:41 1:38 2:34 \nAre you tired?\nər ju taɪərd?\nYoruldunuz?\n\n0:51 1:47 2:43 \nAm I tired?\næm aɪ taɪərd?\nYoruldum?\n\n\n\nMüəllimlərə və məktəblərə:\nBu video Creative Commons lisenziyası altında yayımlanıb.\n  CC BY 3.0 https://creativecommons.org/licenses/by/3.0/ \nBu videonu dərslərinizdə istifadə etməkdən çekinmeyin!\n\nLokallaşdırma üçün Google Translate xidmətindən istifadə edirik. Bəzi səhvlər taparsanız, bizə bildirin.\n"
    },
    {
      "Lang": "be",
      "Title": "Граматычныя практыкаванні на англійскай мове | Просты Аўстралія ⭐️ #7 Am/Are/Is ?",
      "Description": "Вывучайце англійскую граматыку! Змяніце слова ў сказе.\n\n\n\n0:04 1:03 1:59 \nAre you angry?\nər ju ˈæŋgri?\nТы злуешся?\n\n0:17 1:15 2:11 \nAre your parents angry?\nər jʊr ˈpɛrənts ˈæŋgri?\nВашы бацькі злыя?\n\n0:30 1:28 2:24 \nAre your parents tired?\nər jʊr ˈpɛrənts taɪərd?\nЦі стаміліся бацькі?\n\n0:41 1:38 2:34 \nAre you tired?\nər ju taɪərd?\nТы стаміўся?\n\n0:51 1:47 2:43 \nAm I tired?\næm aɪ taɪərd?\nЯ стаміўся?\n\n\n\nДля настаўнікаў і школ:\nГэта відэа публікуецца пад ліцэнзіяй Creative Commons.\n  CC BY 3.0 https://creativecommons.org/licenses/by/3.0/ \nНе саромейцеся выкарыстоўваць гэта відэа ў сваіх класах!\n\nМы выкарыстоўваем паслугу Google Translate для лакалізацыі. Калі вы выявілі некаторыя памылкі, калі ласка, паведаміце нам пра гэта.\n"
    },
    {
      "Lang": "bg",
      "Title": "Английски граматически упражнения | прост Австралия ⭐️ #7 Am/Are/Is ?",
      "Description": "Научете английска граматика! Промяна на дума в изречение.\n\n\n\n0:04 1:03 1:59 \nAre you angry?\nər ju ˈæŋgri?\nЯдосан ли си?\n\n0:17 1:15 2:11 \nAre your parents angry?\nər jʊr ˈpɛrənts ˈæŋgri?\nРодителите ви ядосани ли са?\n\n0:30 1:28 2:24 \nAre your parents tired?\nər jʊr ˈpɛrənts taɪərd?\nУморени ли са родителите ви?\n\n0:41 1:38 2:34 \nAre you tired?\nər ju taɪərd?\nИзморен ли си?\n\n0:51 1:47 2:43 \nAm I tired?\næm aɪ taɪərd?\nИзморен ли съм?\n\n\n\nЗа учители и училища:\nТози видеоклип е публикуван под Creative Commons License.\n  CC BY 3.0 https://creativecommons.org/licenses/by/3.0/ \nЧувствайте се свободни да използвате това видео в класовете си!\n\nНие използваме услугата Google Translate за локализация. Ако откриете някои грешки, моля, уведомете ни.\n"
    },
    {
      "Lang": "bn",
      "Title": "ইংরেজি ব্যাকরণ অনুশীলন | সহজ অস্ট্রেলিয়া ⭐️ #7 Am/Are/Is ?",
      "Description": "ইংরেজি ব্যাকরণ শিখুন! একটি বাক্যে একটি শব্দ পরিবর্তন করুন।\n\n\n\n0:04 1:03 1:59 \nAre you angry?\nər ju ˈæŋgri?\nতুমি কি রাগান্বিত?\n\n0:17 1:15 2:11 \nAre your parents angry?\nər jʊr ˈpɛrənts ˈæŋgri?\nআপনার বাবা-মা রাগ করছেন?\n\n0:30 1:28 2:24 \nAre your parents tired?\nər jʊr ˈpɛrənts taɪərd?\nআপনার বাবা-মা কি ক্লান্ত?\n\n0:41 1:38 2:34 \nAre you tired?\nər ju taɪərd?\nআপনি কি ক্লান্ত?\n\n0:51 1:47 2:43 \nAm I tired?\næm aɪ taɪərd?\nআমি কি ক্লান্ত?\n\n\n\nশিক্ষক এবং বিদ্যালয়ের কাছে:\nএই ভিডিওটি ক্রিয়েটিভ কমন্স লাইসেন্সের আওতায় প্রকাশিত হয়েছে।\n  CC BY 3.0 https://creativecommons.org/licenses/by/3.0/ \nআপনার ক্লাসে এই ভিডিওটি নির্দ্বিধায় ব্যবহার করুন!\n\nআমরা স্থানীয়করণের জন্য গুগল অনুবাদ পরিষেবা ব্যবহার করি। আপনি যদি কিছু ভুল খুঁজে পান তবে দয়া করে আমাদের জানান।\n"
    },
    {
      "Lang": "bs",
      "Title": "Engleske gramatičke vježbe | Jednostavno Australija ⭐️ #7 Am/Are/Is ?",
      "Description": "Naučite englesku gramatiku! Promenite reč u rečenici.\n\n\n\n0:04 1:03 1:59 \nAre you angry?\nər ju ˈæŋgri?\nJesi li ljut?\n\n0:17 1:15 2:11 \nAre your parents angry?\nər jʊr ˈpɛrənts ˈæŋgri?\nJesu li tvoji roditelji ljuti?\n\n0:30 1:28 2:24 \nAre your parents tired?\nər jʊr ˈpɛrənts taɪərd?\nJesu li tvoji roditelji umorni?\n\n0:41 1:38 2:34 \nAre you tired?\nər ju taɪərd?\nJesi li umoran?\n\n0:51 1:47 2:43 \nAm I tired?\næm aɪ taɪərd?\nJesam li umorna?\n\n\n\nNastavnicima i školama:\nOvaj video je objavljen pod Creative Commons licencom.\n  CC BY 3.0 https://creativecommons.org/licenses/by/3.0/ \nSlobodno koristite ovaj videozapis u svojim predavanjima!\n\nZa lokalizaciju koristimo uslugu Google Translate. Ako pronađete neke greške, javite nam se.\n"
    },
    {
      "Lang": "ca",
      "Title": "Exercicis de gramàtica anglesa | Senzill Austràlia ⭐️ #7 Am/Are/Is ?",
      "Description": "Apreneu gramàtica anglesa! Canvia una paraula en una frase.\n\n\n\n0:04 1:03 1:59 \nAre you angry?\nər ju ˈæŋgri?\nEstàs enfadat?\n\n0:17 1:15 2:11 \nAre your parents angry?\nər jʊr ˈpɛrənts ˈæŋgri?\nEls vostres pares estan enfadats?\n\n0:30 1:28 2:24 \nAre your parents tired?\nər jʊr ˈpɛrənts taɪərd?\nEls vostres pares estan cansats?\n\n0:41 1:38 2:34 \nAre you tired?\nər ju taɪərd?\nEstàs cansat?\n\n0:51 1:47 2:43 \nAm I tired?\næm aɪ taɪərd?\nEstic cansat?\n\n\n\nA professors i escoles:\nAquest vídeo es publica sota llicència Creative Commons.\n  CC BY 3.0 https://creativecommons.org/licenses/by/3.0/ \nNo dubteu a utilitzar aquest vídeo a les vostres classes.\n\nUtilitzem el servei de Google Translate per a la localització. Si trobeu alguns errors, feu-nos-ho saber.\n"
    },
    {
      "Lang": "co",
      "Title": "Esercizii di grammatica inglese | Semplice Australia ⭐️ #7 Am/Are/Is ?",
      "Description": "Amparate a grammatica inglese! Cambia una parolla in una frase.\n\n\n\n0:04 1:03 1:59 \nAre you angry?\nər ju ˈæŋgri?\nSò arrabbiatu?\n\n0:17 1:15 2:11 \nAre your parents angry?\nər jʊr ˈpɛrənts ˈæŋgri?\nSò i vostri parenti arraggiati?\n\n0:30 1:28 2:24 \nAre your parents tired?\nər jʊr ˈpɛrənts taɪərd?\nSò i vostri genitori stanchi?\n\n0:41 1:38 2:34 \nAre you tired?\nər ju taɪərd?\nHè stancu?\n\n0:51 1:47 2:43 \nAm I tired?\næm aɪ taɪərd?\nSò stancu?\n\n\n\nÀ i prufessori è à e scole:\nStu video hè publicatu sottu licenza Creative Commons.\n  CC BY 3.0 https://creativecommons.org/licenses/by/3.0/ \nSentitevi liberi d'utilizà stu video in i vostri classi!\n\nUsu u serviziu di Google Translate per a localizazione. Se truvate qualchì sbagli, per piaceci di sapè.\n"
    },
    {
      "Lang": "cs",
      "Title": "Cvičení anglické gramatiky | Jednoduchý Austrálie ⭐️ #7 Am/Are/Is ?",
      "Description": "Naučte se anglickou gramatiku! Změňte slovo ve větě.\n\n\n\n0:04 1:03 1:59 \nAre you angry?\nər ju ˈæŋgri?\nJsi naštvaný?\n\n0:17 1:15 2:11 \nAre your parents angry?\nər jʊr ˈpɛrənts ˈæŋgri?\nJsou vaši rodiče naštvaní?\n\n0:30 1:28 2:24 \nAre your parents tired?\nər jʊr ˈpɛrənts taɪərd?\nJsou vaši rodiče unavení?\n\n0:41 1:38 2:34 \nAre you tired?\nər ju taɪərd?\nJsi unavený?\n\n0:51 1:47 2:43 \nAm I tired?\næm aɪ taɪərd?\nJsem unavený?\n\n\n\nUčitelům a školám:\nToto video je publikováno pod licencí Creative Commons License.\n  CC BY 3.0 https://creativecommons.org/licenses/by/3.0/ \nNeváhejte použít toto video ve svých třídách!\n\nK lokalizaci používáme službu Google Translate. Pokud narazíte na nějaké chyby, dejte nám prosím vědět.\n"
    },
    {
      "Lang": "cy",
      "Title": "Ymarferion gramadeg Saesneg | Syml Awstralia ⭐️ #7 Am/Are/Is ?",
      "Description": "Dysgu gramadeg Saesneg! Newid gair mewn brawddeg.\n\n\n\n0:04 1:03 1:59 \nAre you angry?\nər ju ˈæŋgri?\nWyt ti'n flin?\n\n0:17 1:15 2:11 \nAre your parents angry?\nər jʊr ˈpɛrənts ˈæŋgri?\nYdy'ch rhieni'n ddig?\n\n0:30 1:28 2:24 \nAre your parents tired?\nər jʊr ˈpɛrənts taɪərd?\nYdy'ch rhieni wedi blino?\n\n0:41 1:38 2:34 \nAre you tired?\nər ju taɪərd?\nWyt ti wedi blino?\n\n0:51 1:47 2:43 \nAm I tired?\næm aɪ taɪərd?\nYdw i wedi blino?\n\n\n\nI athrawon ac ysgolion:\nCyhoeddir y fideo hon o dan Creative Commons License.\n  CC BY 3.0 https://creativecommons.org/licenses/by/3.0/ \nMae croeso i chi ddefnyddio'r fideo hon yn eich dosbarthiadau!\n\nRydym yn defnyddio gwasanaeth Google Translate ar gyfer lleoleiddio. Os dewch chi o hyd i rai camgymeriadau, rhowch wybod i ni.\n"
    },
    {
      "Lang": "da",
      "Title": "Engelsk grammatikøvelser | Enkel Australien ⭐️ #7 Am/Are/Is ?",
      "Description": "Lær engelsk grammatik! Skift et ord i en sætning.\n\n\n\n0:04 1:03 1:59 \nAre you angry?\nər ju ˈæŋgri?\nEr du sur?\n\n0:17 1:15 2:11 \nAre your parents angry?\nər jʊr ˈpɛrənts ˈæŋgri?\nEr dine forældre vred?\n\n0:30 1:28 2:24 \nAre your parents tired?\nər jʊr ˈpɛrənts taɪərd?\nEr dine forældre trætte?\n\n0:41 1:38 2:34 \nAre you tired?\nər ju taɪərd?\nEr du træt?\n\n0:51 1:47 2:43 \nAm I tired?\næm aɪ taɪərd?\nEr jeg træt?\n\n\n\nTil lærere og skoler:\nDenne video er offentliggjort under Creative Commons License.\n  CC BY 3.0 https://creativecommons.org/licenses/by/3.0/ \nBrug gjerne denne video i dine klasser!\n\nVi bruger Google Translate-tjenesten til lokalisering. Hvis du finder nogle fejl, så lad os vide det.\n"
    },
    {
      "Lang": "de",
      "Title": "Englische Grammatikübungen | Einfach Australien ⭐️ #7 Am/Are/Is ?",
      "Description": "Lerne englische Grammatik! Ändern Sie ein Wort in einem Satz.\n\n\n\n0:04 1:03 1:59 \nAre you angry?\nər ju ˈæŋgri?\nBist du wütend?\n\n0:17 1:15 2:11 \nAre your parents angry?\nər jʊr ˈpɛrənts ˈæŋgri?\nSind deine Eltern wütend?\n\n0:30 1:28 2:24 \nAre your parents tired?\nər jʊr ˈpɛrənts taɪərd?\nSind deine Eltern müde?\n\n0:41 1:38 2:34 \nAre you tired?\nər ju taɪərd?\nBist du müde?\n\n0:51 1:47 2:43 \nAm I tired?\næm aɪ taɪərd?\nBin ich müde\n\n\n\nAn Lehrer und Schulen:\nDieses Video wird unter der Creative Commons License veröffentlicht.\n  CC BY 3.0 https://creativecommons.org/licenses/by/3.0/ \nFühlen Sie sich frei, dieses Video in Ihren Klassen zu verwenden!\n\nWir verwenden den Google Translate-Dienst zur Lokalisierung. Wenn Sie Fehler finden, teilen Sie uns dies bitte mit.\n"
    },
    {
      "Lang": "el",
      "Title": "Αγγλικές ασκήσεις γραμματικής | Απλός Αυστραλία ⭐️ #7 Am/Are/Is ?",
      "Description": "Μάθετε αγγλική γραμματική! Αλλάξτε μια λέξη σε μια πρόταση.\n\n\n\n0:04 1:03 1:59 \nAre you angry?\nər ju ˈæŋgri?\nΕίσαι θυμωμένος?\n\n0:17 1:15 2:11 \nAre your parents angry?\nər jʊr ˈpɛrənts ˈæŋgri?\nΕίναι οι γονείς σας θυμωμένοι;\n\n0:30 1:28 2:24 \nAre your parents tired?\nər jʊr ˈpɛrənts taɪərd?\nΟι γονείς σας είναι κουρασμένοι;\n\n0:41 1:38 2:34 \nAre you tired?\nər ju taɪərd?\nΕίσαι κουρασμένος?\n\n0:51 1:47 2:43 \nAm I tired?\næm aɪ taɪərd?\nΕίμαι κουρασμένος;\n\n\n\nΣτους εκπαιδευτικούς και τα σχολεία:\nΑυτό το βίντεο δημοσιεύεται υπό Creative Commons License.\n  CC BY 3.0 https://creativecommons.org/licenses/by/3.0/ \nΜπορείτε να χρησιμοποιήσετε αυτό το βίντεο στις τάξεις σας!\n\nΧρησιμοποιούμε την υπηρεσία Google Translate για εντοπισμό. Αν βρείτε κάποια λάθη, ενημερώστε μας.\n"
    },
    {
      "Lang": "en",
      "Title": "English grammar exercises | Simple Australia ⭐️ #7 Am/Are/Is ?",
      "Description": "Learn English grammar! Change a word in a sentence.\n\n\n\n0:04 1:03 1:59 \nAre you angry?\nər ju ˈæŋgri?\nAre you angry?\n\n0:17 1:15 2:11 \nAre your parents angry?\nər jʊr ˈpɛrənts ˈæŋgri?\nAre your parents angry?\n\n0:30 1:28 2:24 \nAre your parents tired?\nər jʊr ˈpɛrənts taɪərd?\nAre your parents tired?\n\n0:41 1:38 2:34 \nAre you tired?\nər ju taɪərd?\nAre you tired?\n\n0:51 1:47 2:43 \nAm I tired?\næm aɪ taɪərd?\nAm I tired?\n\n\n\nTo teachers and schools:\nThis video is published under Creative Commons License.\n  CC BY 3.0 https://creativecommons.org/licenses/by/3.0/ \nFeel free to use this video in your classes!\n\nWe use Google Translate service for localization. If you find some mistakes, please let us know.\n"
    },
    {
      "Lang": "es",
      "Title": "Ejercicios de gramática inglesa | Sencillo Australia ⭐️ #7 Am/Are/Is ?",
      "Description": "¡Aprende gramática inglesa! Cambiar una palabra en una oración.\n\n\n\n0:04 1:03 1:59 \nAre you angry?\nər ju ˈæŋgri?\n¿Estás enojado?\n\n0:17 1:15 2:11 \nAre your parents angry?\nər jʊr ˈpɛrənts ˈæŋgri?\n¿Tus padres están enojados?\n\n0:30 1:28 2:24 \nAre your parents tired?\nər jʊr ˈpɛrənts taɪərd?\n¿Están cansados tus padres?\n\n0:41 1:38 2:34 \nAre you tired?\nər ju taɪərd?\n¿Estás cansado?\n\n0:51 1:47 2:43 \nAm I tired?\næm aɪ taɪərd?\nEstoy cansado\n\n\n\nA profesores y escuelas:\nEste video se publica bajo licencia Creative Commons.\n  CC BY 3.0 https://creativecommons.org/licenses/by/3.0/ \n¡Siéntete libre de usar este video en tus clases!\n\nUtilizamos el servicio Google Translate para la localización. Si encuentra algunos errores, háganoslo saber.\n"
    },
    {
      "Lang": "et",
      "Title": "Inglise keele grammatika harjutused | Lihtne Austraalia ⭐️ #7 Am/Are/Is ?",
      "Description": "Õpi inglise keele grammatikat! Muutke lauses sõna.\n\n\n\n0:04 1:03 1:59 \nAre you angry?\nər ju ˈæŋgri?\nKas sa oled vihane?\n\n0:17 1:15 2:11 \nAre your parents angry?\nər jʊr ˈpɛrənts ˈæŋgri?\nKas su vanemad on vihased?\n\n0:30 1:28 2:24 \nAre your parents tired?\nər jʊr ˈpɛrənts taɪərd?\nKas teie vanemad on väsinud?\n\n0:41 1:38 2:34 \nAre you tired?\nər ju taɪərd?\nOled sa väsinud?\n\n0:51 1:47 2:43 \nAm I tired?\næm aɪ taɪərd?\nKas ma olen väsinud?\n\n\n\nÕpetajatele ja koolidele:\nSee video on avaldatud Creative Commonsi litsentsi all.\n  CC BY 3.0 https://creativecommons.org/licenses/by/3.0/ \nKasutage seda videot julgelt oma tundides!\n\nLokaliseerimiseks kasutame Google'i tõlke teenust. Kui leiate vigu, palun andke meile sellest teada.\n"
    },
    {
      "Lang": "eu",
      "Title": "Ingelesezko gramatika ariketak | simple Australia ⭐️ #7 Am/Are/Is ?",
      "Description": "Ikasi ingelesezko gramatika! Aldatu esaldi batean hitzak.\n\n\n\n0:04 1:03 1:59 \nAre you angry?\nər ju ˈæŋgri?\nHaserre al zaude?\n\n0:17 1:15 2:11 \nAre your parents angry?\nər jʊr ˈpɛrənts ˈæŋgri?\nZure gurasoak haserre daude?\n\n0:30 1:28 2:24 \nAre your parents tired?\nər jʊr ˈpɛrənts taɪərd?\nZure gurasoak nekatuta al daude?\n\n0:41 1:38 2:34 \nAre you tired?\nər ju taɪərd?\nNekatuta al zaude?\n\n0:51 1:47 2:43 \nAm I tired?\næm aɪ taɪərd?\nNekatuta nago?\n\n\n\nIrakasleei eta ikastetxeei:\nBideo hau Creative Commons lizentziapean argitaratzen da.\n  CC BY 3.0 https://creativecommons.org/licenses/by/3.0/ \nEz ahaztu bideo hau zure klaseetan erabiltzeko!\n\nGoogle Translate zerbitzua erabiltzen dugu lokalizaziorako. Akats batzuk aurkitzen badituzu, adierazi iezaguzu\n"
    },
    {
      "Lang": "fa",
      "Title": "تمرین های دستور زبان انگلیسی | ساده استرالیا ⭐️ #7 Am/Are/Is ?",
      "Description": "گرامر انگلیسی را بیاموزید! یک کلمه را در یک جمله تغییر دهید.\n\n\n\n0:04 1:03 1:59 \nAre you angry?\nər ju ˈæŋgri?\nعصبانی هستی؟\n\n0:17 1:15 2:11 \nAre your parents angry?\nər jʊr ˈpɛrənts ˈæŋgri?\nآیا والدین شما عصبانی هستند؟\n\n0:30 1:28 2:24 \nAre your parents tired?\nər jʊr ˈpɛrənts taɪərd?\nآیا والدین شما خسته هستند؟\n\n0:41 1:38 2:34 \nAre you tired?\nər ju taɪərd?\nخسته ای؟\n\n0:51 1:47 2:43 \nAm I tired?\næm aɪ taɪərd?\nمن خسته ام؟\n\n\n\nبه معلمان و مدارس:\nاین ویدیو تحت مجوز Creative Commons منتشر شده است.\n  CC BY 3.0 https://creativecommons.org/licenses/by/3.0/ \nدر استفاده از این فیلم در کلاس های خود احساس راحتی کنید!\n\nما از خدمات Google Translate برای محلی سازی استفاده می کنیم. اگر شما برخی از اشتباهات ، لطفا به ما اطلاع دهید.\n"
    },
    {
      "Lang": "fi",
      "Title": "Englannin kieliopin harjoitukset | Yksinkertainen Australia ⭐️ #7 Am/Are/Is ?",
      "Description": "Opi englannin kielioppi! Vaihda sana lauseessa.\n\n\n\n0:04 1:03 1:59 \nAre you angry?\nər ju ˈæŋgri?\nOletko vihainen?\n\n0:17 1:15 2:11 \nAre your parents angry?\nər jʊr ˈpɛrənts ˈæŋgri?\nOvatko vanhempasi vihaisia?\n\n0:30 1:28 2:24 \nAre your parents tired?\nər jʊr ˈpɛrənts taɪərd?\nOletko vanhempasi väsynyt?\n\n0:41 1:38 2:34 \nAre you tired?\nər ju taɪərd?\nOletko väsynyt?\n\n0:51 1:47 2:43 \nAm I tired?\næm aɪ taɪərd?\nOlenko kyllästynyt?\n\n\n\nOpettajille ja kouluille:\nTämä video on julkaistu Creative Commons -lisenssillä.\n  CC BY 3.0 https://creativecommons.org/licenses/by/3.0/ \nVoit vapaasti käyttää tätä videota luokissa!\n\nKäytämme lokalisointiin Google Translate -palvelua. Jos löydät virheitä, ota meihin yhteyttä.\n"
    },
    {
      "Lang": "fil",
      "Title": "Pagsasanay sa grammar ng Ingles | Simple Australia ⭐️ #7 Am/Are/Is ?",
      "Description": "Alamin ang grammar ng Ingles! Baguhin ang isang salita sa isang pangungusap.\n\n\n\n0:04 1:03 1:59 \nAre you angry?\nər ju ˈæŋgri?\nGalit ka ba?\n\n0:17 1:15 2:11 \nAre your parents angry?\nər jʊr ˈpɛrənts ˈæŋgri?\nGalit ba ang magulang mo?\n\n0:30 1:28 2:24 \nAre your parents tired?\nər jʊr ˈpɛrənts taɪərd?\nPagod na ba ang mga magulang mo?\n\n0:41 1:38 2:34 \nAre you tired?\nər ju taɪərd?\nPagod ka ba?\n\n0:51 1:47 2:43 \nAm I tired?\næm aɪ taɪərd?\nPagod na ba ako?\n\n\n\nSa mga guro at paaralan:\nAng video na ito ay nai-publish sa ilalim ng Lisensya ng Creative Commons.\n  CC BY 3.0 https://creativecommons.org/licenses/by/3.0/ \nHuwag mag-atubiling gamitin ang video na ito sa iyong mga klase!\n\nWe use Google Translate service for localization. If you find some mistakes, please let us know.\n"
    },
    {
      "Lang": "fr",
      "Title": "Exercices de grammaire anglaise | Facile Australie ⭐️ #7 Am/Are/Is ?",
      "Description": "Apprenez la grammaire anglaise! Changer un mot dans une phrase.\n\n\n\n0:04 1:03 1:59 \nAre you angry?\nər ju ˈæŋgri?\nEs-tu fâché?\n\n0:17 1:15 2:11 \nAre your parents angry?\nər jʊr ˈpɛrənts ˈæŋgri?\nVos parents sont en colère?\n\n0:30 1:28 2:24 \nAre your parents tired?\nər jʊr ˈpɛrənts taɪərd?\nVos parents sont fatigués?\n\n0:41 1:38 2:34 \nAre you tired?\nər ju taɪərd?\nÊtes vous fatigué?\n\n0:51 1:47 2:43 \nAm I tired?\næm aɪ taɪərd?\nSuis-je fatigué?\n\n\n\nAux enseignants et aux écoles:\nCette vidéo est publiée sous licence Creative Commons.\n  CC BY 3.0 https://creativecommons.org/licenses/by/3.0/ \nN'hésitez pas à utiliser cette vidéo dans vos cours!\n\nNous utilisons le service Google Translate pour la localisation. Si vous trouvez des erreurs, veuillez nous en informer.\n"
    },
    {
      "Lang": "fy",
      "Title": "Ingelske oefeningen foar grammatika | Ienfâldich Austraalje ⭐️ #7 Am/Are/Is ?",
      "Description": "Learje Ingelske grammatika! Feroarje in wurd yn in sin.\n\n\n\n0:04 1:03 1:59 \nAre you angry?\nər ju ˈæŋgri?\nBisto lulk?\n\n0:17 1:15 2:11 \nAre your parents angry?\nər jʊr ˈpɛrənts ˈæŋgri?\nBinne jo âlders lilk?\n\n0:30 1:28 2:24 \nAre your parents tired?\nər jʊr ˈpɛrənts taɪərd?\nBinne jo âlden wurch?\n\n0:41 1:38 2:34 \nAre you tired?\nər ju taɪərd?\nBisto wurch?\n\n0:51 1:47 2:43 \nAm I tired?\næm aɪ taɪərd?\nBin ik wurch?\n\n\n\nOan dosinten en skoallen:\nDizze fideo wurdt publisearre ûnder Creative Commons License.\n  CC BY 3.0 https://creativecommons.org/licenses/by/3.0/ \nFiel jo frij om dizze fideo te brûken yn jo klassen!\n\nWy brûke Google Translate tsjinst foar lokalisaasje. As jo wat flaters fine, lit it ús dan witte.\n"
    },
    {
      "Lang": "gd",
      "Title": "Eacarsaichean gràmair Beurla | Gu sìmplidh Astràilia ⭐️ #7 Am/Are/Is ?",
      "Description": "Ionnsaich gràmar Beurla! Atharraich facal ann an seantans.\n\n\n\n0:04 1:03 1:59 \nAre you angry?\nər ju ˈæŋgri?\nA bheil thu feargach?\n\n0:17 1:15 2:11 \nAre your parents angry?\nər jʊr ˈpɛrənts ˈæŋgri?\nA bheil do phàrantan feargach?\n\n0:30 1:28 2:24 \nAre your parents tired?\nər jʊr ˈpɛrənts taɪərd?\nA bheil do phàrantan sgìth?\n\n0:41 1:38 2:34 \nAre you tired?\nər ju taɪərd?\nA bheil thu sgìth?\n\n0:51 1:47 2:43 \nAm I tired?\næm aɪ taɪərd?\nA bheil mi sgìth?\n\n\n\nDo thidsearan agus sgoiltean:\nTha a ’bhidio seo air fhoillseachadh fo Creative Commons License.\n  CC BY 3.0 https://creativecommons.org/licenses/by/3.0/ \nFaodaidh tu am bhidio seo a chleachdadh anns na clasaichean agad!\n\nBidh sinn a ’cleachdadh seirbheis Google Translate airson sgìreachadh. Ma lorgas tu cuid de mhearachdan, feuch an innis thu dhuinn.\n"
    },
    {
      "Lang": "gl",
      "Title": "Exercicios de gramática inglesa | Sinxelo Australia ⭐️ #7 Am/Are/Is ?",
      "Description": "Aprende gramática inglesa! Cambia unha palabra nunha frase.\n\n\n\n0:04 1:03 1:59 \nAre you angry?\nər ju ˈæŋgri?\nEstás enfadado?\n\n0:17 1:15 2:11 \nAre your parents angry?\nər jʊr ˈpɛrənts ˈæŋgri?\nOs teus pais están enfadados?\n\n0:30 1:28 2:24 \nAre your parents tired?\nər jʊr ˈpɛrənts taɪərd?\nEstán cansos os teus pais?\n\n0:41 1:38 2:34 \nAre you tired?\nər ju taɪərd?\nEstás canso?\n\n0:51 1:47 2:43 \nAm I tired?\næm aɪ taɪərd?\nEstou canso?\n\n\n\nPara profesores e colexios:\nEste vídeo está publicado baixo a licenza Creative Commons.\n  CC BY 3.0 https://creativecommons.org/licenses/by/3.0/ \nNon dubides en usar este vídeo nas túas clases.\n\nUsamos o servizo Google Translate para a súa localización. Se atopas algún erro, comunícanos.\n"
    },
    {
      "Lang": "gu",
      "Title": "અંગ્રેજી વ્યાકરણ વ્યાયામ | સરળ .સ્ટ્રેલિયા ⭐️ #7 Am/Are/Is ?",
      "Description": "અંગ્રેજી વ્યાકરણ શીખો! એક વાક્યમાં એક શબ્દ બદલો.\n\n\n\n0:04 1:03 1:59 \nAre you angry?\nər ju ˈæŋgri?\nતમે ગુસ્સે છો?\n\n0:17 1:15 2:11 \nAre your parents angry?\nər jʊr ˈpɛrənts ˈæŋgri?\nશું તમારા માતાપિતા ગુસ્સે છે?\n\n0:30 1:28 2:24 \nAre your parents tired?\nər jʊr ˈpɛrənts taɪərd?\nશું તમારા માતાપિતા થાકેલા છે?\n\n0:41 1:38 2:34 \nAre you tired?\nər ju taɪərd?\nતમે થાકી ગયા છો?\n\n0:51 1:47 2:43 \nAm I tired?\næm aɪ taɪərd?\nહું થાકી ગયો છું?\n\n\n\nશિક્ષકો અને શાળાઓને:\nઆ વિડિઓ ક્રિએટિવ કonsમન્સ લાઇસન્સ હેઠળ પ્રકાશિત છે.\n  CC BY 3.0 https://creativecommons.org/licenses/by/3.0/ \nતમારા વર્ગોમાં આ વિડિઓનો ઉપયોગ કરવા માટે મફત લાગે!\n\nઅમે સ્થાનિકીકરણ માટે Google ભાષાંતર સેવાનો ઉપયોગ કરીએ છીએ. જો તમને કેટલીક ભૂલો લાગે છે, તો કૃપા કરીને અમને જણાવો.\n"
    },
    {
      "Lang": "ha",
      "Title": "Darasi na ilimin nahawu na Turanci | Mai sauki Ostiraliya ⭐️ #7 Am/Are/Is ?",
      "Description": "Koyi ilimin nahawu Turanci! Canja kalma a cikin jumla.\n\n\n\n0:04 1:03 1:59 \nAre you angry?\nər ju ˈæŋgri?\nKana hushi?\n\n0:17 1:15 2:11 \nAre your parents angry?\nər jʊr ˈpɛrənts ˈæŋgri?\nIyayenka suna fushi?\n\n0:30 1:28 2:24 \nAre your parents tired?\nər jʊr ˈpɛrənts taɪərd?\nIyayenku sun gaji?\n\n0:41 1:38 2:34 \nAre you tired?\nər ju taɪərd?\nShin ya gaji?\n\n0:51 1:47 2:43 \nAm I tired?\næm aɪ taɪərd?\nNa gaji?\n\n\n\nGa malamai da makarantu:\nWannan bidiyon an buga shi a ƙarƙashin lasisin Creative Commons.\n  CC BY 3.0 https://creativecommons.org/licenses/by/3.0/ \nJin kyauta don amfani da wannan bidiyon a cikin azuzuwanku!\n\nMuna amfani da sabis na Google Fassara don fassarar. Idan ka sami wasu kurakurai, da fatan za a sanar da mu.\n"
    },
    {
      "Lang": "hi",
      "Title": "अंग्रेजी व्याकरण अभ्यास | सरल ऑस्ट्रेलिया ⭐️ #7 Am/Are/Is ?",
      "Description": "अंग्रेजी व्याकरण जानें! एक वाक्य में एक शब्द बदलें।\n\n\n\n0:04 1:03 1:59 \nAre you angry?\nər ju ˈæŋgri?\nनाराज हो क्या आप?\n\n0:17 1:15 2:11 \nAre your parents angry?\nər jʊr ˈpɛrənts ˈæŋgri?\nक्या आपके माता-पिता नाराज हैं?\n\n0:30 1:28 2:24 \nAre your parents tired?\nər jʊr ˈpɛrənts taɪərd?\nक्या आपके माता-पिता थक गए हैं?\n\n0:41 1:38 2:34 \nAre you tired?\nər ju taɪərd?\nक्या तुम थके हुए हो?\n\n0:51 1:47 2:43 \nAm I tired?\næm aɪ taɪərd?\nक्या मैं थक गया हूँ?\n\n\n\nशिक्षकों और स्कूलों के लिए:\nयह वीडियो क्रिएटिव कॉमन्स लाइसेंस के तहत प्रकाशित हुआ है।\n  CC BY 3.0 https://creativecommons.org/licenses/by/3.0/ \nअपनी कक्षाओं में इस वीडियो का उपयोग करने के लिए स्वतंत्र महसूस करें!\n\nहम स्थानीयकरण के लिए Google अनुवाद सेवा का उपयोग करते हैं। यदि आप कुछ गलतियाँ पाते हैं, तो कृपया हमें बताएँ।\n"
    },
    {
      "Lang": "hr",
      "Title": "Gramatičke vježbe engleskog jezika | Jednostavan Australija ⭐️ #7 Am/Are/Is ?",
      "Description": "Naučite englesku gramatiku! Promijenite riječ u rečenici.\n\n\n\n0:04 1:03 1:59 \nAre you angry?\nər ju ˈæŋgri?\nJesi li ljut?\n\n0:17 1:15 2:11 \nAre your parents angry?\nər jʊr ˈpɛrənts ˈæŋgri?\nJesu li tvoji roditelji bijesni?\n\n0:30 1:28 2:24 \nAre your parents tired?\nər jʊr ˈpɛrənts taɪərd?\nJesu li tvoji roditelji umorni?\n\n0:41 1:38 2:34 \nAre you tired?\nər ju taɪərd?\nJesi li umoran?\n\n0:51 1:47 2:43 \nAm I tired?\næm aɪ taɪərd?\nJesam li umorna?\n\n\n\nNastavnicima i školama:\nOvaj videozapis objavljen je pod licencom Creative Commons.\n  CC BY 3.0 https://creativecommons.org/licenses/by/3.0/ \nSlobodno upotrijebite ovaj videozapis u svojim predavanjima!\n\nZa lokalizaciju koristimo uslugu Google Translate. Ako pronađete neke pogreške, javite nam se.\n"
    },
    {
      "Lang": "hu",
      "Title": "Angol nyelvtan gyakorlatok | Egyszerű Ausztrália ⭐️ #7 Am/Are/Is ?",
      "Description": "Tanulj angol nyelvtant! Változtasson egy szót egy mondatban.\n\n\n\n0:04 1:03 1:59 \nAre you angry?\nər ju ˈæŋgri?\nMérges vagy?\n\n0:17 1:15 2:11 \nAre your parents angry?\nər jʊr ˈpɛrənts ˈæŋgri?\nDühösek a szüleid?\n\n0:30 1:28 2:24 \nAre your parents tired?\nər jʊr ˈpɛrənts taɪərd?\nFáradtak a szüleid?\n\n0:41 1:38 2:34 \nAre you tired?\nər ju taɪərd?\nFáradt vagy?\n\n0:51 1:47 2:43 \nAm I tired?\næm aɪ taɪərd?\nFáradt vagyok?\n\n\n\nTanároknak és iskoláknak:\nEz a videó a Creative Commons License alatt jelenik meg.\n  CC BY 3.0 https://creativecommons.org/licenses/by/3.0/ \nNyugodtan használja ezt a videót az osztályokban!\n\nA lokalizációhoz a Google Translate szolgáltatást használjuk. Ha hibát talál, kérjük, ossza meg velünk.\n"
    },
    {
      "Lang": "hy",
      "Title": "Անգլերենի քերականական վարժություններ | Պարզ Ավստրալիա ⭐️ #7 Am/Are/Is ?",
      "Description": "Իմացեք անգլերեն քերականությունը: Մի նախադասությամբ մի բառ փոխեք:\n\n\n\n0:04 1:03 1:59 \nAre you angry?\nər ju ˈæŋgri?\nԶայրացած ես?\n\n0:17 1:15 2:11 \nAre your parents angry?\nər jʊr ˈpɛrənts ˈæŋgri?\nԾնողներդ բարկացել են:\n\n0:30 1:28 2:24 \nAre your parents tired?\nər jʊr ˈpɛrənts taɪərd?\nԾնողներդ հոգնել են:\n\n0:41 1:38 2:34 \nAre you tired?\nər ju taɪərd?\nՀոգնած ես?\n\n0:51 1:47 2:43 \nAm I tired?\næm aɪ taɪərd?\nՀոգնել եմ:\n\n\n\nՈւսուցիչներին և դպրոցներին.\nԱյս տեսանյութը հրապարակված է Creative Commons արտոնագրի ներքո:\n  CC BY 3.0 https://creativecommons.org/licenses/by/3.0/ \nԱզատորեն օգտվեք այս տեսանյութից ձեր դասերից:\n\nՄենք օգտագործում ենք Google Translate ծառայությունը տեղայնացման համար: Եթե որոշ սխալներ եք գտնում, խնդրում ենք տեղեկացնել մեզ:\n"
    },
    {
      "Lang": "id",
      "Title": "Latihan tata bahasa Inggris | Sederhana Australia ⭐️ #7 Am/Are/Is ?",
      "Description": "Belajar tata bahasa Inggris! Ubah kata dalam kalimat.\n\n\n\n0:04 1:03 1:59 \nAre you angry?\nər ju ˈæŋgri?\nApakah kamu marah?\n\n0:17 1:15 2:11 \nAre your parents angry?\nər jʊr ˈpɛrənts ˈæŋgri?\nApakah orang tuamu marah?\n\n0:30 1:28 2:24 \nAre your parents tired?\nər jʊr ˈpɛrənts taɪərd?\nApakah orang tuamu lelah?\n\n0:41 1:38 2:34 \nAre you tired?\nər ju taɪərd?\nApakah kamu kelelahan?\n\n0:51 1:47 2:43 \nAm I tired?\næm aɪ taɪərd?\nApakah saya lelah?\n\n\n\nKepada guru dan sekolah:\nVideo ini diterbitkan di bawah Lisensi Creative Commons.\n  CC BY 3.0 https://creativecommons.org/licenses/by/3.0/ \nJangan ragu untuk menggunakan video ini di kelas Anda!\n\nKami menggunakan layanan Google Terjemahan untuk pelokalan. Jika Anda menemukan beberapa kesalahan, beri tahu kami.\n"
    },
    {
      "Lang": "ig",
      "Title": "Ọmụmụ asụsụ ụtọ asụsụ Bekee | Dị Mfe Australia ⭐️ #7 Am/Are/Is ?",
      "Description": "Muta asusu bekee! Gbanwee okwu na ahịrịokwu.\n\n\n\n0:04 1:03 1:59 \nAre you angry?\nər ju ˈæŋgri?\nIwe a Na-ewe gị?\n\n0:17 1:15 2:11 \nAre your parents angry?\nər jʊr ˈpɛrənts ˈæŋgri?\nIwe were ndị mụrụ gị?\n\n0:30 1:28 2:24 \nAre your parents tired?\nər jʊr ˈpɛrənts taɪərd?\nIke gwụrụ ndị mụrụ gị?\n\n0:41 1:38 2:34 \nAre you tired?\nər ju taɪərd?\nIke agwụla gị?\n\n0:51 1:47 2:43 \nAm I tired?\næm aɪ taɪərd?\nIke gwụrụ m?\n\n\n\nMaka ndị nkuzi na ụlọ akwụkwọ:\nEdere vidiyo a n'okpuru ikikere Creative Commons.\n  CC BY 3.0 https://creativecommons.org/licenses/by/3.0/ \nNwere onwe gị iji vidiyo a na klaasị gị!\n\nAnyị na-eji ọrụ ntụgharị Google emegharị. Ọ bụrụ n’ịhụ ụfọdụ mmejọ, biko mee ka anyị mara.\n"
    },
    {
      "Lang": "is",
      "Title": "Enskar málfræðiæfingar | Einfalt Ástralía ⭐️ #7 Am/Are/Is ?",
      "Description": "Lærðu ensku málfræði! Skiptu um orð í setningu.\n\n\n\n0:04 1:03 1:59 \nAre you angry?\nər ju ˈæŋgri?\nErtu reiður?\n\n0:17 1:15 2:11 \nAre your parents angry?\nər jʊr ˈpɛrənts ˈæŋgri?\nEru foreldrar þínir reiðir?\n\n0:30 1:28 2:24 \nAre your parents tired?\nər jʊr ˈpɛrənts taɪərd?\nEru foreldrar þínir þreyttir?\n\n0:41 1:38 2:34 \nAre you tired?\nər ju taɪərd?\nErtu þreyttur?\n\n0:51 1:47 2:43 \nAm I tired?\næm aɪ taɪərd?\nEr ég þreyttur?\n\n\n\nTil kennara og skóla:\nÞetta myndband er birt undir Creative Commons leyfi.\n  CC BY 3.0 https://creativecommons.org/licenses/by/3.0/ \nEkki hika við að nota þetta myndband í bekkjum þínum!\n\nVið notum Google Translate þjónustu til að staðsetja. Láttu okkur vita ef þú finnur fyrir einhverjum mistökum.\n"
    },
    {
      "Lang": "it",
      "Title": "Esercizi di grammatica inglese | Semplice Australia ⭐️ #7 Am/Are/Is ?",
      "Description": "Impara la grammatica inglese! Cambia una parola in una frase.\n\n\n\n0:04 1:03 1:59 \nAre you angry?\nər ju ˈæŋgri?\nSei arrabbiato?\n\n0:17 1:15 2:11 \nAre your parents angry?\nər jʊr ˈpɛrənts ˈæŋgri?\nI tuoi genitori sono arrabbiati?\n\n0:30 1:28 2:24 \nAre your parents tired?\nər jʊr ˈpɛrənts taɪərd?\nI tuoi genitori sono stanchi?\n\n0:41 1:38 2:34 \nAre you tired?\nər ju taɪərd?\nSei stanco?\n\n0:51 1:47 2:43 \nAm I tired?\næm aɪ taɪərd?\nSono stanco?\n\n\n\nPer insegnanti e scuole:\nQuesto video è pubblicato sotto la licenza Creative Commons.\n  CC BY 3.0 https://creativecommons.org/licenses/by/3.0/ \nSentiti libero di usare questo video nelle tue lezioni!\n\nUtilizziamo il servizio Google Translate per la localizzazione. Se trovi qualche errore, faccelo sapere.\n"
    },
    {
      "Lang": "iw",
      "Title": "תרגילי דקדוק באנגלית | פשוט אוסטרליה ⭐️ #7 Am/Are/Is ?",
      "Description": "למד דקדוק באנגלית! שנה מילה במשפט.\n\n\n\n0:04 1:03 1:59 \nAre you angry?\nər ju ˈæŋgri?\nאתה עצבני?\n\n0:17 1:15 2:11 \nAre your parents angry?\nər jʊr ˈpɛrənts ˈæŋgri?\nההורים שלך כועסים?\n\n0:30 1:28 2:24 \nAre your parents tired?\nər jʊr ˈpɛrənts taɪərd?\nההורים שלך עייפים?\n\n0:41 1:38 2:34 \nAre you tired?\nər ju taɪərd?\nהאם אתה עייף?\n\n0:51 1:47 2:43 \nAm I tired?\næm aɪ taɪərd?\nהאם אני עייף?\n\n\n\nלמורים ובתי ספר:\nסרטון זה מתפרסם תחת רישיון Creative Commons.\n  CC BY 3.0 https://creativecommons.org/licenses/by/3.0/ \nאל תהסס להשתמש בסרטון זה בשיעורים שלך!\n\nאנו משתמשים בשירות Google Translate לצורך לוקליזציה. אם אתה מוצא טעויות, אנא הודע לנו על כך.\n"
    },
    {
      "Lang": "ja",
      "Title": "英文法練習 | シンプル オーストラリア ⭐️ #7 Am/Are/Is ?",
      "Description": "英語の文法を学びましょう！ 文中の単語を変更します。\n\n\n\n0:04 1:03 1:59 \nAre you angry?\nər ju ˈæŋgri?\nあなたは怒っていますか？\n\n0:17 1:15 2:11 \nAre your parents angry?\nər jʊr ˈpɛrənts ˈæŋgri?\nあなたの両親は怒っていますか？\n\n0:30 1:28 2:24 \nAre your parents tired?\nər jʊr ˈpɛrənts taɪərd?\nあなたの両親は疲れていますか？\n\n0:41 1:38 2:34 \nAre you tired?\nər ju taɪərd?\n疲れましたか？\n\n0:51 1:47 2:43 \nAm I tired?\næm aɪ taɪərd?\n疲れた？\n\n\n\n先生と学校へ：\nこのビデオは、クリエイティブコモンズライセンスの下で公開されています。\n  CC BY 3.0 https://creativecommons.org/licenses/by/3.0/ \nこのビデオをクラスで自由に使用してください！\n\nローカライズにはGoogle翻訳サービスを使用しています。間違いを見つけた場合はお知らせください。\n"
    },
    {
      "Lang": "jv",
      "Title": "Latihan grammar Inggris | Prasaja Australia ⭐️ #7 Am/Are/Is ?",
      "Description": "Sinau tata basa Inggris! Ngganti tembung sajrone ukara.\n\n\n\n0:04 1:03 1:59 \nAre you angry?\nər ju ˈæŋgri?\nSampeyan nesu?\n\n0:17 1:15 2:11 \nAre your parents angry?\nər jʊr ˈpɛrənts ˈæŋgri?\nApa wong tuwane?\n\n0:30 1:28 2:24 \nAre your parents tired?\nər jʊr ˈpɛrənts taɪərd?\nApa wong tuwane dadi kesel?\n\n0:41 1:38 2:34 \nAre you tired?\nər ju taɪərd?\nBosen banget?\n\n0:51 1:47 2:43 \nAm I tired?\næm aɪ taɪərd?\nAku kesel?\n\n\n\nTumrap guru lan sekolah:\nVideo iki diterbitake ing lisensi Creative Commons.\n  CC BY 3.0 https://creativecommons.org/licenses/by/3.0/ \nOjo nggunakake video iki ing kelas sampeyan!\n\nKita nggunakake layanan Google Translate kanggo lokalisasi. Yen sampeyan nemokake sawetara kesalahan, kabari.\n"
    },
    {
      "Lang": "ka",
      "Title": "ინგლისური გრამატიკის სავარჯიშოები | მარტივი ავსტრალია ⭐️ #7 Am/Are/Is ?",
      "Description": "შეიტყვეთ ინგლისური ენის გრამატიკა! წინადადებაში შეცვალეთ სიტყვა.\n\n\n\n0:04 1:03 1:59 \nAre you angry?\nər ju ˈæŋgri?\nᲒაბრაზებული ხარ?\n\n0:17 1:15 2:11 \nAre your parents angry?\nər jʊr ˈpɛrənts ˈæŋgri?\nმშობლები გაბრაზებულები არიან?\n\n0:30 1:28 2:24 \nAre your parents tired?\nər jʊr ˈpɛrənts taɪərd?\nმშობლები დაიღალა?\n\n0:41 1:38 2:34 \nAre you tired?\nər ju taɪərd?\nᲓაღლილი ხარ?\n\n0:51 1:47 2:43 \nAm I tired?\næm aɪ taɪərd?\nდაღლილი ვარ?\n\n\n\nმასწავლებლებსა და სკოლებს:\nეს ვიდეო გამოქვეყნებულია Creative Commons- ის ლიცენზიით.\n  CC BY 3.0 https://creativecommons.org/licenses/by/3.0/ \nშეგიძლიათ გამოიყენოთ ეს ვიდეო თქვენს კლასებში!\n\nჩვენ ვიყენებთ Google Translate სერვისს ლოკალიზაციისთვის. თუ შეცდომებს იპოვნით, გთხოვთ, შეგვატყობინოთ.\n"
    },
    {
      "Lang": "kk",
      "Title": "Ағылшын грамматикалық жаттығулары | Қарапайым Австралия ⭐️ #7 Am/Are/Is ?",
      "Description": "Ағылшын грамматикасын үйрен! Сөйлемдегі сөзді өзгертіңіз.\n\n\n\n0:04 1:03 1:59 \nAre you angry?\nər ju ˈæŋgri?\nСен ашулысың ба?\n\n0:17 1:15 2:11 \nAre your parents angry?\nər jʊr ˈpɛrənts ˈæŋgri?\nАта-анаң ашуланды ма?\n\n0:30 1:28 2:24 \nAre your parents tired?\nər jʊr ˈpɛrənts taɪərd?\nАта-анаң шаршады ма?\n\n0:41 1:38 2:34 \nAre you tired?\nər ju taɪərd?\nСен шаршадың ба?\n\n0:51 1:47 2:43 \nAm I tired?\næm aɪ taɪərd?\nМен шаршадым ба?\n\n\n\nОқытушылар мен мектептерге:\nБұл бейне Creative Commons лицензиясы бойынша жарияланған.\n  CC BY 3.0 https://creativecommons.org/licenses/by/3.0/ \nБұл бейнені өз сабақтарыңызда қолдануға болады!\n\nGoogle Translate қызметін локализациялау үшін қолданамыз. Егер сіз қате тапсаңыз, бізге хабарлаңыз.\n"
    },
    {
      "Lang": "km",
      "Title": "លំហាត់វេយ្យាករណ៍អង់គ្លេស | សាមញ្ញ អូស្ត្រាលី ⭐️ #7 Am/Are/Is ?",
      "Description": "រៀនវេយ្យាករណ៍អង់គ្លេស! ផ្លាស់ប្តូរពាក្យនៅក្នុងប្រយោគមួយ។\n\n\n\n0:04 1:03 1:59 \nAre you angry?\nər ju ˈæŋgri?\nតើ​អ្នក​ខឹង​ឬ?\n\n0:17 1:15 2:11 \nAre your parents angry?\nər jʊr ˈpɛrənts ˈæŋgri?\nតើឪពុកម្តាយរបស់អ្នកខឹងទេ?\n\n0:30 1:28 2:24 \nAre your parents tired?\nər jʊr ˈpɛrənts taɪərd?\nតើឪពុកម្តាយអ្នកធុញទ្រាន់ទេ?\n\n0:41 1:38 2:34 \nAre you tired?\nər ju taɪərd?\nតើ​អ្នក​នឿយហត់​ទេ?\n\n0:51 1:47 2:43 \nAm I tired?\næm aɪ taɪərd?\nតើខ្ញុំធុញទ្រាន់ទេ?\n\n\n\nជូនដល់គ្រូនិងសាលា៖\nវីដេអូនេះត្រូវបានផ្សព្វផ្សាយក្រោមអាជ្ញាប័ណ្ណច្នៃប្រឌិត។\n  CC BY 3.0 https://creativecommons.org/licenses/by/3.0/ \nសូមប្រើវីដេអូនេះនៅក្នុងថ្នាក់របស់អ្នកដោយឥតគិតថ្លៃ!\n\nយើងប្រើសេវាកម្មបកប្រែហ្គូហ្គលសម្រាប់ការធ្វើមូលដ្ឋានីយកម្ម។ ប្រសិនបើអ្នករកឃើញកំហុសខ្លះសូមប្រាប់ឱ្យយើងដឹង។\n"
    },
    {
      "Lang": "kn",
      "Title": "ಇಂಗ್ಲಿಷ್ ವ್ಯಾಕರಣ ವ್ಯಾಯಾಮ | ಸರಳ ಆಸ್ಟ್ರೇಲಿಯಾ ⭐️ #7 Am/Are/Is ?",
      "Description": "ಇಂಗ್ಲಿಷ್ ವ್ಯಾಕರಣ ಕಲಿಯಿರಿ! ಒಂದು ವಾಕ್ಯದಲ್ಲಿ ಪದವನ್ನು ಬದಲಾಯಿಸಿ.\n\n\n\n0:04 1:03 1:59 \nAre you angry?\nər ju ˈæŋgri?\nನಿನಗೆ ಸಿಟ್ಟು ಬಂದಿದೆಯೇ?\n\n0:17 1:15 2:11 \nAre your parents angry?\nər jʊr ˈpɛrənts ˈæŋgri?\nನಿಮ್ಮ ಪೋಷಕರು ಕೋಪಗೊಂಡಿದ್ದಾರೆಯೇ?\n\n0:30 1:28 2:24 \nAre your parents tired?\nər jʊr ˈpɛrənts taɪərd?\nನಿಮ್ಮ ಪೋಷಕರು ದಣಿದಿದ್ದಾರೆಯೇ?\n\n0:41 1:38 2:34 \nAre you tired?\nər ju taɪərd?\nನೀವು ದಣಿದಿದ್ದೀರಾ?\n\n0:51 1:47 2:43 \nAm I tired?\næm aɪ taɪərd?\nನಾನು ದಣಿದಿದ್ದೇನೆ?\n\n\n\nಶಿಕ್ಷಕರು ಮತ್ತು ಶಾಲೆಗಳಿಗೆ:\nಈ ವೀಡಿಯೊವನ್ನು ಕ್ರಿಯೇಟಿವ್ ಕಾಮನ್ಸ್ ಪರವಾನಗಿ ಅಡಿಯಲ್ಲಿ ಪ್ರಕಟಿಸಲಾಗಿದೆ.\n  CC BY 3.0 https://creativecommons.org/licenses/by/3.0/ \nನಿಮ್ಮ ತರಗತಿಗಳಲ್ಲಿ ಈ ವೀಡಿಯೊವನ್ನು ಬಳಸಲು ಹಿಂಜರಿಯಬೇಡಿ!\n\nಸ್ಥಳೀಕರಣಕ್ಕಾಗಿ ನಾವು Google ಅನುವಾದ ಸೇವೆಯನ್ನು ಬಳಸುತ್ತೇವೆ. ನೀವು ಕೆಲವು ತಪ್ಪುಗಳನ್ನು ಕಂಡುಕೊಂಡರೆ, ದಯವಿಟ್ಟು ನಮಗೆ ತಿಳಿಸಿ.\n"
    },
    {
      "Lang": "ko",
      "Title": "영어 문법 연습 | 단순한 호주 ⭐️ #7 Am/Are/Is ?",
      "Description": "영어 문법 배우기! 문장에서 단어를 변경하십시오.\n\n\n\n0:04 1:03 1:59 \nAre you angry?\nər ju ˈæŋgri?\n화났어?\n\n0:17 1:15 2:11 \nAre your parents angry?\nər jʊr ˈpɛrənts ˈæŋgri?\n부모님이 화내십니까?\n\n0:30 1:28 2:24 \nAre your parents tired?\nər jʊr ˈpɛrənts taɪərd?\n부모님이 피곤 하신가요?\n\n0:41 1:38 2:34 \nAre you tired?\nər ju taɪərd?\n피곤하니?\n\n0:51 1:47 2:43 \nAm I tired?\næm aɪ taɪərd?\n피곤 해요?\n\n\n\n교사와 학교 :\n이 비디오는 Creative Commons License에 따라 게시됩니다.\n  CC BY 3.0 https://creativecommons.org/licenses/by/3.0/ \n이 비디오를 수업에 자유롭게 사용하십시오!\n\n현지화를 위해 Google 번역 서비스를 사용합니다. 실수가 있으면 알려주세요.\n"
    },
    {
      "Lang": "ku",
      "Title": "Pratîkên rêzimanê Englishngilîzî | Asan Awistrelya ⭐️ #7 Am/Are/Is ?",
      "Description": "Gramera Englishngilîzî fêr bibin! Di hevokan de peyvek diguhezin.\n\n\n\n0:04 1:03 1:59 \nAre you angry?\nər ju ˈæŋgri?\nHûn hêrs in?\n\n0:17 1:15 2:11 \nAre your parents angry?\nər jʊr ˈpɛrənts ˈæŋgri?\nDê û bavê te hêrs in?\n\n0:30 1:28 2:24 \nAre your parents tired?\nər jʊr ˈpɛrənts taɪərd?\nDê û bav te teng in?\n\n0:41 1:38 2:34 \nAre you tired?\nər ju taɪərd?\nTu westiyayî yî?\n\n0:51 1:47 2:43 \nAm I tired?\næm aɪ taɪərd?\nMa ez westiyayî me?\n\n\n\nJi mamoste û dibistanan re:\nEv vîdyoyê di bin lîsansa Creative Commons-ê de hatî weşandin.\n  CC BY 3.0 https://creativecommons.org/licenses/by/3.0/ \nHêsan e ku hûn vê vîdyoyê di sinifên xwe de bikar bînin!\n\nEm ji bo herêmbûnê karûbarê Google Translate kar dikin. Heke hûn hin xeletiyan bibînin, ji kerema xwe ji me re agahdar bikin.\n"
    },
    {
      "Lang": "ky",
      "Title": "Англис тилинин грамматикасы боюнча көнүгүүлөр | жөнөкөй Австралия ⭐️ #7 Am/Are/Is ?",
      "Description": "Үйрөнүү Англис тилинин грамматикасы! Сүйлөмдөгү Сөздү өзгөртүү.\n\n\n\n0:04 1:03 1:59 \nAre you angry?\nər ju ˈæŋgri?\nСен ачууланып жатат?\n\n0:17 1:15 2:11 \nAre your parents angry?\nər jʊr ˈpɛrənts ˈæŋgri?\nСенин ата-ачууланышат?\n\n0:30 1:28 2:24 \nAre your parents tired?\nər jʊr ˈpɛrənts taɪərd?\nСенин ата-өкүнөсүзбү?\n\n0:41 1:38 2:34 \nAre you tired?\nər ju taɪərd?\nСен чарчадыңбы?\n\n0:51 1:47 2:43 \nAm I tired?\næm aɪ taɪərd?\nМен чарчадым?\n\n\n\nмугалимдер жана мектептер үчүн:\nБул көргөзмө Creative Commons лиссиэнсийэ усулуобуйатынан жарыяланат.\n  CC BY 3.0 https://creativecommons.org/licenses/by/3.0/ \nСиздин класстары колдонсо болот!\n\nБиз Google локалдаштыруу үчүн Котормо кызматын пайдаланышат. Эгер кээ бир ката болсо, бизге айтып койуу.\n"
    },
    {
      "Lang": "lb",
      "Title": "Englesch Grammatikübungen | Einfach Australien ⭐️ #7 Am/Are/Is ?",
      "Description": "Léiert Englesch Grammatik! Ännert e Wuert an engem Saz.\n\n\n\n0:04 1:03 1:59 \nAre you angry?\nər ju ˈæŋgri?\nBass de béis?\n\n0:17 1:15 2:11 \nAre your parents angry?\nər jʊr ˈpɛrənts ˈæŋgri?\nSinn Är Elteren rosen?\n\n0:30 1:28 2:24 \nAre your parents tired?\nər jʊr ˈpɛrənts taɪərd?\nSinn Är Elteren midd?\n\n0:41 1:38 2:34 \nAre you tired?\nər ju taɪərd?\nBass du midd?\n\n0:51 1:47 2:43 \nAm I tired?\næm aɪ taɪərd?\nSinn ech midd?\n\n\n\nUn de Schoulmeeschteren an d'Schoulen:\nDëse Video ass ënner der Creative Commons Lizenz verëffentlecht.\n  CC BY 3.0 https://creativecommons.org/licenses/by/3.0/ \nFillt gratis dësen Video zu Ären Klassen ze benotzen!\n\nMir benotzen den Google Translate Service fir d'Lokalisatioun. Wann Dir e puer Feeler fannt, da sot eis w.e.g.\n"
    },
    {
      "Lang": "lo",
      "Title": "ບົດເຝິກຫັດໄວຍາກອນພາສາອັງກິດ | ງ່າຍດາຍ ອົດສະຕາລີ ⭐️ #7 Am/Are/Is ?",
      "Description": "ຮຽນຮູ້ຫລັກໄວຍາກອນພາສາອັງກິດ! ປ່ຽນ ຄຳ ສັບໃນປະໂຫຍກ.\n\n\n\n0:04 1:03 1:59 \nAre you angry?\nər ju ˈæŋgri?\nເຈົ້າ​ໃຈ​ຮ້າຍ​ບໍ?\n\n0:17 1:15 2:11 \nAre your parents angry?\nər jʊr ˈpɛrənts ˈæŋgri?\nພໍ່ແມ່ໃຈຮ້າຍບໍ?\n\n0:30 1:28 2:24 \nAre your parents tired?\nər jʊr ˈpɛrənts taɪərd?\nພໍ່ແມ່ເຈົ້າເມື່ອຍບໍ?\n\n0:41 1:38 2:34 \nAre you tired?\nər ju taɪərd?\nເຈົ້າ​ເມື່ອຍ​ບໍ?\n\n0:51 1:47 2:43 \nAm I tired?\næm aɪ taɪərd?\nຂ້ອຍເມື່ອຍບໍ?\n\n\n\nເຖິງຄູອາຈານແລະໂຮງຮຽນ:\nວິດີໂອນີ້ລົງພາຍໃຕ້ໃບອະນຸຍາດສ້າງສັນ.\n  CC BY 3.0 https://creativecommons.org/licenses/by/3.0/ \nຮູ້ສຶກວ່າບໍ່ເສຍຄ່າທີ່ຈະໃຊ້ວິດີໂອນີ້ໃນຫ້ອງຮຽນຂອງທ່ານ!\n\nພວກເຮົາໃຊ້ບໍລິການ Google Translate ສຳ ລັບການແປພາສາທ້ອງຖິ່ນ. ຖ້າທ່ານພົບຂໍ້ຜິດພາດບາງຢ່າງ, ກະລຸນາແຈ້ງພວກເຮົາ.\n"
    },
    {
      "Lang": "lt",
      "Title": "Anglų kalbos gramatikos pratimai | Paprasta Australija ⭐️ #7 Am/Are/Is ?",
      "Description": "Išmokite anglų kalbos gramatiką! Pakeiskite žodį sakinyje.\n\n\n\n0:04 1:03 1:59 \nAre you angry?\nər ju ˈæŋgri?\nAr tu piktas?\n\n0:17 1:15 2:11 \nAre your parents angry?\nər jʊr ˈpɛrənts ˈæŋgri?\nAr tavo tėvai pyksta?\n\n0:30 1:28 2:24 \nAre your parents tired?\nər jʊr ˈpɛrənts taɪərd?\nAr tavo tėvai pavargę?\n\n0:41 1:38 2:34 \nAre you tired?\nər ju taɪərd?\nAr tu pavargęs?\n\n0:51 1:47 2:43 \nAm I tired?\næm aɪ taɪərd?\nAr aš pavargęs?\n\n\n\nMokytojams ir mokykloms:\nŠis vaizdo įrašas paskelbtas naudojant „Creative Commons“ licenciją.\n  CC BY 3.0 https://creativecommons.org/licenses/by/3.0/ \nNesivaržykite naudotis šiuo vaizdo įrašu savo klasėse!\n\nLokalizavimui naudojame „Google Translate“ paslaugą. Jei radote klaidų, praneškite mums.\n"
    },
    {
      "Lang": "lv",
      "Title": "Angļu valodas gramatikas vingrinājumi | Vienkārši Austrālija ⭐️ #7 Am/Are/Is ?",
      "Description": "Mācieties angļu valodas gramatiku! Mainiet vārdu teikumā.\n\n\n\n0:04 1:03 1:59 \nAre you angry?\nər ju ˈæŋgri?\nVai tu esi dusmīgs?\n\n0:17 1:15 2:11 \nAre your parents angry?\nər jʊr ˈpɛrənts ˈæŋgri?\nVai jūsu vecāki ir dusmīgi?\n\n0:30 1:28 2:24 \nAre your parents tired?\nər jʊr ˈpɛrənts taɪərd?\nVai jūsu vecāki ir noguruši?\n\n0:41 1:38 2:34 \nAre you tired?\nər ju taɪərd?\nVai tu esi noguris?\n\n0:51 1:47 2:43 \nAm I tired?\næm aɪ taɪərd?\nVai esmu noguris?\n\n\n\nSkolotājiem un skolām:\nŠis video ir publicēts saskaņā ar Creative Commons licenci.\n  CC BY 3.0 https://creativecommons.org/licenses/by/3.0/ \nJūtieties brīvi izmantot šo video savās nodarbībās!\n\nLokalizācijai mēs izmantojam Google Translate pakalpojumu. Ja atrodat dažas kļūdas, lūdzu, paziņojiet mums.\n"
    },
    {
      "Lang": "mg",
      "Title": "Fanatanjahantena anglisy | Simple Aostralia ⭐️ #7 Am/Are/Is ?",
      "Description": "Ianaro ny fitsipi-pitenenana anglisy! Manova teny amin'ny fehezanteny iray.\n\n\n\n0:04 1:03 1:59 \nAre you angry?\nər ju ˈæŋgri?\nTezitra ve ianao?\n\n0:17 1:15 2:11 \nAre your parents angry?\nər jʊr ˈpɛrənts ˈæŋgri?\nTezitra ve ny ray aman-dreninao?\n\n0:30 1:28 2:24 \nAre your parents tired?\nər jʊr ˈpɛrənts taɪərd?\nReraka ve ny ray aman-dreninao?\n\n0:41 1:38 2:34 \nAre you tired?\nər ju taɪərd?\nReraka ve ianao?\n\n0:51 1:47 2:43 \nAm I tired?\næm aɪ taɪərd?\nReraka ve aho?\n\n\n\nHo an'ireo mpampianatra sy sekoly:\nIty horonantsary ity dia navoaka eo ambanin'ny lisansa Creative Commons.\n  CC BY 3.0 https://creativecommons.org/licenses/by/3.0/ \nAza misalasala mampiasa an'io horonantsary io amin'ny kilasinao!\n\nMampiasa ny serivisy Google Translate izahay amin'ny fananganana toerana. Raha mahita hadisoana vitsivitsy ianao dia mba ampahafantaro anay.\n"
    },
    {
      "Lang": "mi",
      "Title": "Mahi whakangungu Ingarihi | He ngawari Ahitereiria ⭐️ #7 Am/Are/Is ?",
      "Description": "Akohia te paanui Ingarihi! Hurihia he kupu ki tetahi rerenga rerenga.\n\n\n\n0:04 1:03 1:59 \nAre you angry?\nər ju ˈæŋgri?\nKei te riri koe?\n\n0:17 1:15 2:11 \nAre your parents angry?\nər jʊr ˈpɛrənts ˈæŋgri?\nKei te riri mai o maatua?\n\n0:30 1:28 2:24 \nAre your parents tired?\nər jʊr ˈpɛrənts taɪərd?\nE hoha o koutou matua?\n\n0:41 1:38 2:34 \nAre you tired?\nər ju taɪərd?\nKei te ngenge koe?\n\n0:51 1:47 2:43 \nAm I tired?\næm aɪ taɪərd?\nHe hoha ahau?\n\n\n\nKi nga kaiako me nga kura:\nKei te whakaputaina tenei ataata i raro i te Raihana Hoahoatanga.\n  CC BY 3.0 https://creativecommons.org/licenses/by/3.0/ \nKia kore e pai ki te whakamahi i tenei ataata i roto i o akomanga!\n\nKa whakamahia e matou he whakamaoritanga a Google mo te whakangao. Mena ka kitea e koe etahi he, tena koa kia mohio.\n"
    },
    {
      "Lang": "mk",
      "Title": "Вежби за граматика на англиски јазик | Едноставно Австралија ⭐️ #7 Am/Are/Is ?",
      "Description": "Дознајте англиска граматика! Променете збор во реченица.\n\n\n\n0:04 1:03 1:59 \nAre you angry?\nər ju ˈæŋgri?\nДали си лут?\n\n0:17 1:15 2:11 \nAre your parents angry?\nər jʊr ˈpɛrənts ˈæŋgri?\nДали родителите ви се лути?\n\n0:30 1:28 2:24 \nAre your parents tired?\nər jʊr ˈpɛrənts taɪərd?\nДали родителите ви се уморни?\n\n0:41 1:38 2:34 \nAre you tired?\nər ju taɪərd?\nДали си уморен?\n\n0:51 1:47 2:43 \nAm I tired?\næm aɪ taɪərd?\nУморен сум?\n\n\n\nДо наставниците и училиштата:\nОва видео е објавено под лиценца Криејтив комонс.\n  CC BY 3.0 https://creativecommons.org/licenses/by/3.0/ \nСлободно можете да го користите ова видео во вашите часови!\n\nНие користиме услуга Google Translate за локализација. Ако најдете некои грешки, ве молиме кажете ни.\n"
    },
    {
      "Lang": "ml",
      "Title": "ഇംഗ്ലീഷ് വ്യാകരണ വ്യായാമങ്ങൾ | ലളിതം ഓസ്‌ട്രേലിയ ⭐️ #7 Am/Are/Is ?",
      "Description": "ഇംഗ്ലീഷ് വ്യാകരണം പഠിക്കൂ! ഒരു വാക്യത്തിൽ ഒരു വാക്ക് മാറ്റുക.\n\n\n\n0:04 1:03 1:59 \nAre you angry?\nər ju ˈæŋgri?\nനീ ദേഷ്യത്തിലാണോ?\n\n0:17 1:15 2:11 \nAre your parents angry?\nər jʊr ˈpɛrənts ˈæŋgri?\nനിങ്ങളുടെ മാതാപിതാക്കൾക്ക് ദേഷ്യമുണ്ടോ?\n\n0:30 1:28 2:24 \nAre your parents tired?\nər jʊr ˈpɛrənts taɪərd?\nനിങ്ങളുടെ മാതാപിതാക്കൾ ക്ഷീണിതരാണോ?\n\n0:41 1:38 2:34 \nAre you tired?\nər ju taɪərd?\nനിങ്ങൾ ക്ഷീണിതനാണോ?\n\n0:51 1:47 2:43 \nAm I tired?\næm aɪ taɪərd?\nഞാൻ ക്ഷീണിതനാണോ?\n\n\n\nഅധ്യാപകർക്കും സ്കൂളുകൾക്കും:\nക്രിയേറ്റീവ് കോമൺസ് ലൈസൻസിന് കീഴിൽ ഈ വീഡിയോ പ്രസിദ്ധീകരിച്ചു.\n  CC BY 3.0 https://creativecommons.org/licenses/by/3.0/ \nനിങ്ങളുടെ ക്ലാസുകളിൽ ഈ വീഡിയോ ഉപയോഗിക്കാൻ മടിക്കേണ്ടതില്ല!\n\nപ്രാദേശികവൽക്കരണത്തിനായി ഞങ്ങൾ Google വിവർത്തന സേവനം ഉപയോഗിക്കുന്നു. നിങ്ങൾ ചില തെറ്റുകൾ കണ്ടെത്തുകയാണെങ്കിൽ, ഞങ്ങളെ അറിയിക്കുക.\n"
    },
    {
      "Lang": "mn",
      "Title": "Англи хэлний дүрмийн дасгал | Энгийн Австрали ⭐️ #7 Am/Are/Is ?",
      "Description": "Англи хэлний дүрмийн мэдлэгийг сур! Үгийг өгүүлбэр болгон өөрчил.\n\n\n\n0:04 1:03 1:59 \nAre you angry?\nər ju ˈæŋgri?\nТа уурлаж байна уу?\n\n0:17 1:15 2:11 \nAre your parents angry?\nər jʊr ˈpɛrənts ˈæŋgri?\nАав ээж чинь уурлаад байгаа юмуу?\n\n0:30 1:28 2:24 \nAre your parents tired?\nər jʊr ˈpɛrənts taɪərd?\nАав, ээж чинь ядарч байна уу?\n\n0:41 1:38 2:34 \nAre you tired?\nər ju taɪərd?\nТа залхаж байна уу?\n\n0:51 1:47 2:43 \nAm I tired?\næm aɪ taɪərd?\nБи залхаж байна уу?\n\n\n\nБагш, сургуулиудад:\nЭнэ видео нь Creative Commons License лиценз дээр нийтлэгдсэн.\n  CC BY 3.0 https://creativecommons.org/licenses/by/3.0/ \nЭнэ видеог өөрийн ангиудад ашиглах боломжтой шүү!\n\nБид Google Translate үйлчилгээг нутагшуулах зорилгоор ашигладаг. Хэрэв та алдаа олвол бидэнд мэдэгдээрэй.\n"
    },
    {
      "Lang": "mr",
      "Title": "इंग्रजी व्याकरण व्यायाम | सोपे ऑस्ट्रेलिया ⭐️ #7 Am/Are/Is ?",
      "Description": "इंग्रजी व्याकरण जाणून घ्या! एका वाक्यात शब्द बदला.\n\n\n\n0:04 1:03 1:59 \nAre you angry?\nər ju ˈæŋgri?\nतुला राग आला आहे का?\n\n0:17 1:15 2:11 \nAre your parents angry?\nər jʊr ˈpɛrənts ˈæŋgri?\nतुमचे पालक रागावले आहेत का?\n\n0:30 1:28 2:24 \nAre your parents tired?\nər jʊr ˈpɛrənts taɪərd?\nतुझे पालक थकले आहेत?\n\n0:41 1:38 2:34 \nAre you tired?\nər ju taɪərd?\nआपण थकले आहात?\n\n0:51 1:47 2:43 \nAm I tired?\næm aɪ taɪərd?\nमी कंटाळलो आहे?\n\n\n\nशिक्षक आणि शाळा यांना:\nहा व्हिडिओ क्रिएटिव्ह कॉमन्स परवान्या अंतर्गत प्रकाशित झाला आहे.\n  CC BY 3.0 https://creativecommons.org/licenses/by/3.0/ \nआपल्या वर्गांमध्ये हा व्हिडिओ वापरण्यास मोकळ्या मनाने!\n\nआम्ही स्थानिकीकरणासाठी Google भाषांतर सेवा वापरतो. आपल्याला काही चुका आढळल्यास कृपया आम्हाला कळवा.\n"
    },
    {
      "Lang": "ms",
      "Title": "Latihan tatabahasa Bahasa Inggeris | Mudah Australia ⭐️ #7 Am/Are/Is ?",
      "Description": "Belajar bahasa Inggeris! Tukar perkataan dalam ayat.\n\n\n\n0:04 1:03 1:59 \nAre you angry?\nər ju ˈæŋgri?\nAdakah kamu marah?\n\n0:17 1:15 2:11 \nAre your parents angry?\nər jʊr ˈpɛrənts ˈæŋgri?\nAdakah ibu bapa anda marah?\n\n0:30 1:28 2:24 \nAre your parents tired?\nər jʊr ˈpɛrənts taɪərd?\nAdakah ibu bapa anda letih?\n\n0:41 1:38 2:34 \nAre you tired?\nər ju taɪərd?\nAdakah anda letih?\n\n0:51 1:47 2:43 \nAm I tired?\næm aɪ taɪərd?\nAdakah saya letih?\n\n\n\nKepada guru dan sekolah:\nVideo ini diterbitkan di bawah Lesen Creative Commons.\n  CC BY 3.0 https://creativecommons.org/licenses/by/3.0/ \nJangan ragu untuk menggunakan video ini dalam kelas anda!\n\nKami menggunakan perkhidmatan Terjemahan Google untuk penyetempatan. Jika anda mendapati beberapa kesilapan, sila beritahu kami.\n"
    },
    {
      "Lang": "mt",
      "Title": "Eżerċizzji ta 'grammatika Ingliża | Sempliċi Awstralja ⭐️ #7 Am/Are/Is ?",
      "Description": "Tgħallem il-grammatika Ingliża! Ibdel kelma f’sentenza.\n\n\n\n0:04 1:03 1:59 \nAre you angry?\nər ju ˈæŋgri?\nInt irrabjat?\n\n0:17 1:15 2:11 \nAre your parents angry?\nər jʊr ˈpɛrənts ˈæŋgri?\nIl-ġenituri tiegħek huma rrabjati?\n\n0:30 1:28 2:24 \nAre your parents tired?\nər jʊr ˈpɛrənts taɪərd?\nIl-ġenituri tiegħek għajjenin?\n\n0:41 1:38 2:34 \nAre you tired?\nər ju taɪərd?\nInt għajjien?\n\n0:51 1:47 2:43 \nAm I tired?\næm aɪ taɪərd?\nJien għajjien?\n\n\n\nGħalliema u skejjel:\nDan il-video huwa ppublikat taħt il-Liċenzja Creative Commons.\n  CC BY 3.0 https://creativecommons.org/licenses/by/3.0/ \nĦossok liberu li tuża dan il-video fil-klassijiet tiegħek!\n\nAħna nużaw servizz Google Translate għall-lokalizzazzjoni. Jekk issib xi żbalji, jekk jogħġbok għarrafna.\n"
    },
    {
      "Lang": "my",
      "Title": "အင်္ဂလိပ်သဒ္ဒါလေ့ကျင့်ခန်း | ရိုးရှင်းသော သြစတြေးလျ ⭐️ #7 Am/Are/Is ?",
      "Description": "အင်္ဂလိပ်သဒ္ဒါကိုလေ့လာပါ။ ဝါကျတွင်စကားလုံးတစ်လုံးပြောင်းပါ။\n\n\n\n0:04 1:03 1:59 \nAre you angry?\nər ju ˈæŋgri?\nသင်စိတ်ဆိုးနေလား?\n\n0:17 1:15 2:11 \nAre your parents angry?\nər jʊr ˈpɛrənts ˈæŋgri?\nမင်းမိဘတွေကဒေါသထွက်လား\n\n0:30 1:28 2:24 \nAre your parents tired?\nər jʊr ˈpɛrənts taɪərd?\nမင်းမိဘတွေကငြီးငွေ့လား\n\n0:41 1:38 2:34 \nAre you tired?\nər ju taɪərd?\nမင်းပင်ပန်းနေပြီလား?\n\n0:51 1:47 2:43 \nAm I tired?\næm aɪ taɪərd?\nငါပင်ပန်းနေပြီလား\n\n\n\nဆရာများနှင့်ကျောင်းများသို့\nဒီဗီဒီယိုကို Creative Commons လိုင်စင်အောက်မှာထုတ်ဝေထားတယ်။\n  CC BY 3.0 https://creativecommons.org/licenses/by/3.0/ \nဤဗီဒီယိုကိုသင်၏အတန်းများ၌အခမဲ့အသုံးပြုပါ။\n\nကျွန်ုပ်တို့သည်ဒေသခံဘာသာပြန်အတွက် Google Translate ဝန်ဆောင်မှုကိုအသုံးပြုသည်။ သင်အမှားအယွင်းများအချို့ရှိပါကကျွန်ုပ်တို့အားအသိပေးပါ။\n"
    },
    {
      "Lang": "ne",
      "Title": "अंग्रेजी व्याकरण व्यायाम | सरल अष्ट्रेलिया ⭐️ #7 Am/Are/Is ?",
      "Description": "अंग्रेजी व्याकरण सिक्नुहोस्! एक वाक्य मा एक शब्द बदल्नुहोस्।\n\n\n\n0:04 1:03 1:59 \nAre you angry?\nər ju ˈæŋgri?\nके तिमी रिसाएको छौ?\n\n0:17 1:15 2:11 \nAre your parents angry?\nər jʊr ˈpɛrənts ˈæŋgri?\nके तपाईका आमा बुबा रिसाउनुहुन्छ?\n\n0:30 1:28 2:24 \nAre your parents tired?\nər jʊr ˈpɛrənts taɪərd?\nके तपाईका आमा बुबा थकित हुनुहुन्छ?\n\n0:41 1:38 2:34 \nAre you tired?\nər ju taɪərd?\nके तिमि थकित छौ?\n\n0:51 1:47 2:43 \nAm I tired?\næm aɪ taɪərd?\nम थाकेको छु?\n\n\n\nशिक्षक र विद्यालयहरुलाई:\nयो भिडियो क्रिएटिभ कमन्स लाइसेन्स अन्तर्गत प्रकाशित गरिएको छ।\n  CC BY 3.0 https://creativecommons.org/licenses/by/3.0/ \nतपाईंको कक्षामा यो भिडियो प्रयोग गर्न स्वतन्त्र महसुस गर्नुहोस्!\n\nहामी स्थानीयकरणको लागि गुगल अनुवाद सेवा प्रयोग गर्दछौं। यदि तपाईंले केहि गल्तीहरू फेला पार्नुभयो भने, कृपया हामीलाई खबर गर्नुहोस्।\n"
    },
    {
      "Lang": "nl",
      "Title": "Engelse grammatica-oefeningen | Gemakkelijk Australië ⭐️ #7 Am/Are/Is ?",
      "Description": "Leer Engelse grammatica! Verander een woord in een zin.\n\n\n\n0:04 1:03 1:59 \nAre you angry?\nər ju ˈæŋgri?\nBen jij boos?\n\n0:17 1:15 2:11 \nAre your parents angry?\nər jʊr ˈpɛrənts ˈæŋgri?\nZijn je ouders boos?\n\n0:30 1:28 2:24 \nAre your parents tired?\nər jʊr ˈpɛrənts taɪərd?\nZijn je ouders moe?\n\n0:41 1:38 2:34 \nAre you tired?\nər ju taɪərd?\nBen je moe?\n\n0:51 1:47 2:43 \nAm I tired?\næm aɪ taɪərd?\nBen ik moe\n\n\n\nAan leraren en scholen:\nDeze video is gepubliceerd onder Creative Commons License.\n  CC BY 3.0 https://creativecommons.org/licenses/by/3.0/ \nVoel je vrij om deze video in je lessen te gebruiken!\n\nWe gebruiken de Google Translate-service voor lokalisatie. Laat het ons weten als u fouten ontdekt.\n"
    },
    {
      "Lang": "no",
      "Title": "Engelsk grammatikkøvelser | Enkel Australia ⭐️ #7 Am/Are/Is ?",
      "Description": "Lær engelsk grammatikk! Endre et ord i en setning.\n\n\n\n0:04 1:03 1:59 \nAre you angry?\nər ju ˈæŋgri?\nEr du sint?\n\n0:17 1:15 2:11 \nAre your parents angry?\nər jʊr ˈpɛrənts ˈæŋgri?\nEr foreldrene dine sinte?\n\n0:30 1:28 2:24 \nAre your parents tired?\nər jʊr ˈpɛrənts taɪərd?\nEr foreldrene dine slitne?\n\n0:41 1:38 2:34 \nAre you tired?\nər ju taɪərd?\nEr du sliten?\n\n0:51 1:47 2:43 \nAm I tired?\næm aɪ taɪərd?\nEr jeg sliten?\n\n\n\nTil lærere og skoler:\nDenne videoen er publisert under Creative Commons License.\n  CC BY 3.0 https://creativecommons.org/licenses/by/3.0/ \nBruk gjerne denne videoen i klassene dine!\n\nVi bruker Google Translate-tjenesten for lokalisering. Gi beskjed hvis du finner noen feil.\n"
    },
    {
      "Lang": "pa",
      "Title": "ਅੰਗਰੇਜ਼ੀ ਵਿਆਕਰਣ ਅਭਿਆਸ | ਆਸਾਨ ਆਸਟਰੇਲੀਆ ⭐️ #7 Am/Are/Is ?",
      "Description": "ਅੰਗਰੇਜ਼ੀ ਵਿਆਕਰਣ ਸਿੱਖੋ! ਇੱਕ ਵਾਕ ਵਿੱਚ ਇੱਕ ਸ਼ਬਦ ਬਦਲੋ.\n\n\n\n0:04 1:03 1:59 \nAre you angry?\nər ju ˈæŋgri?\nਤੁਸੀਂ ਗੁੱਸਾ ਹੋ?\n\n0:17 1:15 2:11 \nAre your parents angry?\nər jʊr ˈpɛrənts ˈæŋgri?\nਕੀ ਤੁਹਾਡੇ ਮਾਪੇ ਨਾਰਾਜ਼ ਹਨ?\n\n0:30 1:28 2:24 \nAre your parents tired?\nər jʊr ˈpɛrənts taɪərd?\nਕੀ ਤੁਹਾਡੇ ਮਾਪੇ ਥੱਕ ਗਏ ਹਨ?\n\n0:41 1:38 2:34 \nAre you tired?\nər ju taɪərd?\nਤੁਸੀ ਥੱਕ ਗਏ ਹੋ?\n\n0:51 1:47 2:43 \nAm I tired?\næm aɪ taɪərd?\nਕੀ ਮੈਂ ਥੱਕ ਗਿਆ ਹਾਂ?\n\n\n\nਅਧਿਆਪਕਾਂ ਅਤੇ ਸਕੂਲਾਂ ਨੂੰ:\nਇਹ ਵੀਡੀਓ ਕਰੀਏਟਿਵ ਕਾਮਨਜ਼ ਲਾਇਸੈਂਸ ਅਧੀਨ ਪ੍ਰਕਾਸ਼ਤ ਕੀਤਾ ਗਿਆ ਹੈ.\n  CC BY 3.0 https://creativecommons.org/licenses/by/3.0/ \nਇਸ ਕਲਾਸ ਨੂੰ ਆਪਣੀਆਂ ਕਲਾਸਾਂ ਵਿਚ ਵਰਤਣ ਲਈ ਮੁਫ਼ਤ ਮਹਿਸੂਸ ਕਰੋ!\n\nਅਸੀਂ ਸਥਾਨਕਕਰਨ ਲਈ ਗੂਗਲ ਅਨੁਵਾਦ ਸੇਵਾ ਦੀ ਵਰਤੋਂ ਕਰਦੇ ਹਾਂ. ਜੇ ਤੁਹਾਨੂੰ ਕੁਝ ਗਲਤੀਆਂ ਮਿਲਦੀਆਂ ਹਨ, ਤਾਂ ਕਿਰਪਾ ਕਰਕੇ ਸਾਨੂੰ ਦੱਸੋ.\n"
    },
    {
      "Lang": "pl",
      "Title": "Gramatyka angielska | Prosty Australia ⭐️ #7 Am/Are/Is ?",
      "Description": "Ucz się gramatyki angielskiej! Zmień słowo w zdaniu.\n\n\n\n0:04 1:03 1:59 \nAre you angry?\nər ju ˈæŋgri?\nCzy jesteś zły?\n\n0:17 1:15 2:11 \nAre your parents angry?\nər jʊr ˈpɛrənts ˈæŋgri?\nCzy twoi rodzice są źli?\n\n0:30 1:28 2:24 \nAre your parents tired?\nər jʊr ˈpɛrənts taɪərd?\nCzy twoi rodzice są zmęczeni?\n\n0:41 1:38 2:34 \nAre you tired?\nər ju taɪərd?\nJesteś zmęczony?\n\n0:51 1:47 2:43 \nAm I tired?\næm aɪ taɪərd?\nJestem zmęczony\n\n\n\nDo nauczycieli i szkół:\nTen film jest opublikowany na licencji Creative Commons.\n  CC BY 3.0 https://creativecommons.org/licenses/by/3.0/ \nZachęcamy do korzystania z tego filmu na zajęciach!\n\nDo lokalizacji używamy usługi Tłumacz Google. Jeśli znajdziesz jakieś błędy, daj nam znać.\n"
    },
    {
      "Lang": "ps",
      "Title": "انګلیسي ګرامر تمرینونه | ساده آسټرالیا ⭐️ #7 Am/Are/Is ?",
      "Description": "انګلیسي ګرامر زده کړئ! یوه جمله په یوه جمله بدله کړئ.\n\n\n\n0:04 1:03 1:59 \nAre you angry?\nər ju ˈæŋgri?\nآیا ته په غوسه یې؟\n\n0:17 1:15 2:11 \nAre your parents angry?\nər jʊr ˈpɛrənts ˈæŋgri?\nایا ستاسو مور او پلار ناراض دي؟\n\n0:30 1:28 2:24 \nAre your parents tired?\nər jʊr ˈpɛrənts taɪərd?\nایا ستاسو والدین ستړي شوي دي؟\n\n0:41 1:38 2:34 \nAre you tired?\nər ju taɪərd?\nتاسو ستړي یاست؟\n\n0:51 1:47 2:43 \nAm I tired?\næm aɪ taɪərd?\nایا زه ستړی یم؟\n\n\n\nښوونکو او ښوونځیو ته:\nدا ویډیو د کریټیو کامنز لایسنس لاندې خپره شوې ده.\n  CC BY 3.0 https://creativecommons.org/licenses/by/3.0/ \nپه خپلو ټولګیو کې د دې ویډیو کارولو لپاره وړیا احساس وکړئ!\n\nموږ د ځایی کولو لپاره د ګوګل ژباړن خدمت کاروو. که تاسو ځینې غلطۍ ومومئ ، مهرباني وکړئ موږ ته خبر راکړئ.\n"
    },
    {
      "Lang": "pt",
      "Title": "Exercícios de gramática inglesa | Simples Austrália ⭐️ #7 Am/Are/Is ?",
      "Description": "Aprenda gramática inglesa! Mude uma palavra em uma frase.\n\n\n\n0:04 1:03 1:59 \nAre you angry?\nər ju ˈæŋgri?\nVocê está bravo?\n\n0:17 1:15 2:11 \nAre your parents angry?\nər jʊr ˈpɛrənts ˈæŋgri?\nSeus pais estão com raiva?\n\n0:30 1:28 2:24 \nAre your parents tired?\nər jʊr ˈpɛrənts taɪərd?\nSeus pais estão cansados?\n\n0:41 1:38 2:34 \nAre you tired?\nər ju taɪərd?\nVocê está cansado?\n\n0:51 1:47 2:43 \nAm I tired?\næm aɪ taɪərd?\nEstou cansada?\n\n\n\nPara professores e escolas:\nEste vídeo é publicado sob licença Creative Commons.\n  CC BY 3.0 https://creativecommons.org/licenses/by/3.0/ \nSinta-se livre para usar este vídeo em suas aulas!\n\nUsamos o serviço Google Translate para localização. Se você encontrar algum erro, informe-nos.\n"
    },
    {
      "Lang": "ro",
      "Title": "Exerciții de gramatică engleză | Simplu Australia ⭐️ #7 Am/Are/Is ?",
      "Description": "Învață gramatica engleză! Schimbă un cuvânt într-o propoziție.\n\n\n\n0:04 1:03 1:59 \nAre you angry?\nər ju ˈæŋgri?\nSunteți supărat?\n\n0:17 1:15 2:11 \nAre your parents angry?\nər jʊr ˈpɛrənts ˈæŋgri?\nSunt părinții tăi supărați?\n\n0:30 1:28 2:24 \nAre your parents tired?\nər jʊr ˈpɛrənts taɪərd?\nPărinții tăi sunt obosiți?\n\n0:41 1:38 2:34 \nAre you tired?\nər ju taɪərd?\nEști obosit?\n\n0:51 1:47 2:43 \nAm I tired?\næm aɪ taɪərd?\nSunt obosit?\n\n\n\nPentru profesori și școli:\nAcest videoclip este publicat sub licență Creative Commons.\n  CC BY 3.0 https://creativecommons.org/licenses/by/3.0/ \nSimte-te liber să folosești acest videoclip în orele tale!\n\nFolosim serviciul Google Translate pentru localizare. Dacă găsiți unele greșeli, vă rugăm să ne informați.\n"
    },
    {
      "Lang": "ru",
      "Title": "Упражнения по английской грамматике | просто Австралия ⭐️ #7 Am/Are/Is ?",
      "Description": "Изучай английскую грамматику! Изменить слово в предложении.\n\n\n\n0:04 1:03 1:59 \nAre you angry?\nər ju ˈæŋgri?\nТы сердишься?\n\n0:17 1:15 2:11 \nAre your parents angry?\nər jʊr ˈpɛrənts ˈæŋgri?\nТвои родители злы?\n\n0:30 1:28 2:24 \nAre your parents tired?\nər jʊr ˈpɛrənts taɪərd?\nВаши родители устали?\n\n0:41 1:38 2:34 \nAre you tired?\nər ju taɪərd?\nТы усталый?\n\n0:51 1:47 2:43 \nAm I tired?\næm aɪ taɪərd?\nЯ устал?\n\n\n\nУчителям и школам:\nЭто видео опубликовано под лицензией Creative Commons.\n  CC BY 3.0 https://creativecommons.org/licenses/by/3.0/ \nНе стесняйтесь использовать это видео в своих классах!\n\nМы используем сервис Google Translate для локализации. Если вы обнаружите ошибки, сообщите нам.\n"
    },
    {
      "Lang": "sd",
      "Title": "سنڌي گرامر مشق | سادو آسٽريليا ⭐️ #7 Am/Are/Is ?",
      "Description": "انگريزي گرامر سکو! ھڪ لفظ ۾ ھڪڙي تبديلي آڻيو.\n\n\n\n0:04 1:03 1:59 \nAre you angry?\nər ju ˈæŋgri?\nڇا توهان ناراض آهيو؟\n\n0:17 1:15 2:11 \nAre your parents angry?\nər jʊr ˈpɛrənts ˈæŋgri?\nڇا توهان جا والدين ناراض آهن؟\n\n0:30 1:28 2:24 \nAre your parents tired?\nər jʊr ˈpɛrənts taɪərd?\nڇا توهان جي والدين کي ٿڪل آهي؟\n\n0:41 1:38 2:34 \nAre you tired?\nər ju taɪərd?\nڇا توهان ٿڪل آهيو؟\n\n0:51 1:47 2:43 \nAm I tired?\næm aɪ taɪərd?\nڇا مان ٿڪل آهيان؟\n\n\n\nاستاد ۽ اسڪولن ڏانهن:\nهيء وڊيو تخليقي العام لائسنس هيٺ شايع ٿيل آهي.\n  CC BY 3.0 https://creativecommons.org/licenses/by/3.0/ \nپنهنجي وڊيوز ۾ هن وڊيو کي استعمال ڪرڻ لاء آزاد ٿيو!\n\nاسان مقامي ڪرڻ لاء گوگل ترجمو سروس استعمال ڪندا آهيون. جيڪڏهن توهان ڪجهه غلطي ڳوليندا آهيو، مهرباني ڪري اسان کي ڄاڻ ڏيو.\n"
    },
    {
      "Lang": "si",
      "Title": "ඉංග්‍රීසි ව්‍යාකරණ අභ්‍යාස | සරල ඕස්ට්‍රේලියාව ⭐️ #7 Am/Are/Is ?",
      "Description": "ඉංග්‍රීසි ව්‍යාකරණ ඉගෙන ගන්න! වාක්‍යයක වචනයක් වෙනස් කරන්න.\n\n\n\n0:04 1:03 1:59 \nAre you angry?\nər ju ˈæŋgri?\nඔයාට කේන්ති ද?\n\n0:17 1:15 2:11 \nAre your parents angry?\nər jʊr ˈpɛrənts ˈæŋgri?\nඔබේ දෙමාපියන් තරහින්ද?\n\n0:30 1:28 2:24 \nAre your parents tired?\nər jʊr ˈpɛrənts taɪərd?\nඔබේ දෙමාපියන් වෙහෙසට පත්ව සිටිනවාද?\n\n0:41 1:38 2:34 \nAre you tired?\nər ju taɪərd?\nඔ බ ට ම හ න් සි ද?\n\n0:51 1:47 2:43 \nAm I tired?\næm aɪ taɪərd?\nමට මහන්සියිද?\n\n\n\nගුරුවරුන්ට සහ පාසල්වලට:\nමෙම වීඩියෝව නිර්මාණාත්මක පොදු බලපත්‍රය යටතේ ප්‍රකාශයට පත් කෙරේ.\n  CC BY 3.0 https://creativecommons.org/licenses/by/3.0/ \nඔබේ පංතිවල මෙම වීඩියෝව භාවිතා කිරීමට නිදහස් වන්න!\n\nප්‍රාදේශීයකරණය සඳහා අපි ගූගල් පරිවර්තන සේවාව භාවිතා කරමු. ඔබ යම් වැරැද්දක් සොයා ගන්නේ නම්, කරුණාකර අපට දන්වන්න.\n"
    },
    {
      "Lang": "sk",
      "Title": "Anglické gramatické cvičenia | prostý Austrália ⭐️ #7 Am/Are/Is ?",
      "Description": "Naučte sa anglickú gramatiku! Zmeniť slovo vo vete.\n\n\n\n0:04 1:03 1:59 \nAre you angry?\nər ju ˈæŋgri?\nSi nahnevaný?\n\n0:17 1:15 2:11 \nAre your parents angry?\nər jʊr ˈpɛrənts ˈæŋgri?\nHnevajú sa vaši rodičia?\n\n0:30 1:28 2:24 \nAre your parents tired?\nər jʊr ˈpɛrənts taɪərd?\nSú vaši rodičia unavení?\n\n0:41 1:38 2:34 \nAre you tired?\nər ju taɪərd?\nSi unavený?\n\n0:51 1:47 2:43 \nAm I tired?\næm aɪ taɪərd?\nSom unavený?\n\n\n\nPre učiteľov a školy:\nToto video je publikované pod licenciou Creative Commons License.\n  CC BY 3.0 https://creativecommons.org/licenses/by/3.0/ \nNeváhajte použiť toto video vo svojich triedach!\n\nNa lokalizáciu používame službu Prekladač Google. Ak nájdete nejaké chyby, dajte nám vedieť.\n"
    },
    {
      "Lang": "sl",
      "Title": "Angleške slovnične vaje | Preprosto Avstralija ⭐️ #7 Am/Are/Is ?",
      "Description": "Naučite se angleške slovnice! Spremenite besedo v stavku.\n\n\n\n0:04 1:03 1:59 \nAre you angry?\nər ju ˈæŋgri?\nAli si jezen?\n\n0:17 1:15 2:11 \nAre your parents angry?\nər jʊr ˈpɛrənts ˈæŋgri?\nSo vaši starši jezni?\n\n0:30 1:28 2:24 \nAre your parents tired?\nər jʊr ˈpɛrənts taɪərd?\nSo vaši starši utrujeni?\n\n0:41 1:38 2:34 \nAre you tired?\nər ju taɪərd?\nAli si utrujen?\n\n0:51 1:47 2:43 \nAm I tired?\næm aɪ taɪərd?\nSem utrujen?\n\n\n\nUčiteljem in šolam:\nTa videoposnetek je objavljen pod licenco Creative Commons.\n  CC BY 3.0 https://creativecommons.org/licenses/by/3.0/ \nUporabite ta video v svojih razredih!\n\nZa lokalizacijo uporabljamo storitev Google Translate. Če najdete nekaj napak, nas obvestite.\n"
    },
    {
      "Lang": "sm",
      "Title": "Gagana o le gagana Gagana Peretania | Faigofie Ausetalia ⭐️ #7 Am/Are/Is ?",
      "Description": "Aoao le gagana Gagana Peretania! Sui se upu i se fuaiupu.\n\n\n\n0:04 1:03 1:59 \nAre you angry?\nər ju ˈæŋgri?\nO e ita?\n\n0:17 1:15 2:11 \nAre your parents angry?\nər jʊr ˈpɛrənts ˈæŋgri?\nE ita ou matua?\n\n0:30 1:28 2:24 \nAre your parents tired?\nər jʊr ˈpɛrənts taɪərd?\nUa vaivai ou matua?\n\n0:41 1:38 2:34 \nAre you tired?\nər ju taɪərd?\nUa e vaivai?\n\n0:51 1:47 2:43 \nAm I tired?\næm aɪ taɪərd?\nUa ou vaivai?\n\n\n\nI faiaoga ma aʻoga:\nO lenei vitio ua lomia i lalo o le Creative Commons License.\n  CC BY 3.0 https://creativecommons.org/licenses/by/3.0/ \nLagona le saoloto e faʻaaoga lenei vitio i au vasega!\n\nMatou te faʻaaoga le Google Translate auaunaga mo le faʻasalalauga. Afai e te maua ni mea sese, faʻamolemole ia e iloa.\n"
    },
    {
      "Lang": "sn",
      "Title": "Chirungu grammar Exercise | Nyore Ositireriya ⭐️ #7 Am/Are/Is ?",
      "Description": "Dzidza mutauro wechirungu! Chinja izwi muchirevo.\n\n\n\n0:04 1:03 1:59 \nAre you angry?\nər ju ˈæŋgri?\nWakatsamwa here?\n\n0:17 1:15 2:11 \nAre your parents angry?\nər jʊr ˈpɛrənts ˈæŋgri?\nVabereki vako vakatsamwa here?\n\n0:30 1:28 2:24 \nAre your parents tired?\nər jʊr ˈpɛrənts taɪərd?\nVabereki vako vakaneta here?\n\n0:41 1:38 2:34 \nAre you tired?\nər ju taɪərd?\nWaneta here?\n\n0:51 1:47 2:43 \nAm I tired?\næm aɪ taɪərd?\nNdaneta here?\n\n\n\nKune vadzidzisi uye zvikoro:\nVhidhiyo iyi inoburitswa pasi peCreative Commons License.\n  CC BY 3.0 https://creativecommons.org/licenses/by/3.0/ \nInzwa wakasununguka kushandisa iyi vhidhiyo mumakirasi ako!\n\nIsu tinoshandisa Google Dhumiro sevhisi. Kana iwe ukawana zvimwe zvikanganiso, tapota titiudze.\n"
    },
    {
      "Lang": "so",
      "Title": "Jimicsiga naxwaha Ingiriisiga | Fudud Australia ⭐️ #7 Am/Are/Is ?",
      "Description": "Baro naxwaha Ingiriisiga! U beddelo eray weedh.\n\n\n\n0:04 1:03 1:59 \nAre you angry?\nər ju ˈæŋgri?\nMiyaad xanaaqsantahay?\n\n0:17 1:15 2:11 \nAre your parents angry?\nər jʊr ˈpɛrənts ˈæŋgri?\nMiyaa waalidkaa xanaaqsan yihiin?\n\n0:30 1:28 2:24 \nAre your parents tired?\nər jʊr ˈpɛrənts taɪərd?\nWaalidkaa ma daalan yihiin?\n\n0:41 1:38 2:34 \nAre you tired?\nər ju taɪərd?\nMa daalantahay\n\n0:51 1:47 2:43 \nAm I tired?\næm aɪ taɪərd?\nMa daalay?\n\n\n\nKu socota macallimiinta iyo iskuulada:\nMuuqaalkan fiidiyaha ah waxaa lagu daabacay hoosta hal-abuurnimada Hal-abuurka.\n  CC BY 3.0 https://creativecommons.org/licenses/by/3.0/ \nXor baad u leedahay inaad fiidiyaha u isticmaasho fasalladaaga!\n\nWaxaan u adeegsanaa adeega Google tarjumaha si aan ugu tarjunno. Hadaad khaladaad hesho, fadlan nala socodsii.\n"
    },
    {
      "Lang": "sq",
      "Title": "Ushtrime gramatikore angleze | i thjeshtë Australi ⭐️ #7 Am/Are/Is ?",
      "Description": "Mësoni gramatikën angleze! Ndryshoni një fjalë në një fjali.\n\n\n\n0:04 1:03 1:59 \nAre you angry?\nər ju ˈæŋgri?\nA je inatosur?\n\n0:17 1:15 2:11 \nAre your parents angry?\nər jʊr ˈpɛrənts ˈæŋgri?\nA janë zemëruar prindërit tuaj?\n\n0:30 1:28 2:24 \nAre your parents tired?\nər jʊr ˈpɛrənts taɪərd?\nA janë lodhur prindërit tuaj?\n\n0:41 1:38 2:34 \nAre you tired?\nər ju taɪərd?\nA jeni lodhur?\n\n0:51 1:47 2:43 \nAm I tired?\næm aɪ taɪərd?\nJam lodhur?\n\n\n\nPër mësuesit dhe shkollat:\nKjo video është botuar nën licencën Creative Commons.\n  CC BY 3.0 https://creativecommons.org/licenses/by/3.0/ \nMos ngurroni të përdorni këtë video në klasat tuaja!\n\nNe përdorim shërbimin Google Translate për lokalizimin. Nëse gjeni disa gabime, ju lutemi na tregoni.\n"
    },
    {
      "Lang": "sr",
      "Title": "Вежбе енглеске граматике | Једноставно Аустралија ⭐️ #7 Am/Are/Is ?",
      "Description": "Научите енглеску граматику! Промените реч у реченици.\n\n\n\n0:04 1:03 1:59 \nAre you angry?\nər ju ˈæŋgri?\nЈеси ли љут?\n\n0:17 1:15 2:11 \nAre your parents angry?\nər jʊr ˈpɛrənts ˈæŋgri?\nДа ли су твоји родитељи бесни?\n\n0:30 1:28 2:24 \nAre your parents tired?\nər jʊr ˈpɛrənts taɪərd?\nЈесу ли твоји родитељи уморни?\n\n0:41 1:38 2:34 \nAre you tired?\nər ju taɪərd?\nЈесте ли уморни?\n\n0:51 1:47 2:43 \nAm I tired?\næm aɪ taɪərd?\nЈесам ли уморна?\n\n\n\nНаставницима и школама:\nОвај видео је објављен под Цреативе Цоммонс лиценцом.\n  CC BY 3.0 https://creativecommons.org/licenses/by/3.0/ \nСлободно користите овај видеозапис у својим предавањима!\n\nЗа локализацију користимо услугу Гоогле Транслате. Ако нађете неке грешке, јавите нам се.\n"
    },
    {
      "Lang": "st",
      "Title": "Boikoetliso ba puo ea Senyesemane | E bonolo Australia ⭐️ #7 Am/Are/Is ?",
      "Description": "Ithute puo ea Senyesemane! Fetola lentsoe polelo.\n\n\n\n0:04 1:03 1:59 \nAre you angry?\nər ju ˈæŋgri?\nNa u koatile?\n\n0:17 1:15 2:11 \nAre your parents angry?\nər jʊr ˈpɛrənts ˈæŋgri?\nNa batsoali ba hau ba koatile?\n\n0:30 1:28 2:24 \nAre your parents tired?\nər jʊr ˈpɛrənts taɪərd?\nNa batsoali ba hao ba khathetse?\n\n0:41 1:38 2:34 \nAre you tired?\nər ju taɪərd?\nNa u khathetse?\n\n0:51 1:47 2:43 \nAm I tired?\næm aɪ taɪərd?\nKe khathetse?\n\n\n\nHo matichere le likolo:\nVideo ena e phatlalalitsoe tlas'a Creative Commons License.\n  CC BY 3.0 https://creativecommons.org/licenses/by/3.0/ \nIkutloe u lokolohile ho sebelisa video ena litlelaseng tsa hau!\n\nRe sebelisa tšebeletso ea Google Tafsiri bakeng sa lehae. Haeba u fumana liphoso, ka kopo re tsebise.\n"
    },
    {
      "Lang": "su",
      "Title": "Latihan tata basa Inggris | Basajan Australia ⭐️ #7 Am/Are/Is ?",
      "Description": "Diajar grammar Inggris! Ngarobih kecap dina hiji kalimat.\n\n\n\n0:04 1:03 1:59 \nAre you angry?\nər ju ˈæŋgri?\nAri anjeun ambek?\n\n0:17 1:15 2:11 \nAre your parents angry?\nər jʊr ˈpɛrənts ˈæŋgri?\nNaha sepuh anjeun?\n\n0:30 1:28 2:24 \nAre your parents tired?\nər jʊr ˈpɛrənts taɪərd?\nNaha sepuh anjeun?\n\n0:41 1:38 2:34 \nAre you tired?\nər ju taɪərd?\nAri anjeun capé?\n\n0:51 1:47 2:43 \nAm I tired?\næm aɪ taɪərd?\nNaha kuring bosen?\n\n\n\nPikeun guru sareng sakola:\nPidéo ieu dikaluarkeun dina Lisensi Lisénsi Creative Commons.\n  CC BY 3.0 https://creativecommons.org/licenses/by/3.0/ \nTong ngosongkeun pidéo ieu di kelas!\n\nKami nganggo jasa Google Translate pikeun lokalisasi. Upami anjeun mendakan sababaraha kasalahan, punten terangkeun ka urang.\n"
    },
    {
      "Lang": "sv",
      "Title": "Engelska grammatiska övningar | Enkel Australien ⭐️ #7 Am/Are/Is ?",
      "Description": "Lär dig engelska grammatik! Ändra ett ord i en mening.\n\n\n\n0:04 1:03 1:59 \nAre you angry?\nər ju ˈæŋgri?\nÄr du arg?\n\n0:17 1:15 2:11 \nAre your parents angry?\nər jʊr ˈpɛrənts ˈæŋgri?\nÄr dina föräldrar arga?\n\n0:30 1:28 2:24 \nAre your parents tired?\nər jʊr ˈpɛrənts taɪərd?\nÄr dina föräldrar trötta?\n\n0:41 1:38 2:34 \nAre you tired?\nər ju taɪərd?\nÄr du trött?\n\n0:51 1:47 2:43 \nAm I tired?\næm aɪ taɪərd?\nÄr jag trött?\n\n\n\nTill lärare och skolor:\nDenna video publiceras under Creative Commons License.\n  CC BY 3.0 https://creativecommons.org/licenses/by/3.0/ \nAnvänd gärna den här videon i dina klasser!\n\nVi använder Google Translate-tjänst för lokalisering. Låt oss veta om du hittar några misstag.\n"
    },
    {
      "Lang": "sw",
      "Title": "Mazoezi ya sarufi ya Kiingereza | Rahisi Australia ⭐️ #7 Am/Are/Is ?",
      "Description": "Jifunze sarufi ya Kiingereza! Badilisha neno katika sentensi.\n\n\n\n0:04 1:03 1:59 \nAre you angry?\nər ju ˈæŋgri?\nUmekasirika?\n\n0:17 1:15 2:11 \nAre your parents angry?\nər jʊr ˈpɛrənts ˈæŋgri?\nJe! Wazazi wako wanakasirika?\n\n0:30 1:28 2:24 \nAre your parents tired?\nər jʊr ˈpɛrənts taɪərd?\nJe! Wazazi wako wamechoka?\n\n0:41 1:38 2:34 \nAre you tired?\nər ju taɪərd?\nUmechoka?\n\n0:51 1:47 2:43 \nAm I tired?\næm aɪ taɪərd?\nJe! Nimechoka?\n\n\n\nKwa waalimu na shule:\nVideo hii imechapishwa chini ya Leseni ya Creative Commons.\n  CC BY 3.0 https://creativecommons.org/licenses/by/3.0/ \nJisikie huru kutumia video hii kwenye darasa lako!\n\nTunatumia huduma ya Tafsiri ya Google kwa ujanibishaji. Ikiwa utapata makosa, tafadhali tujulishe.\n"
    },
    {
      "Lang": "ta",
      "Title": "ஆங்கில இலக்கண பயிற்சிகள் | எளிய ஆஸ்திரேலியா ⭐️ #7 Am/Are/Is ?",
      "Description": "ஆங்கில இலக்கணம் கற்றுக்கொள்ளுங்கள்! ஒரு வாக்கியத்தில் ஒரு வார்த்தையை மாற்றவும்.\n\n\n\n0:04 1:03 1:59 \nAre you angry?\nər ju ˈæŋgri?\nநீங்கள் கோபமாக இருக்கிறீர்களா?\n\n0:17 1:15 2:11 \nAre your parents angry?\nər jʊr ˈpɛrənts ˈæŋgri?\nஉங்கள் பெற்றோர் கோபமாக இருக்கிறார்களா?\n\n0:30 1:28 2:24 \nAre your parents tired?\nər jʊr ˈpɛrənts taɪərd?\nஉங்கள் பெற்றோர் சோர்வாக இருக்கிறார்களா?\n\n0:41 1:38 2:34 \nAre you tired?\nər ju taɪərd?\nநீங்கள் சோர்வாக இருக்கிறீர்களா?\n\n0:51 1:47 2:43 \nAm I tired?\næm aɪ taɪərd?\nநான் சோர்வாக இருக்கிறேனா?\n\n\n\nஆசிரியர்கள் மற்றும் பள்ளிகளுக்கு:\nஇந்த வீடியோ கிரியேட்டிவ் காமன்ஸ் உரிமத்தின் கீழ் வெளியிடப்பட்டுள்ளது.\n  CC BY 3.0 https://creativecommons.org/licenses/by/3.0/ \nஉங்கள் வகுப்புகளில் இந்த வீடியோவைப் பயன்படுத்த தயங்காதீர்கள்!\n\nஉள்ளூர்மயமாக்க Google மொழிபெயர்ப்பு சேவையைப் பயன்படுத்துகிறோம். நீங்கள் சில தவறுகளைக் கண்டால், எங்களுக்குத் தெரியப்படுத்துங்கள்.\n"
    },
    {
      "Lang": "te",
      "Title": "ఇంగ్లీష్ వ్యాకరణ వ్యాయామాలు | సాధారణ ఆస్ట్రేలియా ⭐️ #7 Am/Are/Is ?",
      "Description": "ఇంగ్లీష్ వ్యాకరణం నేర్చుకోండి! ఒక వాక్యంలో ఒక పదాన్ని మార్చండి.\n\n\n\n0:04 1:03 1:59 \nAre you angry?\nər ju ˈæŋgri?\nమీరు కోపంగా వున్నారా?\n\n0:17 1:15 2:11 \nAre your parents angry?\nər jʊr ˈpɛrənts ˈæŋgri?\nమీ తల్లిదండ్రులు కోపంగా ఉన్నారా?\n\n0:30 1:28 2:24 \nAre your parents tired?\nər jʊr ˈpɛrənts taɪərd?\nమీ తల్లిదండ్రులు అలసిపోయారా?\n\n0:41 1:38 2:34 \nAre you tired?\nər ju taɪərd?\nఅలిసి పొయావా?\n\n0:51 1:47 2:43 \nAm I tired?\næm aɪ taɪərd?\nనేను అలసిపోయానా?\n\n\n\nఉపాధ్యాయులకు మరియు పాఠశాలలకు:\nఈ వీడియో క్రియేటివ్ కామన్స్ లైసెన్స్ క్రింద ప్రచురించబడింది.\n  CC BY 3.0 https://creativecommons.org/licenses/by/3.0/ \nమీ తరగతుల్లో ఈ వీడియోను ఉపయోగించడానికి సంకోచించకండి!\n\nస్థానికీకరణ కోసం మేము Google అనువాద సేవను ఉపయోగిస్తాము. మీరు కొన్ని తప్పులు కనుగొంటే, దయచేసి మాకు తెలియజేయండి.\n"
    },
    {
      "Lang": "tg",
      "Title": "Машқҳои грамматикаи забони англисӣ | Оддӣ Австралия ⭐️ #7 Am/Are/Is ?",
      "Description": "Грамматикаи забони англисиро омӯзед! Калимаро дар як ҷумла иваз кунед.\n\n\n\n0:04 1:03 1:59 \nAre you angry?\nər ju ˈæŋgri?\nШумо хашмгинед?\n\n0:17 1:15 2:11 \nAre your parents angry?\nər jʊr ˈpɛrənts ˈæŋgri?\nОё падару модарат ба хашм омадаанд?\n\n0:30 1:28 2:24 \nAre your parents tired?\nər jʊr ˈpɛrənts taɪərd?\nПадару модаратон хаста шудаанд?\n\n0:41 1:38 2:34 \nAre you tired?\nər ju taɪərd?\nШумо монда шудед?\n\n0:51 1:47 2:43 \nAm I tired?\næm aɪ taɪərd?\nМан мондаам?\n\n\n\nБа муаллимон ва мактабҳо:\nИн видео зери иҷозатномаи Creative Commons нашр шудааст.\n  CC BY 3.0 https://creativecommons.org/licenses/by/3.0/ \nИн видеоро дар дарсҳои худ истифода баред!\n\nМо барои локализатсия аз хидмати Google Translate истифода мебарем. Агар шумо ягон хатогӣ дарёфт кунед, лутфан ба мо хабар диҳед.\n"
    },
    {
      "Lang": "th",
      "Title": "แบบฝึกหัดไวยากรณ์ภาษาอังกฤษ | ง่าย ออสเตรเลีย ⭐️ #7 Am/Are/Is ?",
      "Description": "เรียนรู้ไวยากรณ์ภาษาอังกฤษ! เปลี่ยนคำในประโยค\n\n\n\n0:04 1:03 1:59 \nAre you angry?\nər ju ˈæŋgri?\nคุณโกรธไหม\n\n0:17 1:15 2:11 \nAre your parents angry?\nər jʊr ˈpɛrənts ˈæŋgri?\nพ่อแม่ของคุณโกรธหรือเปล่า?\n\n0:30 1:28 2:24 \nAre your parents tired?\nər jʊr ˈpɛrənts taɪərd?\nพ่อแม่ของคุณเหนื่อยไหม\n\n0:41 1:38 2:34 \nAre you tired?\nər ju taɪərd?\nคุณเหนื่อยไหม?\n\n0:51 1:47 2:43 \nAm I tired?\næm aɪ taɪərd?\nฉันเหนื่อยไหม\n\n\n\nถึงครูและโรงเรียน:\nวิดีโอนี้เผยแพร่ภายใต้สัญญาอนุญาตครีเอทีฟคอมมอนส์\n  CC BY 3.0 https://creativecommons.org/licenses/by/3.0/ \nอย่าลังเลที่จะใช้วิดีโอนี้ในชั้นเรียนของคุณ!\n\nเราใช้บริการ Google แปลภาษาเพื่อการแปล หากคุณพบข้อผิดพลาดบางอย่างโปรดแจ้งให้เราทราบ\n"
    },
    {
      "Lang": "tr",
      "Title": "İngilizce gramer çalışmaları | Basit Avustralya ⭐️ #7 Am/Are/Is ?",
      "Description": "İngilizce gramerini öğren! Bir cümle içindeki bir kelimeyi değiştirin.\n\n\n\n0:04 1:03 1:59 \nAre you angry?\nər ju ˈæŋgri?\nKızgın mısın?\n\n0:17 1:15 2:11 \nAre your parents angry?\nər jʊr ˈpɛrənts ˈæŋgri?\nAilen kızgın mı?\n\n0:30 1:28 2:24 \nAre your parents tired?\nər jʊr ˈpɛrənts taɪərd?\nAilen yorgun mu?\n\n0:41 1:38 2:34 \nAre you tired?\nər ju taɪərd?\nYorgun musun?\n\n0:51 1:47 2:43 \nAm I tired?\næm aɪ taɪərd?\nYoruldum mu?\n\n\n\nÖğretmenlere ve okullara:\nBu video Creative Commons License. Altında yayınlandı.\n  CC BY 3.0 https://creativecommons.org/licenses/by/3.0/ \nBu videoyu derslerinizde kullanmaktan çekinmeyin!\n\nYerelleştirme için Google Çeviri hizmetini kullanıyoruz. Bazı hatalar bulursanız lütfen bize bildirin.\n"
    },
    {
      "Lang": "uk",
      "Title": "Граматичні вправи з англійської мови | Простий Австралія ⭐️ #7 Am/Are/Is ?",
      "Description": "Вивчіть англійську граматику! Змініть слово у реченні.\n\n\n\n0:04 1:03 1:59 \nAre you angry?\nər ju ˈæŋgri?\nВи злі?\n\n0:17 1:15 2:11 \nAre your parents angry?\nər jʊr ˈpɛrənts ˈæŋgri?\nВаші батьки гніваються?\n\n0:30 1:28 2:24 \nAre your parents tired?\nər jʊr ˈpɛrənts taɪərd?\nВаші батьки втомилися?\n\n0:41 1:38 2:34 \nAre you tired?\nər ju taɪərd?\nЗморився?\n\n0:51 1:47 2:43 \nAm I tired?\næm aɪ taɪərd?\nЯ втомився?\n\n\n\nДля вчителів та шкіл:\nЦе відео опубліковане під ліцензією Creative Commons.\n  CC BY 3.0 https://creativecommons.org/licenses/by/3.0/ \nСміливо використовуйте це відео у своїх класах!\n\nМи використовуємо послугу Google Translate для локалізації. Якщо ви виявили деякі помилки, повідомте нас про це.\n"
    },
    {
      "Lang": "ur",
      "Title": "انگریزی گرائمر کی ورزشیں | آسان آسٹریلیا ⭐️ #7 Am/Are/Is ?",
      "Description": "انگریزی گرائمر سیکھیں! ایک جملے میں ایک لفظ تبدیل کریں۔\n\n\n\n0:04 1:03 1:59 \nAre you angry?\nər ju ˈæŋgri?\nکیا تم غصہ ہو؟\n\n0:17 1:15 2:11 \nAre your parents angry?\nər jʊr ˈpɛrənts ˈæŋgri?\nکیا آپ کے والدین ناراض ہیں؟\n\n0:30 1:28 2:24 \nAre your parents tired?\nər jʊr ˈpɛrənts taɪərd?\nکیا آپ کے والدین تھک گئے ہیں؟\n\n0:41 1:38 2:34 \nAre you tired?\nər ju taɪərd?\nکیا تم تھکے ہوئے ہو؟\n\n0:51 1:47 2:43 \nAm I tired?\næm aɪ taɪərd?\nکیا میں تھک گیا ہوں؟\n\n\n\nاساتذہ اور اسکولوں کے لئے:\nیہ ویڈیو تخلیقی العام لائسنس کے تحت شائع ہوا ہے۔\n  CC BY 3.0 https://creativecommons.org/licenses/by/3.0/ \nاپنی ویڈیو کو اپنی کلاسوں میں آزادانہ طور پر استعمال کریں!\n\nہم لوکلائزیشن کے لئے گوگل ٹرانسلیٹ سروس استعمال کرتے ہیں۔ اگر آپ کو کچھ غلطیاں ملتی ہیں تو ، براہ کرم ہمیں بتائیں۔\n"
    },
    {
      "Lang": "uz",
      "Title": "Ingliz tili grammatik mashqlari | Oddiy Avstraliya ⭐️ #7 Am/Are/Is ?",
      "Description": "Ingliz tilining grammatikasini o'rganing! Bir so'zni jumlada o'zgartiring.\n\n\n\n0:04 1:03 1:59 \nAre you angry?\nər ju ˈæŋgri?\nJahlingiz chiqdimi?\n\n0:17 1:15 2:11 \nAre your parents angry?\nər jʊr ˈpɛrənts ˈæŋgri?\nOta-onangiz g'azablanganmi?\n\n0:30 1:28 2:24 \nAre your parents tired?\nər jʊr ˈpɛrənts taɪərd?\nOta-onangiz charchadimi?\n\n0:41 1:38 2:34 \nAre you tired?\nər ju taɪərd?\nCharchadingizmi?\n\n0:51 1:47 2:43 \nAm I tired?\næm aɪ taɪərd?\nCharchadimmi?\n\n\n\nO'qituvchilar va maktablarga:\nUshbu video Creative Commons litsenziyasi ostida joylashtirilgan.\n  CC BY 3.0 https://creativecommons.org/licenses/by/3.0/ \nUshbu videoni o'z sinflaringizda ishlatish bepul!\n\nBiz Google Translate xizmatidan lokalizatsiya uchun foydalanamiz. Agar siz biron bir xato topsangiz, iltimos, bizga xabar bering.\n"
    },
    {
      "Lang": "vi",
      "Title": "Bài tập ngữ pháp tiếng anh | Đơn giản Châu Úc ⭐️ #7 Am/Are/Is ?",
      "Description": "Học ngữ pháp tiếng Anh! Thay đổi một từ trong một câu.\n\n\n\n0:04 1:03 1:59 \nAre you angry?\nər ju ˈæŋgri?\nBạn co giận không?\n\n0:17 1:15 2:11 \nAre your parents angry?\nər jʊr ˈpɛrənts ˈæŋgri?\nBố mẹ bạn có giận không?\n\n0:30 1:28 2:24 \nAre your parents tired?\nər jʊr ˈpɛrənts taɪərd?\nBố mẹ bạn có mệt không?\n\n0:41 1:38 2:34 \nAre you tired?\nər ju taɪərd?\nBạn có mệt không?\n\n0:51 1:47 2:43 \nAm I tired?\næm aɪ taɪərd?\nTôi có mệt không\n\n\n\nGửi giáo viên và nhà trường:\nVideo này được xuất bản theo Giấy phép Creative Commons.\n  CC BY 3.0 https://creativecommons.org/licenses/by/3.0/ \nHãy sử dụng video này trong các lớp học của bạn!\n\nChúng tôi sử dụng dịch vụ Google Dịch để bản địa hóa. Nếu bạn tìm thấy một số sai lầm, xin vui lòng cho chúng tôi biết.\n"
    },
    {
      "Lang": "xh",
      "Title": "Ukuziqhelanisa negrama yesiNgesi | Elula Ostreliya ⭐️ #7 Am/Are/Is ?",
      "Description": "Funda igrama yesiNgesi! Guqula igama kwisivakalisi.\n\n\n\n0:04 1:03 1:59 \nAre you angry?\nər ju ˈæŋgri?\nUnomsindo?\n\n0:17 1:15 2:11 \nAre your parents angry?\nər jʊr ˈpɛrənts ˈæŋgri?\nNgaba abazali bakho banomsindo?\n\n0:30 1:28 2:24 \nAre your parents tired?\nər jʊr ˈpɛrənts taɪərd?\nNgaba abazali bakho badiniwe?\n\n0:41 1:38 2:34 \nAre you tired?\nər ju taɪərd?\nUdiniwe?\n\n0:51 1:47 2:43 \nAm I tired?\næm aɪ taɪərd?\nNdidiniwe?\n\n\n\nKootitshala nakwizikolo:\nLe vidiyo ipapashwa phantsi kwelayisensi yeCreative Commons.\n  CC BY 3.0 https://creativecommons.org/licenses/by/3.0/ \nZive ukhululekile ukusebenzisa le vidiyo kwiiklasi zakho!\n\nSisebenzisa inkonzo yokuTolika kaGoogle ukuze sifumane indawo. Ukuba ufumana iimpazamo ezithile, nceda usazise.\n"
    },
    {
      "Lang": "yi",
      "Title": "ענגליש גראַמאַטיק עקסערסייזיז | פּשוט אויסטראַליע ⭐️ #7 Am/Are/Is ?",
      "Description": "לערן ענגליש גראַמאַטיק! טוישן אַ וואָרט אין אַ זאַץ.\n\n\n\n0:04 1:03 1:59 \nAre you angry?\nər ju ˈæŋgri?\nביסטו גערעגט?\n\n0:17 1:15 2:11 \nAre your parents angry?\nər jʊr ˈpɛrənts ˈæŋgri?\nזענען דיין עלטערן בייז?\n\n0:30 1:28 2:24 \nAre your parents tired?\nər jʊr ˈpɛrənts taɪərd?\nזענען דיין עלטערן מיד?\n\n0:41 1:38 2:34 \nAre you tired?\nər ju taɪərd?\nדו ביסט מיד?\n\n0:51 1:47 2:43 \nAm I tired?\næm aɪ taɪərd?\nבין איך מיד?\n\n\n\nצו לערערס און שולן:\nדער ווידעא איז ארויס אונטער Creative Commons License.\n  CC BY 3.0 https://creativecommons.org/licenses/by/3.0/ \nפילן פריי צו נוצן דעם ווידעא אין דיין קלאסן!\n\nמיר נוצן Google Translate דינסט פֿאַר לאָוקאַלאַזיישאַן. אויב איר געפֿינען עטלעכע מיסטייקס, ביטע לאָזן אונדז וויסן.\n"
    },
    {
      "Lang": "yo",
      "Title": "Awọn adaṣe gẹẹsi Gẹẹsi | Rọrun Australia ⭐️ #7 Am/Are/Is ?",
      "Description": "Kọ ẹkọ gẹẹsi Gẹẹsi! Yi ọrọ pada ninu gbolohun ọrọ.\n\n\n\n0:04 1:03 1:59 \nAre you angry?\nər ju ˈæŋgri?\nṢe o n binu?\n\n0:17 1:15 2:11 \nAre your parents angry?\nər jʊr ˈpɛrənts ˈæŋgri?\nṢe awọn obi rẹ binu?\n\n0:30 1:28 2:24 \nAre your parents tired?\nər jʊr ˈpɛrənts taɪərd?\nṢe awọn obi rẹ rẹ?\n\n0:41 1:38 2:34 \nAre you tired?\nər ju taɪərd?\nSe o re o?\n\n0:51 1:47 2:43 \nAm I tired?\næm aɪ taɪərd?\nṢe o rẹ mi?\n\n\n\nSi awọn olukọ ati awọn ile-iwe:\nFidio yii ni a tẹjade labẹ Iwe-aṣẹ Creative Commons.\n  CC BY 3.0 https://creativecommons.org/licenses/by/3.0/ \nLero lati lo fidio yii ninu awọn kilasi rẹ!\n\nA lo iṣẹ Google Translate fun agbegbe. Ti o ba rii diẹ ninu awọn aṣiṣe, jọwọ jẹ ki a mọ.\n"
    },
    {
      "Lang": "zh-Hans",
      "Title": "英语语法练习 | 简单 澳大利亚 ⭐️ #7 Am/Are/Is ?",
      "Description": "学习英语语法！ 更改句子中的单词。\n\n\n\n0:04 1:03 1:59 \nAre you angry?\nər ju ˈæŋgri?\n你在生气吗？\n\n0:17 1:15 2:11 \nAre your parents angry?\nər jʊr ˈpɛrənts ˈæŋgri?\n你父母生气了吗？\n\n0:30 1:28 2:24 \nAre your parents tired?\nər jʊr ˈpɛrənts taɪərd?\n你父母累了吗？\n\n0:41 1:38 2:34 \nAre you tired?\nər ju taɪərd?\n你累了吗？\n\n0:51 1:47 2:43 \nAm I tired?\næm aɪ taɪərd?\n我累了吗\n\n\n\n致老师和学校：\n该视频是根据知识共享许可发布的。\n  CC BY 3.0 https://creativecommons.org/licenses/by/3.0/ \n随时在您的课程中使用此视频！\n\n我们使用Google翻译服务进行本地化。如果您发现一些错误，请告诉我们。\n"
    },
    {
      "Lang": "zh-Hant",
      "Title": "英語語法練習 | 簡單 澳大利亞 ⭐️ #7 Am/Are/Is ?",
      "Description": "學習英語語法！ 更改句子中的單詞。\n\n\n\n0:04 1:03 1:59 \nAre you angry?\nər ju ˈæŋgri?\n你在生氣嗎？\n\n0:17 1:15 2:11 \nAre your parents angry?\nər jʊr ˈpɛrənts ˈæŋgri?\n你父母生氣了嗎？\n\n0:30 1:28 2:24 \nAre your parents tired?\nər jʊr ˈpɛrənts taɪərd?\n你父母累了嗎？\n\n0:41 1:38 2:34 \nAre you tired?\nər ju taɪərd?\n你累了嗎？\n\n0:51 1:47 2:43 \nAm I tired?\næm aɪ taɪərd?\n我累了嗎\n\n\n\n致老師和學校：\n該視頻是根據知識共享許可發布的。\n  CC BY 3.0 https://creativecommons.org/licenses/by/3.0/ \n隨時在您的課程中使用此視頻！\n\n我們使用Google翻譯服務進行本地化。如果您發現一些錯誤，請告訴我們。\n"
    },
    {
      "Lang": "zu",
      "Title": "Ukuzivocavoca kolimi lwesiNgisi | Elula E-Australia ⭐️ #7 Am/Are/Is ?",
      "Description": "Funda uhlelo lolimi lwesiNgisi! Shintsha igama emshweni.\n\n\n\n0:04 1:03 1:59 \nAre you angry?\nər ju ˈæŋgri?\nIngabe uthukuthele?\n\n0:17 1:15 2:11 \nAre your parents angry?\nər jʊr ˈpɛrənts ˈæŋgri?\nIngabe abazali bakho bathukuthele?\n\n0:30 1:28 2:24 \nAre your parents tired?\nər jʊr ˈpɛrənts taɪərd?\nNgabe abazali bakho bakhathele?\n\n0:41 1:38 2:34 \nAre you tired?\nər ju taɪərd?\nUkhathele?\n\n0:51 1:47 2:43 \nAm I tired?\næm aɪ taɪərd?\nNgikhathele?\n\n\n\nKothisha nasezikoleni:\nLe vidiyo ishicilelwe ngaphansi kwelayisensi yeCreative Commons.\n  CC BY 3.0 https://creativecommons.org/licenses/by/3.0/ \nZizwe ukhululekile ukusebenzisa le vidiyo emakilasini akho!\n\nSisebenzisa insiza ye-Google Humusha ukwenza okwasendaweni. Uma uthola amanye amaphutha, sicela usazise.\n"
    }
  ]
}