{
  "File": "grammar-en-beginner-simple_81_UK.mp4",
  "ID": "PQAWyOzQWMA",
  "AudioLang": "en",
  "DefaultLang": "pa",
  "Title": "ਅੰਗਰੇਜ਼ੀ ਵਿਆਕਰਣ ਅਭਿਆਸ | ਆਸਾਨ ਬ੍ਰਿਟਿਸ਼ ⭐️ #81 should",
  "Description": "ਅੰਗਰੇਜ਼ੀ ਵਿਆਕਰਣ ਸਿੱਖੋ! ਇੱਕ ਵਾਕ ਵਿੱਚ ਇੱਕ ਸ਼ਬਦ ਬਦਲੋ.\n\n\n\n0:04 1:12 2:20 \nYou should sleep\nju ʃʊd slip\nਤੁਹਾਨੂੰ ਸੌਣਾ ਚਾਹੀਦਾ ਹੈ\n\n0:17 1:25 2:33 \nWe should sleep\nwi ʃʊd slip\nਸਾਨੂੰ ਸੌਣਾ ਚਾਹੀਦਾ ਹੈ\n\n0:30 1:38 2:46 \nWe should walk\nwi ʃʊd wɔk\nਸਾਨੂੰ ਤੁਰਨਾ ਚਾਹੀਦਾ ਹੈ\n\n0:43 1:51 2:59 \nWe should not walk\nwi ʃʊd nɑt wɔk\nਸਾਨੂੰ ਨਹੀਂ ਤੁਰਨਾ ਚਾਹੀਦਾ\n\n0:56 2:04 3:12 \nYou should not walk\nju ʃʊd nɑt wɔk\nਤੁਹਾਨੂੰ ਤੁਰਨਾ ਨਹੀਂ ਚਾਹੀਦਾ\n\n\n\nਅਧਿਆਪਕਾਂ ਅਤੇ ਸਕੂਲਾਂ ਨੂੰ:\nਇਹ ਵੀਡੀਓ ਕਰੀਏਟਿਵ ਕਾਮਨਜ਼ ਲਾਇਸੈਂਸ ਅਧੀਨ ਪ੍ਰਕਾਸ਼ਤ ਕੀਤਾ ਗਿਆ ਹੈ.\n  CC BY 3.0 https://creativecommons.org/licenses/by/3.0/ \nਇਸ ਕਲਾਸ ਨੂੰ ਆਪਣੀਆਂ ਕਲਾਸਾਂ ਵਿਚ ਵਰਤਣ ਲਈ ਮੁਫ਼ਤ ਮਹਿਸੂਸ ਕਰੋ!\n\nਅਸੀਂ ਸਥਾਨਕਕਰਨ ਲਈ ਗੂਗਲ ਅਨੁਵਾਦ ਸੇਵਾ ਦੀ ਵਰਤੋਂ ਕਰਦੇ ਹਾਂ. ਜੇ ਤੁਹਾਨੂੰ ਕੁਝ ਗਲਤੀਆਂ ਮਿਲਦੀਆਂ ਹਨ, ਤਾਂ ਕਿਰਪਾ ਕਰਕੇ ਸਾਨੂੰ ਦੱਸੋ.\n",
  "VideoTags": "ਅੰਗਰੇਜ਼ੀ ਵਿਆਕਰਨ,ඉංග්‍රීසි ව්‍යාකරණ,វេយ្យាករណ៍អង់គ្លេស,Nahawu Turanci,Grammatika Ingliża,Chirungu,Igrama yesiNgesi,İngilis qrammatikası,engelsk grammatik,Grammaire Anglaise,Sarufi ya Kiingereza,Ingliz tili grammatikasi,Angleška slovnica,Граматыка англійскай мовы,английская грамматика",
  "YoutubeSynced": true,
  "ThumbnailUploaded": true,
  "Localizations": [
    {
      "Lang": "af",
      "Title": "Engelse grammatika-oefeninge | eenvoudige Britse ⭐️ #81 should",
      "Description": "Leer Engelse grammatika! Verander 'n woord in 'n sin.\n\n\n\n0:04 1:12 2:20 \nYou should sleep\nju ʃʊd slip\nJy moet slaap\n\n0:17 1:25 2:33 \nWe should sleep\nwi ʃʊd slip\nOns moet slaap\n\n0:30 1:38 2:46 \nWe should walk\nwi ʃʊd wɔk\nOns moet loop\n\n0:43 1:51 2:59 \nWe should not walk\nwi ʃʊd nɑt wɔk\nOns moet nie loop nie\n\n0:56 2:04 3:12 \nYou should not walk\nju ʃʊd nɑt wɔk\nJy moenie loop nie\n\n\n\nAan onderwysers en skole:\nHierdie video word onder Creative Commons-lisensie gepubliseer.\n  CC BY 3.0 https://creativecommons.org/licenses/by/3.0/ \nGebruik gerus hierdie video in u klasse!\n\nOns gebruik Google Translate-diens vir lokalisering. Laat weet ons as u foute ervaar.\n"
    },
    {
      "Lang": "am",
      "Title": "የእንግሊዝኛ ሰዋሰው ልምምዶች | ቀላል ብሪቲሽ ⭐️ #81 should",
      "Description": "የእንግሊዝኛ ሰዋስው ይማሩ! በአረፍተ ነገር ውስጥ አንድ ቃል ይለውጡ ፡፡\n\n\n\n0:04 1:12 2:20 \nYou should sleep\nju ʃʊd slip\nመተኛት አለብዎ\n\n0:17 1:25 2:33 \nWe should sleep\nwi ʃʊd slip\nመተኛት አለብን\n\n0:30 1:38 2:46 \nWe should walk\nwi ʃʊd wɔk\nመሄድ አለብን\n\n0:43 1:51 2:59 \nWe should not walk\nwi ʃʊd nɑt wɔk\nመሄድ የለብንም\n\n0:56 2:04 3:12 \nYou should not walk\nju ʃʊd nɑt wɔk\nመሄድ የለብዎትም\n\n\n\nለመምህራን እና ለት / ቤቶች\nይህ ቪዲዮ በ Creative Commons ፈቃድ ስር ታትሟል ፡፡\n  CC BY 3.0 https://creativecommons.org/licenses/by/3.0/ \nይህንን ቪዲዮ በትምህርቶችዎ ውስጥ ለመጠቀም ነፃ ይሁኑ!\n\nለትርጉም የ Google ትርጉም አገልግሎትን እንጠቀማለን። አንዳንድ ስህተቶች ካገኙ እባክዎ ያሳውቁን።\n"
    },
    {
      "Lang": "ar",
      "Title": "تمارين قواعد اللغة الإنجليزية | بسيط بريطاني ⭐️ #81 should",
      "Description": "تعلم قواعد اللغة الإنجليزية! تغيير كلمة في جملة.\n\n\n\n0:04 1:12 2:20 \nYou should sleep\nju ʃʊd slip\nيجب ان تنام\n\n0:17 1:25 2:33 \nWe should sleep\nwi ʃʊd slip\nيجب أن ننام\n\n0:30 1:38 2:46 \nWe should walk\nwi ʃʊd wɔk\nيجب أن نسير\n\n0:43 1:51 2:59 \nWe should not walk\nwi ʃʊd nɑt wɔk\nيجب أن لا نسير\n\n0:56 2:04 3:12 \nYou should not walk\nju ʃʊd nɑt wɔk\nيجب أن لا تمشي\n\n\n\nللمعلمين والمدارس:\nتم نشر هذا الفيديو تحت رخصة المشاع الإبداعي.\n  CC BY 3.0 https://creativecommons.org/licenses/by/3.0/ \nلا تتردد في استخدام هذا الفيديو في الفصول الدراسية!\n\nنستخدم خدمة الترجمة من Google للترجمة. إذا وجدت بعض الأخطاء ، يرجى إعلامنا.\n"
    },
    {
      "Lang": "az",
      "Title": "İngilis qrammatikası təlimləri | Sadə İngilis ⭐️ #81 should",
      "Description": "İngilis dili qrammatikasını öyrənin! Bir cümlədə bir söz dəyişdirin.\n\n\n\n0:04 1:12 2:20 \nYou should sleep\nju ʃʊd slip\nYatmalısan\n\n0:17 1:25 2:33 \nWe should sleep\nwi ʃʊd slip\nYatmalıyıq\n\n0:30 1:38 2:46 \nWe should walk\nwi ʃʊd wɔk\nGəzməliyik\n\n0:43 1:51 2:59 \nWe should not walk\nwi ʃʊd nɑt wɔk\nGəzməməliyik\n\n0:56 2:04 3:12 \nYou should not walk\nju ʃʊd nɑt wɔk\nGəzməməlisən\n\n\n\nMüəllimlərə və məktəblərə:\nBu video Creative Commons lisenziyası altında yayımlanıb.\n  CC BY 3.0 https://creativecommons.org/licenses/by/3.0/ \nBu videonu dərslərinizdə istifadə etməkdən çekinmeyin!\n\nLokallaşdırma üçün Google Translate xidmətindən istifadə edirik. Bəzi səhvlər taparsanız, bizə bildirin.\n"
    },
    {
      "Lang": "be",
      "Title": "Граматычныя практыкаванні на англійскай мове | Просты Брытанцы ⭐️ #81 should",
      "Description": "Вывучайце англійскую граматыку! Змяніце слова ў сказе.\n\n\n\n0:04 1:12 2:20 \nYou should sleep\nju ʃʊd slip\nВы павінны спаць\n\n0:17 1:25 2:33 \nWe should sleep\nwi ʃʊd slip\nМы павінны спаць\n\n0:30 1:38 2:46 \nWe should walk\nwi ʃʊd wɔk\nМы павінны хадзіць\n\n0:43 1:51 2:59 \nWe should not walk\nwi ʃʊd nɑt wɔk\nМы не павінны хадзіць\n\n0:56 2:04 3:12 \nYou should not walk\nju ʃʊd nɑt wɔk\nНе варта хадзіць\n\n\n\nДля настаўнікаў і школ:\nГэта відэа публікуецца пад ліцэнзіяй Creative Commons.\n  CC BY 3.0 https://creativecommons.org/licenses/by/3.0/ \nНе саромейцеся выкарыстоўваць гэта відэа ў сваіх класах!\n\nМы выкарыстоўваем паслугу Google Translate для лакалізацыі. Калі вы выявілі некаторыя памылкі, калі ласка, паведаміце нам пра гэта.\n"
    },
    {
      "Lang": "bg",
      "Title": "Английски граматически упражнения | прост британски ⭐️ #81 should",
      "Description": "Научете английска граматика! Промяна на дума в изречение.\n\n\n\n0:04 1:12 2:20 \nYou should sleep\nju ʃʊd slip\nТи трябва да спиш\n\n0:17 1:25 2:33 \nWe should sleep\nwi ʃʊd slip\nТрябва да спим\n\n0:30 1:38 2:46 \nWe should walk\nwi ʃʊd wɔk\nТрябва да ходим\n\n0:43 1:51 2:59 \nWe should not walk\nwi ʃʊd nɑt wɔk\nНе трябва да ходим\n\n0:56 2:04 3:12 \nYou should not walk\nju ʃʊd nɑt wɔk\nНе бива да ходите\n\n\n\nЗа учители и училища:\nТози видеоклип е публикуван под Creative Commons License.\n  CC BY 3.0 https://creativecommons.org/licenses/by/3.0/ \nЧувствайте се свободни да използвате това видео в класовете си!\n\nНие използваме услугата Google Translate за локализация. Ако откриете някои грешки, моля, уведомете ни.\n"
    },
    {
      "Lang": "bn",
      "Title": "ইংরেজি ব্যাকরণ অনুশীলন | সহজ ব্রিটিশ ⭐️ #81 should",
      "Description": "ইংরেজি ব্যাকরণ শিখুন! একটি বাক্যে একটি শব্দ পরিবর্তন করুন।\n\n\n\n0:04 1:12 2:20 \nYou should sleep\nju ʃʊd slip\nতোমার ঘুমানো উচিত\n\n0:17 1:25 2:33 \nWe should sleep\nwi ʃʊd slip\nআমাদের ঘুমানো উচিত\n\n0:30 1:38 2:46 \nWe should walk\nwi ʃʊd wɔk\nআমাদের চলতে হবে\n\n0:43 1:51 2:59 \nWe should not walk\nwi ʃʊd nɑt wɔk\nআমাদের চলতে হবে না\n\n0:56 2:04 3:12 \nYou should not walk\nju ʃʊd nɑt wɔk\nআপনার চলতে হবে না\n\n\n\nশিক্ষক এবং বিদ্যালয়ের কাছে:\nএই ভিডিওটি ক্রিয়েটিভ কমন্স লাইসেন্সের আওতায় প্রকাশিত হয়েছে।\n  CC BY 3.0 https://creativecommons.org/licenses/by/3.0/ \nআপনার ক্লাসে এই ভিডিওটি নির্দ্বিধায় ব্যবহার করুন!\n\nআমরা স্থানীয়করণের জন্য গুগল অনুবাদ পরিষেবা ব্যবহার করি। আপনি যদি কিছু ভুল খুঁজে পান তবে দয়া করে আমাদের জানান।\n"
    },
    {
      "Lang": "bs",
      "Title": "Engleske gramatičke vježbe | Jednostavno Britanski ⭐️ #81 should",
      "Description": "Naučite englesku gramatiku! Promenite reč u rečenici.\n\n\n\n0:04 1:12 2:20 \nYou should sleep\nju ʃʊd slip\nTrebao bi spavati\n\n0:17 1:25 2:33 \nWe should sleep\nwi ʃʊd slip\nTrebali bismo spavati\n\n0:30 1:38 2:46 \nWe should walk\nwi ʃʊd wɔk\nTrebali bismo hodati\n\n0:43 1:51 2:59 \nWe should not walk\nwi ʃʊd nɑt wɔk\nNe bismo trebali hodati\n\n0:56 2:04 3:12 \nYou should not walk\nju ʃʊd nɑt wɔk\nNe bi trebalo hodati\n\n\n\nNastavnicima i školama:\nOvaj video je objavljen pod Creative Commons licencom.\n  CC BY 3.0 https://creativecommons.org/licenses/by/3.0/ \nSlobodno koristite ovaj videozapis u svojim predavanjima!\n\nZa lokalizaciju koristimo uslugu Google Translate. Ako pronađete neke greške, javite nam se.\n"
    },
    {
      "Lang": "ca",
      "Title": "Exercicis de gramàtica anglesa | Senzill Britànic ⭐️ #81 should",
      "Description": "Apreneu gramàtica anglesa! Canvia una paraula en una frase.\n\n\n\n0:04 1:12 2:20 \nYou should sleep\nju ʃʊd slip\nHauries de dormir\n\n0:17 1:25 2:33 \nWe should sleep\nwi ʃʊd slip\nHauríem de dormir\n\n0:30 1:38 2:46 \nWe should walk\nwi ʃʊd wɔk\nHauríem de caminar\n\n0:43 1:51 2:59 \nWe should not walk\nwi ʃʊd nɑt wɔk\nNo hem de caminar\n\n0:56 2:04 3:12 \nYou should not walk\nju ʃʊd nɑt wɔk\nNo s’ha de caminar\n\n\n\nA professors i escoles:\nAquest vídeo es publica sota llicència Creative Commons.\n  CC BY 3.0 https://creativecommons.org/licenses/by/3.0/ \nNo dubteu a utilitzar aquest vídeo a les vostres classes.\n\nUtilitzem el servei de Google Translate per a la localització. Si trobeu alguns errors, feu-nos-ho saber.\n"
    },
    {
      "Lang": "co",
      "Title": "Esercizii di grammatica inglese | Semplice Britannicu ⭐️ #81 should",
      "Description": "Amparate a grammatica inglese! Cambia una parolla in una frase.\n\n\n\n0:04 1:12 2:20 \nYou should sleep\nju ʃʊd slip\nTu vi duverebbe dorme\n\n0:17 1:25 2:33 \nWe should sleep\nwi ʃʊd slip\nDuvemu dorme\n\n0:30 1:38 2:46 \nWe should walk\nwi ʃʊd wɔk\nDuvemu camminà\n\n0:43 1:51 2:59 \nWe should not walk\nwi ʃʊd nɑt wɔk\nÙn duvemu micca camminà\n\n0:56 2:04 3:12 \nYou should not walk\nju ʃʊd nɑt wɔk\nÙn duvete camminà\n\n\n\nÀ i prufessori è à e scole:\nStu video hè publicatu sottu licenza Creative Commons.\n  CC BY 3.0 https://creativecommons.org/licenses/by/3.0/ \nSentitevi liberi d'utilizà stu video in i vostri classi!\n\nUsu u serviziu di Google Translate per a localizazione. Se truvate qualchì sbagli, per piaceci di sapè.\n"
    },
    {
      "Lang": "cs",
      "Title": "Cvičení anglické gramatiky | Jednoduchý britský ⭐️ #81 should",
      "Description": "Naučte se anglickou gramatiku! Změňte slovo ve větě.\n\n\n\n0:04 1:12 2:20 \nYou should sleep\nju ʃʊd slip\nMěl bys spát\n\n0:17 1:25 2:33 \nWe should sleep\nwi ʃʊd slip\nMěli bychom spát\n\n0:30 1:38 2:46 \nWe should walk\nwi ʃʊd wɔk\nMěli bychom chodit\n\n0:43 1:51 2:59 \nWe should not walk\nwi ʃʊd nɑt wɔk\nNeměli bychom chodit\n\n0:56 2:04 3:12 \nYou should not walk\nju ʃʊd nɑt wɔk\nNeměli byste chodit\n\n\n\nUčitelům a školám:\nToto video je publikováno pod licencí Creative Commons License.\n  CC BY 3.0 https://creativecommons.org/licenses/by/3.0/ \nNeváhejte použít toto video ve svých třídách!\n\nK lokalizaci používáme službu Google Translate. Pokud narazíte na nějaké chyby, dejte nám prosím vědět.\n"
    },
    {
      "Lang": "cy",
      "Title": "Ymarferion gramadeg Saesneg | Syml Prydeinig ⭐️ #81 should",
      "Description": "Dysgu gramadeg Saesneg! Newid gair mewn brawddeg.\n\n\n\n0:04 1:12 2:20 \nYou should sleep\nju ʃʊd slip\nFe ddylech chi gysgu\n\n0:17 1:25 2:33 \nWe should sleep\nwi ʃʊd slip\nFe ddylen ni gysgu\n\n0:30 1:38 2:46 \nWe should walk\nwi ʃʊd wɔk\nFe ddylen ni gerdded\n\n0:43 1:51 2:59 \nWe should not walk\nwi ʃʊd nɑt wɔk\nNi ddylem gerdded\n\n0:56 2:04 3:12 \nYou should not walk\nju ʃʊd nɑt wɔk\nNi ddylech gerdded\n\n\n\nI athrawon ac ysgolion:\nCyhoeddir y fideo hon o dan Creative Commons License.\n  CC BY 3.0 https://creativecommons.org/licenses/by/3.0/ \nMae croeso i chi ddefnyddio'r fideo hon yn eich dosbarthiadau!\n\nRydym yn defnyddio gwasanaeth Google Translate ar gyfer lleoleiddio. Os dewch chi o hyd i rai camgymeriadau, rhowch wybod i ni.\n"
    },
    {
      "Lang": "da",
      "Title": "Engelsk grammatikøvelser | Enkel britisk ⭐️ #81 should",
      "Description": "Lær engelsk grammatik! Skift et ord i en sætning.\n\n\n\n0:04 1:12 2:20 \nYou should sleep\nju ʃʊd slip\nDu burde sove\n\n0:17 1:25 2:33 \nWe should sleep\nwi ʃʊd slip\nVi skulle sove\n\n0:30 1:38 2:46 \nWe should walk\nwi ʃʊd wɔk\nVi skulle gå\n\n0:43 1:51 2:59 \nWe should not walk\nwi ʃʊd nɑt wɔk\nVi skulle ikke gå\n\n0:56 2:04 3:12 \nYou should not walk\nju ʃʊd nɑt wɔk\nDu skal ikke gå\n\n\n\nTil lærere og skoler:\nDenne video er offentliggjort under Creative Commons License.\n  CC BY 3.0 https://creativecommons.org/licenses/by/3.0/ \nBrug gjerne denne video i dine klasser!\n\nVi bruger Google Translate-tjenesten til lokalisering. Hvis du finder nogle fejl, så lad os vide det.\n"
    },
    {
      "Lang": "de",
      "Title": "Englische Grammatikübungen | Einfach britisch ⭐️ #81 should",
      "Description": "Lerne englische Grammatik! Ändern Sie ein Wort in einem Satz.\n\n\n\n0:04 1:12 2:20 \nYou should sleep\nju ʃʊd slip\nDu solltest schlafen\n\n0:17 1:25 2:33 \nWe should sleep\nwi ʃʊd slip\nWir sollten schlafen\n\n0:30 1:38 2:46 \nWe should walk\nwi ʃʊd wɔk\nWir sollten gehen\n\n0:43 1:51 2:59 \nWe should not walk\nwi ʃʊd nɑt wɔk\nWir sollten nicht gehen\n\n0:56 2:04 3:12 \nYou should not walk\nju ʃʊd nɑt wɔk\nDu solltest nicht gehen\n\n\n\nAn Lehrer und Schulen:\nDieses Video wird unter der Creative Commons License veröffentlicht.\n  CC BY 3.0 https://creativecommons.org/licenses/by/3.0/ \nFühlen Sie sich frei, dieses Video in Ihren Klassen zu verwenden!\n\nWir verwenden den Google Translate-Dienst zur Lokalisierung. Wenn Sie Fehler finden, teilen Sie uns dies bitte mit.\n"
    },
    {
      "Lang": "el",
      "Title": "Αγγλικές ασκήσεις γραμματικής | Απλός Βρετανοί ⭐️ #81 should",
      "Description": "Μάθετε αγγλική γραμματική! Αλλάξτε μια λέξη σε μια πρόταση.\n\n\n\n0:04 1:12 2:20 \nYou should sleep\nju ʃʊd slip\nΠρέπει να κοιμηθείς\n\n0:17 1:25 2:33 \nWe should sleep\nwi ʃʊd slip\nΠρέπει να κοιμηθούμε\n\n0:30 1:38 2:46 \nWe should walk\nwi ʃʊd wɔk\nΠρέπει να περπατήσουμε\n\n0:43 1:51 2:59 \nWe should not walk\nwi ʃʊd nɑt wɔk\nΔεν πρέπει να περπατήσουμε\n\n0:56 2:04 3:12 \nYou should not walk\nju ʃʊd nɑt wɔk\nΔεν πρέπει να περπατήσετε\n\n\n\nΣτους εκπαιδευτικούς και τα σχολεία:\nΑυτό το βίντεο δημοσιεύεται υπό Creative Commons License.\n  CC BY 3.0 https://creativecommons.org/licenses/by/3.0/ \nΜπορείτε να χρησιμοποιήσετε αυτό το βίντεο στις τάξεις σας!\n\nΧρησιμοποιούμε την υπηρεσία Google Translate για εντοπισμό. Αν βρείτε κάποια λάθη, ενημερώστε μας.\n"
    },
    {
      "Lang": "en",
      "Title": "English grammar exercises | Simple British ⭐️ #81 should",
      "Description": "Learn English grammar! Change a word in a sentence.\n\n\n\n0:04 1:12 2:20 \nYou should sleep\nju ʃʊd slip\nYou should sleep\n\n0:17 1:25 2:33 \nWe should sleep\nwi ʃʊd slip\nWe should sleep\n\n0:30 1:38 2:46 \nWe should walk\nwi ʃʊd wɔk\nWe should walk\n\n0:43 1:51 2:59 \nWe should not walk\nwi ʃʊd nɑt wɔk\nWe should not walk\n\n0:56 2:04 3:12 \nYou should not walk\nju ʃʊd nɑt wɔk\nYou should not walk\n\n\n\nTo teachers and schools:\nThis video is published under Creative Commons License.\n  CC BY 3.0 https://creativecommons.org/licenses/by/3.0/ \nFeel free to use this video in your classes!\n\nWe use Google Translate service for localization. If you find some mistakes, please let us know.\n"
    },
    {
      "Lang": "es",
      "Title": "Ejercicios de gramática inglesa | Sencillo británico ⭐️ #81 should",
      "Description": "¡Aprende gramática inglesa! Cambiar una palabra en una oración.\n\n\n\n0:04 1:12 2:20 \nYou should sleep\nju ʃʊd slip\nDeberías dormir\n\n0:17 1:25 2:33 \nWe should sleep\nwi ʃʊd slip\nDeberíamos dormir\n\n0:30 1:38 2:46 \nWe should walk\nwi ʃʊd wɔk\nDebemos caminar\n\n0:43 1:51 2:59 \nWe should not walk\nwi ʃʊd nɑt wɔk\nNo debemos caminar\n\n0:56 2:04 3:12 \nYou should not walk\nju ʃʊd nɑt wɔk\nNo deberías caminar\n\n\n\nA profesores y escuelas:\nEste video se publica bajo licencia Creative Commons.\n  CC BY 3.0 https://creativecommons.org/licenses/by/3.0/ \n¡Siéntete libre de usar este video en tus clases!\n\nUtilizamos el servicio Google Translate para la localización. Si encuentra algunos errores, háganoslo saber.\n"
    },
    {
      "Lang": "et",
      "Title": "Inglise keele grammatika harjutused | Lihtne Briti ⭐️ #81 should",
      "Description": "Õpi inglise keele grammatikat! Muutke lauses sõna.\n\n\n\n0:04 1:12 2:20 \nYou should sleep\nju ʃʊd slip\nSa peaksid magama\n\n0:17 1:25 2:33 \nWe should sleep\nwi ʃʊd slip\nPeaksime magama\n\n0:30 1:38 2:46 \nWe should walk\nwi ʃʊd wɔk\nPeaksime kõndima\n\n0:43 1:51 2:59 \nWe should not walk\nwi ʃʊd nɑt wɔk\nMe ei peaks kõndima\n\n0:56 2:04 3:12 \nYou should not walk\nju ʃʊd nɑt wɔk\nTe ei tohiks kõndida\n\n\n\nÕpetajatele ja koolidele:\nSee video on avaldatud Creative Commonsi litsentsi all.\n  CC BY 3.0 https://creativecommons.org/licenses/by/3.0/ \nKasutage seda videot julgelt oma tundides!\n\nLokaliseerimiseks kasutame Google'i tõlke teenust. Kui leiate vigu, palun andke meile sellest teada.\n"
    },
    {
      "Lang": "eu",
      "Title": "Ingelesezko gramatika ariketak | simple British ⭐️ #81 should",
      "Description": "Ikasi ingelesezko gramatika! Aldatu esaldi batean hitzak.\n\n\n\n0:04 1:12 2:20 \nYou should sleep\nju ʃʊd slip\nLo egin beharko zenuke\n\n0:17 1:25 2:33 \nWe should sleep\nwi ʃʊd slip\nLo egin beharko genuke\n\n0:30 1:38 2:46 \nWe should walk\nwi ʃʊd wɔk\nOinez joan beharko genuke\n\n0:43 1:51 2:59 \nWe should not walk\nwi ʃʊd nɑt wɔk\nEz dugu ibili behar\n\n0:56 2:04 3:12 \nYou should not walk\nju ʃʊd nɑt wɔk\nEz zenuke ibili behar\n\n\n\nIrakasleei eta ikastetxeei:\nBideo hau Creative Commons lizentziapean argitaratzen da.\n  CC BY 3.0 https://creativecommons.org/licenses/by/3.0/ \nEz ahaztu bideo hau zure klaseetan erabiltzeko!\n\nGoogle Translate zerbitzua erabiltzen dugu lokalizaziorako. Akats batzuk aurkitzen badituzu, adierazi iezaguzu\n"
    },
    {
      "Lang": "fa",
      "Title": "تمرین های دستور زبان انگلیسی | ساده انگلیسی ⭐️ #81 should",
      "Description": "گرامر انگلیسی را بیاموزید! یک کلمه را در یک جمله تغییر دهید.\n\n\n\n0:04 1:12 2:20 \nYou should sleep\nju ʃʊd slip\nتو باید بخوابی\n\n0:17 1:25 2:33 \nWe should sleep\nwi ʃʊd slip\nباید بخوابیم\n\n0:30 1:38 2:46 \nWe should walk\nwi ʃʊd wɔk\nباید راه برویم\n\n0:43 1:51 2:59 \nWe should not walk\nwi ʃʊd nɑt wɔk\nما نباید راه برویم\n\n0:56 2:04 3:12 \nYou should not walk\nju ʃʊd nɑt wɔk\nنباید راه بروی\n\n\n\nبه معلمان و مدارس:\nاین ویدیو تحت مجوز Creative Commons منتشر شده است.\n  CC BY 3.0 https://creativecommons.org/licenses/by/3.0/ \nدر استفاده از این فیلم در کلاس های خود احساس راحتی کنید!\n\nما از خدمات Google Translate برای محلی سازی استفاده می کنیم. اگر شما برخی از اشتباهات ، لطفا به ما اطلاع دهید.\n"
    },
    {
      "Lang": "fi",
      "Title": "Englannin kieliopin harjoitukset | Yksinkertainen brittiläinen ⭐️ #81 should",
      "Description": "Opi englannin kielioppi! Vaihda sana lauseessa.\n\n\n\n0:04 1:12 2:20 \nYou should sleep\nju ʃʊd slip\nSinun pitäisi nukkua\n\n0:17 1:25 2:33 \nWe should sleep\nwi ʃʊd slip\nMeidän pitäisi nukkua\n\n0:30 1:38 2:46 \nWe should walk\nwi ʃʊd wɔk\nMeidän pitäisi kävellä\n\n0:43 1:51 2:59 \nWe should not walk\nwi ʃʊd nɑt wɔk\nMeidän ei pitäisi kävellä\n\n0:56 2:04 3:12 \nYou should not walk\nju ʃʊd nɑt wɔk\nSinun ei pitäisi kävellä\n\n\n\nOpettajille ja kouluille:\nTämä video on julkaistu Creative Commons -lisenssillä.\n  CC BY 3.0 https://creativecommons.org/licenses/by/3.0/ \nVoit vapaasti käyttää tätä videota luokissa!\n\nKäytämme lokalisointiin Google Translate -palvelua. Jos löydät virheitä, ota meihin yhteyttä.\n"
    },
    {
      "Lang": "fil",
      "Title": "Pagsasanay sa grammar ng Ingles | Simple British ⭐️ #81 should",
      "Description": "Alamin ang grammar ng Ingles! Baguhin ang isang salita sa isang pangungusap.\n\n\n\n0:04 1:12 2:20 \nYou should sleep\nju ʃʊd slip\nDapat matulog ka\n\n0:17 1:25 2:33 \nWe should sleep\nwi ʃʊd slip\nDapat matulog tayo\n\n0:30 1:38 2:46 \nWe should walk\nwi ʃʊd wɔk\nDapat tayong maglakad\n\n0:43 1:51 2:59 \nWe should not walk\nwi ʃʊd nɑt wɔk\nHindi tayo dapat lumakad\n\n0:56 2:04 3:12 \nYou should not walk\nju ʃʊd nɑt wɔk\nHindi ka dapat lumakad\n\n\n\nSa mga guro at paaralan:\nAng video na ito ay nai-publish sa ilalim ng Lisensya ng Creative Commons.\n  CC BY 3.0 https://creativecommons.org/licenses/by/3.0/ \nHuwag mag-atubiling gamitin ang video na ito sa iyong mga klase!\n\nWe use Google Translate service for localization. If you find some mistakes, please let us know.\n"
    },
    {
      "Lang": "fr",
      "Title": "Exercices de grammaire anglaise | Facile Britanique ⭐️ #81 should",
      "Description": "Apprenez la grammaire anglaise! Changer un mot dans une phrase.\n\n\n\n0:04 1:12 2:20 \nYou should sleep\nju ʃʊd slip\nTu devrais dormir\n\n0:17 1:25 2:33 \nWe should sleep\nwi ʃʊd slip\nOn devrait dormir\n\n0:30 1:38 2:46 \nWe should walk\nwi ʃʊd wɔk\nOn devrait marcher\n\n0:43 1:51 2:59 \nWe should not walk\nwi ʃʊd nɑt wɔk\nNous ne devons pas marcher\n\n0:56 2:04 3:12 \nYou should not walk\nju ʃʊd nɑt wɔk\nTu ne devrais pas marcher\n\n\n\nAux enseignants et aux écoles:\nCette vidéo est publiée sous licence Creative Commons.\n  CC BY 3.0 https://creativecommons.org/licenses/by/3.0/ \nN'hésitez pas à utiliser cette vidéo dans vos cours!\n\nNous utilisons le service Google Translate pour la localisation. Si vous trouvez des erreurs, veuillez nous en informer.\n"
    },
    {
      "Lang": "fy",
      "Title": "Ingelske oefeningen foar grammatika | Ienfâldich Britsk ⭐️ #81 should",
      "Description": "Learje Ingelske grammatika! Feroarje in wurd yn in sin.\n\n\n\n0:04 1:12 2:20 \nYou should sleep\nju ʃʊd slip\nDo moatst sliepe\n\n0:17 1:25 2:33 \nWe should sleep\nwi ʃʊd slip\nWy soene moatte sliepe\n\n0:30 1:38 2:46 \nWe should walk\nwi ʃʊd wɔk\nWy soene rinne moatte\n\n0:43 1:51 2:59 \nWe should not walk\nwi ʃʊd nɑt wɔk\nWy soene net rinne moatte\n\n0:56 2:04 3:12 \nYou should not walk\nju ʃʊd nɑt wɔk\nJo soene net rinne moatte\n\n\n\nOan dosinten en skoallen:\nDizze fideo wurdt publisearre ûnder Creative Commons License.\n  CC BY 3.0 https://creativecommons.org/licenses/by/3.0/ \nFiel jo frij om dizze fideo te brûken yn jo klassen!\n\nWy brûke Google Translate tsjinst foar lokalisaasje. As jo wat flaters fine, lit it ús dan witte.\n"
    },
    {
      "Lang": "gd",
      "Title": "Eacarsaichean gràmair Beurla | Gu sìmplidh Breatannach ⭐️ #81 should",
      "Description": "Ionnsaich gràmar Beurla! Atharraich facal ann an seantans.\n\n\n\n0:04 1:12 2:20 \nYou should sleep\nju ʃʊd slip\nBu chòir dhut cadal\n\n0:17 1:25 2:33 \nWe should sleep\nwi ʃʊd slip\nBu chòir dhuinn cadal\n\n0:30 1:38 2:46 \nWe should walk\nwi ʃʊd wɔk\nBu chòir dhuinn coiseachd\n\n0:43 1:51 2:59 \nWe should not walk\nwi ʃʊd nɑt wɔk\nCha bu chòir dhuinn coiseachd\n\n0:56 2:04 3:12 \nYou should not walk\nju ʃʊd nɑt wɔk\nCha bu chòir dhut coiseachd\n\n\n\nDo thidsearan agus sgoiltean:\nTha a ’bhidio seo air fhoillseachadh fo Creative Commons License.\n  CC BY 3.0 https://creativecommons.org/licenses/by/3.0/ \nFaodaidh tu am bhidio seo a chleachdadh anns na clasaichean agad!\n\nBidh sinn a ’cleachdadh seirbheis Google Translate airson sgìreachadh. Ma lorgas tu cuid de mhearachdan, feuch an innis thu dhuinn.\n"
    },
    {
      "Lang": "gl",
      "Title": "Exercicios de gramática inglesa | Sinxelo Británico ⭐️ #81 should",
      "Description": "Aprende gramática inglesa! Cambia unha palabra nunha frase.\n\n\n\n0:04 1:12 2:20 \nYou should sleep\nju ʃʊd slip\nDeberías durmir\n\n0:17 1:25 2:33 \nWe should sleep\nwi ʃʊd slip\nDeberiamos durmir\n\n0:30 1:38 2:46 \nWe should walk\nwi ʃʊd wɔk\nDeberiamos camiñar\n\n0:43 1:51 2:59 \nWe should not walk\nwi ʃʊd nɑt wɔk\nNon debemos camiñar\n\n0:56 2:04 3:12 \nYou should not walk\nju ʃʊd nɑt wɔk\nNon deberías andar\n\n\n\nPara profesores e colexios:\nEste vídeo está publicado baixo a licenza Creative Commons.\n  CC BY 3.0 https://creativecommons.org/licenses/by/3.0/ \nNon dubides en usar este vídeo nas túas clases.\n\nUsamos o servizo Google Translate para a súa localización. Se atopas algún erro, comunícanos.\n"
    },
    {
      "Lang": "gu",
      "Title": "અંગ્રેજી વ્યાકરણ વ્યાયામ | સરળ બ્રિટિશ ⭐️ #81 should",
      "Description": "અંગ્રેજી વ્યાકરણ શીખો! એક વાક્યમાં એક શબ્દ બદલો.\n\n\n\n0:04 1:12 2:20 \nYou should sleep\nju ʃʊd slip\nતમે ઊંઘી શકશો\n\n0:17 1:25 2:33 \nWe should sleep\nwi ʃʊd slip\nઆપણે સૂવું જોઈએ\n\n0:30 1:38 2:46 \nWe should walk\nwi ʃʊd wɔk\nઆપણે ચાલવું જોઈએ\n\n0:43 1:51 2:59 \nWe should not walk\nwi ʃʊd nɑt wɔk\nઆપણે ચાલવું ન જોઈએ\n\n0:56 2:04 3:12 \nYou should not walk\nju ʃʊd nɑt wɔk\nતમારે ચાલવું ન જોઈએ\n\n\n\nશિક્ષકો અને શાળાઓને:\nઆ વિડિઓ ક્રિએટિવ કonsમન્સ લાઇસન્સ હેઠળ પ્રકાશિત છે.\n  CC BY 3.0 https://creativecommons.org/licenses/by/3.0/ \nતમારા વર્ગોમાં આ વિડિઓનો ઉપયોગ કરવા માટે મફત લાગે!\n\nઅમે સ્થાનિકીકરણ માટે Google ભાષાંતર સેવાનો ઉપયોગ કરીએ છીએ. જો તમને કેટલીક ભૂલો લાગે છે, તો કૃપા કરીને અમને જણાવો.\n"
    },
    {
      "Lang": "ha",
      "Title": "Darasi na ilimin nahawu na Turanci | Mai sauki Birtaniya ⭐️ #81 should",
      "Description": "Koyi ilimin nahawu Turanci! Canja kalma a cikin jumla.\n\n\n\n0:04 1:12 2:20 \nYou should sleep\nju ʃʊd slip\nYakamata kuyi bacci\n\n0:17 1:25 2:33 \nWe should sleep\nwi ʃʊd slip\nYakamata muyi bacci\n\n0:30 1:38 2:46 \nWe should walk\nwi ʃʊd wɔk\nYa kamata muyi tafiya\n\n0:43 1:51 2:59 \nWe should not walk\nwi ʃʊd nɑt wɔk\nKada muyi tafiya\n\n0:56 2:04 3:12 \nYou should not walk\nju ʃʊd nɑt wɔk\nBai kamata ku yi tafiya ba\n\n\n\nGa malamai da makarantu:\nWannan bidiyon an buga shi a ƙarƙashin lasisin Creative Commons.\n  CC BY 3.0 https://creativecommons.org/licenses/by/3.0/ \nJin kyauta don amfani da wannan bidiyon a cikin azuzuwanku!\n\nMuna amfani da sabis na Google Fassara don fassarar. Idan ka sami wasu kurakurai, da fatan za a sanar da mu.\n"
    },
    {
      "Lang": "hi",
      "Title": "अंग्रेजी व्याकरण अभ्यास | सरल अंग्रेजों ⭐️ #81 should",
      "Description": "अंग्रेजी व्याकरण जानें! एक वाक्य में एक शब्द बदलें।\n\n\n\n0:04 1:12 2:20 \nYou should sleep\nju ʃʊd slip\nतुम्हें सो जाना चाहिए\n\n0:17 1:25 2:33 \nWe should sleep\nwi ʃʊd slip\nहमें सोना चाहिए\n\n0:30 1:38 2:46 \nWe should walk\nwi ʃʊd wɔk\nहमें चलना चाहिए\n\n0:43 1:51 2:59 \nWe should not walk\nwi ʃʊd nɑt wɔk\nहमें नहीं चलना चाहिए\n\n0:56 2:04 3:12 \nYou should not walk\nju ʃʊd nɑt wɔk\nआपको नहीं चलना चाहिए\n\n\n\nशिक्षकों और स्कूलों के लिए:\nयह वीडियो क्रिएटिव कॉमन्स लाइसेंस के तहत प्रकाशित हुआ है।\n  CC BY 3.0 https://creativecommons.org/licenses/by/3.0/ \nअपनी कक्षाओं में इस वीडियो का उपयोग करने के लिए स्वतंत्र महसूस करें!\n\nहम स्थानीयकरण के लिए Google अनुवाद सेवा का उपयोग करते हैं। यदि आप कुछ गलतियाँ पाते हैं, तो कृपया हमें बताएँ।\n"
    },
    {
      "Lang": "hr",
      "Title": "Gramatičke vježbe engleskog jezika | Jednostavan britanski ⭐️ #81 should",
      "Description": "Naučite englesku gramatiku! Promijenite riječ u rečenici.\n\n\n\n0:04 1:12 2:20 \nYou should sleep\nju ʃʊd slip\nTrebao bi spavati\n\n0:17 1:25 2:33 \nWe should sleep\nwi ʃʊd slip\nTrebamo spavati\n\n0:30 1:38 2:46 \nWe should walk\nwi ʃʊd wɔk\nTrebamo hodati\n\n0:43 1:51 2:59 \nWe should not walk\nwi ʃʊd nɑt wɔk\nNe bismo trebali hodati\n\n0:56 2:04 3:12 \nYou should not walk\nju ʃʊd nɑt wɔk\nNe bi trebao hodati\n\n\n\nNastavnicima i školama:\nOvaj videozapis objavljen je pod licencom Creative Commons.\n  CC BY 3.0 https://creativecommons.org/licenses/by/3.0/ \nSlobodno upotrijebite ovaj videozapis u svojim predavanjima!\n\nZa lokalizaciju koristimo uslugu Google Translate. Ako pronađete neke pogreške, javite nam se.\n"
    },
    {
      "Lang": "hu",
      "Title": "Angol nyelvtan gyakorlatok | Egyszerű angol ⭐️ #81 should",
      "Description": "Tanulj angol nyelvtant! Változtasson egy szót egy mondatban.\n\n\n\n0:04 1:12 2:20 \nYou should sleep\nju ʃʊd slip\nAludnod kellene\n\n0:17 1:25 2:33 \nWe should sleep\nwi ʃʊd slip\nAludnunk kellene\n\n0:30 1:38 2:46 \nWe should walk\nwi ʃʊd wɔk\nSétálnunk kellene\n\n0:43 1:51 2:59 \nWe should not walk\nwi ʃʊd nɑt wɔk\nNem szabad járnunk\n\n0:56 2:04 3:12 \nYou should not walk\nju ʃʊd nɑt wɔk\nNem szabad járni\n\n\n\nTanároknak és iskoláknak:\nEz a videó a Creative Commons License alatt jelenik meg.\n  CC BY 3.0 https://creativecommons.org/licenses/by/3.0/ \nNyugodtan használja ezt a videót az osztályokban!\n\nA lokalizációhoz a Google Translate szolgáltatást használjuk. Ha hibát talál, kérjük, ossza meg velünk.\n"
    },
    {
      "Lang": "hy",
      "Title": "Անգլերենի քերականական վարժություններ | Պարզ Բրիտանական ⭐️ #81 should",
      "Description": "Իմացեք անգլերեն քերականությունը: Մի նախադասությամբ մի բառ փոխեք:\n\n\n\n0:04 1:12 2:20 \nYou should sleep\nju ʃʊd slip\nՊետք է քնել\n\n0:17 1:25 2:33 \nWe should sleep\nwi ʃʊd slip\nՊետք է քնել\n\n0:30 1:38 2:46 \nWe should walk\nwi ʃʊd wɔk\nՄենք պետք է քայլենք\n\n0:43 1:51 2:59 \nWe should not walk\nwi ʃʊd nɑt wɔk\nՄենք չպետք է քայլենք\n\n0:56 2:04 3:12 \nYou should not walk\nju ʃʊd nɑt wɔk\nԴուք չպետք է քայլեք\n\n\n\nՈւսուցիչներին և դպրոցներին.\nԱյս տեսանյութը հրապարակված է Creative Commons արտոնագրի ներքո:\n  CC BY 3.0 https://creativecommons.org/licenses/by/3.0/ \nԱզատորեն օգտվեք այս տեսանյութից ձեր դասերից:\n\nՄենք օգտագործում ենք Google Translate ծառայությունը տեղայնացման համար: Եթե որոշ սխալներ եք գտնում, խնդրում ենք տեղեկացնել մեզ:\n"
    },
    {
      "Lang": "id",
      "Title": "Latihan tata bahasa Inggris | Sederhana Inggris ⭐️ #81 should",
      "Description": "Belajar tata bahasa Inggris! Ubah kata dalam kalimat.\n\n\n\n0:04 1:12 2:20 \nYou should sleep\nju ʃʊd slip\nKamu harus tidur\n\n0:17 1:25 2:33 \nWe should sleep\nwi ʃʊd slip\nKita harus tidur\n\n0:30 1:38 2:46 \nWe should walk\nwi ʃʊd wɔk\nKita harus berjalan\n\n0:43 1:51 2:59 \nWe should not walk\nwi ʃʊd nɑt wɔk\nKita seharusnya tidak berjalan\n\n0:56 2:04 3:12 \nYou should not walk\nju ʃʊd nɑt wɔk\nAnda seharusnya tidak berjalan\n\n\n\nKepada guru dan sekolah:\nVideo ini diterbitkan di bawah Lisensi Creative Commons.\n  CC BY 3.0 https://creativecommons.org/licenses/by/3.0/ \nJangan ragu untuk menggunakan video ini di kelas Anda!\n\nKami menggunakan layanan Google Terjemahan untuk pelokalan. Jika Anda menemukan beberapa kesalahan, beri tahu kami.\n"
    },
    {
      "Lang": "ig",
      "Title": "Ọmụmụ asụsụ ụtọ asụsụ Bekee | Dị Mfe Onye Britain ⭐️ #81 should",
      "Description": "Muta asusu bekee! Gbanwee okwu na ahịrịokwu.\n\n\n\n0:04 1:12 2:20 \nYou should sleep\nju ʃʊd slip\nI gha hie ura\n\n0:17 1:25 2:33 \nWe should sleep\nwi ʃʊd slip\nAnyị kwesịrị ịna-ehi ụra\n\n0:30 1:38 2:46 \nWe should walk\nwi ʃʊd wɔk\nAnyị kwesịrị ịga ije\n\n0:43 1:51 2:59 \nWe should not walk\nwi ʃʊd nɑt wɔk\nAnyị ekwesịghị ịga ije\n\n0:56 2:04 3:12 \nYou should not walk\nju ʃʊd nɑt wɔk\nIkwesighi ije\n\n\n\nMaka ndị nkuzi na ụlọ akwụkwọ:\nEdere vidiyo a n'okpuru ikikere Creative Commons.\n  CC BY 3.0 https://creativecommons.org/licenses/by/3.0/ \nNwere onwe gị iji vidiyo a na klaasị gị!\n\nAnyị na-eji ọrụ ntụgharị Google emegharị. Ọ bụrụ n’ịhụ ụfọdụ mmejọ, biko mee ka anyị mara.\n"
    },
    {
      "Lang": "is",
      "Title": "Enskar málfræðiæfingar | Einfalt Bretar ⭐️ #81 should",
      "Description": "Lærðu ensku málfræði! Skiptu um orð í setningu.\n\n\n\n0:04 1:12 2:20 \nYou should sleep\nju ʃʊd slip\nÞú ættir að sofa\n\n0:17 1:25 2:33 \nWe should sleep\nwi ʃʊd slip\nVið ættum að sofa\n\n0:30 1:38 2:46 \nWe should walk\nwi ʃʊd wɔk\nVið ættum að ganga\n\n0:43 1:51 2:59 \nWe should not walk\nwi ʃʊd nɑt wɔk\nVið eigum ekki að ganga\n\n0:56 2:04 3:12 \nYou should not walk\nju ʃʊd nɑt wɔk\nÞú ættir ekki að ganga\n\n\n\nTil kennara og skóla:\nÞetta myndband er birt undir Creative Commons leyfi.\n  CC BY 3.0 https://creativecommons.org/licenses/by/3.0/ \nEkki hika við að nota þetta myndband í bekkjum þínum!\n\nVið notum Google Translate þjónustu til að staðsetja. Láttu okkur vita ef þú finnur fyrir einhverjum mistökum.\n"
    },
    {
      "Lang": "it",
      "Title": "Esercizi di grammatica inglese | Semplice Britannico ⭐️ #81 should",
      "Description": "Impara la grammatica inglese! Cambia una parola in una frase.\n\n\n\n0:04 1:12 2:20 \nYou should sleep\nju ʃʊd slip\nDovresti dormire\n\n0:17 1:25 2:33 \nWe should sleep\nwi ʃʊd slip\nDovremmo dormire\n\n0:30 1:38 2:46 \nWe should walk\nwi ʃʊd wɔk\nDovremmo camminare\n\n0:43 1:51 2:59 \nWe should not walk\nwi ʃʊd nɑt wɔk\nNon dovremmo camminare\n\n0:56 2:04 3:12 \nYou should not walk\nju ʃʊd nɑt wɔk\nNon dovresti camminare\n\n\n\nPer insegnanti e scuole:\nQuesto video è pubblicato sotto la licenza Creative Commons.\n  CC BY 3.0 https://creativecommons.org/licenses/by/3.0/ \nSentiti libero di usare questo video nelle tue lezioni!\n\nUtilizziamo il servizio Google Translate per la localizzazione. Se trovi qualche errore, faccelo sapere.\n"
    },
    {
      "Lang": "iw",
      "Title": "תרגילי דקדוק באנגלית | פשוט בריטי ⭐️ #81 should",
      "Description": "למד דקדוק באנגלית! שנה מילה במשפט.\n\n\n\n0:04 1:12 2:20 \nYou should sleep\nju ʃʊd slip\nאתה צריך לישון\n\n0:17 1:25 2:33 \nWe should sleep\nwi ʃʊd slip\nעלינו לישון\n\n0:30 1:38 2:46 \nWe should walk\nwi ʃʊd wɔk\nעלינו ללכת\n\n0:43 1:51 2:59 \nWe should not walk\nwi ʃʊd nɑt wɔk\nאנחנו לא צריכים ללכת\n\n0:56 2:04 3:12 \nYou should not walk\nju ʃʊd nɑt wɔk\nאסור ללכת\n\n\n\nלמורים ובתי ספר:\nסרטון זה מתפרסם תחת רישיון Creative Commons.\n  CC BY 3.0 https://creativecommons.org/licenses/by/3.0/ \nאל תהסס להשתמש בסרטון זה בשיעורים שלך!\n\nאנו משתמשים בשירות Google Translate לצורך לוקליזציה. אם אתה מוצא טעויות, אנא הודע לנו על כך.\n"
    },
    {
      "Lang": "ja",
      "Title": "英文法練習 | シンプル イギリス ⭐️ #81 should",
      "Description": "英語の文法を学びましょう！ 文中の単語を変更します。\n\n\n\n0:04 1:12 2:20 \nYou should sleep\nju ʃʊd slip\n寝るべきだ\n\n0:17 1:25 2:33 \nWe should sleep\nwi ʃʊd slip\n寝るべきです\n\n0:30 1:38 2:46 \nWe should walk\nwi ʃʊd wɔk\n歩くべき\n\n0:43 1:51 2:59 \nWe should not walk\nwi ʃʊd nɑt wɔk\n歩いてはいけない\n\n0:56 2:04 3:12 \nYou should not walk\nju ʃʊd nɑt wɔk\n歩いてはいけません\n\n\n\n先生と学校へ：\nこのビデオは、クリエイティブコモンズライセンスの下で公開されています。\n  CC BY 3.0 https://creativecommons.org/licenses/by/3.0/ \nこのビデオをクラスで自由に使用してください！\n\nローカライズにはGoogle翻訳サービスを使用しています。間違いを見つけた場合はお知らせください。\n"
    },
    {
      "Lang": "jv",
      "Title": "Latihan grammar Inggris | Prasaja Inggris ⭐️ #81 should",
      "Description": "Sinau tata basa Inggris! Ngganti tembung sajrone ukara.\n\n\n\n0:04 1:12 2:20 \nYou should sleep\nju ʃʊd slip\nSampeyan kudu turu\n\n0:17 1:25 2:33 \nWe should sleep\nwi ʃʊd slip\nKita kudu turu\n\n0:30 1:38 2:46 \nWe should walk\nwi ʃʊd wɔk\nKita kudu mlaku\n\n0:43 1:51 2:59 \nWe should not walk\nwi ʃʊd nɑt wɔk\nKita ora kudu mlaku-mlaku\n\n0:56 2:04 3:12 \nYou should not walk\nju ʃʊd nɑt wɔk\nSampeyan ora kudu mlaku-mlaku\n\n\n\nTumrap guru lan sekolah:\nVideo iki diterbitake ing lisensi Creative Commons.\n  CC BY 3.0 https://creativecommons.org/licenses/by/3.0/ \nOjo nggunakake video iki ing kelas sampeyan!\n\nKita nggunakake layanan Google Translate kanggo lokalisasi. Yen sampeyan nemokake sawetara kesalahan, kabari.\n"
    },
    {
      "Lang": "ka",
      "Title": "ინგლისური გრამატიკის სავარჯიშოები | მარტივი ბრიტანული ⭐️ #81 should",
      "Description": "შეიტყვეთ ინგლისური ენის გრამატიკა! წინადადებაში შეცვალეთ სიტყვა.\n\n\n\n0:04 1:12 2:20 \nYou should sleep\nju ʃʊd slip\nᲣნდა დაიძინო\n\n0:17 1:25 2:33 \nWe should sleep\nwi ʃʊd slip\nუნდა დავიძინოთ\n\n0:30 1:38 2:46 \nWe should walk\nwi ʃʊd wɔk\nუნდა ვიაროთ\n\n0:43 1:51 2:59 \nWe should not walk\nwi ʃʊd nɑt wɔk\nარ უნდა ვიაროთ\n\n0:56 2:04 3:12 \nYou should not walk\nju ʃʊd nɑt wɔk\nარ უნდა იარო\n\n\n\nმასწავლებლებსა და სკოლებს:\nეს ვიდეო გამოქვეყნებულია Creative Commons- ის ლიცენზიით.\n  CC BY 3.0 https://creativecommons.org/licenses/by/3.0/ \nშეგიძლიათ გამოიყენოთ ეს ვიდეო თქვენს კლასებში!\n\nჩვენ ვიყენებთ Google Translate სერვისს ლოკალიზაციისთვის. თუ შეცდომებს იპოვნით, გთხოვთ, შეგვატყობინოთ.\n"
    },
    {
      "Lang": "kk",
      "Title": "Ағылшын грамматикалық жаттығулары | Қарапайым Британдық ⭐️ #81 should",
      "Description": "Ағылшын грамматикасын үйрен! Сөйлемдегі сөзді өзгертіңіз.\n\n\n\n0:04 1:12 2:20 \nYou should sleep\nju ʃʊd slip\nҰйықтау керек\n\n0:17 1:25 2:33 \nWe should sleep\nwi ʃʊd slip\nБіз ұйықтауымыз керек\n\n0:30 1:38 2:46 \nWe should walk\nwi ʃʊd wɔk\nБіз жүруіміз керек\n\n0:43 1:51 2:59 \nWe should not walk\nwi ʃʊd nɑt wɔk\nБіз жүрмеуіміз керек\n\n0:56 2:04 3:12 \nYou should not walk\nju ʃʊd nɑt wɔk\nСіз жүрмеуіңіз керек\n\n\n\nОқытушылар мен мектептерге:\nБұл бейне Creative Commons лицензиясы бойынша жарияланған.\n  CC BY 3.0 https://creativecommons.org/licenses/by/3.0/ \nБұл бейнені өз сабақтарыңызда қолдануға болады!\n\nGoogle Translate қызметін локализациялау үшін қолданамыз. Егер сіз қате тапсаңыз, бізге хабарлаңыз.\n"
    },
    {
      "Lang": "km",
      "Title": "លំហាត់វេយ្យាករណ៍អង់គ្លេស | សាមញ្ញ អង់គ្លេស ⭐️ #81 should",
      "Description": "រៀនវេយ្យាករណ៍អង់គ្លេស! ផ្លាស់ប្តូរពាក្យនៅក្នុងប្រយោគមួយ។\n\n\n\n0:04 1:12 2:20 \nYou should sleep\nju ʃʊd slip\nអ្នក​គួរ​គេង\n\n0:17 1:25 2:33 \nWe should sleep\nwi ʃʊd slip\nយើងគួរតែគេង\n\n0:30 1:38 2:46 \nWe should walk\nwi ʃʊd wɔk\nយើងគួរតែដើរ\n\n0:43 1:51 2:59 \nWe should not walk\nwi ʃʊd nɑt wɔk\nយើងមិនគួរដើរទេ\n\n0:56 2:04 3:12 \nYou should not walk\nju ʃʊd nɑt wɔk\nអ្នកមិនគួរដើរទេ\n\n\n\nជូនដល់គ្រូនិងសាលា៖\nវីដេអូនេះត្រូវបានផ្សព្វផ្សាយក្រោមអាជ្ញាប័ណ្ណច្នៃប្រឌិត។\n  CC BY 3.0 https://creativecommons.org/licenses/by/3.0/ \nសូមប្រើវីដេអូនេះនៅក្នុងថ្នាក់របស់អ្នកដោយឥតគិតថ្លៃ!\n\nយើងប្រើសេវាកម្មបកប្រែហ្គូហ្គលសម្រាប់ការធ្វើមូលដ្ឋានីយកម្ម។ ប្រសិនបើអ្នករកឃើញកំហុសខ្លះសូមប្រាប់ឱ្យយើងដឹង។\n"
    },
    {
      "Lang": "kn",
      "Title": "ಇಂಗ್ಲಿಷ್ ವ್ಯಾಕರಣ ವ್ಯಾಯಾಮ | ಸರಳ ಬ್ರಿಟಿಷ್ ⭐️ #81 should",
      "Description": "ಇಂಗ್ಲಿಷ್ ವ್ಯಾಕರಣ ಕಲಿಯಿರಿ! ಒಂದು ವಾಕ್ಯದಲ್ಲಿ ಪದವನ್ನು ಬದಲಾಯಿಸಿ.\n\n\n\n0:04 1:12 2:20 \nYou should sleep\nju ʃʊd slip\nನೀವು ಮಲಗಬೇಕು\n\n0:17 1:25 2:33 \nWe should sleep\nwi ʃʊd slip\nನಾವು ಮಲಗಬೇಕು\n\n0:30 1:38 2:46 \nWe should walk\nwi ʃʊd wɔk\nನಾವು ನಡೆಯಬೇಕು\n\n0:43 1:51 2:59 \nWe should not walk\nwi ʃʊd nɑt wɔk\nನಾವು ನಡೆಯಬಾರದು\n\n0:56 2:04 3:12 \nYou should not walk\nju ʃʊd nɑt wɔk\nನೀವು ನಡೆಯಬಾರದು\n\n\n\nಶಿಕ್ಷಕರು ಮತ್ತು ಶಾಲೆಗಳಿಗೆ:\nಈ ವೀಡಿಯೊವನ್ನು ಕ್ರಿಯೇಟಿವ್ ಕಾಮನ್ಸ್ ಪರವಾನಗಿ ಅಡಿಯಲ್ಲಿ ಪ್ರಕಟಿಸಲಾಗಿದೆ.\n  CC BY 3.0 https://creativecommons.org/licenses/by/3.0/ \nನಿಮ್ಮ ತರಗತಿಗಳಲ್ಲಿ ಈ ವೀಡಿಯೊವನ್ನು ಬಳಸಲು ಹಿಂಜರಿಯಬೇಡಿ!\n\nಸ್ಥಳೀಕರಣಕ್ಕಾಗಿ ನಾವು Google ಅನುವಾದ ಸೇವೆಯನ್ನು ಬಳಸುತ್ತೇವೆ. ನೀವು ಕೆಲವು ತಪ್ಪುಗಳನ್ನು ಕಂಡುಕೊಂಡರೆ, ದಯವಿಟ್ಟು ನಮಗೆ ತಿಳಿಸಿ.\n"
    },
    {
      "Lang": "ko",
      "Title": "영어 문법 연습 | 단순한 영국인 ⭐️ #81 should",
      "Description": "영어 문법 배우기! 문장에서 단어를 변경하십시오.\n\n\n\n0:04 1:12 2:20 \nYou should sleep\nju ʃʊd slip\n넌 자야 해\n\n0:17 1:25 2:33 \nWe should sleep\nwi ʃʊd slip\n우리는 자야한다\n\n0:30 1:38 2:46 \nWe should walk\nwi ʃʊd wɔk\n우리는 걸어야한다\n\n0:43 1:51 2:59 \nWe should not walk\nwi ʃʊd nɑt wɔk\n우리는 걷지 말아야한다\n\n0:56 2:04 3:12 \nYou should not walk\nju ʃʊd nɑt wɔk\n걷지 말아야한다\n\n\n\n교사와 학교 :\n이 비디오는 Creative Commons License에 따라 게시됩니다.\n  CC BY 3.0 https://creativecommons.org/licenses/by/3.0/ \n이 비디오를 수업에 자유롭게 사용하십시오!\n\n현지화를 위해 Google 번역 서비스를 사용합니다. 실수가 있으면 알려주세요.\n"
    },
    {
      "Lang": "ku",
      "Title": "Pratîkên rêzimanê Englishngilîzî | Asan Brîtanî ⭐️ #81 should",
      "Description": "Gramera Englishngilîzî fêr bibin! Di hevokan de peyvek diguhezin.\n\n\n\n0:04 1:12 2:20 \nYou should sleep\nju ʃʊd slip\nDivê hûn razin\n\n0:17 1:25 2:33 \nWe should sleep\nwi ʃʊd slip\nDivê em razên\n\n0:30 1:38 2:46 \nWe should walk\nwi ʃʊd wɔk\nDivê em bimeşin\n\n0:43 1:51 2:59 \nWe should not walk\nwi ʃʊd nɑt wɔk\nDivê em dernekevin\n\n0:56 2:04 3:12 \nYou should not walk\nju ʃʊd nɑt wɔk\nDivê hûn dernekevin\n\n\n\nJi mamoste û dibistanan re:\nEv vîdyoyê di bin lîsansa Creative Commons-ê de hatî weşandin.\n  CC BY 3.0 https://creativecommons.org/licenses/by/3.0/ \nHêsan e ku hûn vê vîdyoyê di sinifên xwe de bikar bînin!\n\nEm ji bo herêmbûnê karûbarê Google Translate kar dikin. Heke hûn hin xeletiyan bibînin, ji kerema xwe ji me re agahdar bikin.\n"
    },
    {
      "Lang": "ky",
      "Title": "Англис тилинин грамматикасы боюнча көнүгүүлөр | жөнөкөй Британдык ⭐️ #81 should",
      "Description": "Үйрөнүү Англис тилинин грамматикасы! Сүйлөмдөгү Сөздү өзгөртүү.\n\n\n\n0:04 1:12 2:20 \nYou should sleep\nju ʃʊd slip\nСен укташың керек\n\n0:17 1:25 2:33 \nWe should sleep\nwi ʃʊd slip\nБиз уктап керек\n\n0:30 1:38 2:46 \nWe should walk\nwi ʃʊd wɔk\nБиз жүрүшү керек\n\n0:43 1:51 2:59 \nWe should not walk\nwi ʃʊd nɑt wɔk\nБиз жүрө бербешибиз керек\n\n0:56 2:04 3:12 \nYou should not walk\nju ʃʊd nɑt wɔk\nСиз таптакыр баспаш керек\n\n\n\nмугалимдер жана мектептер үчүн:\nБул көргөзмө Creative Commons лиссиэнсийэ усулуобуйатынан жарыяланат.\n  CC BY 3.0 https://creativecommons.org/licenses/by/3.0/ \nСиздин класстары колдонсо болот!\n\nБиз Google локалдаштыруу үчүн Котормо кызматын пайдаланышат. Эгер кээ бир ката болсо, бизге айтып койуу.\n"
    },
    {
      "Lang": "lb",
      "Title": "Englesch Grammatikübungen | Einfach Britesch ⭐️ #81 should",
      "Description": "Léiert Englesch Grammatik! Ännert e Wuert an engem Saz.\n\n\n\n0:04 1:12 2:20 \nYou should sleep\nju ʃʊd slip\nDir sollt schlofen\n\n0:17 1:25 2:33 \nWe should sleep\nwi ʃʊd slip\nMir sollten schlofen\n\n0:30 1:38 2:46 \nWe should walk\nwi ʃʊd wɔk\nMir sollte Fouss\n\n0:43 1:51 2:59 \nWe should not walk\nwi ʃʊd nɑt wɔk\nMir sollten net trëppelen\n\n0:56 2:04 3:12 \nYou should not walk\nju ʃʊd nɑt wɔk\nDir sollt net zu Fouss\n\n\n\nUn de Schoulmeeschteren an d'Schoulen:\nDëse Video ass ënner der Creative Commons Lizenz verëffentlecht.\n  CC BY 3.0 https://creativecommons.org/licenses/by/3.0/ \nFillt gratis dësen Video zu Ären Klassen ze benotzen!\n\nMir benotzen den Google Translate Service fir d'Lokalisatioun. Wann Dir e puer Feeler fannt, da sot eis w.e.g.\n"
    },
    {
      "Lang": "lo",
      "Title": "ບົດເຝິກຫັດໄວຍາກອນພາສາອັງກິດ | ງ່າຍດາຍ ອັງກິດ ⭐️ #81 should",
      "Description": "ຮຽນຮູ້ຫລັກໄວຍາກອນພາສາອັງກິດ! ປ່ຽນ ຄຳ ສັບໃນປະໂຫຍກ.\n\n\n\n0:04 1:12 2:20 \nYou should sleep\nju ʃʊd slip\nທ່ານຄວນນອນ\n\n0:17 1:25 2:33 \nWe should sleep\nwi ʃʊd slip\nພວກເຮົາຄວນນອນ\n\n0:30 1:38 2:46 \nWe should walk\nwi ʃʊd wɔk\nພວກເຮົາຄວນຍ່າງ\n\n0:43 1:51 2:59 \nWe should not walk\nwi ʃʊd nɑt wɔk\nພວກເຮົາບໍ່ຄວນຍ່າງ\n\n0:56 2:04 3:12 \nYou should not walk\nju ʃʊd nɑt wɔk\nທ່ານບໍ່ຄວນຍ່າງ\n\n\n\nເຖິງຄູອາຈານແລະໂຮງຮຽນ:\nວິດີໂອນີ້ລົງພາຍໃຕ້ໃບອະນຸຍາດສ້າງສັນ.\n  CC BY 3.0 https://creativecommons.org/licenses/by/3.0/ \nຮູ້ສຶກວ່າບໍ່ເສຍຄ່າທີ່ຈະໃຊ້ວິດີໂອນີ້ໃນຫ້ອງຮຽນຂອງທ່ານ!\n\nພວກເຮົາໃຊ້ບໍລິການ Google Translate ສຳ ລັບການແປພາສາທ້ອງຖິ່ນ. ຖ້າທ່ານພົບຂໍ້ຜິດພາດບາງຢ່າງ, ກະລຸນາແຈ້ງພວກເຮົາ.\n"
    },
    {
      "Lang": "lt",
      "Title": "Anglų kalbos gramatikos pratimai | Paprasta Britai ⭐️ #81 should",
      "Description": "Išmokite anglų kalbos gramatiką! Pakeiskite žodį sakinyje.\n\n\n\n0:04 1:12 2:20 \nYou should sleep\nju ʃʊd slip\nTu turėtum miegoti\n\n0:17 1:25 2:33 \nWe should sleep\nwi ʃʊd slip\nTurėtume miegoti\n\n0:30 1:38 2:46 \nWe should walk\nwi ʃʊd wɔk\nTurėtume vaikščioti\n\n0:43 1:51 2:59 \nWe should not walk\nwi ʃʊd nɑt wɔk\nNeturėtume vaikščioti\n\n0:56 2:04 3:12 \nYou should not walk\nju ʃʊd nɑt wɔk\nJūs neturėtumėte vaikščioti\n\n\n\nMokytojams ir mokykloms:\nŠis vaizdo įrašas paskelbtas naudojant „Creative Commons“ licenciją.\n  CC BY 3.0 https://creativecommons.org/licenses/by/3.0/ \nNesivaržykite naudotis šiuo vaizdo įrašu savo klasėse!\n\nLokalizavimui naudojame „Google Translate“ paslaugą. Jei radote klaidų, praneškite mums.\n"
    },
    {
      "Lang": "lv",
      "Title": "Angļu valodas gramatikas vingrinājumi | Vienkārši Britu ⭐️ #81 should",
      "Description": "Mācieties angļu valodas gramatiku! Mainiet vārdu teikumā.\n\n\n\n0:04 1:12 2:20 \nYou should sleep\nju ʃʊd slip\nTev vajadzētu gulēt\n\n0:17 1:25 2:33 \nWe should sleep\nwi ʃʊd slip\nMums vajadzētu gulēt\n\n0:30 1:38 2:46 \nWe should walk\nwi ʃʊd wɔk\nMums vajadzētu staigāt\n\n0:43 1:51 2:59 \nWe should not walk\nwi ʃʊd nɑt wɔk\nMums nevajadzētu staigāt\n\n0:56 2:04 3:12 \nYou should not walk\nju ʃʊd nɑt wɔk\nJums nevajadzētu staigāt\n\n\n\nSkolotājiem un skolām:\nŠis video ir publicēts saskaņā ar Creative Commons licenci.\n  CC BY 3.0 https://creativecommons.org/licenses/by/3.0/ \nJūtieties brīvi izmantot šo video savās nodarbībās!\n\nLokalizācijai mēs izmantojam Google Translate pakalpojumu. Ja atrodat dažas kļūdas, lūdzu, paziņojiet mums.\n"
    },
    {
      "Lang": "mg",
      "Title": "Fanatanjahantena anglisy | Simple British ⭐️ #81 should",
      "Description": "Ianaro ny fitsipi-pitenenana anglisy! Manova teny amin'ny fehezanteny iray.\n\n\n\n0:04 1:12 2:20 \nYou should sleep\nju ʃʊd slip\nTokony hatory ianao\n\n0:17 1:25 2:33 \nWe should sleep\nwi ʃʊd slip\nTokony matory isika\n\n0:30 1:38 2:46 \nWe should walk\nwi ʃʊd wɔk\nTokony handeha\n\n0:43 1:51 2:59 \nWe should not walk\nwi ʃʊd nɑt wɔk\nTsy tokony handeha isika\n\n0:56 2:04 3:12 \nYou should not walk\nju ʃʊd nɑt wɔk\nTsy tokony mandeha\n\n\n\nHo an'ireo mpampianatra sy sekoly:\nIty horonantsary ity dia navoaka eo ambanin'ny lisansa Creative Commons.\n  CC BY 3.0 https://creativecommons.org/licenses/by/3.0/ \nAza misalasala mampiasa an'io horonantsary io amin'ny kilasinao!\n\nMampiasa ny serivisy Google Translate izahay amin'ny fananganana toerana. Raha mahita hadisoana vitsivitsy ianao dia mba ampahafantaro anay.\n"
    },
    {
      "Lang": "mi",
      "Title": "Mahi whakangungu Ingarihi | He ngawari Pakeha ⭐️ #81 should",
      "Description": "Akohia te paanui Ingarihi! Hurihia he kupu ki tetahi rerenga rerenga.\n\n\n\n0:04 1:12 2:20 \nYou should sleep\nju ʃʊd slip\nMe moe koe\n\n0:17 1:25 2:33 \nWe should sleep\nwi ʃʊd slip\nMe moe tatou\n\n0:30 1:38 2:46 \nWe should walk\nwi ʃʊd wɔk\nMe haere haere\n\n0:43 1:51 2:59 \nWe should not walk\nwi ʃʊd nɑt wɔk\nEiaha tatou e haere\n\n0:56 2:04 3:12 \nYou should not walk\nju ʃʊd nɑt wɔk\nKaore koe e haere\n\n\n\nKi nga kaiako me nga kura:\nKei te whakaputaina tenei ataata i raro i te Raihana Hoahoatanga.\n  CC BY 3.0 https://creativecommons.org/licenses/by/3.0/ \nKia kore e pai ki te whakamahi i tenei ataata i roto i o akomanga!\n\nKa whakamahia e matou he whakamaoritanga a Google mo te whakangao. Mena ka kitea e koe etahi he, tena koa kia mohio.\n"
    },
    {
      "Lang": "mk",
      "Title": "Вежби за граматика на англиски јазик | Едноставно Британски ⭐️ #81 should",
      "Description": "Дознајте англиска граматика! Променете збор во реченица.\n\n\n\n0:04 1:12 2:20 \nYou should sleep\nju ʃʊd slip\nТреба да спиеш\n\n0:17 1:25 2:33 \nWe should sleep\nwi ʃʊd slip\nТреба да спиеме\n\n0:30 1:38 2:46 \nWe should walk\nwi ʃʊd wɔk\nТреба да одиме\n\n0:43 1:51 2:59 \nWe should not walk\nwi ʃʊd nɑt wɔk\nНе треба да одиме\n\n0:56 2:04 3:12 \nYou should not walk\nju ʃʊd nɑt wɔk\nНе треба да шетате\n\n\n\nДо наставниците и училиштата:\nОва видео е објавено под лиценца Криејтив комонс.\n  CC BY 3.0 https://creativecommons.org/licenses/by/3.0/ \nСлободно можете да го користите ова видео во вашите часови!\n\nНие користиме услуга Google Translate за локализација. Ако најдете некои грешки, ве молиме кажете ни.\n"
    },
    {
      "Lang": "ml",
      "Title": "ഇംഗ്ലീഷ് വ്യാകരണ വ്യായാമങ്ങൾ | ലളിതം ബ്രിട്ടീഷ് ⭐️ #81 should",
      "Description": "ഇംഗ്ലീഷ് വ്യാകരണം പഠിക്കൂ! ഒരു വാക്യത്തിൽ ഒരു വാക്ക് മാറ്റുക.\n\n\n\n0:04 1:12 2:20 \nYou should sleep\nju ʃʊd slip\nനീ ഉറങ്ങണം\n\n0:17 1:25 2:33 \nWe should sleep\nwi ʃʊd slip\nനാം ഉറങ്ങണം\n\n0:30 1:38 2:46 \nWe should walk\nwi ʃʊd wɔk\nനാം നടക്കണം\n\n0:43 1:51 2:59 \nWe should not walk\nwi ʃʊd nɑt wɔk\nനാം നടക്കരുത്\n\n0:56 2:04 3:12 \nYou should not walk\nju ʃʊd nɑt wɔk\nനിങ്ങൾ നടക്കരുത്\n\n\n\nഅധ്യാപകർക്കും സ്കൂളുകൾക്കും:\nക്രിയേറ്റീവ് കോമൺസ് ലൈസൻസിന് കീഴിൽ ഈ വീഡിയോ പ്രസിദ്ധീകരിച്ചു.\n  CC BY 3.0 https://creativecommons.org/licenses/by/3.0/ \nനിങ്ങളുടെ ക്ലാസുകളിൽ ഈ വീഡിയോ ഉപയോഗിക്കാൻ മടിക്കേണ്ടതില്ല!\n\nപ്രാദേശികവൽക്കരണത്തിനായി ഞങ്ങൾ Google വിവർത്തന സേവനം ഉപയോഗിക്കുന്നു. നിങ്ങൾ ചില തെറ്റുകൾ കണ്ടെത്തുകയാണെങ്കിൽ, ഞങ്ങളെ അറിയിക്കുക.\n"
    },
    {
      "Lang": "mn",
      "Title": "Англи хэлний дүрмийн дасгал | Энгийн Британийн ⭐️ #81 should",
      "Description": "Англи хэлний дүрмийн мэдлэгийг сур! Үгийг өгүүлбэр болгон өөрчил.\n\n\n\n0:04 1:12 2:20 \nYou should sleep\nju ʃʊd slip\nЧи унтах хэрэгтэй\n\n0:17 1:25 2:33 \nWe should sleep\nwi ʃʊd slip\nБид унтах ёстой\n\n0:30 1:38 2:46 \nWe should walk\nwi ʃʊd wɔk\nБид алхах ёстой\n\n0:43 1:51 2:59 \nWe should not walk\nwi ʃʊd nɑt wɔk\nБид алхах ёсгүй\n\n0:56 2:04 3:12 \nYou should not walk\nju ʃʊd nɑt wɔk\nТа алхаж болохгүй\n\n\n\nБагш, сургуулиудад:\nЭнэ видео нь Creative Commons License лиценз дээр нийтлэгдсэн.\n  CC BY 3.0 https://creativecommons.org/licenses/by/3.0/ \nЭнэ видеог өөрийн ангиудад ашиглах боломжтой шүү!\n\nБид Google Translate үйлчилгээг нутагшуулах зорилгоор ашигладаг. Хэрэв та алдаа олвол бидэнд мэдэгдээрэй.\n"
    },
    {
      "Lang": "mr",
      "Title": "इंग्रजी व्याकरण व्यायाम | सोपे ब्रिटिश ⭐️ #81 should",
      "Description": "इंग्रजी व्याकरण जाणून घ्या! एका वाक्यात शब्द बदला.\n\n\n\n0:04 1:12 2:20 \nYou should sleep\nju ʃʊd slip\nतू झोपायला पाहिजे\n\n0:17 1:25 2:33 \nWe should sleep\nwi ʃʊd slip\nआपण झोपायला पाहिजे\n\n0:30 1:38 2:46 \nWe should walk\nwi ʃʊd wɔk\nआपण चालले पाहिजे\n\n0:43 1:51 2:59 \nWe should not walk\nwi ʃʊd nɑt wɔk\nआपण चालत जाऊ नये\n\n0:56 2:04 3:12 \nYou should not walk\nju ʃʊd nɑt wɔk\nआपण चालू नये\n\n\n\nशिक्षक आणि शाळा यांना:\nहा व्हिडिओ क्रिएटिव्ह कॉमन्स परवान्या अंतर्गत प्रकाशित झाला आहे.\n  CC BY 3.0 https://creativecommons.org/licenses/by/3.0/ \nआपल्या वर्गांमध्ये हा व्हिडिओ वापरण्यास मोकळ्या मनाने!\n\nआम्ही स्थानिकीकरणासाठी Google भाषांतर सेवा वापरतो. आपल्याला काही चुका आढळल्यास कृपया आम्हाला कळवा.\n"
    },
    {
      "Lang": "ms",
      "Title": "Latihan tatabahasa Bahasa Inggeris | Mudah Inggeris ⭐️ #81 should",
      "Description": "Belajar bahasa Inggeris! Tukar perkataan dalam ayat.\n\n\n\n0:04 1:12 2:20 \nYou should sleep\nju ʃʊd slip\nAnda perlu tidur\n\n0:17 1:25 2:33 \nWe should sleep\nwi ʃʊd slip\nKita perlu tidur\n\n0:30 1:38 2:46 \nWe should walk\nwi ʃʊd wɔk\nKita perlu berjalan\n\n0:43 1:51 2:59 \nWe should not walk\nwi ʃʊd nɑt wɔk\nKita tidak perlu berjalan\n\n0:56 2:04 3:12 \nYou should not walk\nju ʃʊd nɑt wɔk\nAnda tidak perlu berjalan\n\n\n\nKepada guru dan sekolah:\nVideo ini diterbitkan di bawah Lesen Creative Commons.\n  CC BY 3.0 https://creativecommons.org/licenses/by/3.0/ \nJangan ragu untuk menggunakan video ini dalam kelas anda!\n\nKami menggunakan perkhidmatan Terjemahan Google untuk penyetempatan. Jika anda mendapati beberapa kesilapan, sila beritahu kami.\n"
    },
    {
      "Lang": "mt",
      "Title": "Eżerċizzji ta 'grammatika Ingliża | Sempliċi Ingliżi ⭐️ #81 should",
      "Description": "Tgħallem il-grammatika Ingliża! Ibdel kelma f’sentenza.\n\n\n\n0:04 1:12 2:20 \nYou should sleep\nju ʃʊd slip\nGħandek torqod\n\n0:17 1:25 2:33 \nWe should sleep\nwi ʃʊd slip\nGħandna norqod\n\n0:30 1:38 2:46 \nWe should walk\nwi ʃʊd wɔk\nGħandna nimxu\n\n0:43 1:51 2:59 \nWe should not walk\nwi ʃʊd nɑt wɔk\nMa għandniex nimxu\n\n0:56 2:04 3:12 \nYou should not walk\nju ʃʊd nɑt wɔk\nM'għandekx timxi\n\n\n\nGħalliema u skejjel:\nDan il-video huwa ppublikat taħt il-Liċenzja Creative Commons.\n  CC BY 3.0 https://creativecommons.org/licenses/by/3.0/ \nĦossok liberu li tuża dan il-video fil-klassijiet tiegħek!\n\nAħna nużaw servizz Google Translate għall-lokalizzazzjoni. Jekk issib xi żbalji, jekk jogħġbok għarrafna.\n"
    },
    {
      "Lang": "my",
      "Title": "အင်္ဂလိပ်သဒ္ဒါလေ့ကျင့်ခန်း | ရိုးရှင်းသော ဗြိတိသျှ ⭐️ #81 should",
      "Description": "အင်္ဂလိပ်သဒ္ဒါကိုလေ့လာပါ။ ဝါကျတွင်စကားလုံးတစ်လုံးပြောင်းပါ။\n\n\n\n0:04 1:12 2:20 \nYou should sleep\nju ʃʊd slip\nမင်းအိပ်သင့်တယ်\n\n0:17 1:25 2:33 \nWe should sleep\nwi ʃʊd slip\nငါတို့အိပ်သင့်တယ်\n\n0:30 1:38 2:46 \nWe should walk\nwi ʃʊd wɔk\nငါတို့လမ်းလျှောက်သင့်တယ်\n\n0:43 1:51 2:59 \nWe should not walk\nwi ʃʊd nɑt wɔk\nငါတို့မလျှောက်သင့်ဘူး\n\n0:56 2:04 3:12 \nYou should not walk\nju ʃʊd nɑt wɔk\nမင်းလမ်းမလျှောက်သင့်ဘူး\n\n\n\nဆရာများနှင့်ကျောင်းများသို့\nဒီဗီဒီယိုကို Creative Commons လိုင်စင်အောက်မှာထုတ်ဝေထားတယ်။\n  CC BY 3.0 https://creativecommons.org/licenses/by/3.0/ \nဤဗီဒီယိုကိုသင်၏အတန်းများ၌အခမဲ့အသုံးပြုပါ။\n\nကျွန်ုပ်တို့သည်ဒေသခံဘာသာပြန်အတွက် Google Translate ဝန်ဆောင်မှုကိုအသုံးပြုသည်။ သင်အမှားအယွင်းများအချို့ရှိပါကကျွန်ုပ်တို့အားအသိပေးပါ။\n"
    },
    {
      "Lang": "ne",
      "Title": "अंग्रेजी व्याकरण व्यायाम | सरल बेलायती ⭐️ #81 should",
      "Description": "अंग्रेजी व्याकरण सिक्नुहोस्! एक वाक्य मा एक शब्द बदल्नुहोस्।\n\n\n\n0:04 1:12 2:20 \nYou should sleep\nju ʃʊd slip\nतपाईं सुत्नु पर्छ\n\n0:17 1:25 2:33 \nWe should sleep\nwi ʃʊd slip\nहामी सुत्नु पर्छ\n\n0:30 1:38 2:46 \nWe should walk\nwi ʃʊd wɔk\nहामी हिंड्नु पर्छ\n\n0:43 1:51 2:59 \nWe should not walk\nwi ʃʊd nɑt wɔk\nहामी हिंड्नु हुँदैन\n\n0:56 2:04 3:12 \nYou should not walk\nju ʃʊd nɑt wɔk\nतपाईं हिंड्नु हुँदैन\n\n\n\nशिक्षक र विद्यालयहरुलाई:\nयो भिडियो क्रिएटिभ कमन्स लाइसेन्स अन्तर्गत प्रकाशित गरिएको छ।\n  CC BY 3.0 https://creativecommons.org/licenses/by/3.0/ \nतपाईंको कक्षामा यो भिडियो प्रयोग गर्न स्वतन्त्र महसुस गर्नुहोस्!\n\nहामी स्थानीयकरणको लागि गुगल अनुवाद सेवा प्रयोग गर्दछौं। यदि तपाईंले केहि गल्तीहरू फेला पार्नुभयो भने, कृपया हामीलाई खबर गर्नुहोस्।\n"
    },
    {
      "Lang": "nl",
      "Title": "Engelse grammatica-oefeningen | Gemakkelijk Brits ⭐️ #81 should",
      "Description": "Leer Engelse grammatica! Verander een woord in een zin.\n\n\n\n0:04 1:12 2:20 \nYou should sleep\nju ʃʊd slip\nJe zou moeten slapen\n\n0:17 1:25 2:33 \nWe should sleep\nwi ʃʊd slip\nWe zouden moeten slapen\n\n0:30 1:38 2:46 \nWe should walk\nwi ʃʊd wɔk\nWe moeten lopen\n\n0:43 1:51 2:59 \nWe should not walk\nwi ʃʊd nɑt wɔk\nWe moeten niet lopen\n\n0:56 2:04 3:12 \nYou should not walk\nju ʃʊd nɑt wɔk\nJe moet niet lopen\n\n\n\nAan leraren en scholen:\nDeze video is gepubliceerd onder Creative Commons License.\n  CC BY 3.0 https://creativecommons.org/licenses/by/3.0/ \nVoel je vrij om deze video in je lessen te gebruiken!\n\nWe gebruiken de Google Translate-service voor lokalisatie. Laat het ons weten als u fouten ontdekt.\n"
    },
    {
      "Lang": "no",
      "Title": "Engelsk grammatikkøvelser | Enkel British ⭐️ #81 should",
      "Description": "Lær engelsk grammatikk! Endre et ord i en setning.\n\n\n\n0:04 1:12 2:20 \nYou should sleep\nju ʃʊd slip\nDu burde sove\n\n0:17 1:25 2:33 \nWe should sleep\nwi ʃʊd slip\nVi burde sove\n\n0:30 1:38 2:46 \nWe should walk\nwi ʃʊd wɔk\nVi skulle gå\n\n0:43 1:51 2:59 \nWe should not walk\nwi ʃʊd nɑt wɔk\nVi skal ikke gå\n\n0:56 2:04 3:12 \nYou should not walk\nju ʃʊd nɑt wɔk\nDu skal ikke gå\n\n\n\nTil lærere og skoler:\nDenne videoen er publisert under Creative Commons License.\n  CC BY 3.0 https://creativecommons.org/licenses/by/3.0/ \nBruk gjerne denne videoen i klassene dine!\n\nVi bruker Google Translate-tjenesten for lokalisering. Gi beskjed hvis du finner noen feil.\n"
    },
    {
      "Lang": "pa",
      "Title": "ਅੰਗਰੇਜ਼ੀ ਵਿਆਕਰਣ ਅਭਿਆਸ | ਆਸਾਨ ਬ੍ਰਿਟਿਸ਼ ⭐️ #81 should",
      "Description": "ਅੰਗਰੇਜ਼ੀ ਵਿਆਕਰਣ ਸਿੱਖੋ! ਇੱਕ ਵਾਕ ਵਿੱਚ ਇੱਕ ਸ਼ਬਦ ਬਦਲੋ.\n\n\n\n0:04 1:12 2:20 \nYou should sleep\nju ʃʊd slip\nਤੁਹਾਨੂੰ ਸੌਣਾ ਚਾਹੀਦਾ ਹੈ\n\n0:17 1:25 2:33 \nWe should sleep\nwi ʃʊd slip\nਸਾਨੂੰ ਸੌਣਾ ਚਾਹੀਦਾ ਹੈ\n\n0:30 1:38 2:46 \nWe should walk\nwi ʃʊd wɔk\nਸਾਨੂੰ ਤੁਰਨਾ ਚਾਹੀਦਾ ਹੈ\n\n0:43 1:51 2:59 \nWe should not walk\nwi ʃʊd nɑt wɔk\nਸਾਨੂੰ ਨਹੀਂ ਤੁਰਨਾ ਚਾਹੀਦਾ\n\n0:56 2:04 3:12 \nYou should not walk\nju ʃʊd nɑt wɔk\nਤੁਹਾਨੂੰ ਤੁਰਨਾ ਨਹੀਂ ਚਾਹੀਦਾ\n\n\n\nਅਧਿਆਪਕਾਂ ਅਤੇ ਸਕੂਲਾਂ ਨੂੰ:\nਇਹ ਵੀਡੀਓ ਕਰੀਏਟਿਵ ਕਾਮਨਜ਼ ਲਾਇਸੈਂਸ ਅਧੀਨ ਪ੍ਰਕਾਸ਼ਤ ਕੀਤਾ ਗਿਆ ਹੈ.\n  CC BY 3.0 https://creativecommons.org/licenses/by/3.0/ \nਇਸ ਕਲਾਸ ਨੂੰ ਆਪਣੀਆਂ ਕਲਾਸਾਂ ਵਿਚ ਵਰਤਣ ਲਈ ਮੁਫ਼ਤ ਮਹਿਸੂਸ ਕਰੋ!\n\nਅਸੀਂ ਸਥਾਨਕਕਰਨ ਲਈ ਗੂਗਲ ਅਨੁਵਾਦ ਸੇਵਾ ਦੀ ਵਰਤੋਂ ਕਰਦੇ ਹਾਂ. ਜੇ ਤੁਹਾਨੂੰ ਕੁਝ ਗਲਤੀਆਂ ਮਿਲਦੀਆਂ ਹਨ, ਤਾਂ ਕਿਰਪਾ ਕਰਕੇ ਸਾਨੂੰ ਦੱਸੋ.\n"
    },
    {
      "Lang": "pl",
      "Title": "Gramatyka angielska | Prosty brytyjski ⭐️ #81 should",
      "Description": "Ucz się gramatyki angielskiej! Zmień słowo w zdaniu.\n\n\n\n0:04 1:12 2:20 \nYou should sleep\nju ʃʊd slip\nPowinieneś spać\n\n0:17 1:25 2:33 \nWe should sleep\nwi ʃʊd slip\nPowinniśmy spać\n\n0:30 1:38 2:46 \nWe should walk\nwi ʃʊd wɔk\nPowinniśmy iść\n\n0:43 1:51 2:59 \nWe should not walk\nwi ʃʊd nɑt wɔk\nNie powinniśmy iść\n\n0:56 2:04 3:12 \nYou should not walk\nju ʃʊd nɑt wɔk\nNie powinieneś chodzić\n\n\n\nDo nauczycieli i szkół:\nTen film jest opublikowany na licencji Creative Commons.\n  CC BY 3.0 https://creativecommons.org/licenses/by/3.0/ \nZachęcamy do korzystania z tego filmu na zajęciach!\n\nDo lokalizacji używamy usługi Tłumacz Google. Jeśli znajdziesz jakieś błędy, daj nam znać.\n"
    },
    {
      "Lang": "ps",
      "Title": "انګلیسي ګرامر تمرینونه | ساده برتانوي ⭐️ #81 should",
      "Description": "انګلیسي ګرامر زده کړئ! یوه جمله په یوه جمله بدله کړئ.\n\n\n\n0:04 1:12 2:20 \nYou should sleep\nju ʃʊd slip\nتاسو باید ویده شئ\n\n0:17 1:25 2:33 \nWe should sleep\nwi ʃʊd slip\nموږ باید خوب وکړو\n\n0:30 1:38 2:46 \nWe should walk\nwi ʃʊd wɔk\nموږ باید ولاړ شو\n\n0:43 1:51 2:59 \nWe should not walk\nwi ʃʊd nɑt wɔk\nموږ باید حرکت ونه کړو\n\n0:56 2:04 3:12 \nYou should not walk\nju ʃʊd nɑt wɔk\nتاسو باید حرکت مه کوئ\n\n\n\nښوونکو او ښوونځیو ته:\nدا ویډیو د کریټیو کامنز لایسنس لاندې خپره شوې ده.\n  CC BY 3.0 https://creativecommons.org/licenses/by/3.0/ \nپه خپلو ټولګیو کې د دې ویډیو کارولو لپاره وړیا احساس وکړئ!\n\nموږ د ځایی کولو لپاره د ګوګل ژباړن خدمت کاروو. که تاسو ځینې غلطۍ ومومئ ، مهرباني وکړئ موږ ته خبر راکړئ.\n"
    },
    {
      "Lang": "pt",
      "Title": "Exercícios de gramática inglesa | Simples britânico ⭐️ #81 should",
      "Description": "Aprenda gramática inglesa! Mude uma palavra em uma frase.\n\n\n\n0:04 1:12 2:20 \nYou should sleep\nju ʃʊd slip\nVocê deveria dormir\n\n0:17 1:25 2:33 \nWe should sleep\nwi ʃʊd slip\nDevemos dormir\n\n0:30 1:38 2:46 \nWe should walk\nwi ʃʊd wɔk\nDevemos andar\n\n0:43 1:51 2:59 \nWe should not walk\nwi ʃʊd nɑt wɔk\nNão devemos andar\n\n0:56 2:04 3:12 \nYou should not walk\nju ʃʊd nɑt wɔk\nVocê não deve andar\n\n\n\nPara professores e escolas:\nEste vídeo é publicado sob licença Creative Commons.\n  CC BY 3.0 https://creativecommons.org/licenses/by/3.0/ \nSinta-se livre para usar este vídeo em suas aulas!\n\nUsamos o serviço Google Translate para localização. Se você encontrar algum erro, informe-nos.\n"
    },
    {
      "Lang": "ro",
      "Title": "Exerciții de gramatică engleză | Simplu britanic ⭐️ #81 should",
      "Description": "Învață gramatica engleză! Schimbă un cuvânt într-o propoziție.\n\n\n\n0:04 1:12 2:20 \nYou should sleep\nju ʃʊd slip\nAr trebui să dormi\n\n0:17 1:25 2:33 \nWe should sleep\nwi ʃʊd slip\nAr trebui să dormim\n\n0:30 1:38 2:46 \nWe should walk\nwi ʃʊd wɔk\nAr trebui să ne plimbăm\n\n0:43 1:51 2:59 \nWe should not walk\nwi ʃʊd nɑt wɔk\nNu ar trebui să umblăm\n\n0:56 2:04 3:12 \nYou should not walk\nju ʃʊd nɑt wɔk\nNu ar trebui să mergi\n\n\n\nPentru profesori și școli:\nAcest videoclip este publicat sub licență Creative Commons.\n  CC BY 3.0 https://creativecommons.org/licenses/by/3.0/ \nSimte-te liber să folosești acest videoclip în orele tale!\n\nFolosim serviciul Google Translate pentru localizare. Dacă găsiți unele greșeli, vă rugăm să ne informați.\n"
    },
    {
      "Lang": "ru",
      "Title": "Упражнения по английской грамматике | просто Британская ⭐️ #81 should",
      "Description": "Изучай английскую грамматику! Изменить слово в предложении.\n\n\n\n0:04 1:12 2:20 \nYou should sleep\nju ʃʊd slip\nВы должны спать\n\n0:17 1:25 2:33 \nWe should sleep\nwi ʃʊd slip\nМы должны спать\n\n0:30 1:38 2:46 \nWe should walk\nwi ʃʊd wɔk\nМы должны идти\n\n0:43 1:51 2:59 \nWe should not walk\nwi ʃʊd nɑt wɔk\nМы не должны ходить\n\n0:56 2:04 3:12 \nYou should not walk\nju ʃʊd nɑt wɔk\nТы не должен ходить\n\n\n\nУчителям и школам:\nЭто видео опубликовано под лицензией Creative Commons.\n  CC BY 3.0 https://creativecommons.org/licenses/by/3.0/ \nНе стесняйтесь использовать это видео в своих классах!\n\nМы используем сервис Google Translate для локализации. Если вы обнаружите ошибки, сообщите нам.\n"
    },
    {
      "Lang": "sd",
      "Title": "سنڌي گرامر مشق | سادو انگريزن ⭐️ #81 should",
      "Description": "انگريزي گرامر سکو! ھڪ لفظ ۾ ھڪڙي تبديلي آڻيو.\n\n\n\n0:04 1:12 2:20 \nYou should sleep\nju ʃʊd slip\nتوهان کي سمهڻ گهرجي\n\n0:17 1:25 2:33 \nWe should sleep\nwi ʃʊd slip\nاسان کي سمهڻ گهرجي\n\n0:30 1:38 2:46 \nWe should walk\nwi ʃʊd wɔk\nاسان کي هلڻ گهرجي\n\n0:43 1:51 2:59 \nWe should not walk\nwi ʃʊd nɑt wɔk\nاسان کي نه هلڻ گهرجي\n\n0:56 2:04 3:12 \nYou should not walk\nju ʃʊd nɑt wɔk\nتوهان کي هلڻ نه گهرجي\n\n\n\nاستاد ۽ اسڪولن ڏانهن:\nهيء وڊيو تخليقي العام لائسنس هيٺ شايع ٿيل آهي.\n  CC BY 3.0 https://creativecommons.org/licenses/by/3.0/ \nپنهنجي وڊيوز ۾ هن وڊيو کي استعمال ڪرڻ لاء آزاد ٿيو!\n\nاسان مقامي ڪرڻ لاء گوگل ترجمو سروس استعمال ڪندا آهيون. جيڪڏهن توهان ڪجهه غلطي ڳوليندا آهيو، مهرباني ڪري اسان کي ڄاڻ ڏيو.\n"
    },
    {
      "Lang": "si",
      "Title": "ඉංග්‍රීසි ව්‍යාකරණ අභ්‍යාස | සරල බ්‍රිතාන්‍ය ⭐️ #81 should",
      "Description": "ඉංග්‍රීසි ව්‍යාකරණ ඉගෙන ගන්න! වාක්‍යයක වචනයක් වෙනස් කරන්න.\n\n\n\n0:04 1:12 2:20 \nYou should sleep\nju ʃʊd slip\nඔබ නිදාගත යුතුයි\n\n0:17 1:25 2:33 \nWe should sleep\nwi ʃʊd slip\nඅපි නිදාගත යුතුයි\n\n0:30 1:38 2:46 \nWe should walk\nwi ʃʊd wɔk\nඅපි ඇවිදින්න ඕන\n\n0:43 1:51 2:59 \nWe should not walk\nwi ʃʊd nɑt wɔk\nඅපි ඇවිදින්න එපා\n\n0:56 2:04 3:12 \nYou should not walk\nju ʃʊd nɑt wɔk\nඔබ ඇවිදින්න එපා\n\n\n\nගුරුවරුන්ට සහ පාසල්වලට:\nමෙම වීඩියෝව නිර්මාණාත්මක පොදු බලපත්‍රය යටතේ ප්‍රකාශයට පත් කෙරේ.\n  CC BY 3.0 https://creativecommons.org/licenses/by/3.0/ \nඔබේ පංතිවල මෙම වීඩියෝව භාවිතා කිරීමට නිදහස් වන්න!\n\nප්‍රාදේශීයකරණය සඳහා අපි ගූගල් පරිවර්තන සේවාව භාවිතා කරමු. ඔබ යම් වැරැද්දක් සොයා ගන්නේ නම්, කරුණාකර අපට දන්වන්න.\n"
    },
    {
      "Lang": "sk",
      "Title": "Anglické gramatické cvičenia | prostý britský ⭐️ #81 should",
      "Description": "Naučte sa anglickú gramatiku! Zmeniť slovo vo vete.\n\n\n\n0:04 1:12 2:20 \nYou should sleep\nju ʃʊd slip\nMal by si spať\n\n0:17 1:25 2:33 \nWe should sleep\nwi ʃʊd slip\nMali by sme spať\n\n0:30 1:38 2:46 \nWe should walk\nwi ʃʊd wɔk\nMali by sme kráčať\n\n0:43 1:51 2:59 \nWe should not walk\nwi ʃʊd nɑt wɔk\nNemali by sme chodiť\n\n0:56 2:04 3:12 \nYou should not walk\nju ʃʊd nɑt wɔk\nNemali by ste chodiť\n\n\n\nPre učiteľov a školy:\nToto video je publikované pod licenciou Creative Commons License.\n  CC BY 3.0 https://creativecommons.org/licenses/by/3.0/ \nNeváhajte použiť toto video vo svojich triedach!\n\nNa lokalizáciu používame službu Prekladač Google. Ak nájdete nejaké chyby, dajte nám vedieť.\n"
    },
    {
      "Lang": "sl",
      "Title": "Angleške slovnične vaje | Preprosto Britanci ⭐️ #81 should",
      "Description": "Naučite se angleške slovnice! Spremenite besedo v stavku.\n\n\n\n0:04 1:12 2:20 \nYou should sleep\nju ʃʊd slip\nMoral bi spati\n\n0:17 1:25 2:33 \nWe should sleep\nwi ʃʊd slip\nMorali bi spati\n\n0:30 1:38 2:46 \nWe should walk\nwi ʃʊd wɔk\nMorali bi hoditi\n\n0:43 1:51 2:59 \nWe should not walk\nwi ʃʊd nɑt wɔk\nNe bi smeli hoditi\n\n0:56 2:04 3:12 \nYou should not walk\nju ʃʊd nɑt wɔk\nNe bi smeli hoditi\n\n\n\nUčiteljem in šolam:\nTa videoposnetek je objavljen pod licenco Creative Commons.\n  CC BY 3.0 https://creativecommons.org/licenses/by/3.0/ \nUporabite ta video v svojih razredih!\n\nZa lokalizacijo uporabljamo storitev Google Translate. Če najdete nekaj napak, nas obvestite.\n"
    },
    {
      "Lang": "sm",
      "Title": "Gagana o le gagana Gagana Peretania | Faigofie Peretania ⭐️ #81 should",
      "Description": "Aoao le gagana Gagana Peretania! Sui se upu i se fuaiupu.\n\n\n\n0:04 1:12 2:20 \nYou should sleep\nju ʃʊd slip\nE tatau ona e moe\n\n0:17 1:25 2:33 \nWe should sleep\nwi ʃʊd slip\nE tatau ona tatou moe\n\n0:30 1:38 2:46 \nWe should walk\nwi ʃʊd wɔk\nE tatau ona tatou savavali\n\n0:43 1:51 2:59 \nWe should not walk\nwi ʃʊd nɑt wɔk\nE le tatau ona tatou savavali\n\n0:56 2:04 3:12 \nYou should not walk\nju ʃʊd nɑt wɔk\nE le tatau ona e savali\n\n\n\nI faiaoga ma aʻoga:\nO lenei vitio ua lomia i lalo o le Creative Commons License.\n  CC BY 3.0 https://creativecommons.org/licenses/by/3.0/ \nLagona le saoloto e faʻaaoga lenei vitio i au vasega!\n\nMatou te faʻaaoga le Google Translate auaunaga mo le faʻasalalauga. Afai e te maua ni mea sese, faʻamolemole ia e iloa.\n"
    },
    {
      "Lang": "sn",
      "Title": "Chirungu grammar Exercise | Nyore Britain ⭐️ #81 should",
      "Description": "Dzidza mutauro wechirungu! Chinja izwi muchirevo.\n\n\n\n0:04 1:12 2:20 \nYou should sleep\nju ʃʊd slip\nUnofanira kurara\n\n0:17 1:25 2:33 \nWe should sleep\nwi ʃʊd slip\nTinofanira kurara\n\n0:30 1:38 2:46 \nWe should walk\nwi ʃʊd wɔk\nTinofanira kufamba\n\n0:43 1:51 2:59 \nWe should not walk\nwi ʃʊd nɑt wɔk\nHatifambe\n\n0:56 2:04 3:12 \nYou should not walk\nju ʃʊd nɑt wɔk\nHaufanire kufamba\n\n\n\nKune vadzidzisi uye zvikoro:\nVhidhiyo iyi inoburitswa pasi peCreative Commons License.\n  CC BY 3.0 https://creativecommons.org/licenses/by/3.0/ \nInzwa wakasununguka kushandisa iyi vhidhiyo mumakirasi ako!\n\nIsu tinoshandisa Google Dhumiro sevhisi. Kana iwe ukawana zvimwe zvikanganiso, tapota titiudze.\n"
    },
    {
      "Lang": "so",
      "Title": "Jimicsiga naxwaha Ingiriisiga | Fudud Ingiriiska ⭐️ #81 should",
      "Description": "Baro naxwaha Ingiriisiga! U beddelo eray weedh.\n\n\n\n0:04 1:12 2:20 \nYou should sleep\nju ʃʊd slip\nWaa inaad seexataa\n\n0:17 1:25 2:33 \nWe should sleep\nwi ʃʊd slip\nWaa inaan seexanaa\n\n0:30 1:38 2:46 \nWe should walk\nwi ʃʊd wɔk\nWaa inaan socodnaa\n\n0:43 1:51 2:59 \nWe should not walk\nwi ʃʊd nɑt wɔk\nWaa inaanan socon\n\n0:56 2:04 3:12 \nYou should not walk\nju ʃʊd nɑt wɔk\nWaa inaadan socon\n\n\n\nKu socota macallimiinta iyo iskuulada:\nMuuqaalkan fiidiyaha ah waxaa lagu daabacay hoosta hal-abuurnimada Hal-abuurka.\n  CC BY 3.0 https://creativecommons.org/licenses/by/3.0/ \nXor baad u leedahay inaad fiidiyaha u isticmaasho fasalladaaga!\n\nWaxaan u adeegsanaa adeega Google tarjumaha si aan ugu tarjunno. Hadaad khaladaad hesho, fadlan nala socodsii.\n"
    },
    {
      "Lang": "sq",
      "Title": "Ushtrime gramatikore angleze | i thjeshtë britanik ⭐️ #81 should",
      "Description": "Mësoni gramatikën angleze! Ndryshoni një fjalë në një fjali.\n\n\n\n0:04 1:12 2:20 \nYou should sleep\nju ʃʊd slip\nTi duhet të flesh\n\n0:17 1:25 2:33 \nWe should sleep\nwi ʃʊd slip\nNe duhet të flemë\n\n0:30 1:38 2:46 \nWe should walk\nwi ʃʊd wɔk\nNe duhet të ecim\n\n0:43 1:51 2:59 \nWe should not walk\nwi ʃʊd nɑt wɔk\nNuk duhet të ecim\n\n0:56 2:04 3:12 \nYou should not walk\nju ʃʊd nɑt wɔk\nJu nuk duhet të ecni\n\n\n\nPër mësuesit dhe shkollat:\nKjo video është botuar nën licencën Creative Commons.\n  CC BY 3.0 https://creativecommons.org/licenses/by/3.0/ \nMos ngurroni të përdorni këtë video në klasat tuaja!\n\nNe përdorim shërbimin Google Translate për lokalizimin. Nëse gjeni disa gabime, ju lutemi na tregoni.\n"
    },
    {
      "Lang": "sr",
      "Title": "Вежбе енглеске граматике | Једноставно Британци ⭐️ #81 should",
      "Description": "Научите енглеску граматику! Промените реч у реченици.\n\n\n\n0:04 1:12 2:20 \nYou should sleep\nju ʃʊd slip\nТребало би да спаваш\n\n0:17 1:25 2:33 \nWe should sleep\nwi ʃʊd slip\nТребали бисмо спавати\n\n0:30 1:38 2:46 \nWe should walk\nwi ʃʊd wɔk\nТребали бисмо ходати\n\n0:43 1:51 2:59 \nWe should not walk\nwi ʃʊd nɑt wɔk\nНе би требало да ходамо\n\n0:56 2:04 3:12 \nYou should not walk\nju ʃʊd nɑt wɔk\nНе би требало да ходаш\n\n\n\nНаставницима и школама:\nОвај видео је објављен под Цреативе Цоммонс лиценцом.\n  CC BY 3.0 https://creativecommons.org/licenses/by/3.0/ \nСлободно користите овај видеозапис у својим предавањима!\n\nЗа локализацију користимо услугу Гоогле Транслате. Ако нађете неке грешке, јавите нам се.\n"
    },
    {
      "Lang": "st",
      "Title": "Boikoetliso ba puo ea Senyesemane | E bonolo Borithane ⭐️ #81 should",
      "Description": "Ithute puo ea Senyesemane! Fetola lentsoe polelo.\n\n\n\n0:04 1:12 2:20 \nYou should sleep\nju ʃʊd slip\nU lokela ho robala\n\n0:17 1:25 2:33 \nWe should sleep\nwi ʃʊd slip\nRe lokela ho robala\n\n0:30 1:38 2:46 \nWe should walk\nwi ʃʊd wɔk\nRe lokela ho tsamaea\n\n0:43 1:51 2:59 \nWe should not walk\nwi ʃʊd nɑt wɔk\nHa rea lokela ho tsamaea\n\n0:56 2:04 3:12 \nYou should not walk\nju ʃʊd nɑt wɔk\nHa ua tšoanela ho tsamaea\n\n\n\nHo matichere le likolo:\nVideo ena e phatlalalitsoe tlas'a Creative Commons License.\n  CC BY 3.0 https://creativecommons.org/licenses/by/3.0/ \nIkutloe u lokolohile ho sebelisa video ena litlelaseng tsa hau!\n\nRe sebelisa tšebeletso ea Google Tafsiri bakeng sa lehae. Haeba u fumana liphoso, ka kopo re tsebise.\n"
    },
    {
      "Lang": "su",
      "Title": "Latihan tata basa Inggris | Basajan Inggris ⭐️ #81 should",
      "Description": "Diajar grammar Inggris! Ngarobih kecap dina hiji kalimat.\n\n\n\n0:04 1:12 2:20 \nYou should sleep\nju ʃʊd slip\nAnjeun kedah bobo\n\n0:17 1:25 2:33 \nWe should sleep\nwi ʃʊd slip\nUrang kedah bobo\n\n0:30 1:38 2:46 \nWe should walk\nwi ʃʊd wɔk\nUrang kedah leumpang\n\n0:43 1:51 2:59 \nWe should not walk\nwi ʃʊd nɑt wɔk\nUrang teu kudu leumpang\n\n0:56 2:04 3:12 \nYou should not walk\nju ʃʊd nɑt wɔk\nAnjeun teu kudu leumpang\n\n\n\nPikeun guru sareng sakola:\nPidéo ieu dikaluarkeun dina Lisensi Lisénsi Creative Commons.\n  CC BY 3.0 https://creativecommons.org/licenses/by/3.0/ \nTong ngosongkeun pidéo ieu di kelas!\n\nKami nganggo jasa Google Translate pikeun lokalisasi. Upami anjeun mendakan sababaraha kasalahan, punten terangkeun ka urang.\n"
    },
    {
      "Lang": "sv",
      "Title": "Engelska grammatiska övningar | Enkel British ⭐️ #81 should",
      "Description": "Lär dig engelska grammatik! Ändra ett ord i en mening.\n\n\n\n0:04 1:12 2:20 \nYou should sleep\nju ʃʊd slip\nDu borde sova\n\n0:17 1:25 2:33 \nWe should sleep\nwi ʃʊd slip\nVi borde sova\n\n0:30 1:38 2:46 \nWe should walk\nwi ʃʊd wɔk\nVi borde gå\n\n0:43 1:51 2:59 \nWe should not walk\nwi ʃʊd nɑt wɔk\nVi ska inte gå\n\n0:56 2:04 3:12 \nYou should not walk\nju ʃʊd nɑt wɔk\nDu ska inte gå\n\n\n\nTill lärare och skolor:\nDenna video publiceras under Creative Commons License.\n  CC BY 3.0 https://creativecommons.org/licenses/by/3.0/ \nAnvänd gärna den här videon i dina klasser!\n\nVi använder Google Translate-tjänst för lokalisering. Låt oss veta om du hittar några misstag.\n"
    },
    {
      "Lang": "sw",
      "Title": "Mazoezi ya sarufi ya Kiingereza | Rahisi Briteni ⭐️ #81 should",
      "Description": "Jifunze sarufi ya Kiingereza! Badilisha neno katika sentensi.\n\n\n\n0:04 1:12 2:20 \nYou should sleep\nju ʃʊd slip\nUnapaswa kulala\n\n0:17 1:25 2:33 \nWe should sleep\nwi ʃʊd slip\nTunapaswa kulala\n\n0:30 1:38 2:46 \nWe should walk\nwi ʃʊd wɔk\nTunapaswa kutembea\n\n0:43 1:51 2:59 \nWe should not walk\nwi ʃʊd nɑt wɔk\nHatupaswi kutembea\n\n0:56 2:04 3:12 \nYou should not walk\nju ʃʊd nɑt wɔk\nHaupaswi kutembea\n\n\n\nKwa waalimu na shule:\nVideo hii imechapishwa chini ya Leseni ya Creative Commons.\n  CC BY 3.0 https://creativecommons.org/licenses/by/3.0/ \nJisikie huru kutumia video hii kwenye darasa lako!\n\nTunatumia huduma ya Tafsiri ya Google kwa ujanibishaji. Ikiwa utapata makosa, tafadhali tujulishe.\n"
    },
    {
      "Lang": "ta",
      "Title": "ஆங்கில இலக்கண பயிற்சிகள் | எளிய பிரிட்டிஷ் ⭐️ #81 should",
      "Description": "ஆங்கில இலக்கணம் கற்றுக்கொள்ளுங்கள்! ஒரு வாக்கியத்தில் ஒரு வார்த்தையை மாற்றவும்.\n\n\n\n0:04 1:12 2:20 \nYou should sleep\nju ʃʊd slip\nநீங்கள் தூங்க வேண்டும்\n\n0:17 1:25 2:33 \nWe should sleep\nwi ʃʊd slip\nநாம் தூங்க வேண்டும்\n\n0:30 1:38 2:46 \nWe should walk\nwi ʃʊd wɔk\nநாம் நடக்க வேண்டும்\n\n0:43 1:51 2:59 \nWe should not walk\nwi ʃʊd nɑt wɔk\nநாம் நடக்கக்கூடாது\n\n0:56 2:04 3:12 \nYou should not walk\nju ʃʊd nɑt wɔk\nநீங்கள் நடக்கக்கூடாது\n\n\n\nஆசிரியர்கள் மற்றும் பள்ளிகளுக்கு:\nஇந்த வீடியோ கிரியேட்டிவ் காமன்ஸ் உரிமத்தின் கீழ் வெளியிடப்பட்டுள்ளது.\n  CC BY 3.0 https://creativecommons.org/licenses/by/3.0/ \nஉங்கள் வகுப்புகளில் இந்த வீடியோவைப் பயன்படுத்த தயங்காதீர்கள்!\n\nஉள்ளூர்மயமாக்க Google மொழிபெயர்ப்பு சேவையைப் பயன்படுத்துகிறோம். நீங்கள் சில தவறுகளைக் கண்டால், எங்களுக்குத் தெரியப்படுத்துங்கள்.\n"
    },
    {
      "Lang": "te",
      "Title": "ఇంగ్లీష్ వ్యాకరణ వ్యాయామాలు | సాధారణ బ్రిటిష్ ⭐️ #81 should",
      "Description": "ఇంగ్లీష్ వ్యాకరణం నేర్చుకోండి! ఒక వాక్యంలో ఒక పదాన్ని మార్చండి.\n\n\n\n0:04 1:12 2:20 \nYou should sleep\nju ʃʊd slip\nమీరు నిద్రపోవాలి\n\n0:17 1:25 2:33 \nWe should sleep\nwi ʃʊd slip\nమనం నిద్రపోవాలి\n\n0:30 1:38 2:46 \nWe should walk\nwi ʃʊd wɔk\nమనం నడవాలి\n\n0:43 1:51 2:59 \nWe should not walk\nwi ʃʊd nɑt wɔk\nమనం నడవకూడదు\n\n0:56 2:04 3:12 \nYou should not walk\nju ʃʊd nɑt wɔk\nమీరు నడవకూడదు\n\n\n\nఉపాధ్యాయులకు మరియు పాఠశాలలకు:\nఈ వీడియో క్రియేటివ్ కామన్స్ లైసెన్స్ క్రింద ప్రచురించబడింది.\n  CC BY 3.0 https://creativecommons.org/licenses/by/3.0/ \nమీ తరగతుల్లో ఈ వీడియోను ఉపయోగించడానికి సంకోచించకండి!\n\nస్థానికీకరణ కోసం మేము Google అనువాద సేవను ఉపయోగిస్తాము. మీరు కొన్ని తప్పులు కనుగొంటే, దయచేసి మాకు తెలియజేయండి.\n"
    },
    {
      "Lang": "tg",
      "Title": "Машқҳои грамматикаи забони англисӣ | Оддӣ Бритониё ⭐️ #81 should",
      "Description": "Грамматикаи забони англисиро омӯзед! Калимаро дар як ҷумла иваз кунед.\n\n\n\n0:04 1:12 2:20 \nYou should sleep\nju ʃʊd slip\nШумо бояд хоб кунед\n\n0:17 1:25 2:33 \nWe should sleep\nwi ʃʊd slip\nМо бояд хоб кунем\n\n0:30 1:38 2:46 \nWe should walk\nwi ʃʊd wɔk\nМо бояд роҳ равем\n\n0:43 1:51 2:59 \nWe should not walk\nwi ʃʊd nɑt wɔk\nМо набояд роҳ равем\n\n0:56 2:04 3:12 \nYou should not walk\nju ʃʊd nɑt wɔk\nШумо набояд роҳ равед\n\n\n\nБа муаллимон ва мактабҳо:\nИн видео зери иҷозатномаи Creative Commons нашр шудааст.\n  CC BY 3.0 https://creativecommons.org/licenses/by/3.0/ \nИн видеоро дар дарсҳои худ истифода баред!\n\nМо барои локализатсия аз хидмати Google Translate истифода мебарем. Агар шумо ягон хатогӣ дарёфт кунед, лутфан ба мо хабар диҳед.\n"
    },
    {
      "Lang": "th",
      "Title": "แบบฝึกหัดไวยากรณ์ภาษาอังกฤษ | ง่าย อังกฤษ ⭐️ #81 should",
      "Description": "เรียนรู้ไวยากรณ์ภาษาอังกฤษ! เปลี่ยนคำในประโยค\n\n\n\n0:04 1:12 2:20 \nYou should sleep\nju ʃʊd slip\nคุณควรจะนอน\n\n0:17 1:25 2:33 \nWe should sleep\nwi ʃʊd slip\nเราควรนอน\n\n0:30 1:38 2:46 \nWe should walk\nwi ʃʊd wɔk\nเราควรเดิน\n\n0:43 1:51 2:59 \nWe should not walk\nwi ʃʊd nɑt wɔk\nเราไม่ควรเดิน\n\n0:56 2:04 3:12 \nYou should not walk\nju ʃʊd nɑt wɔk\nคุณไม่ควรเดิน\n\n\n\nถึงครูและโรงเรียน:\nวิดีโอนี้เผยแพร่ภายใต้สัญญาอนุญาตครีเอทีฟคอมมอนส์\n  CC BY 3.0 https://creativecommons.org/licenses/by/3.0/ \nอย่าลังเลที่จะใช้วิดีโอนี้ในชั้นเรียนของคุณ!\n\nเราใช้บริการ Google แปลภาษาเพื่อการแปล หากคุณพบข้อผิดพลาดบางอย่างโปรดแจ้งให้เราทราบ\n"
    },
    {
      "Lang": "tr",
      "Title": "İngilizce gramer çalışmaları | Basit ingiliz ⭐️ #81 should",
      "Description": "İngilizce gramerini öğren! Bir cümle içindeki bir kelimeyi değiştirin.\n\n\n\n0:04 1:12 2:20 \nYou should sleep\nju ʃʊd slip\nUyumalısın\n\n0:17 1:25 2:33 \nWe should sleep\nwi ʃʊd slip\nUyumalıyız\n\n0:30 1:38 2:46 \nWe should walk\nwi ʃʊd wɔk\nYürümeliyiz\n\n0:43 1:51 2:59 \nWe should not walk\nwi ʃʊd nɑt wɔk\nYürümemeliyiz\n\n0:56 2:04 3:12 \nYou should not walk\nju ʃʊd nɑt wɔk\nYürümemelisin\n\n\n\nÖğretmenlere ve okullara:\nBu video Creative Commons License. Altında yayınlandı.\n  CC BY 3.0 https://creativecommons.org/licenses/by/3.0/ \nBu videoyu derslerinizde kullanmaktan çekinmeyin!\n\nYerelleştirme için Google Çeviri hizmetini kullanıyoruz. Bazı hatalar bulursanız lütfen bize bildirin.\n"
    },
    {
      "Lang": "uk",
      "Title": "Граматичні вправи з англійської мови | Простий Британці ⭐️ #81 should",
      "Description": "Вивчіть англійську граматику! Змініть слово у реченні.\n\n\n\n0:04 1:12 2:20 \nYou should sleep\nju ʃʊd slip\nТи маєш спати\n\n0:17 1:25 2:33 \nWe should sleep\nwi ʃʊd slip\nМи повинні спати\n\n0:30 1:38 2:46 \nWe should walk\nwi ʃʊd wɔk\nМи повинні ходити\n\n0:43 1:51 2:59 \nWe should not walk\nwi ʃʊd nɑt wɔk\nМи не повинні ходити\n\n0:56 2:04 3:12 \nYou should not walk\nju ʃʊd nɑt wɔk\nНе слід ходити\n\n\n\nДля вчителів та шкіл:\nЦе відео опубліковане під ліцензією Creative Commons.\n  CC BY 3.0 https://creativecommons.org/licenses/by/3.0/ \nСміливо використовуйте це відео у своїх класах!\n\nМи використовуємо послугу Google Translate для локалізації. Якщо ви виявили деякі помилки, повідомте нас про це.\n"
    },
    {
      "Lang": "ur",
      "Title": "انگریزی گرائمر کی ورزشیں | آسان برطانوی ⭐️ #81 should",
      "Description": "انگریزی گرائمر سیکھیں! ایک جملے میں ایک لفظ تبدیل کریں۔\n\n\n\n0:04 1:12 2:20 \nYou should sleep\nju ʃʊd slip\nآپ کو سو جانا چاہیئے\n\n0:17 1:25 2:33 \nWe should sleep\nwi ʃʊd slip\nہمیں سو جانا چاہئے\n\n0:30 1:38 2:46 \nWe should walk\nwi ʃʊd wɔk\nہمیں چلنا چاہئے\n\n0:43 1:51 2:59 \nWe should not walk\nwi ʃʊd nɑt wɔk\nہمیں نہیں چلنا چاہئے\n\n0:56 2:04 3:12 \nYou should not walk\nju ʃʊd nɑt wɔk\nآپ کو چلنا نہیں چاہئے\n\n\n\nاساتذہ اور اسکولوں کے لئے:\nیہ ویڈیو تخلیقی العام لائسنس کے تحت شائع ہوا ہے۔\n  CC BY 3.0 https://creativecommons.org/licenses/by/3.0/ \nاپنی ویڈیو کو اپنی کلاسوں میں آزادانہ طور پر استعمال کریں!\n\nہم لوکلائزیشن کے لئے گوگل ٹرانسلیٹ سروس استعمال کرتے ہیں۔ اگر آپ کو کچھ غلطیاں ملتی ہیں تو ، براہ کرم ہمیں بتائیں۔\n"
    },
    {
      "Lang": "uz",
      "Title": "Ingliz tili grammatik mashqlari | Oddiy Britaniya ⭐️ #81 should",
      "Description": "Ingliz tilining grammatikasini o'rganing! Bir so'zni jumlada o'zgartiring.\n\n\n\n0:04 1:12 2:20 \nYou should sleep\nju ʃʊd slip\nSiz uxlashingiz kerak\n\n0:17 1:25 2:33 \nWe should sleep\nwi ʃʊd slip\nBiz uxlashimiz kerak\n\n0:30 1:38 2:46 \nWe should walk\nwi ʃʊd wɔk\nBiz yurishimiz kerak\n\n0:43 1:51 2:59 \nWe should not walk\nwi ʃʊd nɑt wɔk\nBiz yurmasligimiz kerak\n\n0:56 2:04 3:12 \nYou should not walk\nju ʃʊd nɑt wɔk\nSiz yurmasligingiz kerak\n\n\n\nO'qituvchilar va maktablarga:\nUshbu video Creative Commons litsenziyasi ostida joylashtirilgan.\n  CC BY 3.0 https://creativecommons.org/licenses/by/3.0/ \nUshbu videoni o'z sinflaringizda ishlatish bepul!\n\nBiz Google Translate xizmatidan lokalizatsiya uchun foydalanamiz. Agar siz biron bir xato topsangiz, iltimos, bizga xabar bering.\n"
    },
    {
      "Lang": "vi",
      "Title": "Bài tập ngữ pháp tiếng anh | Đơn giản người Anh ⭐️ #81 should",
      "Description": "Học ngữ pháp tiếng Anh! Thay đổi một từ trong một câu.\n\n\n\n0:04 1:12 2:20 \nYou should sleep\nju ʃʊd slip\nBạn nên ngủ\n\n0:17 1:25 2:33 \nWe should sleep\nwi ʃʊd slip\nChúng ta nên ngủ\n\n0:30 1:38 2:46 \nWe should walk\nwi ʃʊd wɔk\nChúng ta nên đi bộ\n\n0:43 1:51 2:59 \nWe should not walk\nwi ʃʊd nɑt wɔk\nChúng ta không nên đi bộ\n\n0:56 2:04 3:12 \nYou should not walk\nju ʃʊd nɑt wɔk\nBạn không nên đi bộ\n\n\n\nGửi giáo viên và nhà trường:\nVideo này được xuất bản theo Giấy phép Creative Commons.\n  CC BY 3.0 https://creativecommons.org/licenses/by/3.0/ \nHãy sử dụng video này trong các lớp học của bạn!\n\nChúng tôi sử dụng dịch vụ Google Dịch để bản địa hóa. Nếu bạn tìm thấy một số sai lầm, xin vui lòng cho chúng tôi biết.\n"
    },
    {
      "Lang": "xh",
      "Title": "Ukuziqhelanisa negrama yesiNgesi | Elula Bhritane ⭐️ #81 should",
      "Description": "Funda igrama yesiNgesi! Guqula igama kwisivakalisi.\n\n\n\n0:04 1:12 2:20 \nYou should sleep\nju ʃʊd slip\nKuya kufuneka ulale\n\n0:17 1:25 2:33 \nWe should sleep\nwi ʃʊd slip\nSifanele silale\n\n0:30 1:38 2:46 \nWe should walk\nwi ʃʊd wɔk\nSifanele sihambe\n\n0:43 1:51 2:59 \nWe should not walk\nwi ʃʊd nɑt wɔk\nAkufanele sihambe\n\n0:56 2:04 3:12 \nYou should not walk\nju ʃʊd nɑt wɔk\nAkufanele uhambe\n\n\n\nKootitshala nakwizikolo:\nLe vidiyo ipapashwa phantsi kwelayisensi yeCreative Commons.\n  CC BY 3.0 https://creativecommons.org/licenses/by/3.0/ \nZive ukhululekile ukusebenzisa le vidiyo kwiiklasi zakho!\n\nSisebenzisa inkonzo yokuTolika kaGoogle ukuze sifumane indawo. Ukuba ufumana iimpazamo ezithile, nceda usazise.\n"
    },
    {
      "Lang": "yi",
      "Title": "ענגליש גראַמאַטיק עקסערסייזיז | פּשוט בריטיש ⭐️ #81 should",
      "Description": "לערן ענגליש גראַמאַטיק! טוישן אַ וואָרט אין אַ זאַץ.\n\n\n\n0:04 1:12 2:20 \nYou should sleep\nju ʃʊd slip\nאיר זאָל שלאָפן\n\n0:17 1:25 2:33 \nWe should sleep\nwi ʃʊd slip\nמיר זאָל שלאָפן\n\n0:30 1:38 2:46 \nWe should walk\nwi ʃʊd wɔk\nמיר זאָל גיין\n\n0:43 1:51 2:59 \nWe should not walk\nwi ʃʊd nɑt wɔk\nמיר זאָל נישט גיין\n\n0:56 2:04 3:12 \nYou should not walk\nju ʃʊd nɑt wɔk\nאיר זאָל נישט גיין\n\n\n\nצו לערערס און שולן:\nדער ווידעא איז ארויס אונטער Creative Commons License.\n  CC BY 3.0 https://creativecommons.org/licenses/by/3.0/ \nפילן פריי צו נוצן דעם ווידעא אין דיין קלאסן!\n\nמיר נוצן Google Translate דינסט פֿאַר לאָוקאַלאַזיישאַן. אויב איר געפֿינען עטלעכע מיסטייקס, ביטע לאָזן אונדז וויסן.\n"
    },
    {
      "Lang": "yo",
      "Title": "Awọn adaṣe gẹẹsi Gẹẹsi | Rọrun Ara ilu Gẹẹsi ⭐️ #81 should",
      "Description": "Kọ ẹkọ gẹẹsi Gẹẹsi! Yi ọrọ pada ninu gbolohun ọrọ.\n\n\n\n0:04 1:12 2:20 \nYou should sleep\nju ʃʊd slip\nO yẹ ki o sun\n\n0:17 1:25 2:33 \nWe should sleep\nwi ʃʊd slip\nA yẹ ki o sun\n\n0:30 1:38 2:46 \nWe should walk\nwi ʃʊd wɔk\nO yẹ ki a rin\n\n0:43 1:51 2:59 \nWe should not walk\nwi ʃʊd nɑt wɔk\nA ko gbọdọ rin\n\n0:56 2:04 3:12 \nYou should not walk\nju ʃʊd nɑt wɔk\nO yẹ ki o ma rin\n\n\n\nSi awọn olukọ ati awọn ile-iwe:\nFidio yii ni a tẹjade labẹ Iwe-aṣẹ Creative Commons.\n  CC BY 3.0 https://creativecommons.org/licenses/by/3.0/ \nLero lati lo fidio yii ninu awọn kilasi rẹ!\n\nA lo iṣẹ Google Translate fun agbegbe. Ti o ba rii diẹ ninu awọn aṣiṣe, jọwọ jẹ ki a mọ.\n"
    },
    {
      "Lang": "zh-Hans",
      "Title": "英语语法练习 | 简单 英式 ⭐️ #81 should",
      "Description": "学习英语语法！ 更改句子中的单词。\n\n\n\n0:04 1:12 2:20 \nYou should sleep\nju ʃʊd slip\n你应该睡觉\n\n0:17 1:25 2:33 \nWe should sleep\nwi ʃʊd slip\n我们该睡觉了\n\n0:30 1:38 2:46 \nWe should walk\nwi ʃʊd wɔk\n我们应该走\n\n0:43 1:51 2:59 \nWe should not walk\nwi ʃʊd nɑt wɔk\n我们不应该走路\n\n0:56 2:04 3:12 \nYou should not walk\nju ʃʊd nɑt wɔk\n你不应该走路\n\n\n\n致老师和学校：\n该视频是根据知识共享许可发布的。\n  CC BY 3.0 https://creativecommons.org/licenses/by/3.0/ \n随时在您的课程中使用此视频！\n\n我们使用Google翻译服务进行本地化。如果您发现一些错误，请告诉我们。\n"
    },
    {
      "Lang": "zh-Hant",
      "Title": "英語語法練習 | 簡單 英式 ⭐️ #81 should",
      "Description": "學習英語語法！ 更改句子中的單詞。\n\n\n\n0:04 1:12 2:20 \nYou should sleep\nju ʃʊd slip\n你應該睡覺\n\n0:17 1:25 2:33 \nWe should sleep\nwi ʃʊd slip\n我們該睡覺了\n\n0:30 1:38 2:46 \nWe should walk\nwi ʃʊd wɔk\n我們應該走\n\n0:43 1:51 2:59 \nWe should not walk\nwi ʃʊd nɑt wɔk\n我們不應該走路\n\n0:56 2:04 3:12 \nYou should not walk\nju ʃʊd nɑt wɔk\n你不應該走路\n\n\n\n致老師和學校：\n該視頻是根據知識共享許可發布的。\n  CC BY 3.0 https://creativecommons.org/licenses/by/3.0/ \n隨時在您的課程中使用此視頻！\n\n我們使用Google翻譯服務進行本地化。如果您發現一些錯誤，請告訴我們。\n"
    },
    {
      "Lang": "zu",
      "Title": "Ukuzivocavoca kolimi lwesiNgisi | Elula IBritish ⭐️ #81 should",
      "Description": "Funda uhlelo lolimi lwesiNgisi! Shintsha igama emshweni.\n\n\n\n0:04 1:12 2:20 \nYou should sleep\nju ʃʊd slip\nKufanele ulale\n\n0:17 1:25 2:33 \nWe should sleep\nwi ʃʊd slip\nKufanele silale\n\n0:30 1:38 2:46 \nWe should walk\nwi ʃʊd wɔk\nKufanele sihambe\n\n0:43 1:51 2:59 \nWe should not walk\nwi ʃʊd nɑt wɔk\nAkufanele sihambe\n\n0:56 2:04 3:12 \nYou should not walk\nju ʃʊd nɑt wɔk\nAkufanele uhambe\n\n\n\nKothisha nasezikoleni:\nLe vidiyo ishicilelwe ngaphansi kwelayisensi yeCreative Commons.\n  CC BY 3.0 https://creativecommons.org/licenses/by/3.0/ \nZizwe ukhululekile ukusebenzisa le vidiyo emakilasini akho!\n\nSisebenzisa insiza ye-Google Humusha ukwenza okwasendaweni. Uma uthola amanye amaphutha, sicela usazise.\n"
    }
  ]
}