[seriename]grammar-ko-beginner
[exercisename]A
[publishhours]6
[problemnum]10
[audiolang]ko
[videolang]en
[voice:x]F1,M1,F2
[voice:y]M1,M2,F1
[voice:z]M2,M1,F2
[voice:v]F2,M2,F1
[serietitle]Korean grammar exercises
[title]{Korean grammar exercises} ⭐️ #[1] [:VideoTitle:]
[description]{Learn Korean grammar!} {Change a word in a sentence.}\n\n[:GrammarDescriptionTranslationWithRuby:]\n\n{To teachers and schools:}\n{This video is published under Creative Commons License.}\n  CC BY 3.0 https://creativecommons.org/licenses/by/3.0/ \n{Feel free to use this video in your classes!}\n\n{We use Google Translate service for localization. If you find some mistakes, please let us know.}\n
[tags]{Korean grammar|15|,}
[hidesruby]true
[caption:translation]{Translation}
[voicekeyname:M1]ko-KR-Wavenet-C
[voicekeyname:M2]ko-KR-Wavenet-D
[voicekeyname:F1]ko-KR-Wavenet-A
[voicekeyname:F2]ko-KR-Wavenet-B
[font:title]NotoSansDisplay-SemiBold.ttf
[font:subtitle]NotoSansDisplay-SemiBold.ttf
[font:problem]NotoSansDisplay-SemiBold.ttf
[font:ruby]NotoSansDisplay-Condensed.ttf

[langs]all
[palette]202330,43B0D9,1E96EE,266C98,F5F2F0
[palette]EBECEA,A97E50,6C4E40,76939A,29312E
[palette]2B212C,82818D,88E2E8,B33B59,F2F6F6
[palette]EDEAE5,988F70,873D23,898480,1C1D1E
[palette]F4F1F0,AD7B5E,914A29,9E8D83,4C2D28
[palette]F2F1F0,C0774A,8F4D2B,A79D87,49312C
[palette]1F1A24,70A4C0,298FE8,818383,F2F2EC
[palette]F0ECEB,696C67,18CC38,80A39E,1E2520
[palette]F3EEEA,DB6465,534643,9D9394,262529
[palette]F6F7F5,80D138,5FB930,AABFB8,263D32
[palette]F8F5F5,767575,5F313B,7C7B7C,201A1F
[palette]3C2B26,816082,92B1E9,B67D57,F3F3F3
[palette]1A1827,89D7E4,46D1E6,A84260,F6F9F9
[palette]141918,68B2CD,1854D4,46C839,EAEEF0
[palette]FBFAFA,837C8C,7C5E3F,A69294,2A2932
[palette]EBE6E8,524533,5FA22F,A77D4B,243126
[palette]FBF9F9,87A371,705D44,8A8C83,232D2B
[palette]1F2931,80B1AC,19C6F3,6F727A,EAF1F1
[palette]EBEAE9,7E8479,665D3A,7C7D7C,1A181D
[palette]F6F4F2,C1B069,64BF1B,68849D,2E312C
[palette]EBECE5,A19845,644D3F,717A7F,222323
[palette]1B1C28,52A4C9,35B6EB,37658E,F1EDEE
[palette]F5F6F2,A1BD95,61A330,9C889E,342F35
[palette]F9F8F7,60B96F,1CCE40,6A828C,222026
[palette]EEEBE8,978C6F,5D463E,7B7B84,272325
[palette]141318,57B6C5,19B1DD,745A6E,EAE3E7
[palette]FBFBFA,98BD5F,2EAF4C,7C7E7C,20243B
[palette]F4F3F0,AE8457,7D5237,8C8C8D,251C21
[palette]ECECEB,688582,2F694F,54C99D,221921
[palette]EFF0EC,707369,32B13D,7FA2A0,202020
[palette]1A1623,7D9DBF,58C9E7,666F8F,F4F6F5
[palette]F5F5F5,CB9D59,8E4C32,857C91,25242D
[palette]F8F5F4,7C898E,9C3D23,A1A5A2,231921
[palette]F0F3EB,96BC60,28AB44,7C7A7D,313D38
[palette]FAF8F9,62B86F,1CCE40,767085,221F23
[palette]201C30,737286,2795EE,7C7C75,F4F5F3
[palette]F3F2F1,8C826E,705F42,8D9586,2C3D39
[palette]1C262C,929385,82D0F2,7B757F,F4F8F7
[palette]0C1011,6088AF,4CBFF0,646466,F1F1ED
[palette]1E1728,7486AE,1FAFEA,AD3E5B,F4F7F5
[palette]1C1821,5D6576,22C1EF,616363,F1F3F1
[palette]F4EDEF,6F726E,35C42B,6CB3A6,2E2E32
[palette]EDF0F0,8A998D,68C819,6E869E,2C2D3A
[palette]EEF0EF,7F7C7C,5F3739,8A787B,201A20
[palette]E2E0DA,A26D56,6D271E,867D69,1C181C
[palette]1F1A24,6BA3C1,288FE8,818383,F2F2EC
[palette]292E35,7D99A6,5BDDEF,797273,F4F4F0
[palette]252B27,827586,84E0EE,858F7C,FAF9F9
[palette]E8E0DC,5C8A9F,3A3C3B,949495,212521
[palette]EDEAE9,705B64,892F28,9C7A68,1C161C
[palette]FDFDF9,858481,775D3C,DC8196,201327
[palette]1A1E25,867C79,80CBD3,82546A,E6E7DB
[palette]201C30,737186,2795EE,7C7C75,F4F5F3
[palette]F5F5F5,CB9D5B,8E4C32,857C90,25242D
[palette]271D29,7633C6,C44BE0,5D3988,EEEFF0
[palette]F4F2EF,D07F54,7B3B38,A67181,281B22
[palette]FBF9F9,8A8494,8F5635,8196AB,1B1A25
[palette]3E3128,B19DBD,96AEE5,8E7E9B,FAFAFA
[palette]F5EFF2,696B67,16CB3A,81B4AD,2C2729
[palette]F1F1EA,798889,454444,949394,212225
[palette]EFEEEB,A6835B,8A542A,96A9AA,3D3E2D
[palette]EEE9E7,836F70,5F3F3C,7C7C7C,181519
[palette]F9F5F3,A27233,724C40,74676E,202B24
[palette]433324,A7BBCF,1A90F5,737887,F6F8F7
[palette]EEE9E7,827173,5F3F3C,7C7C7C,181518
[palette]EEEDE5,7D5E49,5D463C,6F6C68,242323
[palette]241D2A,D9B946,85C0EB,A73A37,F7F6F4
[palette]FBFAFA,8B9C7A,717041,79889D,1D222F
[palette]FBFAFB,7C655F,1FD245,72AAB5,1F1D25
[palette]F0EFE7,C27529,7A3427,7F6E6F,2C1E1F
[palette]FBFBFA,8B9C7A,6E6D3F,8A9293,1E2134
[palette]111317,8AA5BD,4ABFF5,607C9F,F7F6F4
[palette]F7F5F3,A17946,88482A,C18466,1F1A1F
[palette]1E1F2D,7BADD3,1A78EB,938185,F0F1F3
[palette]FBF9FA,8C9B7A,6F7243,8B9194,2F3931
[palette]1E2635,F057E8,48ABF3,9C409D,F0F3EE
[palette]F0EEE8,8C937F,754323,8B8C84,1D2321
[palette]212127,F1C71B,4CBEEF,738B44,F5F7F8
[palette]F8F7F5,B08462,9E2724,AC9D8E,2D2524
[palette]D6CBCA,7F716B,604D19,718179,131318
[palette]F2F0F2,746560,43982F,899EA3,291B36
[palette]F9F8F8,978268,735F45,9EAE96,2E3E3A
[palette]ECEFEA,978464,35B73A,858A89,2B2C34
[palette]1E1E29,8094B3,5996F1,6D5C86,F2F3F1
[palette]223039,787D7A,83E4EF,7C8278,F4F6F4
[palette]FBFAFA,7E737E,8C4E39,9D949B,291D24
[palette]192022,4495C4,1F8FEC,2D4980,E9E2DB
[palette]F6F3F1,B35F4D,61403F,A87D95,1B1B23
[palette]27242B,7F888A,81E3EF,816D6F,F8F9F7
[palette]FAFAFA,77999F,6E493E,AC9592,24161A
[palette]F7F9F7,5E2F3C,7C303A,AC5266,1E131C
[palette]F8F7F6,A29A46,6A4F44,A86971,2B3441
[palette]F5F4F5,96C29C,39B140,94C4A8,2C3632
[palette]F5F4F5,AC7236,65C31B,BFB268,2E2930
[palette]19191F,64A0C1,3199E7,6D5B71,FAFAF9
[palette]F4EFF1,786C5D,22BB26,8AAB9B,2F3334
[palette]1D1F27,53AEC3,3496E9,86516C,F1EDDC
[palette]F2F1EE,746E6C,684C41,7F8086,2B2429
[palette]111519,818484,9DAFC6,6A7483,F4F4F2
[palette]352022,60C9EF,267AEB,8D4129,F3F3F4
