{
  "VideoFile": "grammar-id-a_4_A.mp4",
  "Captions": [
    {
      "ID": "kOxlIvYJWeoQCFI0pEwSt7eSTEbsc4BrBrt6BXcB2QRZLEgnduhENQ==",
      "Lang": "af",
      "CaptionKey": "translation",
      "CaptionName": "vertaling",
      "YoutubeSynced": true
    },
    {
      "ID": "dkGWiV8OLEE4fB6D4gq5qat00mnDADcH2YIaC3T8TuR2TtYdfk7F2w==",
      "Lang": "am",
      "CaptionKey": "translation",
      "CaptionName": "ትርጉም",
      "YoutubeSynced": true
    },
    {
      "ID": "HKrSRBuMpKYPGt0v_VOV18g1Set5l3KCWhojrLFBR6mry7hhnyU6tA==",
      "Lang": "ar",
      "CaptionKey": "translation",
      "CaptionName": "ترجمة",
      "YoutubeSynced": true
    },
    {
      "ID": "HKrSRBuMpKYi6oZC0Bz1mQ8wWGyVTqUHFJeEM9HfRRDOP2GYQIVhFA==",
      "Lang": "az",
      "CaptionKey": "translation",
      "CaptionName": "Tərcümə",
      "YoutubeSynced": true
    },
    {
      "ID": "OhZhKkVNC4VMvbD9b0zQ_p-TyGdejgo1bZ1HVirzeSBgM4Sy8kPwF6xkIzD-vY4L",
      "Lang": "be",
      "CaptionKey": "translation",
      "CaptionName": "Пераклад",
      "YoutubeSynced": true
    },
    {
      "ID": "dkGWiV8OLEHD11jcvURF9bMga3IxzZTzlvLkUnCsl7H5NQkVq-PtRg==",
      "Lang": "bg",
      "CaptionKey": "translation",
      "CaptionName": "превод",
      "YoutubeSynced": true
    },
    {
      "ID": "iv1FTSFzuV4-9dXPwFXYorVksF8PZ8eWMwsv1K79psVFalsyu0HAPj4NobDrzy64",
      "Lang": "bn",
      "CaptionKey": "translation",
      "CaptionName": "অনুবাদ",
      "YoutubeSynced": true
    },
    {
      "ID": "oru0oxpHra6bP4FPgEFw7GNfg17OmYmy8dKeGa7WhJw=",
      "Lang": "bs",
      "CaptionKey": "translation",
      "CaptionName": "Prevod",
      "YoutubeSynced": true
    },
    {
      "ID": "HKrSRBuMpKZNhpXyOd9ZRj7Ay9nxt93u05G0WREvsIr4Kkga0px3CA==",
      "Lang": "ca",
      "CaptionKey": "translation",
      "CaptionName": "Traducció",
      "YoutubeSynced": true
    },
    {
      "ID": "HKrSRBuMpKZSV3c00Jct8CgefOT-eJyUWRuqZvGhcTRU00YYVpyyxg==",
      "Lang": "co",
      "CaptionKey": "translation",
      "CaptionName": "Traduzione",
      "YoutubeSynced": true
    },
    {
      "ID": "meBf0ux2rnPDXlyjtxp3mmLrJGTe16IswGIlEGjU77o5YWQdB2-VuQ==",
      "Lang": "cs",
      "CaptionKey": "translation",
      "CaptionName": "Překlad",
      "YoutubeSynced": true
    },
    {
      "ID": "nuuatF6-aYbTdmoSa2ORJl6v2D5wQYcUqTTbyx0MhpMTANrX3_5_vw==",
      "Lang": "cy",
      "CaptionKey": "translation",
      "CaptionName": "Cyfieithiad",
      "YoutubeSynced": true
    },
    {
      "ID": "CdtxLGr0dFRrAODsWpExDVirE5octFwFshSeCZqmVJ5qLlC1CCfHlQ==",
      "Lang": "da",
      "CaptionKey": "translation",
      "CaptionName": "Oversættelse",
      "YoutubeSynced": true
    },
    {
      "ID": "dkGWiV8OLEEMpc-vp24fOdgkAzjkE__ktvyEFFBnPnaIRNnH8YdEKQ==",
      "Lang": "de",
      "CaptionKey": "translation",
      "CaptionName": "Übersetzung",
      "YoutubeSynced": true
    },
    {
      "ID": "iv1FTSFzuV4KO06aim8W1FirRwMZkxK0NdfUL2fV8j8KLMNxjw66IhmVm-286nEX",
      "Lang": "el",
      "CaptionKey": "translation",
      "CaptionName": "Μετάφραση",
      "YoutubeSynced": true
    },
    {
      "ID": "nuuatF6-aYZz-unaZTDdGiPU8lCyaeFhlvFI1jS34dFfIteINk6Fkg==",
      "Lang": "en",
      "CaptionKey": "translation",
      "CaptionName": "Translation",
      "YoutubeSynced": true
    },
    {
      "ID": "nuuatF6-aYZsDkayccnJQp6ACSUDswTOut4KAh_D94gdx8gWXlTCdA==",
      "Lang": "es",
      "CaptionKey": "translation",
      "CaptionName": "Traducción",
      "YoutubeSynced": true
    },
    {
      "ID": "oru0oxpHra5J3o-G7EjiKurnpQHTL9mT_ZS3i0DN01M=",
      "Lang": "et",
      "CaptionKey": "translation",
      "CaptionName": "Tõlge",
      "YoutubeSynced": true
    },
    {
      "ID": "kOxlIvYJWerAQL37CNBtsSVXF0PNXQbfYjrOWsb2knmOcBvRs_UZRA==",
      "Lang": "eu",
      "CaptionKey": "translation",
      "CaptionName": "Itzulpena",
      "YoutubeSynced": true
    },
    {
      "ID": "HKrSRBuMpKZYlUBlwOxPgT0Yuz1bA-vpb2LAQFtPNmBXZcDQITL1ag==",
      "Lang": "fa",
      "CaptionKey": "translation",
      "CaptionName": "ترجمه",
      "YoutubeSynced": true
    },
    {
      "ID": "HKrSRBuMpKa6z7tnd1Y2ILqIdSLk9Oguj21JLhJZFRlIDlJPUeimMg==",
      "Lang": "fi",
      "CaptionKey": "translation",
      "CaptionName": "Käännös",
      "YoutubeSynced": true
    },
    {
      "ID": "nuuatF6-aYaVCshhOFqQ5pEG1hwgybPpeMrWZKuIDjK7a-MEKQscJg==",
      "Lang": "fil",
      "CaptionKey": "translation",
      "CaptionName": "Pagsasalin",
      "YoutubeSynced": true
    },
    {
      "ID": "HKrSRBuMpKZ00YNhKWgWRDHR6_NBvmVyd-l6yKYwQN9IRsJpDMatvw==",
      "Lang": "fr",
      "CaptionKey": "translation",
      "CaptionName": "Traduction",
      "YoutubeSynced": true
    },
    {
      "ID": "HKrSRBuMpKaeqBmJqgGpVhWJhKRym0edzntXULiQAKc7qgXOuYWIaA==",
      "Lang": "fy",
      "CaptionKey": "translation",
      "CaptionName": "Oersetting",
      "YoutubeSynced": true
    },
    {
      "ID": "iv1FTSFzuV4Tuv24v96aQUbDRR0PIoM1Q9OtWzHJxpYqT7oXptd200HwTVCzB0sk",
      "Lang": "gd",
      "CaptionKey": "translation",
      "CaptionName": "Eadar-theangachadh",
      "YoutubeSynced": true
    },
    {
      "ID": "HKrSRBuMpKao47_eW66VMqCRA41mbyP6qOWAd_4cCxqxJ9akgPVahw==",
      "Lang": "gl",
      "CaptionKey": "translation",
      "CaptionName": "Tradución",
      "YoutubeSynced": true
    },
    {
      "ID": "iv1FTSFzuV6SdZCAYo8yIyjGNH_J04Nvf5_52Nxr_apCklY04Cl8M2RFaHNF41z4",
      "Lang": "gu",
      "CaptionKey": "translation",
      "CaptionName": "અનુવાદ",
      "YoutubeSynced": true
    },
    {
      "ID": "MbiLXZSMoTovpCB2YyTuqLz7SIUs7H2DcjAtYPSyBBbiGmzqJweOKg==",
      "Lang": "ha",
      "CaptionKey": "translation",
      "CaptionName": "Fassara",
      "YoutubeSynced": true
    },
    {
      "ID": "iv1FTSFzuV4WFw-oPuafNCZuDggXmoyBgKI0aFb8OlUh3VL3391rpmUknIwjTvHx",
      "Lang": "hi",
      "CaptionKey": "translation",
      "CaptionName": "अनुवाद",
      "YoutubeSynced": true
    },
    {
      "ID": "meBf0ux2rnPjTc38hkOklG3wLX-eS7MSLKRxN6BOdMBfukY3fzFqkA==",
      "Lang": "hr",
      "CaptionKey": "translation",
      "CaptionName": "Prijevod",
      "YoutubeSynced": true
    },
    {
      "ID": "HKrSRBuMpKYumcJQgz9CCP41NvMH7efssPXUf7fgYhR3n6349TJqnQ==",
      "Lang": "hu",
      "CaptionKey": "translation",
      "CaptionName": "Fordítás",
      "YoutubeSynced": true
    },
    {
      "ID": "_KGMPtVerPU4aZ8Wju6t6iSImc4jXtVHvN3DRi1ktZ6ab8zR4RWVnfnnnLxJytGioW63hUOg3PY=",
      "Lang": "hy",
      "CaptionKey": "translation",
      "CaptionName": "Թարգմանություն",
      "YoutubeSynced": true
    },
    {
      "ID": "HKrSRBuMpKasaqW9IN7G2PPvVec84Ueinpu-KY9Fzi8nhL9fnfXyUA==",
      "Lang": "id",
      "CaptionKey": "translation",
      "CaptionName": "Terjemahan",
      "YoutubeSynced": true
    },
    {
      "ID": "meBf0ux2rnOQC-054RYJ5CgTfQSm5eKlR3ivShofj4COuWJwqQP_qA==",
      "Lang": "ig",
      "CaptionKey": "translation",
      "CaptionName": "Ntughari",
      "YoutubeSynced": true
    },
    {
      "ID": "kOxlIvYJWeqcoos3RxpcKnC1ygDZGmIqjGviZvfKqXLsz8PXX53aFg==",
      "Lang": "is",
      "CaptionKey": "translation",
      "CaptionName": "Þýðing",
      "YoutubeSynced": true
    },
    {
      "ID": "HKrSRBuMpKaAiNm4bXokJucJ--al_oR5TYsziDZivVa1WrjMrpOeAg==",
      "Lang": "it",
      "CaptionKey": "translation",
      "CaptionName": "Traduzione",
      "YoutubeSynced": true
    },
    {
      "ID": "HKrSRBuMpKbI2rTPVVFsXF6fSalr-9ZE9Zd1cL5pqykOGl4lj5F-ww==",
      "Lang": "iw",
      "CaptionKey": "translation",
      "CaptionName": "תרגום",
      "YoutubeSynced": true
    },
    {
      "ID": "oru0oxpHra59L-Ta3oxrEae2HtuF0Al0HgPovvAb3uQ=",
      "Lang": "ja",
      "CaptionKey": "translation",
      "CaptionName": "翻訳",
      "YoutubeSynced": true
    },
    {
      "ID": "kOxlIvYJWeqY5Pk4W2LMHTepWZGulj72F_DLhteV-7UXldTtezdNqw==",
      "Lang": "jv",
      "CaptionKey": "translation",
      "CaptionName": "Ngartekne",
      "YoutubeSynced": true
    },
    {
      "ID": "ZuBgJXCSMkre3hrXMpGWoJwmQ-soefB8Z4aVgIwc-t0rKqSE4Hcwmq16fT2nAUk8P6SGMzo2jRw=",
      "Lang": "ka",
      "CaptionKey": "translation",
      "CaptionName": "თარგმანი",
      "YoutubeSynced": true
    },
    {
      "ID": "sgdWQ6Zz8az3n6LP0eI9qMKFAnPIDInJ0AV4n6Fv_nwevMmEY_PYdw==",
      "Lang": "kk",
      "CaptionKey": "translation",
      "CaptionName": "Аударма",
      "YoutubeSynced": true
    },
    {
      "ID": "EDbLLsh48yIs1vjSbyLt987VE48VzkJOMTd-qMxi76m3Gv2Hoc93wNlJ31Pf-vTtbLEsZkcIsVA=",
      "Lang": "km",
      "CaptionKey": "translation",
      "CaptionName": "ការបកប្រែ",
      "YoutubeSynced": true
    },
    {
      "ID": "iv1FTSFzuV4Ege6oYtusKarcFlJ8RzFDczYfptehwuo5UYRNYAwZlJchj20q5hnU",
      "Lang": "kn",
      "CaptionKey": "translation",
      "CaptionName": "ಅನುವಾದ",
      "YoutubeSynced": true
    },
    {
      "ID": "oru0oxpHra7Ccbmlnkx1LqVv8qJUcJmnba8URmdoJ-g=",
      "Lang": "ko",
      "CaptionKey": "translation",
      "CaptionName": "번역",
      "YoutubeSynced": true
    },
    {
      "ID": "oru0oxpHra5E81nTTUT08xL32y6lUkXhA07vN6-C6S8=",
      "Lang": "ku",
      "CaptionKey": "translation",
      "CaptionName": "Werger",
      "YoutubeSynced": true
    },
    {
      "ID": "sgdWQ6Zz8azxMcpUR40OdS4lI3zCSY3yuOiF-OxPZiCYkt3m9mSf9A==",
      "Lang": "ky",
      "CaptionKey": "translation",
      "CaptionName": "котормо",
      "YoutubeSynced": true
    },
    {
      "ID": "dkGWiV8OLEEjREi3oqhXP8sI7zRyj7cid3NI4MYpXCu21z1_uRy29w==",
      "Lang": "lb",
      "CaptionKey": "translation",
      "CaptionName": "Iwwersetzung",
      "YoutubeSynced": true
    },
    {
      "ID": "EDbLLsh48yL2Y-TCVrXjiJqToO8nXMKC2iDXgjMOuH4Nm0NE3VPKa5tbPXjj-Ot8p-060VBrFUM=",
      "Lang": "lo",
      "CaptionKey": "translation",
      "CaptionName": "ການແປພາສາ",
      "YoutubeSynced": true
    },
    {
      "ID": "meBf0ux2rnMlA8cIasFgex5b5QC9jOyL03JyHkhnPjn1NWdqP6Ideg==",
      "Lang": "lt",
      "CaptionKey": "translation",
      "CaptionName": "Vertimas",
      "YoutubeSynced": true
    },
    {
      "ID": "HKrSRBuMpKaReGg_l9irX3LeEEu2mk5gt0XVVtsOO541oJV4Vz6Zpw==",
      "Lang": "lv",
      "CaptionKey": "translation",
      "CaptionName": "Tulkošana",
      "YoutubeSynced": true
    },
    {
      "ID": "nuuatF6-aYZvkdKyJofV-owzaoY7Vzb80yGYBvCndojYmOVNJynWSg==",
      "Lang": "mg",
      "CaptionKey": "translation",
      "CaptionName": "Translation",
      "YoutubeSynced": true
    },
    {
      "ID": "7M-mdS239PQ_AVNa3qyfz9K8Gdu9twCcQf_80uY5kGuCnoouQFuLOcAqmhikzaDA",
      "Lang": "mi",
      "CaptionKey": "translation",
      "CaptionName": "Whakamaoritanga",
      "YoutubeSynced": true
    },
    {
      "ID": "dkGWiV8OLEEl89xGXhHQJQ7-Idc2tFj1bqMQVijOoSpNnVtRIECQxA==",
      "Lang": "mk",
      "CaptionKey": "translation",
      "CaptionName": "Превод",
      "YoutubeSynced": true
    },
    {
      "ID": "EDbLLsh48yKa4qAqtH8KuiJU8LqzwTKNEtXul9i_BREGni0ErcGb-6Km1wAV0EptaDCbNHGkD-U=",
      "Lang": "ml",
      "CaptionKey": "translation",
      "CaptionName": "വിവർത്തനം",
      "YoutubeSynced": true
    },
    {
      "ID": "OhZhKkVNC4W9lRnG1Q5DvmlHcvSrdgmpPFZ7v6APcIniUyb-yjwdhZgbzUe1PCwj",
      "Lang": "mn",
      "CaptionKey": "translation",
      "CaptionName": "Орчуулга",
      "YoutubeSynced": true
    },
    {
      "ID": "8016zIOcvZHetubAhAIfXLsyrmKxPJYjbGXCLNmDehI0fFzE3cVX1vN5Z2Xt2KYl",
      "Lang": "mr",
      "CaptionKey": "translation",
      "CaptionName": "भाषांतर",
      "YoutubeSynced": true
    },
    {
      "ID": "HKrSRBuMpKZDJ0rmLjrm8ygjlj_QL2VBfmgcYhGz84guCsf4Q7Lg1g==",
      "Lang": "ms",
      "CaptionKey": "translation",
      "CaptionName": "Terjemahan",
      "YoutubeSynced": true
    },
    {
      "ID": "nuuatF6-aYajb9FgAWLtvxP0PeOlTUnjEcFbw4CJHkoM-2SJpCk1XA==",
      "Lang": "mt",
      "CaptionKey": "translation",
      "CaptionName": "Traduzzjoni",
      "YoutubeSynced": true
    },
    {
      "ID": "ZuBgJXCSMkqwz85q1INx_NNagTP8Yqxd9XWF7hzMd6KKXsi2ZS-UQaYHv172q8UGe42rtacK1vI=",
      "Lang": "my",
      "CaptionKey": "translation",
      "CaptionName": "ဘာသာပြန်",
      "YoutubeSynced": true
    },
    {
      "ID": "iv1FTSFzuV5qmuXfhvkoWWA2KCtWcfySxREOJmreciJydMbgHNaaw9ZvIvQCtAU5",
      "Lang": "ne",
      "CaptionKey": "translation",
      "CaptionName": "अनुवाद",
      "YoutubeSynced": true
    },
    {
      "ID": "kOxlIvYJWeq_tct2qRgs39vInOAFnzxaJjWUmkwkCfb4Y2fT9-KR5g==",
      "Lang": "nl",
      "CaptionKey": "translation",
      "CaptionName": "Vertaling",
      "YoutubeSynced": true
    },
    {
      "ID": "dkGWiV8OLEFP1LSxyu8Vi-BJWNyQtYVcRJ5odAGmU7_yYutnAjs3WQ==",
      "Lang": "no",
      "CaptionKey": "translation",
      "CaptionName": "Oversettelse",
      "YoutubeSynced": true
    },
    {
      "ID": "iv1FTSFzuV53Mn52CT2vTbmetWtL5MIOSsYQ4jyxOyuDUzecY27xPbR5KG_OCWC7",
      "Lang": "pa",
      "CaptionKey": "translation",
      "CaptionName": "ਅਨੁਵਾਦ",
      "YoutubeSynced": true
    },
    {
      "ID": "dkGWiV8OLEEbk3aF3F0Jxtb5NTIrdePUonRq_-ND5Pncx_FCtHoU2A==",
      "Lang": "pl",
      "CaptionKey": "translation",
      "CaptionName": "Tłumaczenie",
      "YoutubeSynced": true
    },
    {
      "ID": "HKrSRBuMpKYYUNWhz3oWbGT-x6nesMCtij29W4oOoBcKF90rtzn5_A==",
      "Lang": "ps",
      "CaptionKey": "translation",
      "CaptionName": "ژباړه",
      "YoutubeSynced": true
    },
    {
      "ID": "HKrSRBuMpKa2pZnANZA4jWq3hlZS3Xs3HfyyP_CUSAb7ITuRDkjAbw==",
      "Lang": "pt",
      "CaptionKey": "translation",
      "CaptionName": "Tradução",
      "YoutubeSynced": true
    },
    {
      "ID": "kOxlIvYJWeo9FWb4z88ZuwPrMInjRT5vf6lRWplXVcXNwdIhC4lqHg==",
      "Lang": "ro",
      "CaptionKey": "translation",
      "CaptionName": "Traducere",
      "YoutubeSynced": true
    },
    {
      "ID": "sgdWQ6Zz8awjlwR2iGGD7RK_nKdoKEjM962FUKntjdAbZ517wGDHEQ==",
      "Lang": "ru",
      "CaptionKey": "translation",
      "CaptionName": "Перевод",
      "YoutubeSynced": true
    },
    {
      "ID": "HKrSRBuMpKbsgMLE56ngBpEFj5odwvdc5m187YJOnpUX3ZaoWKwyjQ==",
      "Lang": "sd",
      "CaptionKey": "translation",
      "CaptionName": "ترجمو",
      "YoutubeSynced": true
    },
    {
      "ID": "EDbLLsh48yKrubrdkBLjf4wjDaxIHsPB9PGli39DV9WYNrXSSp7Pc5mu7dTdjbBAWAlTWWFjkUU=",
      "Lang": "si",
      "CaptionKey": "translation",
      "CaptionName": "පරිවර්තනය",
      "YoutubeSynced": true
    },
    {
      "ID": "MbiLXZSMoTo2XvbbCY1l8Y7f6_kDTu90OUM-U-IffF7BKj7cTDJuuQ==",
      "Lang": "sk",
      "CaptionKey": "translation",
      "CaptionName": "preklad",
      "YoutubeSynced": true
    },
    {
      "ID": "oru0oxpHra7nI-KXriEuVsvaonLxCo2_5JcxXY-RryY=",
      "Lang": "sl",
      "CaptionKey": "translation",
      "CaptionName": "Prevod",
      "YoutubeSynced": true
    },
    {
      "ID": "dkGWiV8OLEE8rg4m_tAEMPnbYteDUAwt5ehpMkXjRzRM9W0aLrB8sQ==",
      "Lang": "sm",
      "CaptionKey": "translation",
      "CaptionName": "Faʻaliliuga",
      "YoutubeSynced": true
    },
    {
      "ID": "MbiLXZSMoTr1bg16K5W47sIUJqihLG6v8_Tk0yQIZ-Rb1Q075LBMyw==",
      "Lang": "sn",
      "CaptionKey": "translation",
      "CaptionName": "Dudziro",
      "YoutubeSynced": true
    },
    {
      "ID": "kOxlIvYJWeoZWlugDSG8IRMRz8_kISrGMTPocxOyY4nx598puOcZxg==",
      "Lang": "so",
      "CaptionKey": "translation",
      "CaptionName": "Tarjumida",
      "YoutubeSynced": true
    },
    {
      "ID": "kOxlIvYJWeqPhIsIH58BDhm48yLPqUHL8AtWipzACq_o-Ysa909kBA==",
      "Lang": "sq",
      "CaptionKey": "translation",
      "CaptionName": "përkthim",
      "YoutubeSynced": true
    },
    {
      "ID": "dkGWiV8OLEFqIBfY7cYWk68NQYGISZ_v47Hp8IFFE9gRHMfXC5i0aQ==",
      "Lang": "sr",
      "CaptionKey": "translation",
      "CaptionName": "Превод",
      "YoutubeSynced": true
    },
    {
      "ID": "kOxlIvYJWeo41Okz1KsGwxQODnCX5iKqsnUBbEK70jGCy_cu2v45GQ==",
      "Lang": "st",
      "CaptionKey": "translation",
      "CaptionName": "Phetolelo",
      "YoutubeSynced": true
    },
    {
      "ID": "HKrSRBuMpKbnc0yrQmRsXEOVu8XyulNtlHhYTrTYlEhkim3EHMjCCg==",
      "Lang": "su",
      "CaptionKey": "translation",
      "CaptionName": "Tarjamahan",
      "YoutubeSynced": true
    },
    {
      "ID": "sgdWQ6Zz8aw4ldrZ6lQpmgKnAQjbzbMUZhKPe9GLn5wuI5gH6P2FgA==",
      "Lang": "sv",
      "CaptionKey": "translation",
      "CaptionName": "Översättning",
      "YoutubeSynced": true
    },
    {
      "ID": "MbiLXZSMoTqbchPFl1W7zNvvAODGSrIemMdAHp8Sz6KKnrLDN--5vQ==",
      "Lang": "sw",
      "CaptionKey": "translation",
      "CaptionName": "Tafsiri",
      "YoutubeSynced": true
    },
    {
      "ID": "M8i6xtdPBvuHL-5lrMIUEJoRyykRmCemPQCiJ0aKm_0hRBEwe-bSY8I6PfvEHOazyZ_1buD0ijHMJWGaOPr5SZNteDWhQz3X",
      "Lang": "ta",
      "CaptionKey": "translation",
      "CaptionName": "மொழிபெயர்ப்பு",
      "YoutubeSynced": true
    },
    {
      "ID": "8016zIOcvZGeIZ0Ph7j2uW4rQ4PhOTGzUjfJ6o49_HVCldN_8DoYRurqzwQDe-AD",
      "Lang": "te",
      "CaptionKey": "translation",
      "CaptionName": "అనువాదం",
      "YoutubeSynced": true
    },
    {
      "ID": "sgdWQ6Zz8azTSZ-pe7bLAceM0HM5mEF82BGNiGEgL0ttuCS-aIznAA==",
      "Lang": "tg",
      "CaptionKey": "translation",
      "CaptionName": "Тарҷума",
      "YoutubeSynced": true
    },
    {
      "ID": "iv1FTSFzuV4vXGXFhgK-ef2wklglNl2Fx6LLNpIejYvGzTo20iqHqyllO9sniJkz",
      "Lang": "th",
      "CaptionKey": "translation",
      "CaptionName": "การแปล",
      "YoutubeSynced": true
    },
    {
      "ID": "meBf0ux2rnPHgXkpPg5_N5BelR2B3bW4z1hmFe-hRIysbjPTT2eYHA==",
      "Lang": "tr",
      "CaptionKey": "translation",
      "CaptionName": "Tercüme",
      "YoutubeSynced": true
    },
    {
      "ID": "OhZhKkVNC4UUJkVt_WFT6zmtKPaKCEKpm-TscBG0AfwrMSgzLX3L4evb64r3TIay",
      "Lang": "uk",
      "CaptionKey": "translation",
      "CaptionName": "Переклад",
      "YoutubeSynced": true
    },
    {
      "ID": "HKrSRBuMpKbtirKFSVlC5aaHYq5s2XFpgJVIvPpKec_30cQ2NDmuew==",
      "Lang": "ur",
      "CaptionKey": "translation",
      "CaptionName": "ترجمہ",
      "YoutubeSynced": true
    },
    {
      "ID": "MbiLXZSMoTrB0kesYq6cObGU7ZJGA40gyv3rPG8rybf4191bnJf_YQ==",
      "Lang": "uz",
      "CaptionKey": "translation",
      "CaptionName": "Tarjima",
      "YoutubeSynced": true
    },
    {
      "ID": "oru0oxpHra5kJWvZK8GR1EiTixBhhI0UyZOgaT-Dyb0=",
      "Lang": "vi",
      "CaptionKey": "translation",
      "CaptionName": "Dịch",
      "YoutubeSynced": true
    },
    {
      "ID": "HKrSRBuMpKZxrTSKblsWTGiW_vTbdPC3MJFVjWFHkavLvvjEgQEuHw==",
      "Lang": "xh",
      "CaptionKey": "translation",
      "CaptionName": "Inguqulelo",
      "YoutubeSynced": true
    },
    {
      "ID": "TT_611KqegRxugdnQ25WNBat4yrTWh6iUhuFXD6t0eYxcU2fYBXtfNEzVg5JGDjZ",
      "Lang": "yi",
      "CaptionKey": "translation",
      "CaptionName": "איבערזעצונג",
      "YoutubeSynced": true
    },
    {
      "ID": "MbiLXZSMoTr5c5mUoZ_C3DbRny9Vy31uSTSHSQ22_t57aVinIIx9wA==",
      "Lang": "yo",
      "CaptionKey": "translation",
      "CaptionName": "Itumọ",
      "YoutubeSynced": true
    },
    {
      "ID": "nuuatF6-aYZUpJp75Fb7GCUAL54uHrZWWO8uSeK_qkNMF7PIlK3Zzw==",
      "Lang": "zh-Hans",
      "CaptionKey": "translation",
      "CaptionName": "翻译",
      "YoutubeSynced": true
    },
    {
      "ID": "nuuatF6-aYZUpJp75Fb7GKumI1I_EDFRpSlXP-e5DhkWikGJZvWS4g==",
      "Lang": "zh-Hant",
      "CaptionKey": "translation",
      "CaptionName": "翻譯",
      "YoutubeSynced": true
    },
    {
      "ID": "HKrSRBuMpKbe3U9tnO-fCp82nguA1tptGi70PLOPPkxjClsEIAJMZQ==",
      "Lang": "zu",
      "CaptionKey": "translation",
      "CaptionName": "Ukuhumusha",
      "YoutubeSynced": true
    }
  ]
}