{
  "VideoFile": "grammar-ja-a_33_A.mp4",
  "Captions": [
    {
      "ID": "Mkm5qIjm8OtNsdf3eOz8hkEqlRK7RzGwe90XaeW3zsKrARKK9WWjIg==",
      "Lang": "af",
      "CaptionKey": "translation",
      "CaptionName": "vertaling",
      "YoutubeSynced": true
    },
    {
      "ID": "xv6gV-83Z4aiyKmHCs9jPgwX1ULDq6vfkTFmdrwoV-jkwTGa1iQJAA==",
      "Lang": "am",
      "CaptionKey": "translation",
      "CaptionName": "ትርጉም",
      "YoutubeSynced": true
    },
    {
      "ID": "nuhN2_R60dxrPmS3X3rojEDZN1rXMUsxUIjpMlXPZSn9-_3GA-YWAA==",
      "Lang": "ar",
      "CaptionKey": "translation",
      "CaptionName": "ترجمة",
      "YoutubeSynced": true
    },
    {
      "ID": "nuhN2_R60dyCatnwNWITRt3ORNdgEVpnIhrFtl8XJHPpUx1o3X2drg==",
      "Lang": "az",
      "CaptionKey": "translation",
      "CaptionName": "Tərcümə",
      "YoutubeSynced": true
    },
    {
      "ID": "SHlR0_U7785ZzpEMJBXdOGJsqZH_R2vcZcAL0yN2-XX01-RIE6JKHG6FR9P85Jfw",
      "Lang": "be",
      "CaptionKey": "translation",
      "CaptionName": "Пераклад",
      "YoutubeSynced": true
    },
    {
      "ID": "xv6gV-83Z4bN0-NYf2-2BZruEvnjr2kWCAj7CJeBELiSeFoPTu3BuQ==",
      "Lang": "bg",
      "CaptionKey": "translation",
      "CaptionName": "превод",
      "YoutubeSynced": true
    },
    {
      "ID": "_Ww2U9W1K3b8HiuuDIkfpS3YygHJARs3a_7-9tfof6-LntpMrZ0I-eXSRBsSOY6U",
      "Lang": "bn",
      "CaptionKey": "translation",
      "CaptionName": "অনুবাদ",
      "YoutubeSynced": true
    },
    {
      "ID": "_FhePYXepecDovrhQsdMkl2ZApkECBrd43Me0lBbKVc=",
      "Lang": "bs",
      "CaptionKey": "translation",
      "CaptionName": "Prevod",
      "YoutubeSynced": true
    },
    {
      "ID": "nuhN2_R60dyitG3jdYwkiBIaeo820CPyFc3veYEty5L3ZsBkSfgPjQ==",
      "Lang": "ca",
      "CaptionKey": "translation",
      "CaptionName": "Traducció",
      "YoutubeSynced": true
    },
    {
      "ID": "nuhN2_R60dyn6aht-4X6qzXP2vHlK4d6IbN5I0VFjK1dsTNUwgvY8A==",
      "Lang": "co",
      "CaptionKey": "translation",
      "CaptionName": "Traduzione",
      "YoutubeSynced": true
    },
    {
      "ID": "ZbiV8hyw7ORH9pVGuNa-SFJ1qhdUjUBCR16NalNuMHNEg56WyZNAzw==",
      "Lang": "cs",
      "CaptionKey": "translation",
      "CaptionName": "Překlad",
      "YoutubeSynced": true
    },
    {
      "ID": "F96GFRJt_zq8EkNQrZa_bxthPVIPc6GhWbsR1e6GCBJGreK0o6Z3bg==",
      "Lang": "cy",
      "CaptionKey": "translation",
      "CaptionName": "Cyfieithiad",
      "YoutubeSynced": true
    },
    {
      "ID": "gRDl_juoxXogmOgKz-GjvDH5PZsd2V4ecx05vn24vLijrYqa9qJgsg==",
      "Lang": "da",
      "CaptionKey": "translation",
      "CaptionName": "Oversættelse",
      "YoutubeSynced": true
    },
    {
      "ID": "xv6gV-83Z4apyREOHxPKQqGH4WfG_DvpyZEhl7C5xe1mqyaLkr4vkA==",
      "Lang": "de",
      "CaptionKey": "translation",
      "CaptionName": "Übersetzung",
      "YoutubeSynced": true
    },
    {
      "ID": "_Ww2U9W1K3Yg72pNJLytP6abZeBDAgI0xQATaggnOyQqWI2d-vFdxHpEYIncvtXc",
      "Lang": "el",
      "CaptionKey": "translation",
      "CaptionName": "Μετάφραση",
      "YoutubeSynced": true
    },
    {
      "ID": "F96GFRJt_zrrAW-wNIzesjO6daYUf2lWT1PIGrsZneWfaJiCX7n5Jw==",
      "Lang": "en",
      "CaptionKey": "translation",
      "CaptionName": "Translation",
      "YoutubeSynced": true
    },
    {
      "ID": "F96GFRJt_zr-arb82QA4XIden7pv7cyx4ue5K4H2n-WmLPzLMgvwfw==",
      "Lang": "es",
      "CaptionKey": "translation",
      "CaptionName": "Traducción",
      "YoutubeSynced": true
    },
    {
      "ID": "_FhePYXepedAQ7zoxkiLMjMkcX7b9aSMO87AyKZWuSI=",
      "Lang": "et",
      "CaptionKey": "translation",
      "CaptionName": "Tõlge",
      "YoutubeSynced": true
    },
    {
      "ID": "Mkm5qIjm8OugJWM29cKZnptn28--drCepy0CnCbj066_oVYmIb_6cg==",
      "Lang": "eu",
      "CaptionKey": "translation",
      "CaptionName": "Itzulpena",
      "YoutubeSynced": true
    },
    {
      "ID": "nuhN2_R60dxsREXEs_DerMcORrcOFkoshf1PDqLaqDL1yy_DQAyUjQ==",
      "Lang": "fa",
      "CaptionKey": "translation",
      "CaptionName": "ترجمه",
      "YoutubeSynced": true
    },
    {
      "ID": "nuhN2_R60dw2CkPRXan8TjX_CyapOB4IIAt9xPXjnzFEC8cJFz1LMA==",
      "Lang": "fi",
      "CaptionKey": "translation",
      "CaptionName": "Käännös",
      "YoutubeSynced": true
    },
    {
      "ID": "F96GFRJt_zrVlZdNNO5NF8i29ZV19qF4SlBrDyqh4YGTPDAoQ6RqNg==",
      "Lang": "fil",
      "CaptionKey": "translation",
      "CaptionName": "Pagsasalin",
      "YoutubeSynced": true
    },
    {
      "ID": "nuhN2_R60dw91fI_Xm3_VdlFXS7e5w2D_WfB313rBDWBYfpEKsPXjA==",
      "Lang": "fr",
      "CaptionKey": "translation",
      "CaptionName": "Traduction",
      "YoutubeSynced": true
    },
    {
      "ID": "nuhN2_R60dz2av8eEBZ8gVAjoMw7mPO9sr_Nfsa19M3VFJQCj-I3aA==",
      "Lang": "fy",
      "CaptionKey": "translation",
      "CaptionName": "Oersetting",
      "YoutubeSynced": true
    },
    {
      "ID": "_Ww2U9W1K3aGQPv3_2i3gbvnHXV8JULJ2tmJvBPc72uScYiMQYAmBecayE3RBwBA",
      "Lang": "gd",
      "CaptionKey": "translation",
      "CaptionName": "Eadar-theangachadh",
      "YoutubeSynced": true
    },
    {
      "ID": "nuhN2_R60dzcmGebLBsntlrj-Lmr6IwMry9P1dI1tjmWj5jRISTyYw==",
      "Lang": "gl",
      "CaptionKey": "translation",
      "CaptionName": "Tradución",
      "YoutubeSynced": true
    },
    {
      "ID": "_Ww2U9W1K3bLiy4G9_YhIFIuQigjGkBaAQ_k8O728cR6EW1hlrCsrG0LYasTxMCN",
      "Lang": "gu",
      "CaptionKey": "translation",
      "CaptionName": "અનુવાદ",
      "YoutubeSynced": true
    },
    {
      "ID": "dtrVrTqUcmDk03vGJat7qpHj4X2FtekJAS-0Qka53jxcjSw1AYHjYA==",
      "Lang": "ha",
      "CaptionKey": "translation",
      "CaptionName": "Fassara",
      "YoutubeSynced": true
    },
    {
      "ID": "_Ww2U9W1K3aVyeksTO599BgZOVm9XCGKogAj_M94_vucTMmTLccpnJ49SjnQxr93",
      "Lang": "hi",
      "CaptionKey": "translation",
      "CaptionName": "अनुवाद",
      "YoutubeSynced": true
    },
    {
      "ID": "ZbiV8hyw7OTwBHr_XVKQRRd9UEbHTm2GkGzGVTn2rWp5pyBuE-2HzQ==",
      "Lang": "hr",
      "CaptionKey": "translation",
      "CaptionName": "Prijevod",
      "YoutubeSynced": true
    },
    {
      "ID": "nuhN2_R60dydRaH1iUKBdWv21Tg3fVkngVGRBKowQJn5vWV5a65CTg==",
      "Lang": "hu",
      "CaptionKey": "translation",
      "CaptionName": "Fordítás",
      "YoutubeSynced": true
    },
    {
      "ID": "rs6yY3-QKt52_U0VVN4TKHElpouCfRU0sfAXFNGf6yh0tMBKriqsvOhBFQdtcN547bdWAPY4sUw=",
      "Lang": "hy",
      "CaptionKey": "translation",
      "CaptionName": "Թարգմանություն",
      "YoutubeSynced": true
    },
    {
      "ID": "nuhN2_R60dwFBehloXA5eVQvGBYOxmsUD33nuhtlrQwhOKGkJcBnVA==",
      "Lang": "id",
      "CaptionKey": "translation",
      "CaptionName": "Terjemahan",
      "YoutubeSynced": true
    },
    {
      "ID": "ZbiV8hyw7OQF2KmMNhZsHtvCc2tG70a8aiRwfc8SgdKcnZZFa1flhw==",
      "Lang": "ig",
      "CaptionKey": "translation",
      "CaptionName": "Ntughari",
      "YoutubeSynced": true
    },
    {
      "ID": "Mkm5qIjm8OuXIfPNev4-B78CrYcds6he_mQ4hlGRft5EERMsjOGUSQ==",
      "Lang": "is",
      "CaptionKey": "translation",
      "CaptionName": "Þýðing",
      "YoutubeSynced": true
    },
    {
      "ID": "nuhN2_R60dwGgP2CH2mMmLgWFG4qvzOeI0P6YRGIWLa7Mwd8XxAGyg==",
      "Lang": "it",
      "CaptionKey": "translation",
      "CaptionName": "Traduzione",
      "YoutubeSynced": true
    },
    {
      "ID": "nuhN2_R60dy27tS5nuoH4UmGOfbdoEsMiQWXzDXxPybLPMY4qzhMRg==",
      "Lang": "iw",
      "CaptionKey": "translation",
      "CaptionName": "תרגום",
      "YoutubeSynced": true
    },
    {
      "ID": "_FhePYXepedAMEb1KA6KrVf_5r8I3Buuufm6qv8CiWg=",
      "Lang": "ja",
      "CaptionKey": "translation",
      "CaptionName": "翻訳",
      "YoutubeSynced": true
    },
    {
      "ID": "Mkm5qIjm8OtcTV224xMRnQgpnTct77xTeOLS7SE4D5xWUQjkH_yvjg==",
      "Lang": "jv",
      "CaptionKey": "translation",
      "CaptionName": "Ngartekne",
      "YoutubeSynced": true
    },
    {
      "ID": "HtAqJtPPMGXu5gYCipbXnfliWDPqF9QGgFkIi_2uknW_LxnIiBcrybT1KRQfIyG8k30qtRJ62hY=",
      "Lang": "ka",
      "CaptionKey": "translation",
      "CaptionName": "თარგმანი",
      "YoutubeSynced": true
    },
    {
      "ID": "xuH44XspesWdKwTUZTLsQ0qzERh-xPhWoJA1HFYfUQ7bt1tJa_NU9g==",
      "Lang": "kk",
      "CaptionKey": "translation",
      "CaptionName": "Аударма",
      "YoutubeSynced": true
    },
    {
      "ID": "k7P-5-LaHhoYVmVHiCT4dH4QZIWDENNiVk8t3KoEJvHkh5At6JOQ7FPEn6TAIDvV4ibyewMyrJ8=",
      "Lang": "km",
      "CaptionKey": "translation",
      "CaptionName": "ការបកប្រែ",
      "YoutubeSynced": true
    },
    {
      "ID": "_Ww2U9W1K3a_iBXnYl3X_akRrRxcU8_jfj-fJ0HXfnr6gXjg49339m8zl4BgskYE",
      "Lang": "kn",
      "CaptionKey": "translation",
      "CaptionName": "ಅನುವಾದ",
      "YoutubeSynced": true
    },
    {
      "ID": "_FhePYXepeeWflU_KbWFi3dAo4CVSA6QFWsMEGPDb5w=",
      "Lang": "ko",
      "CaptionKey": "translation",
      "CaptionName": "번역",
      "YoutubeSynced": true
    },
    {
      "ID": "_FhePYXepecItmaMrtdmc_AaKCor-9S7DAJuL6vLC08=",
      "Lang": "ku",
      "CaptionKey": "translation",
      "CaptionName": "Werger",
      "YoutubeSynced": true
    },
    {
      "ID": "xuH44XspesW7wmCuzHXcEx_RNMcsw9Uv7IiKZEr1u0jJtajCE-NQ3g==",
      "Lang": "ky",
      "CaptionKey": "translation",
      "CaptionName": "котормо",
      "YoutubeSynced": true
    },
    {
      "ID": "xv6gV-83Z4aVa9ygcofnCQClQ1L6Za3Q7XaMqE3k-BzL455n0H00Bw==",
      "Lang": "lb",
      "CaptionKey": "translation",
      "CaptionName": "Iwwersetzung",
      "YoutubeSynced": true
    },
    {
      "ID": "k7P-5-LaHhqanHy-WxBZA0AmxxViFaZZHcSx_fdmZzP17v8BJwwCX_tGpgMc1ChyEd1Mx-nYzws=",
      "Lang": "lo",
      "CaptionKey": "translation",
      "CaptionName": "ການແປພາສາ",
      "YoutubeSynced": true
    },
    {
      "ID": "ZbiV8hyw7OTXos7rPCJT8rvhZzvOpsELBzUiEiOcJY6NVebzk-rlNg==",
      "Lang": "lt",
      "CaptionKey": "translation",
      "CaptionName": "Vertimas",
      "YoutubeSynced": true
    },
    {
      "ID": "nuhN2_R60dzM_gFI4zFGMqGq0vg5wM55F6UAH5j991-nvgoxNjhdIw==",
      "Lang": "lv",
      "CaptionKey": "translation",
      "CaptionName": "Tulkošana",
      "YoutubeSynced": true
    },
    {
      "ID": "F96GFRJt_zoBOpgUh38RBLZenF4DHbEH6LpSNyqkBpXw2wDlRnTB0w==",
      "Lang": "mg",
      "CaptionKey": "translation",
      "CaptionName": "Translation",
      "YoutubeSynced": true
    },
    {
      "ID": "tNuezd9EvfltNga8gzHGQ6pLYJEWUagTpFsSHjDKt1M7TQc82LM8NfJYgQzADk1y",
      "Lang": "mi",
      "CaptionKey": "translation",
      "CaptionName": "Whakamaoritanga",
      "YoutubeSynced": true
    },
    {
      "ID": "xv6gV-83Z4Z_mgRYJUFBJR73kd2nHJM5Mdw3Uz5vin6Zf1-fLptxyw==",
      "Lang": "mk",
      "CaptionKey": "translation",
      "CaptionName": "Превод",
      "YoutubeSynced": true
    },
    {
      "ID": "k7P-5-LaHhpWf3sv8IUN1L-ertonmgVdke1w5eOI1N-1Ji9gqa6Z1c9_ydzfgd7pJ2zVyUF3s5U=",
      "Lang": "ml",
      "CaptionKey": "translation",
      "CaptionName": "വിവർത്തനം",
      "YoutubeSynced": true
    },
    {
      "ID": "SHlR0_U7786q3nSwdw4_IgB04MbSF5wk8ST3VnWBtUgAROArZtihayA4mvjt28pn",
      "Lang": "mn",
      "CaptionKey": "translation",
      "CaptionName": "Орчуулга",
      "YoutubeSynced": true
    },
    {
      "ID": "O1hihbeCuhkD_Fqaioo3JsP4FlhVsUsTSOCDltmDja5bI3O2ETywGN0Nps7NtXTS",
      "Lang": "mr",
      "CaptionKey": "translation",
      "CaptionName": "भाषांतर",
      "YoutubeSynced": true
    },
    {
      "ID": "nuhN2_R60dyNEf-0c5y2GC5GmEVzPwAOAIIhA1JjlN5ScTsdB5j8zg==",
      "Lang": "ms",
      "CaptionKey": "translation",
      "CaptionName": "Terjemahan",
      "YoutubeSynced": true
    },
    {
      "ID": "F96GFRJt_zojxJucnRP1x5NmiqQaebF5tCWh19rN3XGdV8OxuUX0gg==",
      "Lang": "mt",
      "CaptionKey": "translation",
      "CaptionName": "Traduzzjoni",
      "YoutubeSynced": true
    },
    {
      "ID": "HtAqJtPPMGVZE3EcLJS84GrJt_7icpNosXYKXZGfQpxZzVqvswfLS2Yf6HgmROIiJ6qIx6vgdfg=",
      "Lang": "my",
      "CaptionKey": "translation",
      "CaptionName": "ဘာသာပြန်",
      "YoutubeSynced": true
    },
    {
      "ID": "_Ww2U9W1K3aHfdm8WsruwTHlBUaVp8WL-m8CWFde3vbcOfYNQSEVmWrTWO-TNyEm",
      "Lang": "ne",
      "CaptionKey": "translation",
      "CaptionName": "अनुवाद",
      "YoutubeSynced": true
    },
    {
      "ID": "Mkm5qIjm8Ov6gr_DsGE1d8XL3gT67yDulE5x5PqwPWMlJsDJ_NaUBQ==",
      "Lang": "nl",
      "CaptionKey": "translation",
      "CaptionName": "Vertaling",
      "YoutubeSynced": true
    },
    {
      "ID": "xv6gV-83Z4ZtEAdNXUcTJe1WkoQjlXlp8LwmxFO9YIPNKvbO5Fe_lg==",
      "Lang": "no",
      "CaptionKey": "translation",
      "CaptionName": "Oversettelse",
      "YoutubeSynced": true
    },
    {
      "ID": "_Ww2U9W1K3Ym4cv5_OHzs-cxS8Fn3ZO1ubtuuKltiYHF0tE6qj9HLrTS7c4ySp1q",
      "Lang": "pa",
      "CaptionKey": "translation",
      "CaptionName": "ਅਨੁਵਾਦ",
      "YoutubeSynced": true
    },
    {
      "ID": "xv6gV-83Z4b4bf_20v1IH5MNqTEvXgnAPlvH2Vxg29opfGWlrPg38A==",
      "Lang": "pl",
      "CaptionKey": "translation",
      "CaptionName": "Tłumaczenie",
      "YoutubeSynced": true
    },
    {
      "ID": "nuhN2_R60dwotIq6AgSK9PgxH9EhEM10NvT9NzNutqg2OJjcRtghpw==",
      "Lang": "ps",
      "CaptionKey": "translation",
      "CaptionName": "ژباړه",
      "YoutubeSynced": true
    },
    {
      "ID": "nuhN2_R60dzyEbwOflaCayqBpxwiSyec5wE9YUoQU3ngOb1rKEjkCA==",
      "Lang": "pt",
      "CaptionKey": "translation",
      "CaptionName": "Tradução",
      "YoutubeSynced": true
    },
    {
      "ID": "Mkm5qIjm8OvjZsb6wsyNlDW6ePL8UuBBu3eA7i8secrZO3ngScQC9Q==",
      "Lang": "ro",
      "CaptionKey": "translation",
      "CaptionName": "Traducere",
      "YoutubeSynced": true
    },
    {
      "ID": "xuH44XspesXbJE4VAdZTF-dRJmooXKzpG6MEIg3Yx5-H-lorT2VrTA==",
      "Lang": "ru",
      "CaptionKey": "translation",
      "CaptionName": "Перевод",
      "YoutubeSynced": true
    },
    {
      "ID": "nuhN2_R60dw2Fo5L4CLaoHFG5rQWspC0U5CQXhIBkHMmgV7fIkrctQ==",
      "Lang": "sd",
      "CaptionKey": "translation",
      "CaptionName": "ترجمو",
      "YoutubeSynced": true
    },
    {
      "ID": "k7P-5-LaHhqFggRB2GDmLgEUA28Xh377ydzJILIysrKeK8EKjLlvhv3ILG6MtygP7jykcOvStqQ=",
      "Lang": "si",
      "CaptionKey": "translation",
      "CaptionName": "පරිවර්තනය",
      "YoutubeSynced": true
    },
    {
      "ID": "dtrVrTqUcmAFsdrZHBCAytL6qXIxrykjCQJT7gTMRgCIzVUIXVdijA==",
      "Lang": "sk",
      "CaptionKey": "translation",
      "CaptionName": "preklad",
      "YoutubeSynced": true
    },
    {
      "ID": "_FhePYXepeefxLUk5h0FkGTV_8XhrM5I30owm2ps1yg=",
      "Lang": "sl",
      "CaptionKey": "translation",
      "CaptionName": "Prevod",
      "YoutubeSynced": true
    },
    {
      "ID": "xv6gV-83Z4Y7XesQcHaHgeuhugBlXqF6sgvI2-qovG6qPcYJPfKsEA==",
      "Lang": "sm",
      "CaptionKey": "translation",
      "CaptionName": "Faʻaliliuga",
      "YoutubeSynced": true
    },
    {
      "ID": "dtrVrTqUcmDSqh1_nSDNW7FN4AExryIzyDrGXFJwqwnu-M0CFQfwUA==",
      "Lang": "sn",
      "CaptionKey": "translation",
      "CaptionName": "Dudziro",
      "YoutubeSynced": true
    },
    {
      "ID": "Mkm5qIjm8OvFu3J3ghIJbiYzC7_kOBDhxw1OO17tlmMpk0jBGcNduw==",
      "Lang": "so",
      "CaptionKey": "translation",
      "CaptionName": "Tarjumida",
      "YoutubeSynced": true
    },
    {
      "ID": "Mkm5qIjm8OtUEUJdYfmTRsMrulQyQ6DB-QRz0u38W0oV_NLHcUHMmg==",
      "Lang": "sq",
      "CaptionKey": "translation",
      "CaptionName": "përkthim",
      "YoutubeSynced": true
    },
    {
      "ID": "xv6gV-83Z4YIbu4fcqpBKnlrxLU27GmdvF2hUbRgoux8im_6M30yfg==",
      "Lang": "sr",
      "CaptionKey": "translation",
      "CaptionName": "Превод",
      "YoutubeSynced": true
    },
    {
      "ID": "Mkm5qIjm8Ota9732XmBjmkrx0XIwkA6kMQTKz92UoFE5Zo-p0g0kLQ==",
      "Lang": "st",
      "CaptionKey": "translation",
      "CaptionName": "Phetolelo",
      "YoutubeSynced": true
    },
    {
      "ID": "nuhN2_R60dw9givE6Tf9-LSlZD389_KaJfIs6f77z3OE6lJN79A74w==",
      "Lang": "su",
      "CaptionKey": "translation",
      "CaptionName": "Tarjamahan",
      "YoutubeSynced": true
    },
    {
      "ID": "xuH44XspesUmhEHxl7OF-AabvcroS1i4_e-V5d5G9cEZDudrQV9YBw==",
      "Lang": "sv",
      "CaptionKey": "translation",
      "CaptionName": "Översättning",
      "YoutubeSynced": true
    },
    {
      "ID": "dtrVrTqUcmDZ0OddUpqbYXUQv03ZbRg2aM6iGs6ZU7zOw1T6u7qkbQ==",
      "Lang": "sw",
      "CaptionKey": "translation",
      "CaptionName": "Tafsiri",
      "YoutubeSynced": true
    },
    {
      "ID": "zVYynAzAPPm-cYCVUFP3dJDku9MWtdFsyQYtzBBNEfkztl4WzlBBCcvLwxHt6IdUj-Jrc7wjoWwcTBru6bM9OtaauPHt4UjV",
      "Lang": "ta",
      "CaptionKey": "translation",
      "CaptionName": "மொழிபெயர்ப்பு",
      "YoutubeSynced": true
    },
    {
      "ID": "O1hihbeCuhmxGQEvCTaey2u6tcQFzx5j14uKoOL-VTJZkN78ovRtKTIw9Cavjg8U",
      "Lang": "te",
      "CaptionKey": "translation",
      "CaptionName": "అనువాదం",
      "YoutubeSynced": true
    },
    {
      "ID": "xuH44XspesWPfkOz6Q6snvAZj4SE4lx8Bky_YGZOqSe7wINgvcrn9Q==",
      "Lang": "tg",
      "CaptionKey": "translation",
      "CaptionName": "Тарҷума",
      "YoutubeSynced": true
    },
    {
      "ID": "_Ww2U9W1K3bqokN7g-LoQZ9HvJE5o4V3TzsjXhtqYkjp19broMSyVg0X73J8WfVt",
      "Lang": "th",
      "CaptionKey": "translation",
      "CaptionName": "การแปล",
      "YoutubeSynced": true
    },
    {
      "ID": "ZbiV8hyw7ORqVoZ1fMeQ3otUz7HYbHkm6xJELuqncW3kaidIBooZQg==",
      "Lang": "tr",
      "CaptionKey": "translation",
      "CaptionName": "Tercüme",
      "YoutubeSynced": true
    },
    {
      "ID": "SHlR0_U7785gc92PS-BS0axJr4_2vJM7KBds2XWWGLL73ck0XPDbiXgXCLQgYEbg",
      "Lang": "uk",
      "CaptionKey": "translation",
      "CaptionName": "Переклад",
      "YoutubeSynced": true
    },
    {
      "ID": "nuhN2_R60dw8bZkOYHBeKAoHN8Hw-22BS0JtAq9EAMAEdBdw9bKDng==",
      "Lang": "ur",
      "CaptionKey": "translation",
      "CaptionName": "ترجمہ",
      "YoutubeSynced": true
    },
    {
      "ID": "dtrVrTqUcmAcnLfN34TdVbPetYKmmCX6znxf6QLqXgMO7NTid-VuiQ==",
      "Lang": "uz",
      "CaptionKey": "translation",
      "CaptionName": "Tarjima",
      "YoutubeSynced": true
    },
    {
      "ID": "_FhePYXepecvWbUCgKFboU_m4s8mq-SQwRJ8NnsaXAY=",
      "Lang": "vi",
      "CaptionKey": "translation",
      "CaptionName": "Dịch",
      "YoutubeSynced": true
    },
    {
      "ID": "nuhN2_R60dxUxuDOA-rJ-BiSJDEJCDFZr9mqoA7PRz6Fah5FI1KyeQ==",
      "Lang": "xh",
      "CaptionKey": "translation",
      "CaptionName": "Inguqulelo",
      "YoutubeSynced": true
    },
    {
      "ID": "Nirf34vSNRghOzbzSb0AcpNue_PruRtW4CQSN1C91YRsxMNhGuajiWui1KoiC6Bb",
      "Lang": "yi",
      "CaptionKey": "translation",
      "CaptionName": "איבערזעצונג",
      "YoutubeSynced": true
    },
    {
      "ID": "dtrVrTqUcmC3sVyBbNEzFgoRjzjqBENIRXfGPNqqvwHw-Sfj7sd1FQ==",
      "Lang": "yo",
      "CaptionKey": "translation",
      "CaptionName": "Itumọ",
      "YoutubeSynced": true
    },
    {
      "ID": "F96GFRJt_zrUuDMV9dLQf0YIrA6qJvuhhaoMd1eBBMbgEt5wIzGsBw==",
      "Lang": "zh-Hans",
      "CaptionKey": "translation",
      "CaptionName": "翻译",
      "YoutubeSynced": true
    },
    {
      "ID": "F96GFRJt_zrUuDMV9dLQfzdM9mFpOETjdPnQnCvsfo3xeiJLrpfafA==",
      "Lang": "zh-Hant",
      "CaptionKey": "translation",
      "CaptionName": "翻譯",
      "YoutubeSynced": true
    },
    {
      "ID": "nuhN2_R60dxj0_ddfS7NGcI_gnyzVetrkc56LQMd0tTD-yGB0Ue91w==",
      "Lang": "zu",
      "CaptionKey": "translation",
      "CaptionName": "Ukuhumusha",
      "YoutubeSynced": true
    }
  ]
}