{
  "VideoFile": "grammar-ja-a_12_A.mp4",
  "Captions": [
    {
      "ID": "phdgPx4CBQXS_mhqS8uOUbBbd0dgiVWOyK3ynP549ePWa31gWsO0sA==",
      "Lang": "af",
      "CaptionKey": "translation",
      "CaptionName": "vertaling",
      "YoutubeSynced": true
    },
    {
      "ID": "s6MHA0Mq2xOz31m9PhRsxxxvqhCucd6wR72MhTILk0OIjrnKqfZj1w==",
      "Lang": "am",
      "CaptionKey": "translation",
      "CaptionName": "ትርጉም",
      "YoutubeSynced": true
    },
    {
      "ID": "M9Gm6mW9wMk6CIit8hMCYg_nrruh4FPzDybVTgYPjqtZPlVq6_tRBg==",
      "Lang": "ar",
      "CaptionKey": "translation",
      "CaptionName": "ترجمة",
      "YoutubeSynced": true
    },
    {
      "ID": "M9Gm6mW9wMmvQ5cr7-Z_HUwidWigE912UjfmSzWuVGFu8KaGJGe_rg==",
      "Lang": "az",
      "CaptionKey": "translation",
      "CaptionName": "Tərcümə",
      "YoutubeSynced": true
    },
    {
      "ID": "QOKWteAgE6DviFuhi-fsBGtYwBY0oy_awP3fQ3Qm1KVlFQtIA5elfn1CeJXurUEX",
      "Lang": "be",
      "CaptionKey": "translation",
      "CaptionName": "Пераклад",
      "YoutubeSynced": true
    },
    {
      "ID": "s6MHA0Mq2xNAn8mamH7DTyWy10terYkK9k9gySs2lt430Ul91xSFsg==",
      "Lang": "bg",
      "CaptionKey": "translation",
      "CaptionName": "превод",
      "YoutubeSynced": true
    },
    {
      "ID": "F81FC8hLixmIox7KcTsKFQTArqe9wAk8nBA11I7EBkdFtR-PLGVhXAkUZrc2CMba",
      "Lang": "bn",
      "CaptionKey": "translation",
      "CaptionName": "অনুবাদ",
      "YoutubeSynced": true
    },
    {
      "ID": "b_dNziLHlhXyWVkdKp418_Kn3jgqi13NCuKn1C1HQWg=",
      "Lang": "bs",
      "CaptionKey": "translation",
      "CaptionName": "Prevod",
      "YoutubeSynced": true
    },
    {
      "ID": "M9Gm6mW9wMmZrEMV0a9iiqxK5Zz65PVbZjECOEbe8Z5eKYCD3c8wqg==",
      "Lang": "ca",
      "CaptionKey": "translation",
      "CaptionName": "Traducció",
      "YoutubeSynced": true
    },
    {
      "ID": "M9Gm6mW9wMm17wUwQNtQzd1rpx86Zj1Mq8W-LJ0uPlWrHeST3JoIXA==",
      "Lang": "co",
      "CaptionKey": "translation",
      "CaptionName": "Traduzione",
      "YoutubeSynced": true
    },
    {
      "ID": "8Lefzu3EzHWnPtaglShqjNNKhZR5E8E0CJNI8z775n52ychvj4V26w==",
      "Lang": "cs",
      "CaptionKey": "translation",
      "CaptionName": "Překlad",
      "YoutubeSynced": true
    },
    {
      "ID": "Er97mmyx-1caIapn6Z2tESXp91y4BDvF2pahOELGUshmBT9RMQwtLw==",
      "Lang": "cy",
      "CaptionKey": "translation",
      "CaptionName": "Cyfieithiad",
      "YoutubeSynced": true
    },
    {
      "ID": "ATwngy09TJlZWiGvRdxfqezp4aq5AYdUgpcbwUD6e_eKh8bueZMJ0A==",
      "Lang": "da",
      "CaptionKey": "translation",
      "CaptionName": "Oversættelse",
      "YoutubeSynced": true
    },
    {
      "ID": "s6MHA0Mq2xN3Urf61Uv7C5oF8Laf9DKp2d60j86wXawXfx1eed5HfA==",
      "Lang": "de",
      "CaptionKey": "translation",
      "CaptionName": "Übersetzung",
      "YoutubeSynced": true
    },
    {
      "ID": "F81FC8hLixkVZzwabBZLtkpXgs-dOvOQnweXt0wQNkN6EQlbI4cRg3AKKZGfxhLb",
      "Lang": "el",
      "CaptionKey": "translation",
      "CaptionName": "Μετάφραση",
      "YoutubeSynced": true
    },
    {
      "ID": "Er97mmyx-1enr4Rw6rnhbFHYRnCOKsv-QNlR5Oip_MTtqzfKu0Mx-w==",
      "Lang": "en",
      "CaptionKey": "translation",
      "CaptionName": "Translation",
      "YoutubeSynced": true
    },
    {
      "ID": "Er97mmyx-1ei7hHEWJ3YfUIFJ2uK0Ldwybfd9-2JPLd-QLFwUjiUrQ==",
      "Lang": "es",
      "CaptionKey": "translation",
      "CaptionName": "Traducción",
      "YoutubeSynced": true
    },
    {
      "ID": "b_dNziLHlhXftAjaWSg2wHed-cNlYzFsxet37C_WZJk=",
      "Lang": "et",
      "CaptionKey": "translation",
      "CaptionName": "Tõlge",
      "YoutubeSynced": true
    },
    {
      "ID": "phdgPx4CBQUllnRwvFRF0yP1E2Kha7TN3PYCsTegiDBY7FRD5pVZig==",
      "Lang": "eu",
      "CaptionKey": "translation",
      "CaptionName": "Itzulpena",
      "YoutubeSynced": true
    },
    {
      "ID": "M9Gm6mW9wMlGA4-jdiLlSLGSCda-LZy50fPzZTYlpqjwRZ20k6Is0Q==",
      "Lang": "fa",
      "CaptionKey": "translation",
      "CaptionName": "ترجمه",
      "YoutubeSynced": true
    },
    {
      "ID": "M9Gm6mW9wMnuOhNbFlvw9cSSFg-HKdQSp5eT-8BlkdhAQDCWEgASeA==",
      "Lang": "fi",
      "CaptionKey": "translation",
      "CaptionName": "Käännös",
      "YoutubeSynced": true
    },
    {
      "ID": "Er97mmyx-1e7u2UP6jHfaAzLtyq1-L-8wYJ02mGnG6L6OFWaIZ7kyA==",
      "Lang": "fil",
      "CaptionKey": "translation",
      "CaptionName": "Pagsasalin",
      "YoutubeSynced": true
    },
    {
      "ID": "M9Gm6mW9wMm7f-hN1vb6s1e5ZMfijGJyJKdfL4UWhnm6PXH0wVOVKg==",
      "Lang": "fr",
      "CaptionKey": "translation",
      "CaptionName": "Traduction",
      "YoutubeSynced": true
    },
    {
      "ID": "M9Gm6mW9wMlxsuk3J5kqXIHg0rZ7H6CPjA81H-Bhxy91RG4ZxLGEZg==",
      "Lang": "fy",
      "CaptionKey": "translation",
      "CaptionName": "Oersetting",
      "YoutubeSynced": true
    },
    {
      "ID": "F81FC8hLixlCbjYNctDMUZOiceJgPU6maYwVwN-84FoRxWCjjKDmxV3VXLwOQCFW",
      "Lang": "gd",
      "CaptionKey": "translation",
      "CaptionName": "Eadar-theangachadh",
      "YoutubeSynced": true
    },
    {
      "ID": "M9Gm6mW9wMl3-XqXegp3F5mDBpKT5w547mfcREvMmGDrtSoGjq6PDw==",
      "Lang": "gl",
      "CaptionKey": "translation",
      "CaptionName": "Tradución",
      "YoutubeSynced": true
    },
    {
      "ID": "F81FC8hLixlxMZOpwJiFW--4B4-WCTKd5SmGBrddkTqvWOjkZa4ds5rM9ttQpuZi",
      "Lang": "gu",
      "CaptionKey": "translation",
      "CaptionName": "અનુવાદ",
      "YoutubeSynced": true
    },
    {
      "ID": "f_r3eD8uqz8VkEuMYRrpL83kXbU9foknOtVSBLuvXRtFiO0ZCchsJw==",
      "Lang": "ha",
      "CaptionKey": "translation",
      "CaptionName": "Fassara",
      "YoutubeSynced": true
    },
    {
      "ID": "F81FC8hLixm3Lxz2usZlXTk88m_qWxu9Jr15tcFPgA9TteGi_VoZ1PqSysgkKTIq",
      "Lang": "hi",
      "CaptionKey": "translation",
      "CaptionName": "अनुवाद",
      "YoutubeSynced": true
    },
    {
      "ID": "8Lefzu3EzHVWaWwjNkJj4QadwtbrO4GhjTUPYpz27TV4i-R-fV1nQg==",
      "Lang": "hr",
      "CaptionKey": "translation",
      "CaptionName": "Prijevod",
      "YoutubeSynced": true
    },
    {
      "ID": "M9Gm6mW9wMlOkJ3UGOjJvAeFtTp-EbbCbR9IB4bktih9ZXGW3ZHbbw==",
      "Lang": "hu",
      "CaptionKey": "translation",
      "CaptionName": "Fordítás",
      "YoutubeSynced": true
    },
    {
      "ID": "MMUo4mothQXzopGbzsu2SaDHwAZ5l8jZ_SE2Onx27etsywj-BmY549q0ixhxr_EEdp-P3j-emhI=",
      "Lang": "hy",
      "CaptionKey": "translation",
      "CaptionName": "Թարգմանություն",
      "YoutubeSynced": true
    },
    {
      "ID": "M9Gm6mW9wMk4qg4jPAmW82lA3cY9bfQj1geofaExtjbH8m48lMtG7g==",
      "Lang": "id",
      "CaptionKey": "translation",
      "CaptionName": "Terjemahan",
      "YoutubeSynced": true
    },
    {
      "ID": "8Lefzu3EzHXR4fvfUXJPf7wL3S6qGoBkEfEVMdZwi1TdSET1fS-tWg==",
      "Lang": "ig",
      "CaptionKey": "translation",
      "CaptionName": "Ntughari",
      "YoutubeSynced": true
    },
    {
      "ID": "phdgPx4CBQXOVcBpckGcPwOzjclva8I45GXMnASKVJixgh6om7vKgw==",
      "Lang": "is",
      "CaptionKey": "translation",
      "CaptionName": "Þýðing",
      "YoutubeSynced": true
    },
    {
      "ID": "M9Gm6mW9wMkoWdcAccETB8lY6sh7SE0PUx9gFL3wWUMB1PSZp2rt7A==",
      "Lang": "it",
      "CaptionKey": "translation",
      "CaptionName": "Traduzione",
      "YoutubeSynced": true
    },
    {
      "ID": "M9Gm6mW9wMngGARP3hDeFDQLvBuMoFI5trjGocK9HKuTVg3YWWtApg==",
      "Lang": "iw",
      "CaptionKey": "translation",
      "CaptionName": "תרגום",
      "YoutubeSynced": true
    },
    {
      "ID": "b_dNziLHlhXmFFMejMu87PghtMKIRLcHj1XS6eu19-8=",
      "Lang": "ja",
      "CaptionKey": "translation",
      "CaptionName": "翻訳",
      "YoutubeSynced": true
    },
    {
      "ID": "phdgPx4CBQU4fiwcvmcYeuiM4W6jzs5uygiWHhJLTx6Y3aWKsyUq6g==",
      "Lang": "jv",
      "CaptionKey": "translation",
      "CaptionName": "Ngartekne",
      "YoutubeSynced": true
    },
    {
      "ID": "RXUx-uQ5CMyhQzwv0BtLwkCi8L93Uf1s-pvtRlTQYP38nh1UNXTerlXr0jHAZ6hQV-SDsSuvIsc=",
      "Lang": "ka",
      "CaptionKey": "translation",
      "CaptionName": "თარგმანი",
      "YoutubeSynced": true
    },
    {
      "ID": "Bpt0qvaJ4Poca5KDACaZCDwiw09faCjbNxZpV8gsEDiWwDhvIVqylA==",
      "Lang": "kk",
      "CaptionKey": "translation",
      "CaptionName": "Аударма",
      "YoutubeSynced": true
    },
    {
      "ID": "1W5HR3tWweobyYtTubN65xzhcEQr2NPBlUEYrfseJcs_6jgcP3jI5SJdL6dZPbXwPvhov_ENq9U=",
      "Lang": "km",
      "CaptionKey": "translation",
      "CaptionName": "ការបកប្រែ",
      "YoutubeSynced": true
    },
    {
      "ID": "F81FC8hLixmss2hXq0c-_v6e4aIrMBapzQzby8mnbaDgPvPEDGR2Ue8QrwTUqnNU",
      "Lang": "kn",
      "CaptionKey": "translation",
      "CaptionName": "ಅನುವಾದ",
      "YoutubeSynced": true
    },
    {
      "ID": "b_dNziLHlhV2q6Uv5Bc74eWnDyTrCGf240de9lRG45s=",
      "Lang": "ko",
      "CaptionKey": "translation",
      "CaptionName": "번역",
      "YoutubeSynced": true
    },
    {
      "ID": "b_dNziLHlhXntpsTrbLT520vf8pks4aKa8YtCvWm01w=",
      "Lang": "ku",
      "CaptionKey": "translation",
      "CaptionName": "Werger",
      "YoutubeSynced": true
    },
    {
      "ID": "Bpt0qvaJ4PqmviPaZRBcRwLF11LugCV0c3pC7KkSq4SNTpnCz4LMdQ==",
      "Lang": "ky",
      "CaptionKey": "translation",
      "CaptionName": "котормо",
      "YoutubeSynced": true
    },
    {
      "ID": "s6MHA0Mq2xMprKRoW6KDNS_S5vENCdrlzflHjRpDNxkXpmqoe-QzjA==",
      "Lang": "lb",
      "CaptionKey": "translation",
      "CaptionName": "Iwwersetzung",
      "YoutubeSynced": true
    },
    {
      "ID": "1W5HR3tWwepJFkRPS82eQoUj-d4k7QqinuwlN98lOfBaVyzFY7uozwX_gYIWQFPqDEkMw8BVE5w=",
      "Lang": "lo",
      "CaptionKey": "translation",
      "CaptionName": "ການແປພາສາ",
      "YoutubeSynced": true
    },
    {
      "ID": "8Lefzu3EzHXY1epHVurXTGWjegSQqfl43iK0u1fBNYI0RmV8HsyPpg==",
      "Lang": "lt",
      "CaptionKey": "translation",
      "CaptionName": "Vertimas",
      "YoutubeSynced": true
    },
    {
      "ID": "M9Gm6mW9wMkGuKB48-fPuP2S_WNX0yJS3nfz3QMrK69cfnOg1R3Y8g==",
      "Lang": "lv",
      "CaptionKey": "translation",
      "CaptionName": "Tulkošana",
      "YoutubeSynced": true
    },
    {
      "ID": "Er97mmyx-1e1mDn6Wps16tcJ1XLL203qul4mk1fPvPNN0AkOaxnZNA==",
      "Lang": "mg",
      "CaptionKey": "translation",
      "CaptionName": "Translation",
      "YoutubeSynced": true
    },
    {
      "ID": "dv76MYw_WDeLcJ6VtQ-FCS_e94w1gaAh7RUu_H-0cg7qu4lLXcwAsVlc2aOrSRX4",
      "Lang": "mi",
      "CaptionKey": "translation",
      "CaptionName": "Whakamaoritanga",
      "YoutubeSynced": true
    },
    {
      "ID": "s6MHA0Mq2xPjOF-hRAttbn_K4f4rwc5z13o7Z2fjkdzAa5GlaGSuOg==",
      "Lang": "mk",
      "CaptionKey": "translation",
      "CaptionName": "Превод",
      "YoutubeSynced": true
    },
    {
      "ID": "1W5HR3tWwer6rH_VJysLmr88anpjeTmLlQC4_A83GDpRzJXRVgeoAUEb3IAb-jhzDqShT1T9YIM=",
      "Lang": "ml",
      "CaptionKey": "translation",
      "CaptionName": "വിവർത്തനം",
      "YoutubeSynced": true
    },
    {
      "ID": "QOKWteAgE6CsWLyX9ljK6pKHSZSbp4bxP74HoFFmmOaP5GjoR1jlE45ZZA7vHeTC",
      "Lang": "mn",
      "CaptionKey": "translation",
      "CaptionName": "Орчуулга",
      "YoutubeSynced": true
    },
    {
      "ID": "c_hsC5xgh-PxXnWSxSGPg6Gj2P2i10ClBosvwDWvqUiDyaGPVErkfjwGgVMym69_",
      "Lang": "mr",
      "CaptionKey": "translation",
      "CaptionName": "भाषांतर",
      "YoutubeSynced": true
    },
    {
      "ID": "M9Gm6mW9wMmmOLNUeYRrjqkqFFGfYte69M_c6QDXukHikoTrRB0T7g==",
      "Lang": "ms",
      "CaptionKey": "translation",
      "CaptionName": "Terjemahan",
      "YoutubeSynced": true
    },
    {
      "ID": "Er97mmyx-1f4BNBlhBNqmQU9xQp65DCtDRPvXq-zQ5Cn8OgWUwA_VA==",
      "Lang": "mt",
      "CaptionKey": "translation",
      "CaptionName": "Traduzzjoni",
      "YoutubeSynced": true
    },
    {
      "ID": "RXUx-uQ5CMxt3-EIocp9AaOX8fp8MVd0P6-t0ID83Nh52FJe7jzEG6JNY8-7kQLhRYyIjMNQzMM=",
      "Lang": "my",
      "CaptionKey": "translation",
      "CaptionName": "ဘာသာပြန်",
      "YoutubeSynced": true
    },
    {
      "ID": "F81FC8hLixkVPilxOni2-ZPC1eyIqbN8boQpcC7xpe9cxfgO7nfp-5YDH-6XPjtq",
      "Lang": "ne",
      "CaptionKey": "translation",
      "CaptionName": "अनुवाद",
      "YoutubeSynced": true
    },
    {
      "ID": "phdgPx4CBQXxR6yP9jkq4wWmN-qP0lw6u-jy1ijKnWw5B8H3-gIMbw==",
      "Lang": "nl",
      "CaptionKey": "translation",
      "CaptionName": "Vertaling",
      "YoutubeSynced": true
    },
    {
      "ID": "s6MHA0Mq2xMaVuGIlcAoifqEE0O536Wnrgyn-qMR26wf8R0C-algiA==",
      "Lang": "no",
      "CaptionKey": "translation",
      "CaptionName": "Oversettelse",
      "YoutubeSynced": true
    },
    {
      "ID": "F81FC8hLixnYXke6OeLUA170-X9HfrRParzB5lkkJf-F_8RdC5ScSzSvBhslF0RQ",
      "Lang": "pa",
      "CaptionKey": "translation",
      "CaptionName": "ਅਨੁਵਾਦ",
      "YoutubeSynced": true
    },
    {
      "ID": "s6MHA0Mq2xOkIeL1h-hqJ4M6M-rGbRr3ViUXIB0aIFoap5sExzVNWA==",
      "Lang": "pl",
      "CaptionKey": "translation",
      "CaptionName": "Tłumaczenie",
      "YoutubeSynced": true
    },
    {
      "ID": "M9Gm6mW9wMnoTy3DGjE0RdHJclflXNf2ksONzsVggL_kYtCPfY_Tgw==",
      "Lang": "ps",
      "CaptionKey": "translation",
      "CaptionName": "ژباړه",
      "YoutubeSynced": true
    },
    {
      "ID": "M9Gm6mW9wMkQT3m9KAQZGnxVvHOR2ZZzYnvyN3He45bE_RdBDBfaKA==",
      "Lang": "pt",
      "CaptionKey": "translation",
      "CaptionName": "Tradução",
      "YoutubeSynced": true
    },
    {
      "ID": "phdgPx4CBQXMsDuSZrUeRRmRwB-4bbJans8d56QY7BIl13xctdhNoQ==",
      "Lang": "ro",
      "CaptionKey": "translation",
      "CaptionName": "Traducere",
      "YoutubeSynced": true
    },
    {
      "ID": "Bpt0qvaJ4Ppa9U_hDQOS0sJR2S0c4eqz-xX41V1Gf0F_YqoQrGmXFQ==",
      "Lang": "ru",
      "CaptionKey": "translation",
      "CaptionName": "Перевод",
      "YoutubeSynced": true
    },
    {
      "ID": "M9Gm6mW9wMl8nAEQyPzGuqG6Gbn4zofdAyfyhWkYL0UcIDxRZELe9Q==",
      "Lang": "sd",
      "CaptionKey": "translation",
      "CaptionName": "ترجمو",
      "YoutubeSynced": true
    },
    {
      "ID": "1W5HR3tWwepFV9YrgV-Jhxoqj-wyybb7I4cIgeAtY8KLdCQYeVR4WK0YqkG64N6N0A_x4MT6vhE=",
      "Lang": "si",
      "CaptionKey": "translation",
      "CaptionName": "පරිවර්තනය",
      "YoutubeSynced": true
    },
    {
      "ID": "f_r3eD8uqz9L1iJfMjEhgQxgnGoCW1akq7G3jFQivLfsEYG7oss6Sg==",
      "Lang": "sk",
      "CaptionKey": "translation",
      "CaptionName": "preklad",
      "YoutubeSynced": true
    },
    {
      "ID": "b_dNziLHlhVGxcBismyQbasrUZstfI8k_8CeHY6MCFo=",
      "Lang": "sl",
      "CaptionKey": "translation",
      "CaptionName": "Prevod",
      "YoutubeSynced": true
    },
    {
      "ID": "s6MHA0Mq2xO1c-BbeCM67Ry6PLTTnDxvivTw-FxEg6NSyvDErRbsrw==",
      "Lang": "sm",
      "CaptionKey": "translation",
      "CaptionName": "Faʻaliliuga",
      "YoutubeSynced": true
    },
    {
      "ID": "f_r3eD8uqz-kBoHzCkwXtT3EyaL06Ewkey0scnr1cxyZzNfA3Uo39w==",
      "Lang": "sn",
      "CaptionKey": "translation",
      "CaptionName": "Dudziro",
      "YoutubeSynced": true
    },
    {
      "ID": "phdgPx4CBQU6aeJ3W-XBbzdwbiq61nUY_YFosLBKecArFI0uKAJmOg==",
      "Lang": "so",
      "CaptionKey": "translation",
      "CaptionName": "Tarjumida",
      "YoutubeSynced": true
    },
    {
      "ID": "phdgPx4CBQVpWK2Wikn-xaoK9IwjlpocrHyK8chxQNpiAr7J4eNzJw==",
      "Lang": "sq",
      "CaptionKey": "translation",
      "CaptionName": "përkthim",
      "YoutubeSynced": true
    },
    {
      "ID": "s6MHA0Mq2xMcG2l6WRqjIA5-Dpcrjoy0embpfKV5vl7g5MK3eviIwQ==",
      "Lang": "sr",
      "CaptionKey": "translation",
      "CaptionName": "Превод",
      "YoutubeSynced": true
    },
    {
      "ID": "phdgPx4CBQXCY-b9LZuHRQ5jTN-Lc7RdvQkmkxRYpuNaeTETFS1t5w==",
      "Lang": "st",
      "CaptionKey": "translation",
      "CaptionName": "Phetolelo",
      "YoutubeSynced": true
    },
    {
      "ID": "M9Gm6mW9wMmBGVTUwdNVQGlFpFADdsN7CAX1-ROHohs82Zq-QjPM0A==",
      "Lang": "su",
      "CaptionKey": "translation",
      "CaptionName": "Tarjamahan",
      "YoutubeSynced": true
    },
    {
      "ID": "Bpt0qvaJ4PpWNhxqu1Gei-v-Lr8HUcUbEFKhcHufJ6bdexLqkGwIBQ==",
      "Lang": "sv",
      "CaptionKey": "translation",
      "CaptionName": "Översättning",
      "YoutubeSynced": true
    },
    {
      "ID": "f_r3eD8uqz9rpT65ZXv0kjqVgwTnJ6WNLG_jLEyAYy3K0Sj0kbMQsg==",
      "Lang": "sw",
      "CaptionKey": "translation",
      "CaptionName": "Tafsiri",
      "YoutubeSynced": true
    },
    {
      "ID": "rTwVaEw9eq7a526KADT_uVi3cvT7VvNAH4_DOKJ0gt70OSuM6oFhTLkkHSiVnSCxyLXsI2vPwz3TI3JCoagHX5SGs4vUaEeQ",
      "Lang": "ta",
      "CaptionKey": "translation",
      "CaptionName": "மொழிபெயர்ப்பு",
      "YoutubeSynced": true
    },
    {
      "ID": "c_hsC5xgh-PCmNWacvaWci1NDGzYMTDmg1yviJ4mwAa01WGmY_7_DAA-Q4S2QulF",
      "Lang": "te",
      "CaptionKey": "translation",
      "CaptionName": "అనువాదం",
      "YoutubeSynced": true
    },
    {
      "ID": "Bpt0qvaJ4PqacMwQQHSXVJI1yEUfMFYDwpLx3BvFgOiPZ4ImfDnMNw==",
      "Lang": "tg",
      "CaptionKey": "translation",
      "CaptionName": "Тарҷума",
      "YoutubeSynced": true
    },
    {
      "ID": "F81FC8hLixnFBXF-p5MTYYe3d6DB0Q15OTOQ62gbnNrim9OAJXOOqDMnnRUz9jHa",
      "Lang": "th",
      "CaptionKey": "translation",
      "CaptionName": "การแปล",
      "YoutubeSynced": true
    },
    {
      "ID": "8Lefzu3EzHXzg-rpsrexI8IIki1V94Un22GoEdxRYSDXfwbtJfwAsw==",
      "Lang": "tr",
      "CaptionKey": "translation",
      "CaptionName": "Tercüme",
      "YoutubeSynced": true
    },
    {
      "ID": "QOKWteAgE6DldyEDbpVnsNb7X0mYugjZd3h5lScWL1mnSzfixsKQ6mMUEtaqaGsy",
      "Lang": "uk",
      "CaptionKey": "translation",
      "CaptionName": "Переклад",
      "YoutubeSynced": true
    },
    {
      "ID": "M9Gm6mW9wMmXbv1CVvolPwZprsWY0LzYOo8ll0rgdqefuqDdf_WrOg==",
      "Lang": "ur",
      "CaptionKey": "translation",
      "CaptionName": "ترجمہ",
      "YoutubeSynced": true
    },
    {
      "ID": "f_r3eD8uqz_D-WJnA2IU0M1McdqROEw2tlU1jEEsXA3mXLhjD2HIhg==",
      "Lang": "uz",
      "CaptionKey": "translation",
      "CaptionName": "Tarjima",
      "YoutubeSynced": true
    },
    {
      "ID": "b_dNziLHlhVVZs_VpR3XbNZRGeNVEDaJWl-Roow7tuQ=",
      "Lang": "vi",
      "CaptionKey": "translation",
      "CaptionName": "Dịch",
      "YoutubeSynced": true
    },
    {
      "ID": "M9Gm6mW9wMla3SqTniTqG0RSnVhM9xbNeI7BKBOnzKqw4ax3eqQ_tw==",
      "Lang": "xh",
      "CaptionKey": "translation",
      "CaptionName": "Inguqulelo",
      "YoutubeSynced": true
    },
    {
      "ID": "fpaJ_KiQTs8Zq0sh3pZsMbm4xWV2h6MKQ1wxwnry37w6xJ5AcFLTf4zwttA7Xq-T",
      "Lang": "yi",
      "CaptionKey": "translation",
      "CaptionName": "איבערזעצונג",
      "YoutubeSynced": true
    },
    {
      "ID": "f_r3eD8uqz8jfnuQNt10zMm-JuK5FmiUqqm6t1i7TyXac5Vrxh0ViA==",
      "Lang": "yo",
      "CaptionKey": "translation",
      "CaptionName": "Itumọ",
      "YoutubeSynced": true
    },
    {
      "ID": "Er97mmyx-1exLQvXW1GMwfKTco0ZBDp9dILiyEDTKstxlWoQcPJ_NQ==",
      "Lang": "zh-Hans",
      "CaptionKey": "translation",
      "CaptionName": "翻译",
      "YoutubeSynced": true
    },
    {
      "ID": "Er97mmyx-1exLQvXW1GMwelh-Af4436UWf2XQ2F6rXg0LmVN9Gs9fQ==",
      "Lang": "zh-Hant",
      "CaptionKey": "translation",
      "CaptionName": "翻譯",
      "YoutubeSynced": true
    },
    {
      "ID": "M9Gm6mW9wMlXrxpinlTpJ5fnRPceLu7tl9ruMFvTE6w216r1diiQjg==",
      "Lang": "zu",
      "CaptionKey": "translation",
      "CaptionName": "Ukuhumusha",
      "YoutubeSynced": true
    }
  ]
}