{
  "VideoFile": "grammar-ja-a_4_A.mp4",
  "Captions": [
    {
      "ID": "z2-ShDTkC9iwHd0kh7dRh0y9hNBvizdKn22Bx_tnEVWaLGW3twZ3mQ==",
      "Lang": "af",
      "CaptionKey": "translation",
      "CaptionName": "vertaling",
      "YoutubeSynced": true
    },
    {
      "ID": "1E4v1uMHLj3NBgzN4_3FCAG8fJf09HyytGfIp7y3TjmwwyTB-jsNNQ==",
      "Lang": "am",
      "CaptionKey": "translation",
      "CaptionName": "ትርጉም",
      "YoutubeSynced": true
    },
    {
      "ID": "kFxz3zrLxE5ssbIj2XHd0nAZcKlVmYagwKyR_ZLlmYMic_tCUWz7gg==",
      "Lang": "ar",
      "CaptionKey": "translation",
      "CaptionName": "ترجمة",
      "YoutubeSynced": true
    },
    {
      "ID": "kFxz3zrLxE7JIG86T4zkyLEF11W00aRwZhhAE38Rme3J_wxCgYd1MA==",
      "Lang": "az",
      "CaptionKey": "translation",
      "CaptionName": "Tərcümə",
      "YoutubeSynced": true
    },
    {
      "ID": "Y7cPuP527R2eXoGZl1smt5IGSZsY_KWxR9i8KiFcOuGTdh6GKOyrdzv7mzMoe5GN",
      "Lang": "be",
      "CaptionKey": "translation",
      "CaptionName": "Пераклад",
      "YoutubeSynced": true
    },
    {
      "ID": "1E4v1uMHLj1sEwmthXSB3oRFf18lGxomq6HwCky0U2M_Keuv04oAfw==",
      "Lang": "bg",
      "CaptionKey": "translation",
      "CaptionName": "превод",
      "YoutubeSynced": true
    },
    {
      "ID": "6O-KfTiemhG4CAg8VkvaKwIAXYCeFZz66s0RwEt3NFNi8pxg6mb7VV08ClIh9mML",
      "Lang": "bn",
      "CaptionKey": "translation",
      "CaptionName": "অনুবাদ",
      "YoutubeSynced": true
    },
    {
      "ID": "U4iFCspsniD8HwyjG0f750L6FxphuyNjdAPBtENGUmM=",
      "Lang": "bs",
      "CaptionKey": "translation",
      "CaptionName": "Prevod",
      "YoutubeSynced": true
    },
    {
      "ID": "kFxz3zrLxE4fLWOoJZP6xgCdzcBHBVo3Be1qWANfiUbNdfzqKniePA==",
      "Lang": "ca",
      "CaptionKey": "translation",
      "CaptionName": "Traducció",
      "YoutubeSynced": true
    },
    {
      "ID": "kFxz3zrLxE40XP7DmCFbnHjVzDyQxQkCeXvEKBgDdfG88yjUwCRinw==",
      "Lang": "co",
      "CaptionKey": "translation",
      "CaptionName": "Traduzione",
      "YoutubeSynced": true
    },
    {
      "ID": "QGGFiLVG1XEtfD4_VgF75kfjaIicyQzItDjELWOquLa8J6t6EH02mg==",
      "Lang": "cs",
      "CaptionKey": "translation",
      "CaptionName": "Překlad",
      "YoutubeSynced": true
    },
    {
      "ID": "6B7YoNJ-ZpLZ8pPJmsAi9U_boyp4QVO6d2eVuBQXCYfYwkmNXQULfA==",
      "Lang": "cy",
      "CaptionKey": "translation",
      "CaptionName": "Cyfieithiad",
      "YoutubeSynced": true
    },
    {
      "ID": "g5iuoQUGtymxwUrX5DbhqogT81gzok9R1MNqqZQe6gXLp9xgdf5iFA==",
      "Lang": "da",
      "CaptionKey": "translation",
      "CaptionName": "Oversættelse",
      "YoutubeSynced": true
    },
    {
      "ID": "1E4v1uMHLj0Efz2dWhMBkKGzUNDtKb1gjJmgks2H1SBzCvQAwYSrUQ==",
      "Lang": "de",
      "CaptionKey": "translation",
      "CaptionName": "Übersetzung",
      "YoutubeSynced": true
    },
    {
      "ID": "6O-KfTiemhG1gxptIPUPZab8VpKMtG1xazgVT7GlOso-aRgculiEi0LaRuxZImNS",
      "Lang": "el",
      "CaptionKey": "translation",
      "CaptionName": "Μετάφραση",
      "YoutubeSynced": true
    },
    {
      "ID": "6B7YoNJ-ZpJS_jLEnnlEcsn65zP2IgXdHEWqbbCsCgblw_Vqh1fImA==",
      "Lang": "en",
      "CaptionKey": "translation",
      "CaptionName": "Translation",
      "YoutubeSynced": true
    },
    {
      "ID": "6B7YoNJ-ZpLA0rIBJk3OIBsm2FYbb4PIdcBHzn8VNJmZtW6BpTGROw==",
      "Lang": "es",
      "CaptionKey": "translation",
      "CaptionName": "Traducción",
      "YoutubeSynced": true
    },
    {
      "ID": "U4iFCspsniBChN-gVUA_Zoqgwvr2rQ-R2OPD0zMEspo=",
      "Lang": "et",
      "CaptionKey": "translation",
      "CaptionName": "Tõlge",
      "YoutubeSynced": true
    },
    {
      "ID": "z2-ShDTkC9hxxr3BGpO-o3l4DrO6yW_ybNPFzn8T8lJ_72NPkie9Og==",
      "Lang": "eu",
      "CaptionKey": "translation",
      "CaptionName": "Itzulpena",
      "YoutubeSynced": true
    },
    {
      "ID": "kFxz3zrLxE5M_fQV8fbYQPEJ_vranJY9u8WZxK0MdE4bB1P4RjEkIA==",
      "Lang": "fa",
      "CaptionKey": "translation",
      "CaptionName": "ترجمه",
      "YoutubeSynced": true
    },
    {
      "ID": "kFxz3zrLxE6Cv1Ju_OoOKouLccAnI-4iCWyQ9cYyEydqfpgcQlJ68Q==",
      "Lang": "fi",
      "CaptionKey": "translation",
      "CaptionName": "Käännös",
      "YoutubeSynced": true
    },
    {
      "ID": "6B7YoNJ-ZpLqV1PZjNH-cnMGPH6uJXnmlCnARBh6IozBKpNdF3_eBQ==",
      "Lang": "fil",
      "CaptionKey": "translation",
      "CaptionName": "Pagsasalin",
      "YoutubeSynced": true
    },
    {
      "ID": "kFxz3zrLxE5Okm8ihVK-estSsEkeT823Ll2gtDOHFZgH_Qkc5zqklQ==",
      "Lang": "fr",
      "CaptionKey": "translation",
      "CaptionName": "Traduction",
      "YoutubeSynced": true
    },
    {
      "ID": "kFxz3zrLxE4UAKozS1A4GtznSR83QBLfzkk7T7ltner4Ftd28Q8ZRQ==",
      "Lang": "fy",
      "CaptionKey": "translation",
      "CaptionName": "Oersetting",
      "YoutubeSynced": true
    },
    {
      "ID": "6O-KfTiemhGF2WPniJACqKq5Q38BNpToT_X1JE-7w0F7Kjal8PEzTDzBilNOdBKK",
      "Lang": "gd",
      "CaptionKey": "translation",
      "CaptionName": "Eadar-theangachadh",
      "YoutubeSynced": true
    },
    {
      "ID": "kFxz3zrLxE6HtyEMLc0DkjjmyWTj0B_LTI8hCXlUK0wTMJIy9lBrIQ==",
      "Lang": "gl",
      "CaptionKey": "translation",
      "CaptionName": "Tradución",
      "YoutubeSynced": true
    },
    {
      "ID": "6O-KfTiemhETFT9hzmIP53necPgbSLyYPpzOCcFjMb_8DpfM3SfaoFOxQR5y2CpB",
      "Lang": "gu",
      "CaptionKey": "translation",
      "CaptionName": "અનુવાદ",
      "YoutubeSynced": true
    },
    {
      "ID": "Qn_W2X9Qp229LRXHyQRwtDBzRz24YUR62Uixpebn6DPjdAaHuhU5Hw==",
      "Lang": "ha",
      "CaptionKey": "translation",
      "CaptionName": "Fassara",
      "YoutubeSynced": true
    },
    {
      "ID": "6O-KfTiemhEgB2SAiHZVZ_LjgSIgvtfr3OvPcfi0xK_XD1IOp1zf1Oy35o4WSDgx",
      "Lang": "hi",
      "CaptionKey": "translation",
      "CaptionName": "अनुवाद",
      "YoutubeSynced": true
    },
    {
      "ID": "QGGFiLVG1XFMU0mS8Y-x09zdvkea47RoiP8X2geafHxOgkL9lOIW0A==",
      "Lang": "hr",
      "CaptionKey": "translation",
      "CaptionName": "Prijevod",
      "YoutubeSynced": true
    },
    {
      "ID": "kFxz3zrLxE4636HNbd7pvA4LnroRx572DOwh5CPYR_rr7_bEeCUs0Q==",
      "Lang": "hu",
      "CaptionKey": "translation",
      "CaptionName": "Fordítás",
      "YoutubeSynced": true
    },
    {
      "ID": "i3BGuYMEodzHCulmU8cijuKr8R_iIVnBgdtHg__6lbwYWVNZ7uJiReQZ_XuFnFFxhMMgQpf5zRY=",
      "Lang": "hy",
      "CaptionKey": "translation",
      "CaptionName": "Թարգմանություն",
      "YoutubeSynced": true
    },
    {
      "ID": "kFxz3zrLxE7t3PNahFe-L0-Om_6YBNs2P98MhtG-Gk8cwHD4FKJIaQ==",
      "Lang": "id",
      "CaptionKey": "translation",
      "CaptionName": "Terjemahan",
      "YoutubeSynced": true
    },
    {
      "ID": "QGGFiLVG1XFufGiArc3PiVJxQRfBeXDuhnlh0fmO3Mp3jb_MU2HDpA==",
      "Lang": "ig",
      "CaptionKey": "translation",
      "CaptionName": "Ntughari",
      "YoutubeSynced": true
    },
    {
      "ID": "z2-ShDTkC9jdNbvFcamtAXC8By7L2DpfJW-FH4wPa_YXmz3ncBZaXg==",
      "Lang": "is",
      "CaptionKey": "translation",
      "CaptionName": "Þýðing",
      "YoutubeSynced": true
    },
    {
      "ID": "kFxz3zrLxE7LsU-PUXMaRehAp5qpAq65z_VmAh2f9WNMkKG_cZ23kA==",
      "Lang": "it",
      "CaptionKey": "translation",
      "CaptionName": "Traduzione",
      "YoutubeSynced": true
    },
    {
      "ID": "kFxz3zrLxE5-aUXaFnQOWsqxFMO-JVSbklQZX310canNTyt0FL55Mw==",
      "Lang": "iw",
      "CaptionKey": "translation",
      "CaptionName": "תרגום",
      "YoutubeSynced": true
    },
    {
      "ID": "U4iFCspsniC4du0pPJSjXmABmbqvd_NpkU_IoyfmClc=",
      "Lang": "ja",
      "CaptionKey": "translation",
      "CaptionName": "翻訳",
      "YoutubeSynced": true
    },
    {
      "ID": "z2-ShDTkC9g0txGnPifKUiflh-sgQ94do7UTWAocjKKvpiaDyYYCJw==",
      "Lang": "jv",
      "CaptionKey": "translation",
      "CaptionName": "Ngartekne",
      "YoutubeSynced": true
    },
    {
      "ID": "rgtZZA4kP133QOAi63jGtn4b4aCtHu5cKg8j9ZhPtj7RH17C0uXibjGmiear2ccqLJBIz4ywGrY=",
      "Lang": "ka",
      "CaptionKey": "translation",
      "CaptionName": "თარგმანი",
      "YoutubeSynced": true
    },
    {
      "ID": "M1Lg3vQx_d6hG5FtM45ZteWgpk9Gvj5ERvnTnZngJrORR7icZve45A==",
      "Lang": "kk",
      "CaptionKey": "translation",
      "CaptionName": "Аударма",
      "YoutubeSynced": true
    },
    {
      "ID": "wferFA5cZAW3OdDVhYE8sJmr-I_KKZEM7Z8B4ihDcPUZ3D5OGZL8e3M2-UDOUkxl7fnd8QDCIHI=",
      "Lang": "km",
      "CaptionKey": "translation",
      "CaptionName": "ការបកប្រែ",
      "YoutubeSynced": true
    },
    {
      "ID": "6O-KfTiemhG3u0hcFJrWOrLWNVwwREw0pOlW0UeeZVXkJP0_AE98IKQJ9J9zFJuz",
      "Lang": "kn",
      "CaptionKey": "translation",
      "CaptionName": "ಅನುವಾದ",
      "YoutubeSynced": true
    },
    {
      "ID": "U4iFCspsniB_ngmPaStbxWEpUjxIJQkCbL_gYwTrWro=",
      "Lang": "ko",
      "CaptionKey": "translation",
      "CaptionName": "번역",
      "YoutubeSynced": true
    },
    {
      "ID": "U4iFCspsniB51mtS4giF9QrHcMav4elQQXgkQ9cG0wI=",
      "Lang": "ku",
      "CaptionKey": "translation",
      "CaptionName": "Werger",
      "YoutubeSynced": true
    },
    {
      "ID": "M1Lg3vQx_d7CTyzZk96dLGQ_QCimgxrAdfw2Pw2X7yCUb96K6Uel0Q==",
      "Lang": "ky",
      "CaptionKey": "translation",
      "CaptionName": "котормо",
      "YoutubeSynced": true
    },
    {
      "ID": "1E4v1uMHLj2AeX9NWGx0EzHlnaPNwDrCtCenPJIQlu4DrD_vOjgwRA==",
      "Lang": "lb",
      "CaptionKey": "translation",
      "CaptionName": "Iwwersetzung",
      "YoutubeSynced": true
    },
    {
      "ID": "wferFA5cZAW7KoSZAV0VANIqARFO_Cii28SRnzG11YZbp6QcddLSEI3p_boYydeB8jTjNMJ6VZE=",
      "Lang": "lo",
      "CaptionKey": "translation",
      "CaptionName": "ການແປພາສາ",
      "YoutubeSynced": true
    },
    {
      "ID": "QGGFiLVG1XHDeHvDVB0bRpKlFU9rRFqjg3STyawmS_ZvRBFgg5hxJA==",
      "Lang": "lt",
      "CaptionKey": "translation",
      "CaptionName": "Vertimas",
      "YoutubeSynced": true
    },
    {
      "ID": "kFxz3zrLxE42s0RBdL2Bi1Dc4o6vWpxdQnON6mxtxv4_kBVRG01Idw==",
      "Lang": "lv",
      "CaptionKey": "translation",
      "CaptionName": "Tulkošana",
      "YoutubeSynced": true
    },
    {
      "ID": "6B7YoNJ-ZpJmmHZZZmbqOKM0ZQ4rbsf5tfNJstRc3ykaolZJZ7E_rA==",
      "Lang": "mg",
      "CaptionKey": "translation",
      "CaptionName": "Translation",
      "YoutubeSynced": true
    },
    {
      "ID": "VS49MOj6foz7saH5rQoiKJFycys4ks9u0oNIeBjq03Hox6fqn8xGF4896fxyXu6q",
      "Lang": "mi",
      "CaptionKey": "translation",
      "CaptionName": "Whakamaoritanga",
      "YoutubeSynced": true
    },
    {
      "ID": "1E4v1uMHLj2c27mu_LaQFDZT8bykgtLUm7x4yTx22F29ANRNwRt7Fg==",
      "Lang": "mk",
      "CaptionKey": "translation",
      "CaptionName": "Превод",
      "YoutubeSynced": true
    },
    {
      "ID": "wferFA5cZAW4vwjmtLDrXJ5-BtNMQCsdTAhjIws8YEOpLRqBaYCdq2WJKDaTJBXdr8BRnjtjSsk=",
      "Lang": "ml",
      "CaptionKey": "translation",
      "CaptionName": "വിവർത്തനം",
      "YoutubeSynced": true
    },
    {
      "ID": "Y7cPuP527R3uPYRKpiEJO6VtGRmo1a3EsGxoImdxr-J_N4-8j8LZ31oEzqctmMmt",
      "Lang": "mn",
      "CaptionKey": "translation",
      "CaptionName": "Орчуулга",
      "YoutubeSynced": true
    },
    {
      "ID": "nY7FB_sjm2W58t_Wc8kKsQDsrD8l3yzuJ8RX2fEuugk3tcRHlCIWa47dctrHUkqj",
      "Lang": "mr",
      "CaptionKey": "translation",
      "CaptionName": "भाषांतर",
      "YoutubeSynced": true
    },
    {
      "ID": "kFxz3zrLxE6nmpLoq43oXdBxh9lZNa_m5VF1XMLjzUCZ3cBzulJi5A==",
      "Lang": "ms",
      "CaptionKey": "translation",
      "CaptionName": "Terjemahan",
      "YoutubeSynced": true
    },
    {
      "ID": "6B7YoNJ-ZpLus0tAJ0TBX69Sws0DVe1FhEmPHAZKCw3oI_T_ubLu9w==",
      "Lang": "mt",
      "CaptionKey": "translation",
      "CaptionName": "Traduzzjoni",
      "YoutubeSynced": true
    },
    {
      "ID": "rgtZZA4kP11VRBVI1txlZY40utX7WUtI6T4q1abWmEj6wk8e6xJenwopJ4PBj63XVYqp2WVVkE8=",
      "Lang": "my",
      "CaptionKey": "translation",
      "CaptionName": "ဘာသာပြန်",
      "YoutubeSynced": true
    },
    {
      "ID": "6O-KfTiemhGCwDDjDlU0SClFg5DXmKj8EvIUAd5IELIB-P9CwbinGt_M4iSB2N_x",
      "Lang": "ne",
      "CaptionKey": "translation",
      "CaptionName": "अनुवाद",
      "YoutubeSynced": true
    },
    {
      "ID": "z2-ShDTkC9hE83-arZI-Zh3xDSd9Y05vmHS7cVkoR9UbiNSVSz2s7A==",
      "Lang": "nl",
      "CaptionKey": "translation",
      "CaptionName": "Vertaling",
      "YoutubeSynced": true
    },
    {
      "ID": "1E4v1uMHLj3-vZuekLgeSqOPGSuggtiO_cZFWjd-tbzYsM5xG-YP7g==",
      "Lang": "no",
      "CaptionKey": "translation",
      "CaptionName": "Oversettelse",
      "YoutubeSynced": true
    },
    {
      "ID": "6O-KfTiemhEsvJE3_tfua43UDfZ9AfBmPMDXm1qlxWIso4UFCTe2Gb3RJLyb92D3",
      "Lang": "pa",
      "CaptionKey": "translation",
      "CaptionName": "ਅਨੁਵਾਦ",
      "YoutubeSynced": true
    },
    {
      "ID": "1E4v1uMHLj0cE1BWVZ-1XjraqoxcH_pArmdRZh4aUogt26kG5wyHkw==",
      "Lang": "pl",
      "CaptionKey": "translation",
      "CaptionName": "Tłumaczenie",
      "YoutubeSynced": true
    },
    {
      "ID": "kFxz3zrLxE6GKybmH_y6uluTZJlWvYVKY8jejju4uHyCLow7-dxIYQ==",
      "Lang": "ps",
      "CaptionKey": "translation",
      "CaptionName": "ژباړه",
      "YoutubeSynced": true
    },
    {
      "ID": "kFxz3zrLxE6BAeKWh1yVCPB8qotivdUFL3yjdwoV3y6Wc5d_y0h_cQ==",
      "Lang": "pt",
      "CaptionKey": "translation",
      "CaptionName": "Tradução",
      "YoutubeSynced": true
    },
    {
      "ID": "z2-ShDTkC9ghKcBDLd5abSdKactHY-9cudOfkQulaNSNBRjiC-5eWA==",
      "Lang": "ro",
      "CaptionKey": "translation",
      "CaptionName": "Traducere",
      "YoutubeSynced": true
    },
    {
      "ID": "M1Lg3vQx_d6nPMdUPGo7l_cn_7KElAUGZmpHw3DUFRSXxHDtRNZa0A==",
      "Lang": "ru",
      "CaptionKey": "translation",
      "CaptionName": "Перевод",
      "YoutubeSynced": true
    },
    {
      "ID": "kFxz3zrLxE79gT1pDzqwXqEuJUk0PfWYYd8Gv_bEASzAJJ6spk2s_g==",
      "Lang": "sd",
      "CaptionKey": "translation",
      "CaptionName": "ترجمو",
      "YoutubeSynced": true
    },
    {
      "ID": "wferFA5cZAU7eV2d_-4oiNtuVuBDrBhslGPlvjl8CcTBHBLB1qLwr2IdnVsy-dWC2J-gEo38wQ4=",
      "Lang": "si",
      "CaptionKey": "translation",
      "CaptionName": "පරිවර්තනය",
      "YoutubeSynced": true
    },
    {
      "ID": "Qn_W2X9Qp20A4xXSju9cE3UaRdtvr93D80AxDBrCFeyEqM5By3qOfA==",
      "Lang": "sk",
      "CaptionKey": "translation",
      "CaptionName": "preklad",
      "YoutubeSynced": true
    },
    {
      "ID": "U4iFCspsniA4xbTwt4R8HEunidum11Nb_UpJKRiFju0=",
      "Lang": "sl",
      "CaptionKey": "translation",
      "CaptionName": "Prevod",
      "YoutubeSynced": true
    },
    {
      "ID": "1E4v1uMHLj3QDehrx30iMw2Yw4yFNuIh19Q54oXW9NbhUAqPNKA_PQ==",
      "Lang": "sm",
      "CaptionKey": "translation",
      "CaptionName": "Faʻaliliuga",
      "YoutubeSynced": true
    },
    {
      "ID": "Qn_W2X9Qp21aVVxdyXOHB82JGgmzX6frG-XoT9RqlVcfltxr_6Rh-w==",
      "Lang": "sn",
      "CaptionKey": "translation",
      "CaptionName": "Dudziro",
      "YoutubeSynced": true
    },
    {
      "ID": "z2-ShDTkC9gA_Tgqz1Em_aYa9YvXUlqUsZvXILR2rg-TPRUfYgnKgg==",
      "Lang": "so",
      "CaptionKey": "translation",
      "CaptionName": "Tarjumida",
      "YoutubeSynced": true
    },
    {
      "ID": "z2-ShDTkC9h2RXX7970HWd5TRTqQbq3FtK2spRtoIqdpMt2bjJt1ug==",
      "Lang": "sq",
      "CaptionKey": "translation",
      "CaptionName": "përkthim",
      "YoutubeSynced": true
    },
    {
      "ID": "1E4v1uMHLj1vgo_R2VL0Uhj-KjfPAD80FX-3CuGHWoabq6aO3fbEww==",
      "Lang": "sr",
      "CaptionKey": "translation",
      "CaptionName": "Превод",
      "YoutubeSynced": true
    },
    {
      "ID": "z2-ShDTkC9jAzOD0VUMDYdw6vnLkOzxfYbHjkkpy02taDcHcp47S4Q==",
      "Lang": "st",
      "CaptionKey": "translation",
      "CaptionName": "Phetolelo",
      "YoutubeSynced": true
    },
    {
      "ID": "kFxz3zrLxE6EKBf6xI6frRvf7WRMGtYkDFZeA5CSmRiigbuWigqd-g==",
      "Lang": "su",
      "CaptionKey": "translation",
      "CaptionName": "Tarjamahan",
      "YoutubeSynced": true
    },
    {
      "ID": "M1Lg3vQx_d7NKEFTQnz8OSJtgdQCwRH4FRuyp_b3BuHx3807PwxH_g==",
      "Lang": "sv",
      "CaptionKey": "translation",
      "CaptionName": "Översättning",
      "YoutubeSynced": true
    },
    {
      "ID": "Qn_W2X9Qp20Znee9VZ-eqibXqU2NzFEpnh3ef0Pgobo-X3exKfVyTw==",
      "Lang": "sw",
      "CaptionKey": "translation",
      "CaptionName": "Tafsiri",
      "YoutubeSynced": true
    },
    {
      "ID": "ymmgAjHVScT6WLawLuj9hv0320kB0w-OGZE-8-C19sq70n3TdD2btmzW241kq7vE6G_XgZ-BKRDSFKi7cLC8lAcTTyEyz82m",
      "Lang": "ta",
      "CaptionKey": "translation",
      "CaptionName": "மொழிபெயர்ப்பு",
      "YoutubeSynced": true
    },
    {
      "ID": "nY7FB_sjm2WqwBVJ5y6MH3n1l-Ba-w5zRf1dAdLGAf28j8oMdFXTUmXOu2drmRg8",
      "Lang": "te",
      "CaptionKey": "translation",
      "CaptionName": "అనువాదం",
      "YoutubeSynced": true
    },
    {
      "ID": "M1Lg3vQx_d6UL-Ad29IkSbrqM4udPnl4MpoJ0Kv8lu_8fXfCUCBkew==",
      "Lang": "tg",
      "CaptionKey": "translation",
      "CaptionName": "Тарҷума",
      "YoutubeSynced": true
    },
    {
      "ID": "6O-KfTiemhHco8k6lyWUScczrS39hD42BqXdyANF2AvZ-jFfH5MTkDgZf-SWesPQ",
      "Lang": "th",
      "CaptionKey": "translation",
      "CaptionName": "การแปล",
      "YoutubeSynced": true
    },
    {
      "ID": "QGGFiLVG1XE1_bdgM8tgJhmPaPABhuL8QkkY-Pj5MozJdKis7PZdrg==",
      "Lang": "tr",
      "CaptionKey": "translation",
      "CaptionName": "Tercüme",
      "YoutubeSynced": true
    },
    {
      "ID": "Y7cPuP527R2siUB6xYTuqnA2ZJl5KZo5r7pG6pz5e1Zl-qQyUfTIORfyt4TqHZWH",
      "Lang": "uk",
      "CaptionKey": "translation",
      "CaptionName": "Переклад",
      "YoutubeSynced": true
    },
    {
      "ID": "kFxz3zrLxE4Jye-rskoJwRRZwbhzfws13UQFMLnqLfDr5bPISLhifA==",
      "Lang": "ur",
      "CaptionKey": "translation",
      "CaptionName": "ترجمہ",
      "YoutubeSynced": true
    },
    {
      "ID": "Qn_W2X9Qp22JTNP1ORplJiUYq045VtcVZPhFiQtr4PinyUMWvMSTJA==",
      "Lang": "uz",
      "CaptionKey": "translation",
      "CaptionName": "Tarjima",
      "YoutubeSynced": true
    },
    {
      "ID": "U4iFCspsniCw6G1EU1o-RHBbv82z7iArCjEbGW5j9Us=",
      "Lang": "vi",
      "CaptionKey": "translation",
      "CaptionName": "Dịch",
      "YoutubeSynced": true
    },
    {
      "ID": "kFxz3zrLxE5F7lEYH57FmBz4pow9LpYSkIKPPr949jaHzBVtj2CTsQ==",
      "Lang": "xh",
      "CaptionKey": "translation",
      "CaptionName": "Inguqulelo",
      "YoutubeSynced": true
    },
    {
      "ID": "RZnMGwDiCFZCGY9tM9lTSzFblDcisF6yaVdnDrt-5d2DmOh83Cp9BedL-nXsnIwR",
      "Lang": "yi",
      "CaptionKey": "translation",
      "CaptionName": "איבערזעצונג",
      "YoutubeSynced": true
    },
    {
      "ID": "Qn_W2X9Qp23wYkiB-BtNm9VIuRc6yKTpIkp8Dr59rllfNvpuvcDiuw==",
      "Lang": "yo",
      "CaptionKey": "translation",
      "CaptionName": "Itumọ",
      "YoutubeSynced": true
    },
    {
      "ID": "6B7YoNJ-ZpJhfniqmTuJKqzdj2h1YPDpZNuq2FIBt_dAVKuVYVSxjg==",
      "Lang": "zh-Hans",
      "CaptionKey": "translation",
      "CaptionName": "翻译",
      "YoutubeSynced": true
    },
    {
      "ID": "6B7YoNJ-ZpJhfniqmTuJKmdzmDOzPL8qSTMHS5XFvLrGfoWAD32t_Q==",
      "Lang": "zh-Hant",
      "CaptionKey": "translation",
      "CaptionName": "翻譯",
      "YoutubeSynced": true
    },
    {
      "ID": "kFxz3zrLxE6yMdjAULPQgfi_MeZrXsXD48IT1XCRAgMosIYkDHvWkg==",
      "Lang": "zu",
      "CaptionKey": "translation",
      "CaptionName": "Ukuhumusha",
      "YoutubeSynced": true
    }
  ]
}