[seriename]grammar-zh-hsk1
[no]1
[videotitle]你好吗？
[box:0:x]你{3:我};你们{3:我们都};爸爸{3:他};妈妈{3:她};爸爸和妈妈{3:他们都}
[box:1:x]好{4:很好};去{4:去};喝酒{4:喝酒}
[box:2:x]吗？
[box:3:y]我;我们都;他;她;他们都
[box:4:y]很好;去;喝酒
[par]P:0,1,2
[par]P:3,4
---
[seriename]grammar-zh-hsk1
[no]2
[videotitle]的
[box:0:x]这;那
[box:1:x]是
[box:2:x]我;他;你;我妈妈
[box:3:x]的
[box:4:x]牛仔裤;电脑;手机
