{
  "Name": "grammar-id-a",
  "ID": "PLfI6UBkxvOTlUlywPTt5SQPcstjVS5_qQ",
  "DefaultLang": "ur",
  "Title": "انڈونیشی گرائمر کی ورزشیں ⭐️ گرائمر کی ورزشیں",
  "Description": "انڈونیشی بولیں!",
  "Localizations": null,
  "PlaylistTags": "انڈونیشی گرائمر,انڈونیشی,گرائمر",
  "Updated": true,
  "PlaylistItems": [
    {
      "ID": "UExmSTZVQmt4dk9UbFVseXdQVHQ1U1FQY3N0alZTNV9xUS41NkI0NEY2RDEwNTU3Q0M2",
      "VideoID": "IesJhNewqNo",
      "VideoFile": "grammar-id-a_1_A.mp4"
    },
    {
      "ID": "UExmSTZVQmt4dk9UbFVseXdQVHQ1U1FQY3N0alZTNV9xUS4yODlGNEE0NkRGMEEzMEQy",
      "VideoID": "p1qOMCTuFbM",
      "VideoFile": "grammar-id-a_2_A.mp4"
    },
    {
      "ID": "UExmSTZVQmt4dk9UbFVseXdQVHQ1U1FQY3N0alZTNV9xUS4wMTcyMDhGQUE4NTIzM0Y5",
      "VideoID": "4sWi02UnhKQ",
      "VideoFile": "grammar-id-a_3_A.mp4"
    },
    {
      "ID": "UExmSTZVQmt4dk9UbFVseXdQVHQ1U1FQY3N0alZTNV9xUS41MjE1MkI0OTQ2QzJGNzNG",
      "VideoID": "VfI1zm8phx0",
      "VideoFile": "grammar-id-a_4_A.mp4"
    },
    {
      "ID": "UExmSTZVQmt4dk9UbFVseXdQVHQ1U1FQY3N0alZTNV9xUS4wOTA3OTZBNzVEMTUzOTMy",
      "VideoID": "KYBoGVS46oU",
      "VideoFile": "grammar-id-a_5_A.mp4"
    },
    {
      "ID": "UExmSTZVQmt4dk9UbFVseXdQVHQ1U1FQY3N0alZTNV9xUS4xMkVGQjNCMUM1N0RFNEUx",
      "VideoID": "Pixv1AbUaLo",
      "VideoFile": "grammar-id-a_6_A.mp4"
    },
    {
      "ID": "UExmSTZVQmt4dk9UbFVseXdQVHQ1U1FQY3N0alZTNV9xUS41MzJCQjBCNDIyRkJDN0VD",
      "VideoID": "LKmrNzaruTQ",
      "VideoFile": "grammar-id-a_7_A.mp4"
    },
    {
      "ID": "UExmSTZVQmt4dk9UbFVseXdQVHQ1U1FQY3N0alZTNV9xUS5DQUNERDQ2NkIzRUQxNTY1",
      "VideoID": "ksO99G9rdfo",
      "VideoFile": "grammar-id-a_8_A.mp4"
    },
    {
      "ID": "UExmSTZVQmt4dk9UbFVseXdQVHQ1U1FQY3N0alZTNV9xUS45NDk1REZENzhEMzU5MDQz",
      "VideoID": "xUV4wvA95os",
      "VideoFile": "grammar-id-a_9_A.mp4"
    },
    {
      "ID": "UExmSTZVQmt4dk9UbFVseXdQVHQ1U1FQY3N0alZTNV9xUS5GNjNDRDREMDQxOThCMDQ2",
      "VideoID": "7YOl96PVAsw",
      "VideoFile": "grammar-id-a_10_A.mp4"
    }
  ]
}