{
  "Name": "grammar-id-a",
  "ID": "PLfI6UBkxvOTkDYO8CWo9_GJrqNvuAoeU8",
  "DefaultLang": "fi",
  "Title": "Indonesian kieliopin harjoitukset ⭐️ Kielioppiharjoitukset",
  "Description": "Puhu Indonesian!",
  "Localizations": null,
  "PlaylistTags": "Indonesian kielioppi,indonesialainen,Kielioppi",
  "Updated": true,
  "PlaylistItems": [
    {
      "ID": "UExmSTZVQmt4dk9Ua0RZTzhDV285X0dKcnFOdnVBb2VVOC41NkI0NEY2RDEwNTU3Q0M2",
      "VideoID": "IesJhNewqNo",
      "VideoFile": "grammar-id-a_1_A.mp4"
    },
    {
      "ID": "UExmSTZVQmt4dk9Ua0RZTzhDV285X0dKcnFOdnVBb2VVOC4yODlGNEE0NkRGMEEzMEQy",
      "VideoID": "p1qOMCTuFbM",
      "VideoFile": "grammar-id-a_2_A.mp4"
    },
    {
      "ID": "UExmSTZVQmt4dk9Ua0RZTzhDV285X0dKcnFOdnVBb2VVOC4wMTcyMDhGQUE4NTIzM0Y5",
      "VideoID": "4sWi02UnhKQ",
      "VideoFile": "grammar-id-a_3_A.mp4"
    },
    {
      "ID": "UExmSTZVQmt4dk9Ua0RZTzhDV285X0dKcnFOdnVBb2VVOC41MjE1MkI0OTQ2QzJGNzNG",
      "VideoID": "VfI1zm8phx0",
      "VideoFile": "grammar-id-a_4_A.mp4"
    },
    {
      "ID": "UExmSTZVQmt4dk9Ua0RZTzhDV285X0dKcnFOdnVBb2VVOC4wOTA3OTZBNzVEMTUzOTMy",
      "VideoID": "KYBoGVS46oU",
      "VideoFile": "grammar-id-a_5_A.mp4"
    },
    {
      "ID": "UExmSTZVQmt4dk9Ua0RZTzhDV285X0dKcnFOdnVBb2VVOC4xMkVGQjNCMUM1N0RFNEUx",
      "VideoID": "Pixv1AbUaLo",
      "VideoFile": "grammar-id-a_6_A.mp4"
    },
    {
      "ID": "UExmSTZVQmt4dk9Ua0RZTzhDV285X0dKcnFOdnVBb2VVOC41MzJCQjBCNDIyRkJDN0VD",
      "VideoID": "LKmrNzaruTQ",
      "VideoFile": "grammar-id-a_7_A.mp4"
    },
    {
      "ID": "UExmSTZVQmt4dk9Ua0RZTzhDV285X0dKcnFOdnVBb2VVOC5DQUNERDQ2NkIzRUQxNTY1",
      "VideoID": "ksO99G9rdfo",
      "VideoFile": "grammar-id-a_8_A.mp4"
    },
    {
      "ID": "UExmSTZVQmt4dk9Ua0RZTzhDV285X0dKcnFOdnVBb2VVOC45NDk1REZENzhEMzU5MDQz",
      "VideoID": "xUV4wvA95os",
      "VideoFile": "grammar-id-a_9_A.mp4"
    },
    {
      "ID": "UExmSTZVQmt4dk9Ua0RZTzhDV285X0dKcnFOdnVBb2VVOC5GNjNDRDREMDQxOThCMDQ2",
      "VideoID": "7YOl96PVAsw",
      "VideoFile": "grammar-id-a_10_A.mp4"
    }
  ]
}