{
  "Name": "grammar-id-a",
  "ID": "PLfI6UBkxvOTn5Lm4e_RS9ifF0F6VdGSNb",
  "DefaultLang": "en",
  "Title": "Indonesian grammar exercises ⭐️ Grammar exercises",
  "Description": "Speak Indonesian!",
  "Localizations": [
    {
      "Lang": "af",
      "Title": "Indonesiese grammatika-oefeninge ⭐️ Grammatika-oefeninge",
      "Description": "Praat Indonesies!"
    },
    {
      "Lang": "am",
      "Title": "የኢንዶኔዥያ ሰዋስው መልመጃዎች ⭐️ የሰዋሰው መልመጃዎች",
      "Description": "የኢንዶኔዥያ ቋንቋ ይናገሩ!"
    },
    {
      "Lang": "ar",
      "Title": "تمارين القواعد الاندونيسية ⭐️ تمارين القواعد",
      "Description": "تكلم الاندونيسية!"
    },
    {
      "Lang": "az",
      "Title": "İndoneziya qrammatikası təlimləri ⭐️ Qrammatika təlimləri",
      "Description": "İndonez dilində danışın!"
    },
    {
      "Lang": "be",
      "Title": "Інданезійскія граматычныя практыкаванні ⭐️ Граматычныя практыкаванні",
      "Description": "Размаўляйце па-інданезійску!"
    },
    {
      "Lang": "bg",
      "Title": "Индонезийски граматически упражнения ⭐️ Граматически упражнения",
      "Description": "Говорете индонезийски!"
    },
    {
      "Lang": "bn",
      "Title": "ইন্দোনেশিয়ান ব্যাকরণ অনুশীলন ⭐️ ব্যাকরণ অনুশীলন",
      "Description": "ইন্দোনেশিয়ান কথা বলুন!"
    },
    {
      "Lang": "bs",
      "Title": "Indonezijske vežbe gramatike ⭐️ Gramatičke vježbe",
      "Description": "Govorite indonezijski!"
    },
    {
      "Lang": "ca",
      "Title": "Exercicis de gramàtica indonèsia ⭐️ Exercicis de gramàtica",
      "Description": "Parla indonesi!"
    },
    {
      "Lang": "cs",
      "Title": "Indonéská gramatická cvičení ⭐️ Gramatická cvičení",
      "Description": "Mluvte indonésky!"
    },
    {
      "Lang": "da",
      "Title": "Indonesiske grammatikøvelser ⭐️ Grammatikøvelser",
      "Description": "Tal indonesisk!"
    },
    {
      "Lang": "de",
      "Title": "Indonesische Grammatikübungen ⭐️ Grammatikübungen",
      "Description": "Sprich Indonesisch!"
    },
    {
      "Lang": "el",
      "Title": "Ινδονησιακές ασκήσεις γραμματικής ⭐️ Ασκήσεις γραμματικής",
      "Description": "Μιλήστε Ινδονησιακά!"
    },
    {
      "Lang": "en",
      "Title": "Indonesian grammar exercises ⭐️ Grammar exercises",
      "Description": "Speak Indonesian!"
    },
    {
      "Lang": "es",
      "Title": "Ejercicios de gramática indonesia ⭐️ Ejercicios de gramatica",
      "Description": "Habla indonesio!"
    },
    {
      "Lang": "et",
      "Title": "Indoneesia grammatikaharjutused ⭐️ Grammatikaharjutused",
      "Description": "Räägi indoneesia keelt!"
    },
    {
      "Lang": "eu",
      "Title": "Indonesiako gramatika ariketak ⭐️ Gramatika ariketak",
      "Description": "Hitz egin Indonesian!"
    },
    {
      "Lang": "fa",
      "Title": "تمرینات دستور زبان اندونزی ⭐️ تمرین های گرامر",
      "Description": "به زبان اندونزیایی صحبت کنید!"
    },
    {
      "Lang": "fi",
      "Title": "Indonesian kieliopin harjoitukset ⭐️ Kielioppiharjoitukset",
      "Description": "Puhu Indonesian!"
    },
    {
      "Lang": "fil",
      "Title": "Pagsasanay sa gramatika ng Indonesia ⭐️ Pagsasanay sa gramatika",
      "Description": "Magsalita ng Indonesian!"
    },
    {
      "Lang": "fr",
      "Title": "Exercices de grammaire indonésienne ⭐️ Exercices de grammaire",
      "Description": "Parlez indonésien!"
    },
    {
      "Lang": "gl",
      "Title": "Exercicios de gramática indonesia ⭐️ Exercicios de gramática",
      "Description": "Fala indonesio!"
    },
    {
      "Lang": "gu",
      "Title": "ઇન્ડોનેશિયન વ્યાકરણ વ્યાયામ ⭐️ વ્યાકરણ વ્યાયામ",
      "Description": "ઇન્ડોનેશિયન બોલો!"
    },
    {
      "Lang": "hi",
      "Title": "इंडोनेशियाई व्याकरण अभ्यास ⭐️ व्याकरण अभ्यास",
      "Description": "बोलो इंडोनेशियाई!"
    },
    {
      "Lang": "hr",
      "Title": "Indonezijske vježbe gramatike ⭐️ Gramatičke vježbe",
      "Description": "Govorite Indonezijski!"
    },
    {
      "Lang": "hu",
      "Title": "Indonéz nyelvtan gyakorlatok ⭐️ Nyelvtan gyakorlatok",
      "Description": "Beszélj indonéz nyelven!"
    },
    {
      "Lang": "hy",
      "Title": "Ինդոնեզիայի քերականական վարժություններ ⭐️ Քերականական վարժություններ",
      "Description": "Խոսեք ինդոնեզերեն:"
    },
    {
      "Lang": "id",
      "Title": "Indonesian grammar exercises ⭐️ Latihan tata bahasa",
      "Description": "Speak Indonesian!"
    },
    {
      "Lang": "is",
      "Title": "Indónesísk málfræðiæfingar ⭐️ Málfræðiæfingar",
      "Description": "Tala indónesísku!"
    },
    {
      "Lang": "it",
      "Title": "Esercizi di grammatica indonesiana ⭐️ Esercizi di grammatica",
      "Description": "Parla indonesiano!"
    },
    {
      "Lang": "iw",
      "Title": "תרגילי דקדוק באינדונזיה ⭐️ תרגילי דקדוק",
      "Description": "דבר אינדונזית!"
    },
    {
      "Lang": "ja",
      "Title": "インドネシアの文法演習 ⭐️ 文法練習",
      "Description": "インドネシア語を話そう！"
    },
    {
      "Lang": "ka",
      "Title": "ინდონეზიური გრამატიკის სავარჯიშოები ⭐️ გრამატიკის სავარჯიშოები",
      "Description": "ილაპარაკე ინდონეზიურად!"
    },
    {
      "Lang": "kk",
      "Title": "Индонезиялық грамматикалық жаттығулар ⭐️ Грамматикалық жаттығулар",
      "Description": "Индонезиялықша сөйлеңіз!"
    },
    {
      "Lang": "km",
      "Title": "លំហាត់វេយ្យាករណ៍ឥណ្ឌូណេស៊ី ⭐️ លំហាត់វេយ្យាករណ៍",
      "Description": "និយាយភាសាឥណ្ឌូនេស៊ី!"
    },
    {
      "Lang": "kn",
      "Title": "ಇಂಡೋನೇಷ್ಯಾದ ವ್ಯಾಕರಣ ವ್ಯಾಯಾಮ ⭐️ ವ್ಯಾಕರಣ ವ್ಯಾಯಾಮ",
      "Description": "ಇಂಡೋನೇಷಿಯನ್ ಮಾತನಾಡಿ!"
    },
    {
      "Lang": "ko",
      "Title": "인도네시아어 문법 연습 ⭐️ 문법 연습",
      "Description": "인도네시아어로 이야기하십시오!"
    },
    {
      "Lang": "ky",
      "Title": "Индонезия грамматикасы көнүгүүлөр ⭐️ Грамматика көнүгүүлөр",
      "Description": "Индонезия, сүйлө!"
    },
    {
      "Lang": "lo",
      "Title": "ອອກ ກຳ ລັງກາຍໄວຍາກອນອິນໂດເນເຊຍ ⭐️ ອອກ ກຳ ລັງກາຍໄວຍະກອນ",
      "Description": "ເວົ້າພາສາອິນໂດເນເຊຍ!"
    },
    {
      "Lang": "lt",
      "Title": "Indonezijos gramatikos pratimai ⭐️ Gramatikos pratimai",
      "Description": "Kalbėk indoneziečių kalba!"
    },
    {
      "Lang": "lv",
      "Title": "Indonēzijas gramatikas vingrinājumi ⭐️ Gramatikas vingrinājumi",
      "Description": "Runājiet indonēziešu valodā!"
    },
    {
      "Lang": "mk",
      "Title": "Вежби за граматика на Индонезија ⭐️ Вежби за граматика",
      "Description": "Зборувај индонезиски!"
    },
    {
      "Lang": "ml",
      "Title": "ഇന്തോനേഷ്യൻ വ്യാകരണ വ്യായാമങ്ങൾ ⭐️ വ്യാകരണ വ്യായാമങ്ങൾ",
      "Description": "ഇന്തോനേഷ്യൻ സംസാരിക്കുക!"
    },
    {
      "Lang": "mn",
      "Title": "Индонезийн дүрмийн дасгал ⭐️ Грамматик дасгал",
      "Description": "Индонезээр ярь!"
    },
    {
      "Lang": "mr",
      "Title": "इंडोनेशियन व्याकरण व्यायाम ⭐️ व्याकरण व्यायाम",
      "Description": "इंडोनेशियन बोला!"
    },
    {
      "Lang": "ms",
      "Title": "Latihan tatabahasa Indonesia ⭐️ Latihan tatabahasa",
      "Description": "Bercakap Bahasa Indonesia!"
    },
    {
      "Lang": "my",
      "Title": "အင်ဒိုနီးရှားသဒ္ဒါလေ့ကျင့်ခန်းများ ⭐️ သဒ္ဒါလေ့ကျင့်ခန်းများ",
      "Description": "အင်ဒိုနီးရှားကိုပြောပါ"
    },
    {
      "Lang": "ne",
      "Title": "इन्डोनेसिया व्याकरण व्यायाम ⭐️ व्याकरण व्यायाम",
      "Description": "इन्डोनेशियाई बोल्नुहोस्!"
    },
    {
      "Lang": "nl",
      "Title": "Indonesische grammatica-oefeningen ⭐️ Grammatica oefeningen",
      "Description": "Spreek Indonesisch!"
    },
    {
      "Lang": "no",
      "Title": "Indonesiske grammatikkøvelser ⭐️ Grammatikkøvelser",
      "Description": "Snakk indonesisk!"
    },
    {
      "Lang": "pa",
      "Title": "ਇੰਡੋਨੇਸ਼ੀਆਈ ਵਿਆਕਰਣ ਅਭਿਆਸ ⭐️ ਵਿਆਕਰਣ ਅਭਿਆਸ",
      "Description": "ਇੰਡੋਨੇਸ਼ੀਆਈ ਬੋਲੋ!"
    },
    {
      "Lang": "pl",
      "Title": "Indonezyjskie ćwiczenia gramatyczne ⭐️ Ćwiczenia gramatyczne",
      "Description": "Mów po indonezyjsku!"
    },
    {
      "Lang": "pt",
      "Title": "Exercícios gramaticais indonésios ⭐️ Exercícios de gramática",
      "Description": "Fala indonésio!"
    },
    {
      "Lang": "ro",
      "Title": "Exerciții de gramatică indoneziană ⭐️ Exerciții de gramatică",
      "Description": "Vorbește indoneziană!"
    },
    {
      "Lang": "ru",
      "Title": "Индонезийские грамматические упражнения ⭐️ Грамматические упражнения",
      "Description": "Говори на индонезийском!"
    },
    {
      "Lang": "si",
      "Title": "ඉන්දුනීසියානු ව්‍යාකරණ අභ්‍යාස ⭐️ ව්‍යාකරණ ව්‍යායාම",
      "Description": "ඉන්දුනීසියානු භාෂාව කතා කරන්න!"
    },
    {
      "Lang": "sk",
      "Title": "Indonézske gramatické cvičenia ⭐️ Gramatické cvičenia",
      "Description": "Hovorte indonézsky!"
    },
    {
      "Lang": "sl",
      "Title": "Indonezijske vaje slovnice ⭐️ Slovnične vaje",
      "Description": "Govorite indonezijsko!"
    },
    {
      "Lang": "sq",
      "Title": "Ushtrime gramatikore indoneziane ⭐️ Ushtrime gramatikore",
      "Description": "Flisni Indonezisht!"
    },
    {
      "Lang": "sr",
      "Title": "Индонезијске вежбе граматике ⭐️ Граматичке вежбе",
      "Description": "Говорите индонезијски!"
    },
    {
      "Lang": "sv",
      "Title": "Indonesiska grammatiska övningar ⭐️ Grammatiska övningar",
      "Description": "Tala indonesiska!"
    },
    {
      "Lang": "sw",
      "Title": "Mazoezi ya sarufi ya Indonesia ⭐️ Mazoezi ya kisarufi",
      "Description": "Ongea Kiindonesia!"
    },
    {
      "Lang": "ta",
      "Title": "இந்தோனேசிய இலக்கண பயிற்சிகள் ⭐️ இலக்கண பயிற்சிகள்",
      "Description": "இந்தோனேசிய மொழி பேசுங்கள்!"
    },
    {
      "Lang": "te",
      "Title": "ఇండోనేషియా వ్యాకరణ వ్యాయామాలు ⭐️ వ్యాకరణ వ్యాయామాలు",
      "Description": "ఇండోనేషియా మాట్లాడండి!"
    },
    {
      "Lang": "th",
      "Title": "แบบฝึกหัดไวยากรณ์ภาษาอินโดนีเซีย ⭐️ แบบฝึกหัดไวยากรณ์",
      "Description": "พูดภาษาอินโดนีเซีย!"
    },
    {
      "Lang": "tr",
      "Title": "Endonezya dilbilgisi alıştırmaları ⭐️ Dilbilgisi alıştırmaları",
      "Description": "Endonezce konuş!"
    },
    {
      "Lang": "uk",
      "Title": "Інтенезійські вправи з граматики ⭐️ Граматичні вправи",
      "Description": "Розмовляйте індонезійською!"
    },
    {
      "Lang": "ur",
      "Title": "انڈونیشی گرائمر کی ورزشیں ⭐️ گرائمر کی ورزشیں",
      "Description": "انڈونیشی بولیں!"
    },
    {
      "Lang": "uz",
      "Title": "Indoneziyaning grammatik mashqlari ⭐️ Grammatik mashqlar",
      "Description": "Indonez tilida gapiring!"
    },
    {
      "Lang": "vi",
      "Title": "Bài tập ngữ pháp tiếng Indonesia ⭐️ Bài tập ngữ pháp",
      "Description": "Nói tiếng Indonesia!"
    },
    {
      "Lang": "zh-Hans",
      "Title": "印尼文语法练习 ⭐️ 语法练习",
      "Description": "说印尼语！"
    },
    {
      "Lang": "zh-Hant",
      "Title": "印尼文語法練習 ⭐️ 語法練習",
      "Description": "說印尼語！"
    },
    {
      "Lang": "zu",
      "Title": "Ukuzivocavoca kolimi lwase-Indonesia ⭐️ Ukuzivocavoca ngokuzivocavoca",
      "Description": "Khuluma isi-Indonesia!"
    }
  ],
  "PlaylistTags": "Indonesian grammar,Indonesian,Grammar",
  "Updated": true,
  "PlaylistItems": [
    {
      "ID": "UExmSTZVQmt4dk9UbjVMbTRlX1JTOWlmRjBGNlZkR1NOYi41NkI0NEY2RDEwNTU3Q0M2",
      "VideoID": "IesJhNewqNo",
      "VideoFile": "grammar-id-a_1_A.mp4"
    },
    {
      "ID": "UExmSTZVQmt4dk9UbjVMbTRlX1JTOWlmRjBGNlZkR1NOYi4yODlGNEE0NkRGMEEzMEQy",
      "VideoID": "p1qOMCTuFbM",
      "VideoFile": "grammar-id-a_2_A.mp4"
    },
    {
      "ID": "UExmSTZVQmt4dk9UbjVMbTRlX1JTOWlmRjBGNlZkR1NOYi4wMTcyMDhGQUE4NTIzM0Y5",
      "VideoID": "4sWi02UnhKQ",
      "VideoFile": "grammar-id-a_3_A.mp4"
    },
    {
      "ID": "UExmSTZVQmt4dk9UbjVMbTRlX1JTOWlmRjBGNlZkR1NOYi41MjE1MkI0OTQ2QzJGNzNG",
      "VideoID": "VfI1zm8phx0",
      "VideoFile": "grammar-id-a_4_A.mp4"
    },
    {
      "ID": "UExmSTZVQmt4dk9UbjVMbTRlX1JTOWlmRjBGNlZkR1NOYi4wOTA3OTZBNzVEMTUzOTMy",
      "VideoID": "KYBoGVS46oU",
      "VideoFile": "grammar-id-a_5_A.mp4"
    },
    {
      "ID": "UExmSTZVQmt4dk9UbjVMbTRlX1JTOWlmRjBGNlZkR1NOYi4xMkVGQjNCMUM1N0RFNEUx",
      "VideoID": "Pixv1AbUaLo",
      "VideoFile": "grammar-id-a_6_A.mp4"
    },
    {
      "ID": "UExmSTZVQmt4dk9UbjVMbTRlX1JTOWlmRjBGNlZkR1NOYi41MzJCQjBCNDIyRkJDN0VD",
      "VideoID": "LKmrNzaruTQ",
      "VideoFile": "grammar-id-a_7_A.mp4"
    },
    {
      "ID": "UExmSTZVQmt4dk9UbjVMbTRlX1JTOWlmRjBGNlZkR1NOYi5DQUNERDQ2NkIzRUQxNTY1",
      "VideoID": "ksO99G9rdfo",
      "VideoFile": "grammar-id-a_8_A.mp4"
    },
    {
      "ID": "UExmSTZVQmt4dk9UbjVMbTRlX1JTOWlmRjBGNlZkR1NOYi45NDk1REZENzhEMzU5MDQz",
      "VideoID": "xUV4wvA95os",
      "VideoFile": "grammar-id-a_9_A.mp4"
    },
    {
      "ID": "UExmSTZVQmt4dk9UbjVMbTRlX1JTOWlmRjBGNlZkR1NOYi5GNjNDRDREMDQxOThCMDQ2",
      "VideoID": "7YOl96PVAsw",
      "VideoFile": "grammar-id-a_10_A.mp4"
    }
  ]
}