{
  "Name": "grammar-en-beginner-UK",
  "ID": "PLfI6UBkxvOTkbU5F7tVnh_qwAlzPjvWIy",
  "DefaultLang": "pl",
  "Title": "Mówić po angielsku! Wymowa brytyjska ⭐️ Ćwiczenia gramatyczne",
  "Description": "Ucz się gramatyki angielskiej! Zmień słowo w zdaniu!",
  "Localizations": null,
  "PlaylistTags": "Gramatyka angielska,Wymowa brytyjska,brytyjski,Gramatyka",
  "Updated": true,
  "PlaylistItems": [
    {
      "ID": "UExmSTZVQmt4dk9Ua2JVNUY3dFZuaF9xd0FselBqdldJeS41NkI0NEY2RDEwNTU3Q0M2",
      "VideoID": "nImgGaGSF-s",
      "VideoFile": "grammar-en-beginner_1_UK.mp4"
    },
    {
      "ID": "UExmSTZVQmt4dk9Ua2JVNUY3dFZuaF9xd0FselBqdldJeS4yODlGNEE0NkRGMEEzMEQy",
      "VideoID": "Q4I-IX-Nrdg",
      "VideoFile": "grammar-en-beginner_2_UK.mp4"
    },
    {
      "ID": "UExmSTZVQmt4dk9Ua2JVNUY3dFZuaF9xd0FselBqdldJeS4wMTcyMDhGQUE4NTIzM0Y5",
      "VideoID": "xePO6Dli6mg",
      "VideoFile": "grammar-en-beginner_3_UK.mp4"
    },
    {
      "ID": "UExmSTZVQmt4dk9Ua2JVNUY3dFZuaF9xd0FselBqdldJeS41MjE1MkI0OTQ2QzJGNzNG",
      "VideoID": "tum4L29vNYY",
      "VideoFile": "grammar-en-beginner_4_UK.mp4"
    },
    {
      "ID": "UExmSTZVQmt4dk9Ua2JVNUY3dFZuaF9xd0FselBqdldJeS4wOTA3OTZBNzVEMTUzOTMy",
      "VideoID": "nzSczbTMIN0",
      "VideoFile": "grammar-en-beginner_5_UK.mp4"
    },
    {
      "ID": "UExmSTZVQmt4dk9Ua2JVNUY3dFZuaF9xd0FselBqdldJeS4xMkVGQjNCMUM1N0RFNEUx",
      "VideoID": "HzumQ0lL2pI",
      "VideoFile": "grammar-en-beginner_6_UK.mp4"
    },
    {
      "ID": "UExmSTZVQmt4dk9Ua2JVNUY3dFZuaF9xd0FselBqdldJeS41MzJCQjBCNDIyRkJDN0VD",
      "VideoID": "ryk1ERyI0N8",
      "VideoFile": "grammar-en-beginner_7_UK.mp4"
    },
    {
      "ID": "UExmSTZVQmt4dk9Ua2JVNUY3dFZuaF9xd0FselBqdldJeS5DQUNERDQ2NkIzRUQxNTY1",
      "VideoID": "VrjqeLfJGu8",
      "VideoFile": "grammar-en-beginner_8_UK.mp4"
    },
    {
      "ID": "UExmSTZVQmt4dk9Ua2JVNUY3dFZuaF9xd0FselBqdldJeS45NDk1REZENzhEMzU5MDQz",
      "VideoID": "FMOPDoE7OgY",
      "VideoFile": "grammar-en-beginner_9_UK.mp4"
    },
    {
      "ID": "UExmSTZVQmt4dk9Ua2JVNUY3dFZuaF9xd0FselBqdldJeS5GNjNDRDREMDQxOThCMDQ2",
      "VideoID": "6aG8X17j2_o",
      "VideoFile": "grammar-en-beginner_10_UK.mp4"
    },
    {
      "ID": "UExmSTZVQmt4dk9Ua2JVNUY3dFZuaF9xd0FselBqdldJeS40NzZCMERDMjVEN0RFRThB",
      "VideoID": "Sd5WJ2Vb6vI",
      "VideoFile": "grammar-en-beginner_11_UK.mp4"
    },
    {
      "ID": "UExmSTZVQmt4dk9Ua2JVNUY3dFZuaF9xd0FselBqdldJeS5EMEEwRUY5M0RDRTU3NDJC",
      "VideoID": "ypfwPmP0wiI",
      "VideoFile": "grammar-en-beginner_12_UK.mp4"
    },
    {
      "ID": "UExmSTZVQmt4dk9Ua2JVNUY3dFZuaF9xd0FselBqdldJeS45ODRDNTg0QjA4NkFBNkQy",
      "VideoID": "ILzCOP01-GQ",
      "VideoFile": "grammar-en-beginner_13_UK.mp4"
    },
    {
      "ID": "UExmSTZVQmt4dk9Ua2JVNUY3dFZuaF9xd0FselBqdldJeS4zMDg5MkQ5MEVDMEM1NTg2",
      "VideoID": "U_PPLXRph1M",
      "VideoFile": "grammar-en-beginner_14_UK.mp4"
    },
    {
      "ID": "UExmSTZVQmt4dk9Ua2JVNUY3dFZuaF9xd0FselBqdldJeS41Mzk2QTAxMTkzNDk4MDhF",
      "VideoID": "sOdGYMA4rzw",
      "VideoFile": "grammar-en-beginner_15_UK.mp4"
    },
    {
      "ID": "UExmSTZVQmt4dk9Ua2JVNUY3dFZuaF9xd0FselBqdldJeS5EQUE1NTFDRjcwMDg0NEMz",
      "VideoID": "UCV9O1HfdWU",
      "VideoFile": "grammar-en-beginner_16_UK.mp4"
    },
    {
      "ID": "UExmSTZVQmt4dk9Ua2JVNUY3dFZuaF9xd0FselBqdldJeS41QTY1Q0UxMTVCODczNThE",
      "VideoID": "YGwagpay9Go",
      "VideoFile": "grammar-en-beginner_17_UK.mp4"
    },
    {
      "ID": "UExmSTZVQmt4dk9Ua2JVNUY3dFZuaF9xd0FselBqdldJeS4yMUQyQTQzMjRDNzMyQTMy",
      "VideoID": "ojBZ46MPn6w",
      "VideoFile": "grammar-en-beginner_18_UK.mp4"
    },
    {
      "ID": "UExmSTZVQmt4dk9Ua2JVNUY3dFZuaF9xd0FselBqdldJeS45RTgxNDRBMzUwRjQ0MDhC",
      "VideoID": "Wx2vQ2ZlEtw",
      "VideoFile": "grammar-en-beginner_19_UK.mp4"
    },
    {
      "ID": "UExmSTZVQmt4dk9Ua2JVNUY3dFZuaF9xd0FselBqdldJeS5ENDU4Q0M4RDExNzM1Mjcy",
      "VideoID": "SGN6I_i3POM",
      "VideoFile": "grammar-en-beginner_20_UK.mp4"
    },
    {
      "ID": "UExmSTZVQmt4dk9Ua2JVNUY3dFZuaF9xd0FselBqdldJeS4yMDhBMkNBNjRDMjQxQTg1",
      "VideoID": "HnVw5rLLzSs",
      "VideoFile": "grammar-en-beginner_21_UK.mp4"
    },
    {
      "ID": "UExmSTZVQmt4dk9Ua2JVNUY3dFZuaF9xd0FselBqdldJeS5GM0Q3M0MzMzY5NTJFNTdE",
      "VideoID": "lCqyjtys58k",
      "VideoFile": "grammar-en-beginner_22_UK.mp4"
    },
    {
      "ID": "UExmSTZVQmt4dk9Ua2JVNUY3dFZuaF9xd0FselBqdldJeS4zRjM0MkVCRTg0MkYyQTM0",
      "VideoID": "oAu5JND6bUo",
      "VideoFile": "grammar-en-beginner_23_UK.mp4"
    },
    {
      "ID": "UExmSTZVQmt4dk9Ua2JVNUY3dFZuaF9xd0FselBqdldJeS45NzUwQkI1M0UxNThBMkU0",
      "VideoID": "oOsRpPiEXqI",
      "VideoFile": "grammar-en-beginner_24_UK.mp4"
    },
    {
      "ID": "UExmSTZVQmt4dk9Ua2JVNUY3dFZuaF9xd0FselBqdldJeS5DNzE1RjZEMUZCMjA0RDBB",
      "VideoID": "-qHduww1pYU",
      "VideoFile": "grammar-en-beginner_25_UK.mp4"
    },
    {
      "ID": "UExmSTZVQmt4dk9Ua2JVNUY3dFZuaF9xd0FselBqdldJeS43MTI1NDIwOTMwQjIxMzNG",
      "VideoID": "adQLDNYTKUA",
      "VideoFile": "grammar-en-beginner_26_UK.mp4"
    },
    {
      "ID": "UExmSTZVQmt4dk9Ua2JVNUY3dFZuaF9xd0FselBqdldJeS5DQ0MyQ0Y4Mzg0M0VGOEYw",
      "VideoID": "px__gJy_i5Q",
      "VideoFile": "grammar-en-beginner_27_UK.mp4"
    },
    {
      "ID": "UExmSTZVQmt4dk9Ua2JVNUY3dFZuaF9xd0FselBqdldJeS4yQUE2Q0JEMTk4NTM3RTZC",
      "VideoID": "X9-PAi8zahU",
      "VideoFile": "grammar-en-beginner_28_UK.mp4"
    },
    {
      "ID": "UExmSTZVQmt4dk9Ua2JVNUY3dFZuaF9xd0FselBqdldJeS5DMkU4NTY1QUFGQTYwMDE3",
      "VideoID": "cELKVAFo2NY",
      "VideoFile": "grammar-en-beginner_29_UK.mp4"
    },
    {
      "ID": "UExmSTZVQmt4dk9Ua2JVNUY3dFZuaF9xd0FselBqdldJeS44Mjc5REFBRUE2MTdFRDU0",
      "VideoID": "rK3uPTHqY94",
      "VideoFile": "grammar-en-beginner_30_UK.mp4"
    },
    {
      "ID": "UExmSTZVQmt4dk9Ua2JVNUY3dFZuaF9xd0FselBqdldJeS43NDhFRTgwOTRERTU4Rjg3",
      "VideoID": "2Paqxd7sCIw",
      "VideoFile": "grammar-en-beginner_31_UK.mp4"
    },
    {
      "ID": "UExmSTZVQmt4dk9Ua2JVNUY3dFZuaF9xd0FselBqdldJeS41QUZGQTY5OTE4QTREQUU4",
      "VideoID": "mipCko9Gys8",
      "VideoFile": "grammar-en-beginner_32_UK.mp4"
    },
    {
      "ID": "UExmSTZVQmt4dk9Ua2JVNUY3dFZuaF9xd0FselBqdldJeS4zRDBDOEZDOUM0MDY5NEEz",
      "VideoID": "a6oiD8sUip8",
      "VideoFile": "grammar-en-beginner_33_UK.mp4"
    },
    {
      "ID": "UExmSTZVQmt4dk9Ua2JVNUY3dFZuaF9xd0FselBqdldJeS5CMEQ2Mjk5NTc3NDZFRUNB",
      "VideoID": "PS9P8LHZDOo",
      "VideoFile": "grammar-en-beginner_34_UK.mp4"
    },
    {
      "ID": "UExmSTZVQmt4dk9Ua2JVNUY3dFZuaF9xd0FselBqdldJeS42MTI4Njc2QjM1RjU1MjlG",
      "VideoID": "X7QiZTU5F-c",
      "VideoFile": "grammar-en-beginner_35_UK.mp4"
    },
    {
      "ID": "UExmSTZVQmt4dk9Ua2JVNUY3dFZuaF9xd0FselBqdldJeS45RjNFMDhGQ0Q2RkFCQTc1",
      "VideoID": "--xYe2Qr7Vg",
      "VideoFile": "grammar-en-beginner_36_UK.mp4"
    },
    {
      "ID": "UExmSTZVQmt4dk9Ua2JVNUY3dFZuaF9xd0FselBqdldJeS40QTA3NTU2RkM1QzlCMzYx",
      "VideoID": "4x9Hh58aPfo",
      "VideoFile": "grammar-en-beginner_37_UK.mp4"
    },
    {
      "ID": "UExmSTZVQmt4dk9Ua2JVNUY3dFZuaF9xd0FselBqdldJeS5BRjJDODk5REM0NjkzMUIy",
      "VideoID": "2AOS6fDcxnI",
      "VideoFile": "grammar-en-beginner_38_UK.mp4"
    },
    {
      "ID": "UExmSTZVQmt4dk9Ua2JVNUY3dFZuaF9xd0FselBqdldJeS4xOTEzQzhBQzU3MDNDNjcz",
      "VideoID": "F_usPBce3DE",
      "VideoFile": "grammar-en-beginner_39_UK.mp4"
    },
    {
      "ID": "UExmSTZVQmt4dk9Ua2JVNUY3dFZuaF9xd0FselBqdldJeS5GNDg1Njc1QzZERjlFRjE5",
      "VideoID": "ZUwZrNP35bE",
      "VideoFile": "grammar-en-beginner_40_UK.mp4"
    },
    {
      "ID": "UExmSTZVQmt4dk9Ua2JVNUY3dFZuaF9xd0FselBqdldJeS4zQzFBN0RGNzNFREFCMjBE",
      "VideoID": "zvVjaPYyHsU",
      "VideoFile": "grammar-en-beginner_41_UK.mp4"
    },
    {
      "ID": "UExmSTZVQmt4dk9Ua2JVNUY3dFZuaF9xd0FselBqdldJeS45NkVENTkxRDdCQUFBMDY4",
      "VideoID": "j0TC7RvTano",
      "VideoFile": "grammar-en-beginner_42_UK.mp4"
    },
    {
      "ID": "UExmSTZVQmt4dk9Ua2JVNUY3dFZuaF9xd0FselBqdldJeS5DNkMwRUI2MkI4QkI4NDFG",
      "VideoID": "LQZnQmY4Hvw",
      "VideoFile": "grammar-en-beginner_43_UK.mp4"
    },
    {
      "ID": "UExmSTZVQmt4dk9Ua2JVNUY3dFZuaF9xd0FselBqdldJeS5DRUQwODMxQzUyRTlGRkY3",
      "VideoID": "y-Z4M0OWwNU",
      "VideoFile": "grammar-en-beginner_44_UK.mp4"
    },
    {
      "ID": "UExmSTZVQmt4dk9Ua2JVNUY3dFZuaF9xd0FselBqdldJeS41MzY4MzcwOUFFRUU3QzEx",
      "VideoID": "6htUezH9NUs",
      "VideoFile": "grammar-en-beginner_45_UK.mp4"
    },
    {
      "ID": "UExmSTZVQmt4dk9Ua2JVNUY3dFZuaF9xd0FselBqdldJeS4yQjZFRkExQjFGODk3RUFD",
      "VideoID": "ZtJ6fOLOtg4",
      "VideoFile": "grammar-en-beginner_46_UK.mp4"
    },
    {
      "ID": "UExmSTZVQmt4dk9Ua2JVNUY3dFZuaF9xd0FselBqdldJeS4yQUJFNUVCMzVDNjcxRTlF",
      "VideoID": "ZZj1IQzUX0g",
      "VideoFile": "grammar-en-beginner_47_UK.mp4"
    },
    {
      "ID": "UExmSTZVQmt4dk9Ua2JVNUY3dFZuaF9xd0FselBqdldJeS40QzRDOEU0QUYwNUIxN0M1",
      "VideoID": "U0ds4q5xFt4",
      "VideoFile": "grammar-en-beginner_48_UK.mp4"
    },
    {
      "ID": "UExmSTZVQmt4dk9Ua2JVNUY3dFZuaF9xd0FselBqdldJeS41RTNBREYwMkI5QzU3RkY2",
      "VideoID": "EXoeZww9PsM",
      "VideoFile": "grammar-en-beginner_49_UK.mp4"
    },
    {
      "ID": "UExmSTZVQmt4dk9Ua2JVNUY3dFZuaF9xd0FselBqdldJeS5ENjI1QUI0MDI5NEQzODFE",
      "VideoID": "VrbnRIL0N-Y",
      "VideoFile": "grammar-en-beginner_50_UK.mp4"
    },
    {
      "ID": "UExmSTZVQmt4dk9Ua2JVNUY3dFZuaF9xd0FselBqdldJeS44QzVGQUU2QjE2NDgxM0M4",
      "VideoID": "HWs1Z0e3Qzc",
      "VideoFile": "grammar-en-beginner_51_UK.mp4"
    },
    {
      "ID": "UExmSTZVQmt4dk9Ua2JVNUY3dFZuaF9xd0FselBqdldJeS4xMzgwMzBERjQ4NjEzNUE5",
      "VideoID": "wiU5Xt9kVjk",
      "VideoFile": "grammar-en-beginner_52_UK.mp4"
    },
    {
      "ID": "UExmSTZVQmt4dk9Ua2JVNUY3dFZuaF9xd0FselBqdldJeS4zMEQ1MEIyRTFGNzhDQzFB",
      "VideoID": "nHLV7BCzj5k",
      "VideoFile": "grammar-en-beginner_53_UK.mp4"
    }
  ]
}