{
  "SerieName": "math-e-div-r-1",
  "ExerciseName": "A",
  "NextPublishAt": "2020-06-06T06:00:00.0+09:00",
  "PublishHours": 3,
  "ProblemNum": 7,
  "AudioLang": "",
  "VideoLang": "en",
  "Voices": null,
  "SerieTitle": "Math grade 3 | {division with remainder}",
  "YoutubeTitle": "{Be a math master!} 💯 {3rd grade} {Math} ÷️ ⭐ #[1]",
  "YoutubeDescription": "{To teachers and schools:}\n{This video is published under Creative Commons License.}\n  CC BY 3.0 https://creativecommons.org/licenses/by/3.0/ \n{Feel free to use this video in your classes!}\n\n",
  "YoutubeTags": "{3rd grade|8|,}{division with remainder|7|,}",
  "RubyFunc": "",
  "HidesRuby": false,
  "CaptionKeyNames": null,
  "VoiceKeyNames": null,
  "Palettes": [
    {
      "PaletteName": "",
      "Colours": [
        "EFEEEB",
        "A6835B",
        "8A542A",
        "96A9AA",
        "3D3E2D"
      ]
    },
    {
      "PaletteName": "",
      "Colours": [
        "ECECEB",
        "688582",
        "2F694F",
        "54C99D",
        "221921"
      ]
    },
    {
      "PaletteName": "",
      "Colours": [
        "F2F0F2",
        "746560",
        "43982F",
        "899EA3",
        "291B36"
      ]
    },
    {
      "PaletteName": "",
      "Colours": [
        "FAF6F7",
        "696B67",
        "19D039",
        "6EB9B5",
        "2D2C32"
      ]
    },
    {
      "PaletteName": "",
      "Colours": [
        "19171E",
        "8E9EBD",
        "85BCF0",
        "895A87",
        "F1EFED"
      ]
    },
    {
      "PaletteName": "",
      "Colours": [
        "0C1011",
        "6088AF",
        "4CBFF0",
        "646466",
        "F1F1ED"
      ]
    },
    {
      "PaletteName": "",
      "Colours": [
        "F5EFF2",
        "696B67",
        "16CB3A",
        "81B4AD",
        "2C2729"
      ]
    },
    {
      "PaletteName": "",
      "Colours": [
        "EDEAE5",
        "988F70",
        "873D23",
        "898480",
        "1C1D1E"
      ]
    },
    {
      "PaletteName": "",
      "Colours": [
        "F9F8F7",
        "60B96F",
        "1CCE40",
        "6A828C",
        "222026"
      ]
    },
    {
      "PaletteName": "",
      "Colours": [
        "F6F7F5",
        "80D138",
        "5FB930",
        "AABFB8",
        "263D32"
      ]
    },
    {
      "PaletteName": "",
      "Colours": [
        "F4F1F0",
        "AD7B5E",
        "914A29",
        "9E8D83",
        "4C2D28"
      ]
    },
    {
      "PaletteName": "",
      "Colours": [
        "2B212C",
        "82818D",
        "88E2E8",
        "B33B59",
        "F2F6F6"
      ]
    },
    {
      "PaletteName": "",
      "Colours": [
        "F4EDEF",
        "6F726E",
        "35C42B",
        "6CB3A6",
        "2E2E32"
      ]
    },
    {
      "PaletteName": "",
      "Colours": [
        "141918",
        "68B2CD",
        "1854D4",
        "46C839",
        "EAEEF0"
      ]
    },
    {
      "PaletteName": "",
      "Colours": [
        "1E1E29",
        "8094B3",
        "5996F1",
        "6D5C86",
        "F2F3F1"
      ]
    },
    {
      "PaletteName": "",
      "Colours": [
        "F5F4F5",
        "96C29C",
        "39B140",
        "94C4A8",
        "2C3632"
      ]
    },
    {
      "PaletteName": "",
      "Colours": [
        "FBFAFA",
        "8B9C7A",
        "717041",
        "79889D",
        "1D222F"
      ]
    },
    {
      "PaletteName": "",
      "Colours": [
        "F4F2EF",
        "D07F54",
        "7B3B38",
        "A67181",
        "281B22"
      ]
    },
    {
      "PaletteName": "",
      "Colours": [
        "F0EFE7",
        "C27529",
        "7A3427",
        "7F6E6F",
        "2C1E1F"
      ]
    },
    {
      "PaletteName": "",
      "Colours": [
        "EBE6E8",
        "524533",
        "5FA22F",
        "A77D4B",
        "243126"
      ]
    },
    {
      "PaletteName": "",
      "Colours": [
        "1C1821",
        "5D6576",
        "22C1EF",
        "616363",
        "F1F3F1"
      ]
    },
    {
      "PaletteName": "",
      "Colours": [
        "F9F8F7",
        "918359",
        "3B9542",
        "D38F37",
        "352E2B"
      ]
    },
    {
      "PaletteName": "",
      "Colours": [
        "F5F6F2",
        "A1BD95",
        "61A330",
        "9C889E",
        "342F35"
      ]
    },
    {
      "PaletteName": "",
      "Colours": [
        "F0EEE8",
        "8C937F",
        "754323",
        "8B8C84",
        "1D2321"
      ]
    },
    {
      "PaletteName": "",
      "Colours": [
        "F6F3F1",
        "B35F4D",
        "61403F",
        "A87D95",
        "1B1B23"
      ]
    },
    {
      "PaletteName": "",
      "Colours": [
        "F2F1EE",
        "746E6C",
        "684C41",
        "7F8086",
        "2B2429"
      ]
    },
    {
      "PaletteName": "",
      "Colours": [
        "1C1E32",
        "2B82C9",
        "2DADF1",
        "53628F",
        "FAFAFA"
      ]
    },
    {
      "PaletteName": "",
      "Colours": [
        "202330",
        "43B0D9",
        "1E96EE",
        "266C98",
        "F5F2F0"
      ]
    },
    {
      "PaletteName": "",
      "Colours": [
        "F0F3EB",
        "96BC60",
        "28AB44",
        "7C7A7D",
        "313D38"
      ]
    },
    {
      "PaletteName": "",
      "Colours": [
        "352022",
        "60C9EF",
        "267AEB",
        "8D4129",
        "F3F3F4"
      ]
    },
    {
      "PaletteName": "",
      "Colours": [
        "DFDCD6",
        "946B57",
        "6E271E",
        "867D69",
        "1C181C"
      ]
    },
    {
      "PaletteName": "",
      "Colours": [
        "FBFAFA",
        "837C8C",
        "7C5E3F",
        "A69294",
        "2A2932"
      ]
    },
    {
      "PaletteName": "",
      "Colours": [
        "F9F7F9",
        "886F29",
        "419950",
        "F3C038",
        "333B2C"
      ]
    },
    {
      "PaletteName": "",
      "Colours": [
        "3C2B26",
        "816082",
        "92B1E9",
        "B67D57",
        "F3F3F3"
      ]
    },
    {
      "PaletteName": "",
      "Colours": [
        "252B27",
        "827586",
        "84E0EE",
        "858F7C",
        "FAF9F9"
      ]
    },
    {
      "PaletteName": "",
      "Colours": [
        "F5F4F5",
        "AC7236",
        "65C31B",
        "BFB268",
        "2E2930"
      ]
    },
    {
      "PaletteName": "",
      "Colours": [
        "141318",
        "57B6C5",
        "19B1DD",
        "745A6E",
        "EAE3E7"
      ]
    },
    {
      "PaletteName": "",
      "Colours": [
        "FAF8F9",
        "62B86F",
        "1CCE40",
        "767085",
        "221F23"
      ]
    },
    {
      "PaletteName": "",
      "Colours": [
        "292E35",
        "7D99A6",
        "5BDDEF",
        "797273",
        "F4F4F0"
      ]
    },
    {
      "PaletteName": "",
      "Colours": [
        "EBECEA",
        "A97E50",
        "6C4E40",
        "76939A",
        "29312E"
      ]
    },
    {
      "PaletteName": "",
      "Colours": [
        "FBF9FA",
        "8C9B7A",
        "6F7243",
        "8B9194",
        "2F3931"
      ]
    },
    {
      "PaletteName": "",
      "Colours": [
        "111317",
        "8AA5BD",
        "4ABFF5",
        "607C9F",
        "F7F6F4"
      ]
    },
    {
      "PaletteName": "",
      "Colours": [
        "1E2635",
        "F057E8",
        "48ABF3",
        "9C409D",
        "F0F3EE"
      ]
    },
    {
      "PaletteName": "",
      "Colours": [
        "F1F1EA",
        "798889",
        "454444",
        "949394",
        "212225"
      ]
    },
    {
      "PaletteName": "",
      "Colours": [
        "1D1F27",
        "53AEC3",
        "3496E9",
        "86516C",
        "F1EDDC"
      ]
    },
    {
      "PaletteName": "",
      "Colours": [
        "EDE9E5",
        "978D83",
        "61433E",
        "857991",
        "201C28"
      ]
    },
    {
      "PaletteName": "",
      "Colours": [
        "F3EBE3",
        "E68529",
        "7C2C15",
        "A09E8A",
        "1A1A1B"
      ]
    },
    {
      "PaletteName": "",
      "Colours": [
        "1C2420",
        "608CA2",
        "27AFEE",
        "5A686D",
        "F3F2F0"
      ]
    },
    {
      "PaletteName": "",
      "Colours": [
        "EEEBE8",
        "978C6F",
        "5D463E",
        "7B7B84",
        "272325"
      ]
    },
    {
      "PaletteName": "",
      "Colours": [
        "21232C",
        "26B3EC",
        "B630DB",
        "5176BC",
        "FAF9F8"
      ]
    },
    {
      "PaletteName": "",
      "Colours": [
        "F9F5F3",
        "A27233",
        "724C40",
        "74676E",
        "202B24"
      ]
    },
    {
      "PaletteName": "",
      "Colours": [
        "FBFBFA",
        "8B9C7A",
        "6E6D3F",
        "8A9293",
        "1E2134"
      ]
    },
    {
      "PaletteName": "",
      "Colours": [
        "FBF9F9",
        "8A8494",
        "8F5635",
        "8196AB",
        "1B1A25"
      ]
    },
    {
      "PaletteName": "",
      "Colours": [
        "1F2931",
        "80B1AC",
        "19C6F3",
        "6F727A",
        "EAF1F1"
      ]
    },
    {
      "PaletteName": "",
      "Colours": [
        "EEE9E7",
        "827173",
        "5F3F3C",
        "7C7C7C",
        "181518"
      ]
    },
    {
      "PaletteName": "",
      "Colours": [
        "F8F7F6",
        "A29A46",
        "6A4F44",
        "A86971",
        "2B3441"
      ]
    },
    {
      "PaletteName": "",
      "Colours": [
        "FBFBFA",
        "98BD5F",
        "2EAF4C",
        "7C7E7C",
        "20243B"
      ]
    },
    {
      "PaletteName": "",
      "Colours": [
        "151418",
        "828993",
        "ACC7D8",
        "8C5C66",
        "F3F4F5"
      ]
    },
    {
      "PaletteName": "",
      "Colours": [
        "1F1A24",
        "6BA3C1",
        "288FE8",
        "818383",
        "F2F2EC"
      ]
    },
    {
      "PaletteName": "",
      "Colours": [
        "EFF0EC",
        "707369",
        "32B13D",
        "7FA2A0",
        "202020"
      ]
    },
    {
      "PaletteName": "",
      "Colours": [
        "1A1827",
        "89D7E4",
        "46D1E6",
        "A84260",
        "F6F9F9"
      ]
    },
    {
      "PaletteName": "",
      "Colours": [
        "1B1C28",
        "52A4C9",
        "35B6EB",
        "37658E",
        "F1EDEE"
      ]
    },
    {
      "PaletteName": "",
      "Colours": [
        "F9F8F8",
        "978268",
        "735F45",
        "9EAE96",
        "2E3E3A"
      ]
    },
    {
      "PaletteName": "",
      "Colours": [
        "202230",
        "6CA3CD",
        "49AEF0",
        "747474",
        "F6F6F5"
      ]
    },
    {
      "PaletteName": "",
      "Colours": [
        "111519",
        "818484",
        "9DAFC6",
        "6A7483",
        "F4F4F2"
      ]
    },
    {
      "PaletteName": "",
      "Colours": [
        "0F191C",
        "F2C81B",
        "4BC0EF",
        "718B44",
        "F4F6F4"
      ]
    },
    {
      "PaletteName": "",
      "Colours": [
        "201C30",
        "737186",
        "2795EE",
        "7C7C75",
        "F4F5F3"
      ]
    },
    {
      "PaletteName": "",
      "Colours": [
        "F4F3F0",
        "AE8457",
        "7D5237",
        "8C8C8D",
        "251C21"
      ]
    },
    {
      "PaletteName": "",
      "Colours": [
        "E2E0DA",
        "A26D56",
        "6D271E",
        "867D69",
        "1C181C"
      ]
    },
    {
      "PaletteName": "",
      "Colours": [
        "1A1E25",
        "867C79",
        "80CBD3",
        "82546A",
        "E6E7DB"
      ]
    },
    {
      "PaletteName": "",
      "Colours": [
        "201C30",
        "737286",
        "2795EE",
        "7C7C75",
        "F4F5F3"
      ]
    },
    {
      "PaletteName": "",
      "Colours": [
        "EDF0F0",
        "8A998D",
        "68C819",
        "6E869E",
        "2C2D3A"
      ]
    },
    {
      "PaletteName": "",
      "Colours": [
        "EEE9E7",
        "836F70",
        "5F3F3C",
        "7C7C7C",
        "181519"
      ]
    },
    {
      "PaletteName": "",
      "Colours": [
        "1A1623",
        "7D9DBF",
        "58C9E7",
        "666F8F",
        "F4F6F5"
      ]
    },
    {
      "PaletteName": "",
      "Colours": [
        "EAE9E8",
        "7D767C",
        "5C423A",
        "7B847F",
        "1B171C"
      ]
    },
    {
      "PaletteName": "",
      "Colours": [
        "19191F",
        "64A0C1",
        "3199E7",
        "6D5B71",
        "FAFAF9"
      ]
    },
    {
      "PaletteName": "",
      "Colours": [
        "1F1A24",
        "70A4C0",
        "298FE8",
        "818383",
        "F2F2EC"
      ]
    },
    {
      "PaletteName": "",
      "Colours": [
        "EBECE5",
        "A19845",
        "644D3F",
        "717A7F",
        "222323"
      ]
    },
    {
      "PaletteName": "",
      "Colours": [
        "1E1F2D",
        "7BADD3",
        "1A78EB",
        "938185",
        "F0F1F3"
      ]
    },
    {
      "PaletteName": "",
      "Colours": [
        "F8F5F5",
        "767575",
        "5F313B",
        "7C7B7C",
        "201A1F"
      ]
    },
    {
      "PaletteName": "",
      "Colours": [
        "F5F5F1",
        "B85E21",
        "369842",
        "D68E39",
        "211C1B"
      ]
    },
    {
      "PaletteName": "",
      "Colours": [
        "FAFAF9",
        "A49B43",
        "63404E",
        "80959C",
        "1D2034"
      ]
    },
    {
      "PaletteName": "",
      "Colours": [
        "EEEEE5",
        "967A5C",
        "705436",
        "898F8F",
        "232226"
      ]
    },
    {
      "PaletteName": "",
      "Colours": [
        "F4EFF1",
        "786C5D",
        "22BB26",
        "8AAB9B",
        "2F3334"
      ]
    },
    {
      "PaletteName": "",
      "Colours": [
        "F7F9F7",
        "5E2F3C",
        "7C303A",
        "AC5266",
        "1E131C"
      ]
    },
    {
      "PaletteName": "",
      "Colours": [
        "F1F2F4",
        "6F7B4D",
        "16CA39",
        "63BA6D",
        "211D23"
      ]
    },
    {
      "PaletteName": "",
      "Colours": [
        "E8E0DC",
        "5C8A9F",
        "3A3C3B",
        "949495",
        "212521"
      ]
    },
    {
      "PaletteName": "",
      "Colours": [
        "E6E3DC",
        "9B8E84",
        "40992B",
        "7737AC",
        "1B2222"
      ]
    },
    {
      "PaletteName": "",
      "Colours": [
        "433324",
        "A7BBCF",
        "1A90F5",
        "737887",
        "F6F8F7"
      ]
    },
    {
      "PaletteName": "",
      "Colours": [
        "F2F1F0",
        "C0774A",
        "8F4D2B",
        "A79D87",
        "49312C"
      ]
    },
    {
      "PaletteName": "",
      "Colours": [
        "1E1728",
        "7486AE",
        "1FAFEA",
        "AD3E5B",
        "F4F7F5"
      ]
    },
    {
      "PaletteName": "",
      "Colours": [
        "F8F5F4",
        "7C898E",
        "9C3D23",
        "A1A5A2",
        "231921"
      ]
    },
    {
      "PaletteName": "",
      "Colours": [
        "F5F5F5",
        "CB9D5B",
        "8E4C32",
        "857C90",
        "25242D"
      ]
    },
    {
      "PaletteName": "",
      "Colours": [
        "3E3128",
        "B19DBD",
        "96AEE5",
        "8E7E9B",
        "FAFAFA"
      ]
    },
    {
      "PaletteName": "",
      "Colours": [
        "1B1623",
        "6E89B2",
        "22B7DB",
        "AC3F5B",
        "F5F7F4"
      ]
    },
    {
      "PaletteName": "",
      "Colours": [
        "EDEAE9",
        "705B64",
        "892F28",
        "9C7A68",
        "1C161C"
      ]
    },
    {
      "PaletteName": "",
      "Colours": [
        "F7F5F3",
        "A17946",
        "88482A",
        "C18466",
        "1F1A1F"
      ]
    },
    {
      "PaletteName": "",
      "Colours": [
        "223039",
        "787D7A",
        "83E4EF",
        "7C8278",
        "F4F6F4"
      ]
    },
    {
      "PaletteName": "",
      "Colours": [
        "F8F7F5",
        "B08462",
        "9E2724",
        "AC9D8E",
        "2D2524"
      ]
    },
    {
      "PaletteName": "",
      "Colours": [
        "0D1216",
        "83ADC2",
        "5ACBE4",
        "917878",
        "F6F7F5"
      ]
    }
  ],
  "TitleFont": "GenSenMaruGothicJP-Medium.ttf",
  "SubtitleFont": "GenSenMaruGothicJP-Medium.ttf",
  "ProblemFont": "GenSenMaruGothicJP-Medium.ttf",
  "RubyFont": "GenSenMaruGothicJP-Medium.ttf",
  "Langs": [
    "de",
    "et",
    "es",
    "eu",
    "fil",
    "fr",
    "gl",
    "hr",
    "zu",
    "is",
    "it",
    "sw",
    "lv",
    "lt",
    "hu",
    "nl",
    "no",
    "uz",
    "pl",
    "pt",
    "ro",
    "sq",
    "sk",
    "sl",
    "sr",
    "fi",
    "sv",
    "vi",
    "tr",
    "be",
    "bg",
    "ky",
    "kk",
    "mk",
    "mn",
    "ru",
    "sr",
    "uk",
    "el",
    "hy",
    "iw",
    "ur",
    "ar",
    "fa",
    "ne",
    "mr",
    "hi",
    "bn",
    "pa",
    "gu",
    "ta",
    "te",
    "kn",
    "ml",
    "si",
    "th",
    "lo",
    "my",
    "ka",
    "am",
    "km",
    "zh-Hans",
    "zh-Hant",
    "ko",
    "co",
    "fy",
    "ha",
    "ig",
    "jv",
    "ku",
    "lb",
    "mg",
    "mt",
    "mi",
    "ps",
    "sm",
    "gd",
    "st",
    "sn",
    "sd",
    "so",
    "su",
    "tg",
    "cy",
    "xh",
    "yi",
    "yo",
    "en",
    "ja",
    "af",
    "az",
    "id",
    "ms",
    "bs",
    "ca",
    "cs",
    "da"
  ]
}