{
  "SerieName": "grammar-en-intermediate",
  "No": 2,
  "VideoTitle": "who",
  "ThumbnailTitle": "",
  "YoutubeDescription": "",
  "YoutubeTitle": "who - {relative clauses}",
  "Boxes": [
    {
      "Pos": 0,
      "PersonName": "v",
      "Candidates": [
        {
          "Word": "I know",
          "Root": "",
          "FeatureSet": null,
          "Conditions": null,
          "PersonConditions": null
        }
      ]
    },
    {
      "Pos": 1,
      "PersonName": "v",
      "Candidates": [
        {
          "Word": "a man",
          "Root": "",
          "FeatureSet": null,
          "Conditions": [
            {
              "Pos": 3,
              "Morphemes": [
                {
                  "Word": "",
                  "Root": "",
                  "FeatureSet": [
                    "s"
                  ]
                }
              ]
            }
          ],
          "PersonConditions": null
        },
        {
          "Word": "men",
          "Root": "",
          "FeatureSet": null,
          "Conditions": [
            {
              "Pos": 3,
              "Morphemes": [
                {
                  "Word": "",
                  "Root": "",
                  "FeatureSet": [
                    "ns"
                  ]
                }
              ]
            }
          ],
          "PersonConditions": null
        }
      ]
    },
    {
      "Pos": 2,
      "PersonName": "v",
      "Candidates": [
        {
          "Word": "who",
          "Root": "",
          "FeatureSet": null,
          "Conditions": null,
          "PersonConditions": null
        }
      ]
    },
    {
      "Pos": 3,
      "PersonName": "v",
      "Candidates": [
        {
          "Word": "is very friendly",
          "Root": "be",
          "FeatureSet": [
            "s"
          ],
          "Conditions": null,
          "PersonConditions": null
        },
        {
          "Word": "are very friendly",
          "Root": "be",
          "FeatureSet": [
            "ns"
          ],
          "Conditions": null,
          "PersonConditions": null
        },
        {
          "Word": "loves justice",
          "Root": "love",
          "FeatureSet": [
            "s"
          ],
          "Conditions": null,
          "PersonConditions": null
        },
        {
          "Word": "love justice",
          "Root": "love",
          "FeatureSet": [
            "ns"
          ],
          "Conditions": null,
          "PersonConditions": null
        },
        {
          "Word": "does not sing",
          "Root": "sing",
          "FeatureSet": [
            "s"
          ],
          "Conditions": null,
          "PersonConditions": null
        },
        {
          "Word": "do not sing",
          "Root": "sing",
          "FeatureSet": [
            "ns"
          ],
          "Conditions": null,
          "PersonConditions": null
        }
      ]
    }
  ],
  "Pars": [
    {
      "Header": "",
      "Poses": [
        0,
        1,
        2,
        3
      ]
    }
  ],
  "Exercises": [
    {
      "Name": "A",
      "Problems": [
        {
          "ProblemNo": 0,
          "OriginalCandidates": [
            {
              "Word": "I know",
              "Ruby": "aɪ noʊ"
            },
            {
              "Word": "men",
              "Ruby": "mɛn"
            },
            {
              "Word": "who",
              "Ruby": "hu"
            },
            {
              "Word": "do not sing",
              "Ruby": "du nɑt sɪŋ"
            }
          ],
          "ChangeCandidatePos": 1,
          "ChangeCandidates": [
            {
              "Word": "",
              "Ruby": ""
            },
            {
              "Word": "a man",
              "Ruby": "ə mæn"
            },
            {
              "Word": "",
              "Ruby": ""
            },
            {
              "Word": "does not sing",
              "Ruby": "dɪz nɑt sɪŋ"
            }
          ],
          "ChangeMorphemes": [
            {
              "Word": "",
              "Root": "",
              "FeatureSet": null
            },
            {
              "Word": "a man",
              "Root": "",
              "FeatureSet": null
            },
            {
              "Word": "",
              "Root": "",
              "FeatureSet": null
            },
            {
              "Word": "",
              "Root": "",
              "FeatureSet": [
                "s"
              ]
            }
          ],
          "AnswerCandidates": [
            {
              "Word": "I know",
              "Ruby": "aɪ noʊ"
            },
            {
              "Word": "a man",
              "Ruby": "ə mæn"
            },
            {
              "Word": "who",
              "Ruby": "hu"
            },
            {
              "Word": "does not sing",
              "Ruby": "dɪz nɑt sɪŋ"
            }
          ]
        },
        {
          "ProblemNo": 1,
          "OriginalCandidates": [
            {
              "Word": "I know",
              "Ruby": "aɪ noʊ"
            },
            {
              "Word": "a man",
              "Ruby": "ə mæn"
            },
            {
              "Word": "who",
              "Ruby": "hu"
            },
            {
              "Word": "does not sing",
              "Ruby": "dɪz nɑt sɪŋ"
            }
          ],
          "ChangeCandidatePos": 3,
          "ChangeCandidates": [
            {
              "Word": "",
              "Ruby": ""
            },
            {
              "Word": "",
              "Ruby": ""
            },
            {
              "Word": "",
              "Ruby": ""
            },
            {
              "Word": "is very friendly",
              "Ruby": "ɪz ˈvɛri ˈfrɛndli"
            }
          ],
          "ChangeMorphemes": [
            {
              "Word": "",
              "Root": "",
              "FeatureSet": null
            },
            {
              "Word": "",
              "Root": "",
              "FeatureSet": null
            },
            {
              "Word": "",
              "Root": "",
              "FeatureSet": null
            },
            {
              "Word": "is very friendly",
              "Root": "be",
              "FeatureSet": [
                "s"
              ]
            }
          ],
          "AnswerCandidates": [
            {
              "Word": "I know",
              "Ruby": "aɪ noʊ"
            },
            {
              "Word": "a man",
              "Ruby": "ə mæn"
            },
            {
              "Word": "who",
              "Ruby": "hu"
            },
            {
              "Word": "is very friendly",
              "Ruby": "ɪz ˈvɛri ˈfrɛndli"
            }
          ]
        },
        {
          "ProblemNo": 2,
          "OriginalCandidates": [
            {
              "Word": "I know",
              "Ruby": "aɪ noʊ"
            },
            {
              "Word": "a man",
              "Ruby": "ə mæn"
            },
            {
              "Word": "who",
              "Ruby": "hu"
            },
            {
              "Word": "is very friendly",
              "Ruby": "ɪz ˈvɛri ˈfrɛndli"
            }
          ],
          "ChangeCandidatePos": 1,
          "ChangeCandidates": [
            {
              "Word": "",
              "Ruby": ""
            },
            {
              "Word": "men",
              "Ruby": "mɛn"
            },
            {
              "Word": "",
              "Ruby": ""
            },
            {
              "Word": "are very friendly",
              "Ruby": "ər ˈvɛri ˈfrɛndli"
            }
          ],
          "ChangeMorphemes": [
            {
              "Word": "",
              "Root": "",
              "FeatureSet": null
            },
            {
              "Word": "men",
              "Root": "",
              "FeatureSet": null
            },
            {
              "Word": "",
              "Root": "",
              "FeatureSet": null
            },
            {
              "Word": "",
              "Root": "",
              "FeatureSet": [
                "ns"
              ]
            }
          ],
          "AnswerCandidates": [
            {
              "Word": "I know",
              "Ruby": "aɪ noʊ"
            },
            {
              "Word": "men",
              "Ruby": "mɛn"
            },
            {
              "Word": "who",
              "Ruby": "hu"
            },
            {
              "Word": "are very friendly",
              "Ruby": "ər ˈvɛri ˈfrɛndli"
            }
          ]
        },
        {
          "ProblemNo": 3,
          "OriginalCandidates": [
            {
              "Word": "I know",
              "Ruby": "aɪ noʊ"
            },
            {
              "Word": "men",
              "Ruby": "mɛn"
            },
            {
              "Word": "who",
              "Ruby": "hu"
            },
            {
              "Word": "are very friendly",
              "Ruby": "ər ˈvɛri ˈfrɛndli"
            }
          ],
          "ChangeCandidatePos": 3,
          "ChangeCandidates": [
            {
              "Word": "",
              "Ruby": ""
            },
            {
              "Word": "",
              "Ruby": ""
            },
            {
              "Word": "",
              "Ruby": ""
            },
            {
              "Word": "love justice",
              "Ruby": "ləv ˈʤəstɪs"
            }
          ],
          "ChangeMorphemes": [
            {
              "Word": "",
              "Root": "",
              "FeatureSet": null
            },
            {
              "Word": "",
              "Root": "",
              "FeatureSet": null
            },
            {
              "Word": "",
              "Root": "",
              "FeatureSet": null
            },
            {
              "Word": "love justice",
              "Root": "love",
              "FeatureSet": [
                "ns"
              ]
            }
          ],
          "AnswerCandidates": [
            {
              "Word": "I know",
              "Ruby": "aɪ noʊ"
            },
            {
              "Word": "men",
              "Ruby": "mɛn"
            },
            {
              "Word": "who",
              "Ruby": "hu"
            },
            {
              "Word": "love justice",
              "Ruby": "ləv ˈʤəstɪs"
            }
          ]
        },
        {
          "ProblemNo": 4,
          "OriginalCandidates": [
            {
              "Word": "I know",
              "Ruby": "aɪ noʊ"
            },
            {
              "Word": "men",
              "Ruby": "mɛn"
            },
            {
              "Word": "who",
              "Ruby": "hu"
            },
            {
              "Word": "love justice",
              "Ruby": "ləv ˈʤəstɪs"
            }
          ],
          "ChangeCandidatePos": 1,
          "ChangeCandidates": [
            {
              "Word": "",
              "Ruby": ""
            },
            {
              "Word": "a man",
              "Ruby": "ə mæn"
            },
            {
              "Word": "",
              "Ruby": ""
            },
            {
              "Word": "loves justice",
              "Ruby": "ləvz ˈʤəstɪs"
            }
          ],
          "ChangeMorphemes": [
            {
              "Word": "",
              "Root": "",
              "FeatureSet": null
            },
            {
              "Word": "a man",
              "Root": "",
              "FeatureSet": null
            },
            {
              "Word": "",
              "Root": "",
              "FeatureSet": null
            },
            {
              "Word": "",
              "Root": "",
              "FeatureSet": [
                "s"
              ]
            }
          ],
          "AnswerCandidates": [
            {
              "Word": "I know",
              "Ruby": "aɪ noʊ"
            },
            {
              "Word": "a man",
              "Ruby": "ə mæn"
            },
            {
              "Word": "who",
              "Ruby": "hu"
            },
            {
              "Word": "loves justice",
              "Ruby": "ləvz ˈʤəstɪs"
            }
          ]
        }
      ],
      "VideoFile": "grammar-en-intermediate_2_A.mp4",
      "AnimeticCaptions": [
        {
          "Start": 0,
          "End": 2,
          "Text": "{love justice}",
          "Ruby": "ləv ˈʤəstɪs",
          "Lang": "en",
          "ProblemNo": 3,
          "Kind": 2
        },
        {
          "Start": 2,
          "End": 5,
          "Text": "English grammar exercises #2 who",
          "Ruby": "",
          "Lang": "",
          "ProblemNo": 0,
          "Kind": 0
        },
        {
          "Start": 5,
          "End": 8,
          "Text": "{I know men who do not sing}",
          "Ruby": "aɪ noʊ mɛn hu du nɑt sɪŋ",
          "Lang": "en",
          "ProblemNo": 0,
          "Kind": 1
        },
        {
          "Start": 8,
          "End": 9,
          "Text": "{a man}",
          "Ruby": "ə mæn",
          "Lang": "en",
          "ProblemNo": 0,
          "Kind": 2
        },
        {
          "Start": 9,
          "End": 11,
          "Text": "{does not sing}",
          "Ruby": "dɪz nɑt sɪŋ",
          "Lang": "en",
          "ProblemNo": 0,
          "Kind": 2
        },
        {
          "Start": 11,
          "End": 16,
          "Text": "{I know a man who does not sing}",
          "Ruby": "aɪ noʊ ə mæn hu dɪz nɑt sɪŋ",
          "Lang": "en",
          "ProblemNo": 0,
          "Kind": 3
        },
        {
          "Start": 16,
          "End": 22,
          "Text": "{I know a man who does not sing}",
          "Ruby": "aɪ noʊ ə mæn hu dɪz nɑt sɪŋ",
          "Lang": "en",
          "ProblemNo": 0,
          "Kind": 4
        },
        {
          "Start": 22,
          "End": 26,
          "Text": "{I know a man who does not sing}",
          "Ruby": "aɪ noʊ ə mæn hu dɪz nɑt sɪŋ",
          "Lang": "en",
          "ProblemNo": 1,
          "Kind": 1
        },
        {
          "Start": 26,
          "End": 28,
          "Text": "{is very friendly}",
          "Ruby": "ɪz ˈvɛri ˈfrɛndli",
          "Lang": "en",
          "ProblemNo": 1,
          "Kind": 2
        },
        {
          "Start": 28,
          "End": 33,
          "Text": "{I know a man who is very friendly}",
          "Ruby": "aɪ noʊ ə mæn hu ɪz ˈvɛri ˈfrɛndli",
          "Lang": "en",
          "ProblemNo": 1,
          "Kind": 3
        },
        {
          "Start": 33,
          "End": 39,
          "Text": "{I know a man who is very friendly}",
          "Ruby": "aɪ noʊ ə mæn hu ɪz ˈvɛri ˈfrɛndli",
          "Lang": "en",
          "ProblemNo": 1,
          "Kind": 4
        },
        {
          "Start": 39,
          "End": 43,
          "Text": "{I know a man who is very friendly}",
          "Ruby": "aɪ noʊ ə mæn hu ɪz ˈvɛri ˈfrɛndli",
          "Lang": "en",
          "ProblemNo": 2,
          "Kind": 1
        },
        {
          "Start": 43,
          "End": 44,
          "Text": "{men}",
          "Ruby": "mɛn",
          "Lang": "en",
          "ProblemNo": 2,
          "Kind": 2
        },
        {
          "Start": 44,
          "End": 46,
          "Text": "{are very friendly}",
          "Ruby": "ər ˈvɛri ˈfrɛndli",
          "Lang": "en",
          "ProblemNo": 2,
          "Kind": 2
        },
        {
          "Start": 46,
          "End": 51,
          "Text": "{I know men who are very friendly}",
          "Ruby": "aɪ noʊ mɛn hu ər ˈvɛri ˈfrɛndli",
          "Lang": "en",
          "ProblemNo": 2,
          "Kind": 3
        },
        {
          "Start": 51,
          "End": 57,
          "Text": "{I know men who are very friendly}",
          "Ruby": "aɪ noʊ mɛn hu ər ˈvɛri ˈfrɛndli",
          "Lang": "en",
          "ProblemNo": 2,
          "Kind": 4
        },
        {
          "Start": 57,
          "End": 61,
          "Text": "{I know men who are very friendly}",
          "Ruby": "aɪ noʊ mɛn hu ər ˈvɛri ˈfrɛndli",
          "Lang": "en",
          "ProblemNo": 3,
          "Kind": 1
        },
        {
          "Start": 61,
          "End": 63,
          "Text": "{love justice}",
          "Ruby": "ləv ˈʤəstɪs",
          "Lang": "en",
          "ProblemNo": 3,
          "Kind": 2
        },
        {
          "Start": 63,
          "End": 68,
          "Text": "{I know men who love justice}",
          "Ruby": "aɪ noʊ mɛn hu ləv ˈʤəstɪs",
          "Lang": "en",
          "ProblemNo": 3,
          "Kind": 3
        },
        {
          "Start": 68,
          "End": 74,
          "Text": "{I know men who love justice}",
          "Ruby": "aɪ noʊ mɛn hu ləv ˈʤəstɪs",
          "Lang": "en",
          "ProblemNo": 3,
          "Kind": 4
        },
        {
          "Start": 74,
          "End": 78,
          "Text": "{I know men who love justice}",
          "Ruby": "aɪ noʊ mɛn hu ləv ˈʤəstɪs",
          "Lang": "en",
          "ProblemNo": 4,
          "Kind": 1
        },
        {
          "Start": 78,
          "End": 79,
          "Text": "{a man}",
          "Ruby": "ə mæn",
          "Lang": "en",
          "ProblemNo": 4,
          "Kind": 2
        },
        {
          "Start": 79,
          "End": 81,
          "Text": "{loves justice}",
          "Ruby": "ləvz ˈʤəstɪs",
          "Lang": "en",
          "ProblemNo": 4,
          "Kind": 2
        },
        {
          "Start": 81,
          "End": 86,
          "Text": "{I know a man who loves justice}",
          "Ruby": "aɪ noʊ ə mæn hu ləvz ˈʤəstɪs",
          "Lang": "en",
          "ProblemNo": 4,
          "Kind": 3
        },
        {
          "Start": 86,
          "End": 92,
          "Text": "{I know a man who loves justice}",
          "Ruby": "aɪ noʊ ə mæn hu ləvz ˈʤəstɪs",
          "Lang": "en",
          "ProblemNo": 4,
          "Kind": 4
        },
        {
          "Start": 92,
          "End": 95,
          "Text": "",
          "Ruby": "",
          "Lang": "",
          "ProblemNo": 0,
          "Kind": 5
        },
        {
          "Start": 95,
          "End": 98,
          "Text": "{I know men who do not sing}",
          "Ruby": "aɪ noʊ mɛn hu du nɑt sɪŋ",
          "Lang": "en",
          "ProblemNo": 0,
          "Kind": 1
        },
        {
          "Start": 98,
          "End": 99,
          "Text": "{a man}",
          "Ruby": "ə mæn",
          "Lang": "en",
          "ProblemNo": 0,
          "Kind": 2
        },
        {
          "Start": 99,
          "End": 104,
          "Text": "{I know a man who does not sing}",
          "Ruby": "aɪ noʊ ə mæn hu dɪz nɑt sɪŋ",
          "Lang": "en",
          "ProblemNo": 0,
          "Kind": 3
        },
        {
          "Start": 104,
          "End": 110,
          "Text": "{I know a man who does not sing}",
          "Ruby": "aɪ noʊ ə mæn hu dɪz nɑt sɪŋ",
          "Lang": "en",
          "ProblemNo": 0,
          "Kind": 4
        },
        {
          "Start": 110,
          "End": 114,
          "Text": "{I know a man who does not sing}",
          "Ruby": "aɪ noʊ ə mæn hu dɪz nɑt sɪŋ",
          "Lang": "en",
          "ProblemNo": 1,
          "Kind": 1
        },
        {
          "Start": 114,
          "End": 116,
          "Text": "{is very friendly}",
          "Ruby": "ɪz ˈvɛri ˈfrɛndli",
          "Lang": "en",
          "ProblemNo": 1,
          "Kind": 2
        },
        {
          "Start": 116,
          "End": 121,
          "Text": "{I know a man who is very friendly}",
          "Ruby": "aɪ noʊ ə mæn hu ɪz ˈvɛri ˈfrɛndli",
          "Lang": "en",
          "ProblemNo": 1,
          "Kind": 3
        },
        {
          "Start": 121,
          "End": 127,
          "Text": "{I know a man who is very friendly}",
          "Ruby": "aɪ noʊ ə mæn hu ɪz ˈvɛri ˈfrɛndli",
          "Lang": "en",
          "ProblemNo": 1,
          "Kind": 4
        },
        {
          "Start": 127,
          "End": 131,
          "Text": "{I know a man who is very friendly}",
          "Ruby": "aɪ noʊ ə mæn hu ɪz ˈvɛri ˈfrɛndli",
          "Lang": "en",
          "ProblemNo": 2,
          "Kind": 1
        },
        {
          "Start": 131,
          "End": 132,
          "Text": "{men}",
          "Ruby": "mɛn",
          "Lang": "en",
          "ProblemNo": 2,
          "Kind": 2
        },
        {
          "Start": 132,
          "End": 137,
          "Text": "{I know men who are very friendly}",
          "Ruby": "aɪ noʊ mɛn hu ər ˈvɛri ˈfrɛndli",
          "Lang": "en",
          "ProblemNo": 2,
          "Kind": 3
        },
        {
          "Start": 137,
          "End": 143,
          "Text": "{I know men who are very friendly}",
          "Ruby": "aɪ noʊ mɛn hu ər ˈvɛri ˈfrɛndli",
          "Lang": "en",
          "ProblemNo": 2,
          "Kind": 4
        },
        {
          "Start": 143,
          "End": 147,
          "Text": "{I know men who are very friendly}",
          "Ruby": "aɪ noʊ mɛn hu ər ˈvɛri ˈfrɛndli",
          "Lang": "en",
          "ProblemNo": 3,
          "Kind": 1
        },
        {
          "Start": 147,
          "End": 149,
          "Text": "{love justice}",
          "Ruby": "ləv ˈʤəstɪs",
          "Lang": "en",
          "ProblemNo": 3,
          "Kind": 2
        },
        {
          "Start": 149,
          "End": 154,
          "Text": "{I know men who love justice}",
          "Ruby": "aɪ noʊ mɛn hu ləv ˈʤəstɪs",
          "Lang": "en",
          "ProblemNo": 3,
          "Kind": 3
        },
        {
          "Start": 154,
          "End": 160,
          "Text": "{I know men who love justice}",
          "Ruby": "aɪ noʊ mɛn hu ləv ˈʤəstɪs",
          "Lang": "en",
          "ProblemNo": 3,
          "Kind": 4
        },
        {
          "Start": 160,
          "End": 164,
          "Text": "{I know men who love justice}",
          "Ruby": "aɪ noʊ mɛn hu ləv ˈʤəstɪs",
          "Lang": "en",
          "ProblemNo": 4,
          "Kind": 1
        },
        {
          "Start": 164,
          "End": 165,
          "Text": "{a man}",
          "Ruby": "ə mæn",
          "Lang": "en",
          "ProblemNo": 4,
          "Kind": 2
        },
        {
          "Start": 165,
          "End": 170,
          "Text": "{I know a man who loves justice}",
          "Ruby": "aɪ noʊ ə mæn hu ləvz ˈʤəstɪs",
          "Lang": "en",
          "ProblemNo": 4,
          "Kind": 3
        },
        {
          "Start": 170,
          "End": 176,
          "Text": "{I know a man who loves justice}",
          "Ruby": "aɪ noʊ ə mæn hu ləvz ˈʤəstɪs",
          "Lang": "en",
          "ProblemNo": 4,
          "Kind": 4
        },
        {
          "Start": 176,
          "End": 179,
          "Text": "",
          "Ruby": "",
          "Lang": "",
          "ProblemNo": 0,
          "Kind": 5
        },
        {
          "Start": 179,
          "End": 182,
          "Text": "{I know men who do not sing}",
          "Ruby": "aɪ noʊ mɛn hu du nɑt sɪŋ",
          "Lang": "en",
          "ProblemNo": 0,
          "Kind": 1
        },
        {
          "Start": 182,
          "End": 183,
          "Text": "{a man}",
          "Ruby": "ə mæn",
          "Lang": "en",
          "ProblemNo": 0,
          "Kind": 2
        },
        {
          "Start": 183,
          "End": 188,
          "Text": "{I know a man who does not sing}",
          "Ruby": "aɪ noʊ ə mæn hu dɪz nɑt sɪŋ",
          "Lang": "en",
          "ProblemNo": 0,
          "Kind": 3
        },
        {
          "Start": 188,
          "End": 194,
          "Text": "{I know a man who does not sing}",
          "Ruby": "aɪ noʊ ə mæn hu dɪz nɑt sɪŋ",
          "Lang": "en",
          "ProblemNo": 0,
          "Kind": 4
        },
        {
          "Start": 194,
          "End": 198,
          "Text": "{I know a man who does not sing}",
          "Ruby": "aɪ noʊ ə mæn hu dɪz nɑt sɪŋ",
          "Lang": "en",
          "ProblemNo": 1,
          "Kind": 1
        },
        {
          "Start": 198,
          "End": 200,
          "Text": "{is very friendly}",
          "Ruby": "ɪz ˈvɛri ˈfrɛndli",
          "Lang": "en",
          "ProblemNo": 1,
          "Kind": 2
        },
        {
          "Start": 200,
          "End": 205,
          "Text": "{I know a man who is very friendly}",
          "Ruby": "aɪ noʊ ə mæn hu ɪz ˈvɛri ˈfrɛndli",
          "Lang": "en",
          "ProblemNo": 1,
          "Kind": 3
        },
        {
          "Start": 205,
          "End": 211,
          "Text": "{I know a man who is very friendly}",
          "Ruby": "aɪ noʊ ə mæn hu ɪz ˈvɛri ˈfrɛndli",
          "Lang": "en",
          "ProblemNo": 1,
          "Kind": 4
        },
        {
          "Start": 211,
          "End": 215,
          "Text": "{I know a man who is very friendly}",
          "Ruby": "aɪ noʊ ə mæn hu ɪz ˈvɛri ˈfrɛndli",
          "Lang": "en",
          "ProblemNo": 2,
          "Kind": 1
        },
        {
          "Start": 215,
          "End": 216,
          "Text": "{men}",
          "Ruby": "mɛn",
          "Lang": "en",
          "ProblemNo": 2,
          "Kind": 2
        },
        {
          "Start": 216,
          "End": 221,
          "Text": "{I know men who are very friendly}",
          "Ruby": "aɪ noʊ mɛn hu ər ˈvɛri ˈfrɛndli",
          "Lang": "en",
          "ProblemNo": 2,
          "Kind": 3
        },
        {
          "Start": 221,
          "End": 227,
          "Text": "{I know men who are very friendly}",
          "Ruby": "aɪ noʊ mɛn hu ər ˈvɛri ˈfrɛndli",
          "Lang": "en",
          "ProblemNo": 2,
          "Kind": 4
        },
        {
          "Start": 227,
          "End": 231,
          "Text": "{I know men who are very friendly}",
          "Ruby": "aɪ noʊ mɛn hu ər ˈvɛri ˈfrɛndli",
          "Lang": "en",
          "ProblemNo": 3,
          "Kind": 1
        },
        {
          "Start": 231,
          "End": 233,
          "Text": "{love justice}",
          "Ruby": "ləv ˈʤəstɪs",
          "Lang": "en",
          "ProblemNo": 3,
          "Kind": 2
        },
        {
          "Start": 233,
          "End": 238,
          "Text": "{I know men who love justice}",
          "Ruby": "aɪ noʊ mɛn hu ləv ˈʤəstɪs",
          "Lang": "en",
          "ProblemNo": 3,
          "Kind": 3
        },
        {
          "Start": 238,
          "End": 244,
          "Text": "{I know men who love justice}",
          "Ruby": "aɪ noʊ mɛn hu ləv ˈʤəstɪs",
          "Lang": "en",
          "ProblemNo": 3,
          "Kind": 4
        },
        {
          "Start": 244,
          "End": 248,
          "Text": "{I know men who love justice}",
          "Ruby": "aɪ noʊ mɛn hu ləv ˈʤəstɪs",
          "Lang": "en",
          "ProblemNo": 4,
          "Kind": 1
        },
        {
          "Start": 248,
          "End": 249,
          "Text": "{a man}",
          "Ruby": "ə mæn",
          "Lang": "en",
          "ProblemNo": 4,
          "Kind": 2
        },
        {
          "Start": 249,
          "End": 254,
          "Text": "{I know a man who loves justice}",
          "Ruby": "aɪ noʊ ə mæn hu ləvz ˈʤəstɪs",
          "Lang": "en",
          "ProblemNo": 4,
          "Kind": 3
        },
        {
          "Start": 254,
          "End": 260,
          "Text": "{I know a man who loves justice}",
          "Ruby": "aɪ noʊ ə mæn hu ləvz ˈʤəstɪs",
          "Lang": "en",
          "ProblemNo": 4,
          "Kind": 4
        },
        {
          "Start": 260,
          "End": 263,
          "Text": "",
          "Ruby": "",
          "Lang": "",
          "ProblemNo": 0,
          "Kind": 5
        },
        {
          "Start": 263,
          "End": 283,
          "Text": "{Please subscribe!}",
          "Ruby": "",
          "Lang": "en",
          "ProblemNo": 0,
          "Kind": 7
        }
      ]
    }
  ],
  "CannotChange": true
}