{
  "Name": "math-mul",
  "ID": "PLfI6UBkxvOTmFVvgnzA1eJ4JT1SfSOzVM",
  "DefaultLang": "lo",
  "Title": "2❎ກາຍເປັນແມ່ບົດຄະນິດສາດ! 💯 ຊັ້ນຮຽນທີ 2 ຄະນິດສາດ | ຄູນ",
  "Description": "ກະລຸນາເວົ້າວ່າຄໍາຕອບອອກ loud! 🗣",
  "Localizations": null,
  "PlaylistTags": "math,2nd grade,multiplication,ຊັ້ນຮຽນທີ 2,ໂຮງ​ຮຽນ​ປະ​ຖົມ,ຄະນິດສາດ,ຄູນ",
  "Updated": true,
  "PlaylistItems": [
    {
      "ID": "UExmSTZVQmt4dk9UbUZWdmduekExZUo0SlQxU2ZTT3pWTS41NkI0NEY2RDEwNTU3Q0M2",
      "VideoID": "yROHlVbEDT8",
      "VideoFile": "math-mul_1.webm"
    },
    {
      "ID": "UExmSTZVQmt4dk9UbUZWdmduekExZUo0SlQxU2ZTT3pWTS4yODlGNEE0NkRGMEEzMEQy",
      "VideoID": "dlppgFkmfpM",
      "VideoFile": "math-mul_10.webm"
    },
    {
      "ID": "UExmSTZVQmt4dk9UbUZWdmduekExZUo0SlQxU2ZTT3pWTS4wMTcyMDhGQUE4NTIzM0Y5",
      "VideoID": "XmwLiZVo3Ac",
      "VideoFile": "math-mul_11.webm"
    },
    {
      "ID": "UExmSTZVQmt4dk9UbUZWdmduekExZUo0SlQxU2ZTT3pWTS41MjE1MkI0OTQ2QzJGNzNG",
      "VideoID": "73Y_6fVDGZo",
      "VideoFile": "math-mul_12,13.webm"
    },
    {
      "ID": "UExmSTZVQmt4dk9UbUZWdmduekExZUo0SlQxU2ZTT3pWTS4wOTA3OTZBNzVEMTUzOTMy",
      "VideoID": "naZMxB6u5KQ",
      "VideoFile": "math-mul_14,15.webm"
    },
    {
      "ID": "UExmSTZVQmt4dk9UbUZWdmduekExZUo0SlQxU2ZTT3pWTS4xMkVGQjNCMUM1N0RFNEUx",
      "VideoID": "4Kz1fpyQTTg",
      "VideoFile": "math-mul_16,17.webm"
    },
    {
      "ID": "UExmSTZVQmt4dk9UbUZWdmduekExZUo0SlQxU2ZTT3pWTS41MzJCQjBCNDIyRkJDN0VD",
      "VideoID": "PchyEZqNWqI",
      "VideoFile": "math-mul_18,19.webm"
    },
    {
      "ID": "UExmSTZVQmt4dk9UbUZWdmduekExZUo0SlQxU2ZTT3pWTS5DQUNERDQ2NkIzRUQxNTY1",
      "VideoID": "0UyIiadCmIQ",
      "VideoFile": "math-mul_2.webm"
    },
    {
      "ID": "UExmSTZVQmt4dk9UbUZWdmduekExZUo0SlQxU2ZTT3pWTS45NDk1REZENzhEMzU5MDQz",
      "VideoID": "yQbN99Ic8Xc",
      "VideoFile": "math-mul_20,21.webm"
    },
    {
      "ID": "UExmSTZVQmt4dk9UbUZWdmduekExZUo0SlQxU2ZTT3pWTS5GNjNDRDREMDQxOThCMDQ2",
      "VideoID": "4c-NpbEZKjY",
      "VideoFile": "math-mul_22,23.webm"
    },
    {
      "ID": "UExmSTZVQmt4dk9UbUZWdmduekExZUo0SlQxU2ZTT3pWTS40NzZCMERDMjVEN0RFRThB",
      "VideoID": "rC4w6iythic",
      "VideoFile": "math-mul_24,25,26.webm"
    },
    {
      "ID": "UExmSTZVQmt4dk9UbUZWdmduekExZUo0SlQxU2ZTT3pWTS5EMEEwRUY5M0RDRTU3NDJC",
      "VideoID": "DIX-N7cqeCc",
      "VideoFile": "math-mul_27,28,29.webm"
    },
    {
      "ID": "UExmSTZVQmt4dk9UbUZWdmduekExZUo0SlQxU2ZTT3pWTS45ODRDNTg0QjA4NkFBNkQy",
      "VideoID": "h1KNeRHFRlc",
      "VideoFile": "math-mul_3.webm"
    },
    {
      "ID": "UExmSTZVQmt4dk9UbUZWdmduekExZUo0SlQxU2ZTT3pWTS4zMDg5MkQ5MEVDMEM1NTg2",
      "VideoID": "JD3ewr9EEGE",
      "VideoFile": "math-mul_30,31,32.webm"
    },
    {
      "ID": "UExmSTZVQmt4dk9UbUZWdmduekExZUo0SlQxU2ZTT3pWTS41Mzk2QTAxMTkzNDk4MDhF",
      "VideoID": "cKMdAFfoYj0",
      "VideoFile": "math-mul_33,34,35.webm"
    },
    {
      "ID": "UExmSTZVQmt4dk9UbUZWdmduekExZUo0SlQxU2ZTT3pWTS5EQUE1NTFDRjcwMDg0NEMz",
      "VideoID": "UtqX4q0Vqys",
      "VideoFile": "math-mul_36,37,38,39.webm"
    },
    {
      "ID": "UExmSTZVQmt4dk9UbUZWdmduekExZUo0SlQxU2ZTT3pWTS41QTY1Q0UxMTVCODczNThE",
      "VideoID": "WtDs-fABOyE",
      "VideoFile": "math-mul_4.webm"
    },
    {
      "ID": "UExmSTZVQmt4dk9UbUZWdmduekExZUo0SlQxU2ZTT3pWTS4yMUQyQTQzMjRDNzMyQTMy",
      "VideoID": "9dVrCFaaXic",
      "VideoFile": "math-mul_40,41,42,43.webm"
    },
    {
      "ID": "UExmSTZVQmt4dk9UbUZWdmduekExZUo0SlQxU2ZTT3pWTS45RTgxNDRBMzUwRjQ0MDhC",
      "VideoID": "zq4UR9DanZg",
      "VideoFile": "math-mul_44,45,46,47.webm"
    },
    {
      "ID": "UExmSTZVQmt4dk9UbUZWdmduekExZUo0SlQxU2ZTT3pWTS5ENDU4Q0M4RDExNzM1Mjcy",
      "VideoID": "-XEUrdhPjrw",
      "VideoFile": "math-mul_5.webm"
    },
    {
      "ID": "UExmSTZVQmt4dk9UbUZWdmduekExZUo0SlQxU2ZTT3pWTS4yMDhBMkNBNjRDMjQxQTg1",
      "VideoID": "P78S7GA06KM",
      "VideoFile": "math-mul_6.webm"
    },
    {
      "ID": "UExmSTZVQmt4dk9UbUZWdmduekExZUo0SlQxU2ZTT3pWTS5GM0Q3M0MzMzY5NTJFNTdE",
      "VideoID": "KgD89LvJ_sM",
      "VideoFile": "math-mul_7.webm"
    },
    {
      "ID": "UExmSTZVQmt4dk9UbUZWdmduekExZUo0SlQxU2ZTT3pWTS4zRjM0MkVCRTg0MkYyQTM0",
      "VideoID": "OGpTV843ZDY",
      "VideoFile": "math-mul_8.webm"
    },
    {
      "ID": "UExmSTZVQmt4dk9UbUZWdmduekExZUo0SlQxU2ZTT3pWTS45NzUwQkI1M0UxNThBMkU0",
      "VideoID": "lMYnu2kxybk",
      "VideoFile": "math-mul_9.webm"
    }
  ]
}