{
  "Name": "math-mul",
  "ID": "PLfI6UBkxvOTm3u1dtpnpOXKH5B9380BsE",
  "DefaultLang": "fi",
  "Title": "2❎Ryhdy matematiikka mestari! 💯 2. luokka Matematiikka | kertolasku",
  "Description": "Voisitteko kertoa vastauksen ääneen! 🗣",
  "Localizations": null,
  "PlaylistTags": "math,2nd grade,multiplication,2. luokka,peruskoulu,matematiikka,kertolasku",
  "Updated": true,
  "PlaylistItems": [
    {
      "ID": "UExmSTZVQmt4dk9UbTN1MWR0cG5wT1hLSDVCOTM4MEJzRS41NkI0NEY2RDEwNTU3Q0M2",
      "VideoID": "yROHlVbEDT8",
      "VideoFile": "math-mul_1.webm"
    },
    {
      "ID": "UExmSTZVQmt4dk9UbTN1MWR0cG5wT1hLSDVCOTM4MEJzRS4yODlGNEE0NkRGMEEzMEQy",
      "VideoID": "dlppgFkmfpM",
      "VideoFile": "math-mul_10.webm"
    },
    {
      "ID": "UExmSTZVQmt4dk9UbTN1MWR0cG5wT1hLSDVCOTM4MEJzRS4wMTcyMDhGQUE4NTIzM0Y5",
      "VideoID": "XmwLiZVo3Ac",
      "VideoFile": "math-mul_11.webm"
    },
    {
      "ID": "UExmSTZVQmt4dk9UbTN1MWR0cG5wT1hLSDVCOTM4MEJzRS41MjE1MkI0OTQ2QzJGNzNG",
      "VideoID": "73Y_6fVDGZo",
      "VideoFile": "math-mul_12,13.webm"
    },
    {
      "ID": "UExmSTZVQmt4dk9UbTN1MWR0cG5wT1hLSDVCOTM4MEJzRS4wOTA3OTZBNzVEMTUzOTMy",
      "VideoID": "naZMxB6u5KQ",
      "VideoFile": "math-mul_14,15.webm"
    },
    {
      "ID": "UExmSTZVQmt4dk9UbTN1MWR0cG5wT1hLSDVCOTM4MEJzRS4xMkVGQjNCMUM1N0RFNEUx",
      "VideoID": "4Kz1fpyQTTg",
      "VideoFile": "math-mul_16,17.webm"
    },
    {
      "ID": "UExmSTZVQmt4dk9UbTN1MWR0cG5wT1hLSDVCOTM4MEJzRS41MzJCQjBCNDIyRkJDN0VD",
      "VideoID": "PchyEZqNWqI",
      "VideoFile": "math-mul_18,19.webm"
    },
    {
      "ID": "UExmSTZVQmt4dk9UbTN1MWR0cG5wT1hLSDVCOTM4MEJzRS5DQUNERDQ2NkIzRUQxNTY1",
      "VideoID": "0UyIiadCmIQ",
      "VideoFile": "math-mul_2.webm"
    },
    {
      "ID": "UExmSTZVQmt4dk9UbTN1MWR0cG5wT1hLSDVCOTM4MEJzRS45NDk1REZENzhEMzU5MDQz",
      "VideoID": "yQbN99Ic8Xc",
      "VideoFile": "math-mul_20,21.webm"
    },
    {
      "ID": "UExmSTZVQmt4dk9UbTN1MWR0cG5wT1hLSDVCOTM4MEJzRS5GNjNDRDREMDQxOThCMDQ2",
      "VideoID": "4c-NpbEZKjY",
      "VideoFile": "math-mul_22,23.webm"
    },
    {
      "ID": "UExmSTZVQmt4dk9UbTN1MWR0cG5wT1hLSDVCOTM4MEJzRS40NzZCMERDMjVEN0RFRThB",
      "VideoID": "rC4w6iythic",
      "VideoFile": "math-mul_24,25,26.webm"
    },
    {
      "ID": "UExmSTZVQmt4dk9UbTN1MWR0cG5wT1hLSDVCOTM4MEJzRS5EMEEwRUY5M0RDRTU3NDJC",
      "VideoID": "DIX-N7cqeCc",
      "VideoFile": "math-mul_27,28,29.webm"
    },
    {
      "ID": "UExmSTZVQmt4dk9UbTN1MWR0cG5wT1hLSDVCOTM4MEJzRS45ODRDNTg0QjA4NkFBNkQy",
      "VideoID": "h1KNeRHFRlc",
      "VideoFile": "math-mul_3.webm"
    },
    {
      "ID": "UExmSTZVQmt4dk9UbTN1MWR0cG5wT1hLSDVCOTM4MEJzRS4zMDg5MkQ5MEVDMEM1NTg2",
      "VideoID": "JD3ewr9EEGE",
      "VideoFile": "math-mul_30,31,32.webm"
    },
    {
      "ID": "UExmSTZVQmt4dk9UbTN1MWR0cG5wT1hLSDVCOTM4MEJzRS41Mzk2QTAxMTkzNDk4MDhF",
      "VideoID": "cKMdAFfoYj0",
      "VideoFile": "math-mul_33,34,35.webm"
    },
    {
      "ID": "UExmSTZVQmt4dk9UbTN1MWR0cG5wT1hLSDVCOTM4MEJzRS5EQUE1NTFDRjcwMDg0NEMz",
      "VideoID": "UtqX4q0Vqys",
      "VideoFile": "math-mul_36,37,38,39.webm"
    },
    {
      "ID": "UExmSTZVQmt4dk9UbTN1MWR0cG5wT1hLSDVCOTM4MEJzRS41QTY1Q0UxMTVCODczNThE",
      "VideoID": "WtDs-fABOyE",
      "VideoFile": "math-mul_4.webm"
    },
    {
      "ID": "UExmSTZVQmt4dk9UbTN1MWR0cG5wT1hLSDVCOTM4MEJzRS4yMUQyQTQzMjRDNzMyQTMy",
      "VideoID": "9dVrCFaaXic",
      "VideoFile": "math-mul_40,41,42,43.webm"
    },
    {
      "ID": "UExmSTZVQmt4dk9UbTN1MWR0cG5wT1hLSDVCOTM4MEJzRS45RTgxNDRBMzUwRjQ0MDhC",
      "VideoID": "zq4UR9DanZg",
      "VideoFile": "math-mul_44,45,46,47.webm"
    },
    {
      "ID": "UExmSTZVQmt4dk9UbTN1MWR0cG5wT1hLSDVCOTM4MEJzRS5ENDU4Q0M4RDExNzM1Mjcy",
      "VideoID": "-XEUrdhPjrw",
      "VideoFile": "math-mul_5.webm"
    },
    {
      "ID": "UExmSTZVQmt4dk9UbTN1MWR0cG5wT1hLSDVCOTM4MEJzRS4yMDhBMkNBNjRDMjQxQTg1",
      "VideoID": "P78S7GA06KM",
      "VideoFile": "math-mul_6.webm"
    },
    {
      "ID": "UExmSTZVQmt4dk9UbTN1MWR0cG5wT1hLSDVCOTM4MEJzRS5GM0Q3M0MzMzY5NTJFNTdE",
      "VideoID": "KgD89LvJ_sM",
      "VideoFile": "math-mul_7.webm"
    },
    {
      "ID": "UExmSTZVQmt4dk9UbTN1MWR0cG5wT1hLSDVCOTM4MEJzRS4zRjM0MkVCRTg0MkYyQTM0",
      "VideoID": "OGpTV843ZDY",
      "VideoFile": "math-mul_8.webm"
    },
    {
      "ID": "UExmSTZVQmt4dk9UbTN1MWR0cG5wT1hLSDVCOTM4MEJzRS45NzUwQkI1M0UxNThBMkU0",
      "VideoID": "lMYnu2kxybk",
      "VideoFile": "math-mul_9.webm"
    }
  ]
}