<!--?xml version="1.0" encoding="utf-8"?-->
<!-- Generator: Adobe Illustrator 18.0.0, SVG Export Plug-In . SVG Version: 6.00 Build 0)  -->

<svg version="1.1" id="_x32_" xmlns="http://www.w3.org/2000/svg" xmlns:xlink="http://www.w3.org/1999/xlink" x="0px" y="0px" viewBox="0 0 512 512" style="width: 256px; height: 256px; opacity: 1;" xml:space="preserve">
<g>
	<path class="st0" d="M316.761,327.239c-1.49-14.854,0.701-29.826,3.158-40.851c9.621-10.09,17.888-25.136,26.434-48.966
		c12.758-4.626,25.74-15.365,31.846-41.93c2.812-12.234-1.951-23.573-10.228-31.761c6.096-20.18,30.144-113.704-40.967-132.955
		C303.445,1.098,282.724,2.203,247.201,5.62c-17.67,1.699-20.196,5.444-33.746,3.424c-15.541-2.32-28.136-7.086-31.924-8.996
		c-2.182-1.105-22.758,17.016-28.528,31.85c-18.279,46.991-13.539,79.284-9.025,103.714c-0.162,2.498-0.379,4.988-0.389,7.516
		l4.15,17.898c0.012,0.184-0.002,0.36,0.004,0.544c-9.207,8.19-14.779,20.068-11.908,33.011
		c5.906,26.618,18.815,37.451,31.545,42.17c8.363,23.882,16.504,38.984,26.045,49.146c2.379,11.036,4.459,26.037,2.856,40.888
		c-6.697,62.214-137.533,28.938-137.946,138.217c-0.064,16.853,56.301,46.459,197.49,46.989
		c141.19,0.531,197.776-28.648,197.838-45.501C454.076,357.21,322.992,389.502,316.761,327.239z M232.972,493.819l-35.295-145.722
		l44.027,18.518l-2.453,21.296l7.006-0.125L232.972,493.819z M276.828,388.052l-2.291-21.314l44.164-18.186L282.31,494.005
		l-12.486-106.131L276.828,388.052z" style="fill: rgba(0,0,0,1);"></path>
</g>
</svg>
