{
  "Name": "grammar-fil-a",
  "ID": "PLfI6UBkxvOTlXz3E-cdoR4W3ARbd3A4ZL",
  "DefaultLang": "ml",
  "Title": "ഫിലിപ്പിനോ (തഗാലോഗ്) വ്യാകരണ വ്യായാമങ്ങൾ ⭐️ വ്യാകരണ വ്യായാമങ്ങൾ",
  "Description": "ഫിലിപ്പിനോ സംസാരിക്കുക!",
  "Localizations": null,
  "PlaylistTags": "ഫിലിപ്പിനോ വ്യാകരണം,തഗാലോഗ്,വ്യാകരണം",
  "Updated": true,
  "PlaylistItems": [
    {
      "ID": "UExmSTZVQmt4dk9UbFh6M0UtY2RvUjRXM0FSYmQzQTRaTC41NkI0NEY2RDEwNTU3Q0M2",
      "VideoID": "KjkdZoTKSCU",
      "VideoFile": "grammar-fil-a_1_A.mp4"
    },
    {
      "ID": "UExmSTZVQmt4dk9UbFh6M0UtY2RvUjRXM0FSYmQzQTRaTC4yODlGNEE0NkRGMEEzMEQy",
      "VideoID": "W8mx1-WfHUA",
      "VideoFile": "grammar-fil-a_2_A.mp4"
    },
    {
      "ID": "UExmSTZVQmt4dk9UbFh6M0UtY2RvUjRXM0FSYmQzQTRaTC4wMTcyMDhGQUE4NTIzM0Y5",
      "VideoID": "Juyy8bjRRYY",
      "VideoFile": "grammar-fil-a_3_A.mp4"
    },
    {
      "ID": "UExmSTZVQmt4dk9UbFh6M0UtY2RvUjRXM0FSYmQzQTRaTC41MjE1MkI0OTQ2QzJGNzNG",
      "VideoID": "7wGVLz6jpG8",
      "VideoFile": "grammar-fil-a_4_A.mp4"
    },
    {
      "ID": "UExmSTZVQmt4dk9UbFh6M0UtY2RvUjRXM0FSYmQzQTRaTC4wOTA3OTZBNzVEMTUzOTMy",
      "VideoID": "BKDs0gKs8-0",
      "VideoFile": "grammar-fil-a_5_A.mp4"
    },
    {
      "ID": "UExmSTZVQmt4dk9UbFh6M0UtY2RvUjRXM0FSYmQzQTRaTC4xMkVGQjNCMUM1N0RFNEUx",
      "VideoID": "MSzjHxPKzWA",
      "VideoFile": "grammar-fil-a_6_A.mp4"
    },
    {
      "ID": "UExmSTZVQmt4dk9UbFh6M0UtY2RvUjRXM0FSYmQzQTRaTC41MzJCQjBCNDIyRkJDN0VD",
      "VideoID": "5vh0qqc6ZZw",
      "VideoFile": "grammar-fil-a_7_A.mp4"
    },
    {
      "ID": "UExmSTZVQmt4dk9UbFh6M0UtY2RvUjRXM0FSYmQzQTRaTC5DQUNERDQ2NkIzRUQxNTY1",
      "VideoID": "FY1EqVRPeGk",
      "VideoFile": "grammar-fil-a_8_A.mp4"
    },
    {
      "ID": "UExmSTZVQmt4dk9UbFh6M0UtY2RvUjRXM0FSYmQzQTRaTC45NDk1REZENzhEMzU5MDQz",
      "VideoID": "JFrQovcPGPM",
      "VideoFile": "grammar-fil-a_9_A.mp4"
    },
    {
      "ID": "UExmSTZVQmt4dk9UbFh6M0UtY2RvUjRXM0FSYmQzQTRaTC5GNjNDRDREMDQxOThCMDQ2",
      "VideoID": "VsRNHz61hKs",
      "VideoFile": "grammar-fil-a_10_A.mp4"
    },
    {
      "ID": "UExmSTZVQmt4dk9UbFh6M0UtY2RvUjRXM0FSYmQzQTRaTC40NzZCMERDMjVEN0RFRThB",
      "VideoID": "92eOpSh_PLg",
      "VideoFile": "grammar-fil-a_11_A.mp4"
    },
    {
      "ID": "UExmSTZVQmt4dk9UbFh6M0UtY2RvUjRXM0FSYmQzQTRaTC5EMEEwRUY5M0RDRTU3NDJC",
      "VideoID": "vZQy61tRc34",
      "VideoFile": "grammar-fil-a_12_A.mp4"
    },
    {
      "ID": "UExmSTZVQmt4dk9UbFh6M0UtY2RvUjRXM0FSYmQzQTRaTC45ODRDNTg0QjA4NkFBNkQy",
      "VideoID": "qeXhfWnqe8w",
      "VideoFile": "grammar-fil-a_13_A.mp4"
    }
  ]
}