{
  "Name": "grammar-fil-a",
  "ID": "PLfI6UBkxvOTloP-U61ZVEHt79OTAd2Djb",
  "DefaultLang": "eu",
  "Title": "Filipino (tagalog) gramatika ariketak ⭐️ Gramatika ariketak",
  "Description": "Hitz egin Filippina!",
  "Localizations": null,
  "PlaylistTags": "Filosofiako gramatika,Tagalog,Gramatika",
  "Updated": true,
  "PlaylistItems": [
    {
      "ID": "UExmSTZVQmt4dk9UbG9QLVU2MVpWRUh0NzlPVEFkMkRqYi41NkI0NEY2RDEwNTU3Q0M2",
      "VideoID": "KjkdZoTKSCU",
      "VideoFile": "grammar-fil-a_1_A.mp4"
    },
    {
      "ID": "UExmSTZVQmt4dk9UbG9QLVU2MVpWRUh0NzlPVEFkMkRqYi4yODlGNEE0NkRGMEEzMEQy",
      "VideoID": "W8mx1-WfHUA",
      "VideoFile": "grammar-fil-a_2_A.mp4"
    },
    {
      "ID": "UExmSTZVQmt4dk9UbG9QLVU2MVpWRUh0NzlPVEFkMkRqYi4wMTcyMDhGQUE4NTIzM0Y5",
      "VideoID": "Juyy8bjRRYY",
      "VideoFile": "grammar-fil-a_3_A.mp4"
    },
    {
      "ID": "UExmSTZVQmt4dk9UbG9QLVU2MVpWRUh0NzlPVEFkMkRqYi41MjE1MkI0OTQ2QzJGNzNG",
      "VideoID": "7wGVLz6jpG8",
      "VideoFile": "grammar-fil-a_4_A.mp4"
    },
    {
      "ID": "UExmSTZVQmt4dk9UbG9QLVU2MVpWRUh0NzlPVEFkMkRqYi4wOTA3OTZBNzVEMTUzOTMy",
      "VideoID": "BKDs0gKs8-0",
      "VideoFile": "grammar-fil-a_5_A.mp4"
    },
    {
      "ID": "UExmSTZVQmt4dk9UbG9QLVU2MVpWRUh0NzlPVEFkMkRqYi4xMkVGQjNCMUM1N0RFNEUx",
      "VideoID": "MSzjHxPKzWA",
      "VideoFile": "grammar-fil-a_6_A.mp4"
    },
    {
      "ID": "UExmSTZVQmt4dk9UbG9QLVU2MVpWRUh0NzlPVEFkMkRqYi41MzJCQjBCNDIyRkJDN0VD",
      "VideoID": "5vh0qqc6ZZw",
      "VideoFile": "grammar-fil-a_7_A.mp4"
    },
    {
      "ID": "UExmSTZVQmt4dk9UbG9QLVU2MVpWRUh0NzlPVEFkMkRqYi5DQUNERDQ2NkIzRUQxNTY1",
      "VideoID": "FY1EqVRPeGk",
      "VideoFile": "grammar-fil-a_8_A.mp4"
    },
    {
      "ID": "UExmSTZVQmt4dk9UbG9QLVU2MVpWRUh0NzlPVEFkMkRqYi45NDk1REZENzhEMzU5MDQz",
      "VideoID": "JFrQovcPGPM",
      "VideoFile": "grammar-fil-a_9_A.mp4"
    },
    {
      "ID": "UExmSTZVQmt4dk9UbG9QLVU2MVpWRUh0NzlPVEFkMkRqYi5GNjNDRDREMDQxOThCMDQ2",
      "VideoID": "VsRNHz61hKs",
      "VideoFile": "grammar-fil-a_10_A.mp4"
    },
    {
      "ID": "UExmSTZVQmt4dk9UbG9QLVU2MVpWRUh0NzlPVEFkMkRqYi40NzZCMERDMjVEN0RFRThB",
      "VideoID": "92eOpSh_PLg",
      "VideoFile": "grammar-fil-a_11_A.mp4"
    },
    {
      "ID": "UExmSTZVQmt4dk9UbG9QLVU2MVpWRUh0NzlPVEFkMkRqYi5EMEEwRUY5M0RDRTU3NDJC",
      "VideoID": "vZQy61tRc34",
      "VideoFile": "grammar-fil-a_12_A.mp4"
    },
    {
      "ID": "UExmSTZVQmt4dk9UbG9QLVU2MVpWRUh0NzlPVEFkMkRqYi45ODRDNTg0QjA4NkFBNkQy",
      "VideoID": "qeXhfWnqe8w",
      "VideoFile": "grammar-fil-a_13_A.mp4"
    }
  ]
}