{
  "Name": "grammar-fil-a",
  "ID": "PLfI6UBkxvOTmrFF3j5gXnks0FIMjtJA5F",
  "DefaultLang": "my",
  "Title": "ဖိလစ်ပိုင် (Tagalog) သဒ္ဒါလေ့ကျင့်ခန်း ⭐️ သဒ္ဒါလေ့ကျင့်ခန်းများ",
  "Description": "ဖိလစ်ပိုင်စကားပြောပါ",
  "Localizations": null,
  "PlaylistTags": "ဖိလစ်ပိုင်သဒ္ဒါ,တဂါးလော့ဂ်,သဒ္ဒါ",
  "Updated": true,
  "PlaylistItems": [
    {
      "ID": "UExmSTZVQmt4dk9UbXJGRjNqNWdYbmtzMEZJTWp0SkE1Ri41NkI0NEY2RDEwNTU3Q0M2",
      "VideoID": "KjkdZoTKSCU",
      "VideoFile": "grammar-fil-a_1_A.mp4"
    },
    {
      "ID": "UExmSTZVQmt4dk9UbXJGRjNqNWdYbmtzMEZJTWp0SkE1Ri4yODlGNEE0NkRGMEEzMEQy",
      "VideoID": "W8mx1-WfHUA",
      "VideoFile": "grammar-fil-a_2_A.mp4"
    },
    {
      "ID": "UExmSTZVQmt4dk9UbXJGRjNqNWdYbmtzMEZJTWp0SkE1Ri4wMTcyMDhGQUE4NTIzM0Y5",
      "VideoID": "Juyy8bjRRYY",
      "VideoFile": "grammar-fil-a_3_A.mp4"
    },
    {
      "ID": "UExmSTZVQmt4dk9UbXJGRjNqNWdYbmtzMEZJTWp0SkE1Ri41MjE1MkI0OTQ2QzJGNzNG",
      "VideoID": "7wGVLz6jpG8",
      "VideoFile": "grammar-fil-a_4_A.mp4"
    },
    {
      "ID": "UExmSTZVQmt4dk9UbXJGRjNqNWdYbmtzMEZJTWp0SkE1Ri4wOTA3OTZBNzVEMTUzOTMy",
      "VideoID": "BKDs0gKs8-0",
      "VideoFile": "grammar-fil-a_5_A.mp4"
    },
    {
      "ID": "UExmSTZVQmt4dk9UbXJGRjNqNWdYbmtzMEZJTWp0SkE1Ri4xMkVGQjNCMUM1N0RFNEUx",
      "VideoID": "MSzjHxPKzWA",
      "VideoFile": "grammar-fil-a_6_A.mp4"
    },
    {
      "ID": "UExmSTZVQmt4dk9UbXJGRjNqNWdYbmtzMEZJTWp0SkE1Ri41MzJCQjBCNDIyRkJDN0VD",
      "VideoID": "5vh0qqc6ZZw",
      "VideoFile": "grammar-fil-a_7_A.mp4"
    },
    {
      "ID": "UExmSTZVQmt4dk9UbXJGRjNqNWdYbmtzMEZJTWp0SkE1Ri5DQUNERDQ2NkIzRUQxNTY1",
      "VideoID": "FY1EqVRPeGk",
      "VideoFile": "grammar-fil-a_8_A.mp4"
    },
    {
      "ID": "UExmSTZVQmt4dk9UbXJGRjNqNWdYbmtzMEZJTWp0SkE1Ri45NDk1REZENzhEMzU5MDQz",
      "VideoID": "JFrQovcPGPM",
      "VideoFile": "grammar-fil-a_9_A.mp4"
    },
    {
      "ID": "UExmSTZVQmt4dk9UbXJGRjNqNWdYbmtzMEZJTWp0SkE1Ri5GNjNDRDREMDQxOThCMDQ2",
      "VideoID": "VsRNHz61hKs",
      "VideoFile": "grammar-fil-a_10_A.mp4"
    },
    {
      "ID": "UExmSTZVQmt4dk9UbXJGRjNqNWdYbmtzMEZJTWp0SkE1Ri40NzZCMERDMjVEN0RFRThB",
      "VideoID": "92eOpSh_PLg",
      "VideoFile": "grammar-fil-a_11_A.mp4"
    },
    {
      "ID": "UExmSTZVQmt4dk9UbXJGRjNqNWdYbmtzMEZJTWp0SkE1Ri5EMEEwRUY5M0RDRTU3NDJC",
      "VideoID": "vZQy61tRc34",
      "VideoFile": "grammar-fil-a_12_A.mp4"
    },
    {
      "ID": "UExmSTZVQmt4dk9UbXJGRjNqNWdYbmtzMEZJTWp0SkE1Ri45ODRDNTg0QjA4NkFBNkQy",
      "VideoID": "qeXhfWnqe8w",
      "VideoFile": "grammar-fil-a_13_A.mp4"
    }
  ]
}