{
  "VideoFile": "grammar-en-beginner_49_UK.mp4",
  "Captions": [
    {
      "ID": "tJ4Er9bf0y2SR5QzIAM5u8JwolbqdHBmuHkih2YvgMzN1Wt_RZZ9uA==",
      "Lang": "af",
      "CaptionKey": "translation",
      "CaptionName": "vertaling",
      "YoutubeSynced": true
    },
    {
      "ID": "qM88rl0OrecbmK5ig5nJ_nm9bqha3DurzB7GkMBN29soDEMt-09hQA==",
      "Lang": "am",
      "CaptionKey": "translation",
      "CaptionName": "ትርጉም",
      "YoutubeSynced": true
    },
    {
      "ID": "JOmI1rtdw_hnPbN3cTcj8N8oT3-Xlev7-RDvJwI8fKtr_q3zkeathg==",
      "Lang": "ar",
      "CaptionKey": "translation",
      "CaptionName": "ترجمة",
      "YoutubeSynced": true
    },
    {
      "ID": "JOmI1rtdw_hLcdpwkbxaUg0iZuFGUwcExilYO6MtSAn6txbzOz-NQQ==",
      "Lang": "az",
      "CaptionKey": "translation",
      "CaptionName": "Tərcümə",
      "YoutubeSynced": true
    },
    {
      "ID": "ggTyo8sLIj4q-taRp2GXtIxZ-AiwxJXKWOgQRJPnPczxD2YzexyaagE51Ab9qOeN",
      "Lang": "be",
      "CaptionKey": "translation",
      "CaptionName": "Пераклад",
      "YoutubeSynced": true
    },
    {
      "ID": "qM88rl0Ored-I2cFopZhh6bkIHkcDVROxNWf-0y7qFqkMabl3a4_6A==",
      "Lang": "bg",
      "CaptionKey": "translation",
      "CaptionName": "превод",
      "YoutubeSynced": true
    },
    {
      "ID": "LHnB6FNhdEXP-cdwXzaUIF5CkzFrCeX3PbootucYfYu1Cl3eYeyfiEiORLTKou-k",
      "Lang": "bn",
      "CaptionKey": "translation",
      "CaptionName": "অনুবাদ",
      "YoutubeSynced": true
    },
    {
      "ID": "XMgevO1OInMtNyGiCtRWQnwa8pVwBahSQLI6GENzsKA=",
      "Lang": "bs",
      "CaptionKey": "translation",
      "CaptionName": "Prevod",
      "YoutubeSynced": true
    },
    {
      "ID": "JOmI1rtdw_gNAIhNIo35xEaVY_PtSYFcWb4LIONDYl-dUn9JQyeKbg==",
      "Lang": "ca",
      "CaptionKey": "translation",
      "CaptionName": "Traducció",
      "YoutubeSynced": true
    },
    {
      "ID": "JOmI1rtdw_gdAXXDvChOb9supFXx5rAWqq7-FoD8Miw0tkvkQV0dSQ==",
      "Lang": "co",
      "CaptionKey": "translation",
      "CaptionName": "Traduzione",
      "YoutubeSynced": true
    },
    {
      "ID": "nJUPkUCO9YZ_JxGY1HjwyfxnSOdg6-6rnIPaHi66PzgCE0Xz2a7z1Q==",
      "Lang": "cs",
      "CaptionKey": "translation",
      "CaptionName": "Překlad",
      "YoutubeSynced": true
    },
    {
      "ID": "T2x07DFZB1QSD9IWm5NW3JU2nLum3HtwKhpEMG83HZIawa99pC7lKQ==",
      "Lang": "cy",
      "CaptionKey": "translation",
      "CaptionName": "Cyfieithiad",
      "YoutubeSynced": true
    },
    {
      "ID": "eeWkH46NtiKu2WGYV2lOB2muKP6mYM88WcHOYm-T2ElKZFkATPEzPw==",
      "Lang": "da",
      "CaptionKey": "translation",
      "CaptionName": "Oversættelse",
      "YoutubeSynced": true
    },
    {
      "ID": "qM88rl0OrecRzpnnrL9_vwiy9f-QnoX2pDSkR7Oea0Wz92ao7VBM-g==",
      "Lang": "de",
      "CaptionKey": "translation",
      "CaptionName": "Übersetzung",
      "YoutubeSynced": true
    },
    {
      "ID": "LHnB6FNhdEVKnh0LG0Z8qjgll8E4NIIe2oGm5Nbg7MTmDj1rvyuACYvg214tN5fy",
      "Lang": "el",
      "CaptionKey": "translation",
      "CaptionName": "Μετάφραση",
      "YoutubeSynced": true
    },
    {
      "ID": "T2x07DFZB1RT8VzVMCfOJeeiCpHz2p_Q9K2j8t45duU2yo9gq8i4vQ==",
      "Lang": "en",
      "CaptionKey": "translation",
      "CaptionName": "Translation",
      "YoutubeSynced": true
    },
    {
      "ID": "3hOFXze_lISGU5vIiMslwTFjlWrAytsJQaJLqJXcl9rSYN17llhPtKtCL4U3seh2",
      "Lang": "en",
      "CaptionKey": "ruby",
      "CaptionName": "Pronunciation - IPA",
      "YoutubeSynced": true
    },
    {
      "ID": "T2x07DFZB1QnkU10JjmjDPHbTcSMOTLNeFovRWZn7JJoJ2sN4Aoltw==",
      "Lang": "es",
      "CaptionKey": "translation",
      "CaptionName": "Traducción",
      "YoutubeSynced": true
    },
    {
      "ID": "XMgevO1OInOa97YW9LnyJxMCTManPm1qOam62JJgIPg=",
      "Lang": "et",
      "CaptionKey": "translation",
      "CaptionName": "Tõlge",
      "YoutubeSynced": true
    },
    {
      "ID": "tJ4Er9bf0y1eVpIob6csFKxWn-TeXmvbHjbmRWCU9uGS_dDwespoxg==",
      "Lang": "eu",
      "CaptionKey": "translation",
      "CaptionName": "Itzulpena",
      "YoutubeSynced": true
    },
    {
      "ID": "JOmI1rtdw_gAxnWe5GuSng-_VbODpG5tWdPF9My5LGBdWvajn8-B4A==",
      "Lang": "fa",
      "CaptionKey": "translation",
      "CaptionName": "ترجمه",
      "YoutubeSynced": true
    },
    {
      "ID": "JOmI1rtdw_iSxnOkSj1rYrjaFoPBc4EWIMQss0YnB8UBGrm_pQHheA==",
      "Lang": "fi",
      "CaptionKey": "translation",
      "CaptionName": "Käännös",
      "YoutubeSynced": true
    },
    {
      "ID": "T2x07DFZB1RVAy4nb9EISdTDywoVmCYaBMTWfEbfPgwmUsNfnGpdaA==",
      "Lang": "fil",
      "CaptionKey": "translation",
      "CaptionName": "Pagsasalin",
      "YoutubeSynced": true
    },
    {
      "ID": "JOmI1rtdw_hwfG3KqaPJmAvbRWPYzBlKfeIamFSCGDnVQgEhf0-aJA==",
      "Lang": "fr",
      "CaptionKey": "translation",
      "CaptionName": "Traduction",
      "YoutubeSynced": true
    },
    {
      "ID": "JOmI1rtdw_jWSGHZUURirpCivUWmhKU2Q4b2NI7yipALBcoYAyWjxQ==",
      "Lang": "fy",
      "CaptionKey": "translation",
      "CaptionName": "Oersetting",
      "YoutubeSynced": true
    },
    {
      "ID": "LHnB6FNhdEVm33nsbFHV65u0_bWGP8HekroeGzPHxZ-s2NkVBql9Gec1cwQ4ufyT",
      "Lang": "gd",
      "CaptionKey": "translation",
      "CaptionName": "Eadar-theangachadh",
      "YoutubeSynced": true
    },
    {
      "ID": "JOmI1rtdw_guXJt2YO6Lv0FKHerkTF6bZ8ewiTJwL7j2zs5dduIkVQ==",
      "Lang": "gl",
      "CaptionKey": "translation",
      "CaptionName": "Tradución",
      "YoutubeSynced": true
    },
    {
      "ID": "LHnB6FNhdEWqGQc6xC2aM-K3w0Df9BtoOB4rmmg0EhrC46APJtMR05FT7FwhCX_L",
      "Lang": "gu",
      "CaptionKey": "translation",
      "CaptionName": "અનુવાદ",
      "YoutubeSynced": true
    },
    {
      "ID": "n13RodEu3J2-pFST1K7p-0cmcoOiPnLBlSf2L5dZGzSJF6-JvIWcmg==",
      "Lang": "ha",
      "CaptionKey": "translation",
      "CaptionName": "Fassara",
      "YoutubeSynced": true
    },
    {
      "ID": "LHnB6FNhdEVbyPLZUhGbY0064HcEwDjEc9NJeXDvOktgpI-CkInbMWR86B45JbFp",
      "Lang": "hi",
      "CaptionKey": "translation",
      "CaptionName": "अनुवाद",
      "YoutubeSynced": true
    },
    {
      "ID": "nJUPkUCO9YYIDFqzq15bUnH40mtcUR_SyiAfZX93m37tcwNsR7_Izw==",
      "Lang": "hr",
      "CaptionKey": "translation",
      "CaptionName": "Prijevod",
      "YoutubeSynced": true
    },
    {
      "ID": "JOmI1rtdw_i3I5vX4Ps1UVh9SLWSQ4VpGcP5-qpymWCWJ8EMmaEDkw==",
      "Lang": "hu",
      "CaptionKey": "translation",
      "CaptionName": "Fordítás",
      "YoutubeSynced": true
    },
    {
      "ID": "L4n6yqXEkz9egqQI2bKEyWxHor_PnXA4OUjjMrfqWvrxf2NE_HXXsSh1DcODppHF7YqLFJhave4=",
      "Lang": "hy",
      "CaptionKey": "translation",
      "CaptionName": "Թարգմանություն",
      "YoutubeSynced": true
    },
    {
      "ID": "JOmI1rtdw_jrZIMrMt7qosJ0qEmLUw5mKfBaQDulDzKZ-WGb6TwDjQ==",
      "Lang": "id",
      "CaptionKey": "translation",
      "CaptionName": "Terjemahan",
      "YoutubeSynced": true
    },
    {
      "ID": "nJUPkUCO9YaMAAwYtQGCp76b1wOQeX_eruG-BV7q6Y7j3K6ULTxDeg==",
      "Lang": "ig",
      "CaptionKey": "translation",
      "CaptionName": "Ntughari",
      "YoutubeSynced": true
    },
    {
      "ID": "tJ4Er9bf0y39HiWDncRQeDjveBllVmEZAiNbZBEmxbAx6I_bJuxiHg==",
      "Lang": "is",
      "CaptionKey": "translation",
      "CaptionName": "Þýðing",
      "YoutubeSynced": true
    },
    {
      "ID": "JOmI1rtdw_h3IHfobRmAd_XDMIGiHL2Bue2hIYTKcKSiiDXsNB979g==",
      "Lang": "it",
      "CaptionKey": "translation",
      "CaptionName": "Traduzione",
      "YoutubeSynced": true
    },
    {
      "ID": "JOmI1rtdw_h7B_yXj_tC32lfIQd52H-QfAG3yH_k8RtSSi9dCVtlbQ==",
      "Lang": "iw",
      "CaptionKey": "translation",
      "CaptionName": "תרגום",
      "YoutubeSynced": true
    },
    {
      "ID": "XMgevO1OInPnMZR3QwCSFz4vX296BqYVZaB8FA2Wfb4=",
      "Lang": "ja",
      "CaptionKey": "translation",
      "CaptionName": "翻訳",
      "YoutubeSynced": true
    },
    {
      "ID": "tJ4Er9bf0y2YE_FYTdpZAsO-5YHaojorbGtR21_Yi-ScS2jKRXUUfw==",
      "Lang": "jv",
      "CaptionKey": "translation",
      "CaptionName": "Ngartekne",
      "YoutubeSynced": true
    },
    {
      "ID": "xnPiie0P5EyEav76686T34JRwRv6-g6OOESfxQsEWHKnCY-zQdHZv14Ga5Cqvcg6VIP02R0ZCEQ=",
      "Lang": "ka",
      "CaptionKey": "translation",
      "CaptionName": "თარგმანი",
      "YoutubeSynced": true
    },
    {
      "ID": "1JkGXwzshsh5P1PdG108JuS0HRpccB_n2wgCCm82i74isg2NbsKPDA==",
      "Lang": "kk",
      "CaptionKey": "translation",
      "CaptionName": "Аударма",
      "YoutubeSynced": true
    },
    {
      "ID": "FwAijbXF_2m49cWP4dJm-18fNJMM_YfZjZVDR-MgqgWtJ-VGl1tF2Bk68UmmmS2kajOy2iIl8eY=",
      "Lang": "km",
      "CaptionKey": "translation",
      "CaptionName": "ការបកប្រែ",
      "YoutubeSynced": true
    },
    {
      "ID": "LHnB6FNhdEXNvm9Dm_OlfEumFMAfqw4VFFoDvMenB_THmEuGu9uCKqyIBB-E-QV0",
      "Lang": "kn",
      "CaptionKey": "translation",
      "CaptionName": "ಅನುವಾದ",
      "YoutubeSynced": true
    },
    {
      "ID": "XMgevO1OInNrpUNYqm_A8HAA4Ap9eA2KILuVx4v5BRY=",
      "Lang": "ko",
      "CaptionKey": "translation",
      "CaptionName": "번역",
      "YoutubeSynced": true
    },
    {
      "ID": "XMgevO1OInODFmICCxRJ-T-8xsZBcYDl7OUp7yStczY=",
      "Lang": "ku",
      "CaptionKey": "translation",
      "CaptionName": "Werger",
      "YoutubeSynced": true
    },
    {
      "ID": "1JkGXwzshsjom8KM1Ze0lF5uaMY6OlL7a7mF9UlFOuCVYnFp-FtEzQ==",
      "Lang": "ky",
      "CaptionKey": "translation",
      "CaptionName": "котормо",
      "YoutubeSynced": true
    },
    {
      "ID": "qM88rl0OredwF0WO8gTCYRH5coE8B65Qa2DlVoElZiBqApp5Z56Hzw==",
      "Lang": "lb",
      "CaptionKey": "translation",
      "CaptionName": "Iwwersetzung",
      "YoutubeSynced": true
    },
    {
      "ID": "FwAijbXF_2lX74Z-ooaHI6pxPSDsKi1r421d5ziCaChnyz3EIkoC--hB-eOch67Ftnw4HUSU49s=",
      "Lang": "lo",
      "CaptionKey": "translation",
      "CaptionName": "ການແປພາສາ",
      "YoutubeSynced": true
    },
    {
      "ID": "nJUPkUCO9YZel8uw3lsz6CgON_IKmVWjcfIOjgvS2L7_VHfl6EPgEQ==",
      "Lang": "lt",
      "CaptionKey": "translation",
      "CaptionName": "Vertimas",
      "YoutubeSynced": true
    },
    {
      "ID": "JOmI1rtdw_juzwwxBRzNdSgBdRen2fzzteh00DwWXim-xZfdlzwn_A==",
      "Lang": "lv",
      "CaptionKey": "translation",
      "CaptionName": "Tulkošana",
      "YoutubeSynced": true
    },
    {
      "ID": "T2x07DFZB1QPPE8h_A4UVQLmo4-z8ZKd0Q3uNRh68Xp_rYdibDlY2g==",
      "Lang": "mg",
      "CaptionKey": "translation",
      "CaptionName": "Translation",
      "YoutubeSynced": true
    },
    {
      "ID": "nNQdd0EVxL16gKJPOR6DATc3cGT28l1hk-eTeiLc427qMW3tuRocvH9a1LNJiU4R",
      "Lang": "mi",
      "CaptionKey": "translation",
      "CaptionName": "Whakamaoritanga",
      "YoutubeSynced": true
    },
    {
      "ID": "qM88rl0OreeVa7_yGFzTK2aEewHGLMmP8YOh6mcWgVV8GUYzn71Y9Q==",
      "Lang": "mk",
      "CaptionKey": "translation",
      "CaptionName": "Превод",
      "YoutubeSynced": true
    },
    {
      "ID": "FwAijbXF_2nSJH-ref_0F1bbPTYmCM0grlY1U7vcF2_X24CNEqD_PAXRpk1kXiS5L3sSshVPPRw=",
      "Lang": "ml",
      "CaptionKey": "translation",
      "CaptionName": "വിവർത്തനം",
      "YoutubeSynced": true
    },
    {
      "ID": "ggTyo8sLIj5xAdmnLpJaazZ8d9N7Sv6k_kCrFsPYvbYwIyXqeFNhjbZvBwbXNFBX",
      "Lang": "mn",
      "CaptionKey": "translation",
      "CaptionName": "Орчуулга",
      "YoutubeSynced": true
    },
    {
      "ID": "v5iWtDprD_TEmi9VMfgfd5yX5VuYcJMq78tAGekQnt1k_yh5Hx-17AmRl2mDst8k",
      "Lang": "mr",
      "CaptionKey": "translation",
      "CaptionName": "भाषांतर",
      "YoutubeSynced": true
    },
    {
      "ID": "JOmI1rtdw_hdWkaRa90hwygx8F52Shl2aiVQjolcte4OORmqLBQhDA==",
      "Lang": "ms",
      "CaptionKey": "translation",
      "CaptionName": "Terjemahan",
      "YoutubeSynced": true
    },
    {
      "ID": "T2x07DFZB1SPQHezLlmO8sZnUBYuipbAg-8dkpbGukDU-kvFLXTLVw==",
      "Lang": "mt",
      "CaptionKey": "translation",
      "CaptionName": "Traduzzjoni",
      "YoutubeSynced": true
    },
    {
      "ID": "xnPiie0P5Ez4FBdxdlo4agUDzZsP6vCCmxShabcMAMknTBPCrsmvdbV9stVfY5oq5MtEzPU9Koo=",
      "Lang": "my",
      "CaptionKey": "translation",
      "CaptionName": "ဘာသာပြန်",
      "YoutubeSynced": true
    },
    {
      "ID": "LHnB6FNhdEXcvmC5cORxVrKNYv2asE1B5GCMHAYn7neJOqKPyhsDrbDJ-3tTPjTm",
      "Lang": "ne",
      "CaptionKey": "translation",
      "CaptionName": "अनुवाद",
      "YoutubeSynced": true
    },
    {
      "ID": "tJ4Er9bf0y15P56ZdUr4k8dyGNOQV8cWJ4SnV_BKrQfTeOPwWhZU0A==",
      "Lang": "nl",
      "CaptionKey": "translation",
      "CaptionName": "Vertaling",
      "YoutubeSynced": true
    },
    {
      "ID": "qM88rl0OrefujsZneoCZBuP6d40v30CrEpfp_zaq_swkAkV51VbynA==",
      "Lang": "no",
      "CaptionKey": "translation",
      "CaptionName": "Oversettelse",
      "YoutubeSynced": true
    },
    {
      "ID": "LHnB6FNhdEWgjSzC0eR61_oLu2RCE3pUp7paKLT9BtJ4xWq_tauRmiuqAYvdu3D7",
      "Lang": "pa",
      "CaptionKey": "translation",
      "CaptionName": "ਅਨੁਵਾਦ",
      "YoutubeSynced": true
    },
    {
      "ID": "qM88rl0Ored9ZLGppA9CORsEbU2dJRu14sDr5INzw7nwYbry8yvVKw==",
      "Lang": "pl",
      "CaptionKey": "translation",
      "CaptionName": "Tłumaczenie",
      "YoutubeSynced": true
    },
    {
      "ID": "JOmI1rtdw_haqNgnw-YBCJwrYfkAaF4ohiP4RLTf_7Kwv32lkIj2Kg==",
      "Lang": "ps",
      "CaptionKey": "translation",
      "CaptionName": "ژباړه",
      "YoutubeSynced": true
    },
    {
      "ID": "JOmI1rtdw_hNAZLgfkzN1QkdjVNVXVybvBPzDaNzqutpW-aTJgRRrQ==",
      "Lang": "pt",
      "CaptionKey": "translation",
      "CaptionName": "Tradução",
      "YoutubeSynced": true
    },
    {
      "ID": "tJ4Er9bf0y2obvwCJ7XybVHoTn8KrJlGtVBpUNoDsPqbFJs4QtRsdA==",
      "Lang": "ro",
      "CaptionKey": "translation",
      "CaptionName": "Traducere",
      "YoutubeSynced": true
    },
    {
      "ID": "1JkGXwzshsjwttW_xyiwF8VlWW2N5SPIYOCcb_X6ad_KIVxi5LsbnQ==",
      "Lang": "ru",
      "CaptionKey": "translation",
      "CaptionName": "Перевод",
      "YoutubeSynced": true
    },
    {
      "ID": "JOmI1rtdw_hCAj17Msd_aYRd0gtR2QS8nx0KXPj6FdCIP_0eX2gfug==",
      "Lang": "sd",
      "CaptionKey": "translation",
      "CaptionName": "ترجمو",
      "YoutubeSynced": true
    },
    {
      "ID": "FwAijbXF_2mDwrl4hZ19AW-Uzs_X0iYFSM1H4fp4Dc-ACTzAwnr1s4PMYiOeg9kqFJZMjtfcRrU=",
      "Lang": "si",
      "CaptionKey": "translation",
      "CaptionName": "පරිවර්තනය",
      "YoutubeSynced": true
    },
    {
      "ID": "n13RodEu3J1xuX8FEKUo3FaySumhHf-LIBUunQdbCYevsItBKWapBQ==",
      "Lang": "sk",
      "CaptionKey": "translation",
      "CaptionName": "preklad",
      "YoutubeSynced": true
    },
    {
      "ID": "XMgevO1OInO6M2297Y3P9fmJu2WUWXnQY7Laig1Yjbw=",
      "Lang": "sl",
      "CaptionKey": "translation",
      "CaptionName": "Prevod",
      "YoutubeSynced": true
    },
    {
      "ID": "qM88rl0Ored7vsn7QhVmqp-NLRkhH7gKGuu8MpKySLqES5AQwAG-sA==",
      "Lang": "sm",
      "CaptionKey": "translation",
      "CaptionName": "Faʻaliliuga",
      "YoutubeSynced": true
    },
    {
      "ID": "n13RodEu3J0DFzm-Z0J2DQKGaFIl4RRG9SdZVQSdAuvRbgSXGXSsbQ==",
      "Lang": "sn",
      "CaptionKey": "translation",
      "CaptionName": "Dudziro",
      "YoutubeSynced": true
    },
    {
      "ID": "tJ4Er9bf0y3FXUVHW8AjxGdL4166Dlr4TnAQewH_dutpNimtNSyYmQ==",
      "Lang": "so",
      "CaptionKey": "translation",
      "CaptionName": "Tarjumida",
      "YoutubeSynced": true
    },
    {
      "ID": "tJ4Er9bf0y3CLSq2-riNS61UXiR-fm1U8LtLGOEhHCUriNeQCqv5mA==",
      "Lang": "sq",
      "CaptionKey": "translation",
      "CaptionName": "përkthim",
      "YoutubeSynced": true
    },
    {
      "ID": "qM88rl0OrefpF2HHY_mArCSivjU5gHmgYd6a_utjpLn7y0YQLBGh3g==",
      "Lang": "sr",
      "CaptionKey": "translation",
      "CaptionName": "Превод",
      "YoutubeSynced": true
    },
    {
      "ID": "tJ4Er9bf0y1kyN-aAFoBeulujpJc47_z5a1TX8aE5qN5cq3LiK85hA==",
      "Lang": "st",
      "CaptionKey": "translation",
      "CaptionName": "Phetolelo",
      "YoutubeSynced": true
    },
    {
      "ID": "JOmI1rtdw_gMWG7y892mzBjHQt6X92yuOSztEzvkcAudMACw6-Dkbw==",
      "Lang": "su",
      "CaptionKey": "translation",
      "CaptionName": "Tarjamahan",
      "YoutubeSynced": true
    },
    {
      "ID": "1JkGXwzshshFAEBD_ImP2VSTUxnxBFE7TLjaWzZdWx7cvDfyP-J1Pg==",
      "Lang": "sv",
      "CaptionKey": "translation",
      "CaptionName": "Översättning",
      "YoutubeSynced": true
    },
    {
      "ID": "n13RodEu3J02zn61UnjRz1LEo2DN_9EnRzeKpBvlyiP5odFv2ti_JA==",
      "Lang": "sw",
      "CaptionKey": "translation",
      "CaptionName": "Tafsiri",
      "YoutubeSynced": true
    },
    {
      "ID": "jYVKe1__FuQDe5YaE0HxOf1hz8_5u2nGdEoLKqmh9NM41qLePEGTXE2SUnQiKvTIni_-eY_izIqetEm8K3d8bKGWcRtqnv-I",
      "Lang": "ta",
      "CaptionKey": "translation",
      "CaptionName": "மொழிபெயர்ப்பு",
      "YoutubeSynced": true
    },
    {
      "ID": "v5iWtDprD_QetXQXncgGCgBZ490ESLUXhS3_9Mb4DB33IPMrbZyOdsuTq89ManTj",
      "Lang": "te",
      "CaptionKey": "translation",
      "CaptionName": "అనువాదం",
      "YoutubeSynced": true
    },
    {
      "ID": "1JkGXwzshsgxiGXFdWW-g1VEYpImaq_71GCFA1Tvy5SwFSLF71ksXA==",
      "Lang": "tg",
      "CaptionKey": "translation",
      "CaptionName": "Тарҷума",
      "YoutubeSynced": true
    },
    {
      "ID": "LHnB6FNhdEUa1Gd4oS4L2DtUJdNsKfBwwAbh66F4ROHSfxYEbQrIaBTkAFU5euPp",
      "Lang": "th",
      "CaptionKey": "translation",
      "CaptionName": "การแปล",
      "YoutubeSynced": true
    },
    {
      "ID": "nJUPkUCO9YY7DfxmOVgCq2o70pNT8XAgNvR2Bwxq16e0r7FLpjbeYQ==",
      "Lang": "tr",
      "CaptionKey": "translation",
      "CaptionName": "Tercüme",
      "YoutubeSynced": true
    },
    {
      "ID": "ggTyo8sLIj5GpjKTKKsOnv0w6tW13r44u1zLfYDZAhUbWEPnc32c05qa3KGP7Edq",
      "Lang": "uk",
      "CaptionKey": "translation",
      "CaptionName": "Переклад",
      "YoutubeSynced": true
    },
    {
      "ID": "JOmI1rtdw_jdXknxQKlNQq7prPfWl-oJ2eJxxPQS2KHrGa_8w2hjIQ==",
      "Lang": "ur",
      "CaptionKey": "translation",
      "CaptionName": "ترجمہ",
      "YoutubeSynced": true
    },
    {
      "ID": "n13RodEu3J2VHPmqMkTaB97l-3vkvVW5bo5iYiW1fEZy7lHSZ1b1Nw==",
      "Lang": "uz",
      "CaptionKey": "translation",
      "CaptionName": "Tarjima",
      "YoutubeSynced": true
    },
    {
      "ID": "XMgevO1OInOlThVPMjJo0gtn1d2CqkdoFihbsnJ5K3o=",
      "Lang": "vi",
      "CaptionKey": "translation",
      "CaptionName": "Dịch",
      "YoutubeSynced": true
    },
    {
      "ID": "JOmI1rtdw_jqh3hTgbG4LtkdHg_Z9ds_wtAZsMPu0GDI_rG7KnwckQ==",
      "Lang": "xh",
      "CaptionKey": "translation",
      "CaptionName": "Inguqulelo",
      "YoutubeSynced": true
    },
    {
      "ID": "xvvRIGJqMzc50_qRXvmwS-qlAkIImKJHXXChu3XRbRDdJ-DN4Ih5ZPUpzPv81RnI",
      "Lang": "yi",
      "CaptionKey": "translation",
      "CaptionName": "איבערזעצונג",
      "YoutubeSynced": true
    },
    {
      "ID": "n13RodEu3J23w5Amoc_utQNkVkhdkC_1HRx5O3gYqxbOyfxlaBuDiQ==",
      "Lang": "yo",
      "CaptionKey": "translation",
      "CaptionName": "Itumọ",
      "YoutubeSynced": true
    },
    {
      "ID": "T2x07DFZB1SyYZry45srX9Evyf32ujOQ2tp4Mp95xqhLcWd2EOXkfw==",
      "Lang": "zh-Hans",
      "CaptionKey": "translation",
      "CaptionName": "翻译",
      "YoutubeSynced": true
    },
    {
      "ID": "T2x07DFZB1SyYZry45srXwW2jc51Lc_2dNTEO7CJ36qqoFbdtdTs4w==",
      "Lang": "zh-Hant",
      "CaptionKey": "translation",
      "CaptionName": "翻譯",
      "YoutubeSynced": true
    },
    {
      "ID": "JOmI1rtdw_hYQPq6vr2L9mn0xz1h6UKbSMfAy9SsIAsg4qW7srHGVQ==",
      "Lang": "zu",
      "CaptionKey": "translation",
      "CaptionName": "Ukuhumusha",
      "YoutubeSynced": true
    }
  ]
}