{
  "VideoFile": "grammar-en-beginner_21_AU.mp4",
  "Captions": [
    {
      "ID": "Aamg8omLUh2hD_8bST92vT9QCwN-LEhVkKGmq-qZLoCqQHMZ3eChxw==",
      "Lang": "af",
      "CaptionKey": "translation",
      "CaptionName": "vertaling",
      "YoutubeSynced": true
    },
    {
      "ID": "fRjsi59Za5nguGpzcnJ2lgQ6G6SbNy_xvIlGwmOkwscO6TuQKsELYA==",
      "Lang": "am",
      "CaptionKey": "translation",
      "CaptionName": "ትርጉም",
      "YoutubeSynced": true
    },
    {
      "ID": "X9JasrQTDvMR0BjA2jxngzJ54mu43QJr4QFHSARwG_hbZXCexDF_LQ==",
      "Lang": "ar",
      "CaptionKey": "translation",
      "CaptionName": "ترجمة",
      "YoutubeSynced": true
    },
    {
      "ID": "X9JasrQTDvPP8JVQ1eh3yW4J8DQ0YxDZaDnd7Aftn0RdUmCUC9NV6g==",
      "Lang": "az",
      "CaptionKey": "translation",
      "CaptionName": "Tərcümə",
      "YoutubeSynced": true
    },
    {
      "ID": "_1p8ejY7STY0yQgwJccqgAmH_S9Xfwg8SyvgVvcdPjxGwLRoHRegbPCyzOGsyG0I",
      "Lang": "be",
      "CaptionKey": "translation",
      "CaptionName": "Пераклад",
      "YoutubeSynced": true
    },
    {
      "ID": "fRjsi59Za5kVZzEraUUnDFfiPDdC9G1NEC0PoqxPpLMgwVKkcegFBw==",
      "Lang": "bg",
      "CaptionKey": "translation",
      "CaptionName": "превод",
      "YoutubeSynced": true
    },
    {
      "ID": "QGCjxZjYCTsJKRvt6GojfiPqRn114OTby1HLeu8PylCF7uv2PWtdLGyh2yyE7hr0",
      "Lang": "bn",
      "CaptionKey": "translation",
      "CaptionName": "অনুবাদ",
      "YoutubeSynced": true
    },
    {
      "ID": "vHiTNLXwZmJ90fiJ5AYAuHuEm_1z4Pzs3YVb5MHyQJQ=",
      "Lang": "bs",
      "CaptionKey": "translation",
      "CaptionName": "Prevod",
      "YoutubeSynced": true
    },
    {
      "ID": "X9JasrQTDvNOy1hwpe2g-xpyRIcUUzoZR36VwjImNye1M2JGcJaMRg==",
      "Lang": "ca",
      "CaptionKey": "translation",
      "CaptionName": "Traducció",
      "YoutubeSynced": true
    },
    {
      "ID": "X9JasrQTDvPNP6OC5twA9wnVg6fC30pzynV3iqv1ptC4t8swXq3dig==",
      "Lang": "co",
      "CaptionKey": "translation",
      "CaptionName": "Traduzione",
      "YoutubeSynced": true
    },
    {
      "ID": "v5CrEmRLMKAS2AyrUJMQ3kzGApNuhLnJsqVFbHv9XAvuu8cQVy8dDQ==",
      "Lang": "cs",
      "CaptionKey": "translation",
      "CaptionName": "Překlad",
      "YoutubeSynced": true
    },
    {
      "ID": "ERBpV3R8tFnAI27vyBVNbeCwGpUFYiGf_QFqp-iTfOC-q1bp3c-zvg==",
      "Lang": "cy",
      "CaptionKey": "translation",
      "CaptionName": "Cyfieithiad",
      "YoutubeSynced": true
    },
    {
      "ID": "8_cKDvGgQ3HSLMz0AtM55-W_mbTEWFYQFveSDCZFDIDEqXpzWfblcQ==",
      "Lang": "da",
      "CaptionKey": "translation",
      "CaptionName": "Oversættelse",
      "YoutubeSynced": true
    },
    {
      "ID": "fRjsi59Za5m_3OIjZFCyb8pwValV9I11UacDmtIirSRCmJjtGuHb4A==",
      "Lang": "de",
      "CaptionKey": "translation",
      "CaptionName": "Übersetzung",
      "YoutubeSynced": true
    },
    {
      "ID": "QGCjxZjYCTvcZTBJMJ90k9d0H-wAr9RGQNROO9l2xKk7HsghT8JXuTgyyVlnfu3i",
      "Lang": "el",
      "CaptionKey": "translation",
      "CaptionName": "Μετάφραση",
      "YoutubeSynced": true
    },
    {
      "ID": "ERBpV3R8tFnEZn4WcSdVuYao49eVfc9tAxGQJ7GZOhU3vbBTIgqIbA==",
      "Lang": "en",
      "CaptionKey": "translation",
      "CaptionName": "Translation",
      "YoutubeSynced": true
    },
    {
      "ID": "YHLOsoRxl8hIM0ylX16TahLuwDBgUVwTXBiFgYsaTbKRYhjKNgDR9t7sFaLCa8ZD",
      "Lang": "en",
      "CaptionKey": "ruby",
      "CaptionName": "Pronunciation - IPA",
      "YoutubeSynced": true
    },
    {
      "ID": "ERBpV3R8tFm2kMtIQKpjdO3b5sUbKXUwJgE_6vMz9v2dRwPWVGQjEg==",
      "Lang": "es",
      "CaptionKey": "translation",
      "CaptionName": "Traducción",
      "YoutubeSynced": true
    },
    {
      "ID": "vHiTNLXwZmIAnswJhak1C4rdkQNiKf-mVaN8Mg1EL80=",
      "Lang": "et",
      "CaptionKey": "translation",
      "CaptionName": "Tõlge",
      "YoutubeSynced": true
    },
    {
      "ID": "Aamg8omLUh3FubpdmeUO1vhwAUARQF5vf51LgZmqQF8b0g9Ay58tsA==",
      "Lang": "eu",
      "CaptionKey": "translation",
      "CaptionName": "Itzulpena",
      "YoutubeSynced": true
    },
    {
      "ID": "X9JasrQTDvOixDGITw35YksXD4E1yrwx7qRpU0De-_G6nTqAXQCA2Q==",
      "Lang": "fa",
      "CaptionKey": "translation",
      "CaptionName": "ترجمه",
      "YoutubeSynced": true
    },
    {
      "ID": "X9JasrQTDvOQs6Pg2K1dwBRb_945C5fjzxpT4yyFFFusjlFJ38N23A==",
      "Lang": "fi",
      "CaptionKey": "translation",
      "CaptionName": "Käännös",
      "YoutubeSynced": true
    },
    {
      "ID": "ERBpV3R8tFkXdnHXkVxZSM2v6p_fBK4DfyW8k3FNx6BXx0hBWzg0ZA==",
      "Lang": "fil",
      "CaptionKey": "translation",
      "CaptionName": "Pagsasalin",
      "YoutubeSynced": true
    },
    {
      "ID": "X9JasrQTDvNVbHpGaSbNEaKJWa_IHtw9i1FW7V7gUtZu_qyMgAmLtw==",
      "Lang": "fr",
      "CaptionKey": "translation",
      "CaptionName": "Traduction",
      "YoutubeSynced": true
    },
    {
      "ID": "X9JasrQTDvO_nOa87qwR4mqHM8LF5w-8jPhGhhO5Htrw1SzNLnYyQg==",
      "Lang": "fy",
      "CaptionKey": "translation",
      "CaptionName": "Oersetting",
      "YoutubeSynced": true
    },
    {
      "ID": "QGCjxZjYCTtJKwEwDRsLgCHUnHaQ-vo9pRT8nslu8biheavjT14HjcUX0SvKlajm",
      "Lang": "gd",
      "CaptionKey": "translation",
      "CaptionName": "Eadar-theangachadh",
      "YoutubeSynced": true
    },
    {
      "ID": "X9JasrQTDvPEM-g7gfl24VL11DzOxdtHVAXPz2CfeooLEQC5CtEVVw==",
      "Lang": "gl",
      "CaptionKey": "translation",
      "CaptionName": "Tradución",
      "YoutubeSynced": true
    },
    {
      "ID": "QGCjxZjYCTv5tOL-PEschhiTYM00Tu0y_26L3CtCyjDjU4GE9845dpuFV-k-7rps",
      "Lang": "gu",
      "CaptionKey": "translation",
      "CaptionName": "અનુવાદ",
      "YoutubeSynced": true
    },
    {
      "ID": "u6zx7dQQwKgbZm4pI1IMKDM8neiLGhIgJrIBwhoIrAjsDRy4eJqhIQ==",
      "Lang": "ha",
      "CaptionKey": "translation",
      "CaptionName": "Fassara",
      "YoutubeSynced": true
    },
    {
      "ID": "QGCjxZjYCTsay5laADhj7GvsPj3O9xyb-vtY-X88hVqNysv2qomuhNOCW5rn7x7a",
      "Lang": "hi",
      "CaptionKey": "translation",
      "CaptionName": "अनुवाद",
      "YoutubeSynced": true
    },
    {
      "ID": "v5CrEmRLMKDZlzk8vqibTrFG2U-VcAz2jhj5w7LGddkoexSfWNmITg==",
      "Lang": "hr",
      "CaptionKey": "translation",
      "CaptionName": "Prijevod",
      "YoutubeSynced": true
    },
    {
      "ID": "X9JasrQTDvNAM8uD6MGuePseAUffvKGX-FA53nN4WPLKffOMUfQcSw==",
      "Lang": "hu",
      "CaptionKey": "translation",
      "CaptionName": "Fordítás",
      "YoutubeSynced": true
    },
    {
      "ID": "Dec_C3fHChtt4hRIdYbbnIa_CeiYriYNQe9hQdlDkbfvILAo9-o5S2-Me5Zg2tedmvCcqTlRyXU=",
      "Lang": "hy",
      "CaptionKey": "translation",
      "CaptionName": "Թարգմանություն",
      "YoutubeSynced": true
    },
    {
      "ID": "X9JasrQTDvNRT95092X8FVA6WVMfWbPZRatWsdZw6HAJK0WKshTPag==",
      "Lang": "id",
      "CaptionKey": "translation",
      "CaptionName": "Terjemahan",
      "YoutubeSynced": true
    },
    {
      "ID": "v5CrEmRLMKD6VDxGLum3PAo1ovD189DsWId-HgWR6jifWlShq3YX5w==",
      "Lang": "ig",
      "CaptionKey": "translation",
      "CaptionName": "Ntughari",
      "YoutubeSynced": true
    },
    {
      "ID": "Aamg8omLUh1rh0sYFRSCKOLrKJy08Zo248gggyPUBbW6oi4Av-ILWA==",
      "Lang": "is",
      "CaptionKey": "translation",
      "CaptionName": "Þýðing",
      "YoutubeSynced": true
    },
    {
      "ID": "X9JasrQTDvPTv5ytH2koX5rI96BEkSAwbN7olTOu2AmY3-hOIGhd7A==",
      "Lang": "it",
      "CaptionKey": "translation",
      "CaptionName": "Traduzione",
      "YoutubeSynced": true
    },
    {
      "ID": "X9JasrQTDvMFbBU5mz_z-8x_wegGQMP6EP7Vyiv-SuenCpCvCMWz4Q==",
      "Lang": "iw",
      "CaptionKey": "translation",
      "CaptionName": "תרגום",
      "YoutubeSynced": true
    },
    {
      "ID": "vHiTNLXwZmKg_44jyk91jYGGoP7AMNvCALq9x4ULrjk=",
      "Lang": "ja",
      "CaptionKey": "translation",
      "CaptionName": "翻訳",
      "YoutubeSynced": true
    },
    {
      "ID": "Aamg8omLUh0y4_h_nY0GiVZBIB3YapYCP6fnbUABpHDbrS4GRV81uQ==",
      "Lang": "jv",
      "CaptionKey": "translation",
      "CaptionName": "Ngartekne",
      "YoutubeSynced": true
    },
    {
      "ID": "vLbm1NcwWqKmgFc8wp4Vsf4tE9e2y3GqpATbNFRRvEeJeIJcDgaXU9j-EhwSqo62VMMRDYr27OY=",
      "Lang": "ka",
      "CaptionKey": "translation",
      "CaptionName": "თარგმანი",
      "YoutubeSynced": true
    },
    {
      "ID": "cxWtQsgY7ewBKRuyFW3QrLKxY2XybVL8WB54eQA-ZMnoeU0ICFI5YQ==",
      "Lang": "kk",
      "CaptionKey": "translation",
      "CaptionName": "Аударма",
      "YoutubeSynced": true
    },
    {
      "ID": "J6SUbKeZhdjJJHXx44aolsxR1TZZ73AqPPHUmuMX-sAkRuN5EO3wnr0sznj6CJcIMNij-VDatCM=",
      "Lang": "km",
      "CaptionKey": "translation",
      "CaptionName": "ការបកប្រែ",
      "YoutubeSynced": true
    },
    {
      "ID": "QGCjxZjYCTuunItYNRRkziQIF1oW2J1glDVIpopChTIZy3QDPVee6VD5xtjx3jmI",
      "Lang": "kn",
      "CaptionKey": "translation",
      "CaptionName": "ಅನುವಾದ",
      "YoutubeSynced": true
    },
    {
      "ID": "vHiTNLXwZmLADqPtC65-kZY_YDQ86Mlnleiqn3CkgW8=",
      "Lang": "ko",
      "CaptionKey": "translation",
      "CaptionName": "번역",
      "YoutubeSynced": true
    },
    {
      "ID": "vHiTNLXwZmIYhf1dkNWNudBmJJ0TQsOwRPkaQHT40qw=",
      "Lang": "ku",
      "CaptionKey": "translation",
      "CaptionName": "Werger",
      "YoutubeSynced": true
    },
    {
      "ID": "cxWtQsgY7ez1WW8HfQjpUb-5D04F1D_z8S5Izc4tqFPJAdQ4dMqi7A==",
      "Lang": "ky",
      "CaptionKey": "translation",
      "CaptionName": "котормо",
      "YoutubeSynced": true
    },
    {
      "ID": "fRjsi59Za5lcbDO51xgYD5SNuykE-kSgnd39g30u35IO3deZrZ5G7w==",
      "Lang": "lb",
      "CaptionKey": "translation",
      "CaptionName": "Iwwersetzung",
      "YoutubeSynced": true
    },
    {
      "ID": "J6SUbKeZhdgU4KoGObdKP42uDxOsiAB5-P2dKqBzIr23ABVsFljdKWii2HM6W_EeGf827J9ZIFs=",
      "Lang": "lo",
      "CaptionKey": "translation",
      "CaptionName": "ການແປພາສາ",
      "YoutubeSynced": true
    },
    {
      "ID": "v5CrEmRLMKDHojSTE3Ab17s6_YiXR4BZYh_REY4Hi7qit23MpYuQEA==",
      "Lang": "lt",
      "CaptionKey": "translation",
      "CaptionName": "Vertimas",
      "YoutubeSynced": true
    },
    {
      "ID": "X9JasrQTDvNO51Y0Z4c0wOvEcaCo89HZFY9KKk4u-JguLDJv7ENsow==",
      "Lang": "lv",
      "CaptionKey": "translation",
      "CaptionName": "Tulkošana",
      "YoutubeSynced": true
    },
    {
      "ID": "ERBpV3R8tFmiUHsOycxAAJ4adXtfmGprOM7TUnX_r9Z12UCN09LV9w==",
      "Lang": "mg",
      "CaptionKey": "translation",
      "CaptionName": "Translation",
      "YoutubeSynced": true
    },
    {
      "ID": "gauKO2kISIES5Rm_hQuu7GJZUTqYBp3I_W2bJiKekBxOlAR6ySlv8XoXvhpRYqdU",
      "Lang": "mi",
      "CaptionKey": "translation",
      "CaptionName": "Whakamaoritanga",
      "YoutubeSynced": true
    },
    {
      "ID": "fRjsi59Za5mMJRFoOBL9wHwov9tFEKMXjDrrO_lhhAl2Q7eqGmMu5A==",
      "Lang": "mk",
      "CaptionKey": "translation",
      "CaptionName": "Превод",
      "YoutubeSynced": true
    },
    {
      "ID": "J6SUbKeZhdgLMZkrtmkM3aUzmi9XfTatroG8JAXdHh5Xs_gDHFNWvWPBD2d-U-RM9zAY2GS5zQc=",
      "Lang": "ml",
      "CaptionKey": "translation",
      "CaptionName": "വിവർത്തനം",
      "YoutubeSynced": true
    },
    {
      "ID": "_1p8ejY7STZj39sgfyPGuklZUUnILX7l4dBciJbaMR6RPo7-h_FKSLPGhGwg8F0u",
      "Lang": "mn",
      "CaptionKey": "translation",
      "CaptionName": "Орчуулга",
      "YoutubeSynced": true
    },
    {
      "ID": "HQCrlIuMLxYbU_VoPndDSuk_PewRx6SX4eMS6kzTwHITg__JheFXYJR-I3a_zS0v",
      "Lang": "mr",
      "CaptionKey": "translation",
      "CaptionName": "भाषांतर",
      "YoutubeSynced": true
    },
    {
      "ID": "X9JasrQTDvPGPZ_RZ7BsxZaXi_zwsDzH_rRIEw-YsPJSdCjsiL4Tzw==",
      "Lang": "ms",
      "CaptionKey": "translation",
      "CaptionName": "Terjemahan",
      "YoutubeSynced": true
    },
    {
      "ID": "ERBpV3R8tFleeF5jgWyD0LePgVeOqqrhcC_H9oOSsspHU0MAO6be9g==",
      "Lang": "mt",
      "CaptionKey": "translation",
      "CaptionName": "Traduzzjoni",
      "YoutubeSynced": true
    },
    {
      "ID": "vLbm1NcwWqJziUXHh8qE3IvtB8ZpamDyOExE5g8I20kQZHLoJTuJPHItuEItxWzBoUY7RKwBMWM=",
      "Lang": "my",
      "CaptionKey": "translation",
      "CaptionName": "ဘာသာပြန်",
      "YoutubeSynced": true
    },
    {
      "ID": "QGCjxZjYCTt8V8c0XXouW070PlxRHroXqQpGqydU7NRycSzGijcdGybuTbe9KQS2",
      "Lang": "ne",
      "CaptionKey": "translation",
      "CaptionName": "अनुवाद",
      "YoutubeSynced": true
    },
    {
      "ID": "Aamg8omLUh0fSbvlLJoJInJh727He7Nw8kBwA2LkIp6SXPzxp5p6rA==",
      "Lang": "nl",
      "CaptionKey": "translation",
      "CaptionName": "Vertaling",
      "YoutubeSynced": true
    },
    {
      "ID": "fRjsi59Za5k75oiBAFPzVNRRKZzxWT7ju0fItR7mqr8hUfYO0WBFqg==",
      "Lang": "no",
      "CaptionKey": "translation",
      "CaptionName": "Oversettelse",
      "YoutubeSynced": true
    },
    {
      "ID": "QGCjxZjYCTso6m96R4DGU140if-OPB96npUvGKdbJBz23FHLQJEmKyozi2mizxe-",
      "Lang": "pa",
      "CaptionKey": "translation",
      "CaptionName": "ਅਨੁਵਾਦ",
      "YoutubeSynced": true
    },
    {
      "ID": "fRjsi59Za5mjTkEcRZbn0JljKkhq7oEgKjYIxNk3Z5lC-da1jI0A8g==",
      "Lang": "pl",
      "CaptionKey": "translation",
      "CaptionName": "Tłumaczenie",
      "YoutubeSynced": true
    },
    {
      "ID": "X9JasrQTDvOlnkh7Ft2Ut0EaDq2HtlIIwEtpoj23ECtKmRNP-mqMQg==",
      "Lang": "ps",
      "CaptionKey": "translation",
      "CaptionName": "ژباړه",
      "YoutubeSynced": true
    },
    {
      "ID": "X9JasrQTDvMvKwr-XxrLa0Go4l8GYsfE0zAnrzHPAgwrvZTsfTuNJg==",
      "Lang": "pt",
      "CaptionKey": "translation",
      "CaptionName": "Tradução",
      "YoutubeSynced": true
    },
    {
      "ID": "Aamg8omLUh21HusUi-F40TNBSDQKeRcB3P7HV8boRR1cfZV1An5HOA==",
      "Lang": "ro",
      "CaptionKey": "translation",
      "CaptionName": "Traducere",
      "YoutubeSynced": true
    },
    {
      "ID": "cxWtQsgY7ez7ZEdiiMYVsTTkjPrCyDPoolfe3sDcqrSPce26r_jRww==",
      "Lang": "ru",
      "CaptionKey": "translation",
      "CaptionName": "Перевод",
      "YoutubeSynced": true
    },
    {
      "ID": "X9JasrQTDvM4jpzSWPrBBPE7Ay-H5S6ZMlm92enHupmCTyOy2Cn7ug==",
      "Lang": "sd",
      "CaptionKey": "translation",
      "CaptionName": "ترجمو",
      "YoutubeSynced": true
    },
    {
      "ID": "J6SUbKeZhdjOBPdu_yhdKB6-HbtcI0JveuYJMXXR9e7cpdZyuEzMO75AWdL3tokn574gxcO8QtM=",
      "Lang": "si",
      "CaptionKey": "translation",
      "CaptionName": "පරිවර්තනය",
      "YoutubeSynced": true
    },
    {
      "ID": "u6zx7dQQwKjOQce8oqCbdhsC-1N_djwIdDFWeDpk9X7vaxiZu4A9iA==",
      "Lang": "sk",
      "CaptionKey": "translation",
      "CaptionName": "preklad",
      "YoutubeSynced": true
    },
    {
      "ID": "vHiTNLXwZmLL-NhITSiZhmYpmxgw8g2K64BzL695Txo=",
      "Lang": "sl",
      "CaptionKey": "translation",
      "CaptionName": "Prevod",
      "YoutubeSynced": true
    },
    {
      "ID": "fRjsi59Za5lxWdzAC6ATircI1H7VvQH7mc2bc0eteIieeBvaxi83KA==",
      "Lang": "sm",
      "CaptionKey": "translation",
      "CaptionName": "Faʻaliliuga",
      "YoutubeSynced": true
    },
    {
      "ID": "u6zx7dQQwKhs5HP49COzZGqCv7J7sp78dTPXt6kf_BJqPriptapvng==",
      "Lang": "sn",
      "CaptionKey": "translation",
      "CaptionName": "Dudziro",
      "YoutubeSynced": true
    },
    {
      "ID": "Aamg8omLUh1_tBQ8FzHk4oDFCH0kROxgqXCRsovU0IvLdcYEY2BSCA==",
      "Lang": "so",
      "CaptionKey": "translation",
      "CaptionName": "Tarjumida",
      "YoutubeSynced": true
    },
    {
      "ID": "Aamg8omLUh1ALtSxEXq2O9KyT8rJwiZekiMXib6GUOTp4gjnM7-RIg==",
      "Lang": "sq",
      "CaptionKey": "translation",
      "CaptionName": "përkthim",
      "YoutubeSynced": true
    },
    {
      "ID": "fRjsi59Za5naEwMYL-bryUiVYE_u7npUopQUyW0lgqLcsYIRFwFbGw==",
      "Lang": "sr",
      "CaptionKey": "translation",
      "CaptionName": "Превод",
      "YoutubeSynced": true
    },
    {
      "ID": "Aamg8omLUh0H-_1caUTHgrKiOXf07L8rcf0oNORPWntFrtv_XqELSw==",
      "Lang": "st",
      "CaptionKey": "translation",
      "CaptionName": "Phetolelo",
      "YoutubeSynced": true
    },
    {
      "ID": "X9JasrQTDvMcXcokfp31OR66_1gFvgiyd85qvK-rPYCWEAtbn1NCBg==",
      "Lang": "su",
      "CaptionKey": "translation",
      "CaptionName": "Tarjamahan",
      "YoutubeSynced": true
    },
    {
      "ID": "cxWtQsgY7ezHKFkCwUq3iRrPoz4mf_Ok_d0y2Jjm1mQeTdBhKJnVAw==",
      "Lang": "sv",
      "CaptionKey": "translation",
      "CaptionName": "Översättning",
      "YoutubeSynced": true
    },
    {
      "ID": "u6zx7dQQwKhpnslu1GqN8HTR71EPBaXo-ydeGtvnBhgLRzDJhsmDLg==",
      "Lang": "sw",
      "CaptionKey": "translation",
      "CaptionName": "Tafsiri",
      "YoutubeSynced": true
    },
    {
      "ID": "24qLDdbpEnFFSR380Fi-z8rDDYOG90W8aAWG-Uuwnz9g4y_nseII22f-KcauozqW2GA7vuBiKl2R5ff7DrJyUiOGwTiB4o0N",
      "Lang": "ta",
      "CaptionKey": "translation",
      "CaptionName": "மொழிபெயர்ப்பு",
      "YoutubeSynced": true
    },
    {
      "ID": "HQCrlIuMLxYmL31m_JSK90CoBQLy23X1HPghO6TSKe5zGasldw09RMkxMpJVY33I",
      "Lang": "te",
      "CaptionKey": "translation",
      "CaptionName": "అనువాదం",
      "YoutubeSynced": true
    },
    {
      "ID": "cxWtQsgY7ew8UnMoNVBzH6nC8PEbeeaEP7fUwq8WLSsr2BxmsLaX7w==",
      "Lang": "tg",
      "CaptionKey": "translation",
      "CaptionName": "Тарҷума",
      "YoutubeSynced": true
    },
    {
      "ID": "QGCjxZjYCTuM38H7DCgzHLeZOB5SIegY5Gl_4KofAUYgzywQ-pYOFQT7e8rxARMZ",
      "Lang": "th",
      "CaptionKey": "translation",
      "CaptionName": "การแปล",
      "YoutubeSynced": true
    },
    {
      "ID": "v5CrEmRLMKBxj_5sZTrZGCIDZCwVVLdcUFgU_pD4vqC9q6k0jxx3NA==",
      "Lang": "tr",
      "CaptionKey": "translation",
      "CaptionName": "Tercüme",
      "YoutubeSynced": true
    },
    {
      "ID": "_1p8ejY7STZ8_kqCDgfvsELw-fQlV38uFeQXGdmaVAtqizpM7SuRGvMluAWxMZVt",
      "Lang": "uk",
      "CaptionKey": "translation",
      "CaptionName": "Переклад",
      "YoutubeSynced": true
    },
    {
      "ID": "X9JasrQTDvMqEQ8pb7J6RKk_nMRvC1YjJzSSnTD9vYY48CViOsfvpQ==",
      "Lang": "ur",
      "CaptionKey": "translation",
      "CaptionName": "ترجمہ",
      "YoutubeSynced": true
    },
    {
      "ID": "u6zx7dQQwKjUmeiN1lF7ALIrR75BY9nOCmQ9PoS9Gr77C6-k62Ifqw==",
      "Lang": "uz",
      "CaptionKey": "translation",
      "CaptionName": "Tarjima",
      "YoutubeSynced": true
    },
    {
      "ID": "vHiTNLXwZmIKRgRFwnJ_3Ncwls7pZD1pFAp8OrbXbv0=",
      "Lang": "vi",
      "CaptionKey": "translation",
      "CaptionName": "Dịch",
      "YoutubeSynced": true
    },
    {
      "ID": "X9JasrQTDvMH4TPebDIOD3StRGrEc4dh1YeRIJKm4e97Yv29N4QNKQ==",
      "Lang": "xh",
      "CaptionKey": "translation",
      "CaptionName": "Inguqulelo",
      "YoutubeSynced": true
    },
    {
      "ID": "f2OoPrUzCroK7QbYFAkbxsfI3PbOAw_ADe2Q9Vmr8Ij8ehqEbDvXPBv3JuLRN0Ir",
      "Lang": "yi",
      "CaptionKey": "translation",
      "CaptionName": "איבערזעצונג",
      "YoutubeSynced": true
    },
    {
      "ID": "u6zx7dQQwKjOmF4ilzbFQ3bs8zEB2GrEouYdsE7fVR06hGKnqIatjA==",
      "Lang": "yo",
      "CaptionKey": "translation",
      "CaptionName": "Itumọ",
      "YoutubeSynced": true
    },
    {
      "ID": "ERBpV3R8tFngGCReL5RgQKZX7aiCMF_XcNqTcZf_CoLZt1C_p4ldfQ==",
      "Lang": "zh-Hans",
      "CaptionKey": "translation",
      "CaptionName": "翻译",
      "YoutubeSynced": true
    },
    {
      "ID": "ERBpV3R8tFngGCReL5RgQFbnIk6-BQbam9q-teacBtYyncp2AQkCbQ==",
      "Lang": "zh-Hant",
      "CaptionKey": "translation",
      "CaptionName": "翻譯",
      "YoutubeSynced": true
    },
    {
      "ID": "X9JasrQTDvNpESUBNByxxqGK9ME6h85rskMq0bHI_EHjTFCD9968Zg==",
      "Lang": "zu",
      "CaptionKey": "translation",
      "CaptionName": "Ukuhumusha",
      "YoutubeSynced": true
    }
  ]
}