{
  "VideoFile": "grammar-en-beginner_1_A.mp4",
  "Captions": [
    {
      "ID": "HRkrcucIaDeVW0ELIRn91a3IQLb8LpRQ181zOBfJifbxD-2Axp11IA==",
      "Lang": "af",
      "CaptionKey": "translation",
      "CaptionName": "vertaling",
      "YoutubeSynced": true
    },
    {
      "ID": "TuVdPMBGZIzDOe0fbIq2kdqSL5BeDB05rBXuSR1VdU-xHKsbweV4pQ==",
      "Lang": "am",
      "CaptionKey": "translation",
      "CaptionName": "ትርጉም",
      "YoutubeSynced": true
    },
    {
      "ID": "ufNMPTdUe9rL5iXHGY47FZARalDYaLY5Yxtc_FHeGgOvaSWmHlJDXg==",
      "Lang": "ar",
      "CaptionKey": "translation",
      "CaptionName": "ترجمة",
      "YoutubeSynced": true
    },
    {
      "ID": "ufNMPTdUe9r_CV1B1iPYyxn_7SNJsVlf3UKEaELtDvmAYu5LDwN1cQ==",
      "Lang": "az",
      "CaptionKey": "translation",
      "CaptionName": "Tərcümə",
      "YoutubeSynced": true
    },
    {
      "ID": "ek15FRzsK9sfG_sXITD8jjnM73G_MQ7GNs6OMRkYGZktmTap5OrvJXLzlSyO6byJ",
      "Lang": "be",
      "CaptionKey": "translation",
      "CaptionName": "Пераклад",
      "YoutubeSynced": true
    },
    {
      "ID": "TuVdPMBGZIwccNkBKiUu4OUnlIv_L766UKta9arAuBdpJewjmILvSQ==",
      "Lang": "bg",
      "CaptionKey": "translation",
      "CaptionName": "превод",
      "YoutubeSynced": true
    },
    {
      "ID": "0FA-5ZZzjxN8cmCNT_Plz1Yz-tBCvc-fdA2E3JyC0EMTYHTjxha93iy4__KK9fG9",
      "Lang": "bn",
      "CaptionKey": "translation",
      "CaptionName": "অনুবাদ",
      "YoutubeSynced": true
    },
    {
      "ID": "Flc5c_-yhO_n_WbtP4dwQHzcqEgazq6wdGBNuX5Uj50=",
      "Lang": "bs",
      "CaptionKey": "translation",
      "CaptionName": "Prevod",
      "YoutubeSynced": true
    },
    {
      "ID": "ufNMPTdUe9pdbnntBmp21be77OVzayQUsInqODkVVtCOVh-5372sBw==",
      "Lang": "ca",
      "CaptionKey": "translation",
      "CaptionName": "Traducció",
      "YoutubeSynced": true
    },
    {
      "ID": "ufNMPTdUe9qB2YvDuilz9CNC1JYJ1_PmeeNMrWuTQuh7NMPtU2ntkg==",
      "Lang": "co",
      "CaptionKey": "translation",
      "CaptionName": "Traduzione",
      "YoutubeSynced": true
    },
    {
      "ID": "rBi0TxOGPyIuks54YDe-OX2lH0m6LuAKyln_h6v-UXFoI4lEwy9ytA==",
      "Lang": "cs",
      "CaptionKey": "translation",
      "CaptionName": "Překlad",
      "YoutubeSynced": true
    },
    {
      "ID": "Ik6KgYZ7ru031JlyQUlkI5TtUG1SkLpGXIS2GZKPGwajwCwVTdQ25w==",
      "Lang": "cy",
      "CaptionKey": "translation",
      "CaptionName": "Cyfieithiad",
      "YoutubeSynced": true
    },
    {
      "ID": "rIXsBmLdoiYfv60cbGShLbNgQRbwsiycRVg1qr1anQS87CdKDjsXYQ==",
      "Lang": "da",
      "CaptionKey": "translation",
      "CaptionName": "Oversættelse",
      "YoutubeSynced": true
    },
    {
      "ID": "TuVdPMBGZIwdf9Iv4UhW5hQ0Sba16SPPMs8uazOwaNg6MVMCZ-b6dA==",
      "Lang": "de",
      "CaptionKey": "translation",
      "CaptionName": "Übersetzung",
      "YoutubeSynced": true
    },
    {
      "ID": "0FA-5ZZzjxOq2eoJ3f1j4y9uuwsmVXWXz2lJVoosXys0dOh0ke3huT88NVR6DAfW",
      "Lang": "el",
      "CaptionKey": "translation",
      "CaptionName": "Μετάφραση",
      "YoutubeSynced": true
    },
    {
      "ID": "Ik6KgYZ7ru3_AGloVpB4jOSTJO7cpsyxd6DRj_kwtLxUnKqaeVQVHg==",
      "Lang": "en",
      "CaptionKey": "translation",
      "CaptionName": "Translation",
      "YoutubeSynced": true
    },
    {
      "ID": "REwAgBAqXbF_NE7adX4Ogfs7rwAlFgur46InKnZeqnH22y7i-MnIksc46jLC3RVc",
      "Lang": "en",
      "CaptionKey": "ruby",
      "CaptionName": "Pronunciation - IPA",
      "YoutubeSynced": true
    },
    {
      "ID": "Ik6KgYZ7ru3F8ed6OGmaymmeRc5cc47_Fd7_kpPoCX9SQSuRJrhN4g==",
      "Lang": "es",
      "CaptionKey": "translation",
      "CaptionName": "Traducción",
      "YoutubeSynced": true
    },
    {
      "ID": "Flc5c_-yhO_5N3D58M4CzmhnHLupk9-9sMdZZGl1q20=",
      "Lang": "et",
      "CaptionKey": "translation",
      "CaptionName": "Tõlge",
      "YoutubeSynced": true
    },
    {
      "ID": "HRkrcucIaDcMIdJ4V2o4K6vwTUTpHE5leVLgO87ybwTIQ9H6Mpp7Dw==",
      "Lang": "eu",
      "CaptionKey": "translation",
      "CaptionName": "Itzulpena",
      "YoutubeSynced": true
    },
    {
      "ID": "ufNMPTdUe9qBpATn_WW48XpDvERosdNaxnpXmmaX9NM2uft-hhaa4A==",
      "Lang": "fa",
      "CaptionKey": "translation",
      "CaptionName": "ترجمه",
      "YoutubeSynced": true
    },
    {
      "ID": "ufNMPTdUe9q8HZsIjy7Z2rFdtWyFPUthSTDBEBL3I95cDTCzT5191Q==",
      "Lang": "fi",
      "CaptionKey": "translation",
      "CaptionName": "Käännös",
      "YoutubeSynced": true
    },
    {
      "ID": "Ik6KgYZ7ru1UP-9T8V6AjiSKZfRJ-bDrh5N-kvEj3XdurluVwhAK7w==",
      "Lang": "fil",
      "CaptionKey": "translation",
      "CaptionName": "Pagsasalin",
      "YoutubeSynced": true
    },
    {
      "ID": "ufNMPTdUe9pes4bv-rCsQctZYbeQJl6anF-NSv5ewkAMM-6QjxPX_Q==",
      "Lang": "fr",
      "CaptionKey": "translation",
      "CaptionName": "Traduction",
      "YoutubeSynced": true
    },
    {
      "ID": "ufNMPTdUe9p4SOBLHxxABk9cgvk8qz7i-5W77_i80hm2tFP01Sgv7w==",
      "Lang": "fy",
      "CaptionKey": "translation",
      "CaptionName": "Oersetting",
      "YoutubeSynced": true
    },
    {
      "ID": "0FA-5ZZzjxOuJagWQrSOIxDe5clkYcEUuiBaGGtBk3kO6yi1JrrMGni8RyG5yPbJ",
      "Lang": "gd",
      "CaptionKey": "translation",
      "CaptionName": "Eadar-theangachadh",
      "YoutubeSynced": true
    },
    {
      "ID": "ufNMPTdUe9qTHurt9hbGddSXrS552fQ-BVw7DtjxoajvDUP4qCJEDw==",
      "Lang": "gl",
      "CaptionKey": "translation",
      "CaptionName": "Tradución",
      "YoutubeSynced": true
    },
    {
      "ID": "0FA-5ZZzjxOP4vhY32H_hGVML7lp8QkCWV8ESjXtb7rZEdLI1SOBZrNCKSzLcjHU",
      "Lang": "gu",
      "CaptionKey": "translation",
      "CaptionName": "અનુવાદ",
      "YoutubeSynced": true
    },
    {
      "ID": "dVmVDIe0FXXVwJv7kZ5Lwd1q8gJcAJ35aOB54bbexv4jdhmHprE-wA==",
      "Lang": "ha",
      "CaptionKey": "translation",
      "CaptionName": "Fassara",
      "YoutubeSynced": true
    },
    {
      "ID": "0FA-5ZZzjxNgR7Y2UzJdlmr_YtB_SY_zKOI6uH04i_aMMF8TQwLqz0rW34vC3FIJ",
      "Lang": "hi",
      "CaptionKey": "translation",
      "CaptionName": "अनुवाद",
      "YoutubeSynced": true
    },
    {
      "ID": "rBi0TxOGPyK_O7PSBWT12QiySIwU6JIyLmFp9c7iIhA5ms342YtZDw==",
      "Lang": "hr",
      "CaptionKey": "translation",
      "CaptionName": "Prijevod",
      "YoutubeSynced": true
    },
    {
      "ID": "ufNMPTdUe9qwqPR3qlPA5FZsNctwjP9xwnvSyjX2AqH55qgDzT75wA==",
      "Lang": "hu",
      "CaptionKey": "translation",
      "CaptionName": "Fordítás",
      "YoutubeSynced": true
    },
    {
      "ID": "kdrN5YzAL7xWHhX_YIhN5cFCTU4QfjtpJ7wNPprm0IxRA-zDfO003JygPR0cnMo9NOpB9899W0M=",
      "Lang": "hy",
      "CaptionKey": "translation",
      "CaptionName": "Թարգմանություն",
      "YoutubeSynced": true
    },
    {
      "ID": "ufNMPTdUe9oU_uabx7m2OFEjbWKs2MgRc06HbnJiMNO6WXXwojDLFQ==",
      "Lang": "id",
      "CaptionKey": "translation",
      "CaptionName": "Terjemahan",
      "YoutubeSynced": true
    },
    {
      "ID": "rBi0TxOGPyIT_YZiNAhEz-T-BwQuxaLg72qMH4FlcZ-UYROr6rbAWQ==",
      "Lang": "ig",
      "CaptionKey": "translation",
      "CaptionName": "Ntughari",
      "YoutubeSynced": true
    },
    {
      "ID": "HRkrcucIaDcptdWnxdi7K_6BoQ9RLdW4AbzM5kGEi7Q645M_TIxvVg==",
      "Lang": "is",
      "CaptionKey": "translation",
      "CaptionName": "Þýðing",
      "YoutubeSynced": true
    },
    {
      "ID": "ufNMPTdUe9roM0wRghuQhsO5P6468UnLPSNJVS_deA0tw8XbcVw9tw==",
      "Lang": "it",
      "CaptionKey": "translation",
      "CaptionName": "Traduzione",
      "YoutubeSynced": true
    },
    {
      "ID": "ufNMPTdUe9p5B5F7QVTgTh-0hpaga_yE66bpCXQVM-W8z14_5yqf-g==",
      "Lang": "iw",
      "CaptionKey": "translation",
      "CaptionName": "תרגום",
      "YoutubeSynced": true
    },
    {
      "ID": "Flc5c_-yhO84bXXbuZxrL0bXXhc9yJKuED1n6QASJWw=",
      "Lang": "ja",
      "CaptionKey": "translation",
      "CaptionName": "翻訳",
      "YoutubeSynced": true
    },
    {
      "ID": "HRkrcucIaDd6q6pmZ6Nw_aqXCRKjl5o9D0YL-IKpgcOI2XBpl2H94Q==",
      "Lang": "jv",
      "CaptionKey": "translation",
      "CaptionName": "Ngartekne",
      "YoutubeSynced": true
    },
    {
      "ID": "kgqSFbAYslWSjGLOi4mxegW7Eo9VRax4YQbMzYvozQW9A54mRQc3chA9RTCG2cSW9MuGKgCJsqA=",
      "Lang": "ka",
      "CaptionKey": "translation",
      "CaptionName": "თარგმანი",
      "YoutubeSynced": true
    },
    {
      "ID": "aFwMe5rcnIlHhedIVYgfSEr3MGMq-lX2IXkQBmHQ-N5t8XbT6EhHkw==",
      "Lang": "kk",
      "CaptionKey": "translation",
      "CaptionName": "Аударма",
      "YoutubeSynced": true
    },
    {
      "ID": "LMMZ54753qMXG0r-gAZpfBhGXpCiKUMaiEZRm-cTjBmqRsdzujgNPE-eAi_H4y1yYE5fxHu19Sw=",
      "Lang": "km",
      "CaptionKey": "translation",
      "CaptionName": "ការបកប្រែ",
      "YoutubeSynced": true
    },
    {
      "ID": "0FA-5ZZzjxOynllByy7hSrHA9T98gViUTD7uYnitHyzZlBeriZ5rhWsb9riv-ulr",
      "Lang": "kn",
      "CaptionKey": "translation",
      "CaptionName": "ಅನುವಾದ",
      "YoutubeSynced": true
    },
    {
      "ID": "Flc5c_-yhO9fqdnf54FcqqulmhECcOLcfcvu4HvbVGk=",
      "Lang": "ko",
      "CaptionKey": "translation",
      "CaptionName": "번역",
      "YoutubeSynced": true
    },
    {
      "ID": "Flc5c_-yhO9crEsmNU_NwXfvVgIJyJE6pmKdCHbyLXg=",
      "Lang": "ku",
      "CaptionKey": "translation",
      "CaptionName": "Werger",
      "YoutubeSynced": true
    },
    {
      "ID": "aFwMe5rcnIkFoIaKYbdHtEt0-mqAlVbpfnijkKzeabRl96Mq7lL_YA==",
      "Lang": "ky",
      "CaptionKey": "translation",
      "CaptionName": "котормо",
      "YoutubeSynced": true
    },
    {
      "ID": "TuVdPMBGZIxjqhdcnzR2r7DwK9-b4Wn9R2FgDDca22pc_p1V_sfHPg==",
      "Lang": "lb",
      "CaptionKey": "translation",
      "CaptionName": "Iwwersetzung",
      "YoutubeSynced": true
    },
    {
      "ID": "LMMZ54753qOmdtdkQD-jSa2-6CJ1aAlFFBGzTX4CmnrDhyGm_81e-xgC9g3pr96GeZCH55FNCvo=",
      "Lang": "lo",
      "CaptionKey": "translation",
      "CaptionName": "ການແປພາສາ",
      "YoutubeSynced": true
    },
    {
      "ID": "rBi0TxOGPyLQ1BHtDfCL6QAl7EzBNrQU5sLns9uZXUmlq53VSoRnGw==",
      "Lang": "lt",
      "CaptionKey": "translation",
      "CaptionName": "Vertimas",
      "YoutubeSynced": true
    },
    {
      "ID": "ufNMPTdUe9rxY56WZYr0mvRgp_to0Ae87JztvPXJZ-35SzuRf5ZjLQ==",
      "Lang": "lv",
      "CaptionKey": "translation",
      "CaptionName": "Tulkošana",
      "YoutubeSynced": true
    },
    {
      "ID": "Ik6KgYZ7ru1mA8xLHIo_JVXA9Tbiledshvp9yDLg1pAE2sJykc6sBw==",
      "Lang": "mg",
      "CaptionKey": "translation",
      "CaptionName": "Translation",
      "YoutubeSynced": true
    },
    {
      "ID": "C0eq62lGS0fQBp7ZhUqGTTIYDCLKnKpYd9lx6psmH1my5zfGvpA-Z-J9KLPFOv5N",
      "Lang": "mi",
      "CaptionKey": "translation",
      "CaptionName": "Whakamaoritanga",
      "YoutubeSynced": true
    },
    {
      "ID": "TuVdPMBGZIzNq0psjTr5_BhUomWNLSSebaEjtvc6KY1TVTmN4k7YHg==",
      "Lang": "mk",
      "CaptionKey": "translation",
      "CaptionName": "Превод",
      "YoutubeSynced": true
    },
    {
      "ID": "LMMZ54753qPIpogZ7AWIxtQzXO8JvU6253Uu2-IIdVQr4R1aZMGv_vdt34gp4D6euJC4OkuFRmA=",
      "Lang": "ml",
      "CaptionKey": "translation",
      "CaptionName": "വിവർത്തനം",
      "YoutubeSynced": true
    },
    {
      "ID": "ek15FRzsK9vhA5GJN54gMkd_XN7pA6nAQ9Tmd0eW1Rs-YRkcm50Blj9uSonoYaFl",
      "Lang": "mn",
      "CaptionKey": "translation",
      "CaptionName": "Орчуулга",
      "YoutubeSynced": true
    },
    {
      "ID": "NijpzrflGfpb6XMb2hAlVITdBptlxJzvs9OUQoGkbTUUH2WtNwtqYYz37ATG2swS",
      "Lang": "mr",
      "CaptionKey": "translation",
      "CaptionName": "भाषांतर",
      "YoutubeSynced": true
    },
    {
      "ID": "ufNMPTdUe9qY4H0a3KSn-TvzWxvq19-3VV-qmOrASE5Zoatr2KlETw==",
      "Lang": "ms",
      "CaptionKey": "translation",
      "CaptionName": "Terjemahan",
      "YoutubeSynced": true
    },
    {
      "ID": "Ik6KgYZ7ru3H9xTsAEawuGI7gb0pNDxh1TozySkAIsNIWxD4--RScA==",
      "Lang": "mt",
      "CaptionKey": "translation",
      "CaptionName": "Traduzzjoni",
      "YoutubeSynced": true
    },
    {
      "ID": "3vaNYHZhn5g87YwgwIwa4Dc7U_ltxLxGKuZgPD1xYq0zK0J0JO83X-f9dsbKT6vHKLAFm_X8ym-3CEHG8tigqJkkxFQkhdT_ld0XvpoKGsY=",
      "Lang": "my",
      "CaptionKey": "translation",
      "CaptionName": "ဘာသာပြန်ဆိုခြင်း",
      "YoutubeSynced": true
    },
    {
      "ID": "0FA-5ZZzjxOxlMM-RnXuU_A1RwhqSdsq0qqa1PkmlLZJHWyxxr3Ts0ID3Or7SB4W",
      "Lang": "ne",
      "CaptionKey": "translation",
      "CaptionName": "अनुवाद",
      "YoutubeSynced": true
    },
    {
      "ID": "HRkrcucIaDfXgzDnYHnITem16vzP2MTM8bSeu11d1sMYyjy2lGNr9g==",
      "Lang": "nl",
      "CaptionKey": "translation",
      "CaptionName": "Vertaling",
      "YoutubeSynced": true
    },
    {
      "ID": "TuVdPMBGZIx1WeIoZsmP4lhnRfUiVnE_7g0A8Y_UlsClJeHq6QR5eQ==",
      "Lang": "no",
      "CaptionKey": "translation",
      "CaptionName": "Oversettelse",
      "YoutubeSynced": true
    },
    {
      "ID": "0FA-5ZZzjxM-ndPOUCSKSO5prtGiP-nOm6IQQnAgpQzbAICuGN6CS3Hm_VxAHpbV",
      "Lang": "pa",
      "CaptionKey": "translation",
      "CaptionName": "ਅਨੁਵਾਦ",
      "YoutubeSynced": true
    },
    {
      "ID": "TuVdPMBGZIyEE7m_ztyFuVZdtvQw7r_wGtR1cQoqVnQZM7SIq36YPA==",
      "Lang": "pl",
      "CaptionKey": "translation",
      "CaptionName": "Tłumaczenie",
      "YoutubeSynced": true
    },
    {
      "ID": "ufNMPTdUe9pKKG_qHeyZ-tiB_s8Igz-xIm6VLFxeJe2N99eP1ah9BA==",
      "Lang": "ps",
      "CaptionKey": "translation",
      "CaptionName": "ژباړه",
      "YoutubeSynced": true
    },
    {
      "ID": "ufNMPTdUe9pUViNL2hxGPtUq-4sR-3Pcq-Z4pkMbE421kw8YlofmxA==",
      "Lang": "pt",
      "CaptionKey": "translation",
      "CaptionName": "Tradução",
      "YoutubeSynced": true
    },
    {
      "ID": "HRkrcucIaDf5zkfnYzWuPHqds9ONOJGqQOHeSSCYVFANRJrUPRByyg==",
      "Lang": "ro",
      "CaptionKey": "translation",
      "CaptionName": "Traducere",
      "YoutubeSynced": true
    },
    {
      "ID": "aFwMe5rcnIk5iJujP76IDvIkVSBTdmbNc_2K5--sbyifM1uX_Ap8jw==",
      "Lang": "ru",
      "CaptionKey": "translation",
      "CaptionName": "Перевод",
      "YoutubeSynced": true
    },
    {
      "ID": "ufNMPTdUe9pj8MuTdXg_rNVunnkrPvf_Gjczs5Q-Oqttbh00kptI8g==",
      "Lang": "sd",
      "CaptionKey": "translation",
      "CaptionName": "ترجمو",
      "YoutubeSynced": true
    },
    {
      "ID": "LMMZ54753qN5nDoPnI6IjxVMDJK2jaeyDlPso_MM1kw42dNYMuud8Vw05iSC6Tryo-X0RCRRztc=",
      "Lang": "si",
      "CaptionKey": "translation",
      "CaptionName": "පරිවර්තනය",
      "YoutubeSynced": true
    },
    {
      "ID": "dVmVDIe0FXVv13NevgdgMn3Qssi2nic_C7pZqlNS4lXaquFVRvnqmg==",
      "Lang": "sk",
      "CaptionKey": "translation",
      "CaptionName": "preklad",
      "YoutubeSynced": true
    },
    {
      "ID": "Flc5c_-yhO8DHstG5w_W1boliuPw3yFS1hnT_4O2o28=",
      "Lang": "sl",
      "CaptionKey": "translation",
      "CaptionName": "Prevod",
      "YoutubeSynced": true
    },
    {
      "ID": "TuVdPMBGZIxevzWGKq_x3dQ_Ygdrm5E6IuHWpbtdpSb3R1dj2uwPLg==",
      "Lang": "sm",
      "CaptionKey": "translation",
      "CaptionName": "Faʻaliliuga",
      "YoutubeSynced": true
    },
    {
      "ID": "dVmVDIe0FXUVo0i7t1HlhXhOgXNuIZrFp50CAI0JzMW1yrn5_W0AmQ==",
      "Lang": "sn",
      "CaptionKey": "translation",
      "CaptionName": "Dudziro",
      "YoutubeSynced": true
    },
    {
      "ID": "HRkrcucIaDeaMZQuk1_8E_oS3CiiRb159x8o9IQsXYjzubjQYZ8diQ==",
      "Lang": "so",
      "CaptionKey": "translation",
      "CaptionName": "Tarjumida",
      "YoutubeSynced": true
    },
    {
      "ID": "HRkrcucIaDdxANiz2DGIgu9Db-LAjV357FMHOlIeaeR35FZmLpIqUQ==",
      "Lang": "sq",
      "CaptionKey": "translation",
      "CaptionName": "përkthim",
      "YoutubeSynced": true
    },
    {
      "ID": "TuVdPMBGZIyPclM1Rztv6LqXTE6D-k30ifTAfuBjKC3hdmVmhfmM1g==",
      "Lang": "sr",
      "CaptionKey": "translation",
      "CaptionName": "Превод",
      "YoutubeSynced": true
    },
    {
      "ID": "HRkrcucIaDfH5v3RK61_9tHbU3qan3Lk3DDA21LuCYkcbT3SYq33lA==",
      "Lang": "st",
      "CaptionKey": "translation",
      "CaptionName": "Phetolelo",
      "YoutubeSynced": true
    },
    {
      "ID": "ufNMPTdUe9pN0sUltnMJDdBOlA7fOj39odoT1zTapwJPWXU56snang==",
      "Lang": "su",
      "CaptionKey": "translation",
      "CaptionName": "Tarjamahan",
      "YoutubeSynced": true
    },
    {
      "ID": "aFwMe5rcnIkT9asNPCpI_noYzgpZLTKIH3_zpY9OrpMkukO6pOChgg==",
      "Lang": "sv",
      "CaptionKey": "translation",
      "CaptionName": "Översättning",
      "YoutubeSynced": true
    },
    {
      "ID": "dVmVDIe0FXV12VnCVosyC2QYi0Zu4XX4VFGaqScPnoJsFypv3_M86Q==",
      "Lang": "sw",
      "CaptionKey": "translation",
      "CaptionName": "Tafsiri",
      "YoutubeSynced": true
    },
    {
      "ID": "cucXOSQuhIlslrt5nBcmww8QEwG6fNzM80HxPFcfVfeHsnCD9kjiizFtqqeAlzpegU4LMEeBM74L927pZgPF_SGskm3S3jt1",
      "Lang": "ta",
      "CaptionKey": "translation",
      "CaptionName": "மொழிபெயர்ப்பு",
      "YoutubeSynced": true
    },
    {
      "ID": "NijpzrflGfqBm8Rg-CtXIMLNvzjj7lcoNvm2UOmdmGBxaQrn9jJQBHUaiikgUZnF",
      "Lang": "te",
      "CaptionKey": "translation",
      "CaptionName": "అనువాదం",
      "YoutubeSynced": true
    },
    {
      "ID": "aFwMe5rcnImYT1LHhXFb3LB0iLgDlbIQw4r-uynIOLhW-oLTOaGDmg==",
      "Lang": "tg",
      "CaptionKey": "translation",
      "CaptionName": "Тарҷума",
      "YoutubeSynced": true
    },
    {
      "ID": "0FA-5ZZzjxNgZOfyrhzQkpgZUp90ZAvLLbGU3YZmDj5RqD043G-rt6OgybyYsAPp",
      "Lang": "th",
      "CaptionKey": "translation",
      "CaptionName": "การแปล",
      "YoutubeSynced": true
    },
    {
      "ID": "rBi0TxOGPyKMiun_3CMFT2JG0N11L9GRAUYtNzEjLI3BSj6sfRPMvA==",
      "Lang": "tr",
      "CaptionKey": "translation",
      "CaptionName": "Tercüme",
      "YoutubeSynced": true
    },
    {
      "ID": "ek15FRzsK9u8RcT6VKvSkbe-jO-dOLx_fAKIyEp6t6O6VsQ3QQ76tiRdjFGMw9uj",
      "Lang": "uk",
      "CaptionKey": "translation",
      "CaptionName": "Переклад",
      "YoutubeSynced": true
    },
    {
      "ID": "ufNMPTdUe9qO5eY0Keb0PqVOtp7Djsb9aAm8IsKYdcQAnixvYU-SNg==",
      "Lang": "ur",
      "CaptionKey": "translation",
      "CaptionName": "ترجمہ",
      "YoutubeSynced": true
    },
    {
      "ID": "dVmVDIe0FXU3aFZDc3iDuX-q7HtfNflkMheinS36vZcJQnbw8B2bsg==",
      "Lang": "uz",
      "CaptionKey": "translation",
      "CaptionName": "Tarjima",
      "YoutubeSynced": true
    },
    {
      "ID": "Flc5c_-yhO8m8RX0nMhALg0GOSXgrbFi0GCAFvt6ToE=",
      "Lang": "vi",
      "CaptionKey": "translation",
      "CaptionName": "Dịch",
      "YoutubeSynced": true
    },
    {
      "ID": "ufNMPTdUe9pAaDX9kkmFYUyB5SpFTUSlwneFqNBvacCdrbUB4otvkQ==",
      "Lang": "xh",
      "CaptionKey": "translation",
      "CaptionName": "Inguqulelo",
      "YoutubeSynced": true
    },
    {
      "ID": "h2ak79w72XEdFkgVBH3SP7uN8wlP-nHUXDmcXScdTT30Mano-BvUFWxRaAWj8tZW",
      "Lang": "yi",
      "CaptionKey": "translation",
      "CaptionName": "איבערזעצונג",
      "YoutubeSynced": true
    },
    {
      "ID": "dVmVDIe0FXX9r43M2YGqxMshW1LD4udVH5Ob3Tgn0pD_jSEuDEDpiw==",
      "Lang": "yo",
      "CaptionKey": "translation",
      "CaptionName": "Itumọ",
      "YoutubeSynced": true
    },
    {
      "ID": "Ik6KgYZ7ru2iYunAc3W1tnJy9q7_1JFJagB-EVXaZx4sFimqbdGy2Q==",
      "Lang": "zh-Hans",
      "CaptionKey": "translation",
      "CaptionName": "翻译",
      "YoutubeSynced": true
    },
    {
      "ID": "Ik6KgYZ7ru2iYunAc3W1tnkd8ycPaQyrpHndIU4T6Z5UJGAHgtISOw==",
      "Lang": "zh-Hant",
      "CaptionKey": "translation",
      "CaptionName": "翻譯",
      "YoutubeSynced": true
    },
    {
      "ID": "ufNMPTdUe9rzsSBlnrln_Fc_AYA7ivzIylWPJsB-_q1cvk9apH_2Nw==",
      "Lang": "zu",
      "CaptionKey": "translation",
      "CaptionName": "Ukuhumusha",
      "YoutubeSynced": true
    }
  ]
}