{
  "VideoFile": "grammar-en-beginner_50_A.mp4",
  "Captions": [
    {
      "ID": "bcw-rSlH2JRHY3nqL_lzxW6bC5VaYFMBboHrcClZp2hrJANPKT5zul9SfcqKhXIg",
      "Lang": "en",
      "CaptionKey": "ruby",
      "CaptionName": "Pronunciation - IPA",
      "YoutubeSynced": true
    }
  ]
}