{
  "VideoFile": "grammar-en-beginner_14_A.mp4",
  "Captions": [
    {
      "ID": "CjKLyEJ_rr56GI-tjRrXUj6j4HhzZx-V5CuUPwzb3ty0KqHHrhnFIg==",
      "Lang": "af",
      "CaptionKey": "translation",
      "CaptionName": "vertaling",
      "YoutubeSynced": true
    },
    {
      "ID": "pMlVahOE8iMeT39C5YpW6E5Z__kqS1dIHfUfAihyPcaVTeYFHa6Mew==",
      "Lang": "am",
      "CaptionKey": "translation",
      "CaptionName": "ትርጉም",
      "YoutubeSynced": true
    },
    {
      "ID": "hynHj6OYw50f1MNLnpOAR1ze-eKq-8grxlx8Tq80C5h7pwmGKKaqtQ==",
      "Lang": "ar",
      "CaptionKey": "translation",
      "CaptionName": "ترجمة",
      "YoutubeSynced": true
    },
    {
      "ID": "hynHj6OYw53M1iRr7LOnLYvmNpG4U0G8D587ZqIe-iKHhmCEWQ_MCA==",
      "Lang": "az",
      "CaptionKey": "translation",
      "CaptionName": "Tərcümə",
      "YoutubeSynced": true
    },
    {
      "ID": "Yj2iVOCHQ5vgd12NH1JnoetHqMMz6tXf5tJrHZXTJN13eZVighg6Drnvu_rFR_2g",
      "Lang": "be",
      "CaptionKey": "translation",
      "CaptionName": "Пераклад",
      "YoutubeSynced": true
    },
    {
      "ID": "pMlVahOE8iMOR22eDnyYay2A3uEn18lsaoWlkxiiJRkda1QzFCBo_A==",
      "Lang": "bg",
      "CaptionKey": "translation",
      "CaptionName": "превод",
      "YoutubeSynced": true
    },
    {
      "ID": "g8lshaJl1-q3R9Ycggvg0VT5QJ3St74b-au7tDM7UeGCNDR0dF1UvpslRlJYelTE",
      "Lang": "bn",
      "CaptionKey": "translation",
      "CaptionName": "অনুবাদ",
      "YoutubeSynced": true
    },
    {
      "ID": "eNa7NEHCtqSiwzaK-9zDo2XNwFmtD5jdnFC0C9Z3XBY=",
      "Lang": "bs",
      "CaptionKey": "translation",
      "CaptionName": "Prevod",
      "YoutubeSynced": true
    },
    {
      "ID": "hynHj6OYw52SQN-vZtSIV2XS4hsxPUh_GSh6P-EqpluKZ5AOzAXg6g==",
      "Lang": "ca",
      "CaptionKey": "translation",
      "CaptionName": "Traducció",
      "YoutubeSynced": true
    },
    {
      "ID": "hynHj6OYw53-Cmaxk-vS5IkkZN0gQRVU-Rt0av4xUDWcZN3xRP7hBw==",
      "Lang": "co",
      "CaptionKey": "translation",
      "CaptionName": "Traduzione",
      "YoutubeSynced": true
    },
    {
      "ID": "HS_eKqmNaOvgggZ7H4L50A5HriCnDlSTxTLKDmyI_dQoRXZJW4IcUQ==",
      "Lang": "cs",
      "CaptionKey": "translation",
      "CaptionName": "Překlad",
      "YoutubeSynced": true
    },
    {
      "ID": "gfaOQIL1vVhkv4v3XY_q-qRpbHl_ZMZQTFxoYhiMWQlr-VYGbNUbeQ==",
      "Lang": "cy",
      "CaptionKey": "translation",
      "CaptionName": "Cyfieithiad",
      "YoutubeSynced": true
    },
    {
      "ID": "6yzQ2cxbsRB5XP5cZt4waKi86tEEIRplZXVLTREZyfdVHbuQlKPQmg==",
      "Lang": "da",
      "CaptionKey": "translation",
      "CaptionName": "Oversættelse",
      "YoutubeSynced": true
    },
    {
      "ID": "pMlVahOE8iPMa9CJw9iQZt1ewP0vKD5QXXTyJWsyEqLz2ifOePNegg==",
      "Lang": "de",
      "CaptionKey": "translation",
      "CaptionName": "Übersetzung",
      "YoutubeSynced": true
    },
    {
      "ID": "g8lshaJl1-rA7XngJAwjB5AfZIWP02v7rgEB3ZfQGXj3-KiBMT8Vw7FwDPiiebvj",
      "Lang": "el",
      "CaptionKey": "translation",
      "CaptionName": "Μετάφραση",
      "YoutubeSynced": true
    },
    {
      "ID": "gfaOQIL1vVjNt89P8xS1nXNuXwj_y_t8v6E19yTPI_6WPXdn_pbxgQ==",
      "Lang": "en",
      "CaptionKey": "translation",
      "CaptionName": "Translation",
      "YoutubeSynced": true
    },
    {
      "ID": "MtTS2XzhMwWdrBFEZey7v0g3Hjky-Zb2v6vsUFnO51FNSdyeKJFYjOSqNhQvvxw-",
      "Lang": "en",
      "CaptionKey": "ruby",
      "CaptionName": "Pronunciation - IPA",
      "YoutubeSynced": true
    },
    {
      "ID": "gfaOQIL1vVjV1rPh16ouPqgTyoxEGe-ZxC8dofZlHxb4Uk1w2jRNfg==",
      "Lang": "es",
      "CaptionKey": "translation",
      "CaptionName": "Traducción",
      "YoutubeSynced": true
    },
    {
      "ID": "eNa7NEHCtqSfMcRScGT3UAwa3zHdhoo4M_SxTtG75hs=",
      "Lang": "et",
      "CaptionKey": "translation",
      "CaptionName": "Tõlge",
      "YoutubeSynced": true
    },
    {
      "ID": "CjKLyEJ_rr4cFrin38aV2tWmF168h5csivOf7RBST9hbjBYiglr9jw==",
      "Lang": "eu",
      "CaptionKey": "translation",
      "CaptionName": "Itzulpena",
      "YoutubeSynced": true
    },
    {
      "ID": "hynHj6OYw52Iy_AjRZv02SH3DpaeUCZq7n6HgW3eKj6YfbH5J8KSKg==",
      "Lang": "fa",
      "CaptionKey": "translation",
      "CaptionName": "ترجمه",
      "YoutubeSynced": true
    },
    {
      "ID": "hynHj6OYw510zTN2YpQyz76UkKGCdLWh2pzKKGJ_tbyf9HaJ9VyUZA==",
      "Lang": "fi",
      "CaptionKey": "translation",
      "CaptionName": "Käännös",
      "YoutubeSynced": true
    },
    {
      "ID": "gfaOQIL1vVj8vhriHlNz1vTZz27eYVCHWwDsQLS_kDS3iwRZzToAjg==",
      "Lang": "fil",
      "CaptionKey": "translation",
      "CaptionName": "Pagsasalin",
      "YoutubeSynced": true
    },
    {
      "ID": "hynHj6OYw5256oDLvk3VH8w_drF0CDq50SKCrnO5vlag4CDqOasSqw==",
      "Lang": "fr",
      "CaptionKey": "translation",
      "CaptionName": "Traduction",
      "YoutubeSynced": true
    },
    {
      "ID": "hynHj6OYw50VheO0zvlHtZSj4RMc5sOeK-E83mqZ68UiWkhihszQag==",
      "Lang": "fy",
      "CaptionKey": "translation",
      "CaptionName": "Oersetting",
      "YoutubeSynced": true
    },
    {
      "ID": "g8lshaJl1-ro_QX6SkzRfwtPCpDKICWgPMMZSfvtqKu8qg1eYRMl0eHkdEBJv5rc",
      "Lang": "gd",
      "CaptionKey": "translation",
      "CaptionName": "Eadar-theangachadh",
      "YoutubeSynced": true
    },
    {
      "ID": "hynHj6OYw53DWEYKi1yJ9aJLWx7a27uZO2_ZjT242C8-LVoyUG5YtA==",
      "Lang": "gl",
      "CaptionKey": "translation",
      "CaptionName": "Tradución",
      "YoutubeSynced": true
    },
    {
      "ID": "g8lshaJl1-pYjDxhIL8ia2a8UaVxx77t_JA8KS1EUJqUy3UpuGEzLrSZ_9ifxMoZ",
      "Lang": "gu",
      "CaptionKey": "translation",
      "CaptionName": "અનુવાદ",
      "YoutubeSynced": true
    },
    {
      "ID": "-4y1ZhSRnPCaQreguU1hqViMIo8NREK5mbuBsyZc1_oGI2WMJSeIKQ==",
      "Lang": "ha",
      "CaptionKey": "translation",
      "CaptionName": "Fassara",
      "YoutubeSynced": true
    },
    {
      "ID": "g8lshaJl1-o1PohNfTa2vEhkCeOeAIeoLVr9-bcHNSlSv80SO1xZO-3uUJ-UnWqJ",
      "Lang": "hi",
      "CaptionKey": "translation",
      "CaptionName": "अनुवाद",
      "YoutubeSynced": true
    },
    {
      "ID": "HS_eKqmNaOsWjvPYaIT21sN0Id64Hntqavq2SFpiSVzpQv_Ce7oWVQ==",
      "Lang": "hr",
      "CaptionKey": "translation",
      "CaptionName": "Prijevod",
      "YoutubeSynced": true
    },
    {
      "ID": "hynHj6OYw53XNNmDRC6uU1PyuyKVeSbxeyC43ne9CsZg98c7vaZysA==",
      "Lang": "hu",
      "CaptionKey": "translation",
      "CaptionName": "Fordítás",
      "YoutubeSynced": true
    },
    {
      "ID": "JUdBNAyuHsfRRyEY9a8KoeSkbXMyw3b3Uqft8260TBzQ-ANGdsj0Vnp1BEZJPIF34RRSVwtmZ5A=",
      "Lang": "hy",
      "CaptionKey": "translation",
      "CaptionName": "Թարգմանություն",
      "YoutubeSynced": true
    },
    {
      "ID": "hynHj6OYw507W_EVCsndJDXZFJhObp4OilndJLjcmqo1vt4he0LJJw==",
      "Lang": "id",
      "CaptionKey": "translation",
      "CaptionName": "Terjemahan",
      "YoutubeSynced": true
    },
    {
      "ID": "HS_eKqmNaOt6boQ5-hNQeDMAiZyQBk6E4RNGckvEmgPFo234Bhb4sQ==",
      "Lang": "ig",
      "CaptionKey": "translation",
      "CaptionName": "Ntughari",
      "YoutubeSynced": true
    },
    {
      "ID": "CjKLyEJ_rr5hRh7H8Ms8oUtjJcZpyYQtuKvPiz5S5aX-Vz6fNDrBoQ==",
      "Lang": "is",
      "CaptionKey": "translation",
      "CaptionName": "Þýðing",
      "YoutubeSynced": true
    },
    {
      "ID": "hynHj6OYw51wPNIYNwSa7j06iGTF5JmPqeLl1gXJcinR9o1PFsBEkw==",
      "Lang": "it",
      "CaptionKey": "translation",
      "CaptionName": "Traduzione",
      "YoutubeSynced": true
    },
    {
      "ID": "hynHj6OYw53cyTqLI1vKROj9yGS1fZK-1yvsSzuKplypHYXJ8qSyeA==",
      "Lang": "iw",
      "CaptionKey": "translation",
      "CaptionName": "תרגום",
      "YoutubeSynced": true
    },
    {
      "ID": "eNa7NEHCtqTN95CDpqAfCT5p-xzM_2jq587HZuesa5U=",
      "Lang": "ja",
      "CaptionKey": "translation",
      "CaptionName": "翻訳",
      "YoutubeSynced": true
    },
    {
      "ID": "CjKLyEJ_rr6GUzE7blrFN9tu4cZa53jZNwfRK0N2ZEcovDyB3aA83g==",
      "Lang": "jv",
      "CaptionKey": "translation",
      "CaptionName": "Ngartekne",
      "YoutubeSynced": true
    },
    {
      "ID": "0Be-pNetPsWoF4pLQuiy7_JqJSnieH0rvH2zUmgLMci0JuvljGVafzOz8luXd2ZKhP-moBVIjMk=",
      "Lang": "ka",
      "CaptionKey": "translation",
      "CaptionName": "თარგმანი",
      "YoutubeSynced": true
    },
    {
      "ID": "D2Yo2oZ_4p5hvEstlY88HvaGpKeBcJjAdDzaEUHlS85Zdf_zpf2YHw==",
      "Lang": "kk",
      "CaptionKey": "translation",
      "CaptionName": "Аударма",
      "YoutubeSynced": true
    },
    {
      "ID": "y39-0_CoL3n8DRa_e09UU20x-2pSMF4NQJvXbh06kiHeTKLNy82blMwGbEov1-zHikAzmQGiLEE=",
      "Lang": "km",
      "CaptionKey": "translation",
      "CaptionName": "ការបកប្រែ",
      "YoutubeSynced": true
    },
    {
      "ID": "g8lshaJl1-qeeBPuMJw7k11lJ4c6otD7cJQs6DbzgI2fh8UWiKU11uc5fz_WDmPs",
      "Lang": "kn",
      "CaptionKey": "translation",
      "CaptionName": "ಅನುವಾದ",
      "YoutubeSynced": true
    },
    {
      "ID": "eNa7NEHCtqQQsw3EuT61ZfHZ6VeurEkNjyElyvh2jk8=",
      "Lang": "ko",
      "CaptionKey": "translation",
      "CaptionName": "번역",
      "YoutubeSynced": true
    },
    {
      "ID": "eNa7NEHCtqRd0RBvz_uSS1EhshqXn8Sc30oxvRRjUwQ=",
      "Lang": "ku",
      "CaptionKey": "translation",
      "CaptionName": "Werger",
      "YoutubeSynced": true
    },
    {
      "ID": "D2Yo2oZ_4p6tTUDtsXCOxYM78VEUmIjIvDOr-3BJK8WLdqH1bG0HCQ==",
      "Lang": "ky",
      "CaptionKey": "translation",
      "CaptionName": "котормо",
      "YoutubeSynced": true
    },
    {
      "ID": "pMlVahOE8iO0sxCTZ5OBlI7Z3lIvPG9yc8MYxr7XvfAVt8_kPGX_kg==",
      "Lang": "lb",
      "CaptionKey": "translation",
      "CaptionName": "Iwwersetzung",
      "YoutubeSynced": true
    },
    {
      "ID": "y39-0_CoL3ml1XZomsa9e8knXkkLJZTRPLb0NcrXj7_HCCf-6w5Xie9OzoIjErdfLoj3jWEbnoM=",
      "Lang": "lo",
      "CaptionKey": "translation",
      "CaptionName": "ການແປພາສາ",
      "YoutubeSynced": true
    },
    {
      "ID": "HS_eKqmNaOuXfI9CtJXvRitjb70kY4d_2SANSoL_Ta6dxEsszmD6Dw==",
      "Lang": "lt",
      "CaptionKey": "translation",
      "CaptionName": "Vertimas",
      "YoutubeSynced": true
    },
    {
      "ID": "hynHj6OYw52tLhtVJcm0HN2UhhDYQBrdl-lZmpOBcFWrtX_RG7J0rg==",
      "Lang": "lv",
      "CaptionKey": "translation",
      "CaptionName": "Tulkošana",
      "YoutubeSynced": true
    },
    {
      "ID": "gfaOQIL1vVg-aIXP_pbZkH4em7YFu0slsBzAgR6dkI7SQeVwBVngew==",
      "Lang": "mg",
      "CaptionKey": "translation",
      "CaptionName": "Translation",
      "YoutubeSynced": true
    },
    {
      "ID": "VKybr49wYeWlfsrjxGxyU3TKXW9akaCLvM_cbmDiB4rearJcfwNwE3DfkdvbgkCZ",
      "Lang": "mi",
      "CaptionKey": "translation",
      "CaptionName": "Whakamaoritanga",
      "YoutubeSynced": true
    },
    {
      "ID": "pMlVahOE8iPM3kBv7KksmvwG9Lh8CUbEwvUXxlAY7IleGSmd1gQPdQ==",
      "Lang": "mk",
      "CaptionKey": "translation",
      "CaptionName": "Превод",
      "YoutubeSynced": true
    },
    {
      "ID": "y39-0_CoL3ksWhwY5iteOABEVAbc2lL2d26h54TcTXRUce2sOS9t0YayC_Q7QEToSDmr2Tmkem8=",
      "Lang": "ml",
      "CaptionKey": "translation",
      "CaptionName": "വിവർത്തനം",
      "YoutubeSynced": true
    },
    {
      "ID": "Yj2iVOCHQ5vvKfRUQsE45Y_JL52Gk70HAuIJkJuAkDNERCMGkc4FijUwKz_wH14Y",
      "Lang": "mn",
      "CaptionKey": "translation",
      "CaptionName": "Орчуулга",
      "YoutubeSynced": true
    },
    {
      "ID": "dxGMYAHkw3gfvdkMH6QZyBHRujk9BFbCh2gtDXdI1IuPHuzyAKpZady9emmQtDRb",
      "Lang": "mr",
      "CaptionKey": "translation",
      "CaptionName": "भाषांतर",
      "YoutubeSynced": true
    },
    {
      "ID": "hynHj6OYw51OVe9cfZAm3VQcWJVv6EIbzjrXRQVlVdG1a-fo4AAnzw==",
      "Lang": "ms",
      "CaptionKey": "translation",
      "CaptionName": "Terjemahan",
      "YoutubeSynced": true
    },
    {
      "ID": "gfaOQIL1vVgeMbgOOPnNSMPbRNsZZG9DGe4XQe_wN63zaUaGYAplYw==",
      "Lang": "mt",
      "CaptionKey": "translation",
      "CaptionName": "Traduzzjoni",
      "YoutubeSynced": true
    },
    {
      "ID": "p9eb0i4ksHpC87EB_3KtTFadCcXvj6qksWnpnno9-sFFQhxSdLbPkxZsNhczIBrxEtzy4xgMT90jhJFNpkUJ7nWG-D63UCjMUBHTXuKIwAI=",
      "Lang": "my",
      "CaptionKey": "translation",
      "CaptionName": "ဘာသာပြန်ဆိုခြင်း",
      "YoutubeSynced": true
    },
    {
      "ID": "g8lshaJl1-oTKrxhugiP1VeqA6Lm-Htzpr1J-7vSIT668CTqDP4Zw-FqB9rEJdjA",
      "Lang": "ne",
      "CaptionKey": "translation",
      "CaptionName": "अनुवाद",
      "YoutubeSynced": true
    },
    {
      "ID": "CjKLyEJ_rr75drzp52km-rNGXRrm8BO5TlModW8Fyrc_Pq5oQ1QsEw==",
      "Lang": "nl",
      "CaptionKey": "translation",
      "CaptionName": "Vertaling",
      "YoutubeSynced": true
    },
    {
      "ID": "pMlVahOE8iNa_jugv5sXxdFm-H_rdrgibQW3SchVXI361RPPyInBFA==",
      "Lang": "no",
      "CaptionKey": "translation",
      "CaptionName": "Oversettelse",
      "YoutubeSynced": true
    },
    {
      "ID": "g8lshaJl1-rnnzNgCbEqfAeK_FFAXxgDBA27KH940kxrr7_cjvAnnuH33gexQaWN",
      "Lang": "pa",
      "CaptionKey": "translation",
      "CaptionName": "ਅਨੁਵਾਦ",
      "YoutubeSynced": true
    },
    {
      "ID": "pMlVahOE8iNc9lEdht-FHBSDJQ2XipPKnYvFeTt2TZ_pcjIn_G_BLw==",
      "Lang": "pl",
      "CaptionKey": "translation",
      "CaptionName": "Tłumaczenie",
      "YoutubeSynced": true
    },
    {
      "ID": "hynHj6OYw50OfxpQIs8PtYntxFCyRxDyYbylw2b0o98W-0sFMG8BPA==",
      "Lang": "ps",
      "CaptionKey": "translation",
      "CaptionName": "ژباړه",
      "YoutubeSynced": true
    },
    {
      "ID": "hynHj6OYw52LQTkUYpVm6Pbomikn6j7YfWLPxq954t-JrhBH4VwRwQ==",
      "Lang": "pt",
      "CaptionKey": "translation",
      "CaptionName": "Tradução",
      "YoutubeSynced": true
    },
    {
      "ID": "CjKLyEJ_rr6EY61jbSQHt4FAcTRm8ZPv_e1g8rvW43JERwFU8gWo5A==",
      "Lang": "ro",
      "CaptionKey": "translation",
      "CaptionName": "Traducere",
      "YoutubeSynced": true
    },
    {
      "ID": "D2Yo2oZ_4p6tYSUK7xDPTCLQxJQJCXnJeuuXW0jS6rZiyWYD-OeyHg==",
      "Lang": "ru",
      "CaptionKey": "translation",
      "CaptionName": "Перевод",
      "YoutubeSynced": true
    },
    {
      "ID": "hynHj6OYw508XYEFr2UkIltytzAhFbCVyOQq2IfUvHZ0Fz5J9JUXTw==",
      "Lang": "sd",
      "CaptionKey": "translation",
      "CaptionName": "ترجمو",
      "YoutubeSynced": true
    },
    {
      "ID": "y39-0_CoL3msK790wGEMNtXFNWpYdtbSjGMLkjJpUqVsCP1HCbj0bFl07XA06N9R0uzDYuy_T8Y=",
      "Lang": "si",
      "CaptionKey": "translation",
      "CaptionName": "පරිවර්තනය",
      "YoutubeSynced": true
    },
    {
      "ID": "-4y1ZhSRnPAWJknKpt5lJIqslWZA1UVzSXNWc2AdqXkprwpdoF3VXw==",
      "Lang": "sk",
      "CaptionKey": "translation",
      "CaptionName": "preklad",
      "YoutubeSynced": true
    },
    {
      "ID": "eNa7NEHCtqTYZUo-SPdJbuyztDrHqBxKuy1tTt2gx2U=",
      "Lang": "sl",
      "CaptionKey": "translation",
      "CaptionName": "Prevod",
      "YoutubeSynced": true
    },
    {
      "ID": "pMlVahOE8iNxf6hEVx3cD8YDaiT71pnvYoOsOkgB5Os-hD727zFwCg==",
      "Lang": "sm",
      "CaptionKey": "translation",
      "CaptionName": "Faʻaliliuga",
      "YoutubeSynced": true
    },
    {
      "ID": "-4y1ZhSRnPCciTxv9BKdjwBuq198HjsIJAopiWkRJDyCcRZ9JTl3cw==",
      "Lang": "sn",
      "CaptionKey": "translation",
      "CaptionName": "Dudziro",
      "YoutubeSynced": true
    },
    {
      "ID": "CjKLyEJ_rr5bQAFWP7ME6S22982nGAqjmqi-xQHIZPQUWvIEWk_zrg==",
      "Lang": "so",
      "CaptionKey": "translation",
      "CaptionName": "Tarjumida",
      "YoutubeSynced": true
    },
    {
      "ID": "CjKLyEJ_rr6u7ck8oSX064p_zPYiSseD0H7i_6J_4sF6iLh8tPhgEQ==",
      "Lang": "sq",
      "CaptionKey": "translation",
      "CaptionName": "përkthim",
      "YoutubeSynced": true
    },
    {
      "ID": "pMlVahOE8iO5rP5y58hGNrZb4yKbitvgZSsyfidTUt2sMAGAEYkKCQ==",
      "Lang": "sr",
      "CaptionKey": "translation",
      "CaptionName": "Превод",
      "YoutubeSynced": true
    },
    {
      "ID": "CjKLyEJ_rr5UbVAIg0vEKq_Ce4bSyCRH1-j0Oq0-ZDA09K0rE580qQ==",
      "Lang": "st",
      "CaptionKey": "translation",
      "CaptionName": "Phetolelo",
      "YoutubeSynced": true
    },
    {
      "ID": "hynHj6OYw53lOJ5piwPWTryjBEjpgHrmjGTbn1xZnkRXeSySkWQSXw==",
      "Lang": "su",
      "CaptionKey": "translation",
      "CaptionName": "Tarjamahan",
      "YoutubeSynced": true
    },
    {
      "ID": "D2Yo2oZ_4p5gbqWhG3K9hrhCaHHsl843VFqPW_wArq5t74NICTF9Hw==",
      "Lang": "sv",
      "CaptionKey": "translation",
      "CaptionName": "Översättning",
      "YoutubeSynced": true
    },
    {
      "ID": "-4y1ZhSRnPAcQBg0FAyuljHyjnhBKHrvbaskoEU0eGLbS6srhh5n8g==",
      "Lang": "sw",
      "CaptionKey": "translation",
      "CaptionName": "Tafsiri",
      "YoutubeSynced": true
    },
    {
      "ID": "A1TZ9cA7aPOxCrDAiqgGDomplLhL5LHTfLZgABI_LVKfegBeyf2fjhtf5KLbZqaKjLwsIuLk_QAZonKXua3zRpbzYwtswAjP",
      "Lang": "ta",
      "CaptionKey": "translation",
      "CaptionName": "மொழிபெயர்ப்பு",
      "YoutubeSynced": true
    },
    {
      "ID": "dxGMYAHkw3ioX5ijTV2MTikVi71dn9_lyOoG0wRslbv8_ka6Z4AOMtwlc79Y1FFe",
      "Lang": "te",
      "CaptionKey": "translation",
      "CaptionName": "అనువాదం",
      "YoutubeSynced": true
    },
    {
      "ID": "D2Yo2oZ_4p4vkPHlCgX9AKanOWVUV4RhnrqVgpPQf3GPe3iVLDGkAg==",
      "Lang": "tg",
      "CaptionKey": "translation",
      "CaptionName": "Тарҷума",
      "YoutubeSynced": true
    },
    {
      "ID": "g8lshaJl1-rssymZVkQupm2oB7pNqbiXE3y61cdK9dquiDk7cxj7jLSflzejUkB1",
      "Lang": "th",
      "CaptionKey": "translation",
      "CaptionName": "การแปล",
      "YoutubeSynced": true
    },
    {
      "ID": "HS_eKqmNaOsUkC-XYJllHszfskqm9g01zh-iu7023FkIQyuuS_E_Bw==",
      "Lang": "tr",
      "CaptionKey": "translation",
      "CaptionName": "Tercüme",
      "YoutubeSynced": true
    },
    {
      "ID": "Yj2iVOCHQ5uCuzmO7CDgX7QlG4sXngAe7ijWebZuXJTfIZiwGvnNjV3Yc1L1HPy4",
      "Lang": "uk",
      "CaptionKey": "translation",
      "CaptionName": "Переклад",
      "YoutubeSynced": true
    },
    {
      "ID": "hynHj6OYw50H1d1jVZu51hldfZpmRZGkq-O1wT3yTTsz1KIqggzPvA==",
      "Lang": "ur",
      "CaptionKey": "translation",
      "CaptionName": "ترجمہ",
      "YoutubeSynced": true
    },
    {
      "ID": "-4y1ZhSRnPCKJxl-lEr59I2CwWfa7s8lEoZ3JpMh_2fPnS500iVcnQ==",
      "Lang": "uz",
      "CaptionKey": "translation",
      "CaptionName": "Tarjima",
      "YoutubeSynced": true
    },
    {
      "ID": "eNa7NEHCtqQuZqV0X2VF17AsstzMzt-MiTPbnRLFtfM=",
      "Lang": "vi",
      "CaptionKey": "translation",
      "CaptionName": "Dịch",
      "YoutubeSynced": true
    },
    {
      "ID": "hynHj6OYw51KVJAtf3DWWCcMDPzjWKunR8xJTidrR3FAvDVKKU-Vbw==",
      "Lang": "xh",
      "CaptionKey": "translation",
      "CaptionName": "Inguqulelo",
      "YoutubeSynced": true
    },
    {
      "ID": "OXqPE41E2FDQkD7wUByx_CjtMSFf10SqQgT4vQGrXOCEqyaOIdMBgfVw6XezxvX7",
      "Lang": "yi",
      "CaptionKey": "translation",
      "CaptionName": "איבערזעצונג",
      "YoutubeSynced": true
    },
    {
      "ID": "-4y1ZhSRnPBO_p8pnOtf4iV_-t7ejUAW47AfO0cyVS-4gN5evNq3iQ==",
      "Lang": "yo",
      "CaptionKey": "translation",
      "CaptionName": "Itumọ",
      "YoutubeSynced": true
    },
    {
      "ID": "gfaOQIL1vVi8BYj1rarAB9qPBZFV6V4dDMqGinlWlZRV-t1UlxD1TQ==",
      "Lang": "zh-Hans",
      "CaptionKey": "translation",
      "CaptionName": "翻译",
      "YoutubeSynced": true
    },
    {
      "ID": "gfaOQIL1vVi8BYj1rarAB0uQ7P4IcEov1M733X06xOehjSJAZDNxGQ==",
      "Lang": "zh-Hant",
      "CaptionKey": "translation",
      "CaptionName": "翻譯",
      "YoutubeSynced": true
    },
    {
      "ID": "hynHj6OYw50kriiP1y-sGGODki9b-9H2SJtKjhqiCJSmHQPiQ1gI3w==",
      "Lang": "zu",
      "CaptionKey": "translation",
      "CaptionName": "Ukuhumusha",
      "YoutubeSynced": true
    }
  ]
}