{
  "VideoFile": "grammar-en-beginner_13_UK.mp4",
  "Captions": [
    {
      "ID": "OfxXHTIydGXdgUz2s-h85fMJdM7X2o7uykDMlSQcGAvsBypzZPdsgQ==",
      "Lang": "af",
      "CaptionKey": "translation",
      "CaptionName": "vertaling",
      "YoutubeSynced": true
    },
    {
      "ID": "gIzwAeiGRm-_us4Pdss6KC31KuO71H0W-YLMtvz7S0nWpOQ0-AKJFg==",
      "Lang": "am",
      "CaptionKey": "translation",
      "CaptionName": "ትርጉም",
      "YoutubeSynced": true
    },
    {
      "ID": "W284ytG9gkZS8SrzI3ZtS1SNYyYNWVTjaKNEzCGhK478HJSbyLNyaA==",
      "Lang": "ar",
      "CaptionKey": "translation",
      "CaptionName": "ترجمة",
      "YoutubeSynced": true
    },
    {
      "ID": "W284ytG9gkaMGOCr1hYVwH9HJPmsnJmLl8j97YBSFr5_nQ218o-mnA==",
      "Lang": "az",
      "CaptionKey": "translation",
      "CaptionName": "Tərcümə",
      "YoutubeSynced": true
    },
    {
      "ID": "yT4dIzON__vKU629Ng15WhHc3jTBewtqO1ftQlzTI--5eRcMveoogwutpAygZOvJ",
      "Lang": "be",
      "CaptionKey": "translation",
      "CaptionName": "Пераклад",
      "YoutubeSynced": true
    },
    {
      "ID": "gIzwAeiGRm8bb741f5rvV1CMQlobpIlIgNVXvXsI2UDBL4TaXOS4mA==",
      "Lang": "bg",
      "CaptionKey": "translation",
      "CaptionName": "превод",
      "YoutubeSynced": true
    },
    {
      "ID": "LBTM1Fz_4VW_p7yBOQePAt46Tt3N8E-wK_4m_FPTDTtMdf3USba_o8ZTt87qdBc5",
      "Lang": "bn",
      "CaptionKey": "translation",
      "CaptionName": "অনুবাদ",
      "YoutubeSynced": true
    },
    {
      "ID": "Zg-TOT4NOjhcWrR-1FoI_qKvrOUHUKfVjtSii9oebGg=",
      "Lang": "bs",
      "CaptionKey": "translation",
      "CaptionName": "Prevod",
      "YoutubeSynced": true
    },
    {
      "ID": "W284ytG9gkbG1ASZP29nRsWgcLKRXOlTUeRLaBHDj3eFnlU8Ws05JA==",
      "Lang": "ca",
      "CaptionKey": "translation",
      "CaptionName": "Traducció",
      "YoutubeSynced": true
    },
    {
      "ID": "W284ytG9gkYZg22-JqHIxMwOREghgW2aMO72AhCLZ-guJNc5sWgCvw==",
      "Lang": "co",
      "CaptionKey": "translation",
      "CaptionName": "Traduzione",
      "YoutubeSynced": true
    },
    {
      "ID": "1qA7HSBz3wa1iTEy9ixv0cPNsT2s7hnZZXhI-rof_KpNzHaXyF1WLQ==",
      "Lang": "cs",
      "CaptionKey": "translation",
      "CaptionName": "Překlad",
      "YoutubeSynced": true
    },
    {
      "ID": "WEegeFuVoLsY9w5BW0cT8RHuao9n-LA99nhwr8EeQCcMnHlbgfU5SQ==",
      "Lang": "cy",
      "CaptionKey": "translation",
      "CaptionName": "Cyfieithiad",
      "YoutubeSynced": true
    },
    {
      "ID": "RPLw8JbKWc55oV-x_tK8fwA5uqD6ag0d4Torzec2YsPgVSjBkzupgw==",
      "Lang": "da",
      "CaptionKey": "translation",
      "CaptionName": "Oversættelse",
      "YoutubeSynced": true
    },
    {
      "ID": "gIzwAeiGRm-cUavpyAchI8w6hYH-m4UGhTEsdCIJN2nLA6a9QpjHgg==",
      "Lang": "de",
      "CaptionKey": "translation",
      "CaptionName": "Übersetzung",
      "YoutubeSynced": true
    },
    {
      "ID": "LBTM1Fz_4VVMmsIMLsYphhoeLLe--av45l9G4L7HqzRsABKN-RCT0X_tDga39AM1",
      "Lang": "el",
      "CaptionKey": "translation",
      "CaptionName": "Μετάφραση",
      "YoutubeSynced": true
    },
    {
      "ID": "WEegeFuVoLulll8F2ZwtCy2hWXfFoer2SzdhJ94nJmiKH_UgAtPdgA==",
      "Lang": "en",
      "CaptionKey": "translation",
      "CaptionName": "Translation",
      "YoutubeSynced": true
    },
    {
      "ID": "xWgk0e_v5Ab7Nvj0qDQG_wkLTonI8Fvb6EsXBAMD1W3X2ghq5aOi4XlikDZoS9ys",
      "Lang": "en",
      "CaptionKey": "ruby",
      "CaptionName": "Pronunciation - IPA",
      "YoutubeSynced": true
    },
    {
      "ID": "WEegeFuVoLuKFuapzqPVLArjAqcItw0TJspml2AlJaXfj6lv9rpvBg==",
      "Lang": "es",
      "CaptionKey": "translation",
      "CaptionName": "Traducción",
      "YoutubeSynced": true
    },
    {
      "ID": "Zg-TOT4NOjjpjCTljbNDlUxNK1TauZFcgWRlR3ecseM=",
      "Lang": "et",
      "CaptionKey": "translation",
      "CaptionName": "Tõlge",
      "YoutubeSynced": true
    },
    {
      "ID": "OfxXHTIydGUdumByILRvX0ahz9raWIwASf4Zm7w4v2pfNmqiL0dPdw==",
      "Lang": "eu",
      "CaptionKey": "translation",
      "CaptionName": "Itzulpena",
      "YoutubeSynced": true
    },
    {
      "ID": "W284ytG9gkaE_5rCo6HbockyyIsT3tAhWMCeOdq0zMzJ7NUevNEq7A==",
      "Lang": "fa",
      "CaptionKey": "translation",
      "CaptionName": "ترجمه",
      "YoutubeSynced": true
    },
    {
      "ID": "W284ytG9gkZcjAATPPL8NtI7ma5RBofvMuNqZxLRWkSEj8egFArx9w==",
      "Lang": "fi",
      "CaptionKey": "translation",
      "CaptionName": "Käännös",
      "YoutubeSynced": true
    },
    {
      "ID": "WEegeFuVoLsObLVsYHat2XK9pCf-MpMHtFSYKJhaDnCU8dxA3SFMSg==",
      "Lang": "fil",
      "CaptionKey": "translation",
      "CaptionName": "Pagsasalin",
      "YoutubeSynced": true
    },
    {
      "ID": "W284ytG9gkYNNL_kRWy4rm0lPjictQKoiRQpZCifLSZmwunQbyVjKw==",
      "Lang": "fr",
      "CaptionKey": "translation",
      "CaptionName": "Traduction",
      "YoutubeSynced": true
    },
    {
      "ID": "W284ytG9gkaWSpV8AU6NS8CZxIrLZoeRttqacZJknY6B65pdkWGc8A==",
      "Lang": "fy",
      "CaptionKey": "translation",
      "CaptionName": "Oersetting",
      "YoutubeSynced": true
    },
    {
      "ID": "LBTM1Fz_4VUe6Lci3Z-4lB5PLs5x5N0_apeDzUplDy6jQE-ihGalt-kBm9QB3zNM",
      "Lang": "gd",
      "CaptionKey": "translation",
      "CaptionName": "Eadar-theangachadh",
      "YoutubeSynced": true
    },
    {
      "ID": "W284ytG9gkZqX8Q4dhQYf9u9z1pSbotlVGZCcUf6oxXoMTWnzb2AQg==",
      "Lang": "gl",
      "CaptionKey": "translation",
      "CaptionName": "Tradución",
      "YoutubeSynced": true
    },
    {
      "ID": "LBTM1Fz_4VU1OKmLGuaR3KTLhR-Yx7bojwoR0oGnEdl8H09rrwP7Ip3DPbqgxAJO",
      "Lang": "gu",
      "CaptionKey": "translation",
      "CaptionName": "અનુવાદ",
      "YoutubeSynced": true
    },
    {
      "ID": "O8AVXaTD9v8yB0Qlc-SaJ_OY3AAPJJIW7R_1YBE6_9iiyb7WfClaWQ==",
      "Lang": "ha",
      "CaptionKey": "translation",
      "CaptionName": "Fassara",
      "YoutubeSynced": true
    },
    {
      "ID": "LBTM1Fz_4VWGsXIXLuQLkbct_kLSeKUabH1TE-TDCZeJTELwvpaa1lXmwRVAsnR9",
      "Lang": "hi",
      "CaptionKey": "translation",
      "CaptionName": "अनुवाद",
      "YoutubeSynced": true
    },
    {
      "ID": "1qA7HSBz3wbYZIM_YqLUQI96wJxDx2UleOx0Bufv_GdYkDNvYb3Y8A==",
      "Lang": "hr",
      "CaptionKey": "translation",
      "CaptionName": "Prijevod",
      "YoutubeSynced": true
    },
    {
      "ID": "W284ytG9gka1rZT67fhj09qjNtsL1y8XImTukPQDfxU8_gFiT674zg==",
      "Lang": "hu",
      "CaptionKey": "translation",
      "CaptionName": "Fordítás",
      "YoutubeSynced": true
    },
    {
      "ID": "dZ7yGh31QB49-P-VpCvd2CfMFCtAE2RW98DLe5i88DxZztNaCabV1Ql0rFvw-LP8Dr3IhXdOzSs=",
      "Lang": "hy",
      "CaptionKey": "translation",
      "CaptionName": "Թարգմանություն",
      "YoutubeSynced": true
    },
    {
      "ID": "W284ytG9gkao1LeR_-ch9wl9VzgxAMo3qwJVdODOijoY5RGqTv33xA==",
      "Lang": "id",
      "CaptionKey": "translation",
      "CaptionName": "Terjemahan",
      "YoutubeSynced": true
    },
    {
      "ID": "1qA7HSBz3wZqKoka5GUYmJFkPNorLL77GJAytMxaYN7WIuV4OGOWAw==",
      "Lang": "ig",
      "CaptionKey": "translation",
      "CaptionName": "Ntughari",
      "YoutubeSynced": true
    },
    {
      "ID": "OfxXHTIydGVUlde0bcDVCXpwMHw4aqqYL98dYzzJihgodj32bklzMw==",
      "Lang": "is",
      "CaptionKey": "translation",
      "CaptionName": "Þýðing",
      "YoutubeSynced": true
    },
    {
      "ID": "W284ytG9gkbhfwDyutbyPCeBbp6EUg9vcT3tesA8mpyeMbT3uJd13A==",
      "Lang": "it",
      "CaptionKey": "translation",
      "CaptionName": "Traduzione",
      "YoutubeSynced": true
    },
    {
      "ID": "W284ytG9gkb8XSUAIcGoXhVtWiA_D98jmHNDYMxe11mJBmuYmxwDzg==",
      "Lang": "iw",
      "CaptionKey": "translation",
      "CaptionName": "תרגום",
      "YoutubeSynced": true
    },
    {
      "ID": "Zg-TOT4NOjjyTFNWxKrOdOlFhKFR6GlrM2qscn7yap8=",
      "Lang": "ja",
      "CaptionKey": "translation",
      "CaptionName": "翻訳",
      "YoutubeSynced": true
    },
    {
      "ID": "OfxXHTIydGUpeEG7TqJ1jO412sUwaZJ6wmxdWy4_edH5B6j4XmCi4A==",
      "Lang": "jv",
      "CaptionKey": "translation",
      "CaptionName": "Ngartekne",
      "YoutubeSynced": true
    },
    {
      "ID": "TvObnn_ZH-yJ9BvZZTBFZ3P7KEeK6KFR0bR3Hxksuq5fMlGYAR60WgJi26FU0pujd25yNfY8h3c=",
      "Lang": "ka",
      "CaptionKey": "translation",
      "CaptionName": "თარგმანი",
      "YoutubeSynced": true
    },
    {
      "ID": "9tW4SvRrqQKTNgWqRPqvNeFKzVERwLCvMRGsXU4aU7QT13IHx77zOw==",
      "Lang": "kk",
      "CaptionKey": "translation",
      "CaptionName": "Аударма",
      "YoutubeSynced": true
    },
    {
      "ID": "TL-8nAv0xM3ZbfA5_EqLyFMwGp2dUrdrb0bLakwMMa0q6PFO7D1m6BSN2fkAEkcKZz7LBNAImP0=",
      "Lang": "km",
      "CaptionKey": "translation",
      "CaptionName": "ការបកប្រែ",
      "YoutubeSynced": true
    },
    {
      "ID": "LBTM1Fz_4VW3wOvk7oC779JS4CfKYcQ7wg604FWBtk3PAzpOurzbiAdlImFh4Tgh",
      "Lang": "kn",
      "CaptionKey": "translation",
      "CaptionName": "ಅನುವಾದ",
      "YoutubeSynced": true
    },
    {
      "ID": "Zg-TOT4NOjglVmoB8tdsN3gFUh22Kxn_iY9gCdtE4Ds=",
      "Lang": "ko",
      "CaptionKey": "translation",
      "CaptionName": "번역",
      "YoutubeSynced": true
    },
    {
      "ID": "Zg-TOT4NOjjPnqbrCQE5MRWFN09ki0SL0675E08y2C0=",
      "Lang": "ku",
      "CaptionKey": "translation",
      "CaptionName": "Werger",
      "YoutubeSynced": true
    },
    {
      "ID": "9tW4SvRrqQLY2THID7xW8hqhqIw8Bm5xdGhDbFCbg8wdiLxHLjCzBA==",
      "Lang": "ky",
      "CaptionKey": "translation",
      "CaptionName": "котормо",
      "YoutubeSynced": true
    },
    {
      "ID": "gIzwAeiGRm932U0z0oshLaBi4sxKWfs6xBNx0GUax_eopID6BN-ZNg==",
      "Lang": "lb",
      "CaptionKey": "translation",
      "CaptionName": "Iwwersetzung",
      "YoutubeSynced": true
    },
    {
      "ID": "TL-8nAv0xM2owHlhTO933vd8-RgGY8RclcRHaQ99X5q7d5VuzZW9EuU-HVQok20I1ZDlxFjXB04=",
      "Lang": "lo",
      "CaptionKey": "translation",
      "CaptionName": "ການແປພາສາ",
      "YoutubeSynced": true
    },
    {
      "ID": "1qA7HSBz3wbdPFBknOpEIw4uZz1y0AYpeBTvVTM-KOz0nLsz1_Fo0w==",
      "Lang": "lt",
      "CaptionKey": "translation",
      "CaptionName": "Vertimas",
      "YoutubeSynced": true
    },
    {
      "ID": "W284ytG9gkb21UCU-Yc783OKAtRGWGUy44QIkC1vPA486ZI6xt1oJw==",
      "Lang": "lv",
      "CaptionKey": "translation",
      "CaptionName": "Tulkošana",
      "YoutubeSynced": true
    },
    {
      "ID": "WEegeFuVoLtFl88l-CmqO-qRCN89r284UYoVm4jamWNL7oZLTMACHQ==",
      "Lang": "mg",
      "CaptionKey": "translation",
      "CaptionName": "Translation",
      "YoutubeSynced": true
    },
    {
      "ID": "WRdVMfNKIPLsebntEDmAsoZvC9r9Qq94JVQPUdnrZ5o19iN5VsHSFEGYvCFl4teS",
      "Lang": "mi",
      "CaptionKey": "translation",
      "CaptionName": "Whakamaoritanga",
      "YoutubeSynced": true
    },
    {
      "ID": "gIzwAeiGRm9IEy4AHCaOxMFwoS9i2JLh8PTFUBQw0CshOGe6eBLNQg==",
      "Lang": "mk",
      "CaptionKey": "translation",
      "CaptionName": "Превод",
      "YoutubeSynced": true
    },
    {
      "ID": "TL-8nAv0xM08VwpPA7S-ySp5LoC_KMLu4I8SyYRcQKsf1iBawozwADDvcRnS2OjSqXkhyoLXOJ4=",
      "Lang": "ml",
      "CaptionKey": "translation",
      "CaptionName": "വിവർത്തനം",
      "YoutubeSynced": true
    },
    {
      "ID": "yT4dIzON__tuXr2At3WYVMtnxDhCYmMD9HCsGB2tTuypf3oZdUKHHgi9fvg8jc7j",
      "Lang": "mn",
      "CaptionKey": "translation",
      "CaptionName": "Орчуулга",
      "YoutubeSynced": true
    },
    {
      "ID": "tnWxcMY4MlzOrqmMaROtcZl5ySDQRcFY0iotGWXJLFtRX1LLahWk0Ha8g2F4NDiY",
      "Lang": "mr",
      "CaptionKey": "translation",
      "CaptionName": "भाषांतर",
      "YoutubeSynced": true
    },
    {
      "ID": "W284ytG9gkZaSSalkyhBOJreHDGGurFspqNvfeuNcMz-uWlj_szhGA==",
      "Lang": "ms",
      "CaptionKey": "translation",
      "CaptionName": "Terjemahan",
      "YoutubeSynced": true
    },
    {
      "ID": "WEegeFuVoLuxYmXcuO444TOpQbUIwBFTW2cwhqw9Xe_ZZDxL_dBbhQ==",
      "Lang": "mt",
      "CaptionKey": "translation",
      "CaptionName": "Traduzzjoni",
      "YoutubeSynced": true
    },
    {
      "ID": "TvObnn_ZH-xBtG9kvbXBfrW2a_Ob0NvsCD6sio0ppzeTdCTB3ORunzQcc_TJLflFfhB1X1R1Jt8=",
      "Lang": "my",
      "CaptionKey": "translation",
      "CaptionName": "ဘာသာပြန်",
      "YoutubeSynced": true
    },
    {
      "ID": "LBTM1Fz_4VUrXvDCc1jjpZsWStqnGARmsAiHzafVCcSKfvpFwnaiPKVViAsM3_3d",
      "Lang": "ne",
      "CaptionKey": "translation",
      "CaptionName": "अनुवाद",
      "YoutubeSynced": true
    },
    {
      "ID": "OfxXHTIydGVJEreaDS3QR1wWL5SaTyU_zfoq6r_QeEnrLZ68oYX0YQ==",
      "Lang": "nl",
      "CaptionKey": "translation",
      "CaptionName": "Vertaling",
      "YoutubeSynced": true
    },
    {
      "ID": "gIzwAeiGRm8PSqoTuobSqkcvYQ8WaY8H9bh_KCLVL-stHsPOlgkGIg==",
      "Lang": "no",
      "CaptionKey": "translation",
      "CaptionName": "Oversettelse",
      "YoutubeSynced": true
    },
    {
      "ID": "LBTM1Fz_4VWRhIVXXekcgPYMmr1rpd_nJtfEXFcy3JAMTd7JZURG2p-7qlTcEnIM",
      "Lang": "pa",
      "CaptionKey": "translation",
      "CaptionName": "ਅਨੁਵਾਦ",
      "YoutubeSynced": true
    },
    {
      "ID": "gIzwAeiGRm8OjKfKCq9yCxB3ij8VOptyGUAnRB7XF2wNp_rnZ0m9Pw==",
      "Lang": "pl",
      "CaptionKey": "translation",
      "CaptionName": "Tłumaczenie",
      "YoutubeSynced": true
    },
    {
      "ID": "W284ytG9gkZ9DF0PyBMaWPGeIa1mckd0wglBVwCiX13IEHBYB80g3w==",
      "Lang": "ps",
      "CaptionKey": "translation",
      "CaptionName": "ژباړه",
      "YoutubeSynced": true
    },
    {
      "ID": "W284ytG9gkZqsNJyly5_vIMPWgI4c-tl6Vd_ZM-jNIiqDgtb5Z4-jQ==",
      "Lang": "pt",
      "CaptionKey": "translation",
      "CaptionName": "Tradução",
      "YoutubeSynced": true
    },
    {
      "ID": "OfxXHTIydGW3oa8ci6v8bPMKTveYncRSoJGSDlmSGANWqzTGri06IQ==",
      "Lang": "ro",
      "CaptionKey": "translation",
      "CaptionName": "Traducere",
      "YoutubeSynced": true
    },
    {
      "ID": "9tW4SvRrqQLse3G7pg_q_CSzx8PYLEk_2m6xeMZ6ZWiByzlPRJTXyQ==",
      "Lang": "ru",
      "CaptionKey": "translation",
      "CaptionName": "Перевод",
      "YoutubeSynced": true
    },
    {
      "ID": "W284ytG9gkZFMLpqPcYheWW4YFsP19F6_kIPpDrp65P1Kqtj_ujRBw==",
      "Lang": "sd",
      "CaptionKey": "translation",
      "CaptionName": "ترجمو",
      "YoutubeSynced": true
    },
    {
      "ID": "TL-8nAv0xM2wonOnDXbZ95x__A-9baex7SfV8l6vxBxJ3t15i0udYyuMZFvf14WMmU5X11zSJLI=",
      "Lang": "si",
      "CaptionKey": "translation",
      "CaptionName": "පරිවර්තනය",
      "YoutubeSynced": true
    },
    {
      "ID": "O8AVXaTD9v-AXkVW8ZG7z-jeEv2OdNogXvbqCpr7lTrBdwO1kRYqsg==",
      "Lang": "sk",
      "CaptionKey": "translation",
      "CaptionName": "preklad",
      "YoutubeSynced": true
    },
    {
      "ID": "Zg-TOT4NOjibjHmo6ly-FGjNHIYfFJAcKM4AAQ8kwuQ=",
      "Lang": "sl",
      "CaptionKey": "translation",
      "CaptionName": "Prevod",
      "YoutubeSynced": true
    },
    {
      "ID": "gIzwAeiGRm8Dk8V4lUOisIb83ADLJN4feNIFgeuV8X76ASWAYhd-2g==",
      "Lang": "sm",
      "CaptionKey": "translation",
      "CaptionName": "Faʻaliliuga",
      "YoutubeSynced": true
    },
    {
      "ID": "O8AVXaTD9v9VqH7Nswm5cmPJThYJZuWYTYz6049wm_nSBnvXcvB-4w==",
      "Lang": "sn",
      "CaptionKey": "translation",
      "CaptionName": "Dudziro",
      "YoutubeSynced": true
    },
    {
      "ID": "OfxXHTIydGW3VmmD02yQBCh5rDjnak9kvM31YO7hfBbKxC6v3Z_GSg==",
      "Lang": "so",
      "CaptionKey": "translation",
      "CaptionName": "Tarjumida",
      "YoutubeSynced": true
    },
    {
      "ID": "OfxXHTIydGVaCNNcRoyHQpXhQjOWBEZ6e_VVCIj2i3SZ-HVg1ztjYw==",
      "Lang": "sq",
      "CaptionKey": "translation",
      "CaptionName": "përkthim",
      "YoutubeSynced": true
    },
    {
      "ID": "gIzwAeiGRm_P1EkUuDt7s4xYz4GYwr-eEYitltJHfZuVuzszoxAXMQ==",
      "Lang": "sr",
      "CaptionKey": "translation",
      "CaptionName": "Превод",
      "YoutubeSynced": true
    },
    {
      "ID": "OfxXHTIydGUt6XMLylJV8HlbMFa0qoodSEuC7u-o-O6qbHWZwstQTQ==",
      "Lang": "st",
      "CaptionKey": "translation",
      "CaptionName": "Phetolelo",
      "YoutubeSynced": true
    },
    {
      "ID": "W284ytG9gkYPA_A6yGmFl3UJnwczDOpwzrZO6nYxaIa610A7Ct5YuQ==",
      "Lang": "su",
      "CaptionKey": "translation",
      "CaptionName": "Tarjamahan",
      "YoutubeSynced": true
    },
    {
      "ID": "9tW4SvRrqQKqjEEpZ08CYoHbB_qba0AhE3OzEWKO9aB0ligkaRr4kA==",
      "Lang": "sv",
      "CaptionKey": "translation",
      "CaptionName": "Översättning",
      "YoutubeSynced": true
    },
    {
      "ID": "O8AVXaTD9v-U1HbROtzObXPr-eFAAWI9DRl-bk8-xoHvqiQvu9Owdw==",
      "Lang": "sw",
      "CaptionKey": "translation",
      "CaptionName": "Tafsiri",
      "YoutubeSynced": true
    },
    {
      "ID": "tcZqVL2JzFXA_yek09U6VGUcf6vhyu6MlAFQ3_81MErIyI6Bi5HH1vS4J6c1fj4SBncUAUt0yitctsYM64cMuQ_Nw4y3Mu3u",
      "Lang": "ta",
      "CaptionKey": "translation",
      "CaptionName": "மொழிபெயர்ப்பு",
      "YoutubeSynced": true
    },
    {
      "ID": "tnWxcMY4MlzsU5dIM3WnCKvrNJmAoowCOTtdvxAiIEeYLDi2iFavhLCj5O9C0iYh",
      "Lang": "te",
      "CaptionKey": "translation",
      "CaptionName": "అనువాదం",
      "YoutubeSynced": true
    },
    {
      "ID": "9tW4SvRrqQL_XfgXfXymzRipsY_MfJpE6McU62vd4eh_VrIUvMlc_Q==",
      "Lang": "tg",
      "CaptionKey": "translation",
      "CaptionName": "Тарҷума",
      "YoutubeSynced": true
    },
    {
      "ID": "LBTM1Fz_4VXViJjvJw015mx4DZ_rr4m81EUT815_35ddMeXQdMcjkpUHV-zECOWC",
      "Lang": "th",
      "CaptionKey": "translation",
      "CaptionName": "การแปล",
      "YoutubeSynced": true
    },
    {
      "ID": "1qA7HSBz3wYAx75wWa8TH9rpTLXSe62IVgzYpswC93GtO4KxYeCqtg==",
      "Lang": "tr",
      "CaptionKey": "translation",
      "CaptionName": "Tercüme",
      "YoutubeSynced": true
    },
    {
      "ID": "yT4dIzON__tvVTj5a1mVosLULrHOWOHfHyElRruvY3xkOfNCABT96FMXu45UPZwI",
      "Lang": "uk",
      "CaptionKey": "translation",
      "CaptionName": "Переклад",
      "YoutubeSynced": true
    },
    {
      "ID": "W284ytG9gkaJV1lTnA8UwuwIiNyihtthzanq47FETRUf6H-PdEGZNg==",
      "Lang": "ur",
      "CaptionKey": "translation",
      "CaptionName": "ترجمہ",
      "YoutubeSynced": true
    },
    {
      "ID": "O8AVXaTD9v9ddS5EQoHI5WOWgkhmMkMyJt5qFJ_VDm8xU8-iYDO9Ug==",
      "Lang": "uz",
      "CaptionKey": "translation",
      "CaptionName": "Tarjima",
      "YoutubeSynced": true
    },
    {
      "ID": "Zg-TOT4NOjiRdUkSJtzUn0_A4Nk5uUz44eUb34OVB-I=",
      "Lang": "vi",
      "CaptionKey": "translation",
      "CaptionName": "Dịch",
      "YoutubeSynced": true
    },
    {
      "ID": "W284ytG9gkbS7WPXLOAzsSvrWAt96KXAXCPuerufdFfqQlPH_iQr9g==",
      "Lang": "xh",
      "CaptionKey": "translation",
      "CaptionName": "Inguqulelo",
      "YoutubeSynced": true
    },
    {
      "ID": "QgQmpgJKxAhBmku70br6wrY7eTcA7UICJoITc1EFspgMrXJamyyntRYhzeEJkjGh",
      "Lang": "yi",
      "CaptionKey": "translation",
      "CaptionName": "איבערזעצונג",
      "YoutubeSynced": true
    },
    {
      "ID": "O8AVXaTD9v96s9SCfmR_yZ9rBysdRH-VPQ_8elTc9CDZI54YVYjLPg==",
      "Lang": "yo",
      "CaptionKey": "translation",
      "CaptionName": "Itumọ",
      "YoutubeSynced": true
    },
    {
      "ID": "WEegeFuVoLu-y0LjkmHBLCvi4DNLpltEe0V-NuyAcGBYoS0jg2Ui_A==",
      "Lang": "zh-Hans",
      "CaptionKey": "translation",
      "CaptionName": "翻译",
      "YoutubeSynced": true
    },
    {
      "ID": "WEegeFuVoLu-y0LjkmHBLBamDOZl4twST6MZuUbbjS32JI4N1-ct8w==",
      "Lang": "zh-Hant",
      "CaptionKey": "translation",
      "CaptionName": "翻譯",
      "YoutubeSynced": true
    },
    {
      "ID": "W284ytG9gkba-lpttPsT-MPc4TAjibSNxcrt-dVXsyhjqZMX0ZcoJA==",
      "Lang": "zu",
      "CaptionKey": "translation",
      "CaptionName": "Ukuhumusha",
      "YoutubeSynced": true
    }
  ]
}