{
  "VideoFile": "grammar-en-beginner_42_AU.mp4",
  "Captions": [
    {
      "ID": "Nk5uhSI7t2Jm_0QvYrBdWYlOM913Xo1RE2D0Zh-0hq-BoS_wGKXdYrEUjhmhrmCu",
      "Lang": "en",
      "CaptionKey": "ruby",
      "CaptionName": "Pronunciation - IPA",
      "YoutubeSynced": true
    }
  ]
}