{
  "VideoFile": "grammar-en-beginner_8_UK.mp4",
  "Captions": [
    {
      "ID": "srgb10Fc_wV79CGaR3DaBeAVSOVeh6pZ46f1Ayk6QvSIPhAWCwrHIg==",
      "Lang": "af",
      "CaptionKey": "translation",
      "CaptionName": "vertaling",
      "YoutubeSynced": true
    },
    {
      "ID": "C0UvRwLRHthYB39Qun2pClT_-t_WYo9Ani5g-fkTFSfEy1D-D2iQBQ==",
      "Lang": "am",
      "CaptionKey": "translation",
      "CaptionName": "ትርጉም",
      "YoutubeSynced": true
    },
    {
      "ID": "sVFM5U04yLJLMv3hqlSpAkyRvdOg-WouKmid9steQfdPLaIFFcFO1g==",
      "Lang": "ar",
      "CaptionKey": "translation",
      "CaptionName": "ترجمة",
      "YoutubeSynced": true
    },
    {
      "ID": "sVFM5U04yLIdkpEX9u4Os6JHJfj8DBxLihi8btg8IYx9Il3lt2V_zQ==",
      "Lang": "az",
      "CaptionKey": "translation",
      "CaptionName": "Tərcümə",
      "YoutubeSynced": true
    },
    {
      "ID": "jTn8mqblQeXnnJ44HGu40F02jAVUZGv8UL06b_mPEYACS7AEgl7MO1dZBM1U9QjI",
      "Lang": "be",
      "CaptionKey": "translation",
      "CaptionName": "Пераклад",
      "YoutubeSynced": true
    },
    {
      "ID": "C0UvRwLRHti0725Gs-e09P3nwI4r64wAh9JhH_PVi1JYNrB4T7Kq0A==",
      "Lang": "bg",
      "CaptionKey": "translation",
      "CaptionName": "превод",
      "YoutubeSynced": true
    },
    {
      "ID": "VDF3wJyyidUUdiDRYGNKz0pJSTesc2NDgBoiXD9tQ3mdpiUfsPxGomvJ4accVanx",
      "Lang": "bn",
      "CaptionKey": "translation",
      "CaptionName": "অনুবাদ",
      "YoutubeSynced": true
    },
    {
      "ID": "9-w1OwTrkhnAq2IGrsbncqujf9j7oEpUwu0F9sQveDI=",
      "Lang": "bs",
      "CaptionKey": "translation",
      "CaptionName": "Prevod",
      "YoutubeSynced": true
    },
    {
      "ID": "sVFM5U04yLKZ2byS3QKLArCDqfpLnbQYV1MbZF9H16TPfm8UojEbGg==",
      "Lang": "ca",
      "CaptionKey": "translation",
      "CaptionName": "Traducció",
      "YoutubeSynced": true
    },
    {
      "ID": "sVFM5U04yLLeIb8WdK5nvSV9ijIdmApa2nHsohZNaxVH8JJoXhIN_A==",
      "Lang": "co",
      "CaptionKey": "translation",
      "CaptionName": "Traduzione",
      "YoutubeSynced": true
    },
    {
      "ID": "xy36DSRLnm2kxnUiUuwoDBKfYrrk0KMeblh6o6trHmX6L_cJKedCjA==",
      "Lang": "cs",
      "CaptionKey": "translation",
      "CaptionName": "Překlad",
      "YoutubeSynced": true
    },
    {
      "ID": "VFQkdvdqRTIpSAQUwZb9W1Hnxj7rc0b0HULKPCcSV0h52qZcRoDrtw==",
      "Lang": "cy",
      "CaptionKey": "translation",
      "CaptionName": "Cyfieithiad",
      "YoutubeSynced": true
    },
    {
      "ID": "ES3gevtl6fTW51VsOmNnVGdNZnLu-VO-ByBzyxrUO1YVc_Er3YnZUA==",
      "Lang": "da",
      "CaptionKey": "translation",
      "CaptionName": "Oversættelse",
      "YoutubeSynced": true
    },
    {
      "ID": "C0UvRwLRHtiMo_ugcmyxr2aHYHEgcITjJ1WPdosWdDbfdWdv3E-pDA==",
      "Lang": "de",
      "CaptionKey": "translation",
      "CaptionName": "Übersetzung",
      "YoutubeSynced": true
    },
    {
      "ID": "VDF3wJyyidXLVxNgdwtaztIpBqEkl4kHi2kzqODv1NzxHfrHx5FuFyJByj8oMFRW",
      "Lang": "el",
      "CaptionKey": "translation",
      "CaptionName": "Μετάφραση",
      "YoutubeSynced": true
    },
    {
      "ID": "VFQkdvdqRTIDsR_ncpGdwnDBlFhrPT_ioacXUHeyE71DK3_CtuwOIQ==",
      "Lang": "en",
      "CaptionKey": "translation",
      "CaptionName": "Translation",
      "YoutubeSynced": true
    },
    {
      "ID": "z7BShE2V-Td4uKbZJByg7yoBxhHXX5awwuEQ2-dx7tk4gw807jXPlxUxhY9WbuGb",
      "Lang": "en",
      "CaptionKey": "ruby",
      "CaptionName": "Pronunciation - IPA",
      "YoutubeSynced": true
    },
    {
      "ID": "VFQkdvdqRTLnvPjHpN5-xoEGIvjMacdno1okCt5dXiEVR-ilS9PjqA==",
      "Lang": "es",
      "CaptionKey": "translation",
      "CaptionName": "Traducción",
      "YoutubeSynced": true
    },
    {
      "ID": "9-w1OwTrkhkZX4NxZ0pW5EpLKZQbL3T43VzHGt1ei8k=",
      "Lang": "et",
      "CaptionKey": "translation",
      "CaptionName": "Tõlge",
      "YoutubeSynced": true
    },
    {
      "ID": "srgb10Fc_wVVvdoqnfsqG9IAoXxsQKYUFRLfct2zai4_k5R1MkcImQ==",
      "Lang": "eu",
      "CaptionKey": "translation",
      "CaptionName": "Itzulpena",
      "YoutubeSynced": true
    },
    {
      "ID": "sVFM5U04yLIR6HHsz-72PVqfpIGz1MCt5NrrPUe2RpCyO3P_HQuwpA==",
      "Lang": "fa",
      "CaptionKey": "translation",
      "CaptionName": "ترجمه",
      "YoutubeSynced": true
    },
    {
      "ID": "sVFM5U04yLJ_E6VVbEWUohCVlVcfyThxNkyY9GJeYId13_P749Oh9A==",
      "Lang": "fi",
      "CaptionKey": "translation",
      "CaptionName": "Käännös",
      "YoutubeSynced": true
    },
    {
      "ID": "VFQkdvdqRTLTJQQX1uvyaA-UrrG1ViZ9nCM-KpNKRBB1WevThxTHLw==",
      "Lang": "fil",
      "CaptionKey": "translation",
      "CaptionName": "Pagsasalin",
      "YoutubeSynced": true
    },
    {
      "ID": "sVFM5U04yLK72N3Nk-l4FVP-dc_qSO16zLOYqP1mysqQYCW3ccrkPg==",
      "Lang": "fr",
      "CaptionKey": "translation",
      "CaptionName": "Traduction",
      "YoutubeSynced": true
    },
    {
      "ID": "sVFM5U04yLITFk5LdkKQxR8boJ73Sd0sMOf68NqFfAPEZVfxa-b3Ow==",
      "Lang": "fy",
      "CaptionKey": "translation",
      "CaptionName": "Oersetting",
      "YoutubeSynced": true
    },
    {
      "ID": "VDF3wJyyidV4Mf57WvKgt-XZ2Yv3d5bwDT0GdfZpA9QxjmX5iKShlgqZNFgdJOgX",
      "Lang": "gd",
      "CaptionKey": "translation",
      "CaptionName": "Eadar-theangachadh",
      "YoutubeSynced": true
    },
    {
      "ID": "sVFM5U04yLJbLqoEpYI3OmAf9NWT-Vw3d5zNkgHali95IG1jC9GqXg==",
      "Lang": "gl",
      "CaptionKey": "translation",
      "CaptionName": "Tradución",
      "YoutubeSynced": true
    },
    {
      "ID": "VDF3wJyyidXgh5VE50qDliAQV6QIIHG7V2TMzmNwdE3S7ySbRjJznGSzng0OqHlU",
      "Lang": "gu",
      "CaptionKey": "translation",
      "CaptionName": "અનુવાદ",
      "YoutubeSynced": true
    },
    {
      "ID": "fr-S7ccraAh3VYIaGgOHa4E9GgD08DDQs0te11CfY_gY2sb-hpj1wA==",
      "Lang": "ha",
      "CaptionKey": "translation",
      "CaptionName": "Fassara",
      "YoutubeSynced": true
    },
    {
      "ID": "VDF3wJyyidWymNg6x_TA7h5Ohv6z_AFNXxqEObOB-bZqSaqkr_J0jEgLQHl8E85G",
      "Lang": "hi",
      "CaptionKey": "translation",
      "CaptionName": "अनुवाद",
      "YoutubeSynced": true
    },
    {
      "ID": "xy36DSRLnm0meR8yuq-izktr98KV6BvF7OrJuTo8FHRDFmEMYkNlpw==",
      "Lang": "hr",
      "CaptionKey": "translation",
      "CaptionName": "Prijevod",
      "YoutubeSynced": true
    },
    {
      "ID": "sVFM5U04yLLgPJ_32-ozJcMYIIUDKx8JF_f_jpEMZWmRA3Aqs6DtbQ==",
      "Lang": "hu",
      "CaptionKey": "translation",
      "CaptionName": "Fordítás",
      "YoutubeSynced": true
    },
    {
      "ID": "Q1PXXcObT1PPWIiOjgP8_GfBahHYLETMApAIKKcGFMJIftwtHuc-pkJlsIjNG-dWl1jNLgdD5pg=",
      "Lang": "hy",
      "CaptionKey": "translation",
      "CaptionName": "Թարգմանություն",
      "YoutubeSynced": true
    },
    {
      "ID": "sVFM5U04yLKeR5z_4nbI8A2aqlx6SMhrNh7kd14svi6kEZ9FZtkQ3w==",
      "Lang": "id",
      "CaptionKey": "translation",
      "CaptionName": "Terjemahan",
      "YoutubeSynced": true
    },
    {
      "ID": "xy36DSRLnm2g211zLP1s2yA0iPhfYWJMONVGyzH6KFLfpmXWuza8VQ==",
      "Lang": "ig",
      "CaptionKey": "translation",
      "CaptionName": "Ntughari",
      "YoutubeSynced": true
    },
    {
      "ID": "srgb10Fc_wUoG-rII1lSS5rzjKmQWMlBCHaidH_nWGOHOECsVh5Jtw==",
      "Lang": "is",
      "CaptionKey": "translation",
      "CaptionName": "Þýðing",
      "YoutubeSynced": true
    },
    {
      "ID": "sVFM5U04yLInaYNJaCTUK9PlCDeGBP1r_zW7W88WKfZXVE6aqK00Ug==",
      "Lang": "it",
      "CaptionKey": "translation",
      "CaptionName": "Traduzione",
      "YoutubeSynced": true
    },
    {
      "ID": "sVFM5U04yLIrP4X6rS9aftamt6BFnClpLleqJZEp8RkiHFNoKBzpHg==",
      "Lang": "iw",
      "CaptionKey": "translation",
      "CaptionName": "תרגום",
      "YoutubeSynced": true
    },
    {
      "ID": "9-w1OwTrkhlQYnEkUTZxbPe3PLOqG9VRV_WDP3BHcDM=",
      "Lang": "ja",
      "CaptionKey": "translation",
      "CaptionName": "翻訳",
      "YoutubeSynced": true
    },
    {
      "ID": "srgb10Fc_wV4Njqssablxo0ZqFhypMDKENSE5KoLnw6rNcQSif_VZg==",
      "Lang": "jv",
      "CaptionKey": "translation",
      "CaptionName": "Ngartekne",
      "YoutubeSynced": true
    },
    {
      "ID": "cp3F-HIdP8yo1TQS8jUW4nZkMU1ZHgOmliLqqK7T4jFwtiHuyDIMy8EodGb7Y87kPeqds6vYBEY=",
      "Lang": "ka",
      "CaptionKey": "translation",
      "CaptionName": "თარგმანი",
      "YoutubeSynced": true
    },
    {
      "ID": "-VmBVkRtA_I4K5BxE4Zb5o_UmbJLRBzyiKfXTNWDuMQFNVyJhE9_gw==",
      "Lang": "kk",
      "CaptionKey": "translation",
      "CaptionName": "Аударма",
      "YoutubeSynced": true
    },
    {
      "ID": "BxYo_xhjWYxZX4_h9gYR2sMhNO8RAEvMUO0shhagl1GqYoEPKL9uIoGu0nrHXWTuSJ5xAukmbho=",
      "Lang": "km",
      "CaptionKey": "translation",
      "CaptionName": "ការបកប្រែ",
      "YoutubeSynced": true
    },
    {
      "ID": "VDF3wJyyidW8eLIY6lGbQ_UZMqmuWrVL7n4DQrq4W7dTKenb8nVn3RmKx-jSzszE",
      "Lang": "kn",
      "CaptionKey": "translation",
      "CaptionName": "ಅನುವಾದ",
      "YoutubeSynced": true
    },
    {
      "ID": "9-w1OwTrkhn8vqe6lmdOxjNqvsYZpN6yYWmGS2aUShk=",
      "Lang": "ko",
      "CaptionKey": "translation",
      "CaptionName": "번역",
      "YoutubeSynced": true
    },
    {
      "ID": "9-w1OwTrkhlwUMpUKAXW1QMQcgUUJpSW94dr-NjVqTY=",
      "Lang": "ku",
      "CaptionKey": "translation",
      "CaptionName": "Werger",
      "YoutubeSynced": true
    },
    {
      "ID": "-VmBVkRtA_KzUEciLKlhNaVIdS7AtP8b4S0Fi0L1NedNhMXvbCV1gA==",
      "Lang": "ky",
      "CaptionKey": "translation",
      "CaptionName": "котормо",
      "YoutubeSynced": true
    },
    {
      "ID": "C0UvRwLRHthubht44_Z4wF4zAmJgck_6rs4TLw0Zj5i8eEyHm5F6lw==",
      "Lang": "lb",
      "CaptionKey": "translation",
      "CaptionName": "Iwwersetzung",
      "YoutubeSynced": true
    },
    {
      "ID": "BxYo_xhjWYzGopbj9qg0lHOf86B2nYuQT2fbseZL3a-UfPKtKM03jB5vC3uMS5tuaILdJ2ydLbM=",
      "Lang": "lo",
      "CaptionKey": "translation",
      "CaptionName": "ການແປພາສາ",
      "YoutubeSynced": true
    },
    {
      "ID": "xy36DSRLnm3Xjm-gm5oxPeFsLmSH3HA3XdFyk82WoqM4m8yqgwPW7Q==",
      "Lang": "lt",
      "CaptionKey": "translation",
      "CaptionName": "Vertimas",
      "YoutubeSynced": true
    },
    {
      "ID": "sVFM5U04yLKx7I7XpAG0lXNcD4mt9icG4lEyDvfMnZwLKGYgxAOroA==",
      "Lang": "lv",
      "CaptionKey": "translation",
      "CaptionName": "Tulkošana",
      "YoutubeSynced": true
    },
    {
      "ID": "VFQkdvdqRTIQJv9j3pzjQBuYtdVZw_v55PlEHBUAMQTFSmKQ8DOCDg==",
      "Lang": "mg",
      "CaptionKey": "translation",
      "CaptionName": "Translation",
      "YoutubeSynced": true
    },
    {
      "ID": "VWQI9LC6XG2h-hzVAmRG6l6ryXZbTlc76KM0HJxThHwEdUUzDlmjqZeUe6q6uoaO",
      "Lang": "mi",
      "CaptionKey": "translation",
      "CaptionName": "Whakamaoritanga",
      "YoutubeSynced": true
    },
    {
      "ID": "C0UvRwLRHtizv2rZYlG42125gmloqczNDQrXgX5QR_1rUTeZDUn-xg==",
      "Lang": "mk",
      "CaptionKey": "translation",
      "CaptionName": "Превод",
      "YoutubeSynced": true
    },
    {
      "ID": "BxYo_xhjWYxNXnxvIQPshQqGV_auBCyHWShkq9dMuPKGSTJ-Y6TjYznMmkzrZU5RVuotWSki9Ew=",
      "Lang": "ml",
      "CaptionKey": "translation",
      "CaptionName": "വിവർത്തനം",
      "YoutubeSynced": true
    },
    {
      "ID": "jTn8mqblQeU1O1YdJa2IIEfoRv5r43f6YEwTwDltNtWBY1mBqB_JZx25GitXn-ek",
      "Lang": "mn",
      "CaptionKey": "translation",
      "CaptionName": "Орчуулга",
      "YoutubeSynced": true
    },
    {
      "ID": "zte9vx1jv66SZ7RtPFdedp7sgw1f8ObVZ2y7QVLUtAwo8nP-CbqmQPy6P6zBJr-7",
      "Lang": "mr",
      "CaptionKey": "translation",
      "CaptionName": "भाषांतर",
      "YoutubeSynced": true
    },
    {
      "ID": "sVFM5U04yLK_X-YPm7kmyo_t1RGna3uBxmXZglaeD9MjYpQFpuFaMg==",
      "Lang": "ms",
      "CaptionKey": "translation",
      "CaptionName": "Terjemahan",
      "YoutubeSynced": true
    },
    {
      "ID": "VFQkdvdqRTLAgC9Dvzn6LuQSLW0WE66KPMuS51YWc9XaroNR2yazwQ==",
      "Lang": "mt",
      "CaptionKey": "translation",
      "CaptionName": "Traduzzjoni",
      "YoutubeSynced": true
    },
    {
      "ID": "cp3F-HIdP8y520Ln-bduD0aFoyCwHWTbVq0lKIwLJzrACpNurU_5qHJt4FeW_IRQ-EeI0W2OjZg=",
      "Lang": "my",
      "CaptionKey": "translation",
      "CaptionName": "ဘာသာပြန်",
      "YoutubeSynced": true
    },
    {
      "ID": "VDF3wJyyidXJ31f8CFMBUGwEXg1mPlhPbqMoxByLFBY-RUBhJPZY7pboWXuh7w4y",
      "Lang": "ne",
      "CaptionKey": "translation",
      "CaptionName": "अनुवाद",
      "YoutubeSynced": true
    },
    {
      "ID": "srgb10Fc_wWnKY-N4HTQXSaxbjim_IRGNsch-OGxEHhsscZKCKHOcA==",
      "Lang": "nl",
      "CaptionKey": "translation",
      "CaptionName": "Vertaling",
      "YoutubeSynced": true
    },
    {
      "ID": "C0UvRwLRHthQI7ZHwV_Gg191K2un9KRN_UxF7bUmie57_rTtI9fi7g==",
      "Lang": "no",
      "CaptionKey": "translation",
      "CaptionName": "Oversettelse",
      "YoutubeSynced": true
    },
    {
      "ID": "VDF3wJyyidW4O8aiGgqDuC57vRl1yzzfTYp17_k42K7PfnS3KmNX49_qo6_lqN6N",
      "Lang": "pa",
      "CaptionKey": "translation",
      "CaptionName": "ਅਨੁਵਾਦ",
      "YoutubeSynced": true
    },
    {
      "ID": "C0UvRwLRHtiJ8LktkQroEGsQP7cqYUowxiSJD89w697fj6kfBAyvaw==",
      "Lang": "pl",
      "CaptionKey": "translation",
      "CaptionName": "Tłumaczenie",
      "YoutubeSynced": true
    },
    {
      "ID": "sVFM5U04yLJaLy0dZqw2oiENvQrQWvfXvZHorucggkzXEDDPWm1siw==",
      "Lang": "ps",
      "CaptionKey": "translation",
      "CaptionName": "ژباړه",
      "YoutubeSynced": true
    },
    {
      "ID": "sVFM5U04yLLFjjEC-8kmrPV0CVQOEVeIlvcA-lTvpgQud3YiNDi1_w==",
      "Lang": "pt",
      "CaptionKey": "translation",
      "CaptionName": "Tradução",
      "YoutubeSynced": true
    },
    {
      "ID": "srgb10Fc_wXLPClf_iykPeAe4cI4Dw0f0zEfkWydCO_CwXpHTS-ZwA==",
      "Lang": "ro",
      "CaptionKey": "translation",
      "CaptionName": "Traducere",
      "YoutubeSynced": true
    },
    {
      "ID": "-VmBVkRtA_ImzrMm0hG9CUpJs0lhhl0PxuX5P6WNIP1CdcoVVu_8dg==",
      "Lang": "ru",
      "CaptionKey": "translation",
      "CaptionName": "Перевод",
      "YoutubeSynced": true
    },
    {
      "ID": "sVFM5U04yLJwnWfdDIWdd35UbpU2FzObyKFAj-Mij4GAE7VcaD1g4w==",
      "Lang": "sd",
      "CaptionKey": "translation",
      "CaptionName": "ترجمو",
      "YoutubeSynced": true
    },
    {
      "ID": "BxYo_xhjWYwvyk2Wak3FbsNLYSfDNCvfRRuuZgThxEDM11PbnPfMVuqVY_2hafo1qreniNh5QW4=",
      "Lang": "si",
      "CaptionKey": "translation",
      "CaptionName": "පරිවර්තනය",
      "YoutubeSynced": true
    },
    {
      "ID": "fr-S7ccraAhvHtUq8wSHIcKTkNY5TN9oKCm3-U3LUE3raayVRSYkzw==",
      "Lang": "sk",
      "CaptionKey": "translation",
      "CaptionName": "preklad",
      "YoutubeSynced": true
    },
    {
      "ID": "9-w1OwTrkhm5WpMMDEs67FCckUD6SpiCFJnicWtEE5M=",
      "Lang": "sl",
      "CaptionKey": "translation",
      "CaptionName": "Prevod",
      "YoutubeSynced": true
    },
    {
      "ID": "C0UvRwLRHtgnvrJoril0kOI4bkh2mlFk6kz9373SAlx2SD8bBdA1HQ==",
      "Lang": "sm",
      "CaptionKey": "translation",
      "CaptionName": "Faʻaliliuga",
      "YoutubeSynced": true
    },
    {
      "ID": "fr-S7ccraAhr4rULdJr7aDZgINaQwagTAvFfcu2s0OHgqdMkpyXnlw==",
      "Lang": "sn",
      "CaptionKey": "translation",
      "CaptionName": "Dudziro",
      "YoutubeSynced": true
    },
    {
      "ID": "srgb10Fc_wUgGuAOQBDBH7oJN_TsGiwOLO3awLKd7r3ll6BvVoUfrA==",
      "Lang": "so",
      "CaptionKey": "translation",
      "CaptionName": "Tarjumida",
      "YoutubeSynced": true
    },
    {
      "ID": "srgb10Fc_wVjVBfYip-4w1vP3qER4Nll-qLTGWn9igYDzys9VPG3fA==",
      "Lang": "sq",
      "CaptionKey": "translation",
      "CaptionName": "përkthim",
      "YoutubeSynced": true
    },
    {
      "ID": "C0UvRwLRHtg6N_MwjE81kktgQF7qsm53oE4HejyGUWoCuQSf48o7kg==",
      "Lang": "sr",
      "CaptionKey": "translation",
      "CaptionName": "Превод",
      "YoutubeSynced": true
    },
    {
      "ID": "srgb10Fc_wXsNdKT1VHopFGR3L3l0eaGLDdmn_5OC1Ck3vKTSnA0ew==",
      "Lang": "st",
      "CaptionKey": "translation",
      "CaptionName": "Phetolelo",
      "YoutubeSynced": true
    },
    {
      "ID": "sVFM5U04yLJYV4jQl50j9-SRPHv3spzKiBqhjsWb_PNRzutlOoBkEA==",
      "Lang": "su",
      "CaptionKey": "translation",
      "CaptionName": "Tarjamahan",
      "YoutubeSynced": true
    },
    {
      "ID": "-VmBVkRtA_LCzufheQTAUIA42xkDUQCYOXtWixTkT3xAtm9eDEiDJg==",
      "Lang": "sv",
      "CaptionKey": "translation",
      "CaptionName": "Översättning",
      "YoutubeSynced": true
    },
    {
      "ID": "fr-S7ccraAhF4JdwsVIZAjcPv2YRrriikn6qgEABhbNUcmQQhjYEsQ==",
      "Lang": "sw",
      "CaptionKey": "translation",
      "CaptionName": "Tafsiri",
      "YoutubeSynced": true
    },
    {
      "ID": "wJ5LYg6UwmrpaQLPz4k3cK8gOBQ8tXGnciEQiIp6SOdF65lJn5Do8-S8Swh2n8lOC2dip_RILOxYC2zdI4G7LAlxTUkjNuj6",
      "Lang": "ta",
      "CaptionKey": "translation",
      "CaptionName": "மொழிபெயர்ப்பு",
      "YoutubeSynced": true
    },
    {
      "ID": "zte9vx1jv663yGIqp6yX5JbUMV0x81G5wLyZEONXk93mQqxjc7mGVF0Mcl-Eju_8",
      "Lang": "te",
      "CaptionKey": "translation",
      "CaptionName": "అనువాదం",
      "YoutubeSynced": true
    },
    {
      "ID": "-VmBVkRtA_LLlteo1kJqJVGppWSpDMilCxXcCOZ0AKZSfIdwHOZw3w==",
      "Lang": "tg",
      "CaptionKey": "translation",
      "CaptionName": "Тарҷума",
      "YoutubeSynced": true
    },
    {
      "ID": "VDF3wJyyidX-crYk31VcBug2WQYSqCSfmoHJBw0OUGwnFIpjHgwSqoANkd-nPRBP",
      "Lang": "th",
      "CaptionKey": "translation",
      "CaptionName": "การแปล",
      "YoutubeSynced": true
    },
    {
      "ID": "xy36DSRLnm0-_qOVibMlPPokyH9Bs9Ud9B2r5HII9eLRGcx51u4SMw==",
      "Lang": "tr",
      "CaptionKey": "translation",
      "CaptionName": "Tercüme",
      "YoutubeSynced": true
    },
    {
      "ID": "jTn8mqblQeVKVG4Nz8jm1MupgO8wsU_OmUF-KD2bxholQKws9RXzika75vIeWdrc",
      "Lang": "uk",
      "CaptionKey": "translation",
      "CaptionName": "Переклад",
      "YoutubeSynced": true
    },
    {
      "ID": "sVFM5U04yLIQzu7YK9jwtsVZuxkGlp2VbCanQpmzTfVdkY_oasLPiA==",
      "Lang": "ur",
      "CaptionKey": "translation",
      "CaptionName": "ترجمہ",
      "YoutubeSynced": true
    },
    {
      "ID": "fr-S7ccraAiG3eyIaZz2SAfwvmv94U7kGnIAoDIM-zEeilIkEpkpQQ==",
      "Lang": "uz",
      "CaptionKey": "translation",
      "CaptionName": "Tarjima",
      "YoutubeSynced": true
    },
    {
      "ID": "9-w1OwTrkhm3729aVUCDCO3mZo0vfKgnkduATzSbz_E=",
      "Lang": "vi",
      "CaptionKey": "translation",
      "CaptionName": "Dịch",
      "YoutubeSynced": true
    },
    {
      "ID": "sVFM5U04yLLneYVDF0EPxYse7k6RYxudvK3G06Ezb3iUt2gr8Lm50Q==",
      "Lang": "xh",
      "CaptionKey": "translation",
      "CaptionName": "Inguqulelo",
      "YoutubeSynced": true
    },
    {
      "ID": "kM_tDXjSGbJ2fkTJ-d8AY71T44pg7AlrqDevRzyG77jfUFJl878GTocjVup2bj9f",
      "Lang": "yi",
      "CaptionKey": "translation",
      "CaptionName": "איבערזעצונג",
      "YoutubeSynced": true
    },
    {
      "ID": "fr-S7ccraAhc2b2m8FsbvLHYjRjBl-x3hVBuf1FsAfE30TNzskn7Uw==",
      "Lang": "yo",
      "CaptionKey": "translation",
      "CaptionName": "Itumọ",
      "YoutubeSynced": true
    },
    {
      "ID": "VFQkdvdqRTKq3ZzTbiR4Px0uQUha_KzS0MpzwVnl43Jozgl182_yUw==",
      "Lang": "zh-Hans",
      "CaptionKey": "translation",
      "CaptionName": "翻译",
      "YoutubeSynced": true
    },
    {
      "ID": "VFQkdvdqRTKq3ZzTbiR4P_dffrZwWEIFdaook9MKDO7QDPFPZmCwxA==",
      "Lang": "zh-Hant",
      "CaptionKey": "translation",
      "CaptionName": "翻譯",
      "YoutubeSynced": true
    },
    {
      "ID": "sVFM5U04yLKO5-cxTF4AA7mTk2SeIwSNhoHG6mN2LLvY9xe__4Y5-Q==",
      "Lang": "zu",
      "CaptionKey": "translation",
      "CaptionName": "Ukuhumusha",
      "YoutubeSynced": true
    }
  ]
}