{
  "VideoFile": "grammar-en-beginner_20_UK.mp4",
  "Captions": [
    {
      "ID": "TWnENEPh3KdtEcUp7BZRAoqLmDxCy99li0p6HsoHpGXF0tDImoR9Jg==",
      "Lang": "af",
      "CaptionKey": "translation",
      "CaptionName": "vertaling",
      "YoutubeSynced": true
    },
    {
      "ID": "UnMiKblrSvFd-9YsBGOJGVhfltGmBcjt3eDwskvZ6LTJQ8fdWxBPyw==",
      "Lang": "am",
      "CaptionKey": "translation",
      "CaptionName": "ትርጉም",
      "YoutubeSynced": true
    },
    {
      "ID": "aEMxnD4zpvtJmbgcxStEYmbmuczQU5BQz8bcb0-rLvj4RJCIUa3uwQ==",
      "Lang": "ar",
      "CaptionKey": "translation",
      "CaptionName": "ترجمة",
      "YoutubeSynced": true
    },
    {
      "ID": "aEMxnD4zpvuZtTYgzbOf4CbBGJ4CpFTeWSJHySpR1KDgc0R0F0-lFw==",
      "Lang": "az",
      "CaptionKey": "translation",
      "CaptionName": "Tərcümə",
      "YoutubeSynced": true
    },
    {
      "ID": "EGov7nNTmStMVXnsiFCjMGYZUbD_E-ys3Z-GYv1Hgq1mPfxyP6tNnOPMecti32aK",
      "Lang": "be",
      "CaptionKey": "translation",
      "CaptionName": "Пераклад",
      "YoutubeSynced": true
    },
    {
      "ID": "UnMiKblrSvEVgMRnj61O7yK2sMM8ZCQAjw_Z-bqwfRPtmyjdKlm6EQ==",
      "Lang": "bg",
      "CaptionKey": "translation",
      "CaptionName": "превод",
      "YoutubeSynced": true
    },
    {
      "ID": "64b1TqOP0iv_EM58M1HmJEDWUo871pCOzJsuPpY0TrbyJcz4SsciHD_51JykG_Vj",
      "Lang": "bn",
      "CaptionKey": "translation",
      "CaptionName": "অনুবাদ",
      "YoutubeSynced": true
    },
    {
      "ID": "fOS_MZfUNE4aDq9nDEGiMMRE9cvdlRzmU9Ps_EAgx_I=",
      "Lang": "bs",
      "CaptionKey": "translation",
      "CaptionName": "Prevod",
      "YoutubeSynced": true
    },
    {
      "ID": "aEMxnD4zpvvLjLWivzneqPZ-DfZ6ZCQLbNoy0x4Xu19_-gWmKU90VQ==",
      "Lang": "ca",
      "CaptionKey": "translation",
      "CaptionName": "Traducció",
      "YoutubeSynced": true
    },
    {
      "ID": "aEMxnD4zpvu1t7rVz_2HGNlF1MNDY1gd_frLeRxVhA7KLu4wN5rZUQ==",
      "Lang": "co",
      "CaptionKey": "translation",
      "CaptionName": "Traduzione",
      "YoutubeSynced": true
    },
    {
      "ID": "WiYsG1g45ReFfZG1df7_Aj7bKPoUn1dIfi0udKNeDOq9F9Gz5KZqBw==",
      "Lang": "cs",
      "CaptionKey": "translation",
      "CaptionName": "Překlad",
      "YoutubeSynced": true
    },
    {
      "ID": "WvIeJoSg5hzQEDFcss-H2Akh7tKtHu42g9qPwejLShto1ubmqS1FZA==",
      "Lang": "cy",
      "CaptionKey": "translation",
      "CaptionName": "Cyfieithiad",
      "YoutubeSynced": true
    },
    {
      "ID": "g60wbai3GnJ2CDpboXUL-AR_V6kXqW6rOMKI7ScFvYGyx18bd7le8Q==",
      "Lang": "da",
      "CaptionKey": "translation",
      "CaptionName": "Oversættelse",
      "YoutubeSynced": true
    },
    {
      "ID": "UnMiKblrSvHUT_1eNMyWMrzFrmnQtGVuKJA43Mu-3JuNrI8w3u2CAA==",
      "Lang": "de",
      "CaptionKey": "translation",
      "CaptionName": "Übersetzung",
      "YoutubeSynced": true
    },
    {
      "ID": "64b1TqOP0is9pDgraNyzVi3kZm6CVxYzssOuWqtj6EJnyioMhqdSPKmtlcGlGbgj",
      "Lang": "el",
      "CaptionKey": "translation",
      "CaptionName": "Μετάφραση",
      "YoutubeSynced": true
    },
    {
      "ID": "WvIeJoSg5hzy-SLc32rwlt_69uZjvf7gBjCdapVe4OmrvUp1JRoQaQ==",
      "Lang": "en",
      "CaptionKey": "translation",
      "CaptionName": "Translation",
      "YoutubeSynced": true
    },
    {
      "ID": "RFxdo7OVZmu5A8r7Ccn6pWYS2QuixezFHSEIoXHpGd0IejEArJ0-meKLGXaPeW8Y",
      "Lang": "en",
      "CaptionKey": "ruby",
      "CaptionName": "Pronunciation - IPA",
      "YoutubeSynced": true
    },
    {
      "ID": "WvIeJoSg5hwcjR2EjiigVNx0Q98s6oynQ5SzwXiuUEMgBOOyG5Il3Q==",
      "Lang": "es",
      "CaptionKey": "translation",
      "CaptionName": "Traducción",
      "YoutubeSynced": true
    },
    {
      "ID": "fOS_MZfUNE7ME-0Ds1Tvz7inEwIGy4gAOYCw8yfH1Tw=",
      "Lang": "et",
      "CaptionKey": "translation",
      "CaptionName": "Tõlge",
      "YoutubeSynced": true
    },
    {
      "ID": "TWnENEPh3KeZBgv5pglXIW7AhIFLzVFoqLOCiIAsA1dxPd-rZcq1aw==",
      "Lang": "eu",
      "CaptionKey": "translation",
      "CaptionName": "Itzulpena",
      "YoutubeSynced": true
    },
    {
      "ID": "aEMxnD4zpvuskXLgn3U6Am7bF0KEQ95F3qBHm1XO-sVkwWF4MGWG3Q==",
      "Lang": "fa",
      "CaptionKey": "translation",
      "CaptionName": "ترجمه",
      "YoutubeSynced": true
    },
    {
      "ID": "aEMxnD4zpvu63sjJjuV7MA4w-TuhQL6s2jRFaBpubRd18HXsVPh7QA==",
      "Lang": "fi",
      "CaptionKey": "translation",
      "CaptionName": "Käännös",
      "YoutubeSynced": true
    },
    {
      "ID": "WvIeJoSg5hwfLmhsIU7w0g2U7VLHUvcMuOF8ImKc_qZZvdUQEdSz9A==",
      "Lang": "fil",
      "CaptionKey": "translation",
      "CaptionName": "Pagsasalin",
      "YoutubeSynced": true
    },
    {
      "ID": "aEMxnD4zpvvdLJmZCrF2TaPZxbdMuRJmUUyIAA_WH4Usr6goNYDTzQ==",
      "Lang": "fr",
      "CaptionKey": "translation",
      "CaptionName": "Traduction",
      "YoutubeSynced": true
    },
    {
      "ID": "aEMxnD4zpvuEp-V_Y7XpKqrdeenoK2eiqHPRtzqKYZ4Un9rwRA6mqg==",
      "Lang": "fy",
      "CaptionKey": "translation",
      "CaptionName": "Oersetting",
      "YoutubeSynced": true
    },
    {
      "ID": "64b1TqOP0is0AeaMznp_iEnbSaFtCizybqnkHJn0gnLnGiRDg1c7Uof65l7vAgMB",
      "Lang": "gd",
      "CaptionKey": "translation",
      "CaptionName": "Eadar-theangachadh",
      "YoutubeSynced": true
    },
    {
      "ID": "aEMxnD4zpvtrccMN5YTLk1lhd0Bxnypq2ztKV2POllEP7jizxB5G_w==",
      "Lang": "gl",
      "CaptionKey": "translation",
      "CaptionName": "Tradución",
      "YoutubeSynced": true
    },
    {
      "ID": "64b1TqOP0itBeCLpcJPxcqjyAn1sqP9VIeA30ZzSQkFbuhfO0h6o-QhmyL6Iqr1p",
      "Lang": "gu",
      "CaptionKey": "translation",
      "CaptionName": "અનુવાદ",
      "YoutubeSynced": true
    },
    {
      "ID": "o1JFYT_RRFa8tdn-uxA0ofZVp6dVy0W-5UqGxNj7NBd_uKZ-Brlmfw==",
      "Lang": "ha",
      "CaptionKey": "translation",
      "CaptionName": "Fassara",
      "YoutubeSynced": true
    },
    {
      "ID": "64b1TqOP0iuLprbaNJ2VdtTWyfpp21XM7BkgbF2OZVu7WoqtAGjJKGhLpUxdI3X_",
      "Lang": "hi",
      "CaptionKey": "translation",
      "CaptionName": "अनुवाद",
      "YoutubeSynced": true
    },
    {
      "ID": "WiYsG1g45Rcxto4VGO3qZ39pVrUObVyEHPmMURYuyNM2O4ILPNbJyg==",
      "Lang": "hr",
      "CaptionKey": "translation",
      "CaptionName": "Prijevod",
      "YoutubeSynced": true
    },
    {
      "ID": "aEMxnD4zpvsstHiCtoDkUyzo_bCjAcC4jZuZxQvSwxN09pO-x1QKLQ==",
      "Lang": "hu",
      "CaptionKey": "translation",
      "CaptionName": "Fordítás",
      "YoutubeSynced": true
    },
    {
      "ID": "7SsdINXgxbfi8NAUc6JufeYL225Sl5FAilfSWJ3Ia3fY_ACaT6vL_2o5fCXaC5kcwm80ea83YFw=",
      "Lang": "hy",
      "CaptionKey": "translation",
      "CaptionName": "Թարգմանություն",
      "YoutubeSynced": true
    },
    {
      "ID": "aEMxnD4zpvt8SzTucWtdWYs0ASWj9Bxpe2Kle8hMWk-F_QU6zENXRg==",
      "Lang": "id",
      "CaptionKey": "translation",
      "CaptionName": "Terjemahan",
      "YoutubeSynced": true
    },
    {
      "ID": "WiYsG1g45Rc_FJPOc3aTvcDyvSZvkbVNyGTOrSY5x7I4nY63_DQ09w==",
      "Lang": "ig",
      "CaptionKey": "translation",
      "CaptionName": "Ntughari",
      "YoutubeSynced": true
    },
    {
      "ID": "TWnENEPh3KfzF-y_L0jS_7aZy5fD3jXmyb4BJfZ--CLRna1AzrayyA==",
      "Lang": "is",
      "CaptionKey": "translation",
      "CaptionName": "Þýðing",
      "YoutubeSynced": true
    },
    {
      "ID": "aEMxnD4zpvuVPS6ajCivF9_Oy0eYuQG5eh-J9WGHSeQPQLtp74Ze8w==",
      "Lang": "it",
      "CaptionKey": "translation",
      "CaptionName": "Traduzione",
      "YoutubeSynced": true
    },
    {
      "ID": "aEMxnD4zpvsjhuTqx4xxldIyPQ-87b9l7i6d8HxWDvgWOJZ3Sv0qNQ==",
      "Lang": "iw",
      "CaptionKey": "translation",
      "CaptionName": "תרגום",
      "YoutubeSynced": true
    },
    {
      "ID": "fOS_MZfUNE6mRL6vT40fXngv2MPG9O-f607g1v0lbHY=",
      "Lang": "ja",
      "CaptionKey": "translation",
      "CaptionName": "翻訳",
      "YoutubeSynced": true
    },
    {
      "ID": "TWnENEPh3KcwUGIqGVUSn0jqqsDp8HcH-kyUZ6Z6SjIkvkWbQ2jgVQ==",
      "Lang": "jv",
      "CaptionKey": "translation",
      "CaptionName": "Ngartekne",
      "YoutubeSynced": true
    },
    {
      "ID": "72vEVoVz0UVxE_xcbjjESsdtBmcKJL9MCun-GCuYDA1FSyFHtJ5FE83CadU9cbFJ6yRMcxGzT2k=",
      "Lang": "ka",
      "CaptionKey": "translation",
      "CaptionName": "თარგმანი",
      "YoutubeSynced": true
    },
    {
      "ID": "SoYCsG9VU6RYsAuBkEBkHOoWaE9EmjE47BCP3KjjYEh_75w5jRkrQQ==",
      "Lang": "kk",
      "CaptionKey": "translation",
      "CaptionName": "Аударма",
      "YoutubeSynced": true
    },
    {
      "ID": "yJ1SF-baNt49zPS4eZ8nnXxzgQX-WyKBbuziEjL3YXgRYWmEWGKeo32KACJGF6BBhoeY6pT4hTM=",
      "Lang": "km",
      "CaptionKey": "translation",
      "CaptionName": "ការបកប្រែ",
      "YoutubeSynced": true
    },
    {
      "ID": "64b1TqOP0iv6_sTtqdv-V-STa-GHC3WMTExKHMOIzEFxJbbWcNmA-OGxoS1p4llO",
      "Lang": "kn",
      "CaptionKey": "translation",
      "CaptionName": "ಅನುವಾದ",
      "YoutubeSynced": true
    },
    {
      "ID": "fOS_MZfUNE6-2ECYgE8JqC1H47ZPWKUgUtSFk5IyDL0=",
      "Lang": "ko",
      "CaptionKey": "translation",
      "CaptionName": "번역",
      "YoutubeSynced": true
    },
    {
      "ID": "fOS_MZfUNE6H0Qj5dvNo7-XK7EmUfkqYOzYbBfZxq10=",
      "Lang": "ku",
      "CaptionKey": "translation",
      "CaptionName": "Werger",
      "YoutubeSynced": true
    },
    {
      "ID": "SoYCsG9VU6TsAShyMmfH5vElK2_Kjs-MomCxkSeoH7WVZd8Cv7qR-Q==",
      "Lang": "ky",
      "CaptionKey": "translation",
      "CaptionName": "котормо",
      "YoutubeSynced": true
    },
    {
      "ID": "UnMiKblrSvHgd_s9vrp8Mmj0QX5_xLtz5faTr2pktDpX0yg0ga4ddQ==",
      "Lang": "lb",
      "CaptionKey": "translation",
      "CaptionName": "Iwwersetzung",
      "YoutubeSynced": true
    },
    {
      "ID": "yJ1SF-baNt5UtHVPwoDQD8rkLNml-d7VgznAzpePt0_Zs55Y58bLHOJ7JSHUKQ5qIx3nDpMPIFc=",
      "Lang": "lo",
      "CaptionKey": "translation",
      "CaptionName": "ການແປພາສາ",
      "YoutubeSynced": true
    },
    {
      "ID": "WiYsG1g45Rd9EoNYParM5uRhJ-uSUjMVfIV64rEYU4heNx1z_o5POg==",
      "Lang": "lt",
      "CaptionKey": "translation",
      "CaptionName": "Vertimas",
      "YoutubeSynced": true
    },
    {
      "ID": "aEMxnD4zpvuP3O8VlCeboFEsMtmYR0JRbdJsgMiptloUkQNevR2_SQ==",
      "Lang": "lv",
      "CaptionKey": "translation",
      "CaptionName": "Tulkošana",
      "YoutubeSynced": true
    },
    {
      "ID": "WvIeJoSg5hz1jbVAdAUZCGo9vt7OKVh-VsTbGgsowd4rvlHuIUChgw==",
      "Lang": "mg",
      "CaptionKey": "translation",
      "CaptionName": "Translation",
      "YoutubeSynced": true
    },
    {
      "ID": "i2oxIMthR782cKttk6vL6kfI13TGaZ3pvjTMxWIAq3h7wHqtnQ2M2MQvIC6jfNLk",
      "Lang": "mi",
      "CaptionKey": "translation",
      "CaptionName": "Whakamaoritanga",
      "YoutubeSynced": true
    },
    {
      "ID": "UnMiKblrSvHTYxuRGzTgBuVokCatZJCmdgVMVs9vv-R6QZud9mBHew==",
      "Lang": "mk",
      "CaptionKey": "translation",
      "CaptionName": "Превод",
      "YoutubeSynced": true
    },
    {
      "ID": "yJ1SF-baNt5lRIfHKF71zik3ggkdoWTXpH2as3UPD7gwPdd2h7rXVM2EB-n5PznAiXgTyLt5u8k=",
      "Lang": "ml",
      "CaptionKey": "translation",
      "CaptionName": "വിവർത്തനം",
      "YoutubeSynced": true
    },
    {
      "ID": "EGov7nNTmSt1XMc2_hH_ZA8u8_zUtcYEkWo5Fheg5CFTeVx2Cdkh_3nIdTJ61ozR",
      "Lang": "mn",
      "CaptionKey": "translation",
      "CaptionName": "Орчуулга",
      "YoutubeSynced": true
    },
    {
      "ID": "w9bUoMEi85EZfV6iQ4gIZBrn396mdR8T26RLOJpgM5lsczR0KhR24h8breUTTRab",
      "Lang": "mr",
      "CaptionKey": "translation",
      "CaptionName": "भाषांतर",
      "YoutubeSynced": true
    },
    {
      "ID": "aEMxnD4zpvsnyvDSO9ILYsy9v0clTTiJQUkxZaSO474cPp7nEVL2Mw==",
      "Lang": "ms",
      "CaptionKey": "translation",
      "CaptionName": "Terjemahan",
      "YoutubeSynced": true
    },
    {
      "ID": "WvIeJoSg5hyU89EeqYv95sz0tdMVt2kSpcyUrkHf5o34SipVF7pfHw==",
      "Lang": "mt",
      "CaptionKey": "translation",
      "CaptionName": "Traduzzjoni",
      "YoutubeSynced": true
    },
    {
      "ID": "72vEVoVz0UWVRnNSTeTgya19AsdazpWx26Z6YIWOtWkCcZvGNxpubdFRfve3u8rBeq87IegYPR4=",
      "Lang": "my",
      "CaptionKey": "translation",
      "CaptionName": "ဘာသာပြန်",
      "YoutubeSynced": true
    },
    {
      "ID": "64b1TqOP0itICr6_l-9yawavOI9PqXSIjCTe-1Ep3t-MuGhnQC5tI-cnAKokaADe",
      "Lang": "ne",
      "CaptionKey": "translation",
      "CaptionName": "अनुवाद",
      "YoutubeSynced": true
    },
    {
      "ID": "TWnENEPh3KckQTEDG5TawDTaVbVJGFZdyvSkUpsW-SUF093wLqftnA==",
      "Lang": "nl",
      "CaptionKey": "translation",
      "CaptionName": "Vertaling",
      "YoutubeSynced": true
    },
    {
      "ID": "UnMiKblrSvE1KH0_BY8HbfeJ6MtL8m9VJsaimIgbf00TD9XPiGwTuQ==",
      "Lang": "no",
      "CaptionKey": "translation",
      "CaptionName": "Oversettelse",
      "YoutubeSynced": true
    },
    {
      "ID": "64b1TqOP0iv1Vza7uVQZAVbGoiHfwG8nw-DpXL6BJnma4V4BLuCNq21jHj6wNQrh",
      "Lang": "pa",
      "CaptionKey": "translation",
      "CaptionName": "ਅਨੁਵਾਦ",
      "YoutubeSynced": true
    },
    {
      "ID": "UnMiKblrSvELSzHf4bkBYETKV3e6QdfQWfiD1gmeynSxLxhj3yPkCg==",
      "Lang": "pl",
      "CaptionKey": "translation",
      "CaptionName": "Tłumaczenie",
      "YoutubeSynced": true
    },
    {
      "ID": "aEMxnD4zpvsOxSDmR0Qipij0v_du0CvpPkmQ4-SHRvGmvkUwQngRyg==",
      "Lang": "ps",
      "CaptionKey": "translation",
      "CaptionName": "ژباړه",
      "YoutubeSynced": true
    },
    {
      "ID": "aEMxnD4zpvsghhWFcldu3DLkhyVYk66KMJa3G5gAQxIUZuz18AZr9Q==",
      "Lang": "pt",
      "CaptionKey": "translation",
      "CaptionName": "Tradução",
      "YoutubeSynced": true
    },
    {
      "ID": "TWnENEPh3KfglWTmE16BDqJOZQIAttga_GR8YmHjEl85eC1YhulIKg==",
      "Lang": "ro",
      "CaptionKey": "translation",
      "CaptionName": "Traducere",
      "YoutubeSynced": true
    },
    {
      "ID": "SoYCsG9VU6Tmc4LgCG5IgNMXnjinwV-gszPzZ2cQ18HC4itxDY6pGw==",
      "Lang": "ru",
      "CaptionKey": "translation",
      "CaptionName": "Перевод",
      "YoutubeSynced": true
    },
    {
      "ID": "aEMxnD4zpvtEyQatFcQgeGFycPZ2c346sg6d9YTkrdD2n0TCqli7vw==",
      "Lang": "sd",
      "CaptionKey": "translation",
      "CaptionName": "ترجمو",
      "YoutubeSynced": true
    },
    {
      "ID": "yJ1SF-baNt4olQ--FhiGgYJMkj5a8se3gnEwcvHnATbWWxVzQljFo6wzsn7wh5zoppBnrHV18eI=",
      "Lang": "si",
      "CaptionKey": "translation",
      "CaptionName": "පරිවර්තනය",
      "YoutubeSynced": true
    },
    {
      "ID": "o1JFYT_RRFZtkhmjH1fbbLTcwQZAjzc_fl1VNur1Xr3CPjuctT6HHw==",
      "Lang": "sk",
      "CaptionKey": "translation",
      "CaptionName": "preklad",
      "YoutubeSynced": true
    },
    {
      "ID": "fOS_MZfUNE5y57NTYkjjA0awRPO_jouIujRLaz_bT2w=",
      "Lang": "sl",
      "CaptionKey": "translation",
      "CaptionName": "Prevod",
      "YoutubeSynced": true
    },
    {
      "ID": "UnMiKblrSvGppj9iVbWmONhH3FV2d_QXp8EyH21whF5GiMTTZyY1ZA==",
      "Lang": "sm",
      "CaptionKey": "translation",
      "CaptionName": "Faʻaliliuga",
      "YoutubeSynced": true
    },
    {
      "ID": "o1JFYT_RRFYcx3PnPLG_a2r8kHXIxQu5mptqjHkMXh-HPz2nGSmS_A==",
      "Lang": "sn",
      "CaptionKey": "translation",
      "CaptionName": "Dudziro",
      "YoutubeSynced": true
    },
    {
      "ID": "TWnENEPh3Kf8IdXqZJd6UNqJIKPBHlTvmBiPS3NzqumZDZ4nbPudFw==",
      "Lang": "so",
      "CaptionKey": "translation",
      "CaptionName": "Tarjumida",
      "YoutubeSynced": true
    },
    {
      "ID": "TWnENEPh3KffkUACUHyFdidsQHkEM1BtQNM4ObGQmeiseozqr8hRHg==",
      "Lang": "sq",
      "CaptionKey": "translation",
      "CaptionName": "përkthim",
      "YoutubeSynced": true
    },
    {
      "ID": "UnMiKblrSvHLROouUOziFQeuVjt4Hkwv_t-NlOeI7Oc-Pt20710PLA==",
      "Lang": "sr",
      "CaptionKey": "translation",
      "CaptionName": "Превод",
      "YoutubeSynced": true
    },
    {
      "ID": "TWnENEPh3KfSua1KiooKcfaBFM_tYQy5LqLH38as68iXCMSxH2Ma3g==",
      "Lang": "st",
      "CaptionKey": "translation",
      "CaptionName": "Phetolelo",
      "YoutubeSynced": true
    },
    {
      "ID": "aEMxnD4zpvuB6O63p7utnhEXIhuwVjyEnamtsSbvRYnySfYHIx4_lA==",
      "Lang": "su",
      "CaptionKey": "translation",
      "CaptionName": "Tarjamahan",
      "YoutubeSynced": true
    },
    {
      "ID": "SoYCsG9VU6QJ-6i7r37J41UPj7s4WoIjuq5I8kDexDKGvhLuyFNoOQ==",
      "Lang": "sv",
      "CaptionKey": "translation",
      "CaptionName": "Översättning",
      "YoutubeSynced": true
    },
    {
      "ID": "o1JFYT_RRFbqIH2oYDBlbPU99N2E2lCKxq8YWNKW7Y-98AxAfk0Xjw==",
      "Lang": "sw",
      "CaptionKey": "translation",
      "CaptionName": "Tafsiri",
      "YoutubeSynced": true
    },
    {
      "ID": "uj55tPW-_cOU9lx3JQBjLsAfBOmQmVhepJcOys7fUHEVNcWZs3UMcgHPfKwoPhwLxlol_kJwzdW5O7MM_Ul3hPlqeohKzFQ1",
      "Lang": "ta",
      "CaptionKey": "translation",
      "CaptionName": "மொழிபெயர்ப்பு",
      "YoutubeSynced": true
    },
    {
      "ID": "w9bUoMEi85GPuNhLdJPjLOqj8H0pA5XlkqHO60rByS7jTvjVzwGYxHRW6QZEtP-x",
      "Lang": "te",
      "CaptionKey": "translation",
      "CaptionName": "అనువాదం",
      "YoutubeSynced": true
    },
    {
      "ID": "SoYCsG9VU6RBAAl-LgBMDykD0_VN1cV7HhWlbLcY0XU3JrUuqVx_bQ==",
      "Lang": "tg",
      "CaptionKey": "translation",
      "CaptionName": "Тарҷума",
      "YoutubeSynced": true
    },
    {
      "ID": "64b1TqOP0isEZtFquKe46ayCxiM0-Tp-XweNFLE_jxi6fEA2wf4V0fm8UZ_hgyds",
      "Lang": "th",
      "CaptionKey": "translation",
      "CaptionName": "การแปล",
      "YoutubeSynced": true
    },
    {
      "ID": "WiYsG1g45RcHXnyXs53z5KT8W-YNN5M6GYMgUhu4CijX7pCBvHLH3A==",
      "Lang": "tr",
      "CaptionKey": "translation",
      "CaptionName": "Tercüme",
      "YoutubeSynced": true
    },
    {
      "ID": "EGov7nNTmSugCrght8G2joYdBhxl8CeyoJ5WsEYEtYB8wKqhbD1H_HfHae7ycVka",
      "Lang": "uk",
      "CaptionKey": "translation",
      "CaptionName": "Переклад",
      "YoutubeSynced": true
    },
    {
      "ID": "aEMxnD4zpvsRzx1RB5JtaU_nX5-f4Oi1T_qwS3K5r3SnSSM65vmuBw==",
      "Lang": "ur",
      "CaptionKey": "translation",
      "CaptionName": "ترجمہ",
      "YoutubeSynced": true
    },
    {
      "ID": "o1JFYT_RRFa-HVX_4t8RA0aFMabr8KW9p3R4rFwoSJNV5UoTHezJRw==",
      "Lang": "uz",
      "CaptionKey": "translation",
      "CaptionName": "Tarjima",
      "YoutubeSynced": true
    },
    {
      "ID": "fOS_MZfUNE63qjZ2ga7J3OkZpmz46j82AynB4F1ePfA=",
      "Lang": "vi",
      "CaptionKey": "translation",
      "CaptionName": "Dịch",
      "YoutubeSynced": true
    },
    {
      "ID": "aEMxnD4zpvsNcRL1yJGJAtLr5EGKxd_IoVwv1_XiRxvRMyTmS6ZTwA==",
      "Lang": "xh",
      "CaptionKey": "translation",
      "CaptionName": "Inguqulelo",
      "YoutubeSynced": true
    },
    {
      "ID": "ACujK5UNbA_DNVbuJ8zhC9mDWFVGjqdfaKYIZI1y7s4a7CmHqAPgmllDmkJbRQf_",
      "Lang": "yi",
      "CaptionKey": "translation",
      "CaptionName": "איבערזעצונג",
      "YoutubeSynced": true
    },
    {
      "ID": "o1JFYT_RRFbVMynC_Vtb4iW9GoW5fzsud61qTutRvqM14mr0_lwNVQ==",
      "Lang": "yo",
      "CaptionKey": "translation",
      "CaptionName": "Itumọ",
      "YoutubeSynced": true
    },
    {
      "ID": "WvIeJoSg5hwqeAGMV8eqn55WaBH16ciQz5X-RHMlB-LcFNOsL_rYMA==",
      "Lang": "zh-Hans",
      "CaptionKey": "translation",
      "CaptionName": "翻译",
      "YoutubeSynced": true
    },
    {
      "ID": "WvIeJoSg5hwqeAGMV8eqn7Hxji0arD1Cax--b_P7cOUyIYHiy83w2A==",
      "Lang": "zh-Hant",
      "CaptionKey": "translation",
      "CaptionName": "翻譯",
      "YoutubeSynced": true
    },
    {
      "ID": "aEMxnD4zpvtRKFUgD8WXvN9TF6S5imJLqb1UHxHvoVpLV02YDtAqoA==",
      "Lang": "zu",
      "CaptionKey": "translation",
      "CaptionName": "Ukuhumusha",
      "YoutubeSynced": true
    }
  ]
}