{
  "VideoFile": "grammar-en-beginner_51_A.mp4",
  "Captions": [
    {
      "ID": "ur8RIJgqGbJNQEaRKsW2K0JZgwYFLmUtHcedTCO-R6PmkusUKwQcSyjQrtFTapAz",
      "Lang": "en",
      "CaptionKey": "ruby",
      "CaptionName": "Pronunciation - IPA",
      "YoutubeSynced": true
    }
  ]
}