{
  "VideoFile": "grammar-en-beginner_24_AU.mp4",
  "Captions": [
    {
      "ID": "9kJvpbAuNnVt8tZz2ICd5IJzb8qeasxG2ShPgykpkxEOUldLeuENH3OaZQPfYQdZ",
      "Lang": "en",
      "CaptionKey": "ruby",
      "CaptionName": "Pronunciation - IPA",
      "YoutubeSynced": true
    }
  ]
}