{
  "VideoFile": "grammar-en-beginner_3_A.mp4",
  "Captions": [
    {
      "ID": "0PJTPZRK63S9y9DNuHTpKX7W1I2WNDmq9xy4wbngVDP_SwFKII5JDg==",
      "Lang": "af",
      "CaptionKey": "translation",
      "CaptionName": "vertaling",
      "YoutubeSynced": true
    },
    {
      "ID": "IargNktiL8dFtEmd2o-P_jJ23TmvRov6RMvLJEXko22Qzrd7kvzPGA==",
      "Lang": "am",
      "CaptionKey": "translation",
      "CaptionName": "ትርጉም",
      "YoutubeSynced": true
    },
    {
      "ID": "Tvx6K7gHbGkGDSBJ1tWddhzt4yc5iIth2T_ilcbJfMo6g0zKqkEzMw==",
      "Lang": "ar",
      "CaptionKey": "translation",
      "CaptionName": "ترجمة",
      "YoutubeSynced": true
    },
    {
      "ID": "Tvx6K7gHbGmnw68LU2N-F7Q7ztpHFMaRjApfpZY-GrPZuprcSH0HXw==",
      "Lang": "az",
      "CaptionKey": "translation",
      "CaptionName": "Tərcümə",
      "YoutubeSynced": true
    },
    {
      "ID": "qEYw6cPpYmI4rB814T22ZsIqiWoquTqvFRQuFwpeWpJRNn9z_LSnhQtWt9szDsYC",
      "Lang": "be",
      "CaptionKey": "translation",
      "CaptionName": "Пераклад",
      "YoutubeSynced": true
    },
    {
      "ID": "IargNktiL8eZ9Sge2WmkEO6Szj_gRVk9p9Ugrh3O-omYVDx1tZfwgg==",
      "Lang": "bg",
      "CaptionKey": "translation",
      "CaptionName": "превод",
      "YoutubeSynced": true
    },
    {
      "ID": "tOacJel5vR-hOrIpv_S_GAXafGXPmMbBt61WAl2yqdMe82tQij14sG0vNsInxKah",
      "Lang": "bn",
      "CaptionKey": "translation",
      "CaptionName": "অনুবাদ",
      "YoutubeSynced": true
    },
    {
      "ID": "8NXexmxjA7K7Zv1APjCslDn6f-tVxpBTxq6GvdFjauU=",
      "Lang": "bs",
      "CaptionKey": "translation",
      "CaptionName": "Prevod",
      "YoutubeSynced": true
    },
    {
      "ID": "Tvx6K7gHbGlpmCN-RNA4_x2kqUuw4cb_uy4vyb4ZzuP40Er9jGFalw==",
      "Lang": "ca",
      "CaptionKey": "translation",
      "CaptionName": "Traducció",
      "YoutubeSynced": true
    },
    {
      "ID": "Tvx6K7gHbGlT3xMFaAOGRy7HQVsZpBoFkob4_ZQ5xUaTi4MZ10srtw==",
      "Lang": "co",
      "CaptionKey": "translation",
      "CaptionName": "Traduzione",
      "YoutubeSynced": true
    },
    {
      "ID": "ztQvfgM3MeDrxL-4FK1eB-TqNPvY9EGPEdFifMl1Q_drZZJVwirsxg==",
      "Lang": "cs",
      "CaptionKey": "translation",
      "CaptionName": "Překlad",
      "YoutubeSynced": true
    },
    {
      "ID": "plpPAQS9L3nj3Qtbke6XDc9F-03K5cS3SqfW6d0eTgXHE8uBYr-SPA==",
      "Lang": "cy",
      "CaptionKey": "translation",
      "CaptionName": "Cyfieithiad",
      "YoutubeSynced": true
    },
    {
      "ID": "uQvdyue_awTCtCkD1JMVVS4Vw07hVg03NCDMzjQ6zpCTX9PyrzTu7A==",
      "Lang": "da",
      "CaptionKey": "translation",
      "CaptionName": "Oversættelse",
      "YoutubeSynced": true
    },
    {
      "ID": "IargNktiL8ePtCD0JjA4DYHR6wVOITgDrRlx3kRynKD8VsEY7eMV7g==",
      "Lang": "de",
      "CaptionKey": "translation",
      "CaptionName": "Übersetzung",
      "YoutubeSynced": true
    },
    {
      "ID": "tOacJel5vR8zw8JvX0YPzvZtepawN2P_HWKWtrD3J_T8kyqW9TtnOcMzq2f3SJje",
      "Lang": "el",
      "CaptionKey": "translation",
      "CaptionName": "Μετάφραση",
      "YoutubeSynced": true
    },
    {
      "ID": "plpPAQS9L3lKjPsZvmeriETBkIRnxk6UQ_fxW_nU0qdliDeMT11aEA==",
      "Lang": "en",
      "CaptionKey": "translation",
      "CaptionName": "Translation",
      "YoutubeSynced": true
    },
    {
      "ID": "4Hq9MwLZLAyE7xYxY9uGgqyp3cKHPzalm1yh3vqailkbPHMtK4_x5BQ8-Es7pS29",
      "Lang": "en",
      "CaptionKey": "ruby",
      "CaptionName": "Pronunciation - IPA",
      "YoutubeSynced": true
    },
    {
      "ID": "plpPAQS9L3kfJUbuQSxe04G7a3b4PI_bcto9ZrJbwvU0xyR2btl3WQ==",
      "Lang": "es",
      "CaptionKey": "translation",
      "CaptionName": "Traducción",
      "YoutubeSynced": true
    },
    {
      "ID": "8NXexmxjA7LZwWT7vLdB1wOcZl9NVYbXCPdCF9_xxWA=",
      "Lang": "et",
      "CaptionKey": "translation",
      "CaptionName": "Tõlge",
      "YoutubeSynced": true
    },
    {
      "ID": "0PJTPZRK63TV_Qdi_WyGeCEnQLmKFLG59Hd4FxTdkRMTncazd1NR3g==",
      "Lang": "eu",
      "CaptionKey": "translation",
      "CaptionName": "Itzulpena",
      "YoutubeSynced": true
    },
    {
      "ID": "Tvx6K7gHbGlgLiwnhPPJCqfEQbta0yedvQmyB-EudtkPSS0VNd6RyQ==",
      "Lang": "fa",
      "CaptionKey": "translation",
      "CaptionName": "ترجمه",
      "YoutubeSynced": true
    },
    {
      "ID": "Tvx6K7gHbGmg-zrJ8bGuKzmJ86HAlb6f7LACZAJaPBFwVEz0Ycy5ww==",
      "Lang": "fi",
      "CaptionKey": "translation",
      "CaptionName": "Käännös",
      "YoutubeSynced": true
    },
    {
      "ID": "plpPAQS9L3nt36tq5bdOuTguBCLrOKKiIXOXI025-iZe49MeW-Qd3w==",
      "Lang": "fil",
      "CaptionKey": "translation",
      "CaptionName": "Pagsasalin",
      "YoutubeSynced": true
    },
    {
      "ID": "Tvx6K7gHbGkmfDZYHZNwrKaPWYyUCmC69RboiXMcewCEyNccmEaf_A==",
      "Lang": "fr",
      "CaptionKey": "translation",
      "CaptionName": "Traduction",
      "YoutubeSynced": true
    },
    {
      "ID": "Tvx6K7gHbGmBjjQqKyiQIHaC4TCoZ6jkoFuo1F95o0idarLVFn1keA==",
      "Lang": "fy",
      "CaptionKey": "translation",
      "CaptionName": "Oersetting",
      "YoutubeSynced": true
    },
    {
      "ID": "tOacJel5vR_dSBBtUPE2Dgi1vW-zo10_LCwTcYAYcBxScj6QO4C6eqz90LSreFSG",
      "Lang": "gd",
      "CaptionKey": "translation",
      "CaptionName": "Eadar-theangachadh",
      "YoutubeSynced": true
    },
    {
      "ID": "Tvx6K7gHbGmJoGmv8zxaXvi5aRiUn84UaObBW9qphYMUzZhEwLH9kg==",
      "Lang": "gl",
      "CaptionKey": "translation",
      "CaptionName": "Tradución",
      "YoutubeSynced": true
    },
    {
      "ID": "tOacJel5vR-mUgzZRWdzUn8wH-rnQRkz9vgAFZRrqU0LAJcgEA5IPTwSVcoazNq1",
      "Lang": "gu",
      "CaptionKey": "translation",
      "CaptionName": "અનુવાદ",
      "YoutubeSynced": true
    },
    {
      "ID": "UB0de0aMArLrsIbbRRo0uHWTY6Lw1rTj6N6jl_6BL2AGFwsKXai5qA==",
      "Lang": "ha",
      "CaptionKey": "translation",
      "CaptionName": "Fassara",
      "YoutubeSynced": true
    },
    {
      "ID": "tOacJel5vR_BN85pDKYQNncZBvu6s2cLjJf9n75ZPalnPGkB3x9_KdPrEz_pt9t1",
      "Lang": "hi",
      "CaptionKey": "translation",
      "CaptionName": "अनुवाद",
      "YoutubeSynced": true
    },
    {
      "ID": "ztQvfgM3MeDHzrPT3Fyp6vgqE4R-1CNSe7i7o-1ViXQ_JfIupnaRmQ==",
      "Lang": "hr",
      "CaptionKey": "translation",
      "CaptionName": "Prijevod",
      "YoutubeSynced": true
    },
    {
      "ID": "Tvx6K7gHbGm0cZKyEUPv-AogaiQhYsrKgMOZqLzrb5xu4YV5lSd0aQ==",
      "Lang": "hu",
      "CaptionKey": "translation",
      "CaptionName": "Fordítás",
      "YoutubeSynced": true
    },
    {
      "ID": "8OhF-1MqP1HKRWOiNk4WXB7W3tp3NoRSecUjCzVIXiCLxUny9Eh-Jdm0wzuytnQ7B6HMEr7ZUf0=",
      "Lang": "hy",
      "CaptionKey": "translation",
      "CaptionName": "Թարգմանություն",
      "YoutubeSynced": true
    },
    {
      "ID": "Tvx6K7gHbGnIcT3VY9nm3VyY6qYZlJYW8WZ-kbQvHbYgW7lohSXnmA==",
      "Lang": "id",
      "CaptionKey": "translation",
      "CaptionName": "Terjemahan",
      "YoutubeSynced": true
    },
    {
      "ID": "ztQvfgM3MeCplzrdzUI3IQmkY13VdTFsgDXg3tFZS1DKr1wz4eY_rA==",
      "Lang": "ig",
      "CaptionKey": "translation",
      "CaptionName": "Ntughari",
      "YoutubeSynced": true
    },
    {
      "ID": "0PJTPZRK63SGcqu6FvhaQvYOqEEG8jltXTGJ5F4aZs46t_PDNIrwFQ==",
      "Lang": "is",
      "CaptionKey": "translation",
      "CaptionName": "Þýðing",
      "YoutubeSynced": true
    },
    {
      "ID": "Tvx6K7gHbGmf8S1CSZHii-7uqW3dL4o-y_0u7GigQ21P1MO_5vNegA==",
      "Lang": "it",
      "CaptionKey": "translation",
      "CaptionName": "Traduzione",
      "YoutubeSynced": true
    },
    {
      "ID": "Tvx6K7gHbGnxWpyvuKjThvJ-MWFoLEAFrw0cf6OIeOICuTYpXiARfQ==",
      "Lang": "iw",
      "CaptionKey": "translation",
      "CaptionName": "תרגום",
      "YoutubeSynced": true
    },
    {
      "ID": "8NXexmxjA7IPENtH4gNWqfJAl3lCmirzTy8YhDDqGOM=",
      "Lang": "ja",
      "CaptionKey": "translation",
      "CaptionName": "翻訳",
      "YoutubeSynced": true
    },
    {
      "ID": "0PJTPZRK63TvdgxBDJ5EcZrsIkOiLfpJjG5u4O3ycSCg6XrqtIuCkA==",
      "Lang": "jv",
      "CaptionKey": "translation",
      "CaptionName": "Ngartekne",
      "YoutubeSynced": true
    },
    {
      "ID": "bYQGxwa_M5q13y95hh7dGRX2yy75kfVf5jqo2tg0tkfmAIJzaMwz7vBq2YJsamuNu8OpSeBuqXg=",
      "Lang": "ka",
      "CaptionKey": "translation",
      "CaptionName": "თარგმანი",
      "YoutubeSynced": true
    },
    {
      "ID": "8sDxQSrC4H7TdIjJpoZpReWJRzhNbbD6SgoKTF-cwwAgo4EP1RDArA==",
      "Lang": "kk",
      "CaptionKey": "translation",
      "CaptionName": "Аударма",
      "YoutubeSynced": true
    },
    {
      "ID": "vWmvYIo2tgiYPBxy7QcGhL1OFAVFs3FSz1f-DkIvlbubaxu7CasYnKdASXFU69V6SH7xq1JZMSo=",
      "Lang": "km",
      "CaptionKey": "translation",
      "CaptionName": "ការបកប្រែ",
      "YoutubeSynced": true
    },
    {
      "ID": "tOacJel5vR9_nlX-hopGW3Cl2GCK4FHZc_M9Kiad0wJ1NAxXWWASmER4pMD4tYJm",
      "Lang": "kn",
      "CaptionKey": "translation",
      "CaptionName": "ಅನುವಾದ",
      "YoutubeSynced": true
    },
    {
      "ID": "8NXexmxjA7IVbX-iedal2gRQ0hTtBEOb9ONMlsqdebc=",
      "Lang": "ko",
      "CaptionKey": "translation",
      "CaptionName": "번역",
      "YoutubeSynced": true
    },
    {
      "ID": "8NXexmxjA7LOAimEV3ui-HUJwDbpH-4EJTozt8nCbsY=",
      "Lang": "ku",
      "CaptionKey": "translation",
      "CaptionName": "Werger",
      "YoutubeSynced": true
    },
    {
      "ID": "8sDxQSrC4H5OPf9sQ8QjZH7w4mlfnnqVdCpVnBdqiBpJXztprMDuOQ==",
      "Lang": "ky",
      "CaptionKey": "translation",
      "CaptionName": "котормо",
      "YoutubeSynced": true
    },
    {
      "ID": "IargNktiL8c7hW91_43wsrDQOM_woyTQhScO2beOX-Qt9E7UuHaUnw==",
      "Lang": "lb",
      "CaptionKey": "translation",
      "CaptionName": "Iwwersetzung",
      "YoutubeSynced": true
    },
    {
      "ID": "vWmvYIo2tggeqOc0DTa09zDXOJSxaHq5qXIXvs0lrxiQxur8BqkWbK9eqySYieHNYd-kJhuW1nA=",
      "Lang": "lo",
      "CaptionKey": "translation",
      "CaptionName": "ການແປພາສາ",
      "YoutubeSynced": true
    },
    {
      "ID": "ztQvfgM3MeBmkm7IoqioRvvjIQcPMs09Ul473ujIPzs1F2pVUvKLKQ==",
      "Lang": "lt",
      "CaptionKey": "translation",
      "CaptionName": "Vertimas",
      "YoutubeSynced": true
    },
    {
      "ID": "Tvx6K7gHbGkWsj14XbW0MlQ9GyKSVyxwnPvWZoHLjkz1KlH2VoeR4w==",
      "Lang": "lv",
      "CaptionKey": "translation",
      "CaptionName": "Tulkošana",
      "YoutubeSynced": true
    },
    {
      "ID": "plpPAQS9L3mE88mPRJJfO-a58cUuZccGYvdcjmgDHWcO5A-2LteJjw==",
      "Lang": "mg",
      "CaptionKey": "translation",
      "CaptionName": "Translation",
      "YoutubeSynced": true
    },
    {
      "ID": "VkIhtYy80HrB06_NMYE6JDmyXraJzVZzhBFIJmnqODyl2HT6Xxu7rmj-U_XX2waO",
      "Lang": "mi",
      "CaptionKey": "translation",
      "CaptionName": "Whakamaoritanga",
      "YoutubeSynced": true
    },
    {
      "ID": "IargNktiL8dKFcs6A2Yh_kVvyi_t1nqwsUfSokNoOfRKL8hYwd8ZtA==",
      "Lang": "mk",
      "CaptionKey": "translation",
      "CaptionName": "Превод",
      "YoutubeSynced": true
    },
    {
      "ID": "vWmvYIo2tggk4ix6GRisoRaJNxuztFT6hFQP5m6j5wl_3SbmShKyRjGRYgRrHOKOzb-LmUTrTzw=",
      "Lang": "ml",
      "CaptionKey": "translation",
      "CaptionName": "വിവർത്തനം",
      "YoutubeSynced": true
    },
    {
      "ID": "qEYw6cPpYmImvWw5iLN6LgoNz968v-9O3DucJNK8o9XAOYpVgPlxblUhajorDf7r",
      "Lang": "mn",
      "CaptionKey": "translation",
      "CaptionName": "Орчуулга",
      "YoutubeSynced": true
    },
    {
      "ID": "rPdr_o4uKrxOFpi0akMCxkf7MeNb4yy56g68eYyjd8rVdFH0of5eOH6ffa3Pd29e",
      "Lang": "mr",
      "CaptionKey": "translation",
      "CaptionName": "भाषांतर",
      "YoutubeSynced": true
    },
    {
      "ID": "Tvx6K7gHbGl_wR4p2YTlapcU4JdCqn3R1GOkegX2VSlZMcFuddt4cg==",
      "Lang": "ms",
      "CaptionKey": "translation",
      "CaptionName": "Terjemahan",
      "YoutubeSynced": true
    },
    {
      "ID": "plpPAQS9L3lQnZzQJr9qb0Pn3jJDrPJMtkSVF1EczDkAIn5rGMh7eQ==",
      "Lang": "mt",
      "CaptionKey": "translation",
      "CaptionName": "Traduzzjoni",
      "YoutubeSynced": true
    },
    {
      "ID": "jWvMBYK5qGcww7iSlR8g3LePwV9vKO44WBR9sI6LQzWKa77DvD3dCw5O0zqRGetamCYC1tjstPRYak3Nbua_vdAUAjapRuw_S3tEssXEIyk=",
      "Lang": "my",
      "CaptionKey": "translation",
      "CaptionName": "ဘာသာပြန်ဆိုခြင်း",
      "YoutubeSynced": true
    },
    {
      "ID": "tOacJel5vR-f0lQRZpkqFTiDOh26EckL4nuCmdgzIslkqunmxIGsKFss1Z-MSG9N",
      "Lang": "ne",
      "CaptionKey": "translation",
      "CaptionName": "अनुवाद",
      "YoutubeSynced": true
    },
    {
      "ID": "0PJTPZRK63Thda77Y-_wXeNa-KdntBBLsSacDKmrftwDT1KqPBzJ3Q==",
      "Lang": "nl",
      "CaptionKey": "translation",
      "CaptionName": "Vertaling",
      "YoutubeSynced": true
    },
    {
      "ID": "IargNktiL8cZk5ZS_IlrwR9rsdG3mQn3dEf8sq1YpCMaiZnCE6n7Ew==",
      "Lang": "no",
      "CaptionKey": "translation",
      "CaptionName": "Oversettelse",
      "YoutubeSynced": true
    },
    {
      "ID": "tOacJel5vR8Un_TN3eEVZHOIYH1nMYBTJY73l7OZkz488mHRM9uTT8cDaHa8x6tA",
      "Lang": "pa",
      "CaptionKey": "translation",
      "CaptionName": "ਅਨੁਵਾਦ",
      "YoutubeSynced": true
    },
    {
      "ID": "IargNktiL8dKAjKNDB5wIYT5h5o0vu75wH8q5zzUMH-KQV8R3Nhnyw==",
      "Lang": "pl",
      "CaptionKey": "translation",
      "CaptionName": "Tłumaczenie",
      "YoutubeSynced": true
    },
    {
      "ID": "Tvx6K7gHbGkcQlfZ4H9UWcsrrW9E48B6C3NMIys1v_5D9UV0rIdshw==",
      "Lang": "ps",
      "CaptionKey": "translation",
      "CaptionName": "ژباړه",
      "YoutubeSynced": true
    },
    {
      "ID": "Tvx6K7gHbGknU5XCWAODZ70_fAAydIcrt1TwzANJOAhTCrgHZS9S8g==",
      "Lang": "pt",
      "CaptionKey": "translation",
      "CaptionName": "Tradução",
      "YoutubeSynced": true
    },
    {
      "ID": "0PJTPZRK63TOgbjDqSspUlPxh99hCKaSCUZhCxi-JTFh8UodruHeTQ==",
      "Lang": "ro",
      "CaptionKey": "translation",
      "CaptionName": "Traducere",
      "YoutubeSynced": true
    },
    {
      "ID": "8sDxQSrC4H5uGUF_lkV9eEZIz0K2nTzhqb7YmQgVWR3_gzhElxkSAQ==",
      "Lang": "ru",
      "CaptionKey": "translation",
      "CaptionName": "Перевод",
      "YoutubeSynced": true
    },
    {
      "ID": "Tvx6K7gHbGk1_4aN993O3Te3TkCCMWTwBnfsWHWtHJBGqbQzrW_2wg==",
      "Lang": "sd",
      "CaptionKey": "translation",
      "CaptionName": "ترجمو",
      "YoutubeSynced": true
    },
    {
      "ID": "vWmvYIo2tgiv7zkdu0OUN__Yqw9uKLGIHTL_GbSaTY9OaGNPornALK4noIJqNmTayfLY2y5XUZs=",
      "Lang": "si",
      "CaptionKey": "translation",
      "CaptionName": "පරිවර්තනය",
      "YoutubeSynced": true
    },
    {
      "ID": "UB0de0aMArKKA0DtVatnsUpEJd3rpjDqIyKwYknqW5LWj4oCouFbcw==",
      "Lang": "sk",
      "CaptionKey": "translation",
      "CaptionName": "preklad",
      "YoutubeSynced": true
    },
    {
      "ID": "8NXexmxjA7Ku8PrL-3oocvOuBI12n6bPRObAGzNeohE=",
      "Lang": "sl",
      "CaptionKey": "translation",
      "CaptionName": "Prevod",
      "YoutubeSynced": true
    },
    {
      "ID": "IargNktiL8fqFkVAz8KxeFGgb9OHFNb-xZGXDerdqKM8mi5O-jvuzA==",
      "Lang": "sm",
      "CaptionKey": "translation",
      "CaptionName": "Faʻaliliuga",
      "YoutubeSynced": true
    },
    {
      "ID": "UB0de0aMArJ-80OmX255cBUZh-qrzGthovFmDIJEFLf9J_obGDj9hQ==",
      "Lang": "sn",
      "CaptionKey": "translation",
      "CaptionName": "Dudziro",
      "YoutubeSynced": true
    },
    {
      "ID": "0PJTPZRK63SfE8oCo1qO88raVk-FmFyyjlKlGMhFbPpr0nFXlIo14w==",
      "Lang": "so",
      "CaptionKey": "translation",
      "CaptionName": "Tarjumida",
      "YoutubeSynced": true
    },
    {
      "ID": "0PJTPZRK63SZDWXcmuyuhyUuQopl_TuqLO1GcIZ47_bJNIAaH-s89g==",
      "Lang": "sq",
      "CaptionKey": "translation",
      "CaptionName": "përkthim",
      "YoutubeSynced": true
    },
    {
      "ID": "IargNktiL8dVSjJ5juCTbDQQC8gucreLTGOjWLdK7XYhXYFnQ7uV0g==",
      "Lang": "sr",
      "CaptionKey": "translation",
      "CaptionName": "Превод",
      "YoutubeSynced": true
    },
    {
      "ID": "0PJTPZRK63S5MTAUWXZPKbOZo1tAxcuib7Wm1Iywrejssl9r1HLw5A==",
      "Lang": "st",
      "CaptionKey": "translation",
      "CaptionName": "Phetolelo",
      "YoutubeSynced": true
    },
    {
      "ID": "Tvx6K7gHbGnkJoE67ID3BUilEpOhdKU56-0DH3fiVeogMKL4qAceug==",
      "Lang": "su",
      "CaptionKey": "translation",
      "CaptionName": "Tarjamahan",
      "YoutubeSynced": true
    },
    {
      "ID": "8sDxQSrC4H4e_RRycvKlANXcYDKtHHUbT01l8TzUZGBtPKIgcSJfjQ==",
      "Lang": "sv",
      "CaptionKey": "translation",
      "CaptionName": "Översättning",
      "YoutubeSynced": true
    },
    {
      "ID": "UB0de0aMArL1bJH6TlY3wwtRuWlE7B5_qumIBuPsIRxJLuxNKMP-zw==",
      "Lang": "sw",
      "CaptionKey": "translation",
      "CaptionName": "Tafsiri",
      "YoutubeSynced": true
    },
    {
      "ID": "hHUxcCXLw1b3EVzuRVuRj2qEWRUHB8rV0LyptkD5wLoUTioO6IfSgNVtzx_JD5hoj2bCymCVJGSLuKD86NF6XJcjrLZDcBBM",
      "Lang": "ta",
      "CaptionKey": "translation",
      "CaptionName": "மொழிபெயர்ப்பு",
      "YoutubeSynced": true
    },
    {
      "ID": "rPdr_o4uKrxDzWXs_2TCzlQUIZfjCctjPSWPqsQVcrsAVLYgrdu-eHKz9C6D0wCr",
      "Lang": "te",
      "CaptionKey": "translation",
      "CaptionName": "అనువాదం",
      "YoutubeSynced": true
    },
    {
      "ID": "8sDxQSrC4H506mNC-prw-t7_X-FMd1ZFVE5-eMJ6vH7q4jgGuA-1qQ==",
      "Lang": "tg",
      "CaptionKey": "translation",
      "CaptionName": "Тарҷума",
      "YoutubeSynced": true
    },
    {
      "ID": "tOacJel5vR-6xujkiFB1Fh0qmEOVZMFrN1fGBFtGU8fCf5BvFbFr0DM1sYtBcsT0",
      "Lang": "th",
      "CaptionKey": "translation",
      "CaptionName": "การแปล",
      "YoutubeSynced": true
    },
    {
      "ID": "ztQvfgM3MeBsEX166MdXZzhqI_ESl8WmgpwSCDaGopBa_1WElIv8_g==",
      "Lang": "tr",
      "CaptionKey": "translation",
      "CaptionName": "Tercüme",
      "YoutubeSynced": true
    },
    {
      "ID": "qEYw6cPpYmIRQZSn6KwEslToxF3P9TngNn4wfmWoKfR43que88ZbX14QjlYihHTs",
      "Lang": "uk",
      "CaptionKey": "translation",
      "CaptionName": "Переклад",
      "YoutubeSynced": true
    },
    {
      "ID": "Tvx6K7gHbGn9blGoJtZfoQCfnzdenMOIycNAC2LKkgrzDAQ5iwJIjQ==",
      "Lang": "ur",
      "CaptionKey": "translation",
      "CaptionName": "ترجمہ",
      "YoutubeSynced": true
    },
    {
      "ID": "UB0de0aMArKEYqtkEvSd2lWILm4RJeGTj8XRzkSrHHzKzOsZ425eIw==",
      "Lang": "uz",
      "CaptionKey": "translation",
      "CaptionName": "Tarjima",
      "YoutubeSynced": true
    },
    {
      "ID": "8NXexmxjA7KMESGkuI41LEb65la1qmxdlTSO98BZOUM=",
      "Lang": "vi",
      "CaptionKey": "translation",
      "CaptionName": "Dịch",
      "YoutubeSynced": true
    },
    {
      "ID": "Tvx6K7gHbGmoaaJ-hx7qiMd5GrOkmOPRhNLXNeSzKI6IbNebVuXGsA==",
      "Lang": "xh",
      "CaptionKey": "translation",
      "CaptionName": "Inguqulelo",
      "YoutubeSynced": true
    },
    {
      "ID": "rhqiI1C70vm9384LI68QnfRiPLLPOx9R65aXR2zS0-nAj_Q4WmQQMlkdLbtkpNj5",
      "Lang": "yi",
      "CaptionKey": "translation",
      "CaptionName": "איבערזעצונג",
      "YoutubeSynced": true
    },
    {
      "ID": "UB0de0aMArLYqbeZ3alAKLFUbmcG5ykFEm8TchAyGyPqpJhX-fvhbA==",
      "Lang": "yo",
      "CaptionKey": "translation",
      "CaptionName": "Itumọ",
      "YoutubeSynced": true
    },
    {
      "ID": "plpPAQS9L3lxBc6qaY4Hsu-5ljpZn_9e557TgUbtOAlwJJHSsCn4VA==",
      "Lang": "zh-Hans",
      "CaptionKey": "translation",
      "CaptionName": "翻译",
      "YoutubeSynced": true
    },
    {
      "ID": "plpPAQS9L3lxBc6qaY4HspZIC0uBfwkyDsZgNBwKaSTDTpep5Omm8Q==",
      "Lang": "zh-Hant",
      "CaptionKey": "translation",
      "CaptionName": "翻譯",
      "YoutubeSynced": true
    },
    {
      "ID": "Tvx6K7gHbGkhqEM4xp3SGNbS7xJdXB_m0PFfZOSemdVDcLeLSRvVPQ==",
      "Lang": "zu",
      "CaptionKey": "translation",
      "CaptionName": "Ukuhumusha",
      "YoutubeSynced": true
    }
  ]
}