{
  "VideoFile": "grammar-en-beginner_21_UK.mp4",
  "Captions": [
    {
      "ID": "ymT_vzifiNcD72l6rOHhhHJLtt8l4XTbZ1sxnW_DNNQAhnpEJBRj8A==",
      "Lang": "af",
      "CaptionKey": "translation",
      "CaptionName": "vertaling",
      "YoutubeSynced": true
    },
    {
      "ID": "hQpiI4bQtCQWLYynME-vRWxeYOcAdgv838003LoaSoJ52t_nZHYSZg==",
      "Lang": "am",
      "CaptionKey": "translation",
      "CaptionName": "ትርጉም",
      "YoutubeSynced": true
    },
    {
      "ID": "9e6DGtcUAPpC_e33llZmnTuPITxc2uofE1Phi6hN6iORchYCUf924g==",
      "Lang": "ar",
      "CaptionKey": "translation",
      "CaptionName": "ترجمة",
      "YoutubeSynced": true
    },
    {
      "ID": "9e6DGtcUAPr4DXZPamo7SaMdfaRbeuHM5WOuAiG-vIe_FLX_w4PEbQ==",
      "Lang": "az",
      "CaptionKey": "translation",
      "CaptionName": "Tərcümə",
      "YoutubeSynced": true
    },
    {
      "ID": "QDIRrMksiIQ829IKYgY64f10H_ipd7nbDdCGbyQlZ5Qvm7SzyxS_uLJQ6LOjZpvg",
      "Lang": "be",
      "CaptionKey": "translation",
      "CaptionName": "Пераклад",
      "YoutubeSynced": true
    },
    {
      "ID": "hQpiI4bQtCTp7foCfEJFwRyqJrxtzFptnsfl-ScjuOptWuwnn-O8Nw==",
      "Lang": "bg",
      "CaptionKey": "translation",
      "CaptionName": "превод",
      "YoutubeSynced": true
    },
    {
      "ID": "smnleVZxPo-pfKYTzEviL1vl1CZ1VI3MhaDRpR7GS_vZDUcslbHy8juWcZCu17G-",
      "Lang": "bn",
      "CaptionKey": "translation",
      "CaptionName": "অনুবাদ",
      "YoutubeSynced": true
    },
    {
      "ID": "PdwV-M4rGXjJvhGIgYpKF_bbJgRlLBDR-3yGanEOzug=",
      "Lang": "bs",
      "CaptionKey": "translation",
      "CaptionName": "Prevod",
      "YoutubeSynced": true
    },
    {
      "ID": "9e6DGtcUAPpuf_UzLHfeYjbLxmIpSa1b9iSz2Jcb27_B3Sfbt7-iIQ==",
      "Lang": "ca",
      "CaptionKey": "translation",
      "CaptionName": "Traducció",
      "YoutubeSynced": true
    },
    {
      "ID": "9e6DGtcUAPqcO5_7Xyr6b0Du4L4maSCfjl31uxPji3eNLZEnYqsMSA==",
      "Lang": "co",
      "CaptionKey": "translation",
      "CaptionName": "Traduzione",
      "YoutubeSynced": true
    },
    {
      "ID": "4ebnLaTuRPUI03imPJP9bn46tLADT69Rdz93Q8fuq6eRGBCql8pBBg==",
      "Lang": "cs",
      "CaptionKey": "translation",
      "CaptionName": "Překlad",
      "YoutubeSynced": true
    },
    {
      "ID": "LU86fz5KI1uXlxFy9GRZiIvwxe7wJQ763vjxFpnYWJQ-knGG2IOGKg==",
      "Lang": "cy",
      "CaptionKey": "translation",
      "CaptionName": "Cyfieithiad",
      "YoutubeSynced": true
    },
    {
      "ID": "prM8rraQmCHoI_sMiHoNNUTz0_m5ri-OpvOYeomgW8diMblA8p0a3w==",
      "Lang": "da",
      "CaptionKey": "translation",
      "CaptionName": "Oversættelse",
      "YoutubeSynced": true
    },
    {
      "ID": "hQpiI4bQtCR5EOFFYz8e4A9IwrXUGRtitx7MY9IwbCXfruJZ_mPiCg==",
      "Lang": "de",
      "CaptionKey": "translation",
      "CaptionName": "Übersetzung",
      "YoutubeSynced": true
    },
    {
      "ID": "smnleVZxPo9SUGLyCPc8OkewGX9SNa2DxeCSwQcWCVByCVLxqLZqBJPGdmSp_oIn",
      "Lang": "el",
      "CaptionKey": "translation",
      "CaptionName": "Μετάφραση",
      "YoutubeSynced": true
    },
    {
      "ID": "LU86fz5KI1tBZwnLz1_z9v_UY4p6AbpHSkiw6LPms4KL3915iRl0kQ==",
      "Lang": "en",
      "CaptionKey": "translation",
      "CaptionName": "Translation",
      "YoutubeSynced": true
    },
    {
      "ID": "nORe4RxCW6SdH6QYt4QJdO-xm6JB2CO7-mYrSXJjgIfnQ-B8hYa6TVxzjiUz3Hmt",
      "Lang": "en",
      "CaptionKey": "ruby",
      "CaptionName": "Pronunciation - IPA",
      "YoutubeSynced": true
    },
    {
      "ID": "LU86fz5KI1tpAIYxdWCZJYQJ4ONwRxqed9rS4JFMg5RKd9eBURZ2jw==",
      "Lang": "es",
      "CaptionKey": "translation",
      "CaptionName": "Traducción",
      "YoutubeSynced": true
    },
    {
      "ID": "PdwV-M4rGXj7lEGZqj6_rRiHhLepYWYNq_cpzV-BlwQ=",
      "Lang": "et",
      "CaptionKey": "translation",
      "CaptionName": "Tõlge",
      "YoutubeSynced": true
    },
    {
      "ID": "ymT_vzifiNcvsNE4jcmKPUpMEra-y5oYEyrh2Gt618MtjWaQjnB3Zw==",
      "Lang": "eu",
      "CaptionKey": "translation",
      "CaptionName": "Itzulpena",
      "YoutubeSynced": true
    },
    {
      "ID": "9e6DGtcUAPpWy4gdxz6POF5e9VokVXfXPK2DhXhIbRoCMOoywfkLPQ==",
      "Lang": "fa",
      "CaptionKey": "translation",
      "CaptionName": "ترجمه",
      "YoutubeSynced": true
    },
    {
      "ID": "9e6DGtcUAPrMR4Mv6qC0HkSPcK5WM_SyqhYZDomZnGhUWmYNPSSItA==",
      "Lang": "fi",
      "CaptionKey": "translation",
      "CaptionName": "Käännös",
      "YoutubeSynced": true
    },
    {
      "ID": "LU86fz5KI1uYhcmoSLvfo4kwFetf6me9rUecqwStXojgICDfEJPh-w==",
      "Lang": "fil",
      "CaptionKey": "translation",
      "CaptionName": "Pagsasalin",
      "YoutubeSynced": true
    },
    {
      "ID": "9e6DGtcUAPpD5KNGn92LXZteeqThTFYFUDdMrJcSp1HkWCyIDINJtA==",
      "Lang": "fr",
      "CaptionKey": "translation",
      "CaptionName": "Traduction",
      "YoutubeSynced": true
    },
    {
      "ID": "9e6DGtcUAPoF9G-4DWinYsT5AUefjhKtxXsPekVokmZdlcL6eXvl7A==",
      "Lang": "fy",
      "CaptionKey": "translation",
      "CaptionName": "Oersetting",
      "YoutubeSynced": true
    },
    {
      "ID": "smnleVZxPo_AnkA3M_6T7TZxD8psaPOEB6MisWoKb_GTrMq-Z9WJ_dGNG39hHtOO",
      "Lang": "gd",
      "CaptionKey": "translation",
      "CaptionName": "Eadar-theangachadh",
      "YoutubeSynced": true
    },
    {
      "ID": "9e6DGtcUAPrRZRGeTRuJ3TSf7_j60io3dNeTOHJSlSbSeM_somRXjg==",
      "Lang": "gl",
      "CaptionKey": "translation",
      "CaptionName": "Tradución",
      "YoutubeSynced": true
    },
    {
      "ID": "smnleVZxPo8dBP-NL77Ll4v4ll4nzHxEDcTXMVnA1MxhTBLUy3oZ9dewOHLF9AOe",
      "Lang": "gu",
      "CaptionKey": "translation",
      "CaptionName": "અનુવાદ",
      "YoutubeSynced": true
    },
    {
      "ID": "0XiyfTTOZTFMpLToH3oQ0-xrtnHuOhKWZDZV55FQ3iA9VvxO7NWR0A==",
      "Lang": "ha",
      "CaptionKey": "translation",
      "CaptionName": "Fassara",
      "YoutubeSynced": true
    },
    {
      "ID": "smnleVZxPo-V6DIxptTcalVt-6ewFwAV8AKR-7vBx6UoZ82qupi3W1WclthvOmYB",
      "Lang": "hi",
      "CaptionKey": "translation",
      "CaptionName": "अनुवाद",
      "YoutubeSynced": true
    },
    {
      "ID": "4ebnLaTuRPWrA-xS79iYf1ziUTxgLpSaLdNSGCB93L4htoMi4ZNAcA==",
      "Lang": "hr",
      "CaptionKey": "translation",
      "CaptionName": "Prijevod",
      "YoutubeSynced": true
    },
    {
      "ID": "9e6DGtcUAPpd4mIWuVEsM7CV8BgIr33R-4RA-IVoGzLRK1JtUExbyg==",
      "Lang": "hu",
      "CaptionKey": "translation",
      "CaptionName": "Fordítás",
      "YoutubeSynced": true
    },
    {
      "ID": "iaG1gW4yjZ-TTKFnYvr5HaVNn75nuezvG6YSCcqpdzPwUROfMjyG8F9_wuFcgb3TYXgDXojpRII=",
      "Lang": "hy",
      "CaptionKey": "translation",
      "CaptionName": "Թարգմանություն",
      "YoutubeSynced": true
    },
    {
      "ID": "9e6DGtcUAPrepJjcEGrROm2P_ZpdTEJw-Ps9d8PC9_lGnp0FdmlrkQ==",
      "Lang": "id",
      "CaptionKey": "translation",
      "CaptionName": "Terjemahan",
      "YoutubeSynced": true
    },
    {
      "ID": "4ebnLaTuRPVwwEnl34pfcCpNCBxOJm70ESoehRGWMB9E-bhv7UynQQ==",
      "Lang": "ig",
      "CaptionKey": "translation",
      "CaptionName": "Ntughari",
      "YoutubeSynced": true
    },
    {
      "ID": "ymT_vzifiNe2Q80dHW_HSaF1V4FQp0K841q_gb2Pz0ROVmVBCmJXuw==",
      "Lang": "is",
      "CaptionKey": "translation",
      "CaptionName": "Þýðing",
      "YoutubeSynced": true
    },
    {
      "ID": "9e6DGtcUAPoQ71nC-7bpuYJNZVB5JWw8Ez4zDbW_kuV_45HymYuxpw==",
      "Lang": "it",
      "CaptionKey": "translation",
      "CaptionName": "Traduzione",
      "YoutubeSynced": true
    },
    {
      "ID": "9e6DGtcUAPqfA4jL-ehG8o4hIaux9130-nw1L_GJkNG2jzTxu66dCA==",
      "Lang": "iw",
      "CaptionKey": "translation",
      "CaptionName": "תרגום",
      "YoutubeSynced": true
    },
    {
      "ID": "PdwV-M4rGXjAdmnDU5rC0ShqCDCQjNKhcI2Jq5M4W84=",
      "Lang": "ja",
      "CaptionKey": "translation",
      "CaptionName": "翻訳",
      "YoutubeSynced": true
    },
    {
      "ID": "ymT_vzifiNeUqAgqw4e6TJFxwEMQ2n6foDe5JvInBS9hR4_teiAd1w==",
      "Lang": "jv",
      "CaptionKey": "translation",
      "CaptionName": "Ngartekne",
      "YoutubeSynced": true
    },
    {
      "ID": "Q_ucZk6JWvEoE9sUgo5GUEE1Dhh3eC096zNoZpyg3sv0Cx-lnaVHqGzhaAXwokZmRpsHn5-jB-k=",
      "Lang": "ka",
      "CaptionKey": "translation",
      "CaptionName": "თარგმანი",
      "YoutubeSynced": true
    },
    {
      "ID": "aL1VsJfGKjRWN2t38zoQrlx7OXZAWawPRbvy3ej8Vb6-skzuPEZUCQ==",
      "Lang": "kk",
      "CaptionKey": "translation",
      "CaptionName": "Аударма",
      "YoutubeSynced": true
    },
    {
      "ID": "o8lxywH4tLbg0NEguYsR7bcES-uHq4OWffXwBZFAs-cjPvV8yM-ZyslVoAEFD2S6x9B51cQ1N6w=",
      "Lang": "km",
      "CaptionKey": "translation",
      "CaptionName": "ការបកប្រែ",
      "YoutubeSynced": true
    },
    {
      "ID": "smnleVZxPo-MqgYW6rsqIA4GCIkmmByIvu6tACUMYFe4yT0fY3kmM6XtjDdO08m2",
      "Lang": "kn",
      "CaptionKey": "translation",
      "CaptionName": "ಅನುವಾದ",
      "YoutubeSynced": true
    },
    {
      "ID": "PdwV-M4rGXhwsamRPC2zfTFTWSZyv-CGHqv4HZhS5oM=",
      "Lang": "ko",
      "CaptionKey": "translation",
      "CaptionName": "번역",
      "YoutubeSynced": true
    },
    {
      "ID": "PdwV-M4rGXjMGlet8Yj0NjFPUbS5pzFgUQ2x265HAM4=",
      "Lang": "ku",
      "CaptionKey": "translation",
      "CaptionName": "Werger",
      "YoutubeSynced": true
    },
    {
      "ID": "aL1VsJfGKjTu9jwPQcDavP7U6OEcL9Dm3STc2DTOjWLpK1p83g-Dpg==",
      "Lang": "ky",
      "CaptionKey": "translation",
      "CaptionName": "котормо",
      "YoutubeSynced": true
    },
    {
      "ID": "hQpiI4bQtCStbDdGOK95Fq8cUyLonwUKovGnIooX1x69pJzYTAOItQ==",
      "Lang": "lb",
      "CaptionKey": "translation",
      "CaptionName": "Iwwersetzung",
      "YoutubeSynced": true
    },
    {
      "ID": "o8lxywH4tLadQFSETwtL69oirYNenJdx_VTv6JiFS8j6uUvhgH_TXtSyvUnX_WTOofmXUUGX7og=",
      "Lang": "lo",
      "CaptionKey": "translation",
      "CaptionName": "ການແປພາສາ",
      "YoutubeSynced": true
    },
    {
      "ID": "4ebnLaTuRPUgL7DDmcrfnxj4pA6FMmilYzFZydoiKM8gBBg-R6lT1Q==",
      "Lang": "lt",
      "CaptionKey": "translation",
      "CaptionName": "Vertimas",
      "YoutubeSynced": true
    },
    {
      "ID": "9e6DGtcUAPqnJkIa0UY4_CCRXwJ2jm-cWQcKB-99VzS-mXqXJRSxQw==",
      "Lang": "lv",
      "CaptionKey": "translation",
      "CaptionName": "Tulkošana",
      "YoutubeSynced": true
    },
    {
      "ID": "LU86fz5KI1sN3n5GKQ-4DyUmEXLbF35zSjuIUt0rDckvyIbi-k_knw==",
      "Lang": "mg",
      "CaptionKey": "translation",
      "CaptionName": "Translation",
      "YoutubeSynced": true
    },
    {
      "ID": "QNwMCdSogx76ocCD0T5WSNR35kzz64FcdFprECQjfqKxry_ua6kLXv4mF_H0SugS",
      "Lang": "mi",
      "CaptionKey": "translation",
      "CaptionName": "Whakamaoritanga",
      "YoutubeSynced": true
    },
    {
      "ID": "hQpiI4bQtCRRhuqU9XPfDEXy277y2w4gSafgjXv_f2IKNyX7sl_NSw==",
      "Lang": "mk",
      "CaptionKey": "translation",
      "CaptionName": "Превод",
      "YoutubeSynced": true
    },
    {
      "ID": "o8lxywH4tLbPSEEy8sOqF4ERrDG4nx7fFOQThPbynWSuA-_D6vJz06UrKG2YY1iqdHwIIZPJg0I=",
      "Lang": "ml",
      "CaptionKey": "translation",
      "CaptionName": "വിവർത്തനം",
      "YoutubeSynced": true
    },
    {
      "ID": "QDIRrMksiIR4-KMCZ_BsFFsOSo4cTxPakAq0mMDw2uQi5me_340twz1Fc52XKkth",
      "Lang": "mn",
      "CaptionKey": "translation",
      "CaptionName": "Орчуулга",
      "YoutubeSynced": true
    },
    {
      "ID": "6HSC7tPmbaxncGYuMimg67W_ZvBByAdfGaxLigdghrWg71kQtlHpxYqr3nPllygp",
      "Lang": "mr",
      "CaptionKey": "translation",
      "CaptionName": "भाषांतर",
      "YoutubeSynced": true
    },
    {
      "ID": "9e6DGtcUAPrC7GANhzIXaJrdCCVRxQyREh-br3M9vdGZMRuEvaRluw==",
      "Lang": "ms",
      "CaptionKey": "translation",
      "CaptionName": "Terjemahan",
      "YoutubeSynced": true
    },
    {
      "ID": "LU86fz5KI1snsc5tyP27iOqzVaE4LYw4vVCqo1b4tlvOcIZr5aJNdw==",
      "Lang": "mt",
      "CaptionKey": "translation",
      "CaptionName": "Traduzzjoni",
      "YoutubeSynced": true
    },
    {
      "ID": "Q_ucZk6JWvHUV_LJqo43LBGyNjpI_wunnWJiMUvnScfT3kP9LmpMyUBni0eFYVQcCUrPLpNA0ds=",
      "Lang": "my",
      "CaptionKey": "translation",
      "CaptionName": "ဘာသာပြန်",
      "YoutubeSynced": true
    },
    {
      "ID": "smnleVZxPo_yTGPRho0a9ydIos1GGXumtA5va9eh3fw0OATNLDc_6sY-C4uOwGcN",
      "Lang": "ne",
      "CaptionKey": "translation",
      "CaptionName": "अनुवाद",
      "YoutubeSynced": true
    },
    {
      "ID": "ymT_vzifiNeSJEITd_2MECWQYBIJhvNBxQPDgpDYAFV5aKdrBtwPrw==",
      "Lang": "nl",
      "CaptionKey": "translation",
      "CaptionName": "Vertaling",
      "YoutubeSynced": true
    },
    {
      "ID": "hQpiI4bQtCRoKCGN9ke_Sx6J-6a7oRJ15Yq0wb0dvXWFqhPTWM1OjA==",
      "Lang": "no",
      "CaptionKey": "translation",
      "CaptionName": "Oversettelse",
      "YoutubeSynced": true
    },
    {
      "ID": "smnleVZxPo_OZo8qGpj55q_9_PIb6oyIcTFc9-uUtDOid_OGIEBMUHbsgMdSpFiO",
      "Lang": "pa",
      "CaptionKey": "translation",
      "CaptionName": "ਅਨੁਵਾਦ",
      "YoutubeSynced": true
    },
    {
      "ID": "hQpiI4bQtCSmkYVgdvmS9-kF2mJmJrvPAs1UPnAn_TzFN-2EI6vy0g==",
      "Lang": "pl",
      "CaptionKey": "translation",
      "CaptionName": "Tłumaczenie",
      "YoutubeSynced": true
    },
    {
      "ID": "9e6DGtcUAPrkJMeJsK8yblbTMsLv-o4Th_GqcRBQ7Rb-I67jWsu7gA==",
      "Lang": "ps",
      "CaptionKey": "translation",
      "CaptionName": "ژباړه",
      "YoutubeSynced": true
    },
    {
      "ID": "9e6DGtcUAPrCAKvw9TU6wOiZNNtY7SqwCQfwiETxXoCveJ2hi19PVg==",
      "Lang": "pt",
      "CaptionKey": "translation",
      "CaptionName": "Tradução",
      "YoutubeSynced": true
    },
    {
      "ID": "ymT_vzifiNf297TyO_tTrKvaYd3bc8SKeqLkP5z5g4XVhkPuzAAhQA==",
      "Lang": "ro",
      "CaptionKey": "translation",
      "CaptionName": "Traducere",
      "YoutubeSynced": true
    },
    {
      "ID": "aL1VsJfGKjRPe9E4jEXbs5mfgyEV2meeDHlRIHDC_Um1E0gYpcOwPQ==",
      "Lang": "ru",
      "CaptionKey": "translation",
      "CaptionName": "Перевод",
      "YoutubeSynced": true
    },
    {
      "ID": "9e6DGtcUAPpA-FFui6_7bBZqqYuyMblSI9GFQaJ0ST29DkADVWVZBw==",
      "Lang": "sd",
      "CaptionKey": "translation",
      "CaptionName": "ترجمو",
      "YoutubeSynced": true
    },
    {
      "ID": "o8lxywH4tLYLlH5-hLDYweiSXTTNqsMxr4CeUp28JjAwBsebtr_brgJNAlcJ9XVqB44UEqYHWYc=",
      "Lang": "si",
      "CaptionKey": "translation",
      "CaptionName": "පරිවර්තනය",
      "YoutubeSynced": true
    },
    {
      "ID": "0XiyfTTOZTF67ySMUWTO1hcF3naY1_wY1AfBoHc-wCOczMILhqaBJw==",
      "Lang": "sk",
      "CaptionKey": "translation",
      "CaptionName": "preklad",
      "YoutubeSynced": true
    },
    {
      "ID": "PdwV-M4rGXgSDnktTjzejH698QhSNW2pKTRYjqMOz_E=",
      "Lang": "sl",
      "CaptionKey": "translation",
      "CaptionName": "Prevod",
      "YoutubeSynced": true
    },
    {
      "ID": "hQpiI4bQtCT3OzMOauS_xXpqMr3pZCK0gVXd5EIXVFufO5NSr_H9pQ==",
      "Lang": "sm",
      "CaptionKey": "translation",
      "CaptionName": "Faʻaliliuga",
      "YoutubeSynced": true
    },
    {
      "ID": "0XiyfTTOZTGM6sUJXFtr55aX5f6_tHpxmWX4HAAYNfIn9FbtxxSNVQ==",
      "Lang": "sn",
      "CaptionKey": "translation",
      "CaptionName": "Dudziro",
      "YoutubeSynced": true
    },
    {
      "ID": "ymT_vzifiNcl8EYqYgsMMjskARY7IKrDsgw9wmlPP8YfbJGO_gxFig==",
      "Lang": "so",
      "CaptionKey": "translation",
      "CaptionName": "Tarjumida",
      "YoutubeSynced": true
    },
    {
      "ID": "ymT_vzifiNcJWKkvLUy2wRZVGKE_T56vnjcuaBCL9rTtE4Zm0_3eNw==",
      "Lang": "sq",
      "CaptionKey": "translation",
      "CaptionName": "përkthim",
      "YoutubeSynced": true
    },
    {
      "ID": "hQpiI4bQtCQ6VnPIWry49925nX4CzSnvKq_dOfXtAXNVekyVqITfkQ==",
      "Lang": "sr",
      "CaptionKey": "translation",
      "CaptionName": "Превод",
      "YoutubeSynced": true
    },
    {
      "ID": "ymT_vzifiNd49OObCakDsTI7neoAvGxU1u3nocmJKt8vNFfgbUM3mw==",
      "Lang": "st",
      "CaptionKey": "translation",
      "CaptionName": "Phetolelo",
      "YoutubeSynced": true
    },
    {
      "ID": "9e6DGtcUAPoXZ7NHleQFncudR3gP-vpvM6Zqpv4PeSI9xW56oCclXQ==",
      "Lang": "su",
      "CaptionKey": "translation",
      "CaptionName": "Tarjamahan",
      "YoutubeSynced": true
    },
    {
      "ID": "aL1VsJfGKjSNlQ501OkQH-KErLJEYKNhux1tZ2P67FHB3V6oFYqLww==",
      "Lang": "sv",
      "CaptionKey": "translation",
      "CaptionName": "Översättning",
      "YoutubeSynced": true
    },
    {
      "ID": "0XiyfTTOZTECm9pIcyXudHGXuuQUG8kxDFB8YMoLjQSIHtiSkSeHwQ==",
      "Lang": "sw",
      "CaptionKey": "translation",
      "CaptionName": "Tafsiri",
      "YoutubeSynced": true
    },
    {
      "ID": "devv4C22RKPHDqUN6ZkTLzekM9EJGNAm7SkClf5Wg5VdTK2A783Qe7XZSYGXHLwyE5YkAHgb4Bf-3y13dJj-8rSHAKHIMWDl",
      "Lang": "ta",
      "CaptionKey": "translation",
      "CaptionName": "மொழிபெயர்ப்பு",
      "YoutubeSynced": true
    },
    {
      "ID": "6HSC7tPmbayUygBsVo8kXu6BMuPx8CEmpgi_iKSQWBIj1-rTjgmBaBdcuMREQHu1",
      "Lang": "te",
      "CaptionKey": "translation",
      "CaptionName": "అనువాదం",
      "YoutubeSynced": true
    },
    {
      "ID": "aL1VsJfGKjRT1yb22tpfKNY9-pvPWEHTb9-1LXoou4kx520G1pK1rA==",
      "Lang": "tg",
      "CaptionKey": "translation",
      "CaptionName": "Тарҷума",
      "YoutubeSynced": true
    },
    {
      "ID": "smnleVZxPo9exKVoWuMW0lhvIa7_viffW-lPyHzNwrWJ21a6NmXRjiztzq7cUW57",
      "Lang": "th",
      "CaptionKey": "translation",
      "CaptionName": "การแปล",
      "YoutubeSynced": true
    },
    {
      "ID": "4ebnLaTuRPUT4LnfH3q-ey3kNnQ0tDTJwTAK3eVICyrlCa88CvaSiA==",
      "Lang": "tr",
      "CaptionKey": "translation",
      "CaptionName": "Tercüme",
      "YoutubeSynced": true
    },
    {
      "ID": "QDIRrMksiITR_Xbn3ygVko-8R1B4DCbUozwnwauyhVBVPy2aCvYXcCUPZOtbn5Xb",
      "Lang": "uk",
      "CaptionKey": "translation",
      "CaptionName": "Переклад",
      "YoutubeSynced": true
    },
    {
      "ID": "9e6DGtcUAPoVX3Ei-is8b7gwmGhf2Vu0SG77dtXfP85IwCkJhRYt1w==",
      "Lang": "ur",
      "CaptionKey": "translation",
      "CaptionName": "ترجمہ",
      "YoutubeSynced": true
    },
    {
      "ID": "0XiyfTTOZTFCXJE_SdjfpX5SDCKnqHDltG-olQY-7ImsfiSsh4m4Hw==",
      "Lang": "uz",
      "CaptionKey": "translation",
      "CaptionName": "Tarjima",
      "YoutubeSynced": true
    },
    {
      "ID": "PdwV-M4rGXgNMb4xQY9OfVRfbuD0RQFVpVKsYrDEP0c=",
      "Lang": "vi",
      "CaptionKey": "translation",
      "CaptionName": "Dịch",
      "YoutubeSynced": true
    },
    {
      "ID": "9e6DGtcUAPq-8yAVQ4-oJoZHRBAieEAlmKphxB6gV84fe3_SYsSnog==",
      "Lang": "xh",
      "CaptionKey": "translation",
      "CaptionName": "Inguqulelo",
      "YoutubeSynced": true
    },
    {
      "ID": "TXrzTM90yJeHGBN3BfF8KrtsSvlcyDVHv6Y9EVQEBdoZgjeDwwoMFFxPjc_C4oXv",
      "Lang": "yi",
      "CaptionKey": "translation",
      "CaptionName": "איבערזעצונג",
      "YoutubeSynced": true
    },
    {
      "ID": "0XiyfTTOZTFkmwIG6EbxfkAYbKZWl75aEsHHG7d4TEA2CrC27u6suQ==",
      "Lang": "yo",
      "CaptionKey": "translation",
      "CaptionName": "Itumọ",
      "YoutubeSynced": true
    },
    {
      "ID": "LU86fz5KI1ux8HW4PQb5xMM8PwE7KpPh_ag2oM7P3DaGPUrCEAUT7Q==",
      "Lang": "zh-Hans",
      "CaptionKey": "translation",
      "CaptionName": "翻译",
      "YoutubeSynced": true
    },
    {
      "ID": "LU86fz5KI1ux8HW4PQb5xIHgK8V7DxzC58nqenzJeKAo_2B_mrt10w==",
      "Lang": "zh-Hant",
      "CaptionKey": "translation",
      "CaptionName": "翻譯",
      "YoutubeSynced": true
    },
    {
      "ID": "9e6DGtcUAPrPfRZA1NTA4mPQ6D1xKZJSeVdXdwxUYLvh1PfhzsQQ_w==",
      "Lang": "zu",
      "CaptionKey": "translation",
      "CaptionName": "Ukuhumusha",
      "YoutubeSynced": true
    }
  ]
}