{
  "VideoFile": "grammar-en-beginner_44_AU.mp4",
  "Captions": [
    {
      "ID": "Fh7fpu1jeml9NGzobKp7UAYmv7KGg7tRfTe4mpCBErp3ltKvib0SB2b-8MoW-7Uf",
      "Lang": "en",
      "CaptionKey": "ruby",
      "CaptionName": "Pronunciation - IPA",
      "YoutubeSynced": true
    }
  ]
}