{
  "Name": "grammar-en-beginner-AU",
  "ID": "PLfI6UBkxvOTmFHyL9D5cz59bJa6HnGLtP",
  "DefaultLang": "ms",
  "Title": "Bercakap Bahasa Inggeris! Sebutan Australia ⭐️ Latihan tatabahasa",
  "Description": "Belajar bahasa Inggeris! Tukar perkataan dalam satu ayat!",
  "Localizations": null,
  "PlaylistTags": "tatabahasa Inggeris,Sebutan Australia,Australia,Tatabahasa",
  "Updated": true,
  "PlaylistItems": [
    {
      "ID": "UExmSTZVQmt4dk9UbUZIeUw5RDVjejU5YkphNkhuR0x0UC41NkI0NEY2RDEwNTU3Q0M2",
      "VideoID": "Qjn1WH5gh8U",
      "VideoFile": "grammar-en-beginner_1_AU.mp4"
    },
    {
      "ID": "UExmSTZVQmt4dk9UbUZIeUw5RDVjejU5YkphNkhuR0x0UC4yODlGNEE0NkRGMEEzMEQy",
      "VideoID": "xn4zpc74NGI",
      "VideoFile": "grammar-en-beginner_2_AU.mp4"
    },
    {
      "ID": "UExmSTZVQmt4dk9UbUZIeUw5RDVjejU5YkphNkhuR0x0UC4wMTcyMDhGQUE4NTIzM0Y5",
      "VideoID": "N-J7ABYRsvE",
      "VideoFile": "grammar-en-beginner_3_AU.mp4"
    },
    {
      "ID": "UExmSTZVQmt4dk9UbUZIeUw5RDVjejU5YkphNkhuR0x0UC41MjE1MkI0OTQ2QzJGNzNG",
      "VideoID": "LxbYRQ2fcCE",
      "VideoFile": "grammar-en-beginner_4_AU.mp4"
    },
    {
      "ID": "UExmSTZVQmt4dk9UbUZIeUw5RDVjejU5YkphNkhuR0x0UC4wOTA3OTZBNzVEMTUzOTMy",
      "VideoID": "GeoybFjC9Rs",
      "VideoFile": "grammar-en-beginner_5_AU.mp4"
    },
    {
      "ID": "UExmSTZVQmt4dk9UbUZIeUw5RDVjejU5YkphNkhuR0x0UC4xMkVGQjNCMUM1N0RFNEUx",
      "VideoID": "y8NiUiWEBSQ",
      "VideoFile": "grammar-en-beginner_6_AU.mp4"
    },
    {
      "ID": "UExmSTZVQmt4dk9UbUZIeUw5RDVjejU5YkphNkhuR0x0UC41MzJCQjBCNDIyRkJDN0VD",
      "VideoID": "xf7-hzzzSCo",
      "VideoFile": "grammar-en-beginner_7_AU.mp4"
    },
    {
      "ID": "UExmSTZVQmt4dk9UbUZIeUw5RDVjejU5YkphNkhuR0x0UC5DQUNERDQ2NkIzRUQxNTY1",
      "VideoID": "LA9zLXvAUDk",
      "VideoFile": "grammar-en-beginner_8_AU.mp4"
    },
    {
      "ID": "UExmSTZVQmt4dk9UbUZIeUw5RDVjejU5YkphNkhuR0x0UC45NDk1REZENzhEMzU5MDQz",
      "VideoID": "TJ2Pktc_M_M",
      "VideoFile": "grammar-en-beginner_9_AU.mp4"
    },
    {
      "ID": "UExmSTZVQmt4dk9UbUZIeUw5RDVjejU5YkphNkhuR0x0UC5GNjNDRDREMDQxOThCMDQ2",
      "VideoID": "aCTVfzu7pec",
      "VideoFile": "grammar-en-beginner_10_AU.mp4"
    },
    {
      "ID": "UExmSTZVQmt4dk9UbUZIeUw5RDVjejU5YkphNkhuR0x0UC40NzZCMERDMjVEN0RFRThB",
      "VideoID": "INNYDRHpEnc",
      "VideoFile": "grammar-en-beginner_11_AU.mp4"
    },
    {
      "ID": "UExmSTZVQmt4dk9UbUZIeUw5RDVjejU5YkphNkhuR0x0UC5EMEEwRUY5M0RDRTU3NDJC",
      "VideoID": "hii2x3tjP3A",
      "VideoFile": "grammar-en-beginner_12_AU.mp4"
    },
    {
      "ID": "UExmSTZVQmt4dk9UbUZIeUw5RDVjejU5YkphNkhuR0x0UC45ODRDNTg0QjA4NkFBNkQy",
      "VideoID": "FHsqJ1-wfMs",
      "VideoFile": "grammar-en-beginner_13_AU.mp4"
    },
    {
      "ID": "UExmSTZVQmt4dk9UbUZIeUw5RDVjejU5YkphNkhuR0x0UC4zMDg5MkQ5MEVDMEM1NTg2",
      "VideoID": "Ef7T16As5AE",
      "VideoFile": "grammar-en-beginner_14_AU.mp4"
    },
    {
      "ID": "UExmSTZVQmt4dk9UbUZIeUw5RDVjejU5YkphNkhuR0x0UC41Mzk2QTAxMTkzNDk4MDhF",
      "VideoID": "8gavJ0jmJU0",
      "VideoFile": "grammar-en-beginner_15_AU.mp4"
    },
    {
      "ID": "UExmSTZVQmt4dk9UbUZIeUw5RDVjejU5YkphNkhuR0x0UC5EQUE1NTFDRjcwMDg0NEMz",
      "VideoID": "CNE6G6swIxo",
      "VideoFile": "grammar-en-beginner_16_AU.mp4"
    },
    {
      "ID": "UExmSTZVQmt4dk9UbUZIeUw5RDVjejU5YkphNkhuR0x0UC41QTY1Q0UxMTVCODczNThE",
      "VideoID": "p1rJKVfZvWE",
      "VideoFile": "grammar-en-beginner_17_AU.mp4"
    },
    {
      "ID": "UExmSTZVQmt4dk9UbUZIeUw5RDVjejU5YkphNkhuR0x0UC4yMUQyQTQzMjRDNzMyQTMy",
      "VideoID": "kIvInDHChdo",
      "VideoFile": "grammar-en-beginner_18_AU.mp4"
    },
    {
      "ID": "UExmSTZVQmt4dk9UbUZIeUw5RDVjejU5YkphNkhuR0x0UC45RTgxNDRBMzUwRjQ0MDhC",
      "VideoID": "-6_YF_F0LjY",
      "VideoFile": "grammar-en-beginner_19_AU.mp4"
    },
    {
      "ID": "UExmSTZVQmt4dk9UbUZIeUw5RDVjejU5YkphNkhuR0x0UC5ENDU4Q0M4RDExNzM1Mjcy",
      "VideoID": "Vg_NXSzVb1Y",
      "VideoFile": "grammar-en-beginner_20_AU.mp4"
    },
    {
      "ID": "UExmSTZVQmt4dk9UbUZIeUw5RDVjejU5YkphNkhuR0x0UC4yMDhBMkNBNjRDMjQxQTg1",
      "VideoID": "VQl77yV9-bA",
      "VideoFile": "grammar-en-beginner_21_AU.mp4"
    },
    {
      "ID": "UExmSTZVQmt4dk9UbUZIeUw5RDVjejU5YkphNkhuR0x0UC5GM0Q3M0MzMzY5NTJFNTdE",
      "VideoID": "FiHSxbhui_k",
      "VideoFile": "grammar-en-beginner_22_AU.mp4"
    },
    {
      "ID": "UExmSTZVQmt4dk9UbUZIeUw5RDVjejU5YkphNkhuR0x0UC4zRjM0MkVCRTg0MkYyQTM0",
      "VideoID": "remv-mOj_hM",
      "VideoFile": "grammar-en-beginner_23_AU.mp4"
    },
    {
      "ID": "UExmSTZVQmt4dk9UbUZIeUw5RDVjejU5YkphNkhuR0x0UC45NzUwQkI1M0UxNThBMkU0",
      "VideoID": "EkSzTvtKqMU",
      "VideoFile": "grammar-en-beginner_24_AU.mp4"
    },
    {
      "ID": "UExmSTZVQmt4dk9UbUZIeUw5RDVjejU5YkphNkhuR0x0UC5DNzE1RjZEMUZCMjA0RDBB",
      "VideoID": "yK0mHcWoiTE",
      "VideoFile": "grammar-en-beginner_25_AU.mp4"
    },
    {
      "ID": "UExmSTZVQmt4dk9UbUZIeUw5RDVjejU5YkphNkhuR0x0UC43MTI1NDIwOTMwQjIxMzNG",
      "VideoID": "5R-FBXl_DKs",
      "VideoFile": "grammar-en-beginner_26_AU.mp4"
    },
    {
      "ID": "UExmSTZVQmt4dk9UbUZIeUw5RDVjejU5YkphNkhuR0x0UC5DQ0MyQ0Y4Mzg0M0VGOEYw",
      "VideoID": "ddhpfwR8Ow8",
      "VideoFile": "grammar-en-beginner_27_AU.mp4"
    },
    {
      "ID": "UExmSTZVQmt4dk9UbUZIeUw5RDVjejU5YkphNkhuR0x0UC4yQUE2Q0JEMTk4NTM3RTZC",
      "VideoID": "6OBN9cOAkwM",
      "VideoFile": "grammar-en-beginner_28_AU.mp4"
    },
    {
      "ID": "UExmSTZVQmt4dk9UbUZIeUw5RDVjejU5YkphNkhuR0x0UC5DMkU4NTY1QUFGQTYwMDE3",
      "VideoID": "fPBHWtlSfoc",
      "VideoFile": "grammar-en-beginner_29_AU.mp4"
    },
    {
      "ID": "UExmSTZVQmt4dk9UbUZIeUw5RDVjejU5YkphNkhuR0x0UC44Mjc5REFBRUE2MTdFRDU0",
      "VideoID": "J7PBQQsX8mI",
      "VideoFile": "grammar-en-beginner_30_AU.mp4"
    },
    {
      "ID": "UExmSTZVQmt4dk9UbUZIeUw5RDVjejU5YkphNkhuR0x0UC43NDhFRTgwOTRERTU4Rjg3",
      "VideoID": "IYZR6Hj1d60",
      "VideoFile": "grammar-en-beginner_31_AU.mp4"
    },
    {
      "ID": "UExmSTZVQmt4dk9UbUZIeUw5RDVjejU5YkphNkhuR0x0UC41QUZGQTY5OTE4QTREQUU4",
      "VideoID": "eURm0U8jIf0",
      "VideoFile": "grammar-en-beginner_32_AU.mp4"
    },
    {
      "ID": "UExmSTZVQmt4dk9UbUZIeUw5RDVjejU5YkphNkhuR0x0UC4zRDBDOEZDOUM0MDY5NEEz",
      "VideoID": "taqH014q5lk",
      "VideoFile": "grammar-en-beginner_33_AU.mp4"
    },
    {
      "ID": "UExmSTZVQmt4dk9UbUZIeUw5RDVjejU5YkphNkhuR0x0UC5CMEQ2Mjk5NTc3NDZFRUNB",
      "VideoID": "rQKuyZRrML8",
      "VideoFile": "grammar-en-beginner_34_AU.mp4"
    },
    {
      "ID": "UExmSTZVQmt4dk9UbUZIeUw5RDVjejU5YkphNkhuR0x0UC42MTI4Njc2QjM1RjU1MjlG",
      "VideoID": "GYj6TeYWoI8",
      "VideoFile": "grammar-en-beginner_35_AU.mp4"
    },
    {
      "ID": "UExmSTZVQmt4dk9UbUZIeUw5RDVjejU5YkphNkhuR0x0UC45RjNFMDhGQ0Q2RkFCQTc1",
      "VideoID": "_Mji4UDnRrs",
      "VideoFile": "grammar-en-beginner_36_AU.mp4"
    },
    {
      "ID": "UExmSTZVQmt4dk9UbUZIeUw5RDVjejU5YkphNkhuR0x0UC40QTA3NTU2RkM1QzlCMzYx",
      "VideoID": "n4F13j77PvE",
      "VideoFile": "grammar-en-beginner_37_AU.mp4"
    },
    {
      "ID": "UExmSTZVQmt4dk9UbUZIeUw5RDVjejU5YkphNkhuR0x0UC5BRjJDODk5REM0NjkzMUIy",
      "VideoID": "zjgSLj7squc",
      "VideoFile": "grammar-en-beginner_38_AU.mp4"
    },
    {
      "ID": "UExmSTZVQmt4dk9UbUZIeUw5RDVjejU5YkphNkhuR0x0UC4xOTEzQzhBQzU3MDNDNjcz",
      "VideoID": "96RdjxJgzN8",
      "VideoFile": "grammar-en-beginner_39_AU.mp4"
    },
    {
      "ID": "UExmSTZVQmt4dk9UbUZIeUw5RDVjejU5YkphNkhuR0x0UC5GNDg1Njc1QzZERjlFRjE5",
      "VideoID": "Iq1nrHC_B60",
      "VideoFile": "grammar-en-beginner_40_AU.mp4"
    },
    {
      "ID": "UExmSTZVQmt4dk9UbUZIeUw5RDVjejU5YkphNkhuR0x0UC4zQzFBN0RGNzNFREFCMjBE",
      "VideoID": "Eb1NY4hcwXY",
      "VideoFile": "grammar-en-beginner_41_AU.mp4"
    },
    {
      "ID": "UExmSTZVQmt4dk9UbUZIeUw5RDVjejU5YkphNkhuR0x0UC45NkVENTkxRDdCQUFBMDY4",
      "VideoID": "UKnUCX_Kifs",
      "VideoFile": "grammar-en-beginner_42_AU.mp4"
    },
    {
      "ID": "UExmSTZVQmt4dk9UbUZIeUw5RDVjejU5YkphNkhuR0x0UC5DNkMwRUI2MkI4QkI4NDFG",
      "VideoID": "rAddzxxovBQ",
      "VideoFile": "grammar-en-beginner_43_AU.mp4"
    },
    {
      "ID": "UExmSTZVQmt4dk9UbUZIeUw5RDVjejU5YkphNkhuR0x0UC5DRUQwODMxQzUyRTlGRkY3",
      "VideoID": "PZl-IYywDkg",
      "VideoFile": "grammar-en-beginner_44_AU.mp4"
    },
    {
      "ID": "UExmSTZVQmt4dk9UbUZIeUw5RDVjejU5YkphNkhuR0x0UC41MzY4MzcwOUFFRUU3QzEx",
      "VideoID": "CQhn-VLcy9k",
      "VideoFile": "grammar-en-beginner_45_AU.mp4"
    },
    {
      "ID": "UExmSTZVQmt4dk9UbUZIeUw5RDVjejU5YkphNkhuR0x0UC4yQjZFRkExQjFGODk3RUFD",
      "VideoID": "DSkm23MNCvM",
      "VideoFile": "grammar-en-beginner_46_AU.mp4"
    },
    {
      "ID": "UExmSTZVQmt4dk9UbUZIeUw5RDVjejU5YkphNkhuR0x0UC4yQUJFNUVCMzVDNjcxRTlF",
      "VideoID": "M6XH7YGl-u4",
      "VideoFile": "grammar-en-beginner_47_AU.mp4"
    },
    {
      "ID": "UExmSTZVQmt4dk9UbUZIeUw5RDVjejU5YkphNkhuR0x0UC40QzRDOEU0QUYwNUIxN0M1",
      "VideoID": "ka7A_Z_Q-gk",
      "VideoFile": "grammar-en-beginner_48_AU.mp4"
    },
    {
      "ID": "UExmSTZVQmt4dk9UbUZIeUw5RDVjejU5YkphNkhuR0x0UC41RTNBREYwMkI5QzU3RkY2",
      "VideoID": "nU5UIcLKnds",
      "VideoFile": "grammar-en-beginner_49_AU.mp4"
    },
    {
      "ID": "UExmSTZVQmt4dk9UbUZIeUw5RDVjejU5YkphNkhuR0x0UC5ENjI1QUI0MDI5NEQzODFE",
      "VideoID": "xofgp2yWIqk",
      "VideoFile": "grammar-en-beginner_50_AU.mp4"
    },
    {
      "ID": "UExmSTZVQmt4dk9UbUZIeUw5RDVjejU5YkphNkhuR0x0UC44QzVGQUU2QjE2NDgxM0M4",
      "VideoID": "5QlbmvCvZFU",
      "VideoFile": "grammar-en-beginner_51_AU.mp4"
    },
    {
      "ID": "UExmSTZVQmt4dk9UbUZIeUw5RDVjejU5YkphNkhuR0x0UC4xMzgwMzBERjQ4NjEzNUE5",
      "VideoID": "i23-INzH80U",
      "VideoFile": "grammar-en-beginner_52_AU.mp4"
    },
    {
      "ID": "UExmSTZVQmt4dk9UbUZIeUw5RDVjejU5YkphNkhuR0x0UC4zMEQ1MEIyRTFGNzhDQzFB",
      "VideoID": "tDK_vzSbg2g",
      "VideoFile": "grammar-en-beginner_53_AU.mp4"
    }
  ]
}