{
  "Name": "grammar-en-beginner",
  "ID": "PLfI6UBkxvOTl3HyO-7IeJpRo8qW1WM0FR",
  "DefaultLang": "sq",
  "Title": "Fol anglisht! ⭐️ Ushtrime gramatikore",
  "Description": "Mësoni gramatikën angleze! Ndryshoni një fjalë në një fjali!",
  "Localizations": null,
  "PlaylistTags": "Gramatika angleze",
  "Updated": true,
  "PlaylistItems": [
    {
      "ID": "UExmSTZVQmt4dk9UbDNIeU8tN0llSnBSbzhxVzFXTTBGUi41NkI0NEY2RDEwNTU3Q0M2",
      "VideoID": "zxt1e5ECswM",
      "VideoFile": "grammar-en-beginner_1_A.mp4"
    },
    {
      "ID": "UExmSTZVQmt4dk9UbDNIeU8tN0llSnBSbzhxVzFXTTBGUi4yODlGNEE0NkRGMEEzMEQy",
      "VideoID": "LGQVwiTispk",
      "VideoFile": "grammar-en-beginner_2_A.mp4"
    },
    {
      "ID": "UExmSTZVQmt4dk9UbDNIeU8tN0llSnBSbzhxVzFXTTBGUi4wMTcyMDhGQUE4NTIzM0Y5",
      "VideoID": "GG7HQ52PIMg",
      "VideoFile": "grammar-en-beginner_3_A.mp4"
    },
    {
      "ID": "UExmSTZVQmt4dk9UbDNIeU8tN0llSnBSbzhxVzFXTTBGUi41MjE1MkI0OTQ2QzJGNzNG",
      "VideoID": "pU-QgplLTUY",
      "VideoFile": "grammar-en-beginner_4_A.mp4"
    },
    {
      "ID": "UExmSTZVQmt4dk9UbDNIeU8tN0llSnBSbzhxVzFXTTBGUi4wOTA3OTZBNzVEMTUzOTMy",
      "VideoID": "czDOAmsmvLs",
      "VideoFile": "grammar-en-beginner_5_A.mp4"
    },
    {
      "ID": "UExmSTZVQmt4dk9UbDNIeU8tN0llSnBSbzhxVzFXTTBGUi4xMkVGQjNCMUM1N0RFNEUx",
      "VideoID": "Kg0HYTz45Vc",
      "VideoFile": "grammar-en-beginner_6_A.mp4"
    },
    {
      "ID": "UExmSTZVQmt4dk9UbDNIeU8tN0llSnBSbzhxVzFXTTBGUi41MzJCQjBCNDIyRkJDN0VD",
      "VideoID": "ERWy7yy051M",
      "VideoFile": "grammar-en-beginner_7_A.mp4"
    },
    {
      "ID": "UExmSTZVQmt4dk9UbDNIeU8tN0llSnBSbzhxVzFXTTBGUi5DQUNERDQ2NkIzRUQxNTY1",
      "VideoID": "mZvD878ie7M",
      "VideoFile": "grammar-en-beginner_8_A.mp4"
    },
    {
      "ID": "UExmSTZVQmt4dk9UbDNIeU8tN0llSnBSbzhxVzFXTTBGUi45NDk1REZENzhEMzU5MDQz",
      "VideoID": "i4xmMOSZSJQ",
      "VideoFile": "grammar-en-beginner_9_A.mp4"
    },
    {
      "ID": "UExmSTZVQmt4dk9UbDNIeU8tN0llSnBSbzhxVzFXTTBGUi5GNjNDRDREMDQxOThCMDQ2",
      "VideoID": "AUCz9adRtiQ",
      "VideoFile": "grammar-en-beginner_10_A.mp4"
    },
    {
      "ID": "UExmSTZVQmt4dk9UbDNIeU8tN0llSnBSbzhxVzFXTTBGUi40NzZCMERDMjVEN0RFRThB",
      "VideoID": "7fl68QJ1sRQ",
      "VideoFile": "grammar-en-beginner_11_A.mp4"
    },
    {
      "ID": "UExmSTZVQmt4dk9UbDNIeU8tN0llSnBSbzhxVzFXTTBGUi5EMEEwRUY5M0RDRTU3NDJC",
      "VideoID": "9xBSAq6d9J4",
      "VideoFile": "grammar-en-beginner_12_A.mp4"
    },
    {
      "ID": "UExmSTZVQmt4dk9UbDNIeU8tN0llSnBSbzhxVzFXTTBGUi45ODRDNTg0QjA4NkFBNkQy",
      "VideoID": "R3BIZk4oV58",
      "VideoFile": "grammar-en-beginner_13_A.mp4"
    },
    {
      "ID": "UExmSTZVQmt4dk9UbDNIeU8tN0llSnBSbzhxVzFXTTBGUi4zMDg5MkQ5MEVDMEM1NTg2",
      "VideoID": "ZhHIlSdQtow",
      "VideoFile": "grammar-en-beginner_14_A.mp4"
    },
    {
      "ID": "UExmSTZVQmt4dk9UbDNIeU8tN0llSnBSbzhxVzFXTTBGUi41Mzk2QTAxMTkzNDk4MDhF",
      "VideoID": "fChSnUy-Mi8",
      "VideoFile": "grammar-en-beginner_15_A.mp4"
    },
    {
      "ID": "UExmSTZVQmt4dk9UbDNIeU8tN0llSnBSbzhxVzFXTTBGUi5EQUE1NTFDRjcwMDg0NEMz",
      "VideoID": "6Y6XeHAIBiU",
      "VideoFile": "grammar-en-beginner_16_A.mp4"
    },
    {
      "ID": "UExmSTZVQmt4dk9UbDNIeU8tN0llSnBSbzhxVzFXTTBGUi41QTY1Q0UxMTVCODczNThE",
      "VideoID": "Zz5Pny-J3lw",
      "VideoFile": "grammar-en-beginner_17_A.mp4"
    },
    {
      "ID": "UExmSTZVQmt4dk9UbDNIeU8tN0llSnBSbzhxVzFXTTBGUi4yMUQyQTQzMjRDNzMyQTMy",
      "VideoID": "8sFc1FWuflA",
      "VideoFile": "grammar-en-beginner_18_A.mp4"
    },
    {
      "ID": "UExmSTZVQmt4dk9UbDNIeU8tN0llSnBSbzhxVzFXTTBGUi45RTgxNDRBMzUwRjQ0MDhC",
      "VideoID": "8PkN-k5XvPI",
      "VideoFile": "grammar-en-beginner_19_A.mp4"
    },
    {
      "ID": "UExmSTZVQmt4dk9UbDNIeU8tN0llSnBSbzhxVzFXTTBGUi5ENDU4Q0M4RDExNzM1Mjcy",
      "VideoID": "Gsp-KMHqCxE",
      "VideoFile": "grammar-en-beginner_20_A.mp4"
    },
    {
      "ID": "UExmSTZVQmt4dk9UbDNIeU8tN0llSnBSbzhxVzFXTTBGUi4yMDhBMkNBNjRDMjQxQTg1",
      "VideoID": "PbJYzAGBZFs",
      "VideoFile": "grammar-en-beginner_21_A.mp4"
    },
    {
      "ID": "UExmSTZVQmt4dk9UbDNIeU8tN0llSnBSbzhxVzFXTTBGUi5GM0Q3M0MzMzY5NTJFNTdE",
      "VideoID": "eFTVogwe690",
      "VideoFile": "grammar-en-beginner_22_A.mp4"
    },
    {
      "ID": "UExmSTZVQmt4dk9UbDNIeU8tN0llSnBSbzhxVzFXTTBGUi4zRjM0MkVCRTg0MkYyQTM0",
      "VideoID": "QKkrXE1YkmA",
      "VideoFile": "grammar-en-beginner_23_A.mp4"
    },
    {
      "ID": "UExmSTZVQmt4dk9UbDNIeU8tN0llSnBSbzhxVzFXTTBGUi45NzUwQkI1M0UxNThBMkU0",
      "VideoID": "tHimt4CmfzU",
      "VideoFile": "grammar-en-beginner_24_A.mp4"
    },
    {
      "ID": "UExmSTZVQmt4dk9UbDNIeU8tN0llSnBSbzhxVzFXTTBGUi5DNzE1RjZEMUZCMjA0RDBB",
      "VideoID": "FVL4wbhx5DA",
      "VideoFile": "grammar-en-beginner_25_A.mp4"
    },
    {
      "ID": "UExmSTZVQmt4dk9UbDNIeU8tN0llSnBSbzhxVzFXTTBGUi43MTI1NDIwOTMwQjIxMzNG",
      "VideoID": "mvaU0-9e4Mw",
      "VideoFile": "grammar-en-beginner_26_A.mp4"
    },
    {
      "ID": "UExmSTZVQmt4dk9UbDNIeU8tN0llSnBSbzhxVzFXTTBGUi5DQ0MyQ0Y4Mzg0M0VGOEYw",
      "VideoID": "j7N8ih7GqmM",
      "VideoFile": "grammar-en-beginner_27_A.mp4"
    },
    {
      "ID": "UExmSTZVQmt4dk9UbDNIeU8tN0llSnBSbzhxVzFXTTBGUi4yQUE2Q0JEMTk4NTM3RTZC",
      "VideoID": "atFLN8h0kDw",
      "VideoFile": "grammar-en-beginner_28_A.mp4"
    },
    {
      "ID": "UExmSTZVQmt4dk9UbDNIeU8tN0llSnBSbzhxVzFXTTBGUi5DMkU4NTY1QUFGQTYwMDE3",
      "VideoID": "AxNofbqLtAI",
      "VideoFile": "grammar-en-beginner_29_A.mp4"
    },
    {
      "ID": "UExmSTZVQmt4dk9UbDNIeU8tN0llSnBSbzhxVzFXTTBGUi44Mjc5REFBRUE2MTdFRDU0",
      "VideoID": "HsvssT2Znrs",
      "VideoFile": "grammar-en-beginner_30_A.mp4"
    },
    {
      "ID": "UExmSTZVQmt4dk9UbDNIeU8tN0llSnBSbzhxVzFXTTBGUi43NDhFRTgwOTRERTU4Rjg3",
      "VideoID": "LWTxlzpGAk4",
      "VideoFile": "grammar-en-beginner_31_A.mp4"
    },
    {
      "ID": "UExmSTZVQmt4dk9UbDNIeU8tN0llSnBSbzhxVzFXTTBGUi41QUZGQTY5OTE4QTREQUU4",
      "VideoID": "NtDVz6KYXPU",
      "VideoFile": "grammar-en-beginner_32_A.mp4"
    },
    {
      "ID": "UExmSTZVQmt4dk9UbDNIeU8tN0llSnBSbzhxVzFXTTBGUi4zRDBDOEZDOUM0MDY5NEEz",
      "VideoID": "rWLZu8_EnLo",
      "VideoFile": "grammar-en-beginner_33_A.mp4"
    },
    {
      "ID": "UExmSTZVQmt4dk9UbDNIeU8tN0llSnBSbzhxVzFXTTBGUi5CMEQ2Mjk5NTc3NDZFRUNB",
      "VideoID": "EVlVRp2wdb4",
      "VideoFile": "grammar-en-beginner_34_A.mp4"
    },
    {
      "ID": "UExmSTZVQmt4dk9UbDNIeU8tN0llSnBSbzhxVzFXTTBGUi42MTI4Njc2QjM1RjU1MjlG",
      "VideoID": "DfSKlZ-L2zs",
      "VideoFile": "grammar-en-beginner_35_A.mp4"
    },
    {
      "ID": "UExmSTZVQmt4dk9UbDNIeU8tN0llSnBSbzhxVzFXTTBGUi45RjNFMDhGQ0Q2RkFCQTc1",
      "VideoID": "sg7zeBH_9EQ",
      "VideoFile": "grammar-en-beginner_36_A.mp4"
    },
    {
      "ID": "UExmSTZVQmt4dk9UbDNIeU8tN0llSnBSbzhxVzFXTTBGUi40QTA3NTU2RkM1QzlCMzYx",
      "VideoID": "tL4BOuL9eGA",
      "VideoFile": "grammar-en-beginner_37_A.mp4"
    },
    {
      "ID": "UExmSTZVQmt4dk9UbDNIeU8tN0llSnBSbzhxVzFXTTBGUi5BRjJDODk5REM0NjkzMUIy",
      "VideoID": "AJ0VC4YAElM",
      "VideoFile": "grammar-en-beginner_38_A.mp4"
    },
    {
      "ID": "UExmSTZVQmt4dk9UbDNIeU8tN0llSnBSbzhxVzFXTTBGUi4xOTEzQzhBQzU3MDNDNjcz",
      "VideoID": "C8Fr3ZUZlck",
      "VideoFile": "grammar-en-beginner_39_A.mp4"
    },
    {
      "ID": "UExmSTZVQmt4dk9UbDNIeU8tN0llSnBSbzhxVzFXTTBGUi5GNDg1Njc1QzZERjlFRjE5",
      "VideoID": "nc1YzoDvRPo",
      "VideoFile": "grammar-en-beginner_40_A.mp4"
    },
    {
      "ID": "UExmSTZVQmt4dk9UbDNIeU8tN0llSnBSbzhxVzFXTTBGUi4zQzFBN0RGNzNFREFCMjBE",
      "VideoID": "K41s3OwPLEA",
      "VideoFile": "grammar-en-beginner_41_A.mp4"
    },
    {
      "ID": "UExmSTZVQmt4dk9UbDNIeU8tN0llSnBSbzhxVzFXTTBGUi45NkVENTkxRDdCQUFBMDY4",
      "VideoID": "4fNwI7cDL9I",
      "VideoFile": "grammar-en-beginner_42_A.mp4"
    },
    {
      "ID": "UExmSTZVQmt4dk9UbDNIeU8tN0llSnBSbzhxVzFXTTBGUi5DNkMwRUI2MkI4QkI4NDFG",
      "VideoID": "1o4IFmKqcPk",
      "VideoFile": "grammar-en-beginner_43_A.mp4"
    },
    {
      "ID": "UExmSTZVQmt4dk9UbDNIeU8tN0llSnBSbzhxVzFXTTBGUi5DRUQwODMxQzUyRTlGRkY3",
      "VideoID": "nnun6WY-Dqo",
      "VideoFile": "grammar-en-beginner_44_A.mp4"
    },
    {
      "ID": "UExmSTZVQmt4dk9UbDNIeU8tN0llSnBSbzhxVzFXTTBGUi41MzY4MzcwOUFFRUU3QzEx",
      "VideoID": "ascZNxv_9Wo",
      "VideoFile": "grammar-en-beginner_45_A.mp4"
    },
    {
      "ID": "UExmSTZVQmt4dk9UbDNIeU8tN0llSnBSbzhxVzFXTTBGUi4yQjZFRkExQjFGODk3RUFD",
      "VideoID": "02t6uRyij7k",
      "VideoFile": "grammar-en-beginner_46_A.mp4"
    },
    {
      "ID": "UExmSTZVQmt4dk9UbDNIeU8tN0llSnBSbzhxVzFXTTBGUi4yQUJFNUVCMzVDNjcxRTlF",
      "VideoID": "5Ph8BgZTUL4",
      "VideoFile": "grammar-en-beginner_47_A.mp4"
    },
    {
      "ID": "UExmSTZVQmt4dk9UbDNIeU8tN0llSnBSbzhxVzFXTTBGUi40QzRDOEU0QUYwNUIxN0M1",
      "VideoID": "IZdxITwJpt8",
      "VideoFile": "grammar-en-beginner_48_A.mp4"
    },
    {
      "ID": "UExmSTZVQmt4dk9UbDNIeU8tN0llSnBSbzhxVzFXTTBGUi41RTNBREYwMkI5QzU3RkY2",
      "VideoID": "30KygDXTVPw",
      "VideoFile": "grammar-en-beginner_49_A.mp4"
    },
    {
      "ID": "UExmSTZVQmt4dk9UbDNIeU8tN0llSnBSbzhxVzFXTTBGUi5ENjI1QUI0MDI5NEQzODFE",
      "VideoID": "y7W_8U6QFsk",
      "VideoFile": "grammar-en-beginner_50_A.mp4"
    },
    {
      "ID": "UExmSTZVQmt4dk9UbDNIeU8tN0llSnBSbzhxVzFXTTBGUi44QzVGQUU2QjE2NDgxM0M4",
      "VideoID": "BK0Cf7CrVLQ",
      "VideoFile": "grammar-en-beginner_51_A.mp4"
    },
    {
      "ID": "UExmSTZVQmt4dk9UbDNIeU8tN0llSnBSbzhxVzFXTTBGUi4xMzgwMzBERjQ4NjEzNUE5",
      "VideoID": "gL2Ije6S4wI",
      "VideoFile": "grammar-en-beginner_52_A.mp4"
    },
    {
      "ID": "UExmSTZVQmt4dk9UbDNIeU8tN0llSnBSbzhxVzFXTTBGUi4zMEQ1MEIyRTFGNzhDQzFB",
      "VideoID": "sdQ5npLjing",
      "VideoFile": "grammar-en-beginner_53_A.mp4"
    }
  ]
}