{
  "Name": "math-grade1-2",
  "ID": "PLfI6UBkxvOTmrQIn-l1CQ53PRD-ijW35o",
  "DefaultLang": "gu",
  "Title": "એક ગણિત માસ્ટર બનો! 💯 2 જી ગ્રેડ ગણિત",
  "Description": "એક ગણિત માસ્ટર બનો! 💯 2 જી ગ્રેડ ગણિત",
  "Localizations": null,
  "PlaylistTags": "ગણિત,2 જી ગ્રેડ",
  "Updated": true,
  "PlaylistItems": [
    {
      "ID": "UExmSTZVQmt4dk9UbXJRSW4tbDFDUTUzUFJELWlqVzM1by41NkI0NEY2RDEwNTU3Q0M2",
      "VideoID": "Oyy10EejTVo",
      "VideoFile": "math-grade1-2_1_A.mp4"
    },
    {
      "ID": "UExmSTZVQmt4dk9UbXJRSW4tbDFDUTUzUFJELWlqVzM1by4yODlGNEE0NkRGMEEzMEQy",
      "VideoID": "gAUPzFAc7k8",
      "VideoFile": "math-grade1-2_2_A.mp4"
    },
    {
      "ID": "UExmSTZVQmt4dk9UbXJRSW4tbDFDUTUzUFJELWlqVzM1by4wMTcyMDhGQUE4NTIzM0Y5",
      "VideoID": "dLeI71xcJb8",
      "VideoFile": "math-grade1-2_3_A.mp4"
    },
    {
      "ID": "UExmSTZVQmt4dk9UbXJRSW4tbDFDUTUzUFJELWlqVzM1by41MjE1MkI0OTQ2QzJGNzNG",
      "VideoID": "yytnye1PVCc",
      "VideoFile": "math-grade1-2_4_A.mp4"
    },
    {
      "ID": "UExmSTZVQmt4dk9UbXJRSW4tbDFDUTUzUFJELWlqVzM1by4wOTA3OTZBNzVEMTUzOTMy",
      "VideoID": "r5lBKDyIf9A",
      "VideoFile": "math-grade1-2_5_A.mp4"
    },
    {
      "ID": "UExmSTZVQmt4dk9UbXJRSW4tbDFDUTUzUFJELWlqVzM1by4xMkVGQjNCMUM1N0RFNEUx",
      "VideoID": "x4VJ3X2AYCs",
      "VideoFile": "math-grade1-2_6_A.mp4"
    },
    {
      "ID": "UExmSTZVQmt4dk9UbXJRSW4tbDFDUTUzUFJELWlqVzM1by41MzJCQjBCNDIyRkJDN0VD",
      "VideoID": "_6wIz_t3vo4",
      "VideoFile": "math-grade1-2_7_A.mp4"
    },
    {
      "ID": "UExmSTZVQmt4dk9UbXJRSW4tbDFDUTUzUFJELWlqVzM1by5DQUNERDQ2NkIzRUQxNTY1",
      "VideoID": "fc1QVX0TpCc",
      "VideoFile": "math-grade1-2_8_A.mp4"
    },
    {
      "ID": "UExmSTZVQmt4dk9UbXJRSW4tbDFDUTUzUFJELWlqVzM1by45NDk1REZENzhEMzU5MDQz",
      "VideoID": "EnIaHJd8BsI",
      "VideoFile": "math-grade1-2_9_A.mp4"
    },
    {
      "ID": "UExmSTZVQmt4dk9UbXJRSW4tbDFDUTUzUFJELWlqVzM1by5GNjNDRDREMDQxOThCMDQ2",
      "VideoID": "D4P73IqcxpA",
      "VideoFile": "math-grade1-2_10_A.mp4"
    },
    {
      "ID": "UExmSTZVQmt4dk9UbXJRSW4tbDFDUTUzUFJELWlqVzM1by40NzZCMERDMjVEN0RFRThB",
      "VideoID": "uqJ10YVMBi0",
      "VideoFile": "math-grade1-2_11_A.mp4"
    },
    {
      "ID": "UExmSTZVQmt4dk9UbXJRSW4tbDFDUTUzUFJELWlqVzM1by5EMEEwRUY5M0RDRTU3NDJC",
      "VideoID": "qTqRQhpHoc0",
      "VideoFile": "math-grade1-2_12_A.mp4"
    },
    {
      "ID": "UExmSTZVQmt4dk9UbXJRSW4tbDFDUTUzUFJELWlqVzM1by45ODRDNTg0QjA4NkFBNkQy",
      "VideoID": "QPRdDGv9org",
      "VideoFile": "math-grade1-2_13_A.mp4"
    },
    {
      "ID": "UExmSTZVQmt4dk9UbXJRSW4tbDFDUTUzUFJELWlqVzM1by4zMDg5MkQ5MEVDMEM1NTg2",
      "VideoID": "KAJYDbxhof4",
      "VideoFile": "math-grade1-2_14_A.mp4"
    },
    {
      "ID": "UExmSTZVQmt4dk9UbXJRSW4tbDFDUTUzUFJELWlqVzM1by41Mzk2QTAxMTkzNDk4MDhF",
      "VideoID": "k4srQ2jtH2U",
      "VideoFile": "math-grade1-2_15_A.mp4"
    },
    {
      "ID": "UExmSTZVQmt4dk9UbXJRSW4tbDFDUTUzUFJELWlqVzM1by5EQUE1NTFDRjcwMDg0NEMz",
      "VideoID": "TEY8liTapWo",
      "VideoFile": "math-grade1-2_16_A.mp4"
    },
    {
      "ID": "UExmSTZVQmt4dk9UbXJRSW4tbDFDUTUzUFJELWlqVzM1by41QTY1Q0UxMTVCODczNThE",
      "VideoID": "0V3bPYWY8tQ",
      "VideoFile": "math-grade1-2_17_A.mp4"
    },
    {
      "ID": "UExmSTZVQmt4dk9UbXJRSW4tbDFDUTUzUFJELWlqVzM1by4yMUQyQTQzMjRDNzMyQTMy",
      "VideoID": "IuHDlky8Y9I",
      "VideoFile": "math-grade1-2_18_A.mp4"
    },
    {
      "ID": "UExmSTZVQmt4dk9UbXJRSW4tbDFDUTUzUFJELWlqVzM1by45RTgxNDRBMzUwRjQ0MDhC",
      "VideoID": "lO6M65K_WXc",
      "VideoFile": "math-grade1-2_19_A.mp4"
    },
    {
      "ID": "UExmSTZVQmt4dk9UbXJRSW4tbDFDUTUzUFJELWlqVzM1by5ENDU4Q0M4RDExNzM1Mjcy",
      "VideoID": "H8Z5RZjVHGQ",
      "VideoFile": "math-grade1-2_20_A.mp4"
    },
    {
      "ID": "UExmSTZVQmt4dk9UbXJRSW4tbDFDUTUzUFJELWlqVzM1by4yMDhBMkNBNjRDMjQxQTg1",
      "VideoID": "7VXjsm0Id-U",
      "VideoFile": "math-grade1-2_21_A.mp4"
    },
    {
      "ID": "UExmSTZVQmt4dk9UbXJRSW4tbDFDUTUzUFJELWlqVzM1by5GM0Q3M0MzMzY5NTJFNTdE",
      "VideoID": "Cvy4RD2FN-w",
      "VideoFile": "math-grade1-2_22_A.mp4"
    }
  ]
}