{
  "Name": "math-grade1-2",
  "ID": "PLfI6UBkxvOTm-ibpDd9V9rUMeheRBzdPM",
  "DefaultLang": "sw",
  "Title": "Kuwa hesabu bwana! 💯 Darasa la 2 Hisabati",
  "Description": "Kuwa hesabu bwana! 💯 Darasa la 2 Hisabati",
  "Localizations": null,
  "PlaylistTags": "hisabati,Darasa la 2",
  "Updated": true,
  "PlaylistItems": [
    {
      "ID": "UExmSTZVQmt4dk9UbS1pYnBEZDlWOXJVTWVoZVJCemRQTS41NkI0NEY2RDEwNTU3Q0M2",
      "VideoID": "Oyy10EejTVo",
      "VideoFile": "math-grade1-2_1_A.mp4"
    },
    {
      "ID": "UExmSTZVQmt4dk9UbS1pYnBEZDlWOXJVTWVoZVJCemRQTS4yODlGNEE0NkRGMEEzMEQy",
      "VideoID": "gAUPzFAc7k8",
      "VideoFile": "math-grade1-2_2_A.mp4"
    },
    {
      "ID": "UExmSTZVQmt4dk9UbS1pYnBEZDlWOXJVTWVoZVJCemRQTS4wMTcyMDhGQUE4NTIzM0Y5",
      "VideoID": "dLeI71xcJb8",
      "VideoFile": "math-grade1-2_3_A.mp4"
    },
    {
      "ID": "UExmSTZVQmt4dk9UbS1pYnBEZDlWOXJVTWVoZVJCemRQTS41MjE1MkI0OTQ2QzJGNzNG",
      "VideoID": "yytnye1PVCc",
      "VideoFile": "math-grade1-2_4_A.mp4"
    },
    {
      "ID": "UExmSTZVQmt4dk9UbS1pYnBEZDlWOXJVTWVoZVJCemRQTS4wOTA3OTZBNzVEMTUzOTMy",
      "VideoID": "r5lBKDyIf9A",
      "VideoFile": "math-grade1-2_5_A.mp4"
    },
    {
      "ID": "UExmSTZVQmt4dk9UbS1pYnBEZDlWOXJVTWVoZVJCemRQTS4xMkVGQjNCMUM1N0RFNEUx",
      "VideoID": "x4VJ3X2AYCs",
      "VideoFile": "math-grade1-2_6_A.mp4"
    },
    {
      "ID": "UExmSTZVQmt4dk9UbS1pYnBEZDlWOXJVTWVoZVJCemRQTS41MzJCQjBCNDIyRkJDN0VD",
      "VideoID": "_6wIz_t3vo4",
      "VideoFile": "math-grade1-2_7_A.mp4"
    },
    {
      "ID": "UExmSTZVQmt4dk9UbS1pYnBEZDlWOXJVTWVoZVJCemRQTS5DQUNERDQ2NkIzRUQxNTY1",
      "VideoID": "fc1QVX0TpCc",
      "VideoFile": "math-grade1-2_8_A.mp4"
    },
    {
      "ID": "UExmSTZVQmt4dk9UbS1pYnBEZDlWOXJVTWVoZVJCemRQTS45NDk1REZENzhEMzU5MDQz",
      "VideoID": "EnIaHJd8BsI",
      "VideoFile": "math-grade1-2_9_A.mp4"
    },
    {
      "ID": "UExmSTZVQmt4dk9UbS1pYnBEZDlWOXJVTWVoZVJCemRQTS5GNjNDRDREMDQxOThCMDQ2",
      "VideoID": "D4P73IqcxpA",
      "VideoFile": "math-grade1-2_10_A.mp4"
    },
    {
      "ID": "UExmSTZVQmt4dk9UbS1pYnBEZDlWOXJVTWVoZVJCemRQTS40NzZCMERDMjVEN0RFRThB",
      "VideoID": "uqJ10YVMBi0",
      "VideoFile": "math-grade1-2_11_A.mp4"
    },
    {
      "ID": "UExmSTZVQmt4dk9UbS1pYnBEZDlWOXJVTWVoZVJCemRQTS5EMEEwRUY5M0RDRTU3NDJC",
      "VideoID": "qTqRQhpHoc0",
      "VideoFile": "math-grade1-2_12_A.mp4"
    },
    {
      "ID": "UExmSTZVQmt4dk9UbS1pYnBEZDlWOXJVTWVoZVJCemRQTS45ODRDNTg0QjA4NkFBNkQy",
      "VideoID": "QPRdDGv9org",
      "VideoFile": "math-grade1-2_13_A.mp4"
    },
    {
      "ID": "UExmSTZVQmt4dk9UbS1pYnBEZDlWOXJVTWVoZVJCemRQTS4zMDg5MkQ5MEVDMEM1NTg2",
      "VideoID": "KAJYDbxhof4",
      "VideoFile": "math-grade1-2_14_A.mp4"
    },
    {
      "ID": "UExmSTZVQmt4dk9UbS1pYnBEZDlWOXJVTWVoZVJCemRQTS41Mzk2QTAxMTkzNDk4MDhF",
      "VideoID": "k4srQ2jtH2U",
      "VideoFile": "math-grade1-2_15_A.mp4"
    },
    {
      "ID": "UExmSTZVQmt4dk9UbS1pYnBEZDlWOXJVTWVoZVJCemRQTS5EQUE1NTFDRjcwMDg0NEMz",
      "VideoID": "TEY8liTapWo",
      "VideoFile": "math-grade1-2_16_A.mp4"
    },
    {
      "ID": "UExmSTZVQmt4dk9UbS1pYnBEZDlWOXJVTWVoZVJCemRQTS41QTY1Q0UxMTVCODczNThE",
      "VideoID": "0V3bPYWY8tQ",
      "VideoFile": "math-grade1-2_17_A.mp4"
    },
    {
      "ID": "UExmSTZVQmt4dk9UbS1pYnBEZDlWOXJVTWVoZVJCemRQTS4yMUQyQTQzMjRDNzMyQTMy",
      "VideoID": "IuHDlky8Y9I",
      "VideoFile": "math-grade1-2_18_A.mp4"
    },
    {
      "ID": "UExmSTZVQmt4dk9UbS1pYnBEZDlWOXJVTWVoZVJCemRQTS45RTgxNDRBMzUwRjQ0MDhC",
      "VideoID": "lO6M65K_WXc",
      "VideoFile": "math-grade1-2_19_A.mp4"
    },
    {
      "ID": "UExmSTZVQmt4dk9UbS1pYnBEZDlWOXJVTWVoZVJCemRQTS5ENDU4Q0M4RDExNzM1Mjcy",
      "VideoID": "H8Z5RZjVHGQ",
      "VideoFile": "math-grade1-2_20_A.mp4"
    },
    {
      "ID": "UExmSTZVQmt4dk9UbS1pYnBEZDlWOXJVTWVoZVJCemRQTS4yMDhBMkNBNjRDMjQxQTg1",
      "VideoID": "7VXjsm0Id-U",
      "VideoFile": "math-grade1-2_21_A.mp4"
    },
    {
      "ID": "UExmSTZVQmt4dk9UbS1pYnBEZDlWOXJVTWVoZVJCemRQTS5GM0Q3M0MzMzY5NTJFNTdE",
      "VideoID": "Cvy4RD2FN-w",
      "VideoFile": "math-grade1-2_22_A.mp4"
    }
  ]
}