{
  "Name": "math-grade1-2",
  "ID": "PLfI6UBkxvOTmTXy_kmrbo1cPnToHOFdUC",
  "DefaultLang": "ms",
  "Title": "Menjadi tuan matematik! 💯 Gred 2 Matematik",
  "Description": "Menjadi tuan matematik! 💯 Gred 2 Matematik",
  "Localizations": null,
  "PlaylistTags": "matematik,Gred 2",
  "Updated": true,
  "PlaylistItems": [
    {
      "ID": "UExmSTZVQmt4dk9UbVRYeV9rbXJibzFjUG5Ub0hPRmRVQy41NkI0NEY2RDEwNTU3Q0M2",
      "VideoID": "Oyy10EejTVo",
      "VideoFile": "math-grade1-2_1_A.mp4"
    },
    {
      "ID": "UExmSTZVQmt4dk9UbVRYeV9rbXJibzFjUG5Ub0hPRmRVQy4yODlGNEE0NkRGMEEzMEQy",
      "VideoID": "gAUPzFAc7k8",
      "VideoFile": "math-grade1-2_2_A.mp4"
    },
    {
      "ID": "UExmSTZVQmt4dk9UbVRYeV9rbXJibzFjUG5Ub0hPRmRVQy4wMTcyMDhGQUE4NTIzM0Y5",
      "VideoID": "dLeI71xcJb8",
      "VideoFile": "math-grade1-2_3_A.mp4"
    },
    {
      "ID": "UExmSTZVQmt4dk9UbVRYeV9rbXJibzFjUG5Ub0hPRmRVQy41MjE1MkI0OTQ2QzJGNzNG",
      "VideoID": "yytnye1PVCc",
      "VideoFile": "math-grade1-2_4_A.mp4"
    },
    {
      "ID": "UExmSTZVQmt4dk9UbVRYeV9rbXJibzFjUG5Ub0hPRmRVQy4wOTA3OTZBNzVEMTUzOTMy",
      "VideoID": "r5lBKDyIf9A",
      "VideoFile": "math-grade1-2_5_A.mp4"
    },
    {
      "ID": "UExmSTZVQmt4dk9UbVRYeV9rbXJibzFjUG5Ub0hPRmRVQy4xMkVGQjNCMUM1N0RFNEUx",
      "VideoID": "x4VJ3X2AYCs",
      "VideoFile": "math-grade1-2_6_A.mp4"
    },
    {
      "ID": "UExmSTZVQmt4dk9UbVRYeV9rbXJibzFjUG5Ub0hPRmRVQy41MzJCQjBCNDIyRkJDN0VD",
      "VideoID": "_6wIz_t3vo4",
      "VideoFile": "math-grade1-2_7_A.mp4"
    },
    {
      "ID": "UExmSTZVQmt4dk9UbVRYeV9rbXJibzFjUG5Ub0hPRmRVQy5DQUNERDQ2NkIzRUQxNTY1",
      "VideoID": "fc1QVX0TpCc",
      "VideoFile": "math-grade1-2_8_A.mp4"
    },
    {
      "ID": "UExmSTZVQmt4dk9UbVRYeV9rbXJibzFjUG5Ub0hPRmRVQy45NDk1REZENzhEMzU5MDQz",
      "VideoID": "EnIaHJd8BsI",
      "VideoFile": "math-grade1-2_9_A.mp4"
    },
    {
      "ID": "UExmSTZVQmt4dk9UbVRYeV9rbXJibzFjUG5Ub0hPRmRVQy5GNjNDRDREMDQxOThCMDQ2",
      "VideoID": "D4P73IqcxpA",
      "VideoFile": "math-grade1-2_10_A.mp4"
    },
    {
      "ID": "UExmSTZVQmt4dk9UbVRYeV9rbXJibzFjUG5Ub0hPRmRVQy40NzZCMERDMjVEN0RFRThB",
      "VideoID": "uqJ10YVMBi0",
      "VideoFile": "math-grade1-2_11_A.mp4"
    },
    {
      "ID": "UExmSTZVQmt4dk9UbVRYeV9rbXJibzFjUG5Ub0hPRmRVQy5EMEEwRUY5M0RDRTU3NDJC",
      "VideoID": "qTqRQhpHoc0",
      "VideoFile": "math-grade1-2_12_A.mp4"
    },
    {
      "ID": "UExmSTZVQmt4dk9UbVRYeV9rbXJibzFjUG5Ub0hPRmRVQy45ODRDNTg0QjA4NkFBNkQy",
      "VideoID": "QPRdDGv9org",
      "VideoFile": "math-grade1-2_13_A.mp4"
    },
    {
      "ID": "UExmSTZVQmt4dk9UbVRYeV9rbXJibzFjUG5Ub0hPRmRVQy4zMDg5MkQ5MEVDMEM1NTg2",
      "VideoID": "KAJYDbxhof4",
      "VideoFile": "math-grade1-2_14_A.mp4"
    },
    {
      "ID": "UExmSTZVQmt4dk9UbVRYeV9rbXJibzFjUG5Ub0hPRmRVQy41Mzk2QTAxMTkzNDk4MDhF",
      "VideoID": "k4srQ2jtH2U",
      "VideoFile": "math-grade1-2_15_A.mp4"
    },
    {
      "ID": "UExmSTZVQmt4dk9UbVRYeV9rbXJibzFjUG5Ub0hPRmRVQy5EQUE1NTFDRjcwMDg0NEMz",
      "VideoID": "TEY8liTapWo",
      "VideoFile": "math-grade1-2_16_A.mp4"
    },
    {
      "ID": "UExmSTZVQmt4dk9UbVRYeV9rbXJibzFjUG5Ub0hPRmRVQy41QTY1Q0UxMTVCODczNThE",
      "VideoID": "0V3bPYWY8tQ",
      "VideoFile": "math-grade1-2_17_A.mp4"
    },
    {
      "ID": "UExmSTZVQmt4dk9UbVRYeV9rbXJibzFjUG5Ub0hPRmRVQy4yMUQyQTQzMjRDNzMyQTMy",
      "VideoID": "IuHDlky8Y9I",
      "VideoFile": "math-grade1-2_18_A.mp4"
    },
    {
      "ID": "UExmSTZVQmt4dk9UbVRYeV9rbXJibzFjUG5Ub0hPRmRVQy45RTgxNDRBMzUwRjQ0MDhC",
      "VideoID": "lO6M65K_WXc",
      "VideoFile": "math-grade1-2_19_A.mp4"
    },
    {
      "ID": "UExmSTZVQmt4dk9UbVRYeV9rbXJibzFjUG5Ub0hPRmRVQy5ENDU4Q0M4RDExNzM1Mjcy",
      "VideoID": "H8Z5RZjVHGQ",
      "VideoFile": "math-grade1-2_20_A.mp4"
    },
    {
      "ID": "UExmSTZVQmt4dk9UbVRYeV9rbXJibzFjUG5Ub0hPRmRVQy4yMDhBMkNBNjRDMjQxQTg1",
      "VideoID": "7VXjsm0Id-U",
      "VideoFile": "math-grade1-2_21_A.mp4"
    },
    {
      "ID": "UExmSTZVQmt4dk9UbVRYeV9rbXJibzFjUG5Ub0hPRmRVQy5GM0Q3M0MzMzY5NTJFNTdE",
      "VideoID": "Cvy4RD2FN-w",
      "VideoFile": "math-grade1-2_22_A.mp4"
    }
  ]
}