{
  "SerieName": "grammar-ja-tk2",
  "No": 6,
  "VideoTitle": "か",
  "ThumbnailTitle": "",
  "YoutubeDescription": "{Grammatical explanation}:\n{Tae Kim's Guide to Learning Japanese}\n{http://www.guidetojapanese.org/learn/grammar/question}",
  "YoutubeTitle": "",
  "Boxes": [
    {
      "Pos": 0,
      "PersonName": "y",
      "Candidates": [
        {
          "Word": "焼肉を",
          "Root": "",
          "FeatureSet": null,
          "Conditions": null,
          "PersonConditions": null
        },
        {
          "Word": "焼き鳥を",
          "Root": "",
          "FeatureSet": null,
          "Conditions": null,
          "PersonConditions": null
        },
        {
          "Word": "たこ焼きを",
          "Root": "",
          "FeatureSet": null,
          "Conditions": null,
          "PersonConditions": null
        }
      ]
    },
    {
      "Pos": 1,
      "PersonName": "y",
      "Candidates": [
        {
          "Word": "食べますか？",
          "Root": "",
          "FeatureSet": null,
          "Conditions": null,
          "PersonConditions": null
        },
        {
          "Word": "食べませんか？",
          "Root": "",
          "FeatureSet": null,
          "Conditions": null,
          "PersonConditions": null
        }
      ]
    },
    {
      "Pos": 2,
      "PersonName": "z",
      "Candidates": [
        {
          "Word": "すみません。",
          "Root": "",
          "FeatureSet": null,
          "Conditions": null,
          "PersonConditions": null
        },
        {
          "Word": "ごめんなさい。",
          "Root": "",
          "FeatureSet": null,
          "Conditions": null,
          "PersonConditions": null
        }
      ]
    },
    {
      "Pos": 3,
      "PersonName": "z",
      "Candidates": [
        {
          "Word": "お腹がいっぱいです。",
          "Root": "",
          "FeatureSet": null,
          "Conditions": null,
          "PersonConditions": null
        }
      ]
    }
  ],
  "Pars": [
    {
      "Header": "P",
      "Poses": [
        0,
        1
      ]
    },
    {
      "Header": "P",
      "Poses": [
        2,
        3
      ]
    }
  ],
  "Exercises": [
    {
      "Name": "A",
      "Problems": [
        {
          "ProblemNo": 0,
          "OriginalCandidates": [
            {
              "Word": "焼肉を",
              "Ruby": "やきにく を"
            },
            {
              "Word": "食べませんか？",
              "Ruby": "たべ ません か？"
            },
            {
              "Word": "すみません。",
              "Ruby": "すみません。"
            },
            {
              "Word": "お腹がいっぱいです。",
              "Ruby": "おなか が いっぱいです。"
            }
          ],
          "ChangeCandidatePos": 0,
          "ChangeCandidates": [
            {
              "Word": "焼き鳥を",
              "Ruby": "やきとり を"
            },
            {
              "Word": "",
              "Ruby": ""
            },
            {
              "Word": "",
              "Ruby": ""
            },
            {
              "Word": "",
              "Ruby": ""
            }
          ],
          "ChangeMorphemes": [
            {
              "Word": "焼き鳥を",
              "Root": "",
              "FeatureSet": null
            },
            {
              "Word": "",
              "Root": "",
              "FeatureSet": null
            },
            {
              "Word": "",
              "Root": "",
              "FeatureSet": null
            },
            {
              "Word": "",
              "Root": "",
              "FeatureSet": null
            }
          ],
          "AnswerCandidates": [
            {
              "Word": "焼き鳥を",
              "Ruby": "やきとり を"
            },
            {
              "Word": "食べませんか？",
              "Ruby": "たべ ません か？"
            },
            {
              "Word": "すみません。",
              "Ruby": "すみません。"
            },
            {
              "Word": "お腹がいっぱいです。",
              "Ruby": "おなか が いっぱいです。"
            }
          ]
        },
        {
          "ProblemNo": 1,
          "OriginalCandidates": [
            {
              "Word": "焼き鳥を",
              "Ruby": "やきとり を"
            },
            {
              "Word": "食べませんか？",
              "Ruby": "たべ ません か？"
            },
            {
              "Word": "すみません。",
              "Ruby": "すみません。"
            },
            {
              "Word": "お腹がいっぱいです。",
              "Ruby": "おなか が いっぱいです。"
            }
          ],
          "ChangeCandidatePos": 2,
          "ChangeCandidates": [
            {
              "Word": "",
              "Ruby": ""
            },
            {
              "Word": "",
              "Ruby": ""
            },
            {
              "Word": "ごめんなさい。",
              "Ruby": "ごめんなさい 。"
            },
            {
              "Word": "",
              "Ruby": ""
            }
          ],
          "ChangeMorphemes": [
            {
              "Word": "",
              "Root": "",
              "FeatureSet": null
            },
            {
              "Word": "",
              "Root": "",
              "FeatureSet": null
            },
            {
              "Word": "ごめんなさい。",
              "Root": "",
              "FeatureSet": null
            },
            {
              "Word": "",
              "Root": "",
              "FeatureSet": null
            }
          ],
          "AnswerCandidates": [
            {
              "Word": "焼き鳥を",
              "Ruby": "やきとり を"
            },
            {
              "Word": "食べませんか？",
              "Ruby": "たべ ません か？"
            },
            {
              "Word": "ごめんなさい。",
              "Ruby": "ごめんなさい 。"
            },
            {
              "Word": "お腹がいっぱいです。",
              "Ruby": "おなか が いっぱいです。"
            }
          ]
        },
        {
          "ProblemNo": 2,
          "OriginalCandidates": [
            {
              "Word": "焼き鳥を",
              "Ruby": "やきとり を"
            },
            {
              "Word": "食べませんか？",
              "Ruby": "たべ ません か？"
            },
            {
              "Word": "ごめんなさい。",
              "Ruby": "ごめんなさい 。"
            },
            {
              "Word": "お腹がいっぱいです。",
              "Ruby": "おなか が いっぱいです。"
            }
          ],
          "ChangeCandidatePos": 0,
          "ChangeCandidates": [
            {
              "Word": "たこ焼きを",
              "Ruby": "たこやき を"
            },
            {
              "Word": "",
              "Ruby": ""
            },
            {
              "Word": "",
              "Ruby": ""
            },
            {
              "Word": "",
              "Ruby": ""
            }
          ],
          "ChangeMorphemes": [
            {
              "Word": "たこ焼きを",
              "Root": "",
              "FeatureSet": null
            },
            {
              "Word": "",
              "Root": "",
              "FeatureSet": null
            },
            {
              "Word": "",
              "Root": "",
              "FeatureSet": null
            },
            {
              "Word": "",
              "Root": "",
              "FeatureSet": null
            }
          ],
          "AnswerCandidates": [
            {
              "Word": "たこ焼きを",
              "Ruby": "たこやき を"
            },
            {
              "Word": "食べませんか？",
              "Ruby": "たべ ません か？"
            },
            {
              "Word": "ごめんなさい。",
              "Ruby": "ごめんなさい 。"
            },
            {
              "Word": "お腹がいっぱいです。",
              "Ruby": "おなか が いっぱいです。"
            }
          ]
        },
        {
          "ProblemNo": 3,
          "OriginalCandidates": [
            {
              "Word": "たこ焼きを",
              "Ruby": "たこやき を"
            },
            {
              "Word": "食べませんか？",
              "Ruby": "たべ ません か？"
            },
            {
              "Word": "ごめんなさい。",
              "Ruby": "ごめんなさい 。"
            },
            {
              "Word": "お腹がいっぱいです。",
              "Ruby": "おなか が いっぱいです。"
            }
          ],
          "ChangeCandidatePos": 2,
          "ChangeCandidates": [
            {
              "Word": "",
              "Ruby": ""
            },
            {
              "Word": "",
              "Ruby": ""
            },
            {
              "Word": "すみません。",
              "Ruby": "すみません。"
            },
            {
              "Word": "",
              "Ruby": ""
            }
          ],
          "ChangeMorphemes": [
            {
              "Word": "",
              "Root": "",
              "FeatureSet": null
            },
            {
              "Word": "",
              "Root": "",
              "FeatureSet": null
            },
            {
              "Word": "すみません。",
              "Root": "",
              "FeatureSet": null
            },
            {
              "Word": "",
              "Root": "",
              "FeatureSet": null
            }
          ],
          "AnswerCandidates": [
            {
              "Word": "たこ焼きを",
              "Ruby": "たこやき を"
            },
            {
              "Word": "食べませんか？",
              "Ruby": "たべ ません か？"
            },
            {
              "Word": "すみません。",
              "Ruby": "すみません。"
            },
            {
              "Word": "お腹がいっぱいです。",
              "Ruby": "おなか が いっぱいです。"
            }
          ]
        },
        {
          "ProblemNo": 4,
          "OriginalCandidates": [
            {
              "Word": "たこ焼きを",
              "Ruby": "たこやき を"
            },
            {
              "Word": "食べませんか？",
              "Ruby": "たべ ません か？"
            },
            {
              "Word": "すみません。",
              "Ruby": "すみません。"
            },
            {
              "Word": "お腹がいっぱいです。",
              "Ruby": "おなか が いっぱいです。"
            }
          ],
          "ChangeCandidatePos": 1,
          "ChangeCandidates": [
            {
              "Word": "",
              "Ruby": ""
            },
            {
              "Word": "食べますか？",
              "Ruby": "たべ ます か？"
            },
            {
              "Word": "",
              "Ruby": ""
            },
            {
              "Word": "",
              "Ruby": ""
            }
          ],
          "ChangeMorphemes": [
            {
              "Word": "",
              "Root": "",
              "FeatureSet": null
            },
            {
              "Word": "食べますか？",
              "Root": "",
              "FeatureSet": null
            },
            {
              "Word": "",
              "Root": "",
              "FeatureSet": null
            },
            {
              "Word": "",
              "Root": "",
              "FeatureSet": null
            }
          ],
          "AnswerCandidates": [
            {
              "Word": "たこ焼きを",
              "Ruby": "たこやき を"
            },
            {
              "Word": "食べますか？",
              "Ruby": "たべ ます か？"
            },
            {
              "Word": "すみません。",
              "Ruby": "すみません。"
            },
            {
              "Word": "お腹がいっぱいです。",
              "Ruby": "おなか が いっぱいです。"
            }
          ]
        },
        {
          "ProblemNo": 5,
          "OriginalCandidates": [
            {
              "Word": "たこ焼きを",
              "Ruby": "たこやき を"
            },
            {
              "Word": "食べますか？",
              "Ruby": "たべ ます か？"
            },
            {
              "Word": "すみません。",
              "Ruby": "すみません。"
            },
            {
              "Word": "お腹がいっぱいです。",
              "Ruby": "おなか が いっぱいです。"
            }
          ],
          "ChangeCandidatePos": 0,
          "ChangeCandidates": [
            {
              "Word": "焼肉を",
              "Ruby": "やきにく を"
            },
            {
              "Word": "",
              "Ruby": ""
            },
            {
              "Word": "",
              "Ruby": ""
            },
            {
              "Word": "",
              "Ruby": ""
            }
          ],
          "ChangeMorphemes": [
            {
              "Word": "焼肉を",
              "Root": "",
              "FeatureSet": null
            },
            {
              "Word": "",
              "Root": "",
              "FeatureSet": null
            },
            {
              "Word": "",
              "Root": "",
              "FeatureSet": null
            },
            {
              "Word": "",
              "Root": "",
              "FeatureSet": null
            }
          ],
          "AnswerCandidates": [
            {
              "Word": "焼肉を",
              "Ruby": "やきにく を"
            },
            {
              "Word": "食べますか？",
              "Ruby": "たべ ます か？"
            },
            {
              "Word": "すみません。",
              "Ruby": "すみません。"
            },
            {
              "Word": "お腹がいっぱいです。",
              "Ruby": "おなか が いっぱいです。"
            }
          ]
        },
        {
          "ProblemNo": 6,
          "OriginalCandidates": [
            {
              "Word": "焼肉を",
              "Ruby": "やきにく を"
            },
            {
              "Word": "食べますか？",
              "Ruby": "たべ ます か？"
            },
            {
              "Word": "すみません。",
              "Ruby": "すみません。"
            },
            {
              "Word": "お腹がいっぱいです。",
              "Ruby": "おなか が いっぱいです。"
            }
          ],
          "ChangeCandidatePos": 0,
          "ChangeCandidates": [
            {
              "Word": "焼き鳥を",
              "Ruby": "やきとり を"
            },
            {
              "Word": "",
              "Ruby": ""
            },
            {
              "Word": "",
              "Ruby": ""
            },
            {
              "Word": "",
              "Ruby": ""
            }
          ],
          "ChangeMorphemes": [
            {
              "Word": "焼き鳥を",
              "Root": "",
              "FeatureSet": null
            },
            {
              "Word": "",
              "Root": "",
              "FeatureSet": null
            },
            {
              "Word": "",
              "Root": "",
              "FeatureSet": null
            },
            {
              "Word": "",
              "Root": "",
              "FeatureSet": null
            }
          ],
          "AnswerCandidates": [
            {
              "Word": "焼き鳥を",
              "Ruby": "やきとり を"
            },
            {
              "Word": "食べますか？",
              "Ruby": "たべ ます か？"
            },
            {
              "Word": "すみません。",
              "Ruby": "すみません。"
            },
            {
              "Word": "お腹がいっぱいです。",
              "Ruby": "おなか が いっぱいです。"
            }
          ]
        },
        {
          "ProblemNo": 7,
          "OriginalCandidates": [
            {
              "Word": "焼き鳥を",
              "Ruby": "やきとり を"
            },
            {
              "Word": "食べますか？",
              "Ruby": "たべ ます か？"
            },
            {
              "Word": "すみません。",
              "Ruby": "すみません。"
            },
            {
              "Word": "お腹がいっぱいです。",
              "Ruby": "おなか が いっぱいです。"
            }
          ],
          "ChangeCandidatePos": 2,
          "ChangeCandidates": [
            {
              "Word": "",
              "Ruby": ""
            },
            {
              "Word": "",
              "Ruby": ""
            },
            {
              "Word": "ごめんなさい。",
              "Ruby": "ごめんなさい 。"
            },
            {
              "Word": "",
              "Ruby": ""
            }
          ],
          "ChangeMorphemes": [
            {
              "Word": "",
              "Root": "",
              "FeatureSet": null
            },
            {
              "Word": "",
              "Root": "",
              "FeatureSet": null
            },
            {
              "Word": "ごめんなさい。",
              "Root": "",
              "FeatureSet": null
            },
            {
              "Word": "",
              "Root": "",
              "FeatureSet": null
            }
          ],
          "AnswerCandidates": [
            {
              "Word": "焼き鳥を",
              "Ruby": "やきとり を"
            },
            {
              "Word": "食べますか？",
              "Ruby": "たべ ます か？"
            },
            {
              "Word": "ごめんなさい。",
              "Ruby": "ごめんなさい 。"
            },
            {
              "Word": "お腹がいっぱいです。",
              "Ruby": "おなか が いっぱいです。"
            }
          ]
        },
        {
          "ProblemNo": 8,
          "OriginalCandidates": [
            {
              "Word": "焼き鳥を",
              "Ruby": "やきとり を"
            },
            {
              "Word": "食べますか？",
              "Ruby": "たべ ます か？"
            },
            {
              "Word": "ごめんなさい。",
              "Ruby": "ごめんなさい 。"
            },
            {
              "Word": "お腹がいっぱいです。",
              "Ruby": "おなか が いっぱいです。"
            }
          ],
          "ChangeCandidatePos": 0,
          "ChangeCandidates": [
            {
              "Word": "たこ焼きを",
              "Ruby": "たこやき を"
            },
            {
              "Word": "",
              "Ruby": ""
            },
            {
              "Word": "",
              "Ruby": ""
            },
            {
              "Word": "",
              "Ruby": ""
            }
          ],
          "ChangeMorphemes": [
            {
              "Word": "たこ焼きを",
              "Root": "",
              "FeatureSet": null
            },
            {
              "Word": "",
              "Root": "",
              "FeatureSet": null
            },
            {
              "Word": "",
              "Root": "",
              "FeatureSet": null
            },
            {
              "Word": "",
              "Root": "",
              "FeatureSet": null
            }
          ],
          "AnswerCandidates": [
            {
              "Word": "たこ焼きを",
              "Ruby": "たこやき を"
            },
            {
              "Word": "食べますか？",
              "Ruby": "たべ ます か？"
            },
            {
              "Word": "ごめんなさい。",
              "Ruby": "ごめんなさい 。"
            },
            {
              "Word": "お腹がいっぱいです。",
              "Ruby": "おなか が いっぱいです。"
            }
          ]
        },
        {
          "ProblemNo": 9,
          "OriginalCandidates": [
            {
              "Word": "たこ焼きを",
              "Ruby": "たこやき を"
            },
            {
              "Word": "食べますか？",
              "Ruby": "たべ ます か？"
            },
            {
              "Word": "ごめんなさい。",
              "Ruby": "ごめんなさい 。"
            },
            {
              "Word": "お腹がいっぱいです。",
              "Ruby": "おなか が いっぱいです。"
            }
          ],
          "ChangeCandidatePos": 0,
          "ChangeCandidates": [
            {
              "Word": "焼肉を",
              "Ruby": "やきにく を"
            },
            {
              "Word": "",
              "Ruby": ""
            },
            {
              "Word": "",
              "Ruby": ""
            },
            {
              "Word": "",
              "Ruby": ""
            }
          ],
          "ChangeMorphemes": [
            {
              "Word": "焼肉を",
              "Root": "",
              "FeatureSet": null
            },
            {
              "Word": "",
              "Root": "",
              "FeatureSet": null
            },
            {
              "Word": "",
              "Root": "",
              "FeatureSet": null
            },
            {
              "Word": "",
              "Root": "",
              "FeatureSet": null
            }
          ],
          "AnswerCandidates": [
            {
              "Word": "焼肉を",
              "Ruby": "やきにく を"
            },
            {
              "Word": "食べますか？",
              "Ruby": "たべ ます か？"
            },
            {
              "Word": "ごめんなさい。",
              "Ruby": "ごめんなさい 。"
            },
            {
              "Word": "お腹がいっぱいです。",
              "Ruby": "おなか が いっぱいです。"
            }
          ]
        }
      ],
      "VideoFile": "grammar-ja-tk2_6_A.mp4",
      "AnimeticCaptions": [
        {
          "Start": 0,
          "End": 3,
          "Text": "{grammar-ja-tk2} #6 か",
          "Ruby": "",
          "Lang": "",
          "ProblemNo": 0,
          "Kind": 0
        },
        {
          "Start": 3,
          "End": 5,
          "Text": "{焼肉を食べませんか？}",
          "Ruby": "やきにく を たべ ません か？",
          "Lang": "ja",
          "ProblemNo": 0,
          "Kind": 1
        },
        {
          "Start": 5,
          "End": 9,
          "Text": "{すみません。お腹がいっぱいです。}",
          "Ruby": "すみません。 おなか が いっぱいです。",
          "Lang": "ja",
          "ProblemNo": 0,
          "Kind": 1
        },
        {
          "Start": 9,
          "End": 10,
          "Text": "{焼き鳥を}",
          "Ruby": "やきとり を",
          "Lang": "ja",
          "ProblemNo": 0,
          "Kind": 2
        },
        {
          "Start": 10,
          "End": 13,
          "Text": "{焼き鳥を食べませんか？}",
          "Ruby": "やきとり を たべ ません か？",
          "Lang": "ja",
          "ProblemNo": 0,
          "Kind": 3
        },
        {
          "Start": 13,
          "End": 18,
          "Text": "{すみません。お腹がいっぱいです。}",
          "Ruby": "すみません。 おなか が いっぱいです。",
          "Lang": "ja",
          "ProblemNo": 0,
          "Kind": 3
        },
        {
          "Start": 18,
          "End": 20,
          "Text": "{焼き鳥を食べませんか？}",
          "Ruby": "やきとり を たべ ません か？",
          "Lang": "ja",
          "ProblemNo": 0,
          "Kind": 4
        },
        {
          "Start": 20,
          "End": 26,
          "Text": "{すみません。お腹がいっぱいです。}",
          "Ruby": "すみません。 おなか が いっぱいです。",
          "Lang": "ja",
          "ProblemNo": 0,
          "Kind": 4
        },
        {
          "Start": 26,
          "End": 28,
          "Text": "{焼き鳥を食べませんか？}",
          "Ruby": "やきとり を たべ ません か？",
          "Lang": "ja",
          "ProblemNo": 1,
          "Kind": 1
        },
        {
          "Start": 28,
          "End": 32,
          "Text": "{すみません。お腹がいっぱいです。}",
          "Ruby": "すみません。 おなか が いっぱいです。",
          "Lang": "ja",
          "ProblemNo": 1,
          "Kind": 1
        },
        {
          "Start": 32,
          "End": 34,
          "Text": "{ごめんなさい。}",
          "Ruby": "ごめんなさい 。",
          "Lang": "ja",
          "ProblemNo": 1,
          "Kind": 2
        },
        {
          "Start": 34,
          "End": 37,
          "Text": "{焼き鳥を食べませんか？}",
          "Ruby": "やきとり を たべ ません か？",
          "Lang": "ja",
          "ProblemNo": 1,
          "Kind": 3
        },
        {
          "Start": 37,
          "End": 42,
          "Text": "{ごめんなさい。お腹がいっぱいです。}",
          "Ruby": "ごめんなさい 。 おなか が いっぱいです。",
          "Lang": "ja",
          "ProblemNo": 1,
          "Kind": 3
        },
        {
          "Start": 42,
          "End": 44,
          "Text": "{焼き鳥を食べませんか？}",
          "Ruby": "やきとり を たべ ません か？",
          "Lang": "ja",
          "ProblemNo": 1,
          "Kind": 4
        },
        {
          "Start": 44,
          "End": 50,
          "Text": "{ごめんなさい。お腹がいっぱいです。}",
          "Ruby": "ごめんなさい 。 おなか が いっぱいです。",
          "Lang": "ja",
          "ProblemNo": 1,
          "Kind": 4
        },
        {
          "Start": 50,
          "End": 52,
          "Text": "{焼き鳥を食べませんか？}",
          "Ruby": "やきとり を たべ ません か？",
          "Lang": "ja",
          "ProblemNo": 2,
          "Kind": 1
        },
        {
          "Start": 52,
          "End": 56,
          "Text": "{ごめんなさい。お腹がいっぱいです。}",
          "Ruby": "ごめんなさい 。 おなか が いっぱいです。",
          "Lang": "ja",
          "ProblemNo": 2,
          "Kind": 1
        },
        {
          "Start": 56,
          "End": 58,
          "Text": "{たこ焼きを}",
          "Ruby": "たこやき を",
          "Lang": "ja",
          "ProblemNo": 2,
          "Kind": 2
        },
        {
          "Start": 58,
          "End": 61,
          "Text": "{たこ焼きを食べませんか？}",
          "Ruby": "たこやき を たべ ません か？",
          "Lang": "ja",
          "ProblemNo": 2,
          "Kind": 3
        },
        {
          "Start": 61,
          "End": 66,
          "Text": "{ごめんなさい。お腹がいっぱいです。}",
          "Ruby": "ごめんなさい 。 おなか が いっぱいです。",
          "Lang": "ja",
          "ProblemNo": 2,
          "Kind": 3
        },
        {
          "Start": 66,
          "End": 68,
          "Text": "{たこ焼きを食べませんか？}",
          "Ruby": "たこやき を たべ ません か？",
          "Lang": "ja",
          "ProblemNo": 2,
          "Kind": 4
        },
        {
          "Start": 68,
          "End": 74,
          "Text": "{ごめんなさい。お腹がいっぱいです。}",
          "Ruby": "ごめんなさい 。 おなか が いっぱいです。",
          "Lang": "ja",
          "ProblemNo": 2,
          "Kind": 4
        },
        {
          "Start": 74,
          "End": 76,
          "Text": "{たこ焼きを食べませんか？}",
          "Ruby": "たこやき を たべ ません か？",
          "Lang": "ja",
          "ProblemNo": 3,
          "Kind": 1
        },
        {
          "Start": 76,
          "End": 80,
          "Text": "{ごめんなさい。お腹がいっぱいです。}",
          "Ruby": "ごめんなさい 。 おなか が いっぱいです。",
          "Lang": "ja",
          "ProblemNo": 3,
          "Kind": 1
        },
        {
          "Start": 80,
          "End": 82,
          "Text": "{すみません。}",
          "Ruby": "すみません。",
          "Lang": "ja",
          "ProblemNo": 3,
          "Kind": 2
        },
        {
          "Start": 82,
          "End": 85,
          "Text": "{たこ焼きを食べませんか？}",
          "Ruby": "たこやき を たべ ません か？",
          "Lang": "ja",
          "ProblemNo": 3,
          "Kind": 3
        },
        {
          "Start": 85,
          "End": 90,
          "Text": "{すみません。お腹がいっぱいです。}",
          "Ruby": "すみません。 おなか が いっぱいです。",
          "Lang": "ja",
          "ProblemNo": 3,
          "Kind": 3
        },
        {
          "Start": 90,
          "End": 92,
          "Text": "{たこ焼きを食べませんか？}",
          "Ruby": "たこやき を たべ ません か？",
          "Lang": "ja",
          "ProblemNo": 3,
          "Kind": 4
        },
        {
          "Start": 92,
          "End": 98,
          "Text": "{すみません。お腹がいっぱいです。}",
          "Ruby": "すみません。 おなか が いっぱいです。",
          "Lang": "ja",
          "ProblemNo": 3,
          "Kind": 4
        },
        {
          "Start": 98,
          "End": 100,
          "Text": "{たこ焼きを食べませんか？}",
          "Ruby": "たこやき を たべ ません か？",
          "Lang": "ja",
          "ProblemNo": 4,
          "Kind": 1
        },
        {
          "Start": 100,
          "End": 104,
          "Text": "{すみません。お腹がいっぱいです。}",
          "Ruby": "すみません。 おなか が いっぱいです。",
          "Lang": "ja",
          "ProblemNo": 4,
          "Kind": 1
        },
        {
          "Start": 104,
          "End": 106,
          "Text": "{食べますか？}",
          "Ruby": "たべ ます か？",
          "Lang": "ja",
          "ProblemNo": 4,
          "Kind": 2
        },
        {
          "Start": 106,
          "End": 109,
          "Text": "{たこ焼きを食べますか？}",
          "Ruby": "たこやき を たべ ます か？",
          "Lang": "ja",
          "ProblemNo": 4,
          "Kind": 3
        },
        {
          "Start": 109,
          "End": 114,
          "Text": "{すみません。お腹がいっぱいです。}",
          "Ruby": "すみません。 おなか が いっぱいです。",
          "Lang": "ja",
          "ProblemNo": 4,
          "Kind": 3
        },
        {
          "Start": 114,
          "End": 116,
          "Text": "{たこ焼きを食べますか？}",
          "Ruby": "たこやき を たべ ます か？",
          "Lang": "ja",
          "ProblemNo": 4,
          "Kind": 4
        },
        {
          "Start": 116,
          "End": 122,
          "Text": "{すみません。お腹がいっぱいです。}",
          "Ruby": "すみません。 おなか が いっぱいです。",
          "Lang": "ja",
          "ProblemNo": 4,
          "Kind": 4
        },
        {
          "Start": 122,
          "End": 124,
          "Text": "{たこ焼きを食べますか？}",
          "Ruby": "たこやき を たべ ます か？",
          "Lang": "ja",
          "ProblemNo": 5,
          "Kind": 1
        },
        {
          "Start": 124,
          "End": 128,
          "Text": "{すみません。お腹がいっぱいです。}",
          "Ruby": "すみません。 おなか が いっぱいです。",
          "Lang": "ja",
          "ProblemNo": 5,
          "Kind": 1
        },
        {
          "Start": 128,
          "End": 130,
          "Text": "{焼肉を}",
          "Ruby": "やきにく を",
          "Lang": "ja",
          "ProblemNo": 5,
          "Kind": 2
        },
        {
          "Start": 130,
          "End": 133,
          "Text": "{焼肉を食べますか？}",
          "Ruby": "やきにく を たべ ます か？",
          "Lang": "ja",
          "ProblemNo": 5,
          "Kind": 3
        },
        {
          "Start": 133,
          "End": 138,
          "Text": "{すみません。お腹がいっぱいです。}",
          "Ruby": "すみません。 おなか が いっぱいです。",
          "Lang": "ja",
          "ProblemNo": 5,
          "Kind": 3
        },
        {
          "Start": 138,
          "End": 140,
          "Text": "{焼肉を食べますか？}",
          "Ruby": "やきにく を たべ ます か？",
          "Lang": "ja",
          "ProblemNo": 5,
          "Kind": 4
        },
        {
          "Start": 140,
          "End": 146,
          "Text": "{すみません。お腹がいっぱいです。}",
          "Ruby": "すみません。 おなか が いっぱいです。",
          "Lang": "ja",
          "ProblemNo": 5,
          "Kind": 4
        },
        {
          "Start": 146,
          "End": 148,
          "Text": "{焼肉を食べますか？}",
          "Ruby": "やきにく を たべ ます か？",
          "Lang": "ja",
          "ProblemNo": 6,
          "Kind": 1
        },
        {
          "Start": 148,
          "End": 152,
          "Text": "{すみません。お腹がいっぱいです。}",
          "Ruby": "すみません。 おなか が いっぱいです。",
          "Lang": "ja",
          "ProblemNo": 6,
          "Kind": 1
        },
        {
          "Start": 152,
          "End": 153,
          "Text": "{焼き鳥を}",
          "Ruby": "やきとり を",
          "Lang": "ja",
          "ProblemNo": 6,
          "Kind": 2
        },
        {
          "Start": 153,
          "End": 156,
          "Text": "{焼き鳥を食べますか？}",
          "Ruby": "やきとり を たべ ます か？",
          "Lang": "ja",
          "ProblemNo": 6,
          "Kind": 3
        },
        {
          "Start": 156,
          "End": 161,
          "Text": "{すみません。お腹がいっぱいです。}",
          "Ruby": "すみません。 おなか が いっぱいです。",
          "Lang": "ja",
          "ProblemNo": 6,
          "Kind": 3
        },
        {
          "Start": 161,
          "End": 163,
          "Text": "{焼き鳥を食べますか？}",
          "Ruby": "やきとり を たべ ます か？",
          "Lang": "ja",
          "ProblemNo": 6,
          "Kind": 4
        },
        {
          "Start": 163,
          "End": 169,
          "Text": "{すみません。お腹がいっぱいです。}",
          "Ruby": "すみません。 おなか が いっぱいです。",
          "Lang": "ja",
          "ProblemNo": 6,
          "Kind": 4
        },
        {
          "Start": 169,
          "End": 171,
          "Text": "{焼き鳥を食べますか？}",
          "Ruby": "やきとり を たべ ます か？",
          "Lang": "ja",
          "ProblemNo": 7,
          "Kind": 1
        },
        {
          "Start": 171,
          "End": 175,
          "Text": "{すみません。お腹がいっぱいです。}",
          "Ruby": "すみません。 おなか が いっぱいです。",
          "Lang": "ja",
          "ProblemNo": 7,
          "Kind": 1
        },
        {
          "Start": 175,
          "End": 177,
          "Text": "{ごめんなさい。}",
          "Ruby": "ごめんなさい 。",
          "Lang": "ja",
          "ProblemNo": 7,
          "Kind": 2
        },
        {
          "Start": 177,
          "End": 180,
          "Text": "{焼き鳥を食べますか？}",
          "Ruby": "やきとり を たべ ます か？",
          "Lang": "ja",
          "ProblemNo": 7,
          "Kind": 3
        },
        {
          "Start": 180,
          "End": 185,
          "Text": "{ごめんなさい。お腹がいっぱいです。}",
          "Ruby": "ごめんなさい 。 おなか が いっぱいです。",
          "Lang": "ja",
          "ProblemNo": 7,
          "Kind": 3
        },
        {
          "Start": 185,
          "End": 187,
          "Text": "{焼き鳥を食べますか？}",
          "Ruby": "やきとり を たべ ます か？",
          "Lang": "ja",
          "ProblemNo": 7,
          "Kind": 4
        },
        {
          "Start": 187,
          "End": 193,
          "Text": "{ごめんなさい。お腹がいっぱいです。}",
          "Ruby": "ごめんなさい 。 おなか が いっぱいです。",
          "Lang": "ja",
          "ProblemNo": 7,
          "Kind": 4
        },
        {
          "Start": 193,
          "End": 195,
          "Text": "{焼き鳥を食べますか？}",
          "Ruby": "やきとり を たべ ます か？",
          "Lang": "ja",
          "ProblemNo": 8,
          "Kind": 1
        },
        {
          "Start": 195,
          "End": 199,
          "Text": "{ごめんなさい。お腹がいっぱいです。}",
          "Ruby": "ごめんなさい 。 おなか が いっぱいです。",
          "Lang": "ja",
          "ProblemNo": 8,
          "Kind": 1
        },
        {
          "Start": 199,
          "End": 201,
          "Text": "{たこ焼きを}",
          "Ruby": "たこやき を",
          "Lang": "ja",
          "ProblemNo": 8,
          "Kind": 2
        },
        {
          "Start": 201,
          "End": 204,
          "Text": "{たこ焼きを食べますか？}",
          "Ruby": "たこやき を たべ ます か？",
          "Lang": "ja",
          "ProblemNo": 8,
          "Kind": 3
        },
        {
          "Start": 204,
          "End": 209,
          "Text": "{ごめんなさい。お腹がいっぱいです。}",
          "Ruby": "ごめんなさい 。 おなか が いっぱいです。",
          "Lang": "ja",
          "ProblemNo": 8,
          "Kind": 3
        },
        {
          "Start": 209,
          "End": 211,
          "Text": "{たこ焼きを食べますか？}",
          "Ruby": "たこやき を たべ ます か？",
          "Lang": "ja",
          "ProblemNo": 8,
          "Kind": 4
        },
        {
          "Start": 211,
          "End": 217,
          "Text": "{ごめんなさい。お腹がいっぱいです。}",
          "Ruby": "ごめんなさい 。 おなか が いっぱいです。",
          "Lang": "ja",
          "ProblemNo": 8,
          "Kind": 4
        },
        {
          "Start": 217,
          "End": 219,
          "Text": "{たこ焼きを食べますか？}",
          "Ruby": "たこやき を たべ ます か？",
          "Lang": "ja",
          "ProblemNo": 9,
          "Kind": 1
        },
        {
          "Start": 219,
          "End": 223,
          "Text": "{ごめんなさい。お腹がいっぱいです。}",
          "Ruby": "ごめんなさい 。 おなか が いっぱいです。",
          "Lang": "ja",
          "ProblemNo": 9,
          "Kind": 1
        },
        {
          "Start": 223,
          "End": 225,
          "Text": "{焼肉を}",
          "Ruby": "やきにく を",
          "Lang": "ja",
          "ProblemNo": 9,
          "Kind": 2
        },
        {
          "Start": 225,
          "End": 228,
          "Text": "{焼肉を食べますか？}",
          "Ruby": "やきにく を たべ ます か？",
          "Lang": "ja",
          "ProblemNo": 9,
          "Kind": 3
        },
        {
          "Start": 228,
          "End": 233,
          "Text": "{ごめんなさい。お腹がいっぱいです。}",
          "Ruby": "ごめんなさい 。 おなか が いっぱいです。",
          "Lang": "ja",
          "ProblemNo": 9,
          "Kind": 3
        },
        {
          "Start": 233,
          "End": 235,
          "Text": "{焼肉を食べますか？}",
          "Ruby": "やきにく を たべ ます か？",
          "Lang": "ja",
          "ProblemNo": 9,
          "Kind": 4
        },
        {
          "Start": 235,
          "End": 241,
          "Text": "{ごめんなさい。お腹がいっぱいです。}",
          "Ruby": "ごめんなさい 。 おなか が いっぱいです。",
          "Lang": "ja",
          "ProblemNo": 9,
          "Kind": 4
        },
        {
          "Start": 241,
          "End": 244,
          "Text": "",
          "Ruby": "",
          "Lang": "",
          "ProblemNo": 0,
          "Kind": 5
        },
        {
          "Start": 244,
          "End": 246,
          "Text": "{焼肉を食べませんか？}",
          "Ruby": "やきにく を たべ ません か？",
          "Lang": "ja",
          "ProblemNo": 0,
          "Kind": 1
        },
        {
          "Start": 246,
          "End": 250,
          "Text": "{すみません。お腹がいっぱいです。}",
          "Ruby": "すみません。 おなか が いっぱいです。",
          "Lang": "ja",
          "ProblemNo": 0,
          "Kind": 1
        },
        {
          "Start": 250,
          "End": 251,
          "Text": "{焼き鳥を}",
          "Ruby": "やきとり を",
          "Lang": "ja",
          "ProblemNo": 0,
          "Kind": 2
        },
        {
          "Start": 251,
          "End": 254,
          "Text": "{焼き鳥を食べませんか？}",
          "Ruby": "やきとり を たべ ません か？",
          "Lang": "ja",
          "ProblemNo": 0,
          "Kind": 3
        },
        {
          "Start": 254,
          "End": 259,
          "Text": "{すみません。お腹がいっぱいです。}",
          "Ruby": "すみません。 おなか が いっぱいです。",
          "Lang": "ja",
          "ProblemNo": 0,
          "Kind": 3
        },
        {
          "Start": 259,
          "End": 261,
          "Text": "{焼き鳥を食べませんか？}",
          "Ruby": "やきとり を たべ ません か？",
          "Lang": "ja",
          "ProblemNo": 0,
          "Kind": 4
        },
        {
          "Start": 261,
          "End": 267,
          "Text": "{すみません。お腹がいっぱいです。}",
          "Ruby": "すみません。 おなか が いっぱいです。",
          "Lang": "ja",
          "ProblemNo": 0,
          "Kind": 4
        },
        {
          "Start": 267,
          "End": 269,
          "Text": "{焼き鳥を食べませんか？}",
          "Ruby": "やきとり を たべ ません か？",
          "Lang": "ja",
          "ProblemNo": 1,
          "Kind": 1
        },
        {
          "Start": 269,
          "End": 273,
          "Text": "{すみません。お腹がいっぱいです。}",
          "Ruby": "すみません。 おなか が いっぱいです。",
          "Lang": "ja",
          "ProblemNo": 1,
          "Kind": 1
        },
        {
          "Start": 273,
          "End": 275,
          "Text": "{ごめんなさい。}",
          "Ruby": "ごめんなさい 。",
          "Lang": "ja",
          "ProblemNo": 1,
          "Kind": 2
        },
        {
          "Start": 275,
          "End": 278,
          "Text": "{焼き鳥を食べませんか？}",
          "Ruby": "やきとり を たべ ません か？",
          "Lang": "ja",
          "ProblemNo": 1,
          "Kind": 3
        },
        {
          "Start": 278,
          "End": 283,
          "Text": "{ごめんなさい。お腹がいっぱいです。}",
          "Ruby": "ごめんなさい 。 おなか が いっぱいです。",
          "Lang": "ja",
          "ProblemNo": 1,
          "Kind": 3
        },
        {
          "Start": 283,
          "End": 285,
          "Text": "{焼き鳥を食べませんか？}",
          "Ruby": "やきとり を たべ ません か？",
          "Lang": "ja",
          "ProblemNo": 1,
          "Kind": 4
        },
        {
          "Start": 285,
          "End": 291,
          "Text": "{ごめんなさい。お腹がいっぱいです。}",
          "Ruby": "ごめんなさい 。 おなか が いっぱいです。",
          "Lang": "ja",
          "ProblemNo": 1,
          "Kind": 4
        },
        {
          "Start": 291,
          "End": 293,
          "Text": "{焼き鳥を食べませんか？}",
          "Ruby": "やきとり を たべ ません か？",
          "Lang": "ja",
          "ProblemNo": 2,
          "Kind": 1
        },
        {
          "Start": 293,
          "End": 297,
          "Text": "{ごめんなさい。お腹がいっぱいです。}",
          "Ruby": "ごめんなさい 。 おなか が いっぱいです。",
          "Lang": "ja",
          "ProblemNo": 2,
          "Kind": 1
        },
        {
          "Start": 297,
          "End": 299,
          "Text": "{たこ焼きを}",
          "Ruby": "たこやき を",
          "Lang": "ja",
          "ProblemNo": 2,
          "Kind": 2
        },
        {
          "Start": 299,
          "End": 302,
          "Text": "{たこ焼きを食べませんか？}",
          "Ruby": "たこやき を たべ ません か？",
          "Lang": "ja",
          "ProblemNo": 2,
          "Kind": 3
        },
        {
          "Start": 302,
          "End": 307,
          "Text": "{ごめんなさい。お腹がいっぱいです。}",
          "Ruby": "ごめんなさい 。 おなか が いっぱいです。",
          "Lang": "ja",
          "ProblemNo": 2,
          "Kind": 3
        },
        {
          "Start": 307,
          "End": 309,
          "Text": "{たこ焼きを食べませんか？}",
          "Ruby": "たこやき を たべ ません か？",
          "Lang": "ja",
          "ProblemNo": 2,
          "Kind": 4
        },
        {
          "Start": 309,
          "End": 315,
          "Text": "{ごめんなさい。お腹がいっぱいです。}",
          "Ruby": "ごめんなさい 。 おなか が いっぱいです。",
          "Lang": "ja",
          "ProblemNo": 2,
          "Kind": 4
        },
        {
          "Start": 315,
          "End": 317,
          "Text": "{たこ焼きを食べませんか？}",
          "Ruby": "たこやき を たべ ません か？",
          "Lang": "ja",
          "ProblemNo": 3,
          "Kind": 1
        },
        {
          "Start": 317,
          "End": 321,
          "Text": "{ごめんなさい。お腹がいっぱいです。}",
          "Ruby": "ごめんなさい 。 おなか が いっぱいです。",
          "Lang": "ja",
          "ProblemNo": 3,
          "Kind": 1
        },
        {
          "Start": 321,
          "End": 323,
          "Text": "{すみません。}",
          "Ruby": "すみません。",
          "Lang": "ja",
          "ProblemNo": 3,
          "Kind": 2
        },
        {
          "Start": 323,
          "End": 326,
          "Text": "{たこ焼きを食べませんか？}",
          "Ruby": "たこやき を たべ ません か？",
          "Lang": "ja",
          "ProblemNo": 3,
          "Kind": 3
        },
        {
          "Start": 326,
          "End": 331,
          "Text": "{すみません。お腹がいっぱいです。}",
          "Ruby": "すみません。 おなか が いっぱいです。",
          "Lang": "ja",
          "ProblemNo": 3,
          "Kind": 3
        },
        {
          "Start": 331,
          "End": 333,
          "Text": "{たこ焼きを食べませんか？}",
          "Ruby": "たこやき を たべ ません か？",
          "Lang": "ja",
          "ProblemNo": 3,
          "Kind": 4
        },
        {
          "Start": 333,
          "End": 339,
          "Text": "{すみません。お腹がいっぱいです。}",
          "Ruby": "すみません。 おなか が いっぱいです。",
          "Lang": "ja",
          "ProblemNo": 3,
          "Kind": 4
        },
        {
          "Start": 339,
          "End": 341,
          "Text": "{たこ焼きを食べませんか？}",
          "Ruby": "たこやき を たべ ません か？",
          "Lang": "ja",
          "ProblemNo": 4,
          "Kind": 1
        },
        {
          "Start": 341,
          "End": 345,
          "Text": "{すみません。お腹がいっぱいです。}",
          "Ruby": "すみません。 おなか が いっぱいです。",
          "Lang": "ja",
          "ProblemNo": 4,
          "Kind": 1
        },
        {
          "Start": 345,
          "End": 347,
          "Text": "{食べますか？}",
          "Ruby": "たべ ます か？",
          "Lang": "ja",
          "ProblemNo": 4,
          "Kind": 2
        },
        {
          "Start": 347,
          "End": 350,
          "Text": "{たこ焼きを食べますか？}",
          "Ruby": "たこやき を たべ ます か？",
          "Lang": "ja",
          "ProblemNo": 4,
          "Kind": 3
        },
        {
          "Start": 350,
          "End": 355,
          "Text": "{すみません。お腹がいっぱいです。}",
          "Ruby": "すみません。 おなか が いっぱいです。",
          "Lang": "ja",
          "ProblemNo": 4,
          "Kind": 3
        },
        {
          "Start": 355,
          "End": 357,
          "Text": "{たこ焼きを食べますか？}",
          "Ruby": "たこやき を たべ ます か？",
          "Lang": "ja",
          "ProblemNo": 4,
          "Kind": 4
        },
        {
          "Start": 357,
          "End": 363,
          "Text": "{すみません。お腹がいっぱいです。}",
          "Ruby": "すみません。 おなか が いっぱいです。",
          "Lang": "ja",
          "ProblemNo": 4,
          "Kind": 4
        },
        {
          "Start": 363,
          "End": 365,
          "Text": "{たこ焼きを食べますか？}",
          "Ruby": "たこやき を たべ ます か？",
          "Lang": "ja",
          "ProblemNo": 5,
          "Kind": 1
        },
        {
          "Start": 365,
          "End": 369,
          "Text": "{すみません。お腹がいっぱいです。}",
          "Ruby": "すみません。 おなか が いっぱいです。",
          "Lang": "ja",
          "ProblemNo": 5,
          "Kind": 1
        },
        {
          "Start": 369,
          "End": 371,
          "Text": "{焼肉を}",
          "Ruby": "やきにく を",
          "Lang": "ja",
          "ProblemNo": 5,
          "Kind": 2
        },
        {
          "Start": 371,
          "End": 374,
          "Text": "{焼肉を食べますか？}",
          "Ruby": "やきにく を たべ ます か？",
          "Lang": "ja",
          "ProblemNo": 5,
          "Kind": 3
        },
        {
          "Start": 374,
          "End": 379,
          "Text": "{すみません。お腹がいっぱいです。}",
          "Ruby": "すみません。 おなか が いっぱいです。",
          "Lang": "ja",
          "ProblemNo": 5,
          "Kind": 3
        },
        {
          "Start": 379,
          "End": 381,
          "Text": "{焼肉を食べますか？}",
          "Ruby": "やきにく を たべ ます か？",
          "Lang": "ja",
          "ProblemNo": 5,
          "Kind": 4
        },
        {
          "Start": 381,
          "End": 387,
          "Text": "{すみません。お腹がいっぱいです。}",
          "Ruby": "すみません。 おなか が いっぱいです。",
          "Lang": "ja",
          "ProblemNo": 5,
          "Kind": 4
        },
        {
          "Start": 387,
          "End": 389,
          "Text": "{焼肉を食べますか？}",
          "Ruby": "やきにく を たべ ます か？",
          "Lang": "ja",
          "ProblemNo": 6,
          "Kind": 1
        },
        {
          "Start": 389,
          "End": 393,
          "Text": "{すみません。お腹がいっぱいです。}",
          "Ruby": "すみません。 おなか が いっぱいです。",
          "Lang": "ja",
          "ProblemNo": 6,
          "Kind": 1
        },
        {
          "Start": 393,
          "End": 394,
          "Text": "{焼き鳥を}",
          "Ruby": "やきとり を",
          "Lang": "ja",
          "ProblemNo": 6,
          "Kind": 2
        },
        {
          "Start": 394,
          "End": 397,
          "Text": "{焼き鳥を食べますか？}",
          "Ruby": "やきとり を たべ ます か？",
          "Lang": "ja",
          "ProblemNo": 6,
          "Kind": 3
        },
        {
          "Start": 397,
          "End": 402,
          "Text": "{すみません。お腹がいっぱいです。}",
          "Ruby": "すみません。 おなか が いっぱいです。",
          "Lang": "ja",
          "ProblemNo": 6,
          "Kind": 3
        },
        {
          "Start": 402,
          "End": 404,
          "Text": "{焼き鳥を食べますか？}",
          "Ruby": "やきとり を たべ ます か？",
          "Lang": "ja",
          "ProblemNo": 6,
          "Kind": 4
        },
        {
          "Start": 404,
          "End": 410,
          "Text": "{すみません。お腹がいっぱいです。}",
          "Ruby": "すみません。 おなか が いっぱいです。",
          "Lang": "ja",
          "ProblemNo": 6,
          "Kind": 4
        },
        {
          "Start": 410,
          "End": 412,
          "Text": "{焼き鳥を食べますか？}",
          "Ruby": "やきとり を たべ ます か？",
          "Lang": "ja",
          "ProblemNo": 7,
          "Kind": 1
        },
        {
          "Start": 412,
          "End": 416,
          "Text": "{すみません。お腹がいっぱいです。}",
          "Ruby": "すみません。 おなか が いっぱいです。",
          "Lang": "ja",
          "ProblemNo": 7,
          "Kind": 1
        },
        {
          "Start": 416,
          "End": 418,
          "Text": "{ごめんなさい。}",
          "Ruby": "ごめんなさい 。",
          "Lang": "ja",
          "ProblemNo": 7,
          "Kind": 2
        },
        {
          "Start": 418,
          "End": 421,
          "Text": "{焼き鳥を食べますか？}",
          "Ruby": "やきとり を たべ ます か？",
          "Lang": "ja",
          "ProblemNo": 7,
          "Kind": 3
        },
        {
          "Start": 421,
          "End": 426,
          "Text": "{ごめんなさい。お腹がいっぱいです。}",
          "Ruby": "ごめんなさい 。 おなか が いっぱいです。",
          "Lang": "ja",
          "ProblemNo": 7,
          "Kind": 3
        },
        {
          "Start": 426,
          "End": 428,
          "Text": "{焼き鳥を食べますか？}",
          "Ruby": "やきとり を たべ ます か？",
          "Lang": "ja",
          "ProblemNo": 7,
          "Kind": 4
        },
        {
          "Start": 428,
          "End": 434,
          "Text": "{ごめんなさい。お腹がいっぱいです。}",
          "Ruby": "ごめんなさい 。 おなか が いっぱいです。",
          "Lang": "ja",
          "ProblemNo": 7,
          "Kind": 4
        },
        {
          "Start": 434,
          "End": 436,
          "Text": "{焼き鳥を食べますか？}",
          "Ruby": "やきとり を たべ ます か？",
          "Lang": "ja",
          "ProblemNo": 8,
          "Kind": 1
        },
        {
          "Start": 436,
          "End": 440,
          "Text": "{ごめんなさい。お腹がいっぱいです。}",
          "Ruby": "ごめんなさい 。 おなか が いっぱいです。",
          "Lang": "ja",
          "ProblemNo": 8,
          "Kind": 1
        },
        {
          "Start": 440,
          "End": 442,
          "Text": "{たこ焼きを}",
          "Ruby": "たこやき を",
          "Lang": "ja",
          "ProblemNo": 8,
          "Kind": 2
        },
        {
          "Start": 442,
          "End": 445,
          "Text": "{たこ焼きを食べますか？}",
          "Ruby": "たこやき を たべ ます か？",
          "Lang": "ja",
          "ProblemNo": 8,
          "Kind": 3
        },
        {
          "Start": 445,
          "End": 450,
          "Text": "{ごめんなさい。お腹がいっぱいです。}",
          "Ruby": "ごめんなさい 。 おなか が いっぱいです。",
          "Lang": "ja",
          "ProblemNo": 8,
          "Kind": 3
        },
        {
          "Start": 450,
          "End": 452,
          "Text": "{たこ焼きを食べますか？}",
          "Ruby": "たこやき を たべ ます か？",
          "Lang": "ja",
          "ProblemNo": 8,
          "Kind": 4
        },
        {
          "Start": 452,
          "End": 458,
          "Text": "{ごめんなさい。お腹がいっぱいです。}",
          "Ruby": "ごめんなさい 。 おなか が いっぱいです。",
          "Lang": "ja",
          "ProblemNo": 8,
          "Kind": 4
        },
        {
          "Start": 458,
          "End": 460,
          "Text": "{たこ焼きを食べますか？}",
          "Ruby": "たこやき を たべ ます か？",
          "Lang": "ja",
          "ProblemNo": 9,
          "Kind": 1
        },
        {
          "Start": 460,
          "End": 464,
          "Text": "{ごめんなさい。お腹がいっぱいです。}",
          "Ruby": "ごめんなさい 。 おなか が いっぱいです。",
          "Lang": "ja",
          "ProblemNo": 9,
          "Kind": 1
        },
        {
          "Start": 464,
          "End": 466,
          "Text": "{焼肉を}",
          "Ruby": "やきにく を",
          "Lang": "ja",
          "ProblemNo": 9,
          "Kind": 2
        },
        {
          "Start": 466,
          "End": 469,
          "Text": "{焼肉を食べますか？}",
          "Ruby": "やきにく を たべ ます か？",
          "Lang": "ja",
          "ProblemNo": 9,
          "Kind": 3
        },
        {
          "Start": 469,
          "End": 474,
          "Text": "{ごめんなさい。お腹がいっぱいです。}",
          "Ruby": "ごめんなさい 。 おなか が いっぱいです。",
          "Lang": "ja",
          "ProblemNo": 9,
          "Kind": 3
        },
        {
          "Start": 474,
          "End": 476,
          "Text": "{焼肉を食べますか？}",
          "Ruby": "やきにく を たべ ます か？",
          "Lang": "ja",
          "ProblemNo": 9,
          "Kind": 4
        },
        {
          "Start": 476,
          "End": 482,
          "Text": "{ごめんなさい。お腹がいっぱいです。}",
          "Ruby": "ごめんなさい 。 おなか が いっぱいです。",
          "Lang": "ja",
          "ProblemNo": 9,
          "Kind": 4
        },
        {
          "Start": 482,
          "End": 485,
          "Text": "",
          "Ruby": "",
          "Lang": "",
          "ProblemNo": 0,
          "Kind": 5
        },
        {
          "Start": 485,
          "End": 487,
          "Text": "{焼肉を食べませんか？}",
          "Ruby": "やきにく を たべ ません か？",
          "Lang": "ja",
          "ProblemNo": 0,
          "Kind": 1
        },
        {
          "Start": 487,
          "End": 491,
          "Text": "{すみません。お腹がいっぱいです。}",
          "Ruby": "すみません。 おなか が いっぱいです。",
          "Lang": "ja",
          "ProblemNo": 0,
          "Kind": 1
        },
        {
          "Start": 491,
          "End": 492,
          "Text": "{焼き鳥を}",
          "Ruby": "やきとり を",
          "Lang": "ja",
          "ProblemNo": 0,
          "Kind": 2
        },
        {
          "Start": 492,
          "End": 495,
          "Text": "{焼き鳥を食べませんか？}",
          "Ruby": "やきとり を たべ ません か？",
          "Lang": "ja",
          "ProblemNo": 0,
          "Kind": 3
        },
        {
          "Start": 495,
          "End": 500,
          "Text": "{すみません。お腹がいっぱいです。}",
          "Ruby": "すみません。 おなか が いっぱいです。",
          "Lang": "ja",
          "ProblemNo": 0,
          "Kind": 3
        },
        {
          "Start": 500,
          "End": 502,
          "Text": "{焼き鳥を食べませんか？}",
          "Ruby": "やきとり を たべ ません か？",
          "Lang": "ja",
          "ProblemNo": 0,
          "Kind": 4
        },
        {
          "Start": 502,
          "End": 508,
          "Text": "{すみません。お腹がいっぱいです。}",
          "Ruby": "すみません。 おなか が いっぱいです。",
          "Lang": "ja",
          "ProblemNo": 0,
          "Kind": 4
        },
        {
          "Start": 508,
          "End": 510,
          "Text": "{焼き鳥を食べませんか？}",
          "Ruby": "やきとり を たべ ません か？",
          "Lang": "ja",
          "ProblemNo": 1,
          "Kind": 1
        },
        {
          "Start": 510,
          "End": 514,
          "Text": "{すみません。お腹がいっぱいです。}",
          "Ruby": "すみません。 おなか が いっぱいです。",
          "Lang": "ja",
          "ProblemNo": 1,
          "Kind": 1
        },
        {
          "Start": 514,
          "End": 516,
          "Text": "{ごめんなさい。}",
          "Ruby": "ごめんなさい 。",
          "Lang": "ja",
          "ProblemNo": 1,
          "Kind": 2
        },
        {
          "Start": 516,
          "End": 519,
          "Text": "{焼き鳥を食べませんか？}",
          "Ruby": "やきとり を たべ ません か？",
          "Lang": "ja",
          "ProblemNo": 1,
          "Kind": 3
        },
        {
          "Start": 519,
          "End": 524,
          "Text": "{ごめんなさい。お腹がいっぱいです。}",
          "Ruby": "ごめんなさい 。 おなか が いっぱいです。",
          "Lang": "ja",
          "ProblemNo": 1,
          "Kind": 3
        },
        {
          "Start": 524,
          "End": 526,
          "Text": "{焼き鳥を食べませんか？}",
          "Ruby": "やきとり を たべ ません か？",
          "Lang": "ja",
          "ProblemNo": 1,
          "Kind": 4
        },
        {
          "Start": 526,
          "End": 532,
          "Text": "{ごめんなさい。お腹がいっぱいです。}",
          "Ruby": "ごめんなさい 。 おなか が いっぱいです。",
          "Lang": "ja",
          "ProblemNo": 1,
          "Kind": 4
        },
        {
          "Start": 532,
          "End": 534,
          "Text": "{焼き鳥を食べませんか？}",
          "Ruby": "やきとり を たべ ません か？",
          "Lang": "ja",
          "ProblemNo": 2,
          "Kind": 1
        },
        {
          "Start": 534,
          "End": 538,
          "Text": "{ごめんなさい。お腹がいっぱいです。}",
          "Ruby": "ごめんなさい 。 おなか が いっぱいです。",
          "Lang": "ja",
          "ProblemNo": 2,
          "Kind": 1
        },
        {
          "Start": 538,
          "End": 540,
          "Text": "{たこ焼きを}",
          "Ruby": "たこやき を",
          "Lang": "ja",
          "ProblemNo": 2,
          "Kind": 2
        },
        {
          "Start": 540,
          "End": 543,
          "Text": "{たこ焼きを食べませんか？}",
          "Ruby": "たこやき を たべ ません か？",
          "Lang": "ja",
          "ProblemNo": 2,
          "Kind": 3
        },
        {
          "Start": 543,
          "End": 548,
          "Text": "{ごめんなさい。お腹がいっぱいです。}",
          "Ruby": "ごめんなさい 。 おなか が いっぱいです。",
          "Lang": "ja",
          "ProblemNo": 2,
          "Kind": 3
        },
        {
          "Start": 548,
          "End": 550,
          "Text": "{たこ焼きを食べませんか？}",
          "Ruby": "たこやき を たべ ません か？",
          "Lang": "ja",
          "ProblemNo": 2,
          "Kind": 4
        },
        {
          "Start": 550,
          "End": 556,
          "Text": "{ごめんなさい。お腹がいっぱいです。}",
          "Ruby": "ごめんなさい 。 おなか が いっぱいです。",
          "Lang": "ja",
          "ProblemNo": 2,
          "Kind": 4
        },
        {
          "Start": 556,
          "End": 558,
          "Text": "{たこ焼きを食べませんか？}",
          "Ruby": "たこやき を たべ ません か？",
          "Lang": "ja",
          "ProblemNo": 3,
          "Kind": 1
        },
        {
          "Start": 558,
          "End": 562,
          "Text": "{ごめんなさい。お腹がいっぱいです。}",
          "Ruby": "ごめんなさい 。 おなか が いっぱいです。",
          "Lang": "ja",
          "ProblemNo": 3,
          "Kind": 1
        },
        {
          "Start": 562,
          "End": 564,
          "Text": "{すみません。}",
          "Ruby": "すみません。",
          "Lang": "ja",
          "ProblemNo": 3,
          "Kind": 2
        },
        {
          "Start": 564,
          "End": 567,
          "Text": "{たこ焼きを食べませんか？}",
          "Ruby": "たこやき を たべ ません か？",
          "Lang": "ja",
          "ProblemNo": 3,
          "Kind": 3
        },
        {
          "Start": 567,
          "End": 572,
          "Text": "{すみません。お腹がいっぱいです。}",
          "Ruby": "すみません。 おなか が いっぱいです。",
          "Lang": "ja",
          "ProblemNo": 3,
          "Kind": 3
        },
        {
          "Start": 572,
          "End": 574,
          "Text": "{たこ焼きを食べませんか？}",
          "Ruby": "たこやき を たべ ません か？",
          "Lang": "ja",
          "ProblemNo": 3,
          "Kind": 4
        },
        {
          "Start": 574,
          "End": 580,
          "Text": "{すみません。お腹がいっぱいです。}",
          "Ruby": "すみません。 おなか が いっぱいです。",
          "Lang": "ja",
          "ProblemNo": 3,
          "Kind": 4
        },
        {
          "Start": 580,
          "End": 582,
          "Text": "{たこ焼きを食べませんか？}",
          "Ruby": "たこやき を たべ ません か？",
          "Lang": "ja",
          "ProblemNo": 4,
          "Kind": 1
        },
        {
          "Start": 582,
          "End": 586,
          "Text": "{すみません。お腹がいっぱいです。}",
          "Ruby": "すみません。 おなか が いっぱいです。",
          "Lang": "ja",
          "ProblemNo": 4,
          "Kind": 1
        },
        {
          "Start": 586,
          "End": 588,
          "Text": "{食べますか？}",
          "Ruby": "たべ ます か？",
          "Lang": "ja",
          "ProblemNo": 4,
          "Kind": 2
        },
        {
          "Start": 588,
          "End": 591,
          "Text": "{たこ焼きを食べますか？}",
          "Ruby": "たこやき を たべ ます か？",
          "Lang": "ja",
          "ProblemNo": 4,
          "Kind": 3
        },
        {
          "Start": 591,
          "End": 596,
          "Text": "{すみません。お腹がいっぱいです。}",
          "Ruby": "すみません。 おなか が いっぱいです。",
          "Lang": "ja",
          "ProblemNo": 4,
          "Kind": 3
        },
        {
          "Start": 596,
          "End": 598,
          "Text": "{たこ焼きを食べますか？}",
          "Ruby": "たこやき を たべ ます か？",
          "Lang": "ja",
          "ProblemNo": 4,
          "Kind": 4
        },
        {
          "Start": 598,
          "End": 604,
          "Text": "{すみません。お腹がいっぱいです。}",
          "Ruby": "すみません。 おなか が いっぱいです。",
          "Lang": "ja",
          "ProblemNo": 4,
          "Kind": 4
        },
        {
          "Start": 604,
          "End": 606,
          "Text": "{たこ焼きを食べますか？}",
          "Ruby": "たこやき を たべ ます か？",
          "Lang": "ja",
          "ProblemNo": 5,
          "Kind": 1
        },
        {
          "Start": 606,
          "End": 610,
          "Text": "{すみません。お腹がいっぱいです。}",
          "Ruby": "すみません。 おなか が いっぱいです。",
          "Lang": "ja",
          "ProblemNo": 5,
          "Kind": 1
        },
        {
          "Start": 610,
          "End": 612,
          "Text": "{焼肉を}",
          "Ruby": "やきにく を",
          "Lang": "ja",
          "ProblemNo": 5,
          "Kind": 2
        },
        {
          "Start": 612,
          "End": 615,
          "Text": "{焼肉を食べますか？}",
          "Ruby": "やきにく を たべ ます か？",
          "Lang": "ja",
          "ProblemNo": 5,
          "Kind": 3
        },
        {
          "Start": 615,
          "End": 620,
          "Text": "{すみません。お腹がいっぱいです。}",
          "Ruby": "すみません。 おなか が いっぱいです。",
          "Lang": "ja",
          "ProblemNo": 5,
          "Kind": 3
        },
        {
          "Start": 620,
          "End": 622,
          "Text": "{焼肉を食べますか？}",
          "Ruby": "やきにく を たべ ます か？",
          "Lang": "ja",
          "ProblemNo": 5,
          "Kind": 4
        },
        {
          "Start": 622,
          "End": 628,
          "Text": "{すみません。お腹がいっぱいです。}",
          "Ruby": "すみません。 おなか が いっぱいです。",
          "Lang": "ja",
          "ProblemNo": 5,
          "Kind": 4
        },
        {
          "Start": 628,
          "End": 630,
          "Text": "{焼肉を食べますか？}",
          "Ruby": "やきにく を たべ ます か？",
          "Lang": "ja",
          "ProblemNo": 6,
          "Kind": 1
        },
        {
          "Start": 630,
          "End": 634,
          "Text": "{すみません。お腹がいっぱいです。}",
          "Ruby": "すみません。 おなか が いっぱいです。",
          "Lang": "ja",
          "ProblemNo": 6,
          "Kind": 1
        },
        {
          "Start": 634,
          "End": 635,
          "Text": "{焼き鳥を}",
          "Ruby": "やきとり を",
          "Lang": "ja",
          "ProblemNo": 6,
          "Kind": 2
        },
        {
          "Start": 635,
          "End": 638,
          "Text": "{焼き鳥を食べますか？}",
          "Ruby": "やきとり を たべ ます か？",
          "Lang": "ja",
          "ProblemNo": 6,
          "Kind": 3
        },
        {
          "Start": 638,
          "End": 643,
          "Text": "{すみません。お腹がいっぱいです。}",
          "Ruby": "すみません。 おなか が いっぱいです。",
          "Lang": "ja",
          "ProblemNo": 6,
          "Kind": 3
        },
        {
          "Start": 643,
          "End": 645,
          "Text": "{焼き鳥を食べますか？}",
          "Ruby": "やきとり を たべ ます か？",
          "Lang": "ja",
          "ProblemNo": 6,
          "Kind": 4
        },
        {
          "Start": 645,
          "End": 651,
          "Text": "{すみません。お腹がいっぱいです。}",
          "Ruby": "すみません。 おなか が いっぱいです。",
          "Lang": "ja",
          "ProblemNo": 6,
          "Kind": 4
        },
        {
          "Start": 651,
          "End": 653,
          "Text": "{焼き鳥を食べますか？}",
          "Ruby": "やきとり を たべ ます か？",
          "Lang": "ja",
          "ProblemNo": 7,
          "Kind": 1
        },
        {
          "Start": 653,
          "End": 657,
          "Text": "{すみません。お腹がいっぱいです。}",
          "Ruby": "すみません。 おなか が いっぱいです。",
          "Lang": "ja",
          "ProblemNo": 7,
          "Kind": 1
        },
        {
          "Start": 657,
          "End": 659,
          "Text": "{ごめんなさい。}",
          "Ruby": "ごめんなさい 。",
          "Lang": "ja",
          "ProblemNo": 7,
          "Kind": 2
        },
        {
          "Start": 659,
          "End": 662,
          "Text": "{焼き鳥を食べますか？}",
          "Ruby": "やきとり を たべ ます か？",
          "Lang": "ja",
          "ProblemNo": 7,
          "Kind": 3
        },
        {
          "Start": 662,
          "End": 667,
          "Text": "{ごめんなさい。お腹がいっぱいです。}",
          "Ruby": "ごめんなさい 。 おなか が いっぱいです。",
          "Lang": "ja",
          "ProblemNo": 7,
          "Kind": 3
        },
        {
          "Start": 667,
          "End": 669,
          "Text": "{焼き鳥を食べますか？}",
          "Ruby": "やきとり を たべ ます か？",
          "Lang": "ja",
          "ProblemNo": 7,
          "Kind": 4
        },
        {
          "Start": 669,
          "End": 675,
          "Text": "{ごめんなさい。お腹がいっぱいです。}",
          "Ruby": "ごめんなさい 。 おなか が いっぱいです。",
          "Lang": "ja",
          "ProblemNo": 7,
          "Kind": 4
        },
        {
          "Start": 675,
          "End": 677,
          "Text": "{焼き鳥を食べますか？}",
          "Ruby": "やきとり を たべ ます か？",
          "Lang": "ja",
          "ProblemNo": 8,
          "Kind": 1
        },
        {
          "Start": 677,
          "End": 681,
          "Text": "{ごめんなさい。お腹がいっぱいです。}",
          "Ruby": "ごめんなさい 。 おなか が いっぱいです。",
          "Lang": "ja",
          "ProblemNo": 8,
          "Kind": 1
        },
        {
          "Start": 681,
          "End": 683,
          "Text": "{たこ焼きを}",
          "Ruby": "たこやき を",
          "Lang": "ja",
          "ProblemNo": 8,
          "Kind": 2
        },
        {
          "Start": 683,
          "End": 686,
          "Text": "{たこ焼きを食べますか？}",
          "Ruby": "たこやき を たべ ます か？",
          "Lang": "ja",
          "ProblemNo": 8,
          "Kind": 3
        },
        {
          "Start": 686,
          "End": 691,
          "Text": "{ごめんなさい。お腹がいっぱいです。}",
          "Ruby": "ごめんなさい 。 おなか が いっぱいです。",
          "Lang": "ja",
          "ProblemNo": 8,
          "Kind": 3
        },
        {
          "Start": 691,
          "End": 693,
          "Text": "{たこ焼きを食べますか？}",
          "Ruby": "たこやき を たべ ます か？",
          "Lang": "ja",
          "ProblemNo": 8,
          "Kind": 4
        },
        {
          "Start": 693,
          "End": 699,
          "Text": "{ごめんなさい。お腹がいっぱいです。}",
          "Ruby": "ごめんなさい 。 おなか が いっぱいです。",
          "Lang": "ja",
          "ProblemNo": 8,
          "Kind": 4
        },
        {
          "Start": 699,
          "End": 701,
          "Text": "{たこ焼きを食べますか？}",
          "Ruby": "たこやき を たべ ます か？",
          "Lang": "ja",
          "ProblemNo": 9,
          "Kind": 1
        },
        {
          "Start": 701,
          "End": 705,
          "Text": "{ごめんなさい。お腹がいっぱいです。}",
          "Ruby": "ごめんなさい 。 おなか が いっぱいです。",
          "Lang": "ja",
          "ProblemNo": 9,
          "Kind": 1
        },
        {
          "Start": 705,
          "End": 707,
          "Text": "{焼肉を}",
          "Ruby": "やきにく を",
          "Lang": "ja",
          "ProblemNo": 9,
          "Kind": 2
        },
        {
          "Start": 707,
          "End": 710,
          "Text": "{焼肉を食べますか？}",
          "Ruby": "やきにく を たべ ます か？",
          "Lang": "ja",
          "ProblemNo": 9,
          "Kind": 3
        },
        {
          "Start": 710,
          "End": 715,
          "Text": "{ごめんなさい。お腹がいっぱいです。}",
          "Ruby": "ごめんなさい 。 おなか が いっぱいです。",
          "Lang": "ja",
          "ProblemNo": 9,
          "Kind": 3
        },
        {
          "Start": 715,
          "End": 717,
          "Text": "{焼肉を食べますか？}",
          "Ruby": "やきにく を たべ ます か？",
          "Lang": "ja",
          "ProblemNo": 9,
          "Kind": 4
        },
        {
          "Start": 717,
          "End": 723,
          "Text": "{ごめんなさい。お腹がいっぱいです。}",
          "Ruby": "ごめんなさい 。 おなか が いっぱいです。",
          "Lang": "ja",
          "ProblemNo": 9,
          "Kind": 4
        },
        {
          "Start": 723,
          "End": 726,
          "Text": "",
          "Ruby": "",
          "Lang": "",
          "ProblemNo": 0,
          "Kind": 5
        },
        {
          "Start": 726,
          "End": 746,
          "Text": "{Please subscribe!}",
          "Ruby": "",
          "Lang": "en",
          "ProblemNo": 0,
          "Kind": 7
        }
      ]
    }
  ],
  "CannotChange": true
}