{
  "SerieName": "grammar-ja-tk2",
  "No": 5,
  "VideoTitle": "どこ",
  "ThumbnailTitle": "",
  "YoutubeDescription": "{Grammatical explanation}:\n{Tae Kim's Guide to Learning Japanese}\n{http://www.guidetojapanese.org/learn/grammar/people}",
  "YoutubeTitle": "",
  "Boxes": [
    {
      "Pos": 0,
      "PersonName": "x",
      "Candidates": [
        {
          "Word": "お母さん",
          "Root": "",
          "FeatureSet": null,
          "Conditions": [
            {
              "Pos": 3,
              "Morphemes": [
                {
                  "Word": "母",
                  "Root": "",
                  "FeatureSet": null
                }
              ]
            }
          ],
          "PersonConditions": null
        },
        {
          "Word": "お父さん",
          "Root": "",
          "FeatureSet": null,
          "Conditions": [
            {
              "Pos": 3,
              "Morphemes": [
                {
                  "Word": "父",
                  "Root": "",
                  "FeatureSet": null
                }
              ]
            }
          ],
          "PersonConditions": null
        }
      ]
    },
    {
      "Pos": 1,
      "PersonName": "x",
      "Candidates": [
        {
          "Word": "は",
          "Root": "",
          "FeatureSet": null,
          "Conditions": null,
          "PersonConditions": null
        }
      ]
    },
    {
      "Pos": 2,
      "PersonName": "x",
      "Candidates": [
        {
          "Word": "どこですか？",
          "Root": "",
          "FeatureSet": null,
          "Conditions": null,
          "PersonConditions": null
        }
      ]
    },
    {
      "Pos": 3,
      "PersonName": "z",
      "Candidates": [
        {
          "Word": "母",
          "Root": "",
          "FeatureSet": null,
          "Conditions": null,
          "PersonConditions": null
        },
        {
          "Word": "父",
          "Root": "",
          "FeatureSet": null,
          "Conditions": null,
          "PersonConditions": null
        }
      ]
    },
    {
      "Pos": 4,
      "PersonName": "z",
      "Candidates": [
        {
          "Word": "は",
          "Root": "",
          "FeatureSet": null,
          "Conditions": null,
          "PersonConditions": null
        }
      ]
    },
    {
      "Pos": 5,
      "PersonName": "z",
      "Candidates": [
        {
          "Word": "買い物です",
          "Root": "",
          "FeatureSet": null,
          "Conditions": null,
          "PersonConditions": null
        },
        {
          "Word": "公園です",
          "Root": "",
          "FeatureSet": null,
          "Conditions": null,
          "PersonConditions": null
        },
        {
          "Word": "散歩です",
          "Root": "",
          "FeatureSet": null,
          "Conditions": null,
          "PersonConditions": null
        },
        {
          "Word": "買い物に行きました",
          "Root": "",
          "FeatureSet": null,
          "Conditions": null,
          "PersonConditions": null
        },
        {
          "Word": "公園に行きました",
          "Root": "",
          "FeatureSet": null,
          "Conditions": null,
          "PersonConditions": null
        },
        {
          "Word": "散歩に出かけました",
          "Root": "",
          "FeatureSet": null,
          "Conditions": null,
          "PersonConditions": null
        }
      ]
    }
  ],
  "Pars": [
    {
      "Header": "P",
      "Poses": [
        0,
        1,
        2
      ]
    },
    {
      "Header": "P",
      "Poses": [
        3,
        4,
        5
      ]
    }
  ],
  "Exercises": [
    {
      "Name": "A",
      "Problems": [
        {
          "ProblemNo": 0,
          "OriginalCandidates": [
            {
              "Word": "お母さん",
              "Ruby": "おかあさん"
            },
            {
              "Word": "は",
              "Ruby": "は"
            },
            {
              "Word": "どこですか？",
              "Ruby": "どこ です か ？"
            },
            {
              "Word": "母",
              "Ruby": "はは"
            },
            {
              "Word": "は",
              "Ruby": "は"
            },
            {
              "Word": "買い物です",
              "Ruby": "かいもの です"
            }
          ],
          "ChangeCandidatePos": 5,
          "ChangeCandidates": [
            {
              "Word": "",
              "Ruby": ""
            },
            {
              "Word": "",
              "Ruby": ""
            },
            {
              "Word": "",
              "Ruby": ""
            },
            {
              "Word": "",
              "Ruby": ""
            },
            {
              "Word": "",
              "Ruby": ""
            },
            {
              "Word": "散歩に出かけました",
              "Ruby": "さんぽ に でかけ ました"
            }
          ],
          "ChangeMorphemes": [
            {
              "Word": "",
              "Root": "",
              "FeatureSet": null
            },
            {
              "Word": "",
              "Root": "",
              "FeatureSet": null
            },
            {
              "Word": "",
              "Root": "",
              "FeatureSet": null
            },
            {
              "Word": "",
              "Root": "",
              "FeatureSet": null
            },
            {
              "Word": "",
              "Root": "",
              "FeatureSet": null
            },
            {
              "Word": "散歩に出かけました",
              "Root": "",
              "FeatureSet": null
            }
          ],
          "AnswerCandidates": [
            {
              "Word": "お母さん",
              "Ruby": "おかあさん"
            },
            {
              "Word": "は",
              "Ruby": "は"
            },
            {
              "Word": "どこですか？",
              "Ruby": "どこ です か ？"
            },
            {
              "Word": "母",
              "Ruby": "はは"
            },
            {
              "Word": "は",
              "Ruby": "は"
            },
            {
              "Word": "散歩に出かけました",
              "Ruby": "さんぽ に でかけ ました"
            }
          ]
        },
        {
          "ProblemNo": 1,
          "OriginalCandidates": [
            {
              "Word": "お母さん",
              "Ruby": "おかあさん"
            },
            {
              "Word": "は",
              "Ruby": "は"
            },
            {
              "Word": "どこですか？",
              "Ruby": "どこ です か ？"
            },
            {
              "Word": "母",
              "Ruby": "はは"
            },
            {
              "Word": "は",
              "Ruby": "は"
            },
            {
              "Word": "散歩に出かけました",
              "Ruby": "さんぽ に でかけ ました"
            }
          ],
          "ChangeCandidatePos": 5,
          "ChangeCandidates": [
            {
              "Word": "",
              "Ruby": ""
            },
            {
              "Word": "",
              "Ruby": ""
            },
            {
              "Word": "",
              "Ruby": ""
            },
            {
              "Word": "",
              "Ruby": ""
            },
            {
              "Word": "",
              "Ruby": ""
            },
            {
              "Word": "公園です",
              "Ruby": "こうえん です"
            }
          ],
          "ChangeMorphemes": [
            {
              "Word": "",
              "Root": "",
              "FeatureSet": null
            },
            {
              "Word": "",
              "Root": "",
              "FeatureSet": null
            },
            {
              "Word": "",
              "Root": "",
              "FeatureSet": null
            },
            {
              "Word": "",
              "Root": "",
              "FeatureSet": null
            },
            {
              "Word": "",
              "Root": "",
              "FeatureSet": null
            },
            {
              "Word": "公園です",
              "Root": "",
              "FeatureSet": null
            }
          ],
          "AnswerCandidates": [
            {
              "Word": "お母さん",
              "Ruby": "おかあさん"
            },
            {
              "Word": "は",
              "Ruby": "は"
            },
            {
              "Word": "どこですか？",
              "Ruby": "どこ です か ？"
            },
            {
              "Word": "母",
              "Ruby": "はは"
            },
            {
              "Word": "は",
              "Ruby": "は"
            },
            {
              "Word": "公園です",
              "Ruby": "こうえん です"
            }
          ]
        },
        {
          "ProblemNo": 2,
          "OriginalCandidates": [
            {
              "Word": "お母さん",
              "Ruby": "おかあさん"
            },
            {
              "Word": "は",
              "Ruby": "は"
            },
            {
              "Word": "どこですか？",
              "Ruby": "どこ です か ？"
            },
            {
              "Word": "母",
              "Ruby": "はは"
            },
            {
              "Word": "は",
              "Ruby": "は"
            },
            {
              "Word": "公園です",
              "Ruby": "こうえん です"
            }
          ],
          "ChangeCandidatePos": 5,
          "ChangeCandidates": [
            {
              "Word": "",
              "Ruby": ""
            },
            {
              "Word": "",
              "Ruby": ""
            },
            {
              "Word": "",
              "Ruby": ""
            },
            {
              "Word": "",
              "Ruby": ""
            },
            {
              "Word": "",
              "Ruby": ""
            },
            {
              "Word": "公園に行きました",
              "Ruby": "こうえん に いき ました"
            }
          ],
          "ChangeMorphemes": [
            {
              "Word": "",
              "Root": "",
              "FeatureSet": null
            },
            {
              "Word": "",
              "Root": "",
              "FeatureSet": null
            },
            {
              "Word": "",
              "Root": "",
              "FeatureSet": null
            },
            {
              "Word": "",
              "Root": "",
              "FeatureSet": null
            },
            {
              "Word": "",
              "Root": "",
              "FeatureSet": null
            },
            {
              "Word": "公園に行きました",
              "Root": "",
              "FeatureSet": null
            }
          ],
          "AnswerCandidates": [
            {
              "Word": "お母さん",
              "Ruby": "おかあさん"
            },
            {
              "Word": "は",
              "Ruby": "は"
            },
            {
              "Word": "どこですか？",
              "Ruby": "どこ です か ？"
            },
            {
              "Word": "母",
              "Ruby": "はは"
            },
            {
              "Word": "は",
              "Ruby": "は"
            },
            {
              "Word": "公園に行きました",
              "Ruby": "こうえん に いき ました"
            }
          ]
        },
        {
          "ProblemNo": 3,
          "OriginalCandidates": [
            {
              "Word": "お母さん",
              "Ruby": "おかあさん"
            },
            {
              "Word": "は",
              "Ruby": "は"
            },
            {
              "Word": "どこですか？",
              "Ruby": "どこ です か ？"
            },
            {
              "Word": "母",
              "Ruby": "はは"
            },
            {
              "Word": "は",
              "Ruby": "は"
            },
            {
              "Word": "公園に行きました",
              "Ruby": "こうえん に いき ました"
            }
          ],
          "ChangeCandidatePos": 5,
          "ChangeCandidates": [
            {
              "Word": "",
              "Ruby": ""
            },
            {
              "Word": "",
              "Ruby": ""
            },
            {
              "Word": "",
              "Ruby": ""
            },
            {
              "Word": "",
              "Ruby": ""
            },
            {
              "Word": "",
              "Ruby": ""
            },
            {
              "Word": "買い物に行きました",
              "Ruby": "かいもの に いき ました"
            }
          ],
          "ChangeMorphemes": [
            {
              "Word": "",
              "Root": "",
              "FeatureSet": null
            },
            {
              "Word": "",
              "Root": "",
              "FeatureSet": null
            },
            {
              "Word": "",
              "Root": "",
              "FeatureSet": null
            },
            {
              "Word": "",
              "Root": "",
              "FeatureSet": null
            },
            {
              "Word": "",
              "Root": "",
              "FeatureSet": null
            },
            {
              "Word": "買い物に行きました",
              "Root": "",
              "FeatureSet": null
            }
          ],
          "AnswerCandidates": [
            {
              "Word": "お母さん",
              "Ruby": "おかあさん"
            },
            {
              "Word": "は",
              "Ruby": "は"
            },
            {
              "Word": "どこですか？",
              "Ruby": "どこ です か ？"
            },
            {
              "Word": "母",
              "Ruby": "はは"
            },
            {
              "Word": "は",
              "Ruby": "は"
            },
            {
              "Word": "買い物に行きました",
              "Ruby": "かいもの に いき ました"
            }
          ]
        },
        {
          "ProblemNo": 4,
          "OriginalCandidates": [
            {
              "Word": "お母さん",
              "Ruby": "おかあさん"
            },
            {
              "Word": "は",
              "Ruby": "は"
            },
            {
              "Word": "どこですか？",
              "Ruby": "どこ です か ？"
            },
            {
              "Word": "母",
              "Ruby": "はは"
            },
            {
              "Word": "は",
              "Ruby": "は"
            },
            {
              "Word": "買い物に行きました",
              "Ruby": "かいもの に いき ました"
            }
          ],
          "ChangeCandidatePos": 0,
          "ChangeCandidates": [
            {
              "Word": "お父さん",
              "Ruby": "おとうさん"
            },
            {
              "Word": "",
              "Ruby": ""
            },
            {
              "Word": "",
              "Ruby": ""
            },
            {
              "Word": "父",
              "Ruby": "ちち"
            },
            {
              "Word": "",
              "Ruby": ""
            },
            {
              "Word": "",
              "Ruby": ""
            }
          ],
          "ChangeMorphemes": [
            {
              "Word": "お父さん",
              "Root": "",
              "FeatureSet": null
            },
            {
              "Word": "",
              "Root": "",
              "FeatureSet": null
            },
            {
              "Word": "",
              "Root": "",
              "FeatureSet": null
            },
            {
              "Word": "父",
              "Root": "",
              "FeatureSet": null
            },
            {
              "Word": "",
              "Root": "",
              "FeatureSet": null
            },
            {
              "Word": "",
              "Root": "",
              "FeatureSet": null
            }
          ],
          "AnswerCandidates": [
            {
              "Word": "お父さん",
              "Ruby": "おとうさん"
            },
            {
              "Word": "は",
              "Ruby": "は"
            },
            {
              "Word": "どこですか？",
              "Ruby": "どこ です か ？"
            },
            {
              "Word": "父",
              "Ruby": "ちち"
            },
            {
              "Word": "は",
              "Ruby": "は"
            },
            {
              "Word": "買い物に行きました",
              "Ruby": "かいもの に いき ました"
            }
          ]
        },
        {
          "ProblemNo": 5,
          "OriginalCandidates": [
            {
              "Word": "お父さん",
              "Ruby": "おとうさん"
            },
            {
              "Word": "は",
              "Ruby": "は"
            },
            {
              "Word": "どこですか？",
              "Ruby": "どこ です か ？"
            },
            {
              "Word": "父",
              "Ruby": "ちち"
            },
            {
              "Word": "は",
              "Ruby": "は"
            },
            {
              "Word": "買い物に行きました",
              "Ruby": "かいもの に いき ました"
            }
          ],
          "ChangeCandidatePos": 5,
          "ChangeCandidates": [
            {
              "Word": "",
              "Ruby": ""
            },
            {
              "Word": "",
              "Ruby": ""
            },
            {
              "Word": "",
              "Ruby": ""
            },
            {
              "Word": "",
              "Ruby": ""
            },
            {
              "Word": "",
              "Ruby": ""
            },
            {
              "Word": "散歩に出かけました",
              "Ruby": "さんぽ に でかけ ました"
            }
          ],
          "ChangeMorphemes": [
            {
              "Word": "",
              "Root": "",
              "FeatureSet": null
            },
            {
              "Word": "",
              "Root": "",
              "FeatureSet": null
            },
            {
              "Word": "",
              "Root": "",
              "FeatureSet": null
            },
            {
              "Word": "",
              "Root": "",
              "FeatureSet": null
            },
            {
              "Word": "",
              "Root": "",
              "FeatureSet": null
            },
            {
              "Word": "散歩に出かけました",
              "Root": "",
              "FeatureSet": null
            }
          ],
          "AnswerCandidates": [
            {
              "Word": "お父さん",
              "Ruby": "おとうさん"
            },
            {
              "Word": "は",
              "Ruby": "は"
            },
            {
              "Word": "どこですか？",
              "Ruby": "どこ です か ？"
            },
            {
              "Word": "父",
              "Ruby": "ちち"
            },
            {
              "Word": "は",
              "Ruby": "は"
            },
            {
              "Word": "散歩に出かけました",
              "Ruby": "さんぽ に でかけ ました"
            }
          ]
        },
        {
          "ProblemNo": 6,
          "OriginalCandidates": [
            {
              "Word": "お父さん",
              "Ruby": "おとうさん"
            },
            {
              "Word": "は",
              "Ruby": "は"
            },
            {
              "Word": "どこですか？",
              "Ruby": "どこ です か ？"
            },
            {
              "Word": "父",
              "Ruby": "ちち"
            },
            {
              "Word": "は",
              "Ruby": "は"
            },
            {
              "Word": "散歩に出かけました",
              "Ruby": "さんぽ に でかけ ました"
            }
          ],
          "ChangeCandidatePos": 5,
          "ChangeCandidates": [
            {
              "Word": "",
              "Ruby": ""
            },
            {
              "Word": "",
              "Ruby": ""
            },
            {
              "Word": "",
              "Ruby": ""
            },
            {
              "Word": "",
              "Ruby": ""
            },
            {
              "Word": "",
              "Ruby": ""
            },
            {
              "Word": "買い物です",
              "Ruby": "かいもの です"
            }
          ],
          "ChangeMorphemes": [
            {
              "Word": "",
              "Root": "",
              "FeatureSet": null
            },
            {
              "Word": "",
              "Root": "",
              "FeatureSet": null
            },
            {
              "Word": "",
              "Root": "",
              "FeatureSet": null
            },
            {
              "Word": "",
              "Root": "",
              "FeatureSet": null
            },
            {
              "Word": "",
              "Root": "",
              "FeatureSet": null
            },
            {
              "Word": "買い物です",
              "Root": "",
              "FeatureSet": null
            }
          ],
          "AnswerCandidates": [
            {
              "Word": "お父さん",
              "Ruby": "おとうさん"
            },
            {
              "Word": "は",
              "Ruby": "は"
            },
            {
              "Word": "どこですか？",
              "Ruby": "どこ です か ？"
            },
            {
              "Word": "父",
              "Ruby": "ちち"
            },
            {
              "Word": "は",
              "Ruby": "は"
            },
            {
              "Word": "買い物です",
              "Ruby": "かいもの です"
            }
          ]
        },
        {
          "ProblemNo": 7,
          "OriginalCandidates": [
            {
              "Word": "お父さん",
              "Ruby": "おとうさん"
            },
            {
              "Word": "は",
              "Ruby": "は"
            },
            {
              "Word": "どこですか？",
              "Ruby": "どこ です か ？"
            },
            {
              "Word": "父",
              "Ruby": "ちち"
            },
            {
              "Word": "は",
              "Ruby": "は"
            },
            {
              "Word": "買い物です",
              "Ruby": "かいもの です"
            }
          ],
          "ChangeCandidatePos": 5,
          "ChangeCandidates": [
            {
              "Word": "",
              "Ruby": ""
            },
            {
              "Word": "",
              "Ruby": ""
            },
            {
              "Word": "",
              "Ruby": ""
            },
            {
              "Word": "",
              "Ruby": ""
            },
            {
              "Word": "",
              "Ruby": ""
            },
            {
              "Word": "散歩です",
              "Ruby": "さんぽ です"
            }
          ],
          "ChangeMorphemes": [
            {
              "Word": "",
              "Root": "",
              "FeatureSet": null
            },
            {
              "Word": "",
              "Root": "",
              "FeatureSet": null
            },
            {
              "Word": "",
              "Root": "",
              "FeatureSet": null
            },
            {
              "Word": "",
              "Root": "",
              "FeatureSet": null
            },
            {
              "Word": "",
              "Root": "",
              "FeatureSet": null
            },
            {
              "Word": "散歩です",
              "Root": "",
              "FeatureSet": null
            }
          ],
          "AnswerCandidates": [
            {
              "Word": "お父さん",
              "Ruby": "おとうさん"
            },
            {
              "Word": "は",
              "Ruby": "は"
            },
            {
              "Word": "どこですか？",
              "Ruby": "どこ です か ？"
            },
            {
              "Word": "父",
              "Ruby": "ちち"
            },
            {
              "Word": "は",
              "Ruby": "は"
            },
            {
              "Word": "散歩です",
              "Ruby": "さんぽ です"
            }
          ]
        },
        {
          "ProblemNo": 8,
          "OriginalCandidates": [
            {
              "Word": "お父さん",
              "Ruby": "おとうさん"
            },
            {
              "Word": "は",
              "Ruby": "は"
            },
            {
              "Word": "どこですか？",
              "Ruby": "どこ です か ？"
            },
            {
              "Word": "父",
              "Ruby": "ちち"
            },
            {
              "Word": "は",
              "Ruby": "は"
            },
            {
              "Word": "散歩です",
              "Ruby": "さんぽ です"
            }
          ],
          "ChangeCandidatePos": 5,
          "ChangeCandidates": [
            {
              "Word": "",
              "Ruby": ""
            },
            {
              "Word": "",
              "Ruby": ""
            },
            {
              "Word": "",
              "Ruby": ""
            },
            {
              "Word": "",
              "Ruby": ""
            },
            {
              "Word": "",
              "Ruby": ""
            },
            {
              "Word": "公園に行きました",
              "Ruby": "こうえん に いき ました"
            }
          ],
          "ChangeMorphemes": [
            {
              "Word": "",
              "Root": "",
              "FeatureSet": null
            },
            {
              "Word": "",
              "Root": "",
              "FeatureSet": null
            },
            {
              "Word": "",
              "Root": "",
              "FeatureSet": null
            },
            {
              "Word": "",
              "Root": "",
              "FeatureSet": null
            },
            {
              "Word": "",
              "Root": "",
              "FeatureSet": null
            },
            {
              "Word": "公園に行きました",
              "Root": "",
              "FeatureSet": null
            }
          ],
          "AnswerCandidates": [
            {
              "Word": "お父さん",
              "Ruby": "おとうさん"
            },
            {
              "Word": "は",
              "Ruby": "は"
            },
            {
              "Word": "どこですか？",
              "Ruby": "どこ です か ？"
            },
            {
              "Word": "父",
              "Ruby": "ちち"
            },
            {
              "Word": "は",
              "Ruby": "は"
            },
            {
              "Word": "公園に行きました",
              "Ruby": "こうえん に いき ました"
            }
          ]
        },
        {
          "ProblemNo": 9,
          "OriginalCandidates": [
            {
              "Word": "お父さん",
              "Ruby": "おとうさん"
            },
            {
              "Word": "は",
              "Ruby": "は"
            },
            {
              "Word": "どこですか？",
              "Ruby": "どこ です か ？"
            },
            {
              "Word": "父",
              "Ruby": "ちち"
            },
            {
              "Word": "は",
              "Ruby": "は"
            },
            {
              "Word": "公園に行きました",
              "Ruby": "こうえん に いき ました"
            }
          ],
          "ChangeCandidatePos": 5,
          "ChangeCandidates": [
            {
              "Word": "",
              "Ruby": ""
            },
            {
              "Word": "",
              "Ruby": ""
            },
            {
              "Word": "",
              "Ruby": ""
            },
            {
              "Word": "",
              "Ruby": ""
            },
            {
              "Word": "",
              "Ruby": ""
            },
            {
              "Word": "公園です",
              "Ruby": "こうえん です"
            }
          ],
          "ChangeMorphemes": [
            {
              "Word": "",
              "Root": "",
              "FeatureSet": null
            },
            {
              "Word": "",
              "Root": "",
              "FeatureSet": null
            },
            {
              "Word": "",
              "Root": "",
              "FeatureSet": null
            },
            {
              "Word": "",
              "Root": "",
              "FeatureSet": null
            },
            {
              "Word": "",
              "Root": "",
              "FeatureSet": null
            },
            {
              "Word": "公園です",
              "Root": "",
              "FeatureSet": null
            }
          ],
          "AnswerCandidates": [
            {
              "Word": "お父さん",
              "Ruby": "おとうさん"
            },
            {
              "Word": "は",
              "Ruby": "は"
            },
            {
              "Word": "どこですか？",
              "Ruby": "どこ です か ？"
            },
            {
              "Word": "父",
              "Ruby": "ちち"
            },
            {
              "Word": "は",
              "Ruby": "は"
            },
            {
              "Word": "公園です",
              "Ruby": "こうえん です"
            }
          ]
        }
      ],
      "VideoFile": "grammar-ja-tk2_5_A.mp4",
      "AnimeticCaptions": [
        {
          "Start": 0,
          "End": 3,
          "Text": "{grammar-ja-tk2} #5 どこ",
          "Ruby": "",
          "Lang": "",
          "ProblemNo": 0,
          "Kind": 0
        },
        {
          "Start": 3,
          "End": 5,
          "Text": "{お母さんはどこですか？}",
          "Ruby": "おかあさん は どこ です か ？",
          "Lang": "ja",
          "ProblemNo": 0,
          "Kind": 1
        },
        {
          "Start": 5,
          "End": 8,
          "Text": "{母は買い物です}",
          "Ruby": "はは は かいもの です",
          "Lang": "ja",
          "ProblemNo": 0,
          "Kind": 1
        },
        {
          "Start": 8,
          "End": 10,
          "Text": "{散歩に出かけました}",
          "Ruby": "さんぽ に でかけ ました",
          "Lang": "ja",
          "ProblemNo": 0,
          "Kind": 2
        },
        {
          "Start": 10,
          "End": 13,
          "Text": "{お母さんはどこですか？}",
          "Ruby": "おかあさん は どこ です か ？",
          "Lang": "ja",
          "ProblemNo": 0,
          "Kind": 3
        },
        {
          "Start": 13,
          "End": 18,
          "Text": "{母は散歩に出かけました}",
          "Ruby": "はは は さんぽ に でかけ ました",
          "Lang": "ja",
          "ProblemNo": 0,
          "Kind": 3
        },
        {
          "Start": 18,
          "End": 20,
          "Text": "{お母さんはどこですか？}",
          "Ruby": "おかあさん は どこ です か ？",
          "Lang": "ja",
          "ProblemNo": 0,
          "Kind": 4
        },
        {
          "Start": 20,
          "End": 26,
          "Text": "{母は散歩に出かけました}",
          "Ruby": "はは は さんぽ に でかけ ました",
          "Lang": "ja",
          "ProblemNo": 0,
          "Kind": 4
        },
        {
          "Start": 26,
          "End": 28,
          "Text": "{お母さんはどこですか？}",
          "Ruby": "おかあさん は どこ です か ？",
          "Lang": "ja",
          "ProblemNo": 1,
          "Kind": 1
        },
        {
          "Start": 28,
          "End": 32,
          "Text": "{母は散歩に出かけました}",
          "Ruby": "はは は さんぽ に でかけ ました",
          "Lang": "ja",
          "ProblemNo": 1,
          "Kind": 1
        },
        {
          "Start": 32,
          "End": 34,
          "Text": "{公園です}",
          "Ruby": "こうえん です",
          "Lang": "ja",
          "ProblemNo": 1,
          "Kind": 2
        },
        {
          "Start": 34,
          "End": 37,
          "Text": "{お母さんはどこですか？}",
          "Ruby": "おかあさん は どこ です か ？",
          "Lang": "ja",
          "ProblemNo": 1,
          "Kind": 3
        },
        {
          "Start": 37,
          "End": 41,
          "Text": "{母は公園です}",
          "Ruby": "はは は こうえん です",
          "Lang": "ja",
          "ProblemNo": 1,
          "Kind": 3
        },
        {
          "Start": 41,
          "End": 43,
          "Text": "{お母さんはどこですか？}",
          "Ruby": "おかあさん は どこ です か ？",
          "Lang": "ja",
          "ProblemNo": 1,
          "Kind": 4
        },
        {
          "Start": 43,
          "End": 48,
          "Text": "{母は公園です}",
          "Ruby": "はは は こうえん です",
          "Lang": "ja",
          "ProblemNo": 1,
          "Kind": 4
        },
        {
          "Start": 48,
          "End": 50,
          "Text": "{お母さんはどこですか？}",
          "Ruby": "おかあさん は どこ です か ？",
          "Lang": "ja",
          "ProblemNo": 2,
          "Kind": 1
        },
        {
          "Start": 50,
          "End": 53,
          "Text": "{母は公園です}",
          "Ruby": "はは は こうえん です",
          "Lang": "ja",
          "ProblemNo": 2,
          "Kind": 1
        },
        {
          "Start": 53,
          "End": 55,
          "Text": "{公園に行きました}",
          "Ruby": "こうえん に いき ました",
          "Lang": "ja",
          "ProblemNo": 2,
          "Kind": 2
        },
        {
          "Start": 55,
          "End": 58,
          "Text": "{お母さんはどこですか？}",
          "Ruby": "おかあさん は どこ です か ？",
          "Lang": "ja",
          "ProblemNo": 2,
          "Kind": 3
        },
        {
          "Start": 58,
          "End": 63,
          "Text": "{母は公園に行きました}",
          "Ruby": "はは は こうえん に いき ました",
          "Lang": "ja",
          "ProblemNo": 2,
          "Kind": 3
        },
        {
          "Start": 63,
          "End": 65,
          "Text": "{お母さんはどこですか？}",
          "Ruby": "おかあさん は どこ です か ？",
          "Lang": "ja",
          "ProblemNo": 2,
          "Kind": 4
        },
        {
          "Start": 65,
          "End": 71,
          "Text": "{母は公園に行きました}",
          "Ruby": "はは は こうえん に いき ました",
          "Lang": "ja",
          "ProblemNo": 2,
          "Kind": 4
        },
        {
          "Start": 71,
          "End": 73,
          "Text": "{お母さんはどこですか？}",
          "Ruby": "おかあさん は どこ です か ？",
          "Lang": "ja",
          "ProblemNo": 3,
          "Kind": 1
        },
        {
          "Start": 73,
          "End": 77,
          "Text": "{母は公園に行きました}",
          "Ruby": "はは は こうえん に いき ました",
          "Lang": "ja",
          "ProblemNo": 3,
          "Kind": 1
        },
        {
          "Start": 77,
          "End": 79,
          "Text": "{買い物に行きました}",
          "Ruby": "かいもの に いき ました",
          "Lang": "ja",
          "ProblemNo": 3,
          "Kind": 2
        },
        {
          "Start": 79,
          "End": 82,
          "Text": "{お母さんはどこですか？}",
          "Ruby": "おかあさん は どこ です か ？",
          "Lang": "ja",
          "ProblemNo": 3,
          "Kind": 3
        },
        {
          "Start": 82,
          "End": 87,
          "Text": "{母は買い物に行きました}",
          "Ruby": "はは は かいもの に いき ました",
          "Lang": "ja",
          "ProblemNo": 3,
          "Kind": 3
        },
        {
          "Start": 87,
          "End": 89,
          "Text": "{お母さんはどこですか？}",
          "Ruby": "おかあさん は どこ です か ？",
          "Lang": "ja",
          "ProblemNo": 3,
          "Kind": 4
        },
        {
          "Start": 89,
          "End": 95,
          "Text": "{母は買い物に行きました}",
          "Ruby": "はは は かいもの に いき ました",
          "Lang": "ja",
          "ProblemNo": 3,
          "Kind": 4
        },
        {
          "Start": 95,
          "End": 97,
          "Text": "{お母さんはどこですか？}",
          "Ruby": "おかあさん は どこ です か ？",
          "Lang": "ja",
          "ProblemNo": 4,
          "Kind": 1
        },
        {
          "Start": 97,
          "End": 101,
          "Text": "{母は買い物に行きました}",
          "Ruby": "はは は かいもの に いき ました",
          "Lang": "ja",
          "ProblemNo": 4,
          "Kind": 1
        },
        {
          "Start": 101,
          "End": 102,
          "Text": "{お父さん}",
          "Ruby": "おとうさん",
          "Lang": "ja",
          "ProblemNo": 4,
          "Kind": 2
        },
        {
          "Start": 102,
          "End": 103,
          "Text": "{父}",
          "Ruby": "ちち",
          "Lang": "ja",
          "ProblemNo": 4,
          "Kind": 2
        },
        {
          "Start": 103,
          "End": 106,
          "Text": "{お父さんはどこですか？}",
          "Ruby": "おとうさん は どこ です か ？",
          "Lang": "ja",
          "ProblemNo": 4,
          "Kind": 3
        },
        {
          "Start": 106,
          "End": 111,
          "Text": "{父は買い物に行きました}",
          "Ruby": "ちち は かいもの に いき ました",
          "Lang": "ja",
          "ProblemNo": 4,
          "Kind": 3
        },
        {
          "Start": 111,
          "End": 113,
          "Text": "{お父さんはどこですか？}",
          "Ruby": "おとうさん は どこ です か ？",
          "Lang": "ja",
          "ProblemNo": 4,
          "Kind": 4
        },
        {
          "Start": 113,
          "End": 119,
          "Text": "{父は買い物に行きました}",
          "Ruby": "ちち は かいもの に いき ました",
          "Lang": "ja",
          "ProblemNo": 4,
          "Kind": 4
        },
        {
          "Start": 119,
          "End": 121,
          "Text": "{お父さんはどこですか？}",
          "Ruby": "おとうさん は どこ です か ？",
          "Lang": "ja",
          "ProblemNo": 5,
          "Kind": 1
        },
        {
          "Start": 121,
          "End": 125,
          "Text": "{父は買い物に行きました}",
          "Ruby": "ちち は かいもの に いき ました",
          "Lang": "ja",
          "ProblemNo": 5,
          "Kind": 1
        },
        {
          "Start": 125,
          "End": 127,
          "Text": "{散歩に出かけました}",
          "Ruby": "さんぽ に でかけ ました",
          "Lang": "ja",
          "ProblemNo": 5,
          "Kind": 2
        },
        {
          "Start": 127,
          "End": 130,
          "Text": "{お父さんはどこですか？}",
          "Ruby": "おとうさん は どこ です か ？",
          "Lang": "ja",
          "ProblemNo": 5,
          "Kind": 3
        },
        {
          "Start": 130,
          "End": 135,
          "Text": "{父は散歩に出かけました}",
          "Ruby": "ちち は さんぽ に でかけ ました",
          "Lang": "ja",
          "ProblemNo": 5,
          "Kind": 3
        },
        {
          "Start": 135,
          "End": 137,
          "Text": "{お父さんはどこですか？}",
          "Ruby": "おとうさん は どこ です か ？",
          "Lang": "ja",
          "ProblemNo": 5,
          "Kind": 4
        },
        {
          "Start": 137,
          "End": 143,
          "Text": "{父は散歩に出かけました}",
          "Ruby": "ちち は さんぽ に でかけ ました",
          "Lang": "ja",
          "ProblemNo": 5,
          "Kind": 4
        },
        {
          "Start": 143,
          "End": 145,
          "Text": "{お父さんはどこですか？}",
          "Ruby": "おとうさん は どこ です か ？",
          "Lang": "ja",
          "ProblemNo": 6,
          "Kind": 1
        },
        {
          "Start": 145,
          "End": 149,
          "Text": "{父は散歩に出かけました}",
          "Ruby": "ちち は さんぽ に でかけ ました",
          "Lang": "ja",
          "ProblemNo": 6,
          "Kind": 1
        },
        {
          "Start": 149,
          "End": 151,
          "Text": "{買い物です}",
          "Ruby": "かいもの です",
          "Lang": "ja",
          "ProblemNo": 6,
          "Kind": 2
        },
        {
          "Start": 151,
          "End": 154,
          "Text": "{お父さんはどこですか？}",
          "Ruby": "おとうさん は どこ です か ？",
          "Lang": "ja",
          "ProblemNo": 6,
          "Kind": 3
        },
        {
          "Start": 154,
          "End": 158,
          "Text": "{父は買い物です}",
          "Ruby": "ちち は かいもの です",
          "Lang": "ja",
          "ProblemNo": 6,
          "Kind": 3
        },
        {
          "Start": 158,
          "End": 160,
          "Text": "{お父さんはどこですか？}",
          "Ruby": "おとうさん は どこ です か ？",
          "Lang": "ja",
          "ProblemNo": 6,
          "Kind": 4
        },
        {
          "Start": 160,
          "End": 165,
          "Text": "{父は買い物です}",
          "Ruby": "ちち は かいもの です",
          "Lang": "ja",
          "ProblemNo": 6,
          "Kind": 4
        },
        {
          "Start": 165,
          "End": 167,
          "Text": "{お父さんはどこですか？}",
          "Ruby": "おとうさん は どこ です か ？",
          "Lang": "ja",
          "ProblemNo": 7,
          "Kind": 1
        },
        {
          "Start": 167,
          "End": 170,
          "Text": "{父は買い物です}",
          "Ruby": "ちち は かいもの です",
          "Lang": "ja",
          "ProblemNo": 7,
          "Kind": 1
        },
        {
          "Start": 170,
          "End": 172,
          "Text": "{散歩です}",
          "Ruby": "さんぽ です",
          "Lang": "ja",
          "ProblemNo": 7,
          "Kind": 2
        },
        {
          "Start": 172,
          "End": 175,
          "Text": "{お父さんはどこですか？}",
          "Ruby": "おとうさん は どこ です か ？",
          "Lang": "ja",
          "ProblemNo": 7,
          "Kind": 3
        },
        {
          "Start": 175,
          "End": 179,
          "Text": "{父は散歩です}",
          "Ruby": "ちち は さんぽ です",
          "Lang": "ja",
          "ProblemNo": 7,
          "Kind": 3
        },
        {
          "Start": 179,
          "End": 181,
          "Text": "{お父さんはどこですか？}",
          "Ruby": "おとうさん は どこ です か ？",
          "Lang": "ja",
          "ProblemNo": 7,
          "Kind": 4
        },
        {
          "Start": 181,
          "End": 186,
          "Text": "{父は散歩です}",
          "Ruby": "ちち は さんぽ です",
          "Lang": "ja",
          "ProblemNo": 7,
          "Kind": 4
        },
        {
          "Start": 186,
          "End": 188,
          "Text": "{お父さんはどこですか？}",
          "Ruby": "おとうさん は どこ です か ？",
          "Lang": "ja",
          "ProblemNo": 8,
          "Kind": 1
        },
        {
          "Start": 188,
          "End": 191,
          "Text": "{父は散歩です}",
          "Ruby": "ちち は さんぽ です",
          "Lang": "ja",
          "ProblemNo": 8,
          "Kind": 1
        },
        {
          "Start": 191,
          "End": 193,
          "Text": "{公園に行きました}",
          "Ruby": "こうえん に いき ました",
          "Lang": "ja",
          "ProblemNo": 8,
          "Kind": 2
        },
        {
          "Start": 193,
          "End": 196,
          "Text": "{お父さんはどこですか？}",
          "Ruby": "おとうさん は どこ です か ？",
          "Lang": "ja",
          "ProblemNo": 8,
          "Kind": 3
        },
        {
          "Start": 196,
          "End": 201,
          "Text": "{父は公園に行きました}",
          "Ruby": "ちち は こうえん に いき ました",
          "Lang": "ja",
          "ProblemNo": 8,
          "Kind": 3
        },
        {
          "Start": 201,
          "End": 203,
          "Text": "{お父さんはどこですか？}",
          "Ruby": "おとうさん は どこ です か ？",
          "Lang": "ja",
          "ProblemNo": 8,
          "Kind": 4
        },
        {
          "Start": 203,
          "End": 209,
          "Text": "{父は公園に行きました}",
          "Ruby": "ちち は こうえん に いき ました",
          "Lang": "ja",
          "ProblemNo": 8,
          "Kind": 4
        },
        {
          "Start": 209,
          "End": 211,
          "Text": "{お父さんはどこですか？}",
          "Ruby": "おとうさん は どこ です か ？",
          "Lang": "ja",
          "ProblemNo": 9,
          "Kind": 1
        },
        {
          "Start": 211,
          "End": 215,
          "Text": "{父は公園に行きました}",
          "Ruby": "ちち は こうえん に いき ました",
          "Lang": "ja",
          "ProblemNo": 9,
          "Kind": 1
        },
        {
          "Start": 215,
          "End": 217,
          "Text": "{公園です}",
          "Ruby": "こうえん です",
          "Lang": "ja",
          "ProblemNo": 9,
          "Kind": 2
        },
        {
          "Start": 217,
          "End": 220,
          "Text": "{お父さんはどこですか？}",
          "Ruby": "おとうさん は どこ です か ？",
          "Lang": "ja",
          "ProblemNo": 9,
          "Kind": 3
        },
        {
          "Start": 220,
          "End": 224,
          "Text": "{父は公園です}",
          "Ruby": "ちち は こうえん です",
          "Lang": "ja",
          "ProblemNo": 9,
          "Kind": 3
        },
        {
          "Start": 224,
          "End": 226,
          "Text": "{お父さんはどこですか？}",
          "Ruby": "おとうさん は どこ です か ？",
          "Lang": "ja",
          "ProblemNo": 9,
          "Kind": 4
        },
        {
          "Start": 226,
          "End": 231,
          "Text": "{父は公園です}",
          "Ruby": "ちち は こうえん です",
          "Lang": "ja",
          "ProblemNo": 9,
          "Kind": 4
        },
        {
          "Start": 231,
          "End": 234,
          "Text": "",
          "Ruby": "",
          "Lang": "",
          "ProblemNo": 0,
          "Kind": 5
        },
        {
          "Start": 234,
          "End": 236,
          "Text": "{お母さんはどこですか？}",
          "Ruby": "おかあさん は どこ です か ？",
          "Lang": "ja",
          "ProblemNo": 0,
          "Kind": 1
        },
        {
          "Start": 236,
          "End": 239,
          "Text": "{母は買い物です}",
          "Ruby": "はは は かいもの です",
          "Lang": "ja",
          "ProblemNo": 0,
          "Kind": 1
        },
        {
          "Start": 239,
          "End": 241,
          "Text": "{散歩に出かけました}",
          "Ruby": "さんぽ に でかけ ました",
          "Lang": "ja",
          "ProblemNo": 0,
          "Kind": 2
        },
        {
          "Start": 241,
          "End": 244,
          "Text": "{お母さんはどこですか？}",
          "Ruby": "おかあさん は どこ です か ？",
          "Lang": "ja",
          "ProblemNo": 0,
          "Kind": 3
        },
        {
          "Start": 244,
          "End": 249,
          "Text": "{母は散歩に出かけました}",
          "Ruby": "はは は さんぽ に でかけ ました",
          "Lang": "ja",
          "ProblemNo": 0,
          "Kind": 3
        },
        {
          "Start": 249,
          "End": 251,
          "Text": "{お母さんはどこですか？}",
          "Ruby": "おかあさん は どこ です か ？",
          "Lang": "ja",
          "ProblemNo": 0,
          "Kind": 4
        },
        {
          "Start": 251,
          "End": 257,
          "Text": "{母は散歩に出かけました}",
          "Ruby": "はは は さんぽ に でかけ ました",
          "Lang": "ja",
          "ProblemNo": 0,
          "Kind": 4
        },
        {
          "Start": 257,
          "End": 259,
          "Text": "{お母さんはどこですか？}",
          "Ruby": "おかあさん は どこ です か ？",
          "Lang": "ja",
          "ProblemNo": 1,
          "Kind": 1
        },
        {
          "Start": 259,
          "End": 263,
          "Text": "{母は散歩に出かけました}",
          "Ruby": "はは は さんぽ に でかけ ました",
          "Lang": "ja",
          "ProblemNo": 1,
          "Kind": 1
        },
        {
          "Start": 263,
          "End": 265,
          "Text": "{公園です}",
          "Ruby": "こうえん です",
          "Lang": "ja",
          "ProblemNo": 1,
          "Kind": 2
        },
        {
          "Start": 265,
          "End": 268,
          "Text": "{お母さんはどこですか？}",
          "Ruby": "おかあさん は どこ です か ？",
          "Lang": "ja",
          "ProblemNo": 1,
          "Kind": 3
        },
        {
          "Start": 268,
          "End": 272,
          "Text": "{母は公園です}",
          "Ruby": "はは は こうえん です",
          "Lang": "ja",
          "ProblemNo": 1,
          "Kind": 3
        },
        {
          "Start": 272,
          "End": 274,
          "Text": "{お母さんはどこですか？}",
          "Ruby": "おかあさん は どこ です か ？",
          "Lang": "ja",
          "ProblemNo": 1,
          "Kind": 4
        },
        {
          "Start": 274,
          "End": 279,
          "Text": "{母は公園です}",
          "Ruby": "はは は こうえん です",
          "Lang": "ja",
          "ProblemNo": 1,
          "Kind": 4
        },
        {
          "Start": 279,
          "End": 281,
          "Text": "{お母さんはどこですか？}",
          "Ruby": "おかあさん は どこ です か ？",
          "Lang": "ja",
          "ProblemNo": 2,
          "Kind": 1
        },
        {
          "Start": 281,
          "End": 284,
          "Text": "{母は公園です}",
          "Ruby": "はは は こうえん です",
          "Lang": "ja",
          "ProblemNo": 2,
          "Kind": 1
        },
        {
          "Start": 284,
          "End": 286,
          "Text": "{公園に行きました}",
          "Ruby": "こうえん に いき ました",
          "Lang": "ja",
          "ProblemNo": 2,
          "Kind": 2
        },
        {
          "Start": 286,
          "End": 289,
          "Text": "{お母さんはどこですか？}",
          "Ruby": "おかあさん は どこ です か ？",
          "Lang": "ja",
          "ProblemNo": 2,
          "Kind": 3
        },
        {
          "Start": 289,
          "End": 294,
          "Text": "{母は公園に行きました}",
          "Ruby": "はは は こうえん に いき ました",
          "Lang": "ja",
          "ProblemNo": 2,
          "Kind": 3
        },
        {
          "Start": 294,
          "End": 296,
          "Text": "{お母さんはどこですか？}",
          "Ruby": "おかあさん は どこ です か ？",
          "Lang": "ja",
          "ProblemNo": 2,
          "Kind": 4
        },
        {
          "Start": 296,
          "End": 302,
          "Text": "{母は公園に行きました}",
          "Ruby": "はは は こうえん に いき ました",
          "Lang": "ja",
          "ProblemNo": 2,
          "Kind": 4
        },
        {
          "Start": 302,
          "End": 304,
          "Text": "{お母さんはどこですか？}",
          "Ruby": "おかあさん は どこ です か ？",
          "Lang": "ja",
          "ProblemNo": 3,
          "Kind": 1
        },
        {
          "Start": 304,
          "End": 308,
          "Text": "{母は公園に行きました}",
          "Ruby": "はは は こうえん に いき ました",
          "Lang": "ja",
          "ProblemNo": 3,
          "Kind": 1
        },
        {
          "Start": 308,
          "End": 310,
          "Text": "{買い物に行きました}",
          "Ruby": "かいもの に いき ました",
          "Lang": "ja",
          "ProblemNo": 3,
          "Kind": 2
        },
        {
          "Start": 310,
          "End": 313,
          "Text": "{お母さんはどこですか？}",
          "Ruby": "おかあさん は どこ です か ？",
          "Lang": "ja",
          "ProblemNo": 3,
          "Kind": 3
        },
        {
          "Start": 313,
          "End": 318,
          "Text": "{母は買い物に行きました}",
          "Ruby": "はは は かいもの に いき ました",
          "Lang": "ja",
          "ProblemNo": 3,
          "Kind": 3
        },
        {
          "Start": 318,
          "End": 320,
          "Text": "{お母さんはどこですか？}",
          "Ruby": "おかあさん は どこ です か ？",
          "Lang": "ja",
          "ProblemNo": 3,
          "Kind": 4
        },
        {
          "Start": 320,
          "End": 326,
          "Text": "{母は買い物に行きました}",
          "Ruby": "はは は かいもの に いき ました",
          "Lang": "ja",
          "ProblemNo": 3,
          "Kind": 4
        },
        {
          "Start": 326,
          "End": 328,
          "Text": "{お母さんはどこですか？}",
          "Ruby": "おかあさん は どこ です か ？",
          "Lang": "ja",
          "ProblemNo": 4,
          "Kind": 1
        },
        {
          "Start": 328,
          "End": 332,
          "Text": "{母は買い物に行きました}",
          "Ruby": "はは は かいもの に いき ました",
          "Lang": "ja",
          "ProblemNo": 4,
          "Kind": 1
        },
        {
          "Start": 332,
          "End": 333,
          "Text": "{お父さん}",
          "Ruby": "おとうさん",
          "Lang": "ja",
          "ProblemNo": 4,
          "Kind": 2
        },
        {
          "Start": 333,
          "End": 336,
          "Text": "{お父さんはどこですか？}",
          "Ruby": "おとうさん は どこ です か ？",
          "Lang": "ja",
          "ProblemNo": 4,
          "Kind": 3
        },
        {
          "Start": 336,
          "End": 341,
          "Text": "{父は買い物に行きました}",
          "Ruby": "ちち は かいもの に いき ました",
          "Lang": "ja",
          "ProblemNo": 4,
          "Kind": 3
        },
        {
          "Start": 341,
          "End": 343,
          "Text": "{お父さんはどこですか？}",
          "Ruby": "おとうさん は どこ です か ？",
          "Lang": "ja",
          "ProblemNo": 4,
          "Kind": 4
        },
        {
          "Start": 343,
          "End": 349,
          "Text": "{父は買い物に行きました}",
          "Ruby": "ちち は かいもの に いき ました",
          "Lang": "ja",
          "ProblemNo": 4,
          "Kind": 4
        },
        {
          "Start": 349,
          "End": 351,
          "Text": "{お父さんはどこですか？}",
          "Ruby": "おとうさん は どこ です か ？",
          "Lang": "ja",
          "ProblemNo": 5,
          "Kind": 1
        },
        {
          "Start": 351,
          "End": 355,
          "Text": "{父は買い物に行きました}",
          "Ruby": "ちち は かいもの に いき ました",
          "Lang": "ja",
          "ProblemNo": 5,
          "Kind": 1
        },
        {
          "Start": 355,
          "End": 357,
          "Text": "{散歩に出かけました}",
          "Ruby": "さんぽ に でかけ ました",
          "Lang": "ja",
          "ProblemNo": 5,
          "Kind": 2
        },
        {
          "Start": 357,
          "End": 360,
          "Text": "{お父さんはどこですか？}",
          "Ruby": "おとうさん は どこ です か ？",
          "Lang": "ja",
          "ProblemNo": 5,
          "Kind": 3
        },
        {
          "Start": 360,
          "End": 365,
          "Text": "{父は散歩に出かけました}",
          "Ruby": "ちち は さんぽ に でかけ ました",
          "Lang": "ja",
          "ProblemNo": 5,
          "Kind": 3
        },
        {
          "Start": 365,
          "End": 367,
          "Text": "{お父さんはどこですか？}",
          "Ruby": "おとうさん は どこ です か ？",
          "Lang": "ja",
          "ProblemNo": 5,
          "Kind": 4
        },
        {
          "Start": 367,
          "End": 373,
          "Text": "{父は散歩に出かけました}",
          "Ruby": "ちち は さんぽ に でかけ ました",
          "Lang": "ja",
          "ProblemNo": 5,
          "Kind": 4
        },
        {
          "Start": 373,
          "End": 375,
          "Text": "{お父さんはどこですか？}",
          "Ruby": "おとうさん は どこ です か ？",
          "Lang": "ja",
          "ProblemNo": 6,
          "Kind": 1
        },
        {
          "Start": 375,
          "End": 379,
          "Text": "{父は散歩に出かけました}",
          "Ruby": "ちち は さんぽ に でかけ ました",
          "Lang": "ja",
          "ProblemNo": 6,
          "Kind": 1
        },
        {
          "Start": 379,
          "End": 381,
          "Text": "{買い物です}",
          "Ruby": "かいもの です",
          "Lang": "ja",
          "ProblemNo": 6,
          "Kind": 2
        },
        {
          "Start": 381,
          "End": 384,
          "Text": "{お父さんはどこですか？}",
          "Ruby": "おとうさん は どこ です か ？",
          "Lang": "ja",
          "ProblemNo": 6,
          "Kind": 3
        },
        {
          "Start": 384,
          "End": 388,
          "Text": "{父は買い物です}",
          "Ruby": "ちち は かいもの です",
          "Lang": "ja",
          "ProblemNo": 6,
          "Kind": 3
        },
        {
          "Start": 388,
          "End": 390,
          "Text": "{お父さんはどこですか？}",
          "Ruby": "おとうさん は どこ です か ？",
          "Lang": "ja",
          "ProblemNo": 6,
          "Kind": 4
        },
        {
          "Start": 390,
          "End": 395,
          "Text": "{父は買い物です}",
          "Ruby": "ちち は かいもの です",
          "Lang": "ja",
          "ProblemNo": 6,
          "Kind": 4
        },
        {
          "Start": 395,
          "End": 397,
          "Text": "{お父さんはどこですか？}",
          "Ruby": "おとうさん は どこ です か ？",
          "Lang": "ja",
          "ProblemNo": 7,
          "Kind": 1
        },
        {
          "Start": 397,
          "End": 400,
          "Text": "{父は買い物です}",
          "Ruby": "ちち は かいもの です",
          "Lang": "ja",
          "ProblemNo": 7,
          "Kind": 1
        },
        {
          "Start": 400,
          "End": 402,
          "Text": "{散歩です}",
          "Ruby": "さんぽ です",
          "Lang": "ja",
          "ProblemNo": 7,
          "Kind": 2
        },
        {
          "Start": 402,
          "End": 405,
          "Text": "{お父さんはどこですか？}",
          "Ruby": "おとうさん は どこ です か ？",
          "Lang": "ja",
          "ProblemNo": 7,
          "Kind": 3
        },
        {
          "Start": 405,
          "End": 409,
          "Text": "{父は散歩です}",
          "Ruby": "ちち は さんぽ です",
          "Lang": "ja",
          "ProblemNo": 7,
          "Kind": 3
        },
        {
          "Start": 409,
          "End": 411,
          "Text": "{お父さんはどこですか？}",
          "Ruby": "おとうさん は どこ です か ？",
          "Lang": "ja",
          "ProblemNo": 7,
          "Kind": 4
        },
        {
          "Start": 411,
          "End": 416,
          "Text": "{父は散歩です}",
          "Ruby": "ちち は さんぽ です",
          "Lang": "ja",
          "ProblemNo": 7,
          "Kind": 4
        },
        {
          "Start": 416,
          "End": 418,
          "Text": "{お父さんはどこですか？}",
          "Ruby": "おとうさん は どこ です か ？",
          "Lang": "ja",
          "ProblemNo": 8,
          "Kind": 1
        },
        {
          "Start": 418,
          "End": 421,
          "Text": "{父は散歩です}",
          "Ruby": "ちち は さんぽ です",
          "Lang": "ja",
          "ProblemNo": 8,
          "Kind": 1
        },
        {
          "Start": 421,
          "End": 423,
          "Text": "{公園に行きました}",
          "Ruby": "こうえん に いき ました",
          "Lang": "ja",
          "ProblemNo": 8,
          "Kind": 2
        },
        {
          "Start": 423,
          "End": 426,
          "Text": "{お父さんはどこですか？}",
          "Ruby": "おとうさん は どこ です か ？",
          "Lang": "ja",
          "ProblemNo": 8,
          "Kind": 3
        },
        {
          "Start": 426,
          "End": 431,
          "Text": "{父は公園に行きました}",
          "Ruby": "ちち は こうえん に いき ました",
          "Lang": "ja",
          "ProblemNo": 8,
          "Kind": 3
        },
        {
          "Start": 431,
          "End": 433,
          "Text": "{お父さんはどこですか？}",
          "Ruby": "おとうさん は どこ です か ？",
          "Lang": "ja",
          "ProblemNo": 8,
          "Kind": 4
        },
        {
          "Start": 433,
          "End": 439,
          "Text": "{父は公園に行きました}",
          "Ruby": "ちち は こうえん に いき ました",
          "Lang": "ja",
          "ProblemNo": 8,
          "Kind": 4
        },
        {
          "Start": 439,
          "End": 441,
          "Text": "{お父さんはどこですか？}",
          "Ruby": "おとうさん は どこ です か ？",
          "Lang": "ja",
          "ProblemNo": 9,
          "Kind": 1
        },
        {
          "Start": 441,
          "End": 445,
          "Text": "{父は公園に行きました}",
          "Ruby": "ちち は こうえん に いき ました",
          "Lang": "ja",
          "ProblemNo": 9,
          "Kind": 1
        },
        {
          "Start": 445,
          "End": 447,
          "Text": "{公園です}",
          "Ruby": "こうえん です",
          "Lang": "ja",
          "ProblemNo": 9,
          "Kind": 2
        },
        {
          "Start": 447,
          "End": 450,
          "Text": "{お父さんはどこですか？}",
          "Ruby": "おとうさん は どこ です か ？",
          "Lang": "ja",
          "ProblemNo": 9,
          "Kind": 3
        },
        {
          "Start": 450,
          "End": 454,
          "Text": "{父は公園です}",
          "Ruby": "ちち は こうえん です",
          "Lang": "ja",
          "ProblemNo": 9,
          "Kind": 3
        },
        {
          "Start": 454,
          "End": 456,
          "Text": "{お父さんはどこですか？}",
          "Ruby": "おとうさん は どこ です か ？",
          "Lang": "ja",
          "ProblemNo": 9,
          "Kind": 4
        },
        {
          "Start": 456,
          "End": 461,
          "Text": "{父は公園です}",
          "Ruby": "ちち は こうえん です",
          "Lang": "ja",
          "ProblemNo": 9,
          "Kind": 4
        },
        {
          "Start": 461,
          "End": 464,
          "Text": "",
          "Ruby": "",
          "Lang": "",
          "ProblemNo": 0,
          "Kind": 5
        },
        {
          "Start": 464,
          "End": 466,
          "Text": "{お母さんはどこですか？}",
          "Ruby": "おかあさん は どこ です か ？",
          "Lang": "ja",
          "ProblemNo": 0,
          "Kind": 1
        },
        {
          "Start": 466,
          "End": 469,
          "Text": "{母は買い物です}",
          "Ruby": "はは は かいもの です",
          "Lang": "ja",
          "ProblemNo": 0,
          "Kind": 1
        },
        {
          "Start": 469,
          "End": 471,
          "Text": "{散歩に出かけました}",
          "Ruby": "さんぽ に でかけ ました",
          "Lang": "ja",
          "ProblemNo": 0,
          "Kind": 2
        },
        {
          "Start": 471,
          "End": 474,
          "Text": "{お母さんはどこですか？}",
          "Ruby": "おかあさん は どこ です か ？",
          "Lang": "ja",
          "ProblemNo": 0,
          "Kind": 3
        },
        {
          "Start": 474,
          "End": 479,
          "Text": "{母は散歩に出かけました}",
          "Ruby": "はは は さんぽ に でかけ ました",
          "Lang": "ja",
          "ProblemNo": 0,
          "Kind": 3
        },
        {
          "Start": 479,
          "End": 481,
          "Text": "{お母さんはどこですか？}",
          "Ruby": "おかあさん は どこ です か ？",
          "Lang": "ja",
          "ProblemNo": 0,
          "Kind": 4
        },
        {
          "Start": 481,
          "End": 487,
          "Text": "{母は散歩に出かけました}",
          "Ruby": "はは は さんぽ に でかけ ました",
          "Lang": "ja",
          "ProblemNo": 0,
          "Kind": 4
        },
        {
          "Start": 487,
          "End": 489,
          "Text": "{お母さんはどこですか？}",
          "Ruby": "おかあさん は どこ です か ？",
          "Lang": "ja",
          "ProblemNo": 1,
          "Kind": 1
        },
        {
          "Start": 489,
          "End": 493,
          "Text": "{母は散歩に出かけました}",
          "Ruby": "はは は さんぽ に でかけ ました",
          "Lang": "ja",
          "ProblemNo": 1,
          "Kind": 1
        },
        {
          "Start": 493,
          "End": 495,
          "Text": "{公園です}",
          "Ruby": "こうえん です",
          "Lang": "ja",
          "ProblemNo": 1,
          "Kind": 2
        },
        {
          "Start": 495,
          "End": 498,
          "Text": "{お母さんはどこですか？}",
          "Ruby": "おかあさん は どこ です か ？",
          "Lang": "ja",
          "ProblemNo": 1,
          "Kind": 3
        },
        {
          "Start": 498,
          "End": 502,
          "Text": "{母は公園です}",
          "Ruby": "はは は こうえん です",
          "Lang": "ja",
          "ProblemNo": 1,
          "Kind": 3
        },
        {
          "Start": 502,
          "End": 504,
          "Text": "{お母さんはどこですか？}",
          "Ruby": "おかあさん は どこ です か ？",
          "Lang": "ja",
          "ProblemNo": 1,
          "Kind": 4
        },
        {
          "Start": 504,
          "End": 509,
          "Text": "{母は公園です}",
          "Ruby": "はは は こうえん です",
          "Lang": "ja",
          "ProblemNo": 1,
          "Kind": 4
        },
        {
          "Start": 509,
          "End": 511,
          "Text": "{お母さんはどこですか？}",
          "Ruby": "おかあさん は どこ です か ？",
          "Lang": "ja",
          "ProblemNo": 2,
          "Kind": 1
        },
        {
          "Start": 511,
          "End": 514,
          "Text": "{母は公園です}",
          "Ruby": "はは は こうえん です",
          "Lang": "ja",
          "ProblemNo": 2,
          "Kind": 1
        },
        {
          "Start": 514,
          "End": 516,
          "Text": "{公園に行きました}",
          "Ruby": "こうえん に いき ました",
          "Lang": "ja",
          "ProblemNo": 2,
          "Kind": 2
        },
        {
          "Start": 516,
          "End": 519,
          "Text": "{お母さんはどこですか？}",
          "Ruby": "おかあさん は どこ です か ？",
          "Lang": "ja",
          "ProblemNo": 2,
          "Kind": 3
        },
        {
          "Start": 519,
          "End": 524,
          "Text": "{母は公園に行きました}",
          "Ruby": "はは は こうえん に いき ました",
          "Lang": "ja",
          "ProblemNo": 2,
          "Kind": 3
        },
        {
          "Start": 524,
          "End": 526,
          "Text": "{お母さんはどこですか？}",
          "Ruby": "おかあさん は どこ です か ？",
          "Lang": "ja",
          "ProblemNo": 2,
          "Kind": 4
        },
        {
          "Start": 526,
          "End": 532,
          "Text": "{母は公園に行きました}",
          "Ruby": "はは は こうえん に いき ました",
          "Lang": "ja",
          "ProblemNo": 2,
          "Kind": 4
        },
        {
          "Start": 532,
          "End": 534,
          "Text": "{お母さんはどこですか？}",
          "Ruby": "おかあさん は どこ です か ？",
          "Lang": "ja",
          "ProblemNo": 3,
          "Kind": 1
        },
        {
          "Start": 534,
          "End": 538,
          "Text": "{母は公園に行きました}",
          "Ruby": "はは は こうえん に いき ました",
          "Lang": "ja",
          "ProblemNo": 3,
          "Kind": 1
        },
        {
          "Start": 538,
          "End": 540,
          "Text": "{買い物に行きました}",
          "Ruby": "かいもの に いき ました",
          "Lang": "ja",
          "ProblemNo": 3,
          "Kind": 2
        },
        {
          "Start": 540,
          "End": 543,
          "Text": "{お母さんはどこですか？}",
          "Ruby": "おかあさん は どこ です か ？",
          "Lang": "ja",
          "ProblemNo": 3,
          "Kind": 3
        },
        {
          "Start": 543,
          "End": 548,
          "Text": "{母は買い物に行きました}",
          "Ruby": "はは は かいもの に いき ました",
          "Lang": "ja",
          "ProblemNo": 3,
          "Kind": 3
        },
        {
          "Start": 548,
          "End": 550,
          "Text": "{お母さんはどこですか？}",
          "Ruby": "おかあさん は どこ です か ？",
          "Lang": "ja",
          "ProblemNo": 3,
          "Kind": 4
        },
        {
          "Start": 550,
          "End": 556,
          "Text": "{母は買い物に行きました}",
          "Ruby": "はは は かいもの に いき ました",
          "Lang": "ja",
          "ProblemNo": 3,
          "Kind": 4
        },
        {
          "Start": 556,
          "End": 558,
          "Text": "{お母さんはどこですか？}",
          "Ruby": "おかあさん は どこ です か ？",
          "Lang": "ja",
          "ProblemNo": 4,
          "Kind": 1
        },
        {
          "Start": 558,
          "End": 562,
          "Text": "{母は買い物に行きました}",
          "Ruby": "はは は かいもの に いき ました",
          "Lang": "ja",
          "ProblemNo": 4,
          "Kind": 1
        },
        {
          "Start": 562,
          "End": 563,
          "Text": "{お父さん}",
          "Ruby": "おとうさん",
          "Lang": "ja",
          "ProblemNo": 4,
          "Kind": 2
        },
        {
          "Start": 563,
          "End": 566,
          "Text": "{お父さんはどこですか？}",
          "Ruby": "おとうさん は どこ です か ？",
          "Lang": "ja",
          "ProblemNo": 4,
          "Kind": 3
        },
        {
          "Start": 566,
          "End": 571,
          "Text": "{父は買い物に行きました}",
          "Ruby": "ちち は かいもの に いき ました",
          "Lang": "ja",
          "ProblemNo": 4,
          "Kind": 3
        },
        {
          "Start": 571,
          "End": 573,
          "Text": "{お父さんはどこですか？}",
          "Ruby": "おとうさん は どこ です か ？",
          "Lang": "ja",
          "ProblemNo": 4,
          "Kind": 4
        },
        {
          "Start": 573,
          "End": 579,
          "Text": "{父は買い物に行きました}",
          "Ruby": "ちち は かいもの に いき ました",
          "Lang": "ja",
          "ProblemNo": 4,
          "Kind": 4
        },
        {
          "Start": 579,
          "End": 581,
          "Text": "{お父さんはどこですか？}",
          "Ruby": "おとうさん は どこ です か ？",
          "Lang": "ja",
          "ProblemNo": 5,
          "Kind": 1
        },
        {
          "Start": 581,
          "End": 585,
          "Text": "{父は買い物に行きました}",
          "Ruby": "ちち は かいもの に いき ました",
          "Lang": "ja",
          "ProblemNo": 5,
          "Kind": 1
        },
        {
          "Start": 585,
          "End": 587,
          "Text": "{散歩に出かけました}",
          "Ruby": "さんぽ に でかけ ました",
          "Lang": "ja",
          "ProblemNo": 5,
          "Kind": 2
        },
        {
          "Start": 587,
          "End": 590,
          "Text": "{お父さんはどこですか？}",
          "Ruby": "おとうさん は どこ です か ？",
          "Lang": "ja",
          "ProblemNo": 5,
          "Kind": 3
        },
        {
          "Start": 590,
          "End": 595,
          "Text": "{父は散歩に出かけました}",
          "Ruby": "ちち は さんぽ に でかけ ました",
          "Lang": "ja",
          "ProblemNo": 5,
          "Kind": 3
        },
        {
          "Start": 595,
          "End": 597,
          "Text": "{お父さんはどこですか？}",
          "Ruby": "おとうさん は どこ です か ？",
          "Lang": "ja",
          "ProblemNo": 5,
          "Kind": 4
        },
        {
          "Start": 597,
          "End": 603,
          "Text": "{父は散歩に出かけました}",
          "Ruby": "ちち は さんぽ に でかけ ました",
          "Lang": "ja",
          "ProblemNo": 5,
          "Kind": 4
        },
        {
          "Start": 603,
          "End": 605,
          "Text": "{お父さんはどこですか？}",
          "Ruby": "おとうさん は どこ です か ？",
          "Lang": "ja",
          "ProblemNo": 6,
          "Kind": 1
        },
        {
          "Start": 605,
          "End": 609,
          "Text": "{父は散歩に出かけました}",
          "Ruby": "ちち は さんぽ に でかけ ました",
          "Lang": "ja",
          "ProblemNo": 6,
          "Kind": 1
        },
        {
          "Start": 609,
          "End": 611,
          "Text": "{買い物です}",
          "Ruby": "かいもの です",
          "Lang": "ja",
          "ProblemNo": 6,
          "Kind": 2
        },
        {
          "Start": 611,
          "End": 614,
          "Text": "{お父さんはどこですか？}",
          "Ruby": "おとうさん は どこ です か ？",
          "Lang": "ja",
          "ProblemNo": 6,
          "Kind": 3
        },
        {
          "Start": 614,
          "End": 618,
          "Text": "{父は買い物です}",
          "Ruby": "ちち は かいもの です",
          "Lang": "ja",
          "ProblemNo": 6,
          "Kind": 3
        },
        {
          "Start": 618,
          "End": 620,
          "Text": "{お父さんはどこですか？}",
          "Ruby": "おとうさん は どこ です か ？",
          "Lang": "ja",
          "ProblemNo": 6,
          "Kind": 4
        },
        {
          "Start": 620,
          "End": 625,
          "Text": "{父は買い物です}",
          "Ruby": "ちち は かいもの です",
          "Lang": "ja",
          "ProblemNo": 6,
          "Kind": 4
        },
        {
          "Start": 625,
          "End": 627,
          "Text": "{お父さんはどこですか？}",
          "Ruby": "おとうさん は どこ です か ？",
          "Lang": "ja",
          "ProblemNo": 7,
          "Kind": 1
        },
        {
          "Start": 627,
          "End": 630,
          "Text": "{父は買い物です}",
          "Ruby": "ちち は かいもの です",
          "Lang": "ja",
          "ProblemNo": 7,
          "Kind": 1
        },
        {
          "Start": 630,
          "End": 632,
          "Text": "{散歩です}",
          "Ruby": "さんぽ です",
          "Lang": "ja",
          "ProblemNo": 7,
          "Kind": 2
        },
        {
          "Start": 632,
          "End": 635,
          "Text": "{お父さんはどこですか？}",
          "Ruby": "おとうさん は どこ です か ？",
          "Lang": "ja",
          "ProblemNo": 7,
          "Kind": 3
        },
        {
          "Start": 635,
          "End": 639,
          "Text": "{父は散歩です}",
          "Ruby": "ちち は さんぽ です",
          "Lang": "ja",
          "ProblemNo": 7,
          "Kind": 3
        },
        {
          "Start": 639,
          "End": 641,
          "Text": "{お父さんはどこですか？}",
          "Ruby": "おとうさん は どこ です か ？",
          "Lang": "ja",
          "ProblemNo": 7,
          "Kind": 4
        },
        {
          "Start": 641,
          "End": 646,
          "Text": "{父は散歩です}",
          "Ruby": "ちち は さんぽ です",
          "Lang": "ja",
          "ProblemNo": 7,
          "Kind": 4
        },
        {
          "Start": 646,
          "End": 648,
          "Text": "{お父さんはどこですか？}",
          "Ruby": "おとうさん は どこ です か ？",
          "Lang": "ja",
          "ProblemNo": 8,
          "Kind": 1
        },
        {
          "Start": 648,
          "End": 651,
          "Text": "{父は散歩です}",
          "Ruby": "ちち は さんぽ です",
          "Lang": "ja",
          "ProblemNo": 8,
          "Kind": 1
        },
        {
          "Start": 651,
          "End": 653,
          "Text": "{公園に行きました}",
          "Ruby": "こうえん に いき ました",
          "Lang": "ja",
          "ProblemNo": 8,
          "Kind": 2
        },
        {
          "Start": 653,
          "End": 656,
          "Text": "{お父さんはどこですか？}",
          "Ruby": "おとうさん は どこ です か ？",
          "Lang": "ja",
          "ProblemNo": 8,
          "Kind": 3
        },
        {
          "Start": 656,
          "End": 661,
          "Text": "{父は公園に行きました}",
          "Ruby": "ちち は こうえん に いき ました",
          "Lang": "ja",
          "ProblemNo": 8,
          "Kind": 3
        },
        {
          "Start": 661,
          "End": 663,
          "Text": "{お父さんはどこですか？}",
          "Ruby": "おとうさん は どこ です か ？",
          "Lang": "ja",
          "ProblemNo": 8,
          "Kind": 4
        },
        {
          "Start": 663,
          "End": 669,
          "Text": "{父は公園に行きました}",
          "Ruby": "ちち は こうえん に いき ました",
          "Lang": "ja",
          "ProblemNo": 8,
          "Kind": 4
        },
        {
          "Start": 669,
          "End": 671,
          "Text": "{お父さんはどこですか？}",
          "Ruby": "おとうさん は どこ です か ？",
          "Lang": "ja",
          "ProblemNo": 9,
          "Kind": 1
        },
        {
          "Start": 671,
          "End": 675,
          "Text": "{父は公園に行きました}",
          "Ruby": "ちち は こうえん に いき ました",
          "Lang": "ja",
          "ProblemNo": 9,
          "Kind": 1
        },
        {
          "Start": 675,
          "End": 677,
          "Text": "{公園です}",
          "Ruby": "こうえん です",
          "Lang": "ja",
          "ProblemNo": 9,
          "Kind": 2
        },
        {
          "Start": 677,
          "End": 680,
          "Text": "{お父さんはどこですか？}",
          "Ruby": "おとうさん は どこ です か ？",
          "Lang": "ja",
          "ProblemNo": 9,
          "Kind": 3
        },
        {
          "Start": 680,
          "End": 684,
          "Text": "{父は公園です}",
          "Ruby": "ちち は こうえん です",
          "Lang": "ja",
          "ProblemNo": 9,
          "Kind": 3
        },
        {
          "Start": 684,
          "End": 686,
          "Text": "{お父さんはどこですか？}",
          "Ruby": "おとうさん は どこ です か ？",
          "Lang": "ja",
          "ProblemNo": 9,
          "Kind": 4
        },
        {
          "Start": 686,
          "End": 691,
          "Text": "{父は公園です}",
          "Ruby": "ちち は こうえん です",
          "Lang": "ja",
          "ProblemNo": 9,
          "Kind": 4
        },
        {
          "Start": 691,
          "End": 694,
          "Text": "",
          "Ruby": "",
          "Lang": "",
          "ProblemNo": 0,
          "Kind": 5
        },
        {
          "Start": 694,
          "End": 714,
          "Text": "{Please subscribe!}",
          "Ruby": "",
          "Lang": "en",
          "ProblemNo": 0,
          "Kind": 7
        }
      ]
    }
  ],
  "CannotChange": true
}