{
  "Name": "grammar-ja-tk",
  "ID": "PLfI6UBkxvOTmdB2QWx-eZ5NJM02of5IxU",
  "DefaultLang": "sw",
  "Title": "Ongea Kijapani! Mazoezi ya sarufi ya kimsingi",
  "Description": "Jifunze sarufi ya Kijapani! Badilisha neno kwa sentensi!",
  "Localizations": null,
  "PlaylistTags": "Kijapani sarufi,Yaponiya grammatika,Japonski slovnica,Японская граматыка,Японская грамматика,جاپانی گرائمر,জাপানি ব্যাকরণ,ജാപ്പനീസ് വ്യാകരണവും,የጃፓን ሰዋሰው,Japanese grammatika,Anarana fitsipi-pitenenana,Japanese sebōpeho-puo,Gramadeg Siapan,Japanese grammatika,Tae Kim's Guide to Learning Japanese",
  "Updated": true,
  "PlaylistItems": [
    {
      "ID": "UExmSTZVQmt4dk9UbWRCMlFXeC1lWjVOSk0wMm9mNUl4VS41NkI0NEY2RDEwNTU3Q0M2",
      "VideoID": "sXgGA9RfRHg",
      "VideoFile": "grammar-ja-tk_1_A.mp4"
    },
    {
      "ID": "UExmSTZVQmt4dk9UbWRCMlFXeC1lWjVOSk0wMm9mNUl4VS4yODlGNEE0NkRGMEEzMEQy",
      "VideoID": "epFFOS9oyb4",
      "VideoFile": "grammar-ja-tk_2_A.mp4"
    },
    {
      "ID": "UExmSTZVQmt4dk9UbWRCMlFXeC1lWjVOSk0wMm9mNUl4VS4wMTcyMDhGQUE4NTIzM0Y5",
      "VideoID": "KEh4iTJhHPo",
      "VideoFile": "grammar-ja-tk_3_A.mp4"
    },
    {
      "ID": "UExmSTZVQmt4dk9UbWRCMlFXeC1lWjVOSk0wMm9mNUl4VS41MjE1MkI0OTQ2QzJGNzNG",
      "VideoID": "6WbVWq9LiWA",
      "VideoFile": "grammar-ja-tk_4_A.mp4"
    },
    {
      "ID": "UExmSTZVQmt4dk9UbWRCMlFXeC1lWjVOSk0wMm9mNUl4VS4wOTA3OTZBNzVEMTUzOTMy",
      "VideoID": "CxL9wGXe3y8",
      "VideoFile": "grammar-ja-tk_5_A.mp4"
    },
    {
      "ID": "UExmSTZVQmt4dk9UbWRCMlFXeC1lWjVOSk0wMm9mNUl4VS4xMkVGQjNCMUM1N0RFNEUx",
      "VideoID": "A8WooRtMQnA",
      "VideoFile": "grammar-ja-tk_6_A.mp4"
    },
    {
      "ID": "UExmSTZVQmt4dk9UbWRCMlFXeC1lWjVOSk0wMm9mNUl4VS41MzJCQjBCNDIyRkJDN0VD",
      "VideoID": "zrHm1G1B87E",
      "VideoFile": "grammar-ja-tk_7_A.mp4"
    },
    {
      "ID": "UExmSTZVQmt4dk9UbWRCMlFXeC1lWjVOSk0wMm9mNUl4VS5DQUNERDQ2NkIzRUQxNTY1",
      "VideoID": "sElG9RQre-U",
      "VideoFile": "grammar-ja-tk_8_A.mp4"
    },
    {
      "ID": "UExmSTZVQmt4dk9UbWRCMlFXeC1lWjVOSk0wMm9mNUl4VS45NDk1REZENzhEMzU5MDQz",
      "VideoID": "QzjVVbGg2Cw",
      "VideoFile": "grammar-ja-tk_9_A.mp4"
    },
    {
      "ID": "UExmSTZVQmt4dk9UbWRCMlFXeC1lWjVOSk0wMm9mNUl4VS5GNjNDRDREMDQxOThCMDQ2",
      "VideoID": "9aklYjJ0XIk",
      "VideoFile": "grammar-ja-tk_10_A.mp4"
    },
    {
      "ID": "UExmSTZVQmt4dk9UbWRCMlFXeC1lWjVOSk0wMm9mNUl4VS40NzZCMERDMjVEN0RFRThB",
      "VideoID": "Vhv92w9ocQY",
      "VideoFile": "grammar-ja-tk_11_A.mp4"
    },
    {
      "ID": "UExmSTZVQmt4dk9UbWRCMlFXeC1lWjVOSk0wMm9mNUl4VS5EMEEwRUY5M0RDRTU3NDJC",
      "VideoID": "o5eAUYqebIo",
      "VideoFile": "grammar-ja-tk_12_A.mp4"
    },
    {
      "ID": "UExmSTZVQmt4dk9UbWRCMlFXeC1lWjVOSk0wMm9mNUl4VS45ODRDNTg0QjA4NkFBNkQy",
      "VideoID": "RYBDp9_CUFQ",
      "VideoFile": "grammar-ja-tk_13_A.mp4"
    },
    {
      "ID": "UExmSTZVQmt4dk9UbWRCMlFXeC1lWjVOSk0wMm9mNUl4VS4zMDg5MkQ5MEVDMEM1NTg2",
      "VideoID": "WiwnbhRFuRk",
      "VideoFile": "grammar-ja-tk_14_A.mp4"
    },
    {
      "ID": "UExmSTZVQmt4dk9UbWRCMlFXeC1lWjVOSk0wMm9mNUl4VS41Mzk2QTAxMTkzNDk4MDhF",
      "VideoID": "3Shc3OE-88w",
      "VideoFile": "grammar-ja-tk_15_A.mp4"
    },
    {
      "ID": "UExmSTZVQmt4dk9UbWRCMlFXeC1lWjVOSk0wMm9mNUl4VS5EQUE1NTFDRjcwMDg0NEMz",
      "VideoID": "WYKgJpF-0R4",
      "VideoFile": "grammar-ja-tk_16_A.mp4"
    },
    {
      "ID": "UExmSTZVQmt4dk9UbWRCMlFXeC1lWjVOSk0wMm9mNUl4VS41QTY1Q0UxMTVCODczNThE",
      "VideoID": "RYXMbfrz_BA",
      "VideoFile": "grammar-ja-tk_17_A.mp4"
    },
    {
      "ID": "UExmSTZVQmt4dk9UbWRCMlFXeC1lWjVOSk0wMm9mNUl4VS4yMUQyQTQzMjRDNzMyQTMy",
      "VideoID": "xVhP7SUyng0",
      "VideoFile": "grammar-ja-tk_18_A.mp4"
    },
    {
      "ID": "UExmSTZVQmt4dk9UbWRCMlFXeC1lWjVOSk0wMm9mNUl4VS45RTgxNDRBMzUwRjQ0MDhC",
      "VideoID": "poblpWDxqpI",
      "VideoFile": "grammar-ja-tk_19_A.mp4"
    },
    {
      "ID": "UExmSTZVQmt4dk9UbWRCMlFXeC1lWjVOSk0wMm9mNUl4VS5ENDU4Q0M4RDExNzM1Mjcy",
      "VideoID": "bX01V_DQUcU",
      "VideoFile": "grammar-ja-tk_20_A.mp4"
    },
    {
      "ID": "UExmSTZVQmt4dk9UbWRCMlFXeC1lWjVOSk0wMm9mNUl4VS4yMDhBMkNBNjRDMjQxQTg1",
      "VideoID": "7y8Zn7Km2Rk",
      "VideoFile": "grammar-ja-tk_21_A.mp4"
    },
    {
      "ID": "UExmSTZVQmt4dk9UbWRCMlFXeC1lWjVOSk0wMm9mNUl4VS5GM0Q3M0MzMzY5NTJFNTdE",
      "VideoID": "nG4fHKg8BdA",
      "VideoFile": "grammar-ja-tk_22_A.mp4"
    },
    {
      "ID": "UExmSTZVQmt4dk9UbWRCMlFXeC1lWjVOSk0wMm9mNUl4VS4zRjM0MkVCRTg0MkYyQTM0",
      "VideoID": "vqliOZn9I78",
      "VideoFile": "grammar-ja-tk_23_A.mp4"
    },
    {
      "ID": "UExmSTZVQmt4dk9UbWRCMlFXeC1lWjVOSk0wMm9mNUl4VS45NzUwQkI1M0UxNThBMkU0",
      "VideoID": "d02TFdkW58o",
      "VideoFile": "grammar-ja-tk_24_A.mp4"
    },
    {
      "ID": "UExmSTZVQmt4dk9UbWRCMlFXeC1lWjVOSk0wMm9mNUl4VS5DNzE1RjZEMUZCMjA0RDBB",
      "VideoID": "0zJSAoohCUo",
      "VideoFile": "grammar-ja-tk_25_A.mp4"
    },
    {
      "ID": "UExmSTZVQmt4dk9UbWRCMlFXeC1lWjVOSk0wMm9mNUl4VS43MTI1NDIwOTMwQjIxMzNG",
      "VideoID": "VmB91YWjyK0",
      "VideoFile": "grammar-ja-tk_26_A.mp4"
    },
    {
      "ID": "UExmSTZVQmt4dk9UbWRCMlFXeC1lWjVOSk0wMm9mNUl4VS5DQ0MyQ0Y4Mzg0M0VGOEYw",
      "VideoID": "pKRUtWEbxjI",
      "VideoFile": "grammar-ja-tk_27_A.mp4"
    },
    {
      "ID": "UExmSTZVQmt4dk9UbWRCMlFXeC1lWjVOSk0wMm9mNUl4VS4yQUE2Q0JEMTk4NTM3RTZC",
      "VideoID": "A2yaPOxlshc",
      "VideoFile": "grammar-ja-tk_28_A.mp4"
    },
    {
      "ID": "UExmSTZVQmt4dk9UbWRCMlFXeC1lWjVOSk0wMm9mNUl4VS5DMkU4NTY1QUFGQTYwMDE3",
      "VideoID": "eH1fR9Xmh3o",
      "VideoFile": "grammar-ja-tk_29_A.mp4"
    },
    {
      "ID": "UExmSTZVQmt4dk9UbWRCMlFXeC1lWjVOSk0wMm9mNUl4VS44Mjc5REFBRUE2MTdFRDU0",
      "VideoID": "MzLj3bDvP04",
      "VideoFile": "grammar-ja-tk_30_A.mp4"
    },
    {
      "ID": "UExmSTZVQmt4dk9UbWRCMlFXeC1lWjVOSk0wMm9mNUl4VS43NDhFRTgwOTRERTU4Rjg3",
      "VideoID": "oNP9zT86L-0",
      "VideoFile": "grammar-ja-tk_31_A.mp4"
    },
    {
      "ID": "UExmSTZVQmt4dk9UbWRCMlFXeC1lWjVOSk0wMm9mNUl4VS41QUZGQTY5OTE4QTREQUU4",
      "VideoID": "HelHsIJciGc",
      "VideoFile": "grammar-ja-tk_32_A.mp4"
    },
    {
      "ID": "UExmSTZVQmt4dk9UbWRCMlFXeC1lWjVOSk0wMm9mNUl4VS4zRDBDOEZDOUM0MDY5NEEz",
      "VideoID": "2wk0O4-ZOfs",
      "VideoFile": "grammar-ja-tk_33_A.mp4"
    },
    {
      "ID": "UExmSTZVQmt4dk9UbWRCMlFXeC1lWjVOSk0wMm9mNUl4VS5CMEQ2Mjk5NTc3NDZFRUNB",
      "VideoID": "WZmlYmJQ7ic",
      "VideoFile": "grammar-ja-tk_34_A.mp4"
    },
    {
      "ID": "UExmSTZVQmt4dk9UbWRCMlFXeC1lWjVOSk0wMm9mNUl4VS42MTI4Njc2QjM1RjU1MjlG",
      "VideoID": "PLdmpmgStn8",
      "VideoFile": "grammar-ja-tk_35_A.mp4"
    },
    {
      "ID": "UExmSTZVQmt4dk9UbWRCMlFXeC1lWjVOSk0wMm9mNUl4VS45RjNFMDhGQ0Q2RkFCQTc1",
      "VideoID": "-xuFxGGTn9M",
      "VideoFile": "grammar-ja-tk_36_A.mp4"
    },
    {
      "ID": "UExmSTZVQmt4dk9UbWRCMlFXeC1lWjVOSk0wMm9mNUl4VS40QTA3NTU2RkM1QzlCMzYx",
      "VideoID": "mgEv3yQ0yPc",
      "VideoFile": "grammar-ja-tk_37_A.mp4"
    },
    {
      "ID": "UExmSTZVQmt4dk9UbWRCMlFXeC1lWjVOSk0wMm9mNUl4VS5BRjJDODk5REM0NjkzMUIy",
      "VideoID": "vq0ojzY62pk",
      "VideoFile": "grammar-ja-tk_38_A.mp4"
    },
    {
      "ID": "UExmSTZVQmt4dk9UbWRCMlFXeC1lWjVOSk0wMm9mNUl4VS4xOTEzQzhBQzU3MDNDNjcz",
      "VideoID": "3KT5YWDGK3w",
      "VideoFile": "grammar-ja-tk_39_A.mp4"
    },
    {
      "ID": "UExmSTZVQmt4dk9UbWRCMlFXeC1lWjVOSk0wMm9mNUl4VS5GNDg1Njc1QzZERjlFRjE5",
      "VideoID": "9C2Zs6CYssI",
      "VideoFile": "grammar-ja-tk_40_A.mp4"
    },
    {
      "ID": "UExmSTZVQmt4dk9UbWRCMlFXeC1lWjVOSk0wMm9mNUl4VS4zQzFBN0RGNzNFREFCMjBE",
      "VideoID": "rC-bqifFJL0",
      "VideoFile": "grammar-ja-tk_41_A.mp4"
    },
    {
      "ID": "UExmSTZVQmt4dk9UbWRCMlFXeC1lWjVOSk0wMm9mNUl4VS45NkVENTkxRDdCQUFBMDY4",
      "VideoID": "9D1OE9sFTpw",
      "VideoFile": "grammar-ja-tk_42_A.mp4"
    },
    {
      "ID": "UExmSTZVQmt4dk9UbWRCMlFXeC1lWjVOSk0wMm9mNUl4VS5DNkMwRUI2MkI4QkI4NDFG",
      "VideoID": "5cdwcM2FnWs",
      "VideoFile": "grammar-ja-tk_43_A.mp4"
    },
    {
      "ID": "UExmSTZVQmt4dk9UbWRCMlFXeC1lWjVOSk0wMm9mNUl4VS5DRUQwODMxQzUyRTlGRkY3",
      "VideoID": "U3eRcfKijPs",
      "VideoFile": "grammar-ja-tk_44_A.mp4"
    },
    {
      "ID": "UExmSTZVQmt4dk9UbWRCMlFXeC1lWjVOSk0wMm9mNUl4VS41MzY4MzcwOUFFRUU3QzEx",
      "VideoID": "AT8iUFf-FLY",
      "VideoFile": "grammar-ja-tk_45_A.mp4"
    },
    {
      "ID": "UExmSTZVQmt4dk9UbWRCMlFXeC1lWjVOSk0wMm9mNUl4VS4yQjZFRkExQjFGODk3RUFD",
      "VideoID": "1uuZhGVqZNQ",
      "VideoFile": "grammar-ja-tk_46_A.mp4"
    },
    {
      "ID": "UExmSTZVQmt4dk9UbWRCMlFXeC1lWjVOSk0wMm9mNUl4VS4yQUJFNUVCMzVDNjcxRTlF",
      "VideoID": "dMZ1bZMQ99A",
      "VideoFile": "grammar-ja-tk_47_A.mp4"
    },
    {
      "ID": "UExmSTZVQmt4dk9UbWRCMlFXeC1lWjVOSk0wMm9mNUl4VS40QzRDOEU0QUYwNUIxN0M1",
      "VideoID": "KnwQQ3Tewco",
      "VideoFile": "grammar-ja-tk_48_A.mp4"
    },
    {
      "ID": "UExmSTZVQmt4dk9UbWRCMlFXeC1lWjVOSk0wMm9mNUl4VS41RTNBREYwMkI5QzU3RkY2",
      "VideoID": "jyg9DnFq_hc",
      "VideoFile": "grammar-ja-tk_49_A.mp4"
    },
    {
      "ID": "UExmSTZVQmt4dk9UbWRCMlFXeC1lWjVOSk0wMm9mNUl4VS5ENjI1QUI0MDI5NEQzODFE",
      "VideoID": "7knEJ-tcb3M",
      "VideoFile": "grammar-ja-tk_50_A.mp4"
    },
    {
      "ID": "UExmSTZVQmt4dk9UbWRCMlFXeC1lWjVOSk0wMm9mNUl4VS44QzVGQUU2QjE2NDgxM0M4",
      "VideoID": "Enp9K8TU5wg",
      "VideoFile": "grammar-ja-tk_51_A.mp4"
    },
    {
      "ID": "UExmSTZVQmt4dk9UbWRCMlFXeC1lWjVOSk0wMm9mNUl4VS4xMzgwMzBERjQ4NjEzNUE5",
      "VideoID": "2OXwwranHTM",
      "VideoFile": "grammar-ja-tk_52_A.mp4"
    },
    {
      "ID": "UExmSTZVQmt4dk9UbWRCMlFXeC1lWjVOSk0wMm9mNUl4VS4zMEQ1MEIyRTFGNzhDQzFB",
      "VideoID": "Ehylasb3XF8",
      "VideoFile": "grammar-ja-tk_53_A.mp4"
    },
    {
      "ID": "UExmSTZVQmt4dk9UbWRCMlFXeC1lWjVOSk0wMm9mNUl4VS42Qzk5MkEzQjVFQjYwRDA4",
      "VideoID": "tnJIk_7wtps",
      "VideoFile": "grammar-ja-tk_54_A.mp4"
    },
    {
      "ID": "UExmSTZVQmt4dk9UbWRCMlFXeC1lWjVOSk0wMm9mNUl4VS41NTZEOThBNThFOUVGQkVB",
      "VideoID": "euoslQBGgNk",
      "VideoFile": "grammar-ja-tk_55_A.mp4"
    },
    {
      "ID": "UExmSTZVQmt4dk9UbWRCMlFXeC1lWjVOSk0wMm9mNUl4VS43NERCMDIzQzFBMERCMEE3",
      "VideoID": "4-Mfd0sIxbc",
      "VideoFile": "grammar-ja-tk_56_A.mp4"
    },
    {
      "ID": "UExmSTZVQmt4dk9UbWRCMlFXeC1lWjVOSk0wMm9mNUl4VS5GNjAwN0Y0QTFGOTVDMEMy",
      "VideoID": "gEflbbvLmFE",
      "VideoFile": "grammar-ja-tk_57_A.mp4"
    },
    {
      "ID": "UExmSTZVQmt4dk9UbWRCMlFXeC1lWjVOSk0wMm9mNUl4VS5CQkEwRDA0MDkwNUM2MDY1",
      "VideoID": "J3XlDtbEkTA",
      "VideoFile": "grammar-ja-tk_58_A.mp4"
    }
  ]
}