{
  "Name": "grammar-el-beginner",
  "ID": "PLfI6UBkxvOTl6zIxsaDBo2Znt03sB6ikJ",
  "DefaultLang": "id",
  "Title": "Latihan tata bahasa Yunani ⭐️ Latihan tata bahasa",
  "Description": "Berbahasa Yunani!",
  "Localizations": null,
  "PlaylistTags": "Tata bahasa Yunani,Yunani,Tatabahasa",
  "Updated": true,
  "PlaylistItems": [
    {
      "ID": "UExmSTZVQmt4dk9UbDZ6SXhzYURCbzJabnQwM3NCNmlrSi41NkI0NEY2RDEwNTU3Q0M2",
      "VideoID": "IanNcBQKABI",
      "VideoFile": "grammar-el-beginner_1_A.mp4"
    }
  ]
}