{
  "Name": "grammar-el-beginner",
  "ID": "PLfI6UBkxvOTmsnfiKzLH1_ec1YWQ425eQ",
  "DefaultLang": "te",
  "Title": "గ్రీకు వ్యాకరణ వ్యాయామాలు ⭐️ వ్యాకరణ వ్యాయామాలు",
  "Description": "గ్రీకు మాట్లాడండి!",
  "Localizations": null,
  "PlaylistTags": "గ్రీకు వ్యాకరణం,గ్రీకు,గ్రామర్",
  "Updated": true,
  "PlaylistItems": [
    {
      "ID": "UExmSTZVQmt4dk9UbXNuZmlLekxIMV9lYzFZV1E0MjVlUS41NkI0NEY2RDEwNTU3Q0M2",
      "VideoID": "IanNcBQKABI",
      "VideoFile": "grammar-el-beginner_1_A.mp4"
    }
  ]
}