{
  "Name": "grammar-el-beginner",
  "ID": "PLfI6UBkxvOTkY1-cPmW7ozG8En21fEHmI",
  "DefaultLang": "az",
  "Title": "Yunan qrammatikası təlimləri ⭐️ Qrammatika təlimləri",
  "Description": "Yunan dilində danışın!",
  "Localizations": null,
  "PlaylistTags": "Yunan qrammatikası,Yunan,Qrammatika",
  "Updated": true,
  "PlaylistItems": [
    {
      "ID": "UExmSTZVQmt4dk9Ua1kxLWNQbVc3b3pHOEVuMjFmRUhtSS41NkI0NEY2RDEwNTU3Q0M2",
      "VideoID": "IanNcBQKABI",
      "VideoFile": "grammar-el-beginner_1_A.mp4"
    }
  ]
}