{
  "Name": "grammar-el-beginner",
  "ID": "PLfI6UBkxvOTlfownVDKMu5PD40OR7Ud56",
  "DefaultLang": "el",
  "Title": "Greek grammar exercises ⭐️ Ασκήσεις γραμματικής",
  "Description": "Speak Greek!",
  "Localizations": null,
  "PlaylistTags": "Greek grammar,Greek,Γραμματική",
  "Updated": true,
  "PlaylistItems": [
    {
      "ID": "UExmSTZVQmt4dk9UbGZvd25WREtNdTVQRDQwT1I3VWQ1Ni41NkI0NEY2RDEwNTU3Q0M2",
      "VideoID": "IanNcBQKABI",
      "VideoFile": "grammar-el-beginner_1_A.mp4"
    }
  ]
}