{
  "Name": "grammar-el-beginner",
  "ID": "PLfI6UBkxvOTkBN3FlCe1ImYH-SvZPUNwy",
  "DefaultLang": "sq",
  "Title": "Ushtrime gramatikore Greke ⭐️ Ushtrime gramatikore",
  "Description": "Flisni greqisht!",
  "Localizations": null,
  "PlaylistTags": "Gramatika greke,grek,gramatikë",
  "Updated": true,
  "PlaylistItems": [
    {
      "ID": "UExmSTZVQmt4dk9Ua0JOM0ZsQ2UxSW1ZSC1TdlpQVU53eS41NkI0NEY2RDEwNTU3Q0M2",
      "VideoID": "IanNcBQKABI",
      "VideoFile": "grammar-el-beginner_1_A.mp4"
    }
  ]
}