{
  "Name": "grammar-el-beginner",
  "ID": "PLfI6UBkxvOTm4UvfKDN2PezRhi58lroeW",
  "DefaultLang": "th",
  "Title": "แบบฝึกหัดไวยากรณ์กรีก ⭐️ แบบฝึกหัดไวยากรณ์",
  "Description": "พูดภาษากรีก!",
  "Localizations": null,
  "PlaylistTags": "ไวยากรณ์ภาษากรีก,กรีก,ไวยากรณ์",
  "Updated": true,
  "PlaylistItems": [
    {
      "ID": "UExmSTZVQmt4dk9UbTRVdmZLRE4yUGV6UmhpNThscm9lVy41NkI0NEY2RDEwNTU3Q0M2",
      "VideoID": "IanNcBQKABI",
      "VideoFile": "grammar-el-beginner_1_A.mp4"
    }
  ]
}