{
  "SerieName": "grammar-ja-a",
  "No": 23,
  "VideoTitle": "なぜ",
  "ThumbnailTitle": "",
  "YoutubeDescription": "",
  "YoutubeTitle": "",
  "Boxes": [
    {
      "Pos": 0,
      "PersonName": "y",
      "Candidates": [
        {
          "Word": "彼は",
          "Root": "",
          "FeatureSet": null,
          "Conditions": null,
          "PersonConditions": null
        }
      ]
    },
    {
      "Pos": 1,
      "PersonName": "y",
      "Candidates": [
        {
          "Word": "なぜ",
          "Root": "",
          "FeatureSet": null,
          "Conditions": null,
          "PersonConditions": null
        },
        {
          "Word": "どうして",
          "Root": "",
          "FeatureSet": null,
          "Conditions": null,
          "PersonConditions": null
        }
      ]
    },
    {
      "Pos": 2,
      "PersonName": "y",
      "Candidates": [
        {
          "Word": "成功した",
          "Root": "",
          "FeatureSet": null,
          "Conditions": null,
          "PersonConditions": null
        },
        {
          "Word": "失敗した",
          "Root": "",
          "FeatureSet": null,
          "Conditions": null,
          "PersonConditions": null
        },
        {
          "Word": "努力した",
          "Root": "",
          "FeatureSet": null,
          "Conditions": null,
          "PersonConditions": null
        },
        {
          "Word": "病気になった",
          "Root": "",
          "FeatureSet": null,
          "Conditions": null,
          "PersonConditions": null
        },
        {
          "Word": "元気になった",
          "Root": "",
          "FeatureSet": null,
          "Conditions": null,
          "PersonConditions": null
        },
        {
          "Word": "成長できた",
          "Root": "",
          "FeatureSet": null,
          "Conditions": null,
          "PersonConditions": null
        }
      ]
    },
    {
      "Pos": 3,
      "PersonName": "y",
      "Candidates": [
        {
          "Word": "のでしょうか？",
          "Root": "",
          "FeatureSet": null,
          "Conditions": null,
          "PersonConditions": null
        }
      ]
    }
  ],
  "Pars": [
    {
      "Header": "",
      "Poses": [
        0,
        1,
        2,
        3
      ]
    }
  ],
  "Exercises": [
    {
      "Name": "A",
      "Problems": [
        {
          "ProblemNo": 0,
          "OriginalCandidates": [
            {
              "Word": "彼は",
              "Ruby": "かれ は"
            },
            {
              "Word": "どうして",
              "Ruby": "どうして"
            },
            {
              "Word": "成功した",
              "Ruby": "せいこう した"
            },
            {
              "Word": "のでしょうか？",
              "Ruby": "のでしょう か？"
            }
          ],
          "ChangeCandidatePos": 2,
          "ChangeCandidates": [
            {
              "Word": "",
              "Ruby": ""
            },
            {
              "Word": "",
              "Ruby": ""
            },
            {
              "Word": "元気になった",
              "Ruby": "げんきに なった"
            },
            {
              "Word": "",
              "Ruby": ""
            }
          ],
          "ChangeMorphemes": [
            {
              "Word": "",
              "Root": "",
              "FeatureSet": null
            },
            {
              "Word": "",
              "Root": "",
              "FeatureSet": null
            },
            {
              "Word": "元気になった",
              "Root": "",
              "FeatureSet": null
            },
            {
              "Word": "",
              "Root": "",
              "FeatureSet": null
            }
          ],
          "AnswerCandidates": [
            {
              "Word": "彼は",
              "Ruby": "かれ は"
            },
            {
              "Word": "どうして",
              "Ruby": "どうして"
            },
            {
              "Word": "元気になった",
              "Ruby": "げんきに なった"
            },
            {
              "Word": "のでしょうか？",
              "Ruby": "のでしょう か？"
            }
          ]
        },
        {
          "ProblemNo": 1,
          "OriginalCandidates": [
            {
              "Word": "彼は",
              "Ruby": "かれ は"
            },
            {
              "Word": "どうして",
              "Ruby": "どうして"
            },
            {
              "Word": "元気になった",
              "Ruby": "げんきに なった"
            },
            {
              "Word": "のでしょうか？",
              "Ruby": "のでしょう か？"
            }
          ],
          "ChangeCandidatePos": 2,
          "ChangeCandidates": [
            {
              "Word": "",
              "Ruby": ""
            },
            {
              "Word": "",
              "Ruby": ""
            },
            {
              "Word": "努力した",
              "Ruby": "どりょく した"
            },
            {
              "Word": "",
              "Ruby": ""
            }
          ],
          "ChangeMorphemes": [
            {
              "Word": "",
              "Root": "",
              "FeatureSet": null
            },
            {
              "Word": "",
              "Root": "",
              "FeatureSet": null
            },
            {
              "Word": "努力した",
              "Root": "",
              "FeatureSet": null
            },
            {
              "Word": "",
              "Root": "",
              "FeatureSet": null
            }
          ],
          "AnswerCandidates": [
            {
              "Word": "彼は",
              "Ruby": "かれ は"
            },
            {
              "Word": "どうして",
              "Ruby": "どうして"
            },
            {
              "Word": "努力した",
              "Ruby": "どりょく した"
            },
            {
              "Word": "のでしょうか？",
              "Ruby": "のでしょう か？"
            }
          ]
        },
        {
          "ProblemNo": 2,
          "OriginalCandidates": [
            {
              "Word": "彼は",
              "Ruby": "かれ は"
            },
            {
              "Word": "どうして",
              "Ruby": "どうして"
            },
            {
              "Word": "努力した",
              "Ruby": "どりょく した"
            },
            {
              "Word": "のでしょうか？",
              "Ruby": "のでしょう か？"
            }
          ],
          "ChangeCandidatePos": 2,
          "ChangeCandidates": [
            {
              "Word": "",
              "Ruby": ""
            },
            {
              "Word": "",
              "Ruby": ""
            },
            {
              "Word": "失敗した",
              "Ruby": "しっぱい した"
            },
            {
              "Word": "",
              "Ruby": ""
            }
          ],
          "ChangeMorphemes": [
            {
              "Word": "",
              "Root": "",
              "FeatureSet": null
            },
            {
              "Word": "",
              "Root": "",
              "FeatureSet": null
            },
            {
              "Word": "失敗した",
              "Root": "",
              "FeatureSet": null
            },
            {
              "Word": "",
              "Root": "",
              "FeatureSet": null
            }
          ],
          "AnswerCandidates": [
            {
              "Word": "彼は",
              "Ruby": "かれ は"
            },
            {
              "Word": "どうして",
              "Ruby": "どうして"
            },
            {
              "Word": "失敗した",
              "Ruby": "しっぱい した"
            },
            {
              "Word": "のでしょうか？",
              "Ruby": "のでしょう か？"
            }
          ]
        },
        {
          "ProblemNo": 3,
          "OriginalCandidates": [
            {
              "Word": "彼は",
              "Ruby": "かれ は"
            },
            {
              "Word": "どうして",
              "Ruby": "どうして"
            },
            {
              "Word": "失敗した",
              "Ruby": "しっぱい した"
            },
            {
              "Word": "のでしょうか？",
              "Ruby": "のでしょう か？"
            }
          ],
          "ChangeCandidatePos": 1,
          "ChangeCandidates": [
            {
              "Word": "",
              "Ruby": ""
            },
            {
              "Word": "なぜ",
              "Ruby": "なぜ"
            },
            {
              "Word": "",
              "Ruby": ""
            },
            {
              "Word": "",
              "Ruby": ""
            }
          ],
          "ChangeMorphemes": [
            {
              "Word": "",
              "Root": "",
              "FeatureSet": null
            },
            {
              "Word": "なぜ",
              "Root": "",
              "FeatureSet": null
            },
            {
              "Word": "",
              "Root": "",
              "FeatureSet": null
            },
            {
              "Word": "",
              "Root": "",
              "FeatureSet": null
            }
          ],
          "AnswerCandidates": [
            {
              "Word": "彼は",
              "Ruby": "かれ は"
            },
            {
              "Word": "なぜ",
              "Ruby": "なぜ"
            },
            {
              "Word": "失敗した",
              "Ruby": "しっぱい した"
            },
            {
              "Word": "のでしょうか？",
              "Ruby": "のでしょう か？"
            }
          ]
        },
        {
          "ProblemNo": 4,
          "OriginalCandidates": [
            {
              "Word": "彼は",
              "Ruby": "かれ は"
            },
            {
              "Word": "なぜ",
              "Ruby": "なぜ"
            },
            {
              "Word": "失敗した",
              "Ruby": "しっぱい した"
            },
            {
              "Word": "のでしょうか？",
              "Ruby": "のでしょう か？"
            }
          ],
          "ChangeCandidatePos": 2,
          "ChangeCandidates": [
            {
              "Word": "",
              "Ruby": ""
            },
            {
              "Word": "",
              "Ruby": ""
            },
            {
              "Word": "努力した",
              "Ruby": "どりょく した"
            },
            {
              "Word": "",
              "Ruby": ""
            }
          ],
          "ChangeMorphemes": [
            {
              "Word": "",
              "Root": "",
              "FeatureSet": null
            },
            {
              "Word": "",
              "Root": "",
              "FeatureSet": null
            },
            {
              "Word": "努力した",
              "Root": "",
              "FeatureSet": null
            },
            {
              "Word": "",
              "Root": "",
              "FeatureSet": null
            }
          ],
          "AnswerCandidates": [
            {
              "Word": "彼は",
              "Ruby": "かれ は"
            },
            {
              "Word": "なぜ",
              "Ruby": "なぜ"
            },
            {
              "Word": "努力した",
              "Ruby": "どりょく した"
            },
            {
              "Word": "のでしょうか？",
              "Ruby": "のでしょう か？"
            }
          ]
        },
        {
          "ProblemNo": 5,
          "OriginalCandidates": [
            {
              "Word": "彼は",
              "Ruby": "かれ は"
            },
            {
              "Word": "なぜ",
              "Ruby": "なぜ"
            },
            {
              "Word": "努力した",
              "Ruby": "どりょく した"
            },
            {
              "Word": "のでしょうか？",
              "Ruby": "のでしょう か？"
            }
          ],
          "ChangeCandidatePos": 2,
          "ChangeCandidates": [
            {
              "Word": "",
              "Ruby": ""
            },
            {
              "Word": "",
              "Ruby": ""
            },
            {
              "Word": "成功した",
              "Ruby": "せいこう した"
            },
            {
              "Word": "",
              "Ruby": ""
            }
          ],
          "ChangeMorphemes": [
            {
              "Word": "",
              "Root": "",
              "FeatureSet": null
            },
            {
              "Word": "",
              "Root": "",
              "FeatureSet": null
            },
            {
              "Word": "成功した",
              "Root": "",
              "FeatureSet": null
            },
            {
              "Word": "",
              "Root": "",
              "FeatureSet": null
            }
          ],
          "AnswerCandidates": [
            {
              "Word": "彼は",
              "Ruby": "かれ は"
            },
            {
              "Word": "なぜ",
              "Ruby": "なぜ"
            },
            {
              "Word": "成功した",
              "Ruby": "せいこう した"
            },
            {
              "Word": "のでしょうか？",
              "Ruby": "のでしょう か？"
            }
          ]
        },
        {
          "ProblemNo": 6,
          "OriginalCandidates": [
            {
              "Word": "彼は",
              "Ruby": "かれ は"
            },
            {
              "Word": "なぜ",
              "Ruby": "なぜ"
            },
            {
              "Word": "成功した",
              "Ruby": "せいこう した"
            },
            {
              "Word": "のでしょうか？",
              "Ruby": "のでしょう か？"
            }
          ],
          "ChangeCandidatePos": 2,
          "ChangeCandidates": [
            {
              "Word": "",
              "Ruby": ""
            },
            {
              "Word": "",
              "Ruby": ""
            },
            {
              "Word": "元気になった",
              "Ruby": "げんきに なった"
            },
            {
              "Word": "",
              "Ruby": ""
            }
          ],
          "ChangeMorphemes": [
            {
              "Word": "",
              "Root": "",
              "FeatureSet": null
            },
            {
              "Word": "",
              "Root": "",
              "FeatureSet": null
            },
            {
              "Word": "元気になった",
              "Root": "",
              "FeatureSet": null
            },
            {
              "Word": "",
              "Root": "",
              "FeatureSet": null
            }
          ],
          "AnswerCandidates": [
            {
              "Word": "彼は",
              "Ruby": "かれ は"
            },
            {
              "Word": "なぜ",
              "Ruby": "なぜ"
            },
            {
              "Word": "元気になった",
              "Ruby": "げんきに なった"
            },
            {
              "Word": "のでしょうか？",
              "Ruby": "のでしょう か？"
            }
          ]
        },
        {
          "ProblemNo": 7,
          "OriginalCandidates": [
            {
              "Word": "彼は",
              "Ruby": "かれ は"
            },
            {
              "Word": "なぜ",
              "Ruby": "なぜ"
            },
            {
              "Word": "元気になった",
              "Ruby": "げんきに なった"
            },
            {
              "Word": "のでしょうか？",
              "Ruby": "のでしょう か？"
            }
          ],
          "ChangeCandidatePos": 2,
          "ChangeCandidates": [
            {
              "Word": "",
              "Ruby": ""
            },
            {
              "Word": "",
              "Ruby": ""
            },
            {
              "Word": "病気になった",
              "Ruby": "びょうき に なった"
            },
            {
              "Word": "",
              "Ruby": ""
            }
          ],
          "ChangeMorphemes": [
            {
              "Word": "",
              "Root": "",
              "FeatureSet": null
            },
            {
              "Word": "",
              "Root": "",
              "FeatureSet": null
            },
            {
              "Word": "病気になった",
              "Root": "",
              "FeatureSet": null
            },
            {
              "Word": "",
              "Root": "",
              "FeatureSet": null
            }
          ],
          "AnswerCandidates": [
            {
              "Word": "彼は",
              "Ruby": "かれ は"
            },
            {
              "Word": "なぜ",
              "Ruby": "なぜ"
            },
            {
              "Word": "病気になった",
              "Ruby": "びょうき に なった"
            },
            {
              "Word": "のでしょうか？",
              "Ruby": "のでしょう か？"
            }
          ]
        },
        {
          "ProblemNo": 8,
          "OriginalCandidates": [
            {
              "Word": "彼は",
              "Ruby": "かれ は"
            },
            {
              "Word": "なぜ",
              "Ruby": "なぜ"
            },
            {
              "Word": "病気になった",
              "Ruby": "びょうき に なった"
            },
            {
              "Word": "のでしょうか？",
              "Ruby": "のでしょう か？"
            }
          ],
          "ChangeCandidatePos": 1,
          "ChangeCandidates": [
            {
              "Word": "",
              "Ruby": ""
            },
            {
              "Word": "どうして",
              "Ruby": "どうして"
            },
            {
              "Word": "",
              "Ruby": ""
            },
            {
              "Word": "",
              "Ruby": ""
            }
          ],
          "ChangeMorphemes": [
            {
              "Word": "",
              "Root": "",
              "FeatureSet": null
            },
            {
              "Word": "どうして",
              "Root": "",
              "FeatureSet": null
            },
            {
              "Word": "",
              "Root": "",
              "FeatureSet": null
            },
            {
              "Word": "",
              "Root": "",
              "FeatureSet": null
            }
          ],
          "AnswerCandidates": [
            {
              "Word": "彼は",
              "Ruby": "かれ は"
            },
            {
              "Word": "どうして",
              "Ruby": "どうして"
            },
            {
              "Word": "病気になった",
              "Ruby": "びょうき に なった"
            },
            {
              "Word": "のでしょうか？",
              "Ruby": "のでしょう か？"
            }
          ]
        },
        {
          "ProblemNo": 9,
          "OriginalCandidates": [
            {
              "Word": "彼は",
              "Ruby": "かれ は"
            },
            {
              "Word": "どうして",
              "Ruby": "どうして"
            },
            {
              "Word": "病気になった",
              "Ruby": "びょうき に なった"
            },
            {
              "Word": "のでしょうか？",
              "Ruby": "のでしょう か？"
            }
          ],
          "ChangeCandidatePos": 2,
          "ChangeCandidates": [
            {
              "Word": "",
              "Ruby": ""
            },
            {
              "Word": "",
              "Ruby": ""
            },
            {
              "Word": "成長できた",
              "Ruby": "せいちょう できた"
            },
            {
              "Word": "",
              "Ruby": ""
            }
          ],
          "ChangeMorphemes": [
            {
              "Word": "",
              "Root": "",
              "FeatureSet": null
            },
            {
              "Word": "",
              "Root": "",
              "FeatureSet": null
            },
            {
              "Word": "成長できた",
              "Root": "",
              "FeatureSet": null
            },
            {
              "Word": "",
              "Root": "",
              "FeatureSet": null
            }
          ],
          "AnswerCandidates": [
            {
              "Word": "彼は",
              "Ruby": "かれ は"
            },
            {
              "Word": "どうして",
              "Ruby": "どうして"
            },
            {
              "Word": "成長できた",
              "Ruby": "せいちょう できた"
            },
            {
              "Word": "のでしょうか？",
              "Ruby": "のでしょう か？"
            }
          ]
        }
      ],
      "VideoFile": "grammar-ja-a_23_A.mp4",
      "AnimeticCaptions": [
        {
          "Start": 0,
          "End": 3,
          "Text": "{grammar-ja-a} #23 なぜ",
          "Ruby": "",
          "Lang": "",
          "ProblemNo": 0,
          "Kind": 0
        },
        {
          "Start": 3,
          "End": 7,
          "Text": "{彼はどうして成功したのでしょうか？}",
          "Ruby": "かれ は どうして せいこう した のでしょう か？",
          "Lang": "ja",
          "ProblemNo": 0,
          "Kind": 1
        },
        {
          "Start": 7,
          "End": 9,
          "Text": "{元気になった}",
          "Ruby": "げんきに なった",
          "Lang": "ja",
          "ProblemNo": 0,
          "Kind": 2
        },
        {
          "Start": 9,
          "End": 14,
          "Text": "{彼はどうして元気になったのでしょうか？}",
          "Ruby": "かれ は どうして げんきに なった のでしょう か？",
          "Lang": "ja",
          "ProblemNo": 0,
          "Kind": 3
        },
        {
          "Start": 14,
          "End": 20,
          "Text": "{彼はどうして元気になったのでしょうか？}",
          "Ruby": "かれ は どうして げんきに なった のでしょう か？",
          "Lang": "ja",
          "ProblemNo": 0,
          "Kind": 4
        },
        {
          "Start": 20,
          "End": 24,
          "Text": "{彼はどうして元気になったのでしょうか？}",
          "Ruby": "かれ は どうして げんきに なった のでしょう か？",
          "Lang": "ja",
          "ProblemNo": 1,
          "Kind": 1
        },
        {
          "Start": 24,
          "End": 26,
          "Text": "{努力した}",
          "Ruby": "どりょく した",
          "Lang": "ja",
          "ProblemNo": 1,
          "Kind": 2
        },
        {
          "Start": 26,
          "End": 31,
          "Text": "{彼はどうして努力したのでしょうか？}",
          "Ruby": "かれ は どうして どりょく した のでしょう か？",
          "Lang": "ja",
          "ProblemNo": 1,
          "Kind": 3
        },
        {
          "Start": 31,
          "End": 37,
          "Text": "{彼はどうして努力したのでしょうか？}",
          "Ruby": "かれ は どうして どりょく した のでしょう か？",
          "Lang": "ja",
          "ProblemNo": 1,
          "Kind": 4
        },
        {
          "Start": 37,
          "End": 41,
          "Text": "{彼はどうして努力したのでしょうか？}",
          "Ruby": "かれ は どうして どりょく した のでしょう か？",
          "Lang": "ja",
          "ProblemNo": 2,
          "Kind": 1
        },
        {
          "Start": 41,
          "End": 43,
          "Text": "{失敗した}",
          "Ruby": "しっぱい した",
          "Lang": "ja",
          "ProblemNo": 2,
          "Kind": 2
        },
        {
          "Start": 43,
          "End": 48,
          "Text": "{彼はどうして失敗したのでしょうか？}",
          "Ruby": "かれ は どうして しっぱい した のでしょう か？",
          "Lang": "ja",
          "ProblemNo": 2,
          "Kind": 3
        },
        {
          "Start": 48,
          "End": 54,
          "Text": "{彼はどうして失敗したのでしょうか？}",
          "Ruby": "かれ は どうして しっぱい した のでしょう か？",
          "Lang": "ja",
          "ProblemNo": 2,
          "Kind": 4
        },
        {
          "Start": 54,
          "End": 58,
          "Text": "{彼はどうして失敗したのでしょうか？}",
          "Ruby": "かれ は どうして しっぱい した のでしょう か？",
          "Lang": "ja",
          "ProblemNo": 3,
          "Kind": 1
        },
        {
          "Start": 58,
          "End": 59,
          "Text": "{なぜ}",
          "Ruby": "なぜ",
          "Lang": "ja",
          "ProblemNo": 3,
          "Kind": 2
        },
        {
          "Start": 59,
          "End": 64,
          "Text": "{彼はなぜ失敗したのでしょうか？}",
          "Ruby": "かれ は なぜ しっぱい した のでしょう か？",
          "Lang": "ja",
          "ProblemNo": 3,
          "Kind": 3
        },
        {
          "Start": 64,
          "End": 70,
          "Text": "{彼はなぜ失敗したのでしょうか？}",
          "Ruby": "かれ は なぜ しっぱい した のでしょう か？",
          "Lang": "ja",
          "ProblemNo": 3,
          "Kind": 4
        },
        {
          "Start": 70,
          "End": 74,
          "Text": "{彼はなぜ失敗したのでしょうか？}",
          "Ruby": "かれ は なぜ しっぱい した のでしょう か？",
          "Lang": "ja",
          "ProblemNo": 4,
          "Kind": 1
        },
        {
          "Start": 74,
          "End": 76,
          "Text": "{努力した}",
          "Ruby": "どりょく した",
          "Lang": "ja",
          "ProblemNo": 4,
          "Kind": 2
        },
        {
          "Start": 76,
          "End": 81,
          "Text": "{彼はなぜ努力したのでしょうか？}",
          "Ruby": "かれ は なぜ どりょく した のでしょう か？",
          "Lang": "ja",
          "ProblemNo": 4,
          "Kind": 3
        },
        {
          "Start": 81,
          "End": 87,
          "Text": "{彼はなぜ努力したのでしょうか？}",
          "Ruby": "かれ は なぜ どりょく した のでしょう か？",
          "Lang": "ja",
          "ProblemNo": 4,
          "Kind": 4
        },
        {
          "Start": 87,
          "End": 91,
          "Text": "{彼はなぜ努力したのでしょうか？}",
          "Ruby": "かれ は なぜ どりょく した のでしょう か？",
          "Lang": "ja",
          "ProblemNo": 5,
          "Kind": 1
        },
        {
          "Start": 91,
          "End": 93,
          "Text": "{成功した}",
          "Ruby": "せいこう した",
          "Lang": "ja",
          "ProblemNo": 5,
          "Kind": 2
        },
        {
          "Start": 93,
          "End": 98,
          "Text": "{彼はなぜ成功したのでしょうか？}",
          "Ruby": "かれ は なぜ せいこう した のでしょう か？",
          "Lang": "ja",
          "ProblemNo": 5,
          "Kind": 3
        },
        {
          "Start": 98,
          "End": 104,
          "Text": "{彼はなぜ成功したのでしょうか？}",
          "Ruby": "かれ は なぜ せいこう した のでしょう か？",
          "Lang": "ja",
          "ProblemNo": 5,
          "Kind": 4
        },
        {
          "Start": 104,
          "End": 108,
          "Text": "{彼はなぜ成功したのでしょうか？}",
          "Ruby": "かれ は なぜ せいこう した のでしょう か？",
          "Lang": "ja",
          "ProblemNo": 6,
          "Kind": 1
        },
        {
          "Start": 108,
          "End": 110,
          "Text": "{元気になった}",
          "Ruby": "げんきに なった",
          "Lang": "ja",
          "ProblemNo": 6,
          "Kind": 2
        },
        {
          "Start": 110,
          "End": 115,
          "Text": "{彼はなぜ元気になったのでしょうか？}",
          "Ruby": "かれ は なぜ げんきに なった のでしょう か？",
          "Lang": "ja",
          "ProblemNo": 6,
          "Kind": 3
        },
        {
          "Start": 115,
          "End": 121,
          "Text": "{彼はなぜ元気になったのでしょうか？}",
          "Ruby": "かれ は なぜ げんきに なった のでしょう か？",
          "Lang": "ja",
          "ProblemNo": 6,
          "Kind": 4
        },
        {
          "Start": 121,
          "End": 125,
          "Text": "{彼はなぜ元気になったのでしょうか？}",
          "Ruby": "かれ は なぜ げんきに なった のでしょう か？",
          "Lang": "ja",
          "ProblemNo": 7,
          "Kind": 1
        },
        {
          "Start": 125,
          "End": 127,
          "Text": "{病気になった}",
          "Ruby": "びょうき に なった",
          "Lang": "ja",
          "ProblemNo": 7,
          "Kind": 2
        },
        {
          "Start": 127,
          "End": 132,
          "Text": "{彼はなぜ病気になったのでしょうか？}",
          "Ruby": "かれ は なぜ びょうき に なった のでしょう か？",
          "Lang": "ja",
          "ProblemNo": 7,
          "Kind": 3
        },
        {
          "Start": 132,
          "End": 138,
          "Text": "{彼はなぜ病気になったのでしょうか？}",
          "Ruby": "かれ は なぜ びょうき に なった のでしょう か？",
          "Lang": "ja",
          "ProblemNo": 7,
          "Kind": 4
        },
        {
          "Start": 138,
          "End": 142,
          "Text": "{彼はなぜ病気になったのでしょうか？}",
          "Ruby": "かれ は なぜ びょうき に なった のでしょう か？",
          "Lang": "ja",
          "ProblemNo": 8,
          "Kind": 1
        },
        {
          "Start": 142,
          "End": 143,
          "Text": "{どうして}",
          "Ruby": "どうして",
          "Lang": "ja",
          "ProblemNo": 8,
          "Kind": 2
        },
        {
          "Start": 143,
          "End": 148,
          "Text": "{彼はどうして病気になったのでしょうか？}",
          "Ruby": "かれ は どうして びょうき に なった のでしょう か？",
          "Lang": "ja",
          "ProblemNo": 8,
          "Kind": 3
        },
        {
          "Start": 148,
          "End": 154,
          "Text": "{彼はどうして病気になったのでしょうか？}",
          "Ruby": "かれ は どうして びょうき に なった のでしょう か？",
          "Lang": "ja",
          "ProblemNo": 8,
          "Kind": 4
        },
        {
          "Start": 154,
          "End": 158,
          "Text": "{彼はどうして病気になったのでしょうか？}",
          "Ruby": "かれ は どうして びょうき に なった のでしょう か？",
          "Lang": "ja",
          "ProblemNo": 9,
          "Kind": 1
        },
        {
          "Start": 158,
          "End": 160,
          "Text": "{成長できた}",
          "Ruby": "せいちょう できた",
          "Lang": "ja",
          "ProblemNo": 9,
          "Kind": 2
        },
        {
          "Start": 160,
          "End": 165,
          "Text": "{彼はどうして成長できたのでしょうか？}",
          "Ruby": "かれ は どうして せいちょう できた のでしょう か？",
          "Lang": "ja",
          "ProblemNo": 9,
          "Kind": 3
        },
        {
          "Start": 165,
          "End": 171,
          "Text": "{彼はどうして成長できたのでしょうか？}",
          "Ruby": "かれ は どうして せいちょう できた のでしょう か？",
          "Lang": "ja",
          "ProblemNo": 9,
          "Kind": 4
        },
        {
          "Start": 171,
          "End": 174,
          "Text": "",
          "Ruby": "",
          "Lang": "",
          "ProblemNo": 0,
          "Kind": 5
        },
        {
          "Start": 174,
          "End": 178,
          "Text": "{彼はどうして成功したのでしょうか？}",
          "Ruby": "かれ は どうして せいこう した のでしょう か？",
          "Lang": "ja",
          "ProblemNo": 0,
          "Kind": 1
        },
        {
          "Start": 178,
          "End": 180,
          "Text": "{元気になった}",
          "Ruby": "げんきに なった",
          "Lang": "ja",
          "ProblemNo": 0,
          "Kind": 2
        },
        {
          "Start": 180,
          "End": 185,
          "Text": "{彼はどうして元気になったのでしょうか？}",
          "Ruby": "かれ は どうして げんきに なった のでしょう か？",
          "Lang": "ja",
          "ProblemNo": 0,
          "Kind": 3
        },
        {
          "Start": 185,
          "End": 191,
          "Text": "{彼はどうして元気になったのでしょうか？}",
          "Ruby": "かれ は どうして げんきに なった のでしょう か？",
          "Lang": "ja",
          "ProblemNo": 0,
          "Kind": 4
        },
        {
          "Start": 191,
          "End": 195,
          "Text": "{彼はどうして元気になったのでしょうか？}",
          "Ruby": "かれ は どうして げんきに なった のでしょう か？",
          "Lang": "ja",
          "ProblemNo": 1,
          "Kind": 1
        },
        {
          "Start": 195,
          "End": 197,
          "Text": "{努力した}",
          "Ruby": "どりょく した",
          "Lang": "ja",
          "ProblemNo": 1,
          "Kind": 2
        },
        {
          "Start": 197,
          "End": 202,
          "Text": "{彼はどうして努力したのでしょうか？}",
          "Ruby": "かれ は どうして どりょく した のでしょう か？",
          "Lang": "ja",
          "ProblemNo": 1,
          "Kind": 3
        },
        {
          "Start": 202,
          "End": 208,
          "Text": "{彼はどうして努力したのでしょうか？}",
          "Ruby": "かれ は どうして どりょく した のでしょう か？",
          "Lang": "ja",
          "ProblemNo": 1,
          "Kind": 4
        },
        {
          "Start": 208,
          "End": 212,
          "Text": "{彼はどうして努力したのでしょうか？}",
          "Ruby": "かれ は どうして どりょく した のでしょう か？",
          "Lang": "ja",
          "ProblemNo": 2,
          "Kind": 1
        },
        {
          "Start": 212,
          "End": 214,
          "Text": "{失敗した}",
          "Ruby": "しっぱい した",
          "Lang": "ja",
          "ProblemNo": 2,
          "Kind": 2
        },
        {
          "Start": 214,
          "End": 219,
          "Text": "{彼はどうして失敗したのでしょうか？}",
          "Ruby": "かれ は どうして しっぱい した のでしょう か？",
          "Lang": "ja",
          "ProblemNo": 2,
          "Kind": 3
        },
        {
          "Start": 219,
          "End": 225,
          "Text": "{彼はどうして失敗したのでしょうか？}",
          "Ruby": "かれ は どうして しっぱい した のでしょう か？",
          "Lang": "ja",
          "ProblemNo": 2,
          "Kind": 4
        },
        {
          "Start": 225,
          "End": 229,
          "Text": "{彼はどうして失敗したのでしょうか？}",
          "Ruby": "かれ は どうして しっぱい した のでしょう か？",
          "Lang": "ja",
          "ProblemNo": 3,
          "Kind": 1
        },
        {
          "Start": 229,
          "End": 230,
          "Text": "{なぜ}",
          "Ruby": "なぜ",
          "Lang": "ja",
          "ProblemNo": 3,
          "Kind": 2
        },
        {
          "Start": 230,
          "End": 235,
          "Text": "{彼はなぜ失敗したのでしょうか？}",
          "Ruby": "かれ は なぜ しっぱい した のでしょう か？",
          "Lang": "ja",
          "ProblemNo": 3,
          "Kind": 3
        },
        {
          "Start": 235,
          "End": 241,
          "Text": "{彼はなぜ失敗したのでしょうか？}",
          "Ruby": "かれ は なぜ しっぱい した のでしょう か？",
          "Lang": "ja",
          "ProblemNo": 3,
          "Kind": 4
        },
        {
          "Start": 241,
          "End": 245,
          "Text": "{彼はなぜ失敗したのでしょうか？}",
          "Ruby": "かれ は なぜ しっぱい した のでしょう か？",
          "Lang": "ja",
          "ProblemNo": 4,
          "Kind": 1
        },
        {
          "Start": 245,
          "End": 247,
          "Text": "{努力した}",
          "Ruby": "どりょく した",
          "Lang": "ja",
          "ProblemNo": 4,
          "Kind": 2
        },
        {
          "Start": 247,
          "End": 252,
          "Text": "{彼はなぜ努力したのでしょうか？}",
          "Ruby": "かれ は なぜ どりょく した のでしょう か？",
          "Lang": "ja",
          "ProblemNo": 4,
          "Kind": 3
        },
        {
          "Start": 252,
          "End": 258,
          "Text": "{彼はなぜ努力したのでしょうか？}",
          "Ruby": "かれ は なぜ どりょく した のでしょう か？",
          "Lang": "ja",
          "ProblemNo": 4,
          "Kind": 4
        },
        {
          "Start": 258,
          "End": 262,
          "Text": "{彼はなぜ努力したのでしょうか？}",
          "Ruby": "かれ は なぜ どりょく した のでしょう か？",
          "Lang": "ja",
          "ProblemNo": 5,
          "Kind": 1
        },
        {
          "Start": 262,
          "End": 264,
          "Text": "{成功した}",
          "Ruby": "せいこう した",
          "Lang": "ja",
          "ProblemNo": 5,
          "Kind": 2
        },
        {
          "Start": 264,
          "End": 269,
          "Text": "{彼はなぜ成功したのでしょうか？}",
          "Ruby": "かれ は なぜ せいこう した のでしょう か？",
          "Lang": "ja",
          "ProblemNo": 5,
          "Kind": 3
        },
        {
          "Start": 269,
          "End": 275,
          "Text": "{彼はなぜ成功したのでしょうか？}",
          "Ruby": "かれ は なぜ せいこう した のでしょう か？",
          "Lang": "ja",
          "ProblemNo": 5,
          "Kind": 4
        },
        {
          "Start": 275,
          "End": 279,
          "Text": "{彼はなぜ成功したのでしょうか？}",
          "Ruby": "かれ は なぜ せいこう した のでしょう か？",
          "Lang": "ja",
          "ProblemNo": 6,
          "Kind": 1
        },
        {
          "Start": 279,
          "End": 281,
          "Text": "{元気になった}",
          "Ruby": "げんきに なった",
          "Lang": "ja",
          "ProblemNo": 6,
          "Kind": 2
        },
        {
          "Start": 281,
          "End": 286,
          "Text": "{彼はなぜ元気になったのでしょうか？}",
          "Ruby": "かれ は なぜ げんきに なった のでしょう か？",
          "Lang": "ja",
          "ProblemNo": 6,
          "Kind": 3
        },
        {
          "Start": 286,
          "End": 292,
          "Text": "{彼はなぜ元気になったのでしょうか？}",
          "Ruby": "かれ は なぜ げんきに なった のでしょう か？",
          "Lang": "ja",
          "ProblemNo": 6,
          "Kind": 4
        },
        {
          "Start": 292,
          "End": 296,
          "Text": "{彼はなぜ元気になったのでしょうか？}",
          "Ruby": "かれ は なぜ げんきに なった のでしょう か？",
          "Lang": "ja",
          "ProblemNo": 7,
          "Kind": 1
        },
        {
          "Start": 296,
          "End": 298,
          "Text": "{病気になった}",
          "Ruby": "びょうき に なった",
          "Lang": "ja",
          "ProblemNo": 7,
          "Kind": 2
        },
        {
          "Start": 298,
          "End": 303,
          "Text": "{彼はなぜ病気になったのでしょうか？}",
          "Ruby": "かれ は なぜ びょうき に なった のでしょう か？",
          "Lang": "ja",
          "ProblemNo": 7,
          "Kind": 3
        },
        {
          "Start": 303,
          "End": 309,
          "Text": "{彼はなぜ病気になったのでしょうか？}",
          "Ruby": "かれ は なぜ びょうき に なった のでしょう か？",
          "Lang": "ja",
          "ProblemNo": 7,
          "Kind": 4
        },
        {
          "Start": 309,
          "End": 313,
          "Text": "{彼はなぜ病気になったのでしょうか？}",
          "Ruby": "かれ は なぜ びょうき に なった のでしょう か？",
          "Lang": "ja",
          "ProblemNo": 8,
          "Kind": 1
        },
        {
          "Start": 313,
          "End": 314,
          "Text": "{どうして}",
          "Ruby": "どうして",
          "Lang": "ja",
          "ProblemNo": 8,
          "Kind": 2
        },
        {
          "Start": 314,
          "End": 319,
          "Text": "{彼はどうして病気になったのでしょうか？}",
          "Ruby": "かれ は どうして びょうき に なった のでしょう か？",
          "Lang": "ja",
          "ProblemNo": 8,
          "Kind": 3
        },
        {
          "Start": 319,
          "End": 325,
          "Text": "{彼はどうして病気になったのでしょうか？}",
          "Ruby": "かれ は どうして びょうき に なった のでしょう か？",
          "Lang": "ja",
          "ProblemNo": 8,
          "Kind": 4
        },
        {
          "Start": 325,
          "End": 329,
          "Text": "{彼はどうして病気になったのでしょうか？}",
          "Ruby": "かれ は どうして びょうき に なった のでしょう か？",
          "Lang": "ja",
          "ProblemNo": 9,
          "Kind": 1
        },
        {
          "Start": 329,
          "End": 331,
          "Text": "{成長できた}",
          "Ruby": "せいちょう できた",
          "Lang": "ja",
          "ProblemNo": 9,
          "Kind": 2
        },
        {
          "Start": 331,
          "End": 336,
          "Text": "{彼はどうして成長できたのでしょうか？}",
          "Ruby": "かれ は どうして せいちょう できた のでしょう か？",
          "Lang": "ja",
          "ProblemNo": 9,
          "Kind": 3
        },
        {
          "Start": 336,
          "End": 342,
          "Text": "{彼はどうして成長できたのでしょうか？}",
          "Ruby": "かれ は どうして せいちょう できた のでしょう か？",
          "Lang": "ja",
          "ProblemNo": 9,
          "Kind": 4
        },
        {
          "Start": 342,
          "End": 345,
          "Text": "",
          "Ruby": "",
          "Lang": "",
          "ProblemNo": 0,
          "Kind": 5
        },
        {
          "Start": 345,
          "End": 349,
          "Text": "{彼はどうして成功したのでしょうか？}",
          "Ruby": "かれ は どうして せいこう した のでしょう か？",
          "Lang": "ja",
          "ProblemNo": 0,
          "Kind": 1
        },
        {
          "Start": 349,
          "End": 351,
          "Text": "{元気になった}",
          "Ruby": "げんきに なった",
          "Lang": "ja",
          "ProblemNo": 0,
          "Kind": 2
        },
        {
          "Start": 351,
          "End": 356,
          "Text": "{彼はどうして元気になったのでしょうか？}",
          "Ruby": "かれ は どうして げんきに なった のでしょう か？",
          "Lang": "ja",
          "ProblemNo": 0,
          "Kind": 3
        },
        {
          "Start": 356,
          "End": 362,
          "Text": "{彼はどうして元気になったのでしょうか？}",
          "Ruby": "かれ は どうして げんきに なった のでしょう か？",
          "Lang": "ja",
          "ProblemNo": 0,
          "Kind": 4
        },
        {
          "Start": 362,
          "End": 366,
          "Text": "{彼はどうして元気になったのでしょうか？}",
          "Ruby": "かれ は どうして げんきに なった のでしょう か？",
          "Lang": "ja",
          "ProblemNo": 1,
          "Kind": 1
        },
        {
          "Start": 366,
          "End": 368,
          "Text": "{努力した}",
          "Ruby": "どりょく した",
          "Lang": "ja",
          "ProblemNo": 1,
          "Kind": 2
        },
        {
          "Start": 368,
          "End": 373,
          "Text": "{彼はどうして努力したのでしょうか？}",
          "Ruby": "かれ は どうして どりょく した のでしょう か？",
          "Lang": "ja",
          "ProblemNo": 1,
          "Kind": 3
        },
        {
          "Start": 373,
          "End": 379,
          "Text": "{彼はどうして努力したのでしょうか？}",
          "Ruby": "かれ は どうして どりょく した のでしょう か？",
          "Lang": "ja",
          "ProblemNo": 1,
          "Kind": 4
        },
        {
          "Start": 379,
          "End": 383,
          "Text": "{彼はどうして努力したのでしょうか？}",
          "Ruby": "かれ は どうして どりょく した のでしょう か？",
          "Lang": "ja",
          "ProblemNo": 2,
          "Kind": 1
        },
        {
          "Start": 383,
          "End": 385,
          "Text": "{失敗した}",
          "Ruby": "しっぱい した",
          "Lang": "ja",
          "ProblemNo": 2,
          "Kind": 2
        },
        {
          "Start": 385,
          "End": 390,
          "Text": "{彼はどうして失敗したのでしょうか？}",
          "Ruby": "かれ は どうして しっぱい した のでしょう か？",
          "Lang": "ja",
          "ProblemNo": 2,
          "Kind": 3
        },
        {
          "Start": 390,
          "End": 396,
          "Text": "{彼はどうして失敗したのでしょうか？}",
          "Ruby": "かれ は どうして しっぱい した のでしょう か？",
          "Lang": "ja",
          "ProblemNo": 2,
          "Kind": 4
        },
        {
          "Start": 396,
          "End": 400,
          "Text": "{彼はどうして失敗したのでしょうか？}",
          "Ruby": "かれ は どうして しっぱい した のでしょう か？",
          "Lang": "ja",
          "ProblemNo": 3,
          "Kind": 1
        },
        {
          "Start": 400,
          "End": 401,
          "Text": "{なぜ}",
          "Ruby": "なぜ",
          "Lang": "ja",
          "ProblemNo": 3,
          "Kind": 2
        },
        {
          "Start": 401,
          "End": 406,
          "Text": "{彼はなぜ失敗したのでしょうか？}",
          "Ruby": "かれ は なぜ しっぱい した のでしょう か？",
          "Lang": "ja",
          "ProblemNo": 3,
          "Kind": 3
        },
        {
          "Start": 406,
          "End": 412,
          "Text": "{彼はなぜ失敗したのでしょうか？}",
          "Ruby": "かれ は なぜ しっぱい した のでしょう か？",
          "Lang": "ja",
          "ProblemNo": 3,
          "Kind": 4
        },
        {
          "Start": 412,
          "End": 416,
          "Text": "{彼はなぜ失敗したのでしょうか？}",
          "Ruby": "かれ は なぜ しっぱい した のでしょう か？",
          "Lang": "ja",
          "ProblemNo": 4,
          "Kind": 1
        },
        {
          "Start": 416,
          "End": 418,
          "Text": "{努力した}",
          "Ruby": "どりょく した",
          "Lang": "ja",
          "ProblemNo": 4,
          "Kind": 2
        },
        {
          "Start": 418,
          "End": 423,
          "Text": "{彼はなぜ努力したのでしょうか？}",
          "Ruby": "かれ は なぜ どりょく した のでしょう か？",
          "Lang": "ja",
          "ProblemNo": 4,
          "Kind": 3
        },
        {
          "Start": 423,
          "End": 429,
          "Text": "{彼はなぜ努力したのでしょうか？}",
          "Ruby": "かれ は なぜ どりょく した のでしょう か？",
          "Lang": "ja",
          "ProblemNo": 4,
          "Kind": 4
        },
        {
          "Start": 429,
          "End": 433,
          "Text": "{彼はなぜ努力したのでしょうか？}",
          "Ruby": "かれ は なぜ どりょく した のでしょう か？",
          "Lang": "ja",
          "ProblemNo": 5,
          "Kind": 1
        },
        {
          "Start": 433,
          "End": 435,
          "Text": "{成功した}",
          "Ruby": "せいこう した",
          "Lang": "ja",
          "ProblemNo": 5,
          "Kind": 2
        },
        {
          "Start": 435,
          "End": 440,
          "Text": "{彼はなぜ成功したのでしょうか？}",
          "Ruby": "かれ は なぜ せいこう した のでしょう か？",
          "Lang": "ja",
          "ProblemNo": 5,
          "Kind": 3
        },
        {
          "Start": 440,
          "End": 446,
          "Text": "{彼はなぜ成功したのでしょうか？}",
          "Ruby": "かれ は なぜ せいこう した のでしょう か？",
          "Lang": "ja",
          "ProblemNo": 5,
          "Kind": 4
        },
        {
          "Start": 446,
          "End": 450,
          "Text": "{彼はなぜ成功したのでしょうか？}",
          "Ruby": "かれ は なぜ せいこう した のでしょう か？",
          "Lang": "ja",
          "ProblemNo": 6,
          "Kind": 1
        },
        {
          "Start": 450,
          "End": 452,
          "Text": "{元気になった}",
          "Ruby": "げんきに なった",
          "Lang": "ja",
          "ProblemNo": 6,
          "Kind": 2
        },
        {
          "Start": 452,
          "End": 457,
          "Text": "{彼はなぜ元気になったのでしょうか？}",
          "Ruby": "かれ は なぜ げんきに なった のでしょう か？",
          "Lang": "ja",
          "ProblemNo": 6,
          "Kind": 3
        },
        {
          "Start": 457,
          "End": 463,
          "Text": "{彼はなぜ元気になったのでしょうか？}",
          "Ruby": "かれ は なぜ げんきに なった のでしょう か？",
          "Lang": "ja",
          "ProblemNo": 6,
          "Kind": 4
        },
        {
          "Start": 463,
          "End": 467,
          "Text": "{彼はなぜ元気になったのでしょうか？}",
          "Ruby": "かれ は なぜ げんきに なった のでしょう か？",
          "Lang": "ja",
          "ProblemNo": 7,
          "Kind": 1
        },
        {
          "Start": 467,
          "End": 469,
          "Text": "{病気になった}",
          "Ruby": "びょうき に なった",
          "Lang": "ja",
          "ProblemNo": 7,
          "Kind": 2
        },
        {
          "Start": 469,
          "End": 474,
          "Text": "{彼はなぜ病気になったのでしょうか？}",
          "Ruby": "かれ は なぜ びょうき に なった のでしょう か？",
          "Lang": "ja",
          "ProblemNo": 7,
          "Kind": 3
        },
        {
          "Start": 474,
          "End": 480,
          "Text": "{彼はなぜ病気になったのでしょうか？}",
          "Ruby": "かれ は なぜ びょうき に なった のでしょう か？",
          "Lang": "ja",
          "ProblemNo": 7,
          "Kind": 4
        },
        {
          "Start": 480,
          "End": 484,
          "Text": "{彼はなぜ病気になったのでしょうか？}",
          "Ruby": "かれ は なぜ びょうき に なった のでしょう か？",
          "Lang": "ja",
          "ProblemNo": 8,
          "Kind": 1
        },
        {
          "Start": 484,
          "End": 485,
          "Text": "{どうして}",
          "Ruby": "どうして",
          "Lang": "ja",
          "ProblemNo": 8,
          "Kind": 2
        },
        {
          "Start": 485,
          "End": 490,
          "Text": "{彼はどうして病気になったのでしょうか？}",
          "Ruby": "かれ は どうして びょうき に なった のでしょう か？",
          "Lang": "ja",
          "ProblemNo": 8,
          "Kind": 3
        },
        {
          "Start": 490,
          "End": 496,
          "Text": "{彼はどうして病気になったのでしょうか？}",
          "Ruby": "かれ は どうして びょうき に なった のでしょう か？",
          "Lang": "ja",
          "ProblemNo": 8,
          "Kind": 4
        },
        {
          "Start": 496,
          "End": 500,
          "Text": "{彼はどうして病気になったのでしょうか？}",
          "Ruby": "かれ は どうして びょうき に なった のでしょう か？",
          "Lang": "ja",
          "ProblemNo": 9,
          "Kind": 1
        },
        {
          "Start": 500,
          "End": 502,
          "Text": "{成長できた}",
          "Ruby": "せいちょう できた",
          "Lang": "ja",
          "ProblemNo": 9,
          "Kind": 2
        },
        {
          "Start": 502,
          "End": 507,
          "Text": "{彼はどうして成長できたのでしょうか？}",
          "Ruby": "かれ は どうして せいちょう できた のでしょう か？",
          "Lang": "ja",
          "ProblemNo": 9,
          "Kind": 3
        },
        {
          "Start": 507,
          "End": 513,
          "Text": "{彼はどうして成長できたのでしょうか？}",
          "Ruby": "かれ は どうして せいちょう できた のでしょう か？",
          "Lang": "ja",
          "ProblemNo": 9,
          "Kind": 4
        },
        {
          "Start": 513,
          "End": 516,
          "Text": "",
          "Ruby": "",
          "Lang": "",
          "ProblemNo": 0,
          "Kind": 5
        },
        {
          "Start": 516,
          "End": 536,
          "Text": "{Please subscribe!}",
          "Ruby": "",
          "Lang": "en",
          "ProblemNo": 0,
          "Kind": 7
        }
      ]
    }
  ],
  "CannotChange": true
}