{
  "SerieName": "grammar-ja-a",
  "No": 16,
  "VideoTitle": "の",
  "ThumbnailTitle": "",
  "YoutubeDescription": "",
  "YoutubeTitle": "",
  "Boxes": [
    {
      "Pos": 0,
      "PersonName": "x",
      "Candidates": [
        {
          "Word": "日本語は",
          "Root": "",
          "FeatureSet": null,
          "Conditions": null,
          "PersonConditions": null
        },
        {
          "Word": "英語は",
          "Root": "",
          "FeatureSet": null,
          "Conditions": null,
          "PersonConditions": null
        },
        {
          "Word": "ポルトガル語は",
          "Root": "",
          "FeatureSet": null,
          "Conditions": null,
          "PersonConditions": null
        }
      ]
    },
    {
      "Pos": 1,
      "PersonName": "x",
      "Candidates": [
        {
          "Word": "私の",
          "Root": "",
          "FeatureSet": null,
          "Conditions": null,
          "PersonConditions": null
        },
        {
          "Word": "あなたの",
          "Root": "",
          "FeatureSet": null,
          "Conditions": null,
          "PersonConditions": null
        },
        {
          "Word": "彼の",
          "Root": "",
          "FeatureSet": null,
          "Conditions": null,
          "PersonConditions": null
        },
        {
          "Word": "彼女の",
          "Root": "",
          "FeatureSet": null,
          "Conditions": null,
          "PersonConditions": null
        },
        {
          "Word": "私たちの",
          "Root": "",
          "FeatureSet": null,
          "Conditions": null,
          "PersonConditions": null
        },
        {
          "Word": "彼らの",
          "Root": "",
          "FeatureSet": null,
          "Conditions": null,
          "PersonConditions": null
        },
        {
          "Word": "木村さんの",
          "Root": "",
          "FeatureSet": null,
          "Conditions": null,
          "PersonConditions": null
        }
      ]
    },
    {
      "Pos": 2,
      "PersonName": "x",
      "Candidates": [
        {
          "Word": "母語です",
          "Root": "",
          "FeatureSet": null,
          "Conditions": null,
          "PersonConditions": null
        }
      ]
    }
  ],
  "Pars": [
    {
      "Header": "",
      "Poses": [
        0,
        1,
        2
      ]
    }
  ],
  "Exercises": [
    {
      "Name": "A",
      "Problems": [
        {
          "ProblemNo": 0,
          "OriginalCandidates": [
            {
              "Word": "日本語は",
              "Ruby": "にほん ご は"
            },
            {
              "Word": "私たちの",
              "Ruby": "わたしたち の"
            },
            {
              "Word": "母語です",
              "Ruby": "ぼご です"
            }
          ],
          "ChangeCandidatePos": 1,
          "ChangeCandidates": [
            {
              "Word": "",
              "Ruby": ""
            },
            {
              "Word": "私の",
              "Ruby": "わたし の"
            },
            {
              "Word": "",
              "Ruby": ""
            }
          ],
          "ChangeMorphemes": [
            {
              "Word": "",
              "Root": "",
              "FeatureSet": null
            },
            {
              "Word": "私の",
              "Root": "",
              "FeatureSet": null
            },
            {
              "Word": "",
              "Root": "",
              "FeatureSet": null
            }
          ],
          "AnswerCandidates": [
            {
              "Word": "日本語は",
              "Ruby": "にほん ご は"
            },
            {
              "Word": "私の",
              "Ruby": "わたし の"
            },
            {
              "Word": "母語です",
              "Ruby": "ぼご です"
            }
          ]
        },
        {
          "ProblemNo": 1,
          "OriginalCandidates": [
            {
              "Word": "日本語は",
              "Ruby": "にほん ご は"
            },
            {
              "Word": "私の",
              "Ruby": "わたし の"
            },
            {
              "Word": "母語です",
              "Ruby": "ぼご です"
            }
          ],
          "ChangeCandidatePos": 1,
          "ChangeCandidates": [
            {
              "Word": "",
              "Ruby": ""
            },
            {
              "Word": "彼の",
              "Ruby": "かれ の"
            },
            {
              "Word": "",
              "Ruby": ""
            }
          ],
          "ChangeMorphemes": [
            {
              "Word": "",
              "Root": "",
              "FeatureSet": null
            },
            {
              "Word": "彼の",
              "Root": "",
              "FeatureSet": null
            },
            {
              "Word": "",
              "Root": "",
              "FeatureSet": null
            }
          ],
          "AnswerCandidates": [
            {
              "Word": "日本語は",
              "Ruby": "にほん ご は"
            },
            {
              "Word": "彼の",
              "Ruby": "かれ の"
            },
            {
              "Word": "母語です",
              "Ruby": "ぼご です"
            }
          ]
        },
        {
          "ProblemNo": 2,
          "OriginalCandidates": [
            {
              "Word": "日本語は",
              "Ruby": "にほん ご は"
            },
            {
              "Word": "彼の",
              "Ruby": "かれ の"
            },
            {
              "Word": "母語です",
              "Ruby": "ぼご です"
            }
          ],
          "ChangeCandidatePos": 1,
          "ChangeCandidates": [
            {
              "Word": "",
              "Ruby": ""
            },
            {
              "Word": "彼らの",
              "Ruby": "かれら の"
            },
            {
              "Word": "",
              "Ruby": ""
            }
          ],
          "ChangeMorphemes": [
            {
              "Word": "",
              "Root": "",
              "FeatureSet": null
            },
            {
              "Word": "彼らの",
              "Root": "",
              "FeatureSet": null
            },
            {
              "Word": "",
              "Root": "",
              "FeatureSet": null
            }
          ],
          "AnswerCandidates": [
            {
              "Word": "日本語は",
              "Ruby": "にほん ご は"
            },
            {
              "Word": "彼らの",
              "Ruby": "かれら の"
            },
            {
              "Word": "母語です",
              "Ruby": "ぼご です"
            }
          ]
        },
        {
          "ProblemNo": 3,
          "OriginalCandidates": [
            {
              "Word": "日本語は",
              "Ruby": "にほん ご は"
            },
            {
              "Word": "彼らの",
              "Ruby": "かれら の"
            },
            {
              "Word": "母語です",
              "Ruby": "ぼご です"
            }
          ],
          "ChangeCandidatePos": 0,
          "ChangeCandidates": [
            {
              "Word": "英語は",
              "Ruby": "えいご は"
            },
            {
              "Word": "",
              "Ruby": ""
            },
            {
              "Word": "",
              "Ruby": ""
            }
          ],
          "ChangeMorphemes": [
            {
              "Word": "英語は",
              "Root": "",
              "FeatureSet": null
            },
            {
              "Word": "",
              "Root": "",
              "FeatureSet": null
            },
            {
              "Word": "",
              "Root": "",
              "FeatureSet": null
            }
          ],
          "AnswerCandidates": [
            {
              "Word": "英語は",
              "Ruby": "えいご は"
            },
            {
              "Word": "彼らの",
              "Ruby": "かれら の"
            },
            {
              "Word": "母語です",
              "Ruby": "ぼご です"
            }
          ]
        },
        {
          "ProblemNo": 4,
          "OriginalCandidates": [
            {
              "Word": "英語は",
              "Ruby": "えいご は"
            },
            {
              "Word": "彼らの",
              "Ruby": "かれら の"
            },
            {
              "Word": "母語です",
              "Ruby": "ぼご です"
            }
          ],
          "ChangeCandidatePos": 0,
          "ChangeCandidates": [
            {
              "Word": "ポルトガル語は",
              "Ruby": "ぽるとがる ご は"
            },
            {
              "Word": "",
              "Ruby": ""
            },
            {
              "Word": "",
              "Ruby": ""
            }
          ],
          "ChangeMorphemes": [
            {
              "Word": "ポルトガル語は",
              "Root": "",
              "FeatureSet": null
            },
            {
              "Word": "",
              "Root": "",
              "FeatureSet": null
            },
            {
              "Word": "",
              "Root": "",
              "FeatureSet": null
            }
          ],
          "AnswerCandidates": [
            {
              "Word": "ポルトガル語は",
              "Ruby": "ぽるとがる ご は"
            },
            {
              "Word": "彼らの",
              "Ruby": "かれら の"
            },
            {
              "Word": "母語です",
              "Ruby": "ぼご です"
            }
          ]
        },
        {
          "ProblemNo": 5,
          "OriginalCandidates": [
            {
              "Word": "ポルトガル語は",
              "Ruby": "ぽるとがる ご は"
            },
            {
              "Word": "彼らの",
              "Ruby": "かれら の"
            },
            {
              "Word": "母語です",
              "Ruby": "ぼご です"
            }
          ],
          "ChangeCandidatePos": 1,
          "ChangeCandidates": [
            {
              "Word": "",
              "Ruby": ""
            },
            {
              "Word": "あなたの",
              "Ruby": "あなた の"
            },
            {
              "Word": "",
              "Ruby": ""
            }
          ],
          "ChangeMorphemes": [
            {
              "Word": "",
              "Root": "",
              "FeatureSet": null
            },
            {
              "Word": "あなたの",
              "Root": "",
              "FeatureSet": null
            },
            {
              "Word": "",
              "Root": "",
              "FeatureSet": null
            }
          ],
          "AnswerCandidates": [
            {
              "Word": "ポルトガル語は",
              "Ruby": "ぽるとがる ご は"
            },
            {
              "Word": "あなたの",
              "Ruby": "あなた の"
            },
            {
              "Word": "母語です",
              "Ruby": "ぼご です"
            }
          ]
        },
        {
          "ProblemNo": 6,
          "OriginalCandidates": [
            {
              "Word": "ポルトガル語は",
              "Ruby": "ぽるとがる ご は"
            },
            {
              "Word": "あなたの",
              "Ruby": "あなた の"
            },
            {
              "Word": "母語です",
              "Ruby": "ぼご です"
            }
          ],
          "ChangeCandidatePos": 0,
          "ChangeCandidates": [
            {
              "Word": "日本語は",
              "Ruby": "にほん ご は"
            },
            {
              "Word": "",
              "Ruby": ""
            },
            {
              "Word": "",
              "Ruby": ""
            }
          ],
          "ChangeMorphemes": [
            {
              "Word": "日本語は",
              "Root": "",
              "FeatureSet": null
            },
            {
              "Word": "",
              "Root": "",
              "FeatureSet": null
            },
            {
              "Word": "",
              "Root": "",
              "FeatureSet": null
            }
          ],
          "AnswerCandidates": [
            {
              "Word": "日本語は",
              "Ruby": "にほん ご は"
            },
            {
              "Word": "あなたの",
              "Ruby": "あなた の"
            },
            {
              "Word": "母語です",
              "Ruby": "ぼご です"
            }
          ]
        },
        {
          "ProblemNo": 7,
          "OriginalCandidates": [
            {
              "Word": "日本語は",
              "Ruby": "にほん ご は"
            },
            {
              "Word": "あなたの",
              "Ruby": "あなた の"
            },
            {
              "Word": "母語です",
              "Ruby": "ぼご です"
            }
          ],
          "ChangeCandidatePos": 1,
          "ChangeCandidates": [
            {
              "Word": "",
              "Ruby": ""
            },
            {
              "Word": "木村さんの",
              "Ruby": "きむら さん の"
            },
            {
              "Word": "",
              "Ruby": ""
            }
          ],
          "ChangeMorphemes": [
            {
              "Word": "",
              "Root": "",
              "FeatureSet": null
            },
            {
              "Word": "木村さんの",
              "Root": "",
              "FeatureSet": null
            },
            {
              "Word": "",
              "Root": "",
              "FeatureSet": null
            }
          ],
          "AnswerCandidates": [
            {
              "Word": "日本語は",
              "Ruby": "にほん ご は"
            },
            {
              "Word": "木村さんの",
              "Ruby": "きむら さん の"
            },
            {
              "Word": "母語です",
              "Ruby": "ぼご です"
            }
          ]
        },
        {
          "ProblemNo": 8,
          "OriginalCandidates": [
            {
              "Word": "日本語は",
              "Ruby": "にほん ご は"
            },
            {
              "Word": "木村さんの",
              "Ruby": "きむら さん の"
            },
            {
              "Word": "母語です",
              "Ruby": "ぼご です"
            }
          ],
          "ChangeCandidatePos": 1,
          "ChangeCandidates": [
            {
              "Word": "",
              "Ruby": ""
            },
            {
              "Word": "彼女の",
              "Ruby": "かのじょ の"
            },
            {
              "Word": "",
              "Ruby": ""
            }
          ],
          "ChangeMorphemes": [
            {
              "Word": "",
              "Root": "",
              "FeatureSet": null
            },
            {
              "Word": "彼女の",
              "Root": "",
              "FeatureSet": null
            },
            {
              "Word": "",
              "Root": "",
              "FeatureSet": null
            }
          ],
          "AnswerCandidates": [
            {
              "Word": "日本語は",
              "Ruby": "にほん ご は"
            },
            {
              "Word": "彼女の",
              "Ruby": "かのじょ の"
            },
            {
              "Word": "母語です",
              "Ruby": "ぼご です"
            }
          ]
        },
        {
          "ProblemNo": 9,
          "OriginalCandidates": [
            {
              "Word": "日本語は",
              "Ruby": "にほん ご は"
            },
            {
              "Word": "彼女の",
              "Ruby": "かのじょ の"
            },
            {
              "Word": "母語です",
              "Ruby": "ぼご です"
            }
          ],
          "ChangeCandidatePos": 0,
          "ChangeCandidates": [
            {
              "Word": "ポルトガル語は",
              "Ruby": "ぽるとがる ご は"
            },
            {
              "Word": "",
              "Ruby": ""
            },
            {
              "Word": "",
              "Ruby": ""
            }
          ],
          "ChangeMorphemes": [
            {
              "Word": "ポルトガル語は",
              "Root": "",
              "FeatureSet": null
            },
            {
              "Word": "",
              "Root": "",
              "FeatureSet": null
            },
            {
              "Word": "",
              "Root": "",
              "FeatureSet": null
            }
          ],
          "AnswerCandidates": [
            {
              "Word": "ポルトガル語は",
              "Ruby": "ぽるとがる ご は"
            },
            {
              "Word": "彼女の",
              "Ruby": "かのじょ の"
            },
            {
              "Word": "母語です",
              "Ruby": "ぼご です"
            }
          ]
        }
      ],
      "VideoFile": "grammar-ja-a_16_A.mp4",
      "AnimeticCaptions": [
        {
          "Start": 0,
          "End": 3,
          "Text": "{grammar-ja-a} #16 の",
          "Ruby": "",
          "Lang": "",
          "ProblemNo": 0,
          "Kind": 0
        },
        {
          "Start": 3,
          "End": 7,
          "Text": "{日本語は私たちの母語です}",
          "Ruby": "にほん ご は わたしたち の ぼご です",
          "Lang": "ja",
          "ProblemNo": 0,
          "Kind": 1
        },
        {
          "Start": 7,
          "End": 8,
          "Text": "{私の}",
          "Ruby": "わたし の",
          "Lang": "ja",
          "ProblemNo": 0,
          "Kind": 2
        },
        {
          "Start": 8,
          "End": 13,
          "Text": "{日本語は私の母語です}",
          "Ruby": "にほん ご は わたし の ぼご です",
          "Lang": "ja",
          "ProblemNo": 0,
          "Kind": 3
        },
        {
          "Start": 13,
          "End": 19,
          "Text": "{日本語は私の母語です}",
          "Ruby": "にほん ご は わたし の ぼご です",
          "Lang": "ja",
          "ProblemNo": 0,
          "Kind": 4
        },
        {
          "Start": 19,
          "End": 23,
          "Text": "{日本語は私の母語です}",
          "Ruby": "にほん ご は わたし の ぼご です",
          "Lang": "ja",
          "ProblemNo": 1,
          "Kind": 1
        },
        {
          "Start": 23,
          "End": 24,
          "Text": "{彼の}",
          "Ruby": "かれ の",
          "Lang": "ja",
          "ProblemNo": 1,
          "Kind": 2
        },
        {
          "Start": 24,
          "End": 29,
          "Text": "{日本語は彼の母語です}",
          "Ruby": "にほん ご は かれ の ぼご です",
          "Lang": "ja",
          "ProblemNo": 1,
          "Kind": 3
        },
        {
          "Start": 29,
          "End": 35,
          "Text": "{日本語は彼の母語です}",
          "Ruby": "にほん ご は かれ の ぼご です",
          "Lang": "ja",
          "ProblemNo": 1,
          "Kind": 4
        },
        {
          "Start": 35,
          "End": 39,
          "Text": "{日本語は彼の母語です}",
          "Ruby": "にほん ご は かれ の ぼご です",
          "Lang": "ja",
          "ProblemNo": 2,
          "Kind": 1
        },
        {
          "Start": 39,
          "End": 40,
          "Text": "{彼らの}",
          "Ruby": "かれら の",
          "Lang": "ja",
          "ProblemNo": 2,
          "Kind": 2
        },
        {
          "Start": 40,
          "End": 45,
          "Text": "{日本語は彼らの母語です}",
          "Ruby": "にほん ご は かれら の ぼご です",
          "Lang": "ja",
          "ProblemNo": 2,
          "Kind": 3
        },
        {
          "Start": 45,
          "End": 51,
          "Text": "{日本語は彼らの母語です}",
          "Ruby": "にほん ご は かれら の ぼご です",
          "Lang": "ja",
          "ProblemNo": 2,
          "Kind": 4
        },
        {
          "Start": 51,
          "End": 55,
          "Text": "{日本語は彼らの母語です}",
          "Ruby": "にほん ご は かれら の ぼご です",
          "Lang": "ja",
          "ProblemNo": 3,
          "Kind": 1
        },
        {
          "Start": 55,
          "End": 56,
          "Text": "{英語は}",
          "Ruby": "えいご は",
          "Lang": "ja",
          "ProblemNo": 3,
          "Kind": 2
        },
        {
          "Start": 56,
          "End": 61,
          "Text": "{英語は彼らの母語です}",
          "Ruby": "えいご は かれら の ぼご です",
          "Lang": "ja",
          "ProblemNo": 3,
          "Kind": 3
        },
        {
          "Start": 61,
          "End": 67,
          "Text": "{英語は彼らの母語です}",
          "Ruby": "えいご は かれら の ぼご です",
          "Lang": "ja",
          "ProblemNo": 3,
          "Kind": 4
        },
        {
          "Start": 67,
          "End": 71,
          "Text": "{英語は彼らの母語です}",
          "Ruby": "えいご は かれら の ぼご です",
          "Lang": "ja",
          "ProblemNo": 4,
          "Kind": 1
        },
        {
          "Start": 71,
          "End": 73,
          "Text": "{ポルトガル語は}",
          "Ruby": "ぽるとがる ご は",
          "Lang": "ja",
          "ProblemNo": 4,
          "Kind": 2
        },
        {
          "Start": 73,
          "End": 78,
          "Text": "{ポルトガル語は彼らの母語です}",
          "Ruby": "ぽるとがる ご は かれら の ぼご です",
          "Lang": "ja",
          "ProblemNo": 4,
          "Kind": 3
        },
        {
          "Start": 78,
          "End": 84,
          "Text": "{ポルトガル語は彼らの母語です}",
          "Ruby": "ぽるとがる ご は かれら の ぼご です",
          "Lang": "ja",
          "ProblemNo": 4,
          "Kind": 4
        },
        {
          "Start": 84,
          "End": 88,
          "Text": "{ポルトガル語は彼らの母語です}",
          "Ruby": "ぽるとがる ご は かれら の ぼご です",
          "Lang": "ja",
          "ProblemNo": 5,
          "Kind": 1
        },
        {
          "Start": 88,
          "End": 89,
          "Text": "{あなたの}",
          "Ruby": "あなた の",
          "Lang": "ja",
          "ProblemNo": 5,
          "Kind": 2
        },
        {
          "Start": 89,
          "End": 94,
          "Text": "{ポルトガル語はあなたの母語です}",
          "Ruby": "ぽるとがる ご は あなた の ぼご です",
          "Lang": "ja",
          "ProblemNo": 5,
          "Kind": 3
        },
        {
          "Start": 94,
          "End": 100,
          "Text": "{ポルトガル語はあなたの母語です}",
          "Ruby": "ぽるとがる ご は あなた の ぼご です",
          "Lang": "ja",
          "ProblemNo": 5,
          "Kind": 4
        },
        {
          "Start": 100,
          "End": 104,
          "Text": "{ポルトガル語はあなたの母語です}",
          "Ruby": "ぽるとがる ご は あなた の ぼご です",
          "Lang": "ja",
          "ProblemNo": 6,
          "Kind": 1
        },
        {
          "Start": 104,
          "End": 106,
          "Text": "{日本語は}",
          "Ruby": "にほん ご は",
          "Lang": "ja",
          "ProblemNo": 6,
          "Kind": 2
        },
        {
          "Start": 106,
          "End": 111,
          "Text": "{日本語はあなたの母語です}",
          "Ruby": "にほん ご は あなた の ぼご です",
          "Lang": "ja",
          "ProblemNo": 6,
          "Kind": 3
        },
        {
          "Start": 111,
          "End": 117,
          "Text": "{日本語はあなたの母語です}",
          "Ruby": "にほん ご は あなた の ぼご です",
          "Lang": "ja",
          "ProblemNo": 6,
          "Kind": 4
        },
        {
          "Start": 117,
          "End": 121,
          "Text": "{日本語はあなたの母語です}",
          "Ruby": "にほん ご は あなた の ぼご です",
          "Lang": "ja",
          "ProblemNo": 7,
          "Kind": 1
        },
        {
          "Start": 121,
          "End": 123,
          "Text": "{木村さんの}",
          "Ruby": "きむら さん の",
          "Lang": "ja",
          "ProblemNo": 7,
          "Kind": 2
        },
        {
          "Start": 123,
          "End": 128,
          "Text": "{日本語は木村さんの母語です}",
          "Ruby": "にほん ご は きむら さん の ぼご です",
          "Lang": "ja",
          "ProblemNo": 7,
          "Kind": 3
        },
        {
          "Start": 128,
          "End": 134,
          "Text": "{日本語は木村さんの母語です}",
          "Ruby": "にほん ご は きむら さん の ぼご です",
          "Lang": "ja",
          "ProblemNo": 7,
          "Kind": 4
        },
        {
          "Start": 134,
          "End": 138,
          "Text": "{日本語は木村さんの母語です}",
          "Ruby": "にほん ご は きむら さん の ぼご です",
          "Lang": "ja",
          "ProblemNo": 8,
          "Kind": 1
        },
        {
          "Start": 138,
          "End": 139,
          "Text": "{彼女の}",
          "Ruby": "かのじょ の",
          "Lang": "ja",
          "ProblemNo": 8,
          "Kind": 2
        },
        {
          "Start": 139,
          "End": 144,
          "Text": "{日本語は彼女の母語です}",
          "Ruby": "にほん ご は かのじょ の ぼご です",
          "Lang": "ja",
          "ProblemNo": 8,
          "Kind": 3
        },
        {
          "Start": 144,
          "End": 150,
          "Text": "{日本語は彼女の母語です}",
          "Ruby": "にほん ご は かのじょ の ぼご です",
          "Lang": "ja",
          "ProblemNo": 8,
          "Kind": 4
        },
        {
          "Start": 150,
          "End": 154,
          "Text": "{日本語は彼女の母語です}",
          "Ruby": "にほん ご は かのじょ の ぼご です",
          "Lang": "ja",
          "ProblemNo": 9,
          "Kind": 1
        },
        {
          "Start": 154,
          "End": 156,
          "Text": "{ポルトガル語は}",
          "Ruby": "ぽるとがる ご は",
          "Lang": "ja",
          "ProblemNo": 9,
          "Kind": 2
        },
        {
          "Start": 156,
          "End": 161,
          "Text": "{ポルトガル語は彼女の母語です}",
          "Ruby": "ぽるとがる ご は かのじょ の ぼご です",
          "Lang": "ja",
          "ProblemNo": 9,
          "Kind": 3
        },
        {
          "Start": 161,
          "End": 167,
          "Text": "{ポルトガル語は彼女の母語です}",
          "Ruby": "ぽるとがる ご は かのじょ の ぼご です",
          "Lang": "ja",
          "ProblemNo": 9,
          "Kind": 4
        },
        {
          "Start": 167,
          "End": 170,
          "Text": "",
          "Ruby": "",
          "Lang": "",
          "ProblemNo": 0,
          "Kind": 5
        },
        {
          "Start": 170,
          "End": 174,
          "Text": "{日本語は私たちの母語です}",
          "Ruby": "にほん ご は わたしたち の ぼご です",
          "Lang": "ja",
          "ProblemNo": 0,
          "Kind": 1
        },
        {
          "Start": 174,
          "End": 175,
          "Text": "{私の}",
          "Ruby": "わたし の",
          "Lang": "ja",
          "ProblemNo": 0,
          "Kind": 2
        },
        {
          "Start": 175,
          "End": 180,
          "Text": "{日本語は私の母語です}",
          "Ruby": "にほん ご は わたし の ぼご です",
          "Lang": "ja",
          "ProblemNo": 0,
          "Kind": 3
        },
        {
          "Start": 180,
          "End": 186,
          "Text": "{日本語は私の母語です}",
          "Ruby": "にほん ご は わたし の ぼご です",
          "Lang": "ja",
          "ProblemNo": 0,
          "Kind": 4
        },
        {
          "Start": 186,
          "End": 190,
          "Text": "{日本語は私の母語です}",
          "Ruby": "にほん ご は わたし の ぼご です",
          "Lang": "ja",
          "ProblemNo": 1,
          "Kind": 1
        },
        {
          "Start": 190,
          "End": 191,
          "Text": "{彼の}",
          "Ruby": "かれ の",
          "Lang": "ja",
          "ProblemNo": 1,
          "Kind": 2
        },
        {
          "Start": 191,
          "End": 196,
          "Text": "{日本語は彼の母語です}",
          "Ruby": "にほん ご は かれ の ぼご です",
          "Lang": "ja",
          "ProblemNo": 1,
          "Kind": 3
        },
        {
          "Start": 196,
          "End": 202,
          "Text": "{日本語は彼の母語です}",
          "Ruby": "にほん ご は かれ の ぼご です",
          "Lang": "ja",
          "ProblemNo": 1,
          "Kind": 4
        },
        {
          "Start": 202,
          "End": 206,
          "Text": "{日本語は彼の母語です}",
          "Ruby": "にほん ご は かれ の ぼご です",
          "Lang": "ja",
          "ProblemNo": 2,
          "Kind": 1
        },
        {
          "Start": 206,
          "End": 207,
          "Text": "{彼らの}",
          "Ruby": "かれら の",
          "Lang": "ja",
          "ProblemNo": 2,
          "Kind": 2
        },
        {
          "Start": 207,
          "End": 212,
          "Text": "{日本語は彼らの母語です}",
          "Ruby": "にほん ご は かれら の ぼご です",
          "Lang": "ja",
          "ProblemNo": 2,
          "Kind": 3
        },
        {
          "Start": 212,
          "End": 218,
          "Text": "{日本語は彼らの母語です}",
          "Ruby": "にほん ご は かれら の ぼご です",
          "Lang": "ja",
          "ProblemNo": 2,
          "Kind": 4
        },
        {
          "Start": 218,
          "End": 222,
          "Text": "{日本語は彼らの母語です}",
          "Ruby": "にほん ご は かれら の ぼご です",
          "Lang": "ja",
          "ProblemNo": 3,
          "Kind": 1
        },
        {
          "Start": 222,
          "End": 223,
          "Text": "{英語は}",
          "Ruby": "えいご は",
          "Lang": "ja",
          "ProblemNo": 3,
          "Kind": 2
        },
        {
          "Start": 223,
          "End": 228,
          "Text": "{英語は彼らの母語です}",
          "Ruby": "えいご は かれら の ぼご です",
          "Lang": "ja",
          "ProblemNo": 3,
          "Kind": 3
        },
        {
          "Start": 228,
          "End": 234,
          "Text": "{英語は彼らの母語です}",
          "Ruby": "えいご は かれら の ぼご です",
          "Lang": "ja",
          "ProblemNo": 3,
          "Kind": 4
        },
        {
          "Start": 234,
          "End": 238,
          "Text": "{英語は彼らの母語です}",
          "Ruby": "えいご は かれら の ぼご です",
          "Lang": "ja",
          "ProblemNo": 4,
          "Kind": 1
        },
        {
          "Start": 238,
          "End": 240,
          "Text": "{ポルトガル語は}",
          "Ruby": "ぽるとがる ご は",
          "Lang": "ja",
          "ProblemNo": 4,
          "Kind": 2
        },
        {
          "Start": 240,
          "End": 245,
          "Text": "{ポルトガル語は彼らの母語です}",
          "Ruby": "ぽるとがる ご は かれら の ぼご です",
          "Lang": "ja",
          "ProblemNo": 4,
          "Kind": 3
        },
        {
          "Start": 245,
          "End": 251,
          "Text": "{ポルトガル語は彼らの母語です}",
          "Ruby": "ぽるとがる ご は かれら の ぼご です",
          "Lang": "ja",
          "ProblemNo": 4,
          "Kind": 4
        },
        {
          "Start": 251,
          "End": 255,
          "Text": "{ポルトガル語は彼らの母語です}",
          "Ruby": "ぽるとがる ご は かれら の ぼご です",
          "Lang": "ja",
          "ProblemNo": 5,
          "Kind": 1
        },
        {
          "Start": 255,
          "End": 256,
          "Text": "{あなたの}",
          "Ruby": "あなた の",
          "Lang": "ja",
          "ProblemNo": 5,
          "Kind": 2
        },
        {
          "Start": 256,
          "End": 261,
          "Text": "{ポルトガル語はあなたの母語です}",
          "Ruby": "ぽるとがる ご は あなた の ぼご です",
          "Lang": "ja",
          "ProblemNo": 5,
          "Kind": 3
        },
        {
          "Start": 261,
          "End": 267,
          "Text": "{ポルトガル語はあなたの母語です}",
          "Ruby": "ぽるとがる ご は あなた の ぼご です",
          "Lang": "ja",
          "ProblemNo": 5,
          "Kind": 4
        },
        {
          "Start": 267,
          "End": 271,
          "Text": "{ポルトガル語はあなたの母語です}",
          "Ruby": "ぽるとがる ご は あなた の ぼご です",
          "Lang": "ja",
          "ProblemNo": 6,
          "Kind": 1
        },
        {
          "Start": 271,
          "End": 273,
          "Text": "{日本語は}",
          "Ruby": "にほん ご は",
          "Lang": "ja",
          "ProblemNo": 6,
          "Kind": 2
        },
        {
          "Start": 273,
          "End": 278,
          "Text": "{日本語はあなたの母語です}",
          "Ruby": "にほん ご は あなた の ぼご です",
          "Lang": "ja",
          "ProblemNo": 6,
          "Kind": 3
        },
        {
          "Start": 278,
          "End": 284,
          "Text": "{日本語はあなたの母語です}",
          "Ruby": "にほん ご は あなた の ぼご です",
          "Lang": "ja",
          "ProblemNo": 6,
          "Kind": 4
        },
        {
          "Start": 284,
          "End": 288,
          "Text": "{日本語はあなたの母語です}",
          "Ruby": "にほん ご は あなた の ぼご です",
          "Lang": "ja",
          "ProblemNo": 7,
          "Kind": 1
        },
        {
          "Start": 288,
          "End": 290,
          "Text": "{木村さんの}",
          "Ruby": "きむら さん の",
          "Lang": "ja",
          "ProblemNo": 7,
          "Kind": 2
        },
        {
          "Start": 290,
          "End": 295,
          "Text": "{日本語は木村さんの母語です}",
          "Ruby": "にほん ご は きむら さん の ぼご です",
          "Lang": "ja",
          "ProblemNo": 7,
          "Kind": 3
        },
        {
          "Start": 295,
          "End": 301,
          "Text": "{日本語は木村さんの母語です}",
          "Ruby": "にほん ご は きむら さん の ぼご です",
          "Lang": "ja",
          "ProblemNo": 7,
          "Kind": 4
        },
        {
          "Start": 301,
          "End": 305,
          "Text": "{日本語は木村さんの母語です}",
          "Ruby": "にほん ご は きむら さん の ぼご です",
          "Lang": "ja",
          "ProblemNo": 8,
          "Kind": 1
        },
        {
          "Start": 305,
          "End": 306,
          "Text": "{彼女の}",
          "Ruby": "かのじょ の",
          "Lang": "ja",
          "ProblemNo": 8,
          "Kind": 2
        },
        {
          "Start": 306,
          "End": 311,
          "Text": "{日本語は彼女の母語です}",
          "Ruby": "にほん ご は かのじょ の ぼご です",
          "Lang": "ja",
          "ProblemNo": 8,
          "Kind": 3
        },
        {
          "Start": 311,
          "End": 317,
          "Text": "{日本語は彼女の母語です}",
          "Ruby": "にほん ご は かのじょ の ぼご です",
          "Lang": "ja",
          "ProblemNo": 8,
          "Kind": 4
        },
        {
          "Start": 317,
          "End": 321,
          "Text": "{日本語は彼女の母語です}",
          "Ruby": "にほん ご は かのじょ の ぼご です",
          "Lang": "ja",
          "ProblemNo": 9,
          "Kind": 1
        },
        {
          "Start": 321,
          "End": 323,
          "Text": "{ポルトガル語は}",
          "Ruby": "ぽるとがる ご は",
          "Lang": "ja",
          "ProblemNo": 9,
          "Kind": 2
        },
        {
          "Start": 323,
          "End": 328,
          "Text": "{ポルトガル語は彼女の母語です}",
          "Ruby": "ぽるとがる ご は かのじょ の ぼご です",
          "Lang": "ja",
          "ProblemNo": 9,
          "Kind": 3
        },
        {
          "Start": 328,
          "End": 334,
          "Text": "{ポルトガル語は彼女の母語です}",
          "Ruby": "ぽるとがる ご は かのじょ の ぼご です",
          "Lang": "ja",
          "ProblemNo": 9,
          "Kind": 4
        },
        {
          "Start": 334,
          "End": 337,
          "Text": "",
          "Ruby": "",
          "Lang": "",
          "ProblemNo": 0,
          "Kind": 5
        },
        {
          "Start": 337,
          "End": 341,
          "Text": "{日本語は私たちの母語です}",
          "Ruby": "にほん ご は わたしたち の ぼご です",
          "Lang": "ja",
          "ProblemNo": 0,
          "Kind": 1
        },
        {
          "Start": 341,
          "End": 342,
          "Text": "{私の}",
          "Ruby": "わたし の",
          "Lang": "ja",
          "ProblemNo": 0,
          "Kind": 2
        },
        {
          "Start": 342,
          "End": 347,
          "Text": "{日本語は私の母語です}",
          "Ruby": "にほん ご は わたし の ぼご です",
          "Lang": "ja",
          "ProblemNo": 0,
          "Kind": 3
        },
        {
          "Start": 347,
          "End": 353,
          "Text": "{日本語は私の母語です}",
          "Ruby": "にほん ご は わたし の ぼご です",
          "Lang": "ja",
          "ProblemNo": 0,
          "Kind": 4
        },
        {
          "Start": 353,
          "End": 357,
          "Text": "{日本語は私の母語です}",
          "Ruby": "にほん ご は わたし の ぼご です",
          "Lang": "ja",
          "ProblemNo": 1,
          "Kind": 1
        },
        {
          "Start": 357,
          "End": 358,
          "Text": "{彼の}",
          "Ruby": "かれ の",
          "Lang": "ja",
          "ProblemNo": 1,
          "Kind": 2
        },
        {
          "Start": 358,
          "End": 363,
          "Text": "{日本語は彼の母語です}",
          "Ruby": "にほん ご は かれ の ぼご です",
          "Lang": "ja",
          "ProblemNo": 1,
          "Kind": 3
        },
        {
          "Start": 363,
          "End": 369,
          "Text": "{日本語は彼の母語です}",
          "Ruby": "にほん ご は かれ の ぼご です",
          "Lang": "ja",
          "ProblemNo": 1,
          "Kind": 4
        },
        {
          "Start": 369,
          "End": 373,
          "Text": "{日本語は彼の母語です}",
          "Ruby": "にほん ご は かれ の ぼご です",
          "Lang": "ja",
          "ProblemNo": 2,
          "Kind": 1
        },
        {
          "Start": 373,
          "End": 374,
          "Text": "{彼らの}",
          "Ruby": "かれら の",
          "Lang": "ja",
          "ProblemNo": 2,
          "Kind": 2
        },
        {
          "Start": 374,
          "End": 379,
          "Text": "{日本語は彼らの母語です}",
          "Ruby": "にほん ご は かれら の ぼご です",
          "Lang": "ja",
          "ProblemNo": 2,
          "Kind": 3
        },
        {
          "Start": 379,
          "End": 385,
          "Text": "{日本語は彼らの母語です}",
          "Ruby": "にほん ご は かれら の ぼご です",
          "Lang": "ja",
          "ProblemNo": 2,
          "Kind": 4
        },
        {
          "Start": 385,
          "End": 389,
          "Text": "{日本語は彼らの母語です}",
          "Ruby": "にほん ご は かれら の ぼご です",
          "Lang": "ja",
          "ProblemNo": 3,
          "Kind": 1
        },
        {
          "Start": 389,
          "End": 390,
          "Text": "{英語は}",
          "Ruby": "えいご は",
          "Lang": "ja",
          "ProblemNo": 3,
          "Kind": 2
        },
        {
          "Start": 390,
          "End": 395,
          "Text": "{英語は彼らの母語です}",
          "Ruby": "えいご は かれら の ぼご です",
          "Lang": "ja",
          "ProblemNo": 3,
          "Kind": 3
        },
        {
          "Start": 395,
          "End": 401,
          "Text": "{英語は彼らの母語です}",
          "Ruby": "えいご は かれら の ぼご です",
          "Lang": "ja",
          "ProblemNo": 3,
          "Kind": 4
        },
        {
          "Start": 401,
          "End": 405,
          "Text": "{英語は彼らの母語です}",
          "Ruby": "えいご は かれら の ぼご です",
          "Lang": "ja",
          "ProblemNo": 4,
          "Kind": 1
        },
        {
          "Start": 405,
          "End": 407,
          "Text": "{ポルトガル語は}",
          "Ruby": "ぽるとがる ご は",
          "Lang": "ja",
          "ProblemNo": 4,
          "Kind": 2
        },
        {
          "Start": 407,
          "End": 412,
          "Text": "{ポルトガル語は彼らの母語です}",
          "Ruby": "ぽるとがる ご は かれら の ぼご です",
          "Lang": "ja",
          "ProblemNo": 4,
          "Kind": 3
        },
        {
          "Start": 412,
          "End": 418,
          "Text": "{ポルトガル語は彼らの母語です}",
          "Ruby": "ぽるとがる ご は かれら の ぼご です",
          "Lang": "ja",
          "ProblemNo": 4,
          "Kind": 4
        },
        {
          "Start": 418,
          "End": 422,
          "Text": "{ポルトガル語は彼らの母語です}",
          "Ruby": "ぽるとがる ご は かれら の ぼご です",
          "Lang": "ja",
          "ProblemNo": 5,
          "Kind": 1
        },
        {
          "Start": 422,
          "End": 423,
          "Text": "{あなたの}",
          "Ruby": "あなた の",
          "Lang": "ja",
          "ProblemNo": 5,
          "Kind": 2
        },
        {
          "Start": 423,
          "End": 428,
          "Text": "{ポルトガル語はあなたの母語です}",
          "Ruby": "ぽるとがる ご は あなた の ぼご です",
          "Lang": "ja",
          "ProblemNo": 5,
          "Kind": 3
        },
        {
          "Start": 428,
          "End": 434,
          "Text": "{ポルトガル語はあなたの母語です}",
          "Ruby": "ぽるとがる ご は あなた の ぼご です",
          "Lang": "ja",
          "ProblemNo": 5,
          "Kind": 4
        },
        {
          "Start": 434,
          "End": 438,
          "Text": "{ポルトガル語はあなたの母語です}",
          "Ruby": "ぽるとがる ご は あなた の ぼご です",
          "Lang": "ja",
          "ProblemNo": 6,
          "Kind": 1
        },
        {
          "Start": 438,
          "End": 440,
          "Text": "{日本語は}",
          "Ruby": "にほん ご は",
          "Lang": "ja",
          "ProblemNo": 6,
          "Kind": 2
        },
        {
          "Start": 440,
          "End": 445,
          "Text": "{日本語はあなたの母語です}",
          "Ruby": "にほん ご は あなた の ぼご です",
          "Lang": "ja",
          "ProblemNo": 6,
          "Kind": 3
        },
        {
          "Start": 445,
          "End": 451,
          "Text": "{日本語はあなたの母語です}",
          "Ruby": "にほん ご は あなた の ぼご です",
          "Lang": "ja",
          "ProblemNo": 6,
          "Kind": 4
        },
        {
          "Start": 451,
          "End": 455,
          "Text": "{日本語はあなたの母語です}",
          "Ruby": "にほん ご は あなた の ぼご です",
          "Lang": "ja",
          "ProblemNo": 7,
          "Kind": 1
        },
        {
          "Start": 455,
          "End": 457,
          "Text": "{木村さんの}",
          "Ruby": "きむら さん の",
          "Lang": "ja",
          "ProblemNo": 7,
          "Kind": 2
        },
        {
          "Start": 457,
          "End": 462,
          "Text": "{日本語は木村さんの母語です}",
          "Ruby": "にほん ご は きむら さん の ぼご です",
          "Lang": "ja",
          "ProblemNo": 7,
          "Kind": 3
        },
        {
          "Start": 462,
          "End": 468,
          "Text": "{日本語は木村さんの母語です}",
          "Ruby": "にほん ご は きむら さん の ぼご です",
          "Lang": "ja",
          "ProblemNo": 7,
          "Kind": 4
        },
        {
          "Start": 468,
          "End": 472,
          "Text": "{日本語は木村さんの母語です}",
          "Ruby": "にほん ご は きむら さん の ぼご です",
          "Lang": "ja",
          "ProblemNo": 8,
          "Kind": 1
        },
        {
          "Start": 472,
          "End": 473,
          "Text": "{彼女の}",
          "Ruby": "かのじょ の",
          "Lang": "ja",
          "ProblemNo": 8,
          "Kind": 2
        },
        {
          "Start": 473,
          "End": 478,
          "Text": "{日本語は彼女の母語です}",
          "Ruby": "にほん ご は かのじょ の ぼご です",
          "Lang": "ja",
          "ProblemNo": 8,
          "Kind": 3
        },
        {
          "Start": 478,
          "End": 484,
          "Text": "{日本語は彼女の母語です}",
          "Ruby": "にほん ご は かのじょ の ぼご です",
          "Lang": "ja",
          "ProblemNo": 8,
          "Kind": 4
        },
        {
          "Start": 484,
          "End": 488,
          "Text": "{日本語は彼女の母語です}",
          "Ruby": "にほん ご は かのじょ の ぼご です",
          "Lang": "ja",
          "ProblemNo": 9,
          "Kind": 1
        },
        {
          "Start": 488,
          "End": 490,
          "Text": "{ポルトガル語は}",
          "Ruby": "ぽるとがる ご は",
          "Lang": "ja",
          "ProblemNo": 9,
          "Kind": 2
        },
        {
          "Start": 490,
          "End": 495,
          "Text": "{ポルトガル語は彼女の母語です}",
          "Ruby": "ぽるとがる ご は かのじょ の ぼご です",
          "Lang": "ja",
          "ProblemNo": 9,
          "Kind": 3
        },
        {
          "Start": 495,
          "End": 501,
          "Text": "{ポルトガル語は彼女の母語です}",
          "Ruby": "ぽるとがる ご は かのじょ の ぼご です",
          "Lang": "ja",
          "ProblemNo": 9,
          "Kind": 4
        },
        {
          "Start": 501,
          "End": 504,
          "Text": "",
          "Ruby": "",
          "Lang": "",
          "ProblemNo": 0,
          "Kind": 5
        },
        {
          "Start": 504,
          "End": 524,
          "Text": "{Please subscribe!}",
          "Ruby": "",
          "Lang": "en",
          "ProblemNo": 0,
          "Kind": 7
        }
      ]
    }
  ],
  "CannotChange": true
}