{
  "SerieName": "grammar-ja-a",
  "No": 26,
  "VideoTitle": "必ず",
  "ThumbnailTitle": "",
  "YoutubeDescription": "",
  "YoutubeTitle": "",
  "Boxes": [
    {
      "Pos": 0,
      "PersonName": "y",
      "Candidates": [
        {
          "Word": "私は",
          "Root": "",
          "FeatureSet": null,
          "Conditions": null,
          "PersonConditions": null
        },
        {
          "Word": "木村さんは",
          "Root": "",
          "FeatureSet": null,
          "Conditions": null,
          "PersonConditions": null
        }
      ]
    },
    {
      "Pos": 1,
      "PersonName": "y",
      "Candidates": [
        {
          "Word": "必ず",
          "Root": "",
          "FeatureSet": null,
          "Conditions": null,
          "PersonConditions": null
        },
        {
          "Word": "おそらく",
          "Root": "",
          "FeatureSet": null,
          "Conditions": null,
          "PersonConditions": null
        }
      ]
    },
    {
      "Pos": 2,
      "PersonName": "y",
      "Candidates": [
        {
          "Word": "早起きします",
          "Root": "",
          "FeatureSet": null,
          "Conditions": null,
          "PersonConditions": null
        },
        {
          "Word": "寝坊します",
          "Root": "",
          "FeatureSet": null,
          "Conditions": null,
          "PersonConditions": null
        },
        {
          "Word": "遅刻します",
          "Root": "",
          "FeatureSet": null,
          "Conditions": null,
          "PersonConditions": null
        },
        {
          "Word": "参加します",
          "Root": "",
          "FeatureSet": null,
          "Conditions": null,
          "PersonConditions": null
        }
      ]
    }
  ],
  "Pars": [
    {
      "Header": "",
      "Poses": [
        0,
        1,
        2
      ]
    }
  ],
  "Exercises": [
    {
      "Name": "A",
      "Problems": [
        {
          "ProblemNo": 0,
          "OriginalCandidates": [
            {
              "Word": "私は",
              "Ruby": "わたし は"
            },
            {
              "Word": "必ず",
              "Ruby": "かならず"
            },
            {
              "Word": "寝坊します",
              "Ruby": "ねぼう し ます"
            }
          ],
          "ChangeCandidatePos": 0,
          "ChangeCandidates": [
            {
              "Word": "木村さんは",
              "Ruby": "きむら さん は"
            },
            {
              "Word": "",
              "Ruby": ""
            },
            {
              "Word": "",
              "Ruby": ""
            }
          ],
          "ChangeMorphemes": [
            {
              "Word": "木村さんは",
              "Root": "",
              "FeatureSet": null
            },
            {
              "Word": "",
              "Root": "",
              "FeatureSet": null
            },
            {
              "Word": "",
              "Root": "",
              "FeatureSet": null
            }
          ],
          "AnswerCandidates": [
            {
              "Word": "木村さんは",
              "Ruby": "きむら さん は"
            },
            {
              "Word": "必ず",
              "Ruby": "かならず"
            },
            {
              "Word": "寝坊します",
              "Ruby": "ねぼう し ます"
            }
          ]
        },
        {
          "ProblemNo": 1,
          "OriginalCandidates": [
            {
              "Word": "木村さんは",
              "Ruby": "きむら さん は"
            },
            {
              "Word": "必ず",
              "Ruby": "かならず"
            },
            {
              "Word": "寝坊します",
              "Ruby": "ねぼう し ます"
            }
          ],
          "ChangeCandidatePos": 2,
          "ChangeCandidates": [
            {
              "Word": "",
              "Ruby": ""
            },
            {
              "Word": "",
              "Ruby": ""
            },
            {
              "Word": "参加します",
              "Ruby": "さんか し ます"
            }
          ],
          "ChangeMorphemes": [
            {
              "Word": "",
              "Root": "",
              "FeatureSet": null
            },
            {
              "Word": "",
              "Root": "",
              "FeatureSet": null
            },
            {
              "Word": "参加します",
              "Root": "",
              "FeatureSet": null
            }
          ],
          "AnswerCandidates": [
            {
              "Word": "木村さんは",
              "Ruby": "きむら さん は"
            },
            {
              "Word": "必ず",
              "Ruby": "かならず"
            },
            {
              "Word": "参加します",
              "Ruby": "さんか し ます"
            }
          ]
        },
        {
          "ProblemNo": 2,
          "OriginalCandidates": [
            {
              "Word": "木村さんは",
              "Ruby": "きむら さん は"
            },
            {
              "Word": "必ず",
              "Ruby": "かならず"
            },
            {
              "Word": "参加します",
              "Ruby": "さんか し ます"
            }
          ],
          "ChangeCandidatePos": 2,
          "ChangeCandidates": [
            {
              "Word": "",
              "Ruby": ""
            },
            {
              "Word": "",
              "Ruby": ""
            },
            {
              "Word": "早起きします",
              "Ruby": "はやおき し ます"
            }
          ],
          "ChangeMorphemes": [
            {
              "Word": "",
              "Root": "",
              "FeatureSet": null
            },
            {
              "Word": "",
              "Root": "",
              "FeatureSet": null
            },
            {
              "Word": "早起きします",
              "Root": "",
              "FeatureSet": null
            }
          ],
          "AnswerCandidates": [
            {
              "Word": "木村さんは",
              "Ruby": "きむら さん は"
            },
            {
              "Word": "必ず",
              "Ruby": "かならず"
            },
            {
              "Word": "早起きします",
              "Ruby": "はやおき し ます"
            }
          ]
        },
        {
          "ProblemNo": 3,
          "OriginalCandidates": [
            {
              "Word": "木村さんは",
              "Ruby": "きむら さん は"
            },
            {
              "Word": "必ず",
              "Ruby": "かならず"
            },
            {
              "Word": "早起きします",
              "Ruby": "はやおき し ます"
            }
          ],
          "ChangeCandidatePos": 1,
          "ChangeCandidates": [
            {
              "Word": "",
              "Ruby": ""
            },
            {
              "Word": "おそらく",
              "Ruby": "おそらく"
            },
            {
              "Word": "",
              "Ruby": ""
            }
          ],
          "ChangeMorphemes": [
            {
              "Word": "",
              "Root": "",
              "FeatureSet": null
            },
            {
              "Word": "おそらく",
              "Root": "",
              "FeatureSet": null
            },
            {
              "Word": "",
              "Root": "",
              "FeatureSet": null
            }
          ],
          "AnswerCandidates": [
            {
              "Word": "木村さんは",
              "Ruby": "きむら さん は"
            },
            {
              "Word": "おそらく",
              "Ruby": "おそらく"
            },
            {
              "Word": "早起きします",
              "Ruby": "はやおき し ます"
            }
          ]
        },
        {
          "ProblemNo": 4,
          "OriginalCandidates": [
            {
              "Word": "木村さんは",
              "Ruby": "きむら さん は"
            },
            {
              "Word": "おそらく",
              "Ruby": "おそらく"
            },
            {
              "Word": "早起きします",
              "Ruby": "はやおき し ます"
            }
          ],
          "ChangeCandidatePos": 0,
          "ChangeCandidates": [
            {
              "Word": "私は",
              "Ruby": "わたし は"
            },
            {
              "Word": "",
              "Ruby": ""
            },
            {
              "Word": "",
              "Ruby": ""
            }
          ],
          "ChangeMorphemes": [
            {
              "Word": "私は",
              "Root": "",
              "FeatureSet": null
            },
            {
              "Word": "",
              "Root": "",
              "FeatureSet": null
            },
            {
              "Word": "",
              "Root": "",
              "FeatureSet": null
            }
          ],
          "AnswerCandidates": [
            {
              "Word": "私は",
              "Ruby": "わたし は"
            },
            {
              "Word": "おそらく",
              "Ruby": "おそらく"
            },
            {
              "Word": "早起きします",
              "Ruby": "はやおき し ます"
            }
          ]
        },
        {
          "ProblemNo": 5,
          "OriginalCandidates": [
            {
              "Word": "私は",
              "Ruby": "わたし は"
            },
            {
              "Word": "おそらく",
              "Ruby": "おそらく"
            },
            {
              "Word": "早起きします",
              "Ruby": "はやおき し ます"
            }
          ],
          "ChangeCandidatePos": 2,
          "ChangeCandidates": [
            {
              "Word": "",
              "Ruby": ""
            },
            {
              "Word": "",
              "Ruby": ""
            },
            {
              "Word": "参加します",
              "Ruby": "さんか し ます"
            }
          ],
          "ChangeMorphemes": [
            {
              "Word": "",
              "Root": "",
              "FeatureSet": null
            },
            {
              "Word": "",
              "Root": "",
              "FeatureSet": null
            },
            {
              "Word": "参加します",
              "Root": "",
              "FeatureSet": null
            }
          ],
          "AnswerCandidates": [
            {
              "Word": "私は",
              "Ruby": "わたし は"
            },
            {
              "Word": "おそらく",
              "Ruby": "おそらく"
            },
            {
              "Word": "参加します",
              "Ruby": "さんか し ます"
            }
          ]
        },
        {
          "ProblemNo": 6,
          "OriginalCandidates": [
            {
              "Word": "私は",
              "Ruby": "わたし は"
            },
            {
              "Word": "おそらく",
              "Ruby": "おそらく"
            },
            {
              "Word": "参加します",
              "Ruby": "さんか し ます"
            }
          ],
          "ChangeCandidatePos": 2,
          "ChangeCandidates": [
            {
              "Word": "",
              "Ruby": ""
            },
            {
              "Word": "",
              "Ruby": ""
            },
            {
              "Word": "遅刻します",
              "Ruby": "ちこく し ます"
            }
          ],
          "ChangeMorphemes": [
            {
              "Word": "",
              "Root": "",
              "FeatureSet": null
            },
            {
              "Word": "",
              "Root": "",
              "FeatureSet": null
            },
            {
              "Word": "遅刻します",
              "Root": "",
              "FeatureSet": null
            }
          ],
          "AnswerCandidates": [
            {
              "Word": "私は",
              "Ruby": "わたし は"
            },
            {
              "Word": "おそらく",
              "Ruby": "おそらく"
            },
            {
              "Word": "遅刻します",
              "Ruby": "ちこく し ます"
            }
          ]
        },
        {
          "ProblemNo": 7,
          "OriginalCandidates": [
            {
              "Word": "私は",
              "Ruby": "わたし は"
            },
            {
              "Word": "おそらく",
              "Ruby": "おそらく"
            },
            {
              "Word": "遅刻します",
              "Ruby": "ちこく し ます"
            }
          ],
          "ChangeCandidatePos": 2,
          "ChangeCandidates": [
            {
              "Word": "",
              "Ruby": ""
            },
            {
              "Word": "",
              "Ruby": ""
            },
            {
              "Word": "寝坊します",
              "Ruby": "ねぼう し ます"
            }
          ],
          "ChangeMorphemes": [
            {
              "Word": "",
              "Root": "",
              "FeatureSet": null
            },
            {
              "Word": "",
              "Root": "",
              "FeatureSet": null
            },
            {
              "Word": "寝坊します",
              "Root": "",
              "FeatureSet": null
            }
          ],
          "AnswerCandidates": [
            {
              "Word": "私は",
              "Ruby": "わたし は"
            },
            {
              "Word": "おそらく",
              "Ruby": "おそらく"
            },
            {
              "Word": "寝坊します",
              "Ruby": "ねぼう し ます"
            }
          ]
        },
        {
          "ProblemNo": 8,
          "OriginalCandidates": [
            {
              "Word": "私は",
              "Ruby": "わたし は"
            },
            {
              "Word": "おそらく",
              "Ruby": "おそらく"
            },
            {
              "Word": "寝坊します",
              "Ruby": "ねぼう し ます"
            }
          ],
          "ChangeCandidatePos": 0,
          "ChangeCandidates": [
            {
              "Word": "木村さんは",
              "Ruby": "きむら さん は"
            },
            {
              "Word": "",
              "Ruby": ""
            },
            {
              "Word": "",
              "Ruby": ""
            }
          ],
          "ChangeMorphemes": [
            {
              "Word": "木村さんは",
              "Root": "",
              "FeatureSet": null
            },
            {
              "Word": "",
              "Root": "",
              "FeatureSet": null
            },
            {
              "Word": "",
              "Root": "",
              "FeatureSet": null
            }
          ],
          "AnswerCandidates": [
            {
              "Word": "木村さんは",
              "Ruby": "きむら さん は"
            },
            {
              "Word": "おそらく",
              "Ruby": "おそらく"
            },
            {
              "Word": "寝坊します",
              "Ruby": "ねぼう し ます"
            }
          ]
        },
        {
          "ProblemNo": 9,
          "OriginalCandidates": [
            {
              "Word": "木村さんは",
              "Ruby": "きむら さん は"
            },
            {
              "Word": "おそらく",
              "Ruby": "おそらく"
            },
            {
              "Word": "寝坊します",
              "Ruby": "ねぼう し ます"
            }
          ],
          "ChangeCandidatePos": 2,
          "ChangeCandidates": [
            {
              "Word": "",
              "Ruby": ""
            },
            {
              "Word": "",
              "Ruby": ""
            },
            {
              "Word": "遅刻します",
              "Ruby": "ちこく し ます"
            }
          ],
          "ChangeMorphemes": [
            {
              "Word": "",
              "Root": "",
              "FeatureSet": null
            },
            {
              "Word": "",
              "Root": "",
              "FeatureSet": null
            },
            {
              "Word": "遅刻します",
              "Root": "",
              "FeatureSet": null
            }
          ],
          "AnswerCandidates": [
            {
              "Word": "木村さんは",
              "Ruby": "きむら さん は"
            },
            {
              "Word": "おそらく",
              "Ruby": "おそらく"
            },
            {
              "Word": "遅刻します",
              "Ruby": "ちこく し ます"
            }
          ]
        }
      ],
      "VideoFile": "grammar-ja-a_26_A.mp4",
      "AnimeticCaptions": [
        {
          "Start": 0,
          "End": 3,
          "Text": "{grammar-ja-a} #26 必ず",
          "Ruby": "",
          "Lang": "",
          "ProblemNo": 0,
          "Kind": 0
        },
        {
          "Start": 3,
          "End": 7,
          "Text": "{私は必ず寝坊します}",
          "Ruby": "わたし は かならず ねぼう し ます",
          "Lang": "ja",
          "ProblemNo": 0,
          "Kind": 1
        },
        {
          "Start": 7,
          "End": 9,
          "Text": "{木村さんは}",
          "Ruby": "きむら さん は",
          "Lang": "ja",
          "ProblemNo": 0,
          "Kind": 2
        },
        {
          "Start": 9,
          "End": 14,
          "Text": "{木村さんは必ず寝坊します}",
          "Ruby": "きむら さん は かならず ねぼう し ます",
          "Lang": "ja",
          "ProblemNo": 0,
          "Kind": 3
        },
        {
          "Start": 14,
          "End": 20,
          "Text": "{木村さんは必ず寝坊します}",
          "Ruby": "きむら さん は かならず ねぼう し ます",
          "Lang": "ja",
          "ProblemNo": 0,
          "Kind": 4
        },
        {
          "Start": 20,
          "End": 24,
          "Text": "{木村さんは必ず寝坊します}",
          "Ruby": "きむら さん は かならず ねぼう し ます",
          "Lang": "ja",
          "ProblemNo": 1,
          "Kind": 1
        },
        {
          "Start": 24,
          "End": 26,
          "Text": "{参加します}",
          "Ruby": "さんか し ます",
          "Lang": "ja",
          "ProblemNo": 1,
          "Kind": 2
        },
        {
          "Start": 26,
          "End": 31,
          "Text": "{木村さんは必ず参加します}",
          "Ruby": "きむら さん は かならず さんか し ます",
          "Lang": "ja",
          "ProblemNo": 1,
          "Kind": 3
        },
        {
          "Start": 31,
          "End": 37,
          "Text": "{木村さんは必ず参加します}",
          "Ruby": "きむら さん は かならず さんか し ます",
          "Lang": "ja",
          "ProblemNo": 1,
          "Kind": 4
        },
        {
          "Start": 37,
          "End": 41,
          "Text": "{木村さんは必ず参加します}",
          "Ruby": "きむら さん は かならず さんか し ます",
          "Lang": "ja",
          "ProblemNo": 2,
          "Kind": 1
        },
        {
          "Start": 41,
          "End": 43,
          "Text": "{早起きします}",
          "Ruby": "はやおき し ます",
          "Lang": "ja",
          "ProblemNo": 2,
          "Kind": 2
        },
        {
          "Start": 43,
          "End": 48,
          "Text": "{木村さんは必ず早起きします}",
          "Ruby": "きむら さん は かならず はやおき し ます",
          "Lang": "ja",
          "ProblemNo": 2,
          "Kind": 3
        },
        {
          "Start": 48,
          "End": 54,
          "Text": "{木村さんは必ず早起きします}",
          "Ruby": "きむら さん は かならず はやおき し ます",
          "Lang": "ja",
          "ProblemNo": 2,
          "Kind": 4
        },
        {
          "Start": 54,
          "End": 58,
          "Text": "{木村さんは必ず早起きします}",
          "Ruby": "きむら さん は かならず はやおき し ます",
          "Lang": "ja",
          "ProblemNo": 3,
          "Kind": 1
        },
        {
          "Start": 58,
          "End": 59,
          "Text": "{おそらく}",
          "Ruby": "おそらく",
          "Lang": "ja",
          "ProblemNo": 3,
          "Kind": 2
        },
        {
          "Start": 59,
          "End": 64,
          "Text": "{木村さんはおそらく早起きします}",
          "Ruby": "きむら さん は おそらく はやおき し ます",
          "Lang": "ja",
          "ProblemNo": 3,
          "Kind": 3
        },
        {
          "Start": 64,
          "End": 70,
          "Text": "{木村さんはおそらく早起きします}",
          "Ruby": "きむら さん は おそらく はやおき し ます",
          "Lang": "ja",
          "ProblemNo": 3,
          "Kind": 4
        },
        {
          "Start": 70,
          "End": 74,
          "Text": "{木村さんはおそらく早起きします}",
          "Ruby": "きむら さん は おそらく はやおき し ます",
          "Lang": "ja",
          "ProblemNo": 4,
          "Kind": 1
        },
        {
          "Start": 74,
          "End": 75,
          "Text": "{私は}",
          "Ruby": "わたし は",
          "Lang": "ja",
          "ProblemNo": 4,
          "Kind": 2
        },
        {
          "Start": 75,
          "End": 80,
          "Text": "{私はおそらく早起きします}",
          "Ruby": "わたし は おそらく はやおき し ます",
          "Lang": "ja",
          "ProblemNo": 4,
          "Kind": 3
        },
        {
          "Start": 80,
          "End": 86,
          "Text": "{私はおそらく早起きします}",
          "Ruby": "わたし は おそらく はやおき し ます",
          "Lang": "ja",
          "ProblemNo": 4,
          "Kind": 4
        },
        {
          "Start": 86,
          "End": 90,
          "Text": "{私はおそらく早起きします}",
          "Ruby": "わたし は おそらく はやおき し ます",
          "Lang": "ja",
          "ProblemNo": 5,
          "Kind": 1
        },
        {
          "Start": 90,
          "End": 92,
          "Text": "{参加します}",
          "Ruby": "さんか し ます",
          "Lang": "ja",
          "ProblemNo": 5,
          "Kind": 2
        },
        {
          "Start": 92,
          "End": 97,
          "Text": "{私はおそらく参加します}",
          "Ruby": "わたし は おそらく さんか し ます",
          "Lang": "ja",
          "ProblemNo": 5,
          "Kind": 3
        },
        {
          "Start": 97,
          "End": 103,
          "Text": "{私はおそらく参加します}",
          "Ruby": "わたし は おそらく さんか し ます",
          "Lang": "ja",
          "ProblemNo": 5,
          "Kind": 4
        },
        {
          "Start": 103,
          "End": 107,
          "Text": "{私はおそらく参加します}",
          "Ruby": "わたし は おそらく さんか し ます",
          "Lang": "ja",
          "ProblemNo": 6,
          "Kind": 1
        },
        {
          "Start": 107,
          "End": 109,
          "Text": "{遅刻します}",
          "Ruby": "ちこく し ます",
          "Lang": "ja",
          "ProblemNo": 6,
          "Kind": 2
        },
        {
          "Start": 109,
          "End": 114,
          "Text": "{私はおそらく遅刻します}",
          "Ruby": "わたし は おそらく ちこく し ます",
          "Lang": "ja",
          "ProblemNo": 6,
          "Kind": 3
        },
        {
          "Start": 114,
          "End": 120,
          "Text": "{私はおそらく遅刻します}",
          "Ruby": "わたし は おそらく ちこく し ます",
          "Lang": "ja",
          "ProblemNo": 6,
          "Kind": 4
        },
        {
          "Start": 120,
          "End": 124,
          "Text": "{私はおそらく遅刻します}",
          "Ruby": "わたし は おそらく ちこく し ます",
          "Lang": "ja",
          "ProblemNo": 7,
          "Kind": 1
        },
        {
          "Start": 124,
          "End": 126,
          "Text": "{寝坊します}",
          "Ruby": "ねぼう し ます",
          "Lang": "ja",
          "ProblemNo": 7,
          "Kind": 2
        },
        {
          "Start": 126,
          "End": 131,
          "Text": "{私はおそらく寝坊します}",
          "Ruby": "わたし は おそらく ねぼう し ます",
          "Lang": "ja",
          "ProblemNo": 7,
          "Kind": 3
        },
        {
          "Start": 131,
          "End": 137,
          "Text": "{私はおそらく寝坊します}",
          "Ruby": "わたし は おそらく ねぼう し ます",
          "Lang": "ja",
          "ProblemNo": 7,
          "Kind": 4
        },
        {
          "Start": 137,
          "End": 141,
          "Text": "{私はおそらく寝坊します}",
          "Ruby": "わたし は おそらく ねぼう し ます",
          "Lang": "ja",
          "ProblemNo": 8,
          "Kind": 1
        },
        {
          "Start": 141,
          "End": 143,
          "Text": "{木村さんは}",
          "Ruby": "きむら さん は",
          "Lang": "ja",
          "ProblemNo": 8,
          "Kind": 2
        },
        {
          "Start": 143,
          "End": 148,
          "Text": "{木村さんはおそらく寝坊します}",
          "Ruby": "きむら さん は おそらく ねぼう し ます",
          "Lang": "ja",
          "ProblemNo": 8,
          "Kind": 3
        },
        {
          "Start": 148,
          "End": 154,
          "Text": "{木村さんはおそらく寝坊します}",
          "Ruby": "きむら さん は おそらく ねぼう し ます",
          "Lang": "ja",
          "ProblemNo": 8,
          "Kind": 4
        },
        {
          "Start": 154,
          "End": 158,
          "Text": "{木村さんはおそらく寝坊します}",
          "Ruby": "きむら さん は おそらく ねぼう し ます",
          "Lang": "ja",
          "ProblemNo": 9,
          "Kind": 1
        },
        {
          "Start": 158,
          "End": 160,
          "Text": "{遅刻します}",
          "Ruby": "ちこく し ます",
          "Lang": "ja",
          "ProblemNo": 9,
          "Kind": 2
        },
        {
          "Start": 160,
          "End": 165,
          "Text": "{木村さんはおそらく遅刻します}",
          "Ruby": "きむら さん は おそらく ちこく し ます",
          "Lang": "ja",
          "ProblemNo": 9,
          "Kind": 3
        },
        {
          "Start": 165,
          "End": 171,
          "Text": "{木村さんはおそらく遅刻します}",
          "Ruby": "きむら さん は おそらく ちこく し ます",
          "Lang": "ja",
          "ProblemNo": 9,
          "Kind": 4
        },
        {
          "Start": 171,
          "End": 174,
          "Text": "",
          "Ruby": "",
          "Lang": "",
          "ProblemNo": 0,
          "Kind": 5
        },
        {
          "Start": 174,
          "End": 178,
          "Text": "{私は必ず寝坊します}",
          "Ruby": "わたし は かならず ねぼう し ます",
          "Lang": "ja",
          "ProblemNo": 0,
          "Kind": 1
        },
        {
          "Start": 178,
          "End": 180,
          "Text": "{木村さんは}",
          "Ruby": "きむら さん は",
          "Lang": "ja",
          "ProblemNo": 0,
          "Kind": 2
        },
        {
          "Start": 180,
          "End": 185,
          "Text": "{木村さんは必ず寝坊します}",
          "Ruby": "きむら さん は かならず ねぼう し ます",
          "Lang": "ja",
          "ProblemNo": 0,
          "Kind": 3
        },
        {
          "Start": 185,
          "End": 191,
          "Text": "{木村さんは必ず寝坊します}",
          "Ruby": "きむら さん は かならず ねぼう し ます",
          "Lang": "ja",
          "ProblemNo": 0,
          "Kind": 4
        },
        {
          "Start": 191,
          "End": 195,
          "Text": "{木村さんは必ず寝坊します}",
          "Ruby": "きむら さん は かならず ねぼう し ます",
          "Lang": "ja",
          "ProblemNo": 1,
          "Kind": 1
        },
        {
          "Start": 195,
          "End": 197,
          "Text": "{参加します}",
          "Ruby": "さんか し ます",
          "Lang": "ja",
          "ProblemNo": 1,
          "Kind": 2
        },
        {
          "Start": 197,
          "End": 202,
          "Text": "{木村さんは必ず参加します}",
          "Ruby": "きむら さん は かならず さんか し ます",
          "Lang": "ja",
          "ProblemNo": 1,
          "Kind": 3
        },
        {
          "Start": 202,
          "End": 208,
          "Text": "{木村さんは必ず参加します}",
          "Ruby": "きむら さん は かならず さんか し ます",
          "Lang": "ja",
          "ProblemNo": 1,
          "Kind": 4
        },
        {
          "Start": 208,
          "End": 212,
          "Text": "{木村さんは必ず参加します}",
          "Ruby": "きむら さん は かならず さんか し ます",
          "Lang": "ja",
          "ProblemNo": 2,
          "Kind": 1
        },
        {
          "Start": 212,
          "End": 214,
          "Text": "{早起きします}",
          "Ruby": "はやおき し ます",
          "Lang": "ja",
          "ProblemNo": 2,
          "Kind": 2
        },
        {
          "Start": 214,
          "End": 219,
          "Text": "{木村さんは必ず早起きします}",
          "Ruby": "きむら さん は かならず はやおき し ます",
          "Lang": "ja",
          "ProblemNo": 2,
          "Kind": 3
        },
        {
          "Start": 219,
          "End": 225,
          "Text": "{木村さんは必ず早起きします}",
          "Ruby": "きむら さん は かならず はやおき し ます",
          "Lang": "ja",
          "ProblemNo": 2,
          "Kind": 4
        },
        {
          "Start": 225,
          "End": 229,
          "Text": "{木村さんは必ず早起きします}",
          "Ruby": "きむら さん は かならず はやおき し ます",
          "Lang": "ja",
          "ProblemNo": 3,
          "Kind": 1
        },
        {
          "Start": 229,
          "End": 230,
          "Text": "{おそらく}",
          "Ruby": "おそらく",
          "Lang": "ja",
          "ProblemNo": 3,
          "Kind": 2
        },
        {
          "Start": 230,
          "End": 235,
          "Text": "{木村さんはおそらく早起きします}",
          "Ruby": "きむら さん は おそらく はやおき し ます",
          "Lang": "ja",
          "ProblemNo": 3,
          "Kind": 3
        },
        {
          "Start": 235,
          "End": 241,
          "Text": "{木村さんはおそらく早起きします}",
          "Ruby": "きむら さん は おそらく はやおき し ます",
          "Lang": "ja",
          "ProblemNo": 3,
          "Kind": 4
        },
        {
          "Start": 241,
          "End": 245,
          "Text": "{木村さんはおそらく早起きします}",
          "Ruby": "きむら さん は おそらく はやおき し ます",
          "Lang": "ja",
          "ProblemNo": 4,
          "Kind": 1
        },
        {
          "Start": 245,
          "End": 246,
          "Text": "{私は}",
          "Ruby": "わたし は",
          "Lang": "ja",
          "ProblemNo": 4,
          "Kind": 2
        },
        {
          "Start": 246,
          "End": 251,
          "Text": "{私はおそらく早起きします}",
          "Ruby": "わたし は おそらく はやおき し ます",
          "Lang": "ja",
          "ProblemNo": 4,
          "Kind": 3
        },
        {
          "Start": 251,
          "End": 257,
          "Text": "{私はおそらく早起きします}",
          "Ruby": "わたし は おそらく はやおき し ます",
          "Lang": "ja",
          "ProblemNo": 4,
          "Kind": 4
        },
        {
          "Start": 257,
          "End": 261,
          "Text": "{私はおそらく早起きします}",
          "Ruby": "わたし は おそらく はやおき し ます",
          "Lang": "ja",
          "ProblemNo": 5,
          "Kind": 1
        },
        {
          "Start": 261,
          "End": 263,
          "Text": "{参加します}",
          "Ruby": "さんか し ます",
          "Lang": "ja",
          "ProblemNo": 5,
          "Kind": 2
        },
        {
          "Start": 263,
          "End": 268,
          "Text": "{私はおそらく参加します}",
          "Ruby": "わたし は おそらく さんか し ます",
          "Lang": "ja",
          "ProblemNo": 5,
          "Kind": 3
        },
        {
          "Start": 268,
          "End": 274,
          "Text": "{私はおそらく参加します}",
          "Ruby": "わたし は おそらく さんか し ます",
          "Lang": "ja",
          "ProblemNo": 5,
          "Kind": 4
        },
        {
          "Start": 274,
          "End": 278,
          "Text": "{私はおそらく参加します}",
          "Ruby": "わたし は おそらく さんか し ます",
          "Lang": "ja",
          "ProblemNo": 6,
          "Kind": 1
        },
        {
          "Start": 278,
          "End": 280,
          "Text": "{遅刻します}",
          "Ruby": "ちこく し ます",
          "Lang": "ja",
          "ProblemNo": 6,
          "Kind": 2
        },
        {
          "Start": 280,
          "End": 285,
          "Text": "{私はおそらく遅刻します}",
          "Ruby": "わたし は おそらく ちこく し ます",
          "Lang": "ja",
          "ProblemNo": 6,
          "Kind": 3
        },
        {
          "Start": 285,
          "End": 291,
          "Text": "{私はおそらく遅刻します}",
          "Ruby": "わたし は おそらく ちこく し ます",
          "Lang": "ja",
          "ProblemNo": 6,
          "Kind": 4
        },
        {
          "Start": 291,
          "End": 295,
          "Text": "{私はおそらく遅刻します}",
          "Ruby": "わたし は おそらく ちこく し ます",
          "Lang": "ja",
          "ProblemNo": 7,
          "Kind": 1
        },
        {
          "Start": 295,
          "End": 297,
          "Text": "{寝坊します}",
          "Ruby": "ねぼう し ます",
          "Lang": "ja",
          "ProblemNo": 7,
          "Kind": 2
        },
        {
          "Start": 297,
          "End": 302,
          "Text": "{私はおそらく寝坊します}",
          "Ruby": "わたし は おそらく ねぼう し ます",
          "Lang": "ja",
          "ProblemNo": 7,
          "Kind": 3
        },
        {
          "Start": 302,
          "End": 308,
          "Text": "{私はおそらく寝坊します}",
          "Ruby": "わたし は おそらく ねぼう し ます",
          "Lang": "ja",
          "ProblemNo": 7,
          "Kind": 4
        },
        {
          "Start": 308,
          "End": 312,
          "Text": "{私はおそらく寝坊します}",
          "Ruby": "わたし は おそらく ねぼう し ます",
          "Lang": "ja",
          "ProblemNo": 8,
          "Kind": 1
        },
        {
          "Start": 312,
          "End": 314,
          "Text": "{木村さんは}",
          "Ruby": "きむら さん は",
          "Lang": "ja",
          "ProblemNo": 8,
          "Kind": 2
        },
        {
          "Start": 314,
          "End": 319,
          "Text": "{木村さんはおそらく寝坊します}",
          "Ruby": "きむら さん は おそらく ねぼう し ます",
          "Lang": "ja",
          "ProblemNo": 8,
          "Kind": 3
        },
        {
          "Start": 319,
          "End": 325,
          "Text": "{木村さんはおそらく寝坊します}",
          "Ruby": "きむら さん は おそらく ねぼう し ます",
          "Lang": "ja",
          "ProblemNo": 8,
          "Kind": 4
        },
        {
          "Start": 325,
          "End": 329,
          "Text": "{木村さんはおそらく寝坊します}",
          "Ruby": "きむら さん は おそらく ねぼう し ます",
          "Lang": "ja",
          "ProblemNo": 9,
          "Kind": 1
        },
        {
          "Start": 329,
          "End": 331,
          "Text": "{遅刻します}",
          "Ruby": "ちこく し ます",
          "Lang": "ja",
          "ProblemNo": 9,
          "Kind": 2
        },
        {
          "Start": 331,
          "End": 336,
          "Text": "{木村さんはおそらく遅刻します}",
          "Ruby": "きむら さん は おそらく ちこく し ます",
          "Lang": "ja",
          "ProblemNo": 9,
          "Kind": 3
        },
        {
          "Start": 336,
          "End": 342,
          "Text": "{木村さんはおそらく遅刻します}",
          "Ruby": "きむら さん は おそらく ちこく し ます",
          "Lang": "ja",
          "ProblemNo": 9,
          "Kind": 4
        },
        {
          "Start": 342,
          "End": 345,
          "Text": "",
          "Ruby": "",
          "Lang": "",
          "ProblemNo": 0,
          "Kind": 5
        },
        {
          "Start": 345,
          "End": 349,
          "Text": "{私は必ず寝坊します}",
          "Ruby": "わたし は かならず ねぼう し ます",
          "Lang": "ja",
          "ProblemNo": 0,
          "Kind": 1
        },
        {
          "Start": 349,
          "End": 351,
          "Text": "{木村さんは}",
          "Ruby": "きむら さん は",
          "Lang": "ja",
          "ProblemNo": 0,
          "Kind": 2
        },
        {
          "Start": 351,
          "End": 356,
          "Text": "{木村さんは必ず寝坊します}",
          "Ruby": "きむら さん は かならず ねぼう し ます",
          "Lang": "ja",
          "ProblemNo": 0,
          "Kind": 3
        },
        {
          "Start": 356,
          "End": 362,
          "Text": "{木村さんは必ず寝坊します}",
          "Ruby": "きむら さん は かならず ねぼう し ます",
          "Lang": "ja",
          "ProblemNo": 0,
          "Kind": 4
        },
        {
          "Start": 362,
          "End": 366,
          "Text": "{木村さんは必ず寝坊します}",
          "Ruby": "きむら さん は かならず ねぼう し ます",
          "Lang": "ja",
          "ProblemNo": 1,
          "Kind": 1
        },
        {
          "Start": 366,
          "End": 368,
          "Text": "{参加します}",
          "Ruby": "さんか し ます",
          "Lang": "ja",
          "ProblemNo": 1,
          "Kind": 2
        },
        {
          "Start": 368,
          "End": 373,
          "Text": "{木村さんは必ず参加します}",
          "Ruby": "きむら さん は かならず さんか し ます",
          "Lang": "ja",
          "ProblemNo": 1,
          "Kind": 3
        },
        {
          "Start": 373,
          "End": 379,
          "Text": "{木村さんは必ず参加します}",
          "Ruby": "きむら さん は かならず さんか し ます",
          "Lang": "ja",
          "ProblemNo": 1,
          "Kind": 4
        },
        {
          "Start": 379,
          "End": 383,
          "Text": "{木村さんは必ず参加します}",
          "Ruby": "きむら さん は かならず さんか し ます",
          "Lang": "ja",
          "ProblemNo": 2,
          "Kind": 1
        },
        {
          "Start": 383,
          "End": 385,
          "Text": "{早起きします}",
          "Ruby": "はやおき し ます",
          "Lang": "ja",
          "ProblemNo": 2,
          "Kind": 2
        },
        {
          "Start": 385,
          "End": 390,
          "Text": "{木村さんは必ず早起きします}",
          "Ruby": "きむら さん は かならず はやおき し ます",
          "Lang": "ja",
          "ProblemNo": 2,
          "Kind": 3
        },
        {
          "Start": 390,
          "End": 396,
          "Text": "{木村さんは必ず早起きします}",
          "Ruby": "きむら さん は かならず はやおき し ます",
          "Lang": "ja",
          "ProblemNo": 2,
          "Kind": 4
        },
        {
          "Start": 396,
          "End": 400,
          "Text": "{木村さんは必ず早起きします}",
          "Ruby": "きむら さん は かならず はやおき し ます",
          "Lang": "ja",
          "ProblemNo": 3,
          "Kind": 1
        },
        {
          "Start": 400,
          "End": 401,
          "Text": "{おそらく}",
          "Ruby": "おそらく",
          "Lang": "ja",
          "ProblemNo": 3,
          "Kind": 2
        },
        {
          "Start": 401,
          "End": 406,
          "Text": "{木村さんはおそらく早起きします}",
          "Ruby": "きむら さん は おそらく はやおき し ます",
          "Lang": "ja",
          "ProblemNo": 3,
          "Kind": 3
        },
        {
          "Start": 406,
          "End": 412,
          "Text": "{木村さんはおそらく早起きします}",
          "Ruby": "きむら さん は おそらく はやおき し ます",
          "Lang": "ja",
          "ProblemNo": 3,
          "Kind": 4
        },
        {
          "Start": 412,
          "End": 416,
          "Text": "{木村さんはおそらく早起きします}",
          "Ruby": "きむら さん は おそらく はやおき し ます",
          "Lang": "ja",
          "ProblemNo": 4,
          "Kind": 1
        },
        {
          "Start": 416,
          "End": 417,
          "Text": "{私は}",
          "Ruby": "わたし は",
          "Lang": "ja",
          "ProblemNo": 4,
          "Kind": 2
        },
        {
          "Start": 417,
          "End": 422,
          "Text": "{私はおそらく早起きします}",
          "Ruby": "わたし は おそらく はやおき し ます",
          "Lang": "ja",
          "ProblemNo": 4,
          "Kind": 3
        },
        {
          "Start": 422,
          "End": 428,
          "Text": "{私はおそらく早起きします}",
          "Ruby": "わたし は おそらく はやおき し ます",
          "Lang": "ja",
          "ProblemNo": 4,
          "Kind": 4
        },
        {
          "Start": 428,
          "End": 432,
          "Text": "{私はおそらく早起きします}",
          "Ruby": "わたし は おそらく はやおき し ます",
          "Lang": "ja",
          "ProblemNo": 5,
          "Kind": 1
        },
        {
          "Start": 432,
          "End": 434,
          "Text": "{参加します}",
          "Ruby": "さんか し ます",
          "Lang": "ja",
          "ProblemNo": 5,
          "Kind": 2
        },
        {
          "Start": 434,
          "End": 439,
          "Text": "{私はおそらく参加します}",
          "Ruby": "わたし は おそらく さんか し ます",
          "Lang": "ja",
          "ProblemNo": 5,
          "Kind": 3
        },
        {
          "Start": 439,
          "End": 445,
          "Text": "{私はおそらく参加します}",
          "Ruby": "わたし は おそらく さんか し ます",
          "Lang": "ja",
          "ProblemNo": 5,
          "Kind": 4
        },
        {
          "Start": 445,
          "End": 449,
          "Text": "{私はおそらく参加します}",
          "Ruby": "わたし は おそらく さんか し ます",
          "Lang": "ja",
          "ProblemNo": 6,
          "Kind": 1
        },
        {
          "Start": 449,
          "End": 451,
          "Text": "{遅刻します}",
          "Ruby": "ちこく し ます",
          "Lang": "ja",
          "ProblemNo": 6,
          "Kind": 2
        },
        {
          "Start": 451,
          "End": 456,
          "Text": "{私はおそらく遅刻します}",
          "Ruby": "わたし は おそらく ちこく し ます",
          "Lang": "ja",
          "ProblemNo": 6,
          "Kind": 3
        },
        {
          "Start": 456,
          "End": 462,
          "Text": "{私はおそらく遅刻します}",
          "Ruby": "わたし は おそらく ちこく し ます",
          "Lang": "ja",
          "ProblemNo": 6,
          "Kind": 4
        },
        {
          "Start": 462,
          "End": 466,
          "Text": "{私はおそらく遅刻します}",
          "Ruby": "わたし は おそらく ちこく し ます",
          "Lang": "ja",
          "ProblemNo": 7,
          "Kind": 1
        },
        {
          "Start": 466,
          "End": 468,
          "Text": "{寝坊します}",
          "Ruby": "ねぼう し ます",
          "Lang": "ja",
          "ProblemNo": 7,
          "Kind": 2
        },
        {
          "Start": 468,
          "End": 473,
          "Text": "{私はおそらく寝坊します}",
          "Ruby": "わたし は おそらく ねぼう し ます",
          "Lang": "ja",
          "ProblemNo": 7,
          "Kind": 3
        },
        {
          "Start": 473,
          "End": 479,
          "Text": "{私はおそらく寝坊します}",
          "Ruby": "わたし は おそらく ねぼう し ます",
          "Lang": "ja",
          "ProblemNo": 7,
          "Kind": 4
        },
        {
          "Start": 479,
          "End": 483,
          "Text": "{私はおそらく寝坊します}",
          "Ruby": "わたし は おそらく ねぼう し ます",
          "Lang": "ja",
          "ProblemNo": 8,
          "Kind": 1
        },
        {
          "Start": 483,
          "End": 485,
          "Text": "{木村さんは}",
          "Ruby": "きむら さん は",
          "Lang": "ja",
          "ProblemNo": 8,
          "Kind": 2
        },
        {
          "Start": 485,
          "End": 490,
          "Text": "{木村さんはおそらく寝坊します}",
          "Ruby": "きむら さん は おそらく ねぼう し ます",
          "Lang": "ja",
          "ProblemNo": 8,
          "Kind": 3
        },
        {
          "Start": 490,
          "End": 496,
          "Text": "{木村さんはおそらく寝坊します}",
          "Ruby": "きむら さん は おそらく ねぼう し ます",
          "Lang": "ja",
          "ProblemNo": 8,
          "Kind": 4
        },
        {
          "Start": 496,
          "End": 500,
          "Text": "{木村さんはおそらく寝坊します}",
          "Ruby": "きむら さん は おそらく ねぼう し ます",
          "Lang": "ja",
          "ProblemNo": 9,
          "Kind": 1
        },
        {
          "Start": 500,
          "End": 502,
          "Text": "{遅刻します}",
          "Ruby": "ちこく し ます",
          "Lang": "ja",
          "ProblemNo": 9,
          "Kind": 2
        },
        {
          "Start": 502,
          "End": 507,
          "Text": "{木村さんはおそらく遅刻します}",
          "Ruby": "きむら さん は おそらく ちこく し ます",
          "Lang": "ja",
          "ProblemNo": 9,
          "Kind": 3
        },
        {
          "Start": 507,
          "End": 513,
          "Text": "{木村さんはおそらく遅刻します}",
          "Ruby": "きむら さん は おそらく ちこく し ます",
          "Lang": "ja",
          "ProblemNo": 9,
          "Kind": 4
        },
        {
          "Start": 513,
          "End": 516,
          "Text": "",
          "Ruby": "",
          "Lang": "",
          "ProblemNo": 0,
          "Kind": 5
        },
        {
          "Start": 516,
          "End": 536,
          "Text": "{Please subscribe!}",
          "Ruby": "",
          "Lang": "en",
          "ProblemNo": 0,
          "Kind": 7
        }
      ]
    }
  ],
  "CannotChange": true
}