{
  "Name": "math-1st-grade",
  "ID": "PLfI6UBkxvOTlro5RKfawl78lNLjdgQ429",
  "DefaultLang": "az",
  "Title": "bir riyaziyyat master ol! 💯 1-ci sinif Math",
  "Description": "1-ci sinif math",
  "Localizations": null,
  "PlaylistTags": "math,1st grade,1-ci sinif,orta məktəb,math",
  "Updated": true,
  "PlaylistItems": [
    {
      "ID": "UExmSTZVQmt4dk9UbHJvNVJLZmF3bDc4bE5MamRnUTQyOS41NkI0NEY2RDEwNTU3Q0M2",
      "VideoID": "5BBWh2Meo0A",
      "VideoFile": "math-addition_1.webm"
    },
    {
      "ID": "UExmSTZVQmt4dk9UbHJvNVJLZmF3bDc4bE5MamRnUTQyOS4yODlGNEE0NkRGMEEzMEQy",
      "VideoID": "SWDz90gyKoY",
      "VideoFile": "math-addition_10.webm"
    },
    {
      "ID": "UExmSTZVQmt4dk9UbHJvNVJLZmF3bDc4bE5MamRnUTQyOS4wMTcyMDhGQUE4NTIzM0Y5",
      "VideoID": "Kny1HN2BwK4",
      "VideoFile": "math-addition_11.webm"
    },
    {
      "ID": "UExmSTZVQmt4dk9UbHJvNVJLZmF3bDc4bE5MamRnUTQyOS41MjE1MkI0OTQ2QzJGNzNG",
      "VideoID": "jpd2Y5vM5rg",
      "VideoFile": "math-addition_12.webm"
    },
    {
      "ID": "UExmSTZVQmt4dk9UbHJvNVJLZmF3bDc4bE5MamRnUTQyOS4wOTA3OTZBNzVEMTUzOTMy",
      "VideoID": "g7H_0lKbK-4",
      "VideoFile": "math-addition_13.webm"
    },
    {
      "ID": "UExmSTZVQmt4dk9UbHJvNVJLZmF3bDc4bE5MamRnUTQyOS4xMkVGQjNCMUM1N0RFNEUx",
      "VideoID": "a9U5KaxvcuQ",
      "VideoFile": "math-addition_14.webm"
    },
    {
      "ID": "UExmSTZVQmt4dk9UbHJvNVJLZmF3bDc4bE5MamRnUTQyOS41MzJCQjBCNDIyRkJDN0VD",
      "VideoID": "g_mU7eYCBvg",
      "VideoFile": "math-addition_15.webm"
    },
    {
      "ID": "UExmSTZVQmt4dk9UbHJvNVJLZmF3bDc4bE5MamRnUTQyOS5DQUNERDQ2NkIzRUQxNTY1",
      "VideoID": "x33X720jbAY",
      "VideoFile": "math-addition_16.webm"
    },
    {
      "ID": "UExmSTZVQmt4dk9UbHJvNVJLZmF3bDc4bE5MamRnUTQyOS45NDk1REZENzhEMzU5MDQz",
      "VideoID": "LgO9LcKQHYQ",
      "VideoFile": "math-addition_17.webm"
    },
    {
      "ID": "UExmSTZVQmt4dk9UbHJvNVJLZmF3bDc4bE5MamRnUTQyOS5GNjNDRDREMDQxOThCMDQ2",
      "VideoID": "StqIkzTZp2A",
      "VideoFile": "math-addition_18.webm"
    },
    {
      "ID": "UExmSTZVQmt4dk9UbHJvNVJLZmF3bDc4bE5MamRnUTQyOS40NzZCMERDMjVEN0RFRThB",
      "VideoID": "f7e_SYzulrY",
      "VideoFile": "math-addition_19.webm"
    },
    {
      "ID": "UExmSTZVQmt4dk9UbHJvNVJLZmF3bDc4bE5MamRnUTQyOS5EMEEwRUY5M0RDRTU3NDJC",
      "VideoID": "aXRyZyn5e7E",
      "VideoFile": "math-addition_2.webm"
    },
    {
      "ID": "UExmSTZVQmt4dk9UbHJvNVJLZmF3bDc4bE5MamRnUTQyOS45ODRDNTg0QjA4NkFBNkQy",
      "VideoID": "h5t08-3TflU",
      "VideoFile": "math-addition_20.webm"
    },
    {
      "ID": "UExmSTZVQmt4dk9UbHJvNVJLZmF3bDc4bE5MamRnUTQyOS4zMDg5MkQ5MEVDMEM1NTg2",
      "VideoID": "Q89TvdHyJqA",
      "VideoFile": "math-addition_21.webm"
    },
    {
      "ID": "UExmSTZVQmt4dk9UbHJvNVJLZmF3bDc4bE5MamRnUTQyOS41Mzk2QTAxMTkzNDk4MDhF",
      "VideoID": "rGyJuio-ay4",
      "VideoFile": "math-addition_22.webm"
    },
    {
      "ID": "UExmSTZVQmt4dk9UbHJvNVJLZmF3bDc4bE5MamRnUTQyOS5EQUE1NTFDRjcwMDg0NEMz",
      "VideoID": "tEuKhP8duQI",
      "VideoFile": "math-addition_23.webm"
    },
    {
      "ID": "UExmSTZVQmt4dk9UbHJvNVJLZmF3bDc4bE5MamRnUTQyOS41QTY1Q0UxMTVCODczNThE",
      "VideoID": "mcldQxFpKeo",
      "VideoFile": "math-addition_24.webm"
    },
    {
      "ID": "UExmSTZVQmt4dk9UbHJvNVJLZmF3bDc4bE5MamRnUTQyOS4yMUQyQTQzMjRDNzMyQTMy",
      "VideoID": "kWLUPKbKs3c",
      "VideoFile": "math-addition_25.webm"
    },
    {
      "ID": "UExmSTZVQmt4dk9UbHJvNVJLZmF3bDc4bE5MamRnUTQyOS45RTgxNDRBMzUwRjQ0MDhC",
      "VideoID": "BFHlISfIWAA",
      "VideoFile": "math-addition_26.webm"
    },
    {
      "ID": "UExmSTZVQmt4dk9UbHJvNVJLZmF3bDc4bE5MamRnUTQyOS5ENDU4Q0M4RDExNzM1Mjcy",
      "VideoID": "ZX5i4pE74eM",
      "VideoFile": "math-addition_27.webm"
    },
    {
      "ID": "UExmSTZVQmt4dk9UbHJvNVJLZmF3bDc4bE5MamRnUTQyOS4yMDhBMkNBNjRDMjQxQTg1",
      "VideoID": "Dg-G-4IaXN4",
      "VideoFile": "math-addition_28.webm"
    },
    {
      "ID": "UExmSTZVQmt4dk9UbHJvNVJLZmF3bDc4bE5MamRnUTQyOS5GM0Q3M0MzMzY5NTJFNTdE",
      "VideoID": "BgpHUBKM1_E",
      "VideoFile": "math-addition_29.webm"
    },
    {
      "ID": "UExmSTZVQmt4dk9UbHJvNVJLZmF3bDc4bE5MamRnUTQyOS4zRjM0MkVCRTg0MkYyQTM0",
      "VideoID": "4KgDdlmJytI",
      "VideoFile": "math-addition_3.webm"
    },
    {
      "ID": "UExmSTZVQmt4dk9UbHJvNVJLZmF3bDc4bE5MamRnUTQyOS45NzUwQkI1M0UxNThBMkU0",
      "VideoID": "7DVDgBsffj8",
      "VideoFile": "math-addition_30.webm"
    },
    {
      "ID": "UExmSTZVQmt4dk9UbHJvNVJLZmF3bDc4bE5MamRnUTQyOS5DNzE1RjZEMUZCMjA0RDBB",
      "VideoID": "-cL1mWaWLrw",
      "VideoFile": "math-addition_31.webm"
    },
    {
      "ID": "UExmSTZVQmt4dk9UbHJvNVJLZmF3bDc4bE5MamRnUTQyOS43MTI1NDIwOTMwQjIxMzNG",
      "VideoID": "kPZYh-5Cl6A",
      "VideoFile": "math-addition_32.webm"
    },
    {
      "ID": "UExmSTZVQmt4dk9UbHJvNVJLZmF3bDc4bE5MamRnUTQyOS5DQ0MyQ0Y4Mzg0M0VGOEYw",
      "VideoID": "pp0-Je-Ll-M",
      "VideoFile": "math-addition_33.webm"
    },
    {
      "ID": "UExmSTZVQmt4dk9UbHJvNVJLZmF3bDc4bE5MamRnUTQyOS4yQUE2Q0JEMTk4NTM3RTZC",
      "VideoID": "tSZDMFJVfhE",
      "VideoFile": "math-addition_34.webm"
    },
    {
      "ID": "UExmSTZVQmt4dk9UbHJvNVJLZmF3bDc4bE5MamRnUTQyOS5DMkU4NTY1QUFGQTYwMDE3",
      "VideoID": "Q0cqMt5oW7Y",
      "VideoFile": "math-addition_35.webm"
    },
    {
      "ID": "UExmSTZVQmt4dk9UbHJvNVJLZmF3bDc4bE5MamRnUTQyOS44Mjc5REFBRUE2MTdFRDU0",
      "VideoID": "lrCVs2XTerw",
      "VideoFile": "math-addition_36.webm"
    },
    {
      "ID": "UExmSTZVQmt4dk9UbHJvNVJLZmF3bDc4bE5MamRnUTQyOS43NDhFRTgwOTRERTU4Rjg3",
      "VideoID": "WXcMiPVb0tg",
      "VideoFile": "math-addition_37.webm"
    },
    {
      "ID": "UExmSTZVQmt4dk9UbHJvNVJLZmF3bDc4bE5MamRnUTQyOS41QUZGQTY5OTE4QTREQUU4",
      "VideoID": "j6A8FrOuq_I",
      "VideoFile": "math-addition_38.webm"
    },
    {
      "ID": "UExmSTZVQmt4dk9UbHJvNVJLZmF3bDc4bE5MamRnUTQyOS4zRDBDOEZDOUM0MDY5NEEz",
      "VideoID": "_eQcO8mWy-I",
      "VideoFile": "math-addition_39.webm"
    },
    {
      "ID": "UExmSTZVQmt4dk9UbHJvNVJLZmF3bDc4bE5MamRnUTQyOS5CMEQ2Mjk5NTc3NDZFRUNB",
      "VideoID": "Gb6_3eOyWko",
      "VideoFile": "math-addition_4.webm"
    },
    {
      "ID": "UExmSTZVQmt4dk9UbHJvNVJLZmF3bDc4bE5MamRnUTQyOS42MTI4Njc2QjM1RjU1MjlG",
      "VideoID": "1kB5u_RFlio",
      "VideoFile": "math-addition_40.webm"
    },
    {
      "ID": "UExmSTZVQmt4dk9UbHJvNVJLZmF3bDc4bE5MamRnUTQyOS45RjNFMDhGQ0Q2RkFCQTc1",
      "VideoID": "FtMieWUkWmE",
      "VideoFile": "math-addition_41.webm"
    },
    {
      "ID": "UExmSTZVQmt4dk9UbHJvNVJLZmF3bDc4bE5MamRnUTQyOS40QTA3NTU2RkM1QzlCMzYx",
      "VideoID": "DmDPzi9oP-8",
      "VideoFile": "math-addition_42.webm"
    },
    {
      "ID": "UExmSTZVQmt4dk9UbHJvNVJLZmF3bDc4bE5MamRnUTQyOS5BRjJDODk5REM0NjkzMUIy",
      "VideoID": "YC6YJQUXCsU",
      "VideoFile": "math-addition_43.webm"
    },
    {
      "ID": "UExmSTZVQmt4dk9UbHJvNVJLZmF3bDc4bE5MamRnUTQyOS4xOTEzQzhBQzU3MDNDNjcz",
      "VideoID": "wcSMkcUmjLY",
      "VideoFile": "math-addition_44.webm"
    },
    {
      "ID": "UExmSTZVQmt4dk9UbHJvNVJLZmF3bDc4bE5MamRnUTQyOS5GNDg1Njc1QzZERjlFRjE5",
      "VideoID": "3QIOVHTfr3k",
      "VideoFile": "math-addition_45.webm"
    },
    {
      "ID": "UExmSTZVQmt4dk9UbHJvNVJLZmF3bDc4bE5MamRnUTQyOS4zQzFBN0RGNzNFREFCMjBE",
      "VideoID": "1S1U42CT8ek",
      "VideoFile": "math-addition_46.webm"
    },
    {
      "ID": "UExmSTZVQmt4dk9UbHJvNVJLZmF3bDc4bE5MamRnUTQyOS45NkVENTkxRDdCQUFBMDY4",
      "VideoID": "rgePAJHZLbw",
      "VideoFile": "math-addition_47.webm"
    },
    {
      "ID": "UExmSTZVQmt4dk9UbHJvNVJLZmF3bDc4bE5MamRnUTQyOS5DNkMwRUI2MkI4QkI4NDFG",
      "VideoID": "DNcI5St3D2I",
      "VideoFile": "math-addition_48.webm"
    },
    {
      "ID": "UExmSTZVQmt4dk9UbHJvNVJLZmF3bDc4bE5MamRnUTQyOS5DRUQwODMxQzUyRTlGRkY3",
      "VideoID": "E3qMsSJ1dGk",
      "VideoFile": "math-addition_49.webm"
    },
    {
      "ID": "UExmSTZVQmt4dk9UbHJvNVJLZmF3bDc4bE5MamRnUTQyOS41MzY4MzcwOUFFRUU3QzEx",
      "VideoID": "yPGB1jljkDE",
      "VideoFile": "math-addition_5.webm"
    },
    {
      "ID": "UExmSTZVQmt4dk9UbHJvNVJLZmF3bDc4bE5MamRnUTQyOS4yQjZFRkExQjFGODk3RUFD",
      "VideoID": "VbRlWLxM474",
      "VideoFile": "math-addition_50.webm"
    },
    {
      "ID": "UExmSTZVQmt4dk9UbHJvNVJLZmF3bDc4bE5MamRnUTQyOS4yQUJFNUVCMzVDNjcxRTlF",
      "VideoID": "Ksjm8q7VxJY",
      "VideoFile": "math-addition_51.webm"
    },
    {
      "ID": "UExmSTZVQmt4dk9UbHJvNVJLZmF3bDc4bE5MamRnUTQyOS40QzRDOEU0QUYwNUIxN0M1",
      "VideoID": "6Jn9-Dx2org",
      "VideoFile": "math-addition_52.webm"
    },
    {
      "ID": "UExmSTZVQmt4dk9UbHJvNVJLZmF3bDc4bE5MamRnUTQyOS41RTNBREYwMkI5QzU3RkY2",
      "VideoID": "yOJsOLSrRgo",
      "VideoFile": "math-addition_53.webm"
    },
    {
      "ID": "UExmSTZVQmt4dk9UbHJvNVJLZmF3bDc4bE5MamRnUTQyOS5ENjI1QUI0MDI5NEQzODFE",
      "VideoID": "ZA7TGvqyZHo",
      "VideoFile": "math-addition_54.webm"
    },
    {
      "ID": "UExmSTZVQmt4dk9UbHJvNVJLZmF3bDc4bE5MamRnUTQyOS44QzVGQUU2QjE2NDgxM0M4",
      "VideoID": "jIZ1L8brg1U",
      "VideoFile": "math-addition_55.webm"
    },
    {
      "ID": "UExmSTZVQmt4dk9UbHJvNVJLZmF3bDc4bE5MamRnUTQyOS4xMzgwMzBERjQ4NjEzNUE5",
      "VideoID": "i4ApwN72yJ8",
      "VideoFile": "math-addition_56.webm"
    },
    {
      "ID": "UExmSTZVQmt4dk9UbHJvNVJLZmF3bDc4bE5MamRnUTQyOS4zMEQ1MEIyRTFGNzhDQzFB",
      "VideoID": "FYIBYHStts0",
      "VideoFile": "math-addition_57.webm"
    },
    {
      "ID": "UExmSTZVQmt4dk9UbHJvNVJLZmF3bDc4bE5MamRnUTQyOS42Qzk5MkEzQjVFQjYwRDA4",
      "VideoID": "3MDnU9pr-a0",
      "VideoFile": "math-addition_58.webm"
    },
    {
      "ID": "UExmSTZVQmt4dk9UbHJvNVJLZmF3bDc4bE5MamRnUTQyOS41NTZEOThBNThFOUVGQkVB",
      "VideoID": "-4b7lJ9lPNA",
      "VideoFile": "math-addition_59.webm"
    },
    {
      "ID": "UExmSTZVQmt4dk9UbHJvNVJLZmF3bDc4bE5MamRnUTQyOS43NERCMDIzQzFBMERCMEE3",
      "VideoID": "2SGHUzi9_y8",
      "VideoFile": "math-addition_6.webm"
    },
    {
      "ID": "UExmSTZVQmt4dk9UbHJvNVJLZmF3bDc4bE5MamRnUTQyOS5GNjAwN0Y0QTFGOTVDMEMy",
      "VideoID": "FGe5d4ztgj0",
      "VideoFile": "math-addition_60.webm"
    },
    {
      "ID": "UExmSTZVQmt4dk9UbHJvNVJLZmF3bDc4bE5MamRnUTQyOS5CQkEwRDA0MDkwNUM2MDY1",
      "VideoID": "47ybyiLwS30",
      "VideoFile": "math-addition_61.webm"
    },
    {
      "ID": "UExmSTZVQmt4dk9UbHJvNVJLZmF3bDc4bE5MamRnUTQyOS4wNEU1MTI4NkZEMzVBN0JF",
      "VideoID": "oNwWmf_aht8",
      "VideoFile": "math-addition_62.webm"
    },
    {
      "ID": "UExmSTZVQmt4dk9UbHJvNVJLZmF3bDc4bE5MamRnUTQyOS4wMTYxQzVBRDI1NEVDQUZE",
      "VideoID": "N1BSw6vgOTI",
      "VideoFile": "math-addition_63.webm"
    },
    {
      "ID": "UExmSTZVQmt4dk9UbHJvNVJLZmF3bDc4bE5MamRnUTQyOS4zMUEyMkQwOTk0NTg4MDgw",
      "VideoID": "w3DxQKro9J4",
      "VideoFile": "math-addition_64.webm"
    },
    {
      "ID": "UExmSTZVQmt4dk9UbHJvNVJLZmF3bDc4bE5MamRnUTQyOS42QzdBMzlBQzQzRjQ0QkQy",
      "VideoID": "lmqWD3r9M7I",
      "VideoFile": "math-addition_65.webm"
    },
    {
      "ID": "UExmSTZVQmt4dk9UbHJvNVJLZmF3bDc4bE5MamRnUTQyOS41OURENDc2NEM1MDI5Mjky",
      "VideoID": "sMwxVHY7SD0",
      "VideoFile": "math-addition_66.webm"
    },
    {
      "ID": "UExmSTZVQmt4dk9UbHJvNVJLZmF3bDc4bE5MamRnUTQyOS4wRjhFM0MxMTU1MEUzQ0VB",
      "VideoID": "H7wcpg8A0Wo",
      "VideoFile": "math-addition_67.webm"
    },
    {
      "ID": "UExmSTZVQmt4dk9UbHJvNVJLZmF3bDc4bE5MamRnUTQyOS5CNTZFOTNGQzZEODg1RUQx",
      "VideoID": "9S7Yujr-IN0",
      "VideoFile": "math-addition_68.webm"
    },
    {
      "ID": "UExmSTZVQmt4dk9UbHJvNVJLZmF3bDc4bE5MamRnUTQyOS5CNTcxMDQ0NThBNzMxODYz",
      "VideoID": "5_nBB6FJpNM",
      "VideoFile": "math-addition_69.webm"
    },
    {
      "ID": "UExmSTZVQmt4dk9UbHJvNVJLZmF3bDc4bE5MamRnUTQyOS5ERkUyQTM0MzEwQjZCMTY5",
      "VideoID": "Sk0TIJWYZxg",
      "VideoFile": "math-addition_7.webm"
    },
    {
      "ID": "UExmSTZVQmt4dk9UbHJvNVJLZmF3bDc4bE5MamRnUTQyOS4xM0YyM0RDNDE4REQ1NDA0",
      "VideoID": "2VhQe1gaqlA",
      "VideoFile": "math-addition_70.webm"
    },
    {
      "ID": "UExmSTZVQmt4dk9UbHJvNVJLZmF3bDc4bE5MamRnUTQyOS42MjYzMTMyQjA0QURCN0JF",
      "VideoID": "Q-Q8-lBu9SM",
      "VideoFile": "math-addition_71.webm"
    },
    {
      "ID": "UExmSTZVQmt4dk9UbHJvNVJLZmF3bDc4bE5MamRnUTQyOS40MDNEMzA0QTBFRThFMzBE",
      "VideoID": "7RC9L80OKPw",
      "VideoFile": "math-addition_72.webm"
    },
    {
      "ID": "UExmSTZVQmt4dk9UbHJvNVJLZmF3bDc4bE5MamRnUTQyOS42RTNCOEMxREI3Q0VDMjU2",
      "VideoID": "tyxhvLvf_Wg",
      "VideoFile": "math-addition_73.webm"
    },
    {
      "ID": "UExmSTZVQmt4dk9UbHJvNVJLZmF3bDc4bE5MamRnUTQyOS43QzNCNkZENzIyMDY2MjZB",
      "VideoID": "rAvOeG9OW8s",
      "VideoFile": "math-addition_74.webm"
    },
    {
      "ID": "UExmSTZVQmt4dk9UbHJvNVJLZmF3bDc4bE5MamRnUTQyOS5EQkE3RTJCQTJEQkFBQTcz",
      "VideoID": "2nHY6UpFmTk",
      "VideoFile": "math-addition_75.webm"
    },
    {
      "ID": "UExmSTZVQmt4dk9UbHJvNVJLZmF3bDc4bE5MamRnUTQyOS4yQzk4QTA5QjkzMTFFOEI1",
      "VideoID": "yf4KtxNGik0",
      "VideoFile": "math-addition_76.webm"
    },
    {
      "ID": "UExmSTZVQmt4dk9UbHJvNVJLZmF3bDc4bE5MamRnUTQyOS45NDlDQUFFOThDMTAxQjUw",
      "VideoID": "ulU3Nh9uVZw",
      "VideoFile": "math-addition_77.webm"
    },
    {
      "ID": "UExmSTZVQmt4dk9UbHJvNVJLZmF3bDc4bE5MamRnUTQyOS4xN0Y2QjVBOEI2MzQ5OUM5",
      "VideoID": "zik5WvSjEvk",
      "VideoFile": "math-addition_78.webm"
    },
    {
      "ID": "UExmSTZVQmt4dk9UbHJvNVJLZmF3bDc4bE5MamRnUTQyOS5FQUY2Qzk4RUFDN0ZFRkZF",
      "VideoID": "5yQb_ARFOz4",
      "VideoFile": "math-addition_79.webm"
    },
    {
      "ID": "UExmSTZVQmt4dk9UbHJvNVJLZmF3bDc4bE5MamRnUTQyOS5CMEVBRUJERkUyNTBENTkz",
      "VideoID": "M7JXCMUyG_A",
      "VideoFile": "math-addition_8.webm"
    },
    {
      "ID": "UExmSTZVQmt4dk9UbHJvNVJLZmF3bDc4bE5MamRnUTQyOS4xNjIyNEE0MDEyRDlCMjBE",
      "VideoID": "rIPUcb_u4J4",
      "VideoFile": "math-addition_80.webm"
    },
    {
      "ID": "UExmSTZVQmt4dk9UbHJvNVJLZmF3bDc4bE5MamRnUTQyOS44QTY2MEEzNzBFQUJCMUQ2",
      "VideoID": "yxKoHQ4mssg",
      "VideoFile": "math-addition_81.webm"
    },
    {
      "ID": "UExmSTZVQmt4dk9UbHJvNVJLZmF3bDc4bE5MamRnUTQyOS4zQTkzRjgxRTY0OEU0MkM3",
      "VideoID": "BlgkjOlsiSo",
      "VideoFile": "math-addition_82.webm"
    },
    {
      "ID": "UExmSTZVQmt4dk9UbHJvNVJLZmF3bDc4bE5MamRnUTQyOS4xNTZBNUQxMDZBQzFGMjkw",
      "VideoID": "x39rCOXYgNI",
      "VideoFile": "math-addition_83.webm"
    },
    {
      "ID": "UExmSTZVQmt4dk9UbHJvNVJLZmF3bDc4bE5MamRnUTQyOS4wMDFGNzBEOTU4Q0Y1Q0RG",
      "VideoID": "3JrEadds90M",
      "VideoFile": "math-addition_84.webm"
    },
    {
      "ID": "UExmSTZVQmt4dk9UbHJvNVJLZmF3bDc4bE5MamRnUTQyOS44QTA1QTQyRTc3M0VGQzYx",
      "VideoID": "Sgp_HCcROq0",
      "VideoFile": "math-addition_85.webm"
    },
    {
      "ID": "UExmSTZVQmt4dk9UbHJvNVJLZmF3bDc4bE5MamRnUTQyOS44MkM2RjVEQkQ5N0I2MjVE",
      "VideoID": "UPx5f_Vx_Aw",
      "VideoFile": "math-addition_86.webm"
    },
    {
      "ID": "UExmSTZVQmt4dk9UbHJvNVJLZmF3bDc4bE5MamRnUTQyOS40NzE2MTY1QTM3RUI3QkU3",
      "VideoID": "tYf7zWddl7I",
      "VideoFile": "math-addition_87.webm"
    },
    {
      "ID": "UExmSTZVQmt4dk9UbHJvNVJLZmF3bDc4bE5MamRnUTQyOS5EMzJDRTUwQjBEOUVFQzAw",
      "VideoID": "jUFNf73Zt6k",
      "VideoFile": "math-addition_88.webm"
    },
    {
      "ID": "UExmSTZVQmt4dk9UbHJvNVJLZmF3bDc4bE5MamRnUTQyOS5CMUM0NzY5NzdEQzlGRjAx",
      "VideoID": "jAr5fU8A8YQ",
      "VideoFile": "math-addition_89.webm"
    },
    {
      "ID": "UExmSTZVQmt4dk9UbHJvNVJLZmF3bDc4bE5MamRnUTQyOS5GMDBDNkJGMzYzREUyMTYw",
      "VideoID": "fss5SFZeeMA",
      "VideoFile": "math-addition_9.webm"
    },
    {
      "ID": "UExmSTZVQmt4dk9UbHJvNVJLZmF3bDc4bE5MamRnUTQyOS4wQUE0QzM4MkJGQ0YwQjUx",
      "VideoID": "brDm_OEn_xE",
      "VideoFile": "math-addition_90.webm"
    },
    {
      "ID": "UExmSTZVQmt4dk9UbHJvNVJLZmF3bDc4bE5MamRnUTQyOS5DQjg2RDQyMEVGQkZFOEVF",
      "VideoID": "qVQVlSiWCEg",
      "VideoFile": "math-addition_91,92.webm"
    },
    {
      "ID": "UExmSTZVQmt4dk9UbHJvNVJLZmF3bDc4bE5MamRnUTQyOS4yM0EyQ0U1M0I2RkIwNTQ0",
      "VideoID": "MFvts-e0o_o",
      "VideoFile": "math-addition_93,94.webm"
    },
    {
      "ID": "UExmSTZVQmt4dk9UbHJvNVJLZmF3bDc4bE5MamRnUTQyOS5ERENFNTk4Q0Q2MTZDMTA5",
      "VideoID": "xKZKuE2m_No",
      "VideoFile": "math-addition_95,96,97.webm"
    },
    {
      "ID": "UExmSTZVQmt4dk9UbHJvNVJLZmF3bDc4bE5MamRnUTQyOS41RDUzRjJFQ0Y0MUI3NzU1",
      "VideoID": "E8zcP9W8deA",
      "VideoFile": "math-sub_1,2,3,4.webm"
    },
    {
      "ID": "UExmSTZVQmt4dk9UbHJvNVJLZmF3bDc4bE5MamRnUTQyOS5FRjdGNDMzN0I2RTI3MDlG",
      "VideoID": "hzAOE-dYFBU",
      "VideoFile": "math-sub_10.webm"
    },
    {
      "ID": "UExmSTZVQmt4dk9UbHJvNVJLZmF3bDc4bE5MamRnUTQyOS41ODIyMTgwQzA4NjJCQkZC",
      "VideoID": "egdfb3YhEjg",
      "VideoFile": "math-sub_11.webm"
    },
    {
      "ID": "UExmSTZVQmt4dk9UbHJvNVJLZmF3bDc4bE5MamRnUTQyOS5CNEYyNTVBNDdGMDI1MDNC",
      "VideoID": "zjg9dtbG7-Y",
      "VideoFile": "math-sub_12.webm"
    },
    {
      "ID": "UExmSTZVQmt4dk9UbHJvNVJLZmF3bDc4bE5MamRnUTQyOS5EMUJFNzRCNDRFQjE5RjM4",
      "VideoID": "co18hSQYiYA",
      "VideoFile": "math-sub_13.webm"
    },
    {
      "ID": "UExmSTZVQmt4dk9UbHJvNVJLZmF3bDc4bE5MamRnUTQyOS44QjNCNkRENjNFQTBEMUND",
      "VideoID": "IrlEgdcTNEU",
      "VideoFile": "math-sub_14.webm"
    },
    {
      "ID": "UExmSTZVQmt4dk9UbHJvNVJLZmF3bDc4bE5MamRnUTQyOS5GNzk2RTlDQTNCQzJCQzJG",
      "VideoID": "voXL0XvKHr0",
      "VideoFile": "math-sub_15.webm"
    },
    {
      "ID": "UExmSTZVQmt4dk9UbHJvNVJLZmF3bDc4bE5MamRnUTQyOS43ODA2MDVCQzY5QzZDMjUw",
      "VideoID": "mvie5BrAI9U",
      "VideoFile": "math-sub_16.webm"
    },
    {
      "ID": "UExmSTZVQmt4dk9UbHJvNVJLZmF3bDc4bE5MamRnUTQyOS40OTQ5QjlEMDgzN0FBNUIw",
      "VideoID": "K90c05yLNwQ",
      "VideoFile": "math-sub_17.webm"
    },
    {
      "ID": "UExmSTZVQmt4dk9UbHJvNVJLZmF3bDc4bE5MamRnUTQyOS5CQzUwREI3MzkxQjdBM0E0",
      "VideoID": "OhlZorgujiM",
      "VideoFile": "math-sub_18.webm"
    },
    {
      "ID": "UExmSTZVQmt4dk9UbHJvNVJLZmF3bDc4bE5MamRnUTQyOS4yOTZGRTNEQ0ZGNUM5RDgw",
      "VideoID": "eZLQiiYKUbI",
      "VideoFile": "math-sub_19.webm"
    },
    {
      "ID": "UExmSTZVQmt4dk9UbHJvNVJLZmF3bDc4bE5MamRnUTQyOS4zNDIxRUJGQThFRTg1QzAy",
      "VideoID": "5MqQ6BGVQL0",
      "VideoFile": "math-sub_20.webm"
    },
    {
      "ID": "UExmSTZVQmt4dk9UbHJvNVJLZmF3bDc4bE5MamRnUTQyOS4wN0FBRUVFNEVBMTZBQ0Mx",
      "VideoID": "9RmCSnNKcHs",
      "VideoFile": "math-sub_21.webm"
    },
    {
      "ID": "UExmSTZVQmt4dk9UbHJvNVJLZmF3bDc4bE5MamRnUTQyOS5EODgyNjY4MzA3QzY5RTkx",
      "VideoID": "cSNLqZDzoEo",
      "VideoFile": "math-sub_22.webm"
    },
    {
      "ID": "UExmSTZVQmt4dk9UbHJvNVJLZmF3bDc4bE5MamRnUTQyOS5BNzdEQzY0REQzQTEyN0U3",
      "VideoID": "XvDd3BuMajE",
      "VideoFile": "math-sub_23.webm"
    },
    {
      "ID": "UExmSTZVQmt4dk9UbHJvNVJLZmF3bDc4bE5MamRnUTQyOS43RDg3MzJDMTRFMTZFOTAw",
      "VideoID": "N4Etf0q0G3U",
      "VideoFile": "math-sub_24.webm"
    },
    {
      "ID": "UExmSTZVQmt4dk9UbHJvNVJLZmF3bDc4bE5MamRnUTQyOS44NjIxNjc5OUQwQkJBODQ5",
      "VideoID": "w8bBNThpWxk",
      "VideoFile": "math-sub_25.webm"
    },
    {
      "ID": "UExmSTZVQmt4dk9UbHJvNVJLZmF3bDc4bE5MamRnUTQyOS4wRkVBNUY4OTkzN0JCNTA2",
      "VideoID": "TrtZkcZ60FU",
      "VideoFile": "math-sub_26.webm"
    },
    {
      "ID": "UExmSTZVQmt4dk9UbHJvNVJLZmF3bDc4bE5MamRnUTQyOS43NjE5NDdDRTdENjQ3RTkw",
      "VideoID": "F60m_bWdGC4",
      "VideoFile": "math-sub_27.webm"
    },
    {
      "ID": "UExmSTZVQmt4dk9UbHJvNVJLZmF3bDc4bE5MamRnUTQyOS5ENEEyOTIwNkY4NzFGMkQ2",
      "VideoID": "BfeuejxFIvM",
      "VideoFile": "math-sub_28.webm"
    },
    {
      "ID": "UExmSTZVQmt4dk9UbHJvNVJLZmF3bDc4bE5MamRnUTQyOS42NEZDNTU0RTRENDUzRjMz",
      "VideoID": "OOnnX4aNNUE",
      "VideoFile": "math-sub_29.webm"
    },
    {
      "ID": "UExmSTZVQmt4dk9UbHJvNVJLZmF3bDc4bE5MamRnUTQyOS5BRDg1NUY1OTY2QzgzOEM0",
      "VideoID": "KX3jpemcT5w",
      "VideoFile": "math-sub_30.webm"
    },
    {
      "ID": "UExmSTZVQmt4dk9UbHJvNVJLZmF3bDc4bE5MamRnUTQyOS5ERkRDQjY0N0Y0Q0VFOTdC",
      "VideoID": "fxRlX_Uz3Lg",
      "VideoFile": "math-sub_31.webm"
    },
    {
      "ID": "UExmSTZVQmt4dk9UbHJvNVJLZmF3bDc4bE5MamRnUTQyOS4wMDkwRkI3NzExODA2MTFG",
      "VideoID": "uPUbdbL81Ho",
      "VideoFile": "math-sub_32.webm"
    },
    {
      "ID": "UExmSTZVQmt4dk9UbHJvNVJLZmF3bDc4bE5MamRnUTQyOS4xRDJGOTc4RkUxMzUwMUFG",
      "VideoID": "xit3xQx9nOw",
      "VideoFile": "math-sub_33.webm"
    },
    {
      "ID": "UExmSTZVQmt4dk9UbHJvNVJLZmF3bDc4bE5MamRnUTQyOS4wQTI4OEZFRUE0Q0Q3ODQw",
      "VideoID": "bfA94PiVk-k",
      "VideoFile": "math-sub_34.webm"
    },
    {
      "ID": "UExmSTZVQmt4dk9UbHJvNVJLZmF3bDc4bE5MamRnUTQyOS41NUMwNTVERDNBRDc4REM0",
      "VideoID": "NvdxMUB6cHs",
      "VideoFile": "math-sub_35.webm"
    },
    {
      "ID": "UExmSTZVQmt4dk9UbHJvNVJLZmF3bDc4bE5MamRnUTQyOS5BRUVCN0E0MzEwQzAwNjMy",
      "VideoID": "0SRSD9hJ-X8",
      "VideoFile": "math-sub_36.webm"
    },
    {
      "ID": "UExmSTZVQmt4dk9UbHJvNVJLZmF3bDc4bE5MamRnUTQyOS5EODkyNDMzRkJBNkQ2NkMz",
      "VideoID": "9YU6njlGAHU",
      "VideoFile": "math-sub_37.webm"
    },
    {
      "ID": "UExmSTZVQmt4dk9UbHJvNVJLZmF3bDc4bE5MamRnUTQyOS41MzJFNEYxODEyNzA0QUUx",
      "VideoID": "OOgP9ZyaHSw",
      "VideoFile": "math-sub_38.webm"
    },
    {
      "ID": "UExmSTZVQmt4dk9UbHJvNVJLZmF3bDc4bE5MamRnUTQyOS5ENjg3MEUyQ0IzODMzQThB",
      "VideoID": "uMs7eZ3f29M",
      "VideoFile": "math-sub_39.webm"
    },
    {
      "ID": "UExmSTZVQmt4dk9UbHJvNVJLZmF3bDc4bE5MamRnUTQyOS45MEI3NjgzMTVFQkZGODYx",
      "VideoID": "OH2JtINVUuE",
      "VideoFile": "math-sub_40.webm"
    },
    {
      "ID": "UExmSTZVQmt4dk9UbHJvNVJLZmF3bDc4bE5MamRnUTQyOS4zNEMzQ0FDREY1MkE1RkQ1",
      "VideoID": "t3GQT80b5HY",
      "VideoFile": "math-sub_41.webm"
    },
    {
      "ID": "UExmSTZVQmt4dk9UbHJvNVJLZmF3bDc4bE5MamRnUTQyOS5BQzRBQzNEOTgzNTU2QkZB",
      "VideoID": "dEA83DCL7KQ",
      "VideoFile": "math-sub_42.webm"
    },
    {
      "ID": "UExmSTZVQmt4dk9UbHJvNVJLZmF3bDc4bE5MamRnUTQyOS5EN0U0NTk3NzIwMjUxN0M3",
      "VideoID": "pBKS4CpO5d4",
      "VideoFile": "math-sub_43.webm"
    },
    {
      "ID": "UExmSTZVQmt4dk9UbHJvNVJLZmF3bDc4bE5MamRnUTQyOS44M0Q5MzQ0QTcwQzFDMjc5",
      "VideoID": "n2KWUdemUuM",
      "VideoFile": "math-sub_44.webm"
    },
    {
      "ID": "UExmSTZVQmt4dk9UbHJvNVJLZmF3bDc4bE5MamRnUTQyOS4wMEMyQTBBOTUwNTM0OUFG",
      "VideoID": "z8pcZgUz8ig",
      "VideoFile": "math-sub_45.webm"
    },
    {
      "ID": "UExmSTZVQmt4dk9UbHJvNVJLZmF3bDc4bE5MamRnUTQyOS5FQjcyRDZBMEMyNTY3OTdE",
      "VideoID": "7s8eZSphqU0",
      "VideoFile": "math-sub_46.webm"
    },
    {
      "ID": "UExmSTZVQmt4dk9UbHJvNVJLZmF3bDc4bE5MamRnUTQyOS44REI4QUZDRDI5MDc4Q0NF",
      "VideoID": "OXQvHyFcXlc",
      "VideoFile": "math-sub_47.webm"
    },
    {
      "ID": "UExmSTZVQmt4dk9UbHJvNVJLZmF3bDc4bE5MamRnUTQyOS40ODU2MTBGM0M5MkIwQzU0",
      "VideoID": "GPMFpwwiIpY",
      "VideoFile": "math-sub_48.webm"
    },
    {
      "ID": "UExmSTZVQmt4dk9UbHJvNVJLZmF3bDc4bE5MamRnUTQyOS42RDgxQ0M2OUIwREZCNjZF",
      "VideoID": "qT4ehDgrXi4",
      "VideoFile": "math-sub_49.webm"
    },
    {
      "ID": "UExmSTZVQmt4dk9UbHJvNVJLZmF3bDc4bE5MamRnUTQyOS40MzEwNkU4RUE0MjhBRjg4",
      "VideoID": "gQHT1lH33s0",
      "VideoFile": "math-sub_5,6.webm"
    },
    {
      "ID": "UExmSTZVQmt4dk9UbHJvNVJLZmF3bDc4bE5MamRnUTQyOS5DODY2Qzc5Mzc1QkZEQ0NF",
      "VideoID": "gn2XTWLn7WM",
      "VideoFile": "math-sub_50.webm"
    },
    {
      "ID": "UExmSTZVQmt4dk9UbHJvNVJLZmF3bDc4bE5MamRnUTQyOS44NzQ1OTI1OUFFM0NFRTc5",
      "VideoID": "heset1BOSF8",
      "VideoFile": "math-sub_51.webm"
    },
    {
      "ID": "UExmSTZVQmt4dk9UbHJvNVJLZmF3bDc4bE5MamRnUTQyOS5CMDk1Q0MxREYyOTVEOTZF",
      "VideoID": "OoDQvz9La_o",
      "VideoFile": "math-sub_52.webm"
    },
    {
      "ID": "UExmSTZVQmt4dk9UbHJvNVJLZmF3bDc4bE5MamRnUTQyOS43RjdBQTMwNUUwRTA1QkE3",
      "VideoID": "B2r7VlrddPA",
      "VideoFile": "math-sub_53.webm"
    },
    {
      "ID": "UExmSTZVQmt4dk9UbHJvNVJLZmF3bDc4bE5MamRnUTQyOS5GN0EwRkMxQTJGMTFCNDc1",
      "VideoID": "LfE9MzieP2k",
      "VideoFile": "math-sub_54.webm"
    },
    {
      "ID": "UExmSTZVQmt4dk9UbHJvNVJLZmF3bDc4bE5MamRnUTQyOS5ENUI5OTFCQkYxNDUxQjQ3",
      "VideoID": "Q4mDq6aDo8g",
      "VideoFile": "math-sub_55.webm"
    },
    {
      "ID": "UExmSTZVQmt4dk9UbHJvNVJLZmF3bDc4bE5MamRnUTQyOS5CRjBFOTUzQTE4Mjg3RUJF",
      "VideoID": "pOLQYHs-QCc",
      "VideoFile": "math-sub_56.webm"
    },
    {
      "ID": "UExmSTZVQmt4dk9UbHJvNVJLZmF3bDc4bE5MamRnUTQyOS41QTQ4QTIyM0Y1RTBGMUNE",
      "VideoID": "HTGWgzTpjIo",
      "VideoFile": "math-sub_57.webm"
    },
    {
      "ID": "UExmSTZVQmt4dk9UbHJvNVJLZmF3bDc4bE5MamRnUTQyOS4wQjA4QkVEQ0RFREIzMjFC",
      "VideoID": "osUtuHa2jDs",
      "VideoFile": "math-sub_58.webm"
    },
    {
      "ID": "UExmSTZVQmt4dk9UbHJvNVJLZmF3bDc4bE5MamRnUTQyOS4wNjIzRDA1OTQ2M0UyODEw",
      "VideoID": "F3gLofy3Qic",
      "VideoFile": "math-sub_59.webm"
    },
    {
      "ID": "UExmSTZVQmt4dk9UbHJvNVJLZmF3bDc4bE5MamRnUTQyOS5EQTdFNDU3M0Y3MTM1QjlG",
      "VideoID": "IDPJxGvwyZA",
      "VideoFile": "math-sub_60.webm"
    },
    {
      "ID": "UExmSTZVQmt4dk9UbHJvNVJLZmF3bDc4bE5MamRnUTQyOS4xRjE1NzQ4MjRCMUNFRDdB",
      "VideoID": "QTHDncqe_aw",
      "VideoFile": "math-sub_61.webm"
    },
    {
      "ID": "UExmSTZVQmt4dk9UbHJvNVJLZmF3bDc4bE5MamRnUTQyOS5DNUEzOUFFNkIyOUUzOTRC",
      "VideoID": "fyt4q7SzBsU",
      "VideoFile": "math-sub_62.webm"
    },
    {
      "ID": "UExmSTZVQmt4dk9UbHJvNVJLZmF3bDc4bE5MamRnUTQyOS4zMkY2MjA3RDJERTkxNjkz",
      "VideoID": "0fOsxfZ_iFs",
      "VideoFile": "math-sub_63.webm"
    },
    {
      "ID": "UExmSTZVQmt4dk9UbHJvNVJLZmF3bDc4bE5MamRnUTQyOS5FMjFERkYxMjI2NjkyMjg5",
      "VideoID": "q9XaCn8fV8U",
      "VideoFile": "math-sub_64.webm"
    },
    {
      "ID": "UExmSTZVQmt4dk9UbHJvNVJLZmF3bDc4bE5MamRnUTQyOS5FOTE3RTBFMjNFMDNEM0Yz",
      "VideoID": "mfnmH5E_rXE",
      "VideoFile": "math-sub_65.webm"
    },
    {
      "ID": "UExmSTZVQmt4dk9UbHJvNVJLZmF3bDc4bE5MamRnUTQyOS5BNTRGQTE1QjY2NUE5NTAz",
      "VideoID": "6ftWC4eMK88",
      "VideoFile": "math-sub_66.webm"
    },
    {
      "ID": "UExmSTZVQmt4dk9UbHJvNVJLZmF3bDc4bE5MamRnUTQyOS42NjBGMkRFNDcwMjM2NzYx",
      "VideoID": "GCasd2jvo9s",
      "VideoFile": "math-sub_67.webm"
    },
    {
      "ID": "UExmSTZVQmt4dk9UbHJvNVJLZmF3bDc4bE5MamRnUTQyOS40NTBGRDE5MDg2Q0NEODI4",
      "VideoID": "10U0neZC2IA",
      "VideoFile": "math-sub_68.webm"
    },
    {
      "ID": "UExmSTZVQmt4dk9UbHJvNVJLZmF3bDc4bE5MamRnUTQyOS40Q0JERDMxNzcwNTk1M0Y0",
      "VideoID": "HddnqU7YIO0",
      "VideoFile": "math-sub_69.webm"
    },
    {
      "ID": "UExmSTZVQmt4dk9UbHJvNVJLZmF3bDc4bE5MamRnUTQyOS4wMTIyMTBBMTA3RDUxNjlD",
      "VideoID": "liroUdrnYK4",
      "VideoFile": "math-sub_7,8.webm"
    },
    {
      "ID": "UExmSTZVQmt4dk9UbHJvNVJLZmF3bDc4bE5MamRnUTQyOS5DNTU3ODQ4ODAzMjFERTI1",
      "VideoID": "jq-XaL3KxJ4",
      "VideoFile": "math-sub_70.webm"
    },
    {
      "ID": "UExmSTZVQmt4dk9UbHJvNVJLZmF3bDc4bE5MamRnUTQyOS40QTY5NjQzQkQzMjgwNjhD",
      "VideoID": "GqMFQnYsscQ",
      "VideoFile": "math-sub_71.webm"
    },
    {
      "ID": "UExmSTZVQmt4dk9UbHJvNVJLZmF3bDc4bE5MamRnUTQyOS5CODNEOTFERDNCQjU2ODhE",
      "VideoID": "-h2GYli6k5g",
      "VideoFile": "math-sub_72.webm"
    },
    {
      "ID": "UExmSTZVQmt4dk9UbHJvNVJLZmF3bDc4bE5MamRnUTQyOS45NDIzMEVBNjk5NTFGRDZC",
      "VideoID": "ugN7KEsufww",
      "VideoFile": "math-sub_73.webm"
    },
    {
      "ID": "UExmSTZVQmt4dk9UbHJvNVJLZmF3bDc4bE5MamRnUTQyOS5CNEFEOUNDRUMzMjVGMjc2",
      "VideoID": "ISggH5hDUS4",
      "VideoFile": "math-sub_74.webm"
    },
    {
      "ID": "UExmSTZVQmt4dk9UbHJvNVJLZmF3bDc4bE5MamRnUTQyOS5EREU0QjZERDMzRDBGNTMz",
      "VideoID": "11apOEpJC9g",
      "VideoFile": "math-sub_75.webm"
    },
    {
      "ID": "UExmSTZVQmt4dk9UbHJvNVJLZmF3bDc4bE5MamRnUTQyOS41RjU0OTVCQThDNUUwQzBD",
      "VideoID": "zyF0LrtZop4",
      "VideoFile": "math-sub_76.webm"
    },
    {
      "ID": "UExmSTZVQmt4dk9UbHJvNVJLZmF3bDc4bE5MamRnUTQyOS5BRjY4NjdBRjA5RTdCMUMx",
      "VideoID": "2dH28LT8pKQ",
      "VideoFile": "math-sub_77.webm"
    },
    {
      "ID": "UExmSTZVQmt4dk9UbHJvNVJLZmF3bDc4bE5MamRnUTQyOS5DMkM0MjQ3OTgwQzBCMEZB",
      "VideoID": "JW6ZjKWneig",
      "VideoFile": "math-sub_78.webm"
    },
    {
      "ID": "UExmSTZVQmt4dk9UbHJvNVJLZmF3bDc4bE5MamRnUTQyOS45QzM0OUZCRDUyMTgwREVG",
      "VideoID": "kne4yndIMSY",
      "VideoFile": "math-sub_79.webm"
    },
    {
      "ID": "UExmSTZVQmt4dk9UbHJvNVJLZmF3bDc4bE5MamRnUTQyOS5CNzAzQzRDMkI3QThEQzZB",
      "VideoID": "mD1-n9k5YdY",
      "VideoFile": "math-sub_80.webm"
    },
    {
      "ID": "UExmSTZVQmt4dk9UbHJvNVJLZmF3bDc4bE5MamRnUTQyOS4xREVBMTg1ODg1M0JCQUE1",
      "VideoID": "axEJDrge-2s",
      "VideoFile": "math-sub_81.webm"
    },
    {
      "ID": "UExmSTZVQmt4dk9UbHJvNVJLZmF3bDc4bE5MamRnUTQyOS43MzBFRTZDMUM3OTY2RjQ4",
      "VideoID": "noe28qUQH64",
      "VideoFile": "math-sub_82.webm"
    },
    {
      "ID": "UExmSTZVQmt4dk9UbHJvNVJLZmF3bDc4bE5MamRnUTQyOS5DNzNDRDE1NzhGODQzODI2",
      "VideoID": "JIfPRwoUdSk",
      "VideoFile": "math-sub_83.webm"
    },
    {
      "ID": "UExmSTZVQmt4dk9UbHJvNVJLZmF3bDc4bE5MamRnUTQyOS4zQTkyMjEwN0U0QkU3RDg5",
      "VideoID": "d_bKhN8zw9g",
      "VideoFile": "math-sub_84.webm"
    },
    {
      "ID": "UExmSTZVQmt4dk9UbHJvNVJLZmF3bDc4bE5MamRnUTQyOS4yM0YxNkQ4MTExRjg4RUI2",
      "VideoID": "F3N-EBGQLgE",
      "VideoFile": "math-sub_85.webm"
    },
    {
      "ID": "UExmSTZVQmt4dk9UbHJvNVJLZmF3bDc4bE5MamRnUTQyOS43Q0UyODJENjc3NDRCODU0",
      "VideoID": "x6wZwIpUGpo",
      "VideoFile": "math-sub_86.webm"
    },
    {
      "ID": "UExmSTZVQmt4dk9UbHJvNVJLZmF3bDc4bE5MamRnUTQyOS5DQzY2RDZFRUQyRDlDQkMw",
      "VideoID": "44at2hPlNgg",
      "VideoFile": "math-sub_87.webm"
    },
    {
      "ID": "UExmSTZVQmt4dk9UbHJvNVJLZmF3bDc4bE5MamRnUTQyOS4wOTkzRUNGQkU5QzI1QTA3",
      "VideoID": "IriEHznTYeo",
      "VideoFile": "math-sub_88.webm"
    },
    {
      "ID": "UExmSTZVQmt4dk9UbHJvNVJLZmF3bDc4bE5MamRnUTQyOS40MkQ0RjUwRTlGMUU4N0ZG",
      "VideoID": "l8EREJrKOCM",
      "VideoFile": "math-sub_89.webm"
    },
    {
      "ID": "UExmSTZVQmt4dk9UbHJvNVJLZmF3bDc4bE5MamRnUTQyOS5BNjBCMUFCN0Q5QzUyMjlG",
      "VideoID": "ZE8KCK88A30",
      "VideoFile": "math-sub_9.webm"
    },
    {
      "ID": "UExmSTZVQmt4dk9UbHJvNVJLZmF3bDc4bE5MamRnUTQyOS4yMkNBN0M4QUJEQzYxMjA3",
      "VideoID": "G7CP14Lx1pc",
      "VideoFile": "math-sub_90.webm"
    },
    {
      "ID": "UExmSTZVQmt4dk9UbHJvNVJLZmF3bDc4bE5MamRnUTQyOS4xQ0EyNTVGREQ1Nzk5MkVB",
      "VideoID": "x-PVvO3wSvI",
      "VideoFile": "math-sub_91.webm"
    },
    {
      "ID": "UExmSTZVQmt4dk9UbHJvNVJLZmF3bDc4bE5MamRnUTQyOS41MjA2QjlEREM3NTE0RkJG",
      "VideoID": "GLd144pkOoc",
      "VideoFile": "math-sub_92.webm"
    },
    {
      "ID": "UExmSTZVQmt4dk9UbHJvNVJLZmF3bDc4bE5MamRnUTQyOS40MkJFNUMzMTJDNkVFQjEy",
      "VideoID": "UXTnTyHmvJs",
      "VideoFile": "math-sub_93.webm"
    },
    {
      "ID": "UExmSTZVQmt4dk9UbHJvNVJLZmF3bDc4bE5MamRnUTQyOS5FMUU5ODU1MDE0RTk1Q0Ew",
      "VideoID": "Z5Ut9Yx-Ka4",
      "VideoFile": "math-sub_94.webm"
    },
    {
      "ID": "UExmSTZVQmt4dk9UbHJvNVJLZmF3bDc4bE5MamRnUTQyOS4zNTI2QjhBOThBN0JGQTEx",
      "VideoID": "rMrSNw2176g",
      "VideoFile": "math-sub_95.webm"
    },
    {
      "ID": "UExmSTZVQmt4dk9UbHJvNVJLZmF3bDc4bE5MamRnUTQyOS5BNTdEMTYxNTdFRkRFMUQ0",
      "VideoID": "4gR2mSLlubs",
      "VideoFile": "math-sub_96.webm"
    },
    {
      "ID": "UExmSTZVQmt4dk9UbHJvNVJLZmF3bDc4bE5MamRnUTQyOS5DRkY0QzQxNDhEODU4QUJE",
      "VideoID": "46ZCt_iA6VQ",
      "VideoFile": "math-sub_97.webm"
    },
    {
      "ID": "UExmSTZVQmt4dk9UbHJvNVJLZmF3bDc4bE5MamRnUTQyOS43Njc4MTZEMDgzNUM1NEVG",
      "VideoID": "qABqMs_9Ldo",
      "VideoFile": "math-sub_98.webm"
    },
    {
      "ID": "UExmSTZVQmt4dk9UbHJvNVJLZmF3bDc4bE5MamRnUTQyOS40NUU5MjUxOUU1MDRGQzM0",
      "VideoID": "SikPcJ2iY2g",
      "VideoFile": "math-sub_99.webm"
    }
  ]
}