{
  "Name": "math-1st-grade",
  "ID": "PLfI6UBkxvOTlWQPydzdOpUHf83cTnPHop",
  "DefaultLang": "hu",
  "Title": "Legyen egy matematikai mester! 💯 1. Osztálya Matematikai",
  "Description": "1. Osztálya matematikai",
  "Localizations": null,
  "PlaylistTags": "math,1st grade,1. Osztálya,Általános Iskola,matematikai",
  "Updated": true,
  "PlaylistItems": [
    {
      "ID": "UExmSTZVQmt4dk9UbFdRUHlkemRPcFVIZjgzY1RuUEhvcC41NkI0NEY2RDEwNTU3Q0M2",
      "VideoID": "E8zcP9W8deA",
      "VideoFile": "math-sub_1,2,3,4.webm"
    },
    {
      "ID": "UExmSTZVQmt4dk9UbFdRUHlkemRPcFVIZjgzY1RuUEhvcC4yODlGNEE0NkRGMEEzMEQy",
      "VideoID": "hzAOE-dYFBU",
      "VideoFile": "math-sub_10.webm"
    },
    {
      "ID": "UExmSTZVQmt4dk9UbFdRUHlkemRPcFVIZjgzY1RuUEhvcC4wMTcyMDhGQUE4NTIzM0Y5",
      "VideoID": "egdfb3YhEjg",
      "VideoFile": "math-sub_11.webm"
    },
    {
      "ID": "UExmSTZVQmt4dk9UbFdRUHlkemRPcFVIZjgzY1RuUEhvcC41MjE1MkI0OTQ2QzJGNzNG",
      "VideoID": "zjg9dtbG7-Y",
      "VideoFile": "math-sub_12.webm"
    },
    {
      "ID": "UExmSTZVQmt4dk9UbFdRUHlkemRPcFVIZjgzY1RuUEhvcC4wOTA3OTZBNzVEMTUzOTMy",
      "VideoID": "co18hSQYiYA",
      "VideoFile": "math-sub_13.webm"
    },
    {
      "ID": "UExmSTZVQmt4dk9UbFdRUHlkemRPcFVIZjgzY1RuUEhvcC4xMkVGQjNCMUM1N0RFNEUx",
      "VideoID": "IrlEgdcTNEU",
      "VideoFile": "math-sub_14.webm"
    },
    {
      "ID": "UExmSTZVQmt4dk9UbFdRUHlkemRPcFVIZjgzY1RuUEhvcC41MzJCQjBCNDIyRkJDN0VD",
      "VideoID": "voXL0XvKHr0",
      "VideoFile": "math-sub_15.webm"
    },
    {
      "ID": "UExmSTZVQmt4dk9UbFdRUHlkemRPcFVIZjgzY1RuUEhvcC5DQUNERDQ2NkIzRUQxNTY1",
      "VideoID": "mvie5BrAI9U",
      "VideoFile": "math-sub_16.webm"
    },
    {
      "ID": "UExmSTZVQmt4dk9UbFdRUHlkemRPcFVIZjgzY1RuUEhvcC45NDk1REZENzhEMzU5MDQz",
      "VideoID": "K90c05yLNwQ",
      "VideoFile": "math-sub_17.webm"
    },
    {
      "ID": "UExmSTZVQmt4dk9UbFdRUHlkemRPcFVIZjgzY1RuUEhvcC5GNjNDRDREMDQxOThCMDQ2",
      "VideoID": "OhlZorgujiM",
      "VideoFile": "math-sub_18.webm"
    },
    {
      "ID": "UExmSTZVQmt4dk9UbFdRUHlkemRPcFVIZjgzY1RuUEhvcC40NzZCMERDMjVEN0RFRThB",
      "VideoID": "eZLQiiYKUbI",
      "VideoFile": "math-sub_19.webm"
    },
    {
      "ID": "UExmSTZVQmt4dk9UbFdRUHlkemRPcFVIZjgzY1RuUEhvcC5EMEEwRUY5M0RDRTU3NDJC",
      "VideoID": "5MqQ6BGVQL0",
      "VideoFile": "math-sub_20.webm"
    },
    {
      "ID": "UExmSTZVQmt4dk9UbFdRUHlkemRPcFVIZjgzY1RuUEhvcC45ODRDNTg0QjA4NkFBNkQy",
      "VideoID": "9RmCSnNKcHs",
      "VideoFile": "math-sub_21.webm"
    },
    {
      "ID": "UExmSTZVQmt4dk9UbFdRUHlkemRPcFVIZjgzY1RuUEhvcC4zMDg5MkQ5MEVDMEM1NTg2",
      "VideoID": "cSNLqZDzoEo",
      "VideoFile": "math-sub_22.webm"
    },
    {
      "ID": "UExmSTZVQmt4dk9UbFdRUHlkemRPcFVIZjgzY1RuUEhvcC41Mzk2QTAxMTkzNDk4MDhF",
      "VideoID": "XvDd3BuMajE",
      "VideoFile": "math-sub_23.webm"
    },
    {
      "ID": "UExmSTZVQmt4dk9UbFdRUHlkemRPcFVIZjgzY1RuUEhvcC5EQUE1NTFDRjcwMDg0NEMz",
      "VideoID": "N4Etf0q0G3U",
      "VideoFile": "math-sub_24.webm"
    },
    {
      "ID": "UExmSTZVQmt4dk9UbFdRUHlkemRPcFVIZjgzY1RuUEhvcC41QTY1Q0UxMTVCODczNThE",
      "VideoID": "w8bBNThpWxk",
      "VideoFile": "math-sub_25.webm"
    },
    {
      "ID": "UExmSTZVQmt4dk9UbFdRUHlkemRPcFVIZjgzY1RuUEhvcC4yMUQyQTQzMjRDNzMyQTMy",
      "VideoID": "TrtZkcZ60FU",
      "VideoFile": "math-sub_26.webm"
    },
    {
      "ID": "UExmSTZVQmt4dk9UbFdRUHlkemRPcFVIZjgzY1RuUEhvcC45RTgxNDRBMzUwRjQ0MDhC",
      "VideoID": "F60m_bWdGC4",
      "VideoFile": "math-sub_27.webm"
    },
    {
      "ID": "UExmSTZVQmt4dk9UbFdRUHlkemRPcFVIZjgzY1RuUEhvcC5ENDU4Q0M4RDExNzM1Mjcy",
      "VideoID": "BfeuejxFIvM",
      "VideoFile": "math-sub_28.webm"
    },
    {
      "ID": "UExmSTZVQmt4dk9UbFdRUHlkemRPcFVIZjgzY1RuUEhvcC4yMDhBMkNBNjRDMjQxQTg1",
      "VideoID": "OOnnX4aNNUE",
      "VideoFile": "math-sub_29.webm"
    },
    {
      "ID": "UExmSTZVQmt4dk9UbFdRUHlkemRPcFVIZjgzY1RuUEhvcC5GM0Q3M0MzMzY5NTJFNTdE",
      "VideoID": "KX3jpemcT5w",
      "VideoFile": "math-sub_30.webm"
    },
    {
      "ID": "UExmSTZVQmt4dk9UbFdRUHlkemRPcFVIZjgzY1RuUEhvcC4zRjM0MkVCRTg0MkYyQTM0",
      "VideoID": "fxRlX_Uz3Lg",
      "VideoFile": "math-sub_31.webm"
    },
    {
      "ID": "UExmSTZVQmt4dk9UbFdRUHlkemRPcFVIZjgzY1RuUEhvcC45NzUwQkI1M0UxNThBMkU0",
      "VideoID": "uPUbdbL81Ho",
      "VideoFile": "math-sub_32.webm"
    },
    {
      "ID": "UExmSTZVQmt4dk9UbFdRUHlkemRPcFVIZjgzY1RuUEhvcC5DNzE1RjZEMUZCMjA0RDBB",
      "VideoID": "xit3xQx9nOw",
      "VideoFile": "math-sub_33.webm"
    },
    {
      "ID": "UExmSTZVQmt4dk9UbFdRUHlkemRPcFVIZjgzY1RuUEhvcC43MTI1NDIwOTMwQjIxMzNG",
      "VideoID": "bfA94PiVk-k",
      "VideoFile": "math-sub_34.webm"
    },
    {
      "ID": "UExmSTZVQmt4dk9UbFdRUHlkemRPcFVIZjgzY1RuUEhvcC5DQ0MyQ0Y4Mzg0M0VGOEYw",
      "VideoID": "NvdxMUB6cHs",
      "VideoFile": "math-sub_35.webm"
    },
    {
      "ID": "UExmSTZVQmt4dk9UbFdRUHlkemRPcFVIZjgzY1RuUEhvcC4yQUE2Q0JEMTk4NTM3RTZC",
      "VideoID": "0SRSD9hJ-X8",
      "VideoFile": "math-sub_36.webm"
    },
    {
      "ID": "UExmSTZVQmt4dk9UbFdRUHlkemRPcFVIZjgzY1RuUEhvcC5DMkU4NTY1QUFGQTYwMDE3",
      "VideoID": "9YU6njlGAHU",
      "VideoFile": "math-sub_37.webm"
    },
    {
      "ID": "UExmSTZVQmt4dk9UbFdRUHlkemRPcFVIZjgzY1RuUEhvcC44Mjc5REFBRUE2MTdFRDU0",
      "VideoID": "OOgP9ZyaHSw",
      "VideoFile": "math-sub_38.webm"
    },
    {
      "ID": "UExmSTZVQmt4dk9UbFdRUHlkemRPcFVIZjgzY1RuUEhvcC43NDhFRTgwOTRERTU4Rjg3",
      "VideoID": "uMs7eZ3f29M",
      "VideoFile": "math-sub_39.webm"
    },
    {
      "ID": "UExmSTZVQmt4dk9UbFdRUHlkemRPcFVIZjgzY1RuUEhvcC41QUZGQTY5OTE4QTREQUU4",
      "VideoID": "OH2JtINVUuE",
      "VideoFile": "math-sub_40.webm"
    },
    {
      "ID": "UExmSTZVQmt4dk9UbFdRUHlkemRPcFVIZjgzY1RuUEhvcC4zRDBDOEZDOUM0MDY5NEEz",
      "VideoID": "t3GQT80b5HY",
      "VideoFile": "math-sub_41.webm"
    },
    {
      "ID": "UExmSTZVQmt4dk9UbFdRUHlkemRPcFVIZjgzY1RuUEhvcC5CMEQ2Mjk5NTc3NDZFRUNB",
      "VideoID": "dEA83DCL7KQ",
      "VideoFile": "math-sub_42.webm"
    },
    {
      "ID": "UExmSTZVQmt4dk9UbFdRUHlkemRPcFVIZjgzY1RuUEhvcC42MTI4Njc2QjM1RjU1MjlG",
      "VideoID": "pBKS4CpO5d4",
      "VideoFile": "math-sub_43.webm"
    },
    {
      "ID": "UExmSTZVQmt4dk9UbFdRUHlkemRPcFVIZjgzY1RuUEhvcC45RjNFMDhGQ0Q2RkFCQTc1",
      "VideoID": "n2KWUdemUuM",
      "VideoFile": "math-sub_44.webm"
    },
    {
      "ID": "UExmSTZVQmt4dk9UbFdRUHlkemRPcFVIZjgzY1RuUEhvcC40QTA3NTU2RkM1QzlCMzYx",
      "VideoID": "z8pcZgUz8ig",
      "VideoFile": "math-sub_45.webm"
    },
    {
      "ID": "UExmSTZVQmt4dk9UbFdRUHlkemRPcFVIZjgzY1RuUEhvcC5BRjJDODk5REM0NjkzMUIy",
      "VideoID": "7s8eZSphqU0",
      "VideoFile": "math-sub_46.webm"
    },
    {
      "ID": "UExmSTZVQmt4dk9UbFdRUHlkemRPcFVIZjgzY1RuUEhvcC4xOTEzQzhBQzU3MDNDNjcz",
      "VideoID": "OXQvHyFcXlc",
      "VideoFile": "math-sub_47.webm"
    },
    {
      "ID": "UExmSTZVQmt4dk9UbFdRUHlkemRPcFVIZjgzY1RuUEhvcC5GNDg1Njc1QzZERjlFRjE5",
      "VideoID": "GPMFpwwiIpY",
      "VideoFile": "math-sub_48.webm"
    },
    {
      "ID": "UExmSTZVQmt4dk9UbFdRUHlkemRPcFVIZjgzY1RuUEhvcC4zQzFBN0RGNzNFREFCMjBE",
      "VideoID": "qT4ehDgrXi4",
      "VideoFile": "math-sub_49.webm"
    },
    {
      "ID": "UExmSTZVQmt4dk9UbFdRUHlkemRPcFVIZjgzY1RuUEhvcC45NkVENTkxRDdCQUFBMDY4",
      "VideoID": "gQHT1lH33s0",
      "VideoFile": "math-sub_5,6.webm"
    },
    {
      "ID": "UExmSTZVQmt4dk9UbFdRUHlkemRPcFVIZjgzY1RuUEhvcC5DNkMwRUI2MkI4QkI4NDFG",
      "VideoID": "gn2XTWLn7WM",
      "VideoFile": "math-sub_50.webm"
    },
    {
      "ID": "UExmSTZVQmt4dk9UbFdRUHlkemRPcFVIZjgzY1RuUEhvcC5DRUQwODMxQzUyRTlGRkY3",
      "VideoID": "heset1BOSF8",
      "VideoFile": "math-sub_51.webm"
    },
    {
      "ID": "UExmSTZVQmt4dk9UbFdRUHlkemRPcFVIZjgzY1RuUEhvcC41MzY4MzcwOUFFRUU3QzEx",
      "VideoID": "OoDQvz9La_o",
      "VideoFile": "math-sub_52.webm"
    },
    {
      "ID": "UExmSTZVQmt4dk9UbFdRUHlkemRPcFVIZjgzY1RuUEhvcC4yQjZFRkExQjFGODk3RUFD",
      "VideoID": "B2r7VlrddPA",
      "VideoFile": "math-sub_53.webm"
    },
    {
      "ID": "UExmSTZVQmt4dk9UbFdRUHlkemRPcFVIZjgzY1RuUEhvcC4yQUJFNUVCMzVDNjcxRTlF",
      "VideoID": "LfE9MzieP2k",
      "VideoFile": "math-sub_54.webm"
    },
    {
      "ID": "UExmSTZVQmt4dk9UbFdRUHlkemRPcFVIZjgzY1RuUEhvcC40QzRDOEU0QUYwNUIxN0M1",
      "VideoID": "Q4mDq6aDo8g",
      "VideoFile": "math-sub_55.webm"
    },
    {
      "ID": "UExmSTZVQmt4dk9UbFdRUHlkemRPcFVIZjgzY1RuUEhvcC41RTNBREYwMkI5QzU3RkY2",
      "VideoID": "pOLQYHs-QCc",
      "VideoFile": "math-sub_56.webm"
    },
    {
      "ID": "UExmSTZVQmt4dk9UbFdRUHlkemRPcFVIZjgzY1RuUEhvcC5ENjI1QUI0MDI5NEQzODFE",
      "VideoID": "HTGWgzTpjIo",
      "VideoFile": "math-sub_57.webm"
    },
    {
      "ID": "UExmSTZVQmt4dk9UbFdRUHlkemRPcFVIZjgzY1RuUEhvcC44QzVGQUU2QjE2NDgxM0M4",
      "VideoID": "osUtuHa2jDs",
      "VideoFile": "math-sub_58.webm"
    },
    {
      "ID": "UExmSTZVQmt4dk9UbFdRUHlkemRPcFVIZjgzY1RuUEhvcC4xMzgwMzBERjQ4NjEzNUE5",
      "VideoID": "F3gLofy3Qic",
      "VideoFile": "math-sub_59.webm"
    },
    {
      "ID": "UExmSTZVQmt4dk9UbFdRUHlkemRPcFVIZjgzY1RuUEhvcC4zMEQ1MEIyRTFGNzhDQzFB",
      "VideoID": "IDPJxGvwyZA",
      "VideoFile": "math-sub_60.webm"
    },
    {
      "ID": "UExmSTZVQmt4dk9UbFdRUHlkemRPcFVIZjgzY1RuUEhvcC42Qzk5MkEzQjVFQjYwRDA4",
      "VideoID": "QTHDncqe_aw",
      "VideoFile": "math-sub_61.webm"
    },
    {
      "ID": "UExmSTZVQmt4dk9UbFdRUHlkemRPcFVIZjgzY1RuUEhvcC41NTZEOThBNThFOUVGQkVB",
      "VideoID": "fyt4q7SzBsU",
      "VideoFile": "math-sub_62.webm"
    },
    {
      "ID": "UExmSTZVQmt4dk9UbFdRUHlkemRPcFVIZjgzY1RuUEhvcC43NERCMDIzQzFBMERCMEE3",
      "VideoID": "0fOsxfZ_iFs",
      "VideoFile": "math-sub_63.webm"
    },
    {
      "ID": "UExmSTZVQmt4dk9UbFdRUHlkemRPcFVIZjgzY1RuUEhvcC5GNjAwN0Y0QTFGOTVDMEMy",
      "VideoID": "q9XaCn8fV8U",
      "VideoFile": "math-sub_64.webm"
    },
    {
      "ID": "UExmSTZVQmt4dk9UbFdRUHlkemRPcFVIZjgzY1RuUEhvcC5CQkEwRDA0MDkwNUM2MDY1",
      "VideoID": "mfnmH5E_rXE",
      "VideoFile": "math-sub_65.webm"
    },
    {
      "ID": "UExmSTZVQmt4dk9UbFdRUHlkemRPcFVIZjgzY1RuUEhvcC4wNEU1MTI4NkZEMzVBN0JF",
      "VideoID": "6ftWC4eMK88",
      "VideoFile": "math-sub_66.webm"
    },
    {
      "ID": "UExmSTZVQmt4dk9UbFdRUHlkemRPcFVIZjgzY1RuUEhvcC4wMTYxQzVBRDI1NEVDQUZE",
      "VideoID": "GCasd2jvo9s",
      "VideoFile": "math-sub_67.webm"
    },
    {
      "ID": "UExmSTZVQmt4dk9UbFdRUHlkemRPcFVIZjgzY1RuUEhvcC4zMUEyMkQwOTk0NTg4MDgw",
      "VideoID": "10U0neZC2IA",
      "VideoFile": "math-sub_68.webm"
    },
    {
      "ID": "UExmSTZVQmt4dk9UbFdRUHlkemRPcFVIZjgzY1RuUEhvcC42QzdBMzlBQzQzRjQ0QkQy",
      "VideoID": "HddnqU7YIO0",
      "VideoFile": "math-sub_69.webm"
    },
    {
      "ID": "UExmSTZVQmt4dk9UbFdRUHlkemRPcFVIZjgzY1RuUEhvcC41OURENDc2NEM1MDI5Mjky",
      "VideoID": "liroUdrnYK4",
      "VideoFile": "math-sub_7,8.webm"
    },
    {
      "ID": "UExmSTZVQmt4dk9UbFdRUHlkemRPcFVIZjgzY1RuUEhvcC4wRjhFM0MxMTU1MEUzQ0VB",
      "VideoID": "jq-XaL3KxJ4",
      "VideoFile": "math-sub_70.webm"
    },
    {
      "ID": "UExmSTZVQmt4dk9UbFdRUHlkemRPcFVIZjgzY1RuUEhvcC5CNTZFOTNGQzZEODg1RUQx",
      "VideoID": "GqMFQnYsscQ",
      "VideoFile": "math-sub_71.webm"
    },
    {
      "ID": "UExmSTZVQmt4dk9UbFdRUHlkemRPcFVIZjgzY1RuUEhvcC5CNTcxMDQ0NThBNzMxODYz",
      "VideoID": "-h2GYli6k5g",
      "VideoFile": "math-sub_72.webm"
    },
    {
      "ID": "UExmSTZVQmt4dk9UbFdRUHlkemRPcFVIZjgzY1RuUEhvcC5ERkUyQTM0MzEwQjZCMTY5",
      "VideoID": "ugN7KEsufww",
      "VideoFile": "math-sub_73.webm"
    },
    {
      "ID": "UExmSTZVQmt4dk9UbFdRUHlkemRPcFVIZjgzY1RuUEhvcC4xM0YyM0RDNDE4REQ1NDA0",
      "VideoID": "ISggH5hDUS4",
      "VideoFile": "math-sub_74.webm"
    },
    {
      "ID": "UExmSTZVQmt4dk9UbFdRUHlkemRPcFVIZjgzY1RuUEhvcC42MjYzMTMyQjA0QURCN0JF",
      "VideoID": "11apOEpJC9g",
      "VideoFile": "math-sub_75.webm"
    },
    {
      "ID": "UExmSTZVQmt4dk9UbFdRUHlkemRPcFVIZjgzY1RuUEhvcC40MDNEMzA0QTBFRThFMzBE",
      "VideoID": "zyF0LrtZop4",
      "VideoFile": "math-sub_76.webm"
    },
    {
      "ID": "UExmSTZVQmt4dk9UbFdRUHlkemRPcFVIZjgzY1RuUEhvcC42RTNCOEMxREI3Q0VDMjU2",
      "VideoID": "2dH28LT8pKQ",
      "VideoFile": "math-sub_77.webm"
    },
    {
      "ID": "UExmSTZVQmt4dk9UbFdRUHlkemRPcFVIZjgzY1RuUEhvcC43QzNCNkZENzIyMDY2MjZB",
      "VideoID": "JW6ZjKWneig",
      "VideoFile": "math-sub_78.webm"
    },
    {
      "ID": "UExmSTZVQmt4dk9UbFdRUHlkemRPcFVIZjgzY1RuUEhvcC5EQkE3RTJCQTJEQkFBQTcz",
      "VideoID": "kne4yndIMSY",
      "VideoFile": "math-sub_79.webm"
    },
    {
      "ID": "UExmSTZVQmt4dk9UbFdRUHlkemRPcFVIZjgzY1RuUEhvcC4yQzk4QTA5QjkzMTFFOEI1",
      "VideoID": "mD1-n9k5YdY",
      "VideoFile": "math-sub_80.webm"
    },
    {
      "ID": "UExmSTZVQmt4dk9UbFdRUHlkemRPcFVIZjgzY1RuUEhvcC45NDlDQUFFOThDMTAxQjUw",
      "VideoID": "axEJDrge-2s",
      "VideoFile": "math-sub_81.webm"
    },
    {
      "ID": "UExmSTZVQmt4dk9UbFdRUHlkemRPcFVIZjgzY1RuUEhvcC4xN0Y2QjVBOEI2MzQ5OUM5",
      "VideoID": "noe28qUQH64",
      "VideoFile": "math-sub_82.webm"
    },
    {
      "ID": "UExmSTZVQmt4dk9UbFdRUHlkemRPcFVIZjgzY1RuUEhvcC5FQUY2Qzk4RUFDN0ZFRkZF",
      "VideoID": "JIfPRwoUdSk",
      "VideoFile": "math-sub_83.webm"
    },
    {
      "ID": "UExmSTZVQmt4dk9UbFdRUHlkemRPcFVIZjgzY1RuUEhvcC5CMEVBRUJERkUyNTBENTkz",
      "VideoID": "d_bKhN8zw9g",
      "VideoFile": "math-sub_84.webm"
    },
    {
      "ID": "UExmSTZVQmt4dk9UbFdRUHlkemRPcFVIZjgzY1RuUEhvcC4xNjIyNEE0MDEyRDlCMjBE",
      "VideoID": "F3N-EBGQLgE",
      "VideoFile": "math-sub_85.webm"
    },
    {
      "ID": "UExmSTZVQmt4dk9UbFdRUHlkemRPcFVIZjgzY1RuUEhvcC44QTY2MEEzNzBFQUJCMUQ2",
      "VideoID": "x6wZwIpUGpo",
      "VideoFile": "math-sub_86.webm"
    },
    {
      "ID": "UExmSTZVQmt4dk9UbFdRUHlkemRPcFVIZjgzY1RuUEhvcC4zQTkzRjgxRTY0OEU0MkM3",
      "VideoID": "44at2hPlNgg",
      "VideoFile": "math-sub_87.webm"
    },
    {
      "ID": "UExmSTZVQmt4dk9UbFdRUHlkemRPcFVIZjgzY1RuUEhvcC4xNTZBNUQxMDZBQzFGMjkw",
      "VideoID": "IriEHznTYeo",
      "VideoFile": "math-sub_88.webm"
    },
    {
      "ID": "UExmSTZVQmt4dk9UbFdRUHlkemRPcFVIZjgzY1RuUEhvcC4wMDFGNzBEOTU4Q0Y1Q0RG",
      "VideoID": "l8EREJrKOCM",
      "VideoFile": "math-sub_89.webm"
    },
    {
      "ID": "UExmSTZVQmt4dk9UbFdRUHlkemRPcFVIZjgzY1RuUEhvcC44QTA1QTQyRTc3M0VGQzYx",
      "VideoID": "ZE8KCK88A30",
      "VideoFile": "math-sub_9.webm"
    },
    {
      "ID": "UExmSTZVQmt4dk9UbFdRUHlkemRPcFVIZjgzY1RuUEhvcC44MkM2RjVEQkQ5N0I2MjVE",
      "VideoID": "G7CP14Lx1pc",
      "VideoFile": "math-sub_90.webm"
    },
    {
      "ID": "UExmSTZVQmt4dk9UbFdRUHlkemRPcFVIZjgzY1RuUEhvcC40NzE2MTY1QTM3RUI3QkU3",
      "VideoID": "x-PVvO3wSvI",
      "VideoFile": "math-sub_91.webm"
    },
    {
      "ID": "UExmSTZVQmt4dk9UbFdRUHlkemRPcFVIZjgzY1RuUEhvcC5EMzJDRTUwQjBEOUVFQzAw",
      "VideoID": "GLd144pkOoc",
      "VideoFile": "math-sub_92.webm"
    },
    {
      "ID": "UExmSTZVQmt4dk9UbFdRUHlkemRPcFVIZjgzY1RuUEhvcC5CMUM0NzY5NzdEQzlGRjAx",
      "VideoID": "UXTnTyHmvJs",
      "VideoFile": "math-sub_93.webm"
    },
    {
      "ID": "UExmSTZVQmt4dk9UbFdRUHlkemRPcFVIZjgzY1RuUEhvcC5GMDBDNkJGMzYzREUyMTYw",
      "VideoID": "Z5Ut9Yx-Ka4",
      "VideoFile": "math-sub_94.webm"
    },
    {
      "ID": "UExmSTZVQmt4dk9UbFdRUHlkemRPcFVIZjgzY1RuUEhvcC4wQUE0QzM4MkJGQ0YwQjUx",
      "VideoID": "rMrSNw2176g",
      "VideoFile": "math-sub_95.webm"
    },
    {
      "ID": "UExmSTZVQmt4dk9UbFdRUHlkemRPcFVIZjgzY1RuUEhvcC5DQjg2RDQyMEVGQkZFOEVF",
      "VideoID": "4gR2mSLlubs",
      "VideoFile": "math-sub_96.webm"
    },
    {
      "ID": "UExmSTZVQmt4dk9UbFdRUHlkemRPcFVIZjgzY1RuUEhvcC4yM0EyQ0U1M0I2RkIwNTQ0",
      "VideoID": "46ZCt_iA6VQ",
      "VideoFile": "math-sub_97.webm"
    },
    {
      "ID": "UExmSTZVQmt4dk9UbFdRUHlkemRPcFVIZjgzY1RuUEhvcC5ERENFNTk4Q0Q2MTZDMTA5",
      "VideoID": "qABqMs_9Ldo",
      "VideoFile": "math-sub_98.webm"
    },
    {
      "ID": "UExmSTZVQmt4dk9UbFdRUHlkemRPcFVIZjgzY1RuUEhvcC41RDUzRjJFQ0Y0MUI3NzU1",
      "VideoID": "SikPcJ2iY2g",
      "VideoFile": "math-sub_99.webm"
    }
  ]
}