{
  "File": "math-grade1-2_25_A.mp4",
  "ID": "hTgocSFtyR0",
  "AudioLang": "",
  "DefaultLang": "mn",
  "Title": "математикийн мастер болох! 💯 2-р зэрэг Математикийн #25 Хэсгийн тооцоо",
  "Description": "Багш, сургуулиудад:\nЭнэ видео нь Creative Commons License лиценз дээр нийтлэгдсэн.\n  CC BY 3.0 https://creativecommons.org/licenses/by/3.0/ \nЭнэ видеог өөрийн ангиудад ашиглах боломжтой шүү!\n\n",
  "VideoTags": "2-р зэрэг,दूसरा दर्जा,მე -2 კლასის,2. Schouljoer,синфи 2-юм,2on grau,2. bekkjar,Klasa e Dytëматематикийн,গণিত,គណិតវិទ្យា,pāngarau,isiro,matemáticas,wiskunde",
  "YoutubeSynced": true,
  "ThumbnailUploaded": true,
  "Localizations": [
    {
      "Lang": "af",
      "Title": "'N wiskunde meester! 💯 Graad 2 Wiskunde #25 Afdeling berekening",
      "Description": "Aan onderwysers en skole:\nHierdie video word onder Creative Commons-lisensie gepubliseer.\n  CC BY 3.0 https://creativecommons.org/licenses/by/3.0/ \nGebruik gerus hierdie video in u klasse!\n\n",
      "TwitterStatusID": 1232984639351865345
    },
    {
      "Lang": "am",
      "Title": "አንድ የሒሳብ ማስተር ይሁኑ! 💯 2 ኛ ደረጃ ሒሳብ #25 የክፍል ስሌት",
      "Description": "ለመምህራን እና ለት / ቤቶች\nይህ ቪዲዮ በ Creative Commons ፈቃድ ስር ታትሟል ፡፡\n  CC BY 3.0 https://creativecommons.org/licenses/by/3.0/ \nይህንን ቪዲዮ በትምህርቶችዎ ውስጥ ለመጠቀም ነፃ ይሁኑ!\n\n",
      "TwitterStatusID": 1232984640505270273
    },
    {
      "Lang": "ar",
      "Title": "تصبح على درجة الماجستير في الرياضيات! 💯 2 الصف الرياضيات #25 حساب القسمة",
      "Description": "للمعلمين والمدارس:\nتم نشر هذا الفيديو تحت رخصة المشاع الإبداعي.\n  CC BY 3.0 https://creativecommons.org/licenses/by/3.0/ \nلا تتردد في استخدام هذا الفيديو في الفصول الدراسية!\n\n",
      "TwitterStatusID": 1232984641448992769
    },
    {
      "Lang": "az",
      "Title": "bir riyaziyyat master ol! 💯 2-ci sinif Math #25 Bölmə hesablanması",
      "Description": "Müəllimlərə və məktəblərə:\nBu video Creative Commons lisenziyası altında yayımlanıb.\n  CC BY 3.0 https://creativecommons.org/licenses/by/3.0/ \nBu videonu dərslərinizdə istifadə etməkdən çekinmeyin!\n\n",
      "TwitterStatusID": 1232984642573066240
    },
    {
      "Lang": "be",
      "Title": "Стаць матэматыкам майстар! 💯 2-й клас Матэматычны #25 Разлік аддзела",
      "Description": "Для настаўнікаў і школ:\nГэта відэа публікуецца пад ліцэнзіяй Creative Commons.\n  CC BY 3.0 https://creativecommons.org/licenses/by/3.0/ \nНе саромейцеся выкарыстоўваць гэта відэа ў сваіх класах!\n\n",
      "TwitterStatusID": 1232984643630034944
    },
    {
      "Lang": "bg",
      "Title": "Станете майстор математика! 💯 2-ри клас Математика #25 Изчисляване на отдела",
      "Description": "За учители и училища:\nТози видеоклип е публикуван под Creative Commons License.\n  CC BY 3.0 https://creativecommons.org/licenses/by/3.0/ \nЧувствайте се свободни да използвате това видео в класовете си!\n\n",
      "TwitterStatusID": 1232984644691214336
    },
    {
      "Lang": "bn",
      "Title": "একটি গণিত মাস্টার হয়ে যান! 💯 2nd গ্রেড গণিত #25 বিভাগ গণনা",
      "Description": "শিক্ষক এবং বিদ্যালয়ের কাছে:\nএই ভিডিওটি ক্রিয়েটিভ কমন্স লাইসেন্সের আওতায় প্রকাশিত হয়েছে।\n  CC BY 3.0 https://creativecommons.org/licenses/by/3.0/ \nআপনার ক্লাসে এই ভিডিওটি নির্দ্বিধায় ব্যবহার করুন!\n\n",
      "TwitterStatusID": 1232984645681025024
    },
    {
      "Lang": "bs",
      "Title": "Postanite matematike majstor! 💯 2. razred Matematika #25 Proračun odjeljenja",
      "Description": "Nastavnicima i školama:\nOvaj video je objavljen pod Creative Commons licencom.\n  CC BY 3.0 https://creativecommons.org/licenses/by/3.0/ \nSlobodno koristite ovaj videozapis u svojim predavanjima!\n\n",
      "TwitterStatusID": 1232984646628986880
    },
    {
      "Lang": "ca",
      "Title": "Convertir-se en un mestre de matemàtiques! 💯 2on grau Matemàtiques #25 Càlcul de divisió",
      "Description": "A professors i escoles:\nAquest vídeo es publica sota llicència Creative Commons.\n  CC BY 3.0 https://creativecommons.org/licenses/by/3.0/ \nNo dubteu a utilitzar aquest vídeo a les vostres classes.\n\n",
      "TwitterStatusID": 1232984647748898817
    },
    {
      "Lang": "co",
      "Title": "Divintatu un signore maths! 💯 2nd scelta Maths #25 Càlculu di divisione",
      "Description": "À i prufessori è à e scole:\nStu video hè publicatu sottu licenza Creative Commons.\n  CC BY 3.0 https://creativecommons.org/licenses/by/3.0/ \nSentitevi liberi d'utilizà stu video in i vostri classi!\n\n",
      "TwitterStatusID": 1232984648822579201
    },
    {
      "Lang": "cs",
      "Title": "Staňte se matematický pán! 💯 2. stupeň Matematika #25 Výpočet divize",
      "Description": "Učitelům a školám:\nToto video je publikováno pod licencí Creative Commons License.\n  CC BY 3.0 https://creativecommons.org/licenses/by/3.0/ \nNeváhejte použít toto video ve svých třídách!\n\n",
      "TwitterStatusID": 1232984649862795267
    },
    {
      "Lang": "cy",
      "Title": "Dod yn feistr mathemateg! 💯 2il radd Mathemateg #25 Cyfrifiad adran",
      "Description": "I athrawon ac ysgolion:\nCyhoeddir y fideo hon o dan Creative Commons License.\n  CC BY 3.0 https://creativecommons.org/licenses/by/3.0/ \nMae croeso i chi ddefnyddio'r fideo hon yn eich dosbarthiadau!\n\n",
      "TwitterStatusID": 1232984650877829122
    },
    {
      "Lang": "da",
      "Title": "Bliv matematik mester! 💯 2 Klasse Matematik #25 Opdelingsberegning",
      "Description": "Til lærere og skoler:\nDenne video er offentliggjort under Creative Commons License.\n  CC BY 3.0 https://creativecommons.org/licenses/by/3.0/ \nBrug gjerne denne video i dine klasser!\n\n",
      "TwitterStatusID": 1232984652010229760
    },
    {
      "Lang": "de",
      "Title": "Werden Sie ein Mathe-Meister! 💯 2 Klasse Mathematik #25 Divisionsberechnung",
      "Description": "An Lehrer und Schulen:\nDieses Video wird unter der Creative Commons License veröffentlicht.\n  CC BY 3.0 https://creativecommons.org/licenses/by/3.0/ \nFühlen Sie sich frei, dieses Video in Ihren Klassen zu verwenden!\n\n",
      "TwitterStatusID": 1232984652958199809
    },
    {
      "Lang": "el",
      "Title": "Γίνετε πλοίαρχος μαθηματικά! 💯 2η τάξη Μαθηματικά #25 Υπολογισμός διαίρεσης",
      "Description": "Στους εκπαιδευτικούς και τα σχολεία:\nΑυτό το βίντεο δημοσιεύεται υπό Creative Commons License.\n  CC BY 3.0 https://creativecommons.org/licenses/by/3.0/ \nΜπορείτε να χρησιμοποιήσετε αυτό το βίντεο στις τάξεις σας!\n\n",
      "TwitterStatusID": 1232984654031941632
    },
    {
      "Lang": "en",
      "Title": "Be a math master! 💯 2nd grade Math #25 Division calculation",
      "Description": "To teachers and schools:\nThis video is published under Creative Commons License.\n  CC BY 3.0 https://creativecommons.org/licenses/by/3.0/ \nFeel free to use this video in your classes!\n\n",
      "TwitterStatusID": 1232984655038562306
    },
    {
      "Lang": "es",
      "Title": "Convertirse en un maestro de matemáticas! 💯 2do grado Matemáticas #25 Cálculo de división",
      "Description": "A profesores y escuelas:\nEste video se publica bajo licencia Creative Commons.\n  CC BY 3.0 https://creativecommons.org/licenses/by/3.0/ \n¡Siéntete libre de usar este video en tus clases!\n\n",
      "TwitterStatusID": 1232984656183623680
    },
    {
      "Lang": "et",
      "Title": "Hakka matemaatika kapten! 💯 2. klass Matemaatika #25 Jagunemise arvutamine",
      "Description": "Õpetajatele ja koolidele:\nSee video on avaldatud Creative Commonsi litsentsi all.\n  CC BY 3.0 https://creativecommons.org/licenses/by/3.0/ \nKasutage seda videot julgelt oma tundides!\n\n",
      "TwitterStatusID": 1232984657232154624
    },
    {
      "Lang": "eu",
      "Title": "matematika maisu bihurtu! 💯 2. maila Matematika #25 Dibisioen kalkulua",
      "Description": "Irakasleei eta ikastetxeei:\nBideo hau Creative Commons lizentziapean argitaratzen da.\n  CC BY 3.0 https://creativecommons.org/licenses/by/3.0/ \nEz ahaztu bideo hau zure klaseetan erabiltzeko!\n\n",
      "TwitterStatusID": 1232984658293350400
    },
    {
      "Lang": "fa",
      "Title": "تبدیل به یک استاد ریاضی! 💯 درجه 2 ریاضی #25 محاسبه تقسیم",
      "Description": "به معلمان و مدارس:\nاین ویدیو تحت مجوز Creative Commons منتشر شده است.\n  CC BY 3.0 https://creativecommons.org/licenses/by/3.0/ \nدر استفاده از این فیلم در کلاس های خود احساس راحتی کنید!\n\n",
      "TwitterStatusID": 1232984659299930112
    },
    {
      "Lang": "fi",
      "Title": "Ryhdy matematiikka mestari! 💯 2. luokka Matematiikka #25 Jakolaskelma",
      "Description": "Opettajille ja kouluille:\nTämä video on julkaistu Creative Commons -lisenssillä.\n  CC BY 3.0 https://creativecommons.org/licenses/by/3.0/ \nVoit vapaasti käyttää tätä videota luokissa!\n\n",
      "TwitterStatusID": 1232984660331728897
    },
    {
      "Lang": "fil",
      "Title": "Maging isang matematika master! 💯 ikalawang baitang Math #25 Pagkalkula ng dibisyon",
      "Description": "Sa mga guro at paaralan:\nAng video na ito ay nai-publish sa ilalim ng Lisensya ng Creative Commons.\n  CC BY 3.0 https://creativecommons.org/licenses/by/3.0/ \nHuwag mag-atubiling gamitin ang video na ito sa iyong mga klase!\n\n",
      "TwitterStatusID": 1232984661397127169
    },
    {
      "Lang": "fr",
      "Title": "Devenez un maître de mathématiques! 💯 2e année Math #25 Calcul de division",
      "Description": "Aux enseignants et aux écoles:\nCette vidéo est publiée sous licence Creative Commons.\n  CC BY 3.0 https://creativecommons.org/licenses/by/3.0/ \nN'hésitez pas à utiliser cette vidéo dans vos cours!\n\n",
      "TwitterStatusID": 1232984662399565824
    },
    {
      "Lang": "fy",
      "Title": "Wurd in math master! 💯 2nd grade Math #25 Ofdieling berekkening",
      "Description": "Oan dosinten en skoallen:\nDizze fideo wurdt publisearre ûnder Creative Commons License.\n  CC BY 3.0 https://creativecommons.org/licenses/by/3.0/ \nFiel jo frij om dizze fideo te brûken yn jo klassen!\n\n",
      "TwitterStatusID": 1232984663498477570
    },
    {
      "Lang": "gd",
      "Title": "A bhith na mhaighstir math! 💯 2mh ìre Math #25 Àireamhachadh roinne",
      "Description": "Do thidsearan agus sgoiltean:\nTha a ’bhidio seo air fhoillseachadh fo Creative Commons License.\n  CC BY 3.0 https://creativecommons.org/licenses/by/3.0/ \nFaodaidh tu am bhidio seo a chleachdadh anns na clasaichean agad!\n\n",
      "TwitterStatusID": 1232984664496734208
    },
    {
      "Lang": "gl",
      "Title": "Tornouse un mestre de matemáticas! 💯 2º de primaria Matemáticas #25 Cálculo da división",
      "Description": "Para profesores e colexios:\nEste vídeo está publicado baixo a licenza Creative Commons.\n  CC BY 3.0 https://creativecommons.org/licenses/by/3.0/ \nNon dubides en usar este vídeo nas túas clases.\n\n",
      "TwitterStatusID": 1232984666346385410
    },
    {
      "Lang": "gu",
      "Title": "એક ગણિત માસ્ટર બનો! 💯 2 જી ગ્રેડ ગણિત #25 વિભાગ ગણતરી",
      "Description": "શિક્ષકો અને શાળાઓને:\nઆ વિડિઓ ક્રિએટિવ કonsમન્સ લાઇસન્સ હેઠળ પ્રકાશિત છે.\n  CC BY 3.0 https://creativecommons.org/licenses/by/3.0/ \nતમારા વર્ગોમાં આ વિડિઓનો ઉપયોગ કરવા માટે મફત લાગે!\n\n",
      "TwitterStatusID": 1232984667445288961
    },
    {
      "Lang": "ha",
      "Title": "Zama ilimin lissafi maigidana! 💯 2nd sa Ilimin lissafi #25 Lissafin Raba",
      "Description": "Ga malamai da makarantu:\nWannan bidiyon an buga shi a ƙarƙashin lasisin Creative Commons.\n  CC BY 3.0 https://creativecommons.org/licenses/by/3.0/ \nJin kyauta don amfani da wannan bidiyon a cikin azuzuwanku!\n\n",
      "TwitterStatusID": 1232984668443566082
    },
    {
      "Lang": "hi",
      "Title": "एक गणित मास्टर बनें! 💯 दूसरा दर्जा गणित #25 विभाजन की गणना",
      "Description": "शिक्षकों और स्कूलों के लिए:\nयह वीडियो क्रिएटिव कॉमन्स लाइसेंस के तहत प्रकाशित हुआ है।\n  CC BY 3.0 https://creativecommons.org/licenses/by/3.0/ \nअपनी कक्षाओं में इस वीडियो का उपयोग करने के लिए स्वतंत्र महसूस करें!\n\n",
      "TwitterStatusID": 1232984669542420480
    },
    {
      "Lang": "hr",
      "Title": "Postanite matematike majstor! 💯 2. razred Matematika #25 Proračun odjeljenja",
      "Description": "Nastavnicima i školama:\nOvaj videozapis objavljen je pod licencom Creative Commons.\n  CC BY 3.0 https://creativecommons.org/licenses/by/3.0/ \nSlobodno upotrijebite ovaj videozapis u svojim predavanjima!\n\n",
      "TwitterStatusID": 1232984670498766848
    },
    {
      "Lang": "hu",
      "Title": "Legyen egy matematikai mester! 💯 2. Osztálya Matematikai #25 Osztályszámítás",
      "Description": "Tanároknak és iskoláknak:\nEz a videó a Creative Commons License alatt jelenik meg.\n  CC BY 3.0 https://creativecommons.org/licenses/by/3.0/ \nNyugodtan használja ezt a videót az osztályokban!\n\n",
      "TwitterStatusID": 1232984671505416198
    },
    {
      "Lang": "hy",
      "Title": "Դարձեք մաթեմատիկական վարպետ! 💯 2-րդ դասարան Մաթեմատիկա #25 Բաժանմունքի հաշվարկ",
      "Description": "Ուսուցիչներին և դպրոցներին.\nԱյս տեսանյութը հրապարակված է Creative Commons արտոնագրի ներքո:\n  CC BY 3.0 https://creativecommons.org/licenses/by/3.0/ \nԱզատորեն օգտվեք այս տեսանյութից ձեր դասերից:\n\n",
      "TwitterStatusID": 1232984672662982656
    },
    {
      "Lang": "id",
      "Title": "Menjadi master matematika! 💯 Kelas 2 Matematika #25 Perhitungan divisi",
      "Description": "Kepada guru dan sekolah:\nVideo ini diterbitkan di bawah Lisensi Creative Commons.\n  CC BY 3.0 https://creativecommons.org/licenses/by/3.0/ \nJangan ragu untuk menggunakan video ini di kelas Anda!\n\n",
      "TwitterStatusID": 1232984673795444737
    },
    {
      "Lang": "ig",
      "Title": "Bụrụnụ ndị na-a mgbakọ na mwepụ ukwu! 💯 2nd ọkwa Ná mgbakọ na mwepụ #25 Ngụkọta nkewa",
      "Description": "Maka ndị nkuzi na ụlọ akwụkwọ:\nEdere vidiyo a n'okpuru ikikere Creative Commons.\n  CC BY 3.0 https://creativecommons.org/licenses/by/3.0/ \nNwere onwe gị iji vidiyo a na klaasị gị!\n\n",
      "TwitterStatusID": 1232984674722447362
    },
    {
      "Lang": "is",
      "Title": "Gerast stærðfræði snillingur! 💯 2. bekkjar Stærðfræði #25 Skipting útreiknings",
      "Description": "Til kennara og skóla:\nÞetta myndband er birt undir Creative Commons leyfi.\n  CC BY 3.0 https://creativecommons.org/licenses/by/3.0/ \nEkki hika við að nota þetta myndband í bekkjum þínum!\n\n",
      "TwitterStatusID": 1232984675645157381
    },
    {
      "Lang": "it",
      "Title": "Diventa un maestro di matematica! 💯 2° grado Matematica #25 Calcolo della divisione",
      "Description": "Per insegnanti e scuole:\nQuesto video è pubblicato sotto la licenza Creative Commons.\n  CC BY 3.0 https://creativecommons.org/licenses/by/3.0/ \nSentiti libero di usare questo video nelle tue lezioni!\n\n",
      "TwitterStatusID": 1232984676672753664
    },
    {
      "Lang": "iw",
      "Title": "להיות הורים מתמטיקה! 💯 כיתה ב מתמטיקה #25 חישוב החלוקה",
      "Description": "למורים ובתי ספר:\nסרטון זה מתפרסם תחת רישיון Creative Commons.\n  CC BY 3.0 https://creativecommons.org/licenses/by/3.0/ \nאל תהסס להשתמש בסרטון זה בשיעורים שלך!\n\n",
      "TwitterStatusID": 1232984677767450624
    },
    {
      "Lang": "ja",
      "Title": "さんすうマスターになろう！ 💯 小2 数学 #25 除算計算",
      "Description": "先生と学校へ：\nこのビデオは、クリエイティブコモンズライセンスの下で公開されています。\n  CC BY 3.0 https://creativecommons.org/licenses/by/3.0/ \nこのビデオをクラスで自由に使用してください！\n\n",
      "TwitterStatusID": 1232984678698602496
    },
    {
      "Lang": "jv",
      "Title": "Dadi master math! 💯 2 bahan Math #25 Pitungan divisi",
      "Description": "Tumrap guru lan sekolah:\nVideo iki diterbitake ing lisensi Creative Commons.\n  CC BY 3.0 https://creativecommons.org/licenses/by/3.0/ \nOjo nggunakake video iki ing kelas sampeyan!\n\n",
      "TwitterStatusID": 1232984679763955712
    },
    {
      "Lang": "ka",
      "Title": "გახდი მათემატიკის სამაგისტრო! 💯 მე -2 კლასის მათემატიკა #25 განყოფილების გაანგარიშება",
      "Description": "მასწავლებლებსა და სკოლებს:\nეს ვიდეო გამოქვეყნებულია Creative Commons- ის ლიცენზიით.\n  CC BY 3.0 https://creativecommons.org/licenses/by/3.0/ \nშეგიძლიათ გამოიყენოთ ეს ვიდეო თქვენს კლასებში!\n\n",
      "TwitterStatusID": 1232984680913231872
    },
    {
      "Lang": "kk",
      "Title": "математика шебері бол! 💯 2-ші сынып Математика #25 Бөлімді есептеу",
      "Description": "Оқытушылар мен мектептерге:\nБұл бейне Creative Commons лицензиясы бойынша жарияланған.\n  CC BY 3.0 https://creativecommons.org/licenses/by/3.0/ \nБұл бейнені өз сабақтарыңызда қолдануға болады!\n\n",
      "TwitterStatusID": 1232984681836007424
    },
    {
      "Lang": "km",
      "Title": "ក្លាយជាមេគណិតវិទ្យាមួយ! 💯 ថ្នាក់ទី 2 គណិតវិទ្យា #25 ការគណនាផ្នែក",
      "Description": "ជូនដល់គ្រូនិងសាលា៖\nវីដេអូនេះត្រូវបានផ្សព្វផ្សាយក្រោមអាជ្ញាប័ណ្ណច្នៃប្រឌិត។\n  CC BY 3.0 https://creativecommons.org/licenses/by/3.0/ \nសូមប្រើវីដេអូនេះនៅក្នុងថ្នាក់របស់អ្នកដោយឥតគិតថ្លៃ!\n\n",
      "TwitterStatusID": 1232984682809024512
    },
    {
      "Lang": "kn",
      "Title": "ಒಂದು ಗಣಿತ ಮಾಸ್ಟರ್ ಆಗಿ! 💯 2 ನೇ ದರ್ಜೆಯ ಗಣಿತ #25 ವಿಭಾಗದ ಲೆಕ್ಕಾಚಾರ",
      "Description": "ಶಿಕ್ಷಕರು ಮತ್ತು ಶಾಲೆಗಳಿಗೆ:\nಈ ವೀಡಿಯೊವನ್ನು ಕ್ರಿಯೇಟಿವ್ ಕಾಮನ್ಸ್ ಪರವಾನಗಿ ಅಡಿಯಲ್ಲಿ ಪ್ರಕಟಿಸಲಾಗಿದೆ.\n  CC BY 3.0 https://creativecommons.org/licenses/by/3.0/ \nನಿಮ್ಮ ತರಗತಿಗಳಲ್ಲಿ ಈ ವೀಡಿಯೊವನ್ನು ಬಳಸಲು ಹಿಂಜರಿಯಬೇಡಿ!\n\n",
      "TwitterStatusID": 1232984683853410305
    },
    {
      "Lang": "ko",
      "Title": "수학 마스터가 되세요! 💯 2 등급 수학 #25 나눗셈 계산",
      "Description": "교사와 학교 :\n이 비디오는 Creative Commons License에 따라 게시됩니다.\n  CC BY 3.0 https://creativecommons.org/licenses/by/3.0/ \n이 비디오를 수업에 자유롭게 사용하십시오!\n\n",
      "TwitterStatusID": 1232984684830679040
    },
    {
      "Lang": "ku",
      "Title": "Bibe master math! 💯 2nd grade Math #25 Hesabê dabeşkirinê",
      "Description": "Ji mamoste û dibistanan re:\nEv vîdyoyê di bin lîsansa Creative Commons-ê de hatî weşandin.\n  CC BY 3.0 https://creativecommons.org/licenses/by/3.0/ \nHêsan e ku hûn vê vîdyoyê di sinifên xwe de bikar bînin!\n\n",
      "TwitterStatusID": 1232984685753425921
    },
    {
      "Lang": "ky",
      "Title": "математика мырзасы бол! 💯 2-класс Математика #25 бөлүмү эсептөө",
      "Description": "мугалимдер жана мектептер үчүн:\nБул көргөзмө Creative Commons лиссиэнсийэ усулуобуйатынан жарыяланат.\n  CC BY 3.0 https://creativecommons.org/licenses/by/3.0/ \nСиздин класстары колдонсо болот!\n\n",
      "TwitterStatusID": 1232984686894338048
    },
    {
      "Lang": "lb",
      "Title": "Ginn eng temporäre Meeschtesch! 💯 2. Schouljoer Temporäre #25 Divisioun Berechnung",
      "Description": "Un de Schoulmeeschteren an d'Schoulen:\nDëse Video ass ënner der Creative Commons Lizenz verëffentlecht.\n  CC BY 3.0 https://creativecommons.org/licenses/by/3.0/ \nFillt gratis dësen Video zu Ären Klassen ze benotzen!\n\n",
      "TwitterStatusID": 1232984687846424576
    },
    {
      "Lang": "lo",
      "Title": "ກາຍເປັນແມ່ບົດຄະນິດສາດ! 💯 ຊັ້ນຮຽນທີ 2 ຄະນິດສາດ #25 ການຄິດໄລ່ພະແນກ",
      "Description": "ເຖິງຄູອາຈານແລະໂຮງຮຽນ:\nວິດີໂອນີ້ລົງພາຍໃຕ້ໃບອະນຸຍາດສ້າງສັນ.\n  CC BY 3.0 https://creativecommons.org/licenses/by/3.0/ \nຮູ້ສຶກວ່າບໍ່ເສຍຄ່າທີ່ຈະໃຊ້ວິດີໂອນີ້ໃນຫ້ອງຮຽນຂອງທ່ານ!\n\n",
      "TwitterStatusID": 1232984688865628161
    },
    {
      "Lang": "lt",
      "Title": "Tapkite matematikos meistras! 💯 2 Klasė Matematikos #25 Padalinio skaičiavimas",
      "Description": "Mokytojams ir mokykloms:\nŠis vaizdo įrašas paskelbtas naudojant „Creative Commons“ licenciją.\n  CC BY 3.0 https://creativecommons.org/licenses/by/3.0/ \nNesivaržykite naudotis šiuo vaizdo įrašu savo klasėse!\n\n",
      "TwitterStatusID": 1232984689779937280
    },
    {
      "Lang": "lv",
      "Title": "Kļūsti par math meistars! 💯 2. Klase Matemātika #25 Dalīšanas aprēķins",
      "Description": "Skolotājiem un skolām:\nŠis video ir publicēts saskaņā ar Creative Commons licenci.\n  CC BY 3.0 https://creativecommons.org/licenses/by/3.0/ \nJūtieties brīvi izmantot šo video savās nodarbībās!\n\n",
      "TwitterStatusID": 1232984690740494336
    },
    {
      "Lang": "mg",
      "Title": "Lasa mpampianatra matematika! 💯 2 kilasy Matematika #25 Fikajiana fizarana",
      "Description": "Ho an'ireo mpampianatra sy sekoly:\nIty horonantsary ity dia navoaka eo ambanin'ny lisansa Creative Commons.\n  CC BY 3.0 https://creativecommons.org/licenses/by/3.0/ \nAza misalasala mampiasa an'io horonantsary io amin'ny kilasinao!\n\n",
      "TwitterStatusID": 1232984691772231680
    },
    {
      "Lang": "mi",
      "Title": "Hoko he ariki pāngarau! 💯 2 kōeke Pāngarau #25 Te tātai wehenga",
      "Description": "Ki nga kaiako me nga kura:\nKei te whakaputaina tenei ataata i raro i te Raihana Hoahoatanga.\n  CC BY 3.0 https://creativecommons.org/licenses/by/3.0/ \nKia kore e pai ki te whakamahi i tenei ataata i roto i o akomanga!\n\n",
      "TwitterStatusID": 1232984692845973506
    },
    {
      "Lang": "mk",
      "Title": "Да стане господар математика! 💯 2 одделение Математика #25 Пресметка на делба",
      "Description": "До наставниците и училиштата:\nОва видео е објавено под лиценца Криејтив комонс.\n  CC BY 3.0 https://creativecommons.org/licenses/by/3.0/ \nСлободно можете да го користите ова видео во вашите часови!\n\n",
      "TwitterStatusID": 1232984693856849920
    },
    {
      "Lang": "ml",
      "Title": "ഒരു ഗണിത മാസ്റ്റർ ആകുക! 💯 2nd ഗ്രേഡ് മാത്ത് #25 ഡിവിഷൻ കണക്കുകൂട്ടൽ",
      "Description": "അധ്യാപകർക്കും സ്കൂളുകൾക്കും:\nക്രിയേറ്റീവ് കോമൺസ് ലൈസൻസിന് കീഴിൽ ഈ വീഡിയോ പ്രസിദ്ധീകരിച്ചു.\n  CC BY 3.0 https://creativecommons.org/licenses/by/3.0/ \nനിങ്ങളുടെ ക്ലാസുകളിൽ ഈ വീഡിയോ ഉപയോഗിക്കാൻ മടിക്കേണ്ടതില്ല!\n\n",
      "TwitterStatusID": 1232984694859284480
    },
    {
      "Lang": "mn",
      "Title": "математикийн мастер болох! 💯 2-р зэрэг Математикийн #25 Хэсгийн тооцоо",
      "Description": "Багш, сургуулиудад:\nЭнэ видео нь Creative Commons License лиценз дээр нийтлэгдсэн.\n  CC BY 3.0 https://creativecommons.org/licenses/by/3.0/ \nЭнэ видеог өөрийн ангиудад ашиглах боломжтой шүү!\n\n",
      "TwitterStatusID": 1232984695756881922
    },
    {
      "Lang": "mr",
      "Title": "एक गणित मास्टर व्हा! 💯 2 ग्रेड गणित #25 विभागणी",
      "Description": "शिक्षक आणि शाळा यांना:\nहा व्हिडिओ क्रिएटिव्ह कॉमन्स परवान्या अंतर्गत प्रकाशित झाला आहे.\n  CC BY 3.0 https://creativecommons.org/licenses/by/3.0/ \nआपल्या वर्गांमध्ये हा व्हिडिओ वापरण्यास मोकळ्या मनाने!\n\n",
      "TwitterStatusID": 1232984696872550401
    },
    {
      "Lang": "ms",
      "Title": "Menjadi tuan matematik! 💯 Gred 2 Matematik #25 Pengiraan bahagian",
      "Description": "Kepada guru dan sekolah:\nVideo ini diterbitkan di bawah Lesen Creative Commons.\n  CC BY 3.0 https://creativecommons.org/licenses/by/3.0/ \nJangan ragu untuk menggunakan video ini dalam kelas anda!\n\n",
      "TwitterStatusID": 1232984697833050114
    },
    {
      "Lang": "mt",
      "Title": "Ssir kaptan matematika! 💯 2 grad Matematika #25 Kalkolu tad - Diviżjoni",
      "Description": "Għalliema u skejjel:\nDan il-video huwa ppublikat taħt il-Liċenzja Creative Commons.\n  CC BY 3.0 https://creativecommons.org/licenses/by/3.0/ \nĦossok liberu li tuża dan il-video fil-klassijiet tiegħek!\n\n",
      "TwitterStatusID": 1232984698877431808
    },
    {
      "Lang": "my",
      "Title": "တစ်သင်္ချာမာစတာဖြစ်လာ! 💯 2nd တန်း သင်္ချာ #25 ဌာနတွက်ချက်မှု",
      "Description": "ဆရာများနှင့်ကျောင်းများသို့\nဒီဗီဒီယိုကို Creative Commons လိုင်စင်အောက်မှာထုတ်ဝေထားတယ်။\n  CC BY 3.0 https://creativecommons.org/licenses/by/3.0/ \nဤဗီဒီယိုကိုသင်၏အတန်းများ၌အခမဲ့အသုံးပြုပါ။\n\n",
      "TwitterStatusID": 1232984699854716929
    },
    {
      "Lang": "ne",
      "Title": "एक गणित मास्टर बन्न! 💯 2nd ग्रेड गणित #25 डिभिजन गणना",
      "Description": "शिक्षक र विद्यालयहरुलाई:\nयो भिडियो क्रिएटिभ कमन्स लाइसेन्स अन्तर्गत प्रकाशित गरिएको छ।\n  CC BY 3.0 https://creativecommons.org/licenses/by/3.0/ \nतपाईंको कक्षामा यो भिडियो प्रयोग गर्न स्वतन्त्र महसुस गर्नुहोस्!\n\n",
      "TwitterStatusID": 1232984700836147206
    },
    {
      "Lang": "nl",
      "Title": "Word math meester! 💯 2e Leerjaar Wiskunde #25 Divisie berekening",
      "Description": "Aan leraren en scholen:\nDeze video is gepubliceerd onder Creative Commons License.\n  CC BY 3.0 https://creativecommons.org/licenses/by/3.0/ \nVoel je vrij om deze video in je lessen te gebruiken!\n\n",
      "TwitterStatusID": 1232984701729525760
    },
    {
      "Lang": "no",
      "Title": "Bli en matte mester! 💯 2. Klasse Matte #25 Divisjonsberegning",
      "Description": "Til lærere og skoler:\nDenne videoen er publisert under Creative Commons License.\n  CC BY 3.0 https://creativecommons.org/licenses/by/3.0/ \nBruk gjerne denne videoen i klassene dine!\n\n",
      "TwitterStatusID": 1232984702752940033
    },
    {
      "Lang": "pa",
      "Title": "ਨੂੰ ਇੱਕ ਗਣਿਤ ਮਾਸਟਰ ਬਣੋ! 💯 2 ਗ੍ਰੇਡ ਗਣਿਤ #25 ਡਿਵੀਜ਼ਨ ਗਣਨਾ",
      "Description": "ਅਧਿਆਪਕਾਂ ਅਤੇ ਸਕੂਲਾਂ ਨੂੰ:\nਇਹ ਵੀਡੀਓ ਕਰੀਏਟਿਵ ਕਾਮਨਜ਼ ਲਾਇਸੈਂਸ ਅਧੀਨ ਪ੍ਰਕਾਸ਼ਤ ਕੀਤਾ ਗਿਆ ਹੈ.\n  CC BY 3.0 https://creativecommons.org/licenses/by/3.0/ \nਇਸ ਕਲਾਸ ਨੂੰ ਆਪਣੀਆਂ ਕਲਾਸਾਂ ਵਿਚ ਵਰਤਣ ਲਈ ਮੁਫ਼ਤ ਮਹਿਸੂਸ ਕਰੋ!\n\n",
      "TwitterStatusID": 1232984703830937600
    },
    {
      "Lang": "pl",
      "Title": "Zostań mistrzem matematyki! 💯 Klasa 2 Matematyka #25 Obliczanie podziału",
      "Description": "Do nauczycieli i szkół:\nTen film jest opublikowany na licencji Creative Commons.\n  CC BY 3.0 https://creativecommons.org/licenses/by/3.0/ \nZachęcamy do korzystania z tego filmu na zajęciach!\n\n",
      "TwitterStatusID": 1232984704753655810
    },
    {
      "Lang": "ps",
      "Title": "شي یو ریاضی بادار! 💯 2nd ټولګي ریاضی #25 برخه محاسبه",
      "Description": "ښوونکو او ښوونځیو ته:\nدا ویډیو د کریټیو کامنز لایسنس لاندې خپره شوې ده.\n  CC BY 3.0 https://creativecommons.org/licenses/by/3.0/ \nپه خپلو ټولګیو کې د دې ویډیو کارولو لپاره وړیا احساس وکړئ!\n\n",
      "TwitterStatusID": 1232984705877692418
    },
    {
      "Lang": "pt",
      "Title": "Torne-se um mestre de matemática! 💯 2ª Série Matemática #25 Cálculo de divisão",
      "Description": "Para professores e escolas:\nEste vídeo é publicado sob licença Creative Commons.\n  CC BY 3.0 https://creativecommons.org/licenses/by/3.0/ \nSinta-se livre para usar este vídeo em suas aulas!\n\n",
      "TwitterStatusID": 1232984707060527104
    },
    {
      "Lang": "ro",
      "Title": "Deveni un maestru de matematică! 💯 Clasa a II-a Matematica #25 Calculul diviziei",
      "Description": "Pentru profesori și școli:\nAcest videoclip este publicat sub licență Creative Commons.\n  CC BY 3.0 https://creativecommons.org/licenses/by/3.0/ \nSimte-te liber să folosești acest videoclip în orele tale!\n\n",
      "TwitterStatusID": 1232984708138467329
    },
    {
      "Lang": "ru",
      "Title": "Стать математиком мастер! 💯 2-й класс Математический #25 Расчет деления",
      "Description": "Учителям и школам:\nЭто видео опубликовано под лицензией Creative Commons.\n  CC BY 3.0 https://creativecommons.org/licenses/by/3.0/ \nНе стесняйтесь использовать это видео в своих классах!\n\n",
      "TwitterStatusID": 1232984709136699392
    },
    {
      "Lang": "sd",
      "Title": "هڪ رياضي رکن ٿا بڻجي! 💯 2nd گريڊ رياضي #25 حساب ڪتاب جي حساب سان",
      "Description": "استاد ۽ اسڪولن ڏانهن:\nهيء وڊيو تخليقي العام لائسنس هيٺ شايع ٿيل آهي.\n  CC BY 3.0 https://creativecommons.org/licenses/by/3.0/ \nپنهنجي وڊيوز ۾ هن وڊيو کي استعمال ڪرڻ لاء آزاد ٿيو!\n\n",
      "TwitterStatusID": 1232984710046896128
    },
    {
      "Lang": "si",
      "Title": "එය ගණිත ස්වාමියා බවට පත් වෙනවා! 💯 2 වන ශ්රේණියේ ගණිත #25 අංශ ගණනය කිරීම",
      "Description": "ගුරුවරුන්ට සහ පාසල්වලට:\nමෙම වීඩියෝව නිර්මාණාත්මක පොදු බලපත්‍රය යටතේ ප්‍රකාශයට පත් කෙරේ.\n  CC BY 3.0 https://creativecommons.org/licenses/by/3.0/ \nඔබේ පංතිවල මෙම වීඩියෝව භාවිතා කිරීමට නිදහස් වන්න!\n\n",
      "TwitterStatusID": 1232984711053529088
    },
    {
      "Lang": "sk",
      "Title": "Staňte sa matematický pán! 💯 2. Ročník Matematika #25 Výpočet rozdelenia",
      "Description": "Pre učiteľov a školy:\nToto video je publikované pod licenciou Creative Commons License.\n  CC BY 3.0 https://creativecommons.org/licenses/by/3.0/ \nNeváhajte použiť toto video vo svojich triedach!\n\n",
      "TwitterStatusID": 1232984712034975744
    },
    {
      "Lang": "sl",
      "Title": "Postanite math mojster! 💯 2. razred Math #25 Izračun oddelka",
      "Description": "Učiteljem in šolam:\nTa videoposnetek je objavljen pod licenco Creative Commons.\n  CC BY 3.0 https://creativecommons.org/licenses/by/3.0/ \nUporabite ta video v svojih razredih!\n\n",
      "TwitterStatusID": 1232984713117102082
    },
    {
      "Lang": "sm",
      "Title": "Avea ma se matai o le numera! 💯 vasega 2 Le numera #25 Vaevaega vaega",
      "Description": "I faiaoga ma aʻoga:\nO lenei vitio ua lomia i lalo o le Creative Commons License.\n  CC BY 3.0 https://creativecommons.org/licenses/by/3.0/ \nLagona le saoloto e faʻaaoga lenei vitio i au vasega!\n\n",
      "TwitterStatusID": 1232984714186612737
    },
    {
      "Lang": "sn",
      "Title": "Iva tenzi yemasvomhu! 💯 2nd giredha Masvomhu #25 Kuverenga kuverenga",
      "Description": "Kune vadzidzisi uye zvikoro:\nVhidhiyo iyi inoburitswa pasi peCreative Commons License.\n  CC BY 3.0 https://creativecommons.org/licenses/by/3.0/ \nInzwa wakasununguka kushandisa iyi vhidhiyo mumakirasi ako!\n\n",
      "TwitterStatusID": 1232984715755311106
    },
    {
      "Lang": "so",
      "Title": "Noqo sayidkiisa xisaab ah! 💯 fasalka 2aad Xisaabta #25 Xisaabinta Qeybta",
      "Description": "Ku socota macallimiinta iyo iskuulada:\nMuuqaalkan fiidiyaha ah waxaa lagu daabacay hoosta hal-abuurnimada Hal-abuurka.\n  CC BY 3.0 https://creativecommons.org/licenses/by/3.0/ \nXor baad u leedahay inaad fiidiyaha u isticmaasho fasalladaaga!\n\n",
      "TwitterStatusID": 1232984716917129217
    },
    {
      "Lang": "sq",
      "Title": "Bëhuni një mjeshtër math! 💯 Klasa e Dytë Math #25 Llogaritja e ndarjes",
      "Description": "Për mësuesit dhe shkollat:\nKjo video është botuar nën licencën Creative Commons.\n  CC BY 3.0 https://creativecommons.org/licenses/by/3.0/ \nMos ngurroni të përdorni këtë video në klasat tuaja!\n\n",
      "TwitterStatusID": 1232984718322257921
    },
    {
      "Lang": "sr",
      "Title": "Постаните математика мајстор! 💯 2. разред Математика #25 Прорачун одјељења",
      "Description": "Наставницима и школама:\nОвај видео је објављен под Цреативе Цоммонс лиценцом.\n  CC BY 3.0 https://creativecommons.org/licenses/by/3.0/ \nСлободно користите овај видеозапис у својим предавањима!\n\n",
      "TwitterStatusID": 1232984719383388161
    },
    {
      "Lang": "st",
      "Title": "Ba lipalo monghali! 💯 2nd sehlopheng Lipalo #25 Lipalo tsa karohano",
      "Description": "Ho matichere le likolo:\nVideo ena e phatlalalitsoe tlas'a Creative Commons License.\n  CC BY 3.0 https://creativecommons.org/licenses/by/3.0/ \nIkutloe u lokolohile ho sebelisa video ena litlelaseng tsa hau!\n\n",
      "TwitterStatusID": 1232984720348041216
    },
    {
      "Lang": "su",
      "Title": "Jadi master math! 💯 2nd kelas Math #25 Perhitungan Divisi",
      "Description": "Pikeun guru sareng sakola:\nPidéo ieu dikaluarkeun dina Lisensi Lisénsi Creative Commons.\n  CC BY 3.0 https://creativecommons.org/licenses/by/3.0/ \nTong ngosongkeun pidéo ieu di kelas!\n\n",
      "TwitterStatusID": 1232984721476530177
    },
    {
      "Lang": "sv",
      "Title": "Bli ett matematiskt mästare! 💯 2:e grade Matematik #25 Uppdelning beräkning",
      "Description": "Till lärare och skolor:\nDenna video publiceras under Creative Commons License.\n  CC BY 3.0 https://creativecommons.org/licenses/by/3.0/ \nAnvänd gärna den här videon i dina klasser!\n\n",
      "TwitterStatusID": 1232984722759774209
    },
    {
      "Lang": "sw",
      "Title": "Kuwa hesabu bwana! 💯 Darasa la 2 Hisabati #25 Hesabu ya hesabu",
      "Description": "Kwa waalimu na shule:\nVideo hii imechapishwa chini ya Leseni ya Creative Commons.\n  CC BY 3.0 https://creativecommons.org/licenses/by/3.0/ \nJisikie huru kutumia video hii kwenye darasa lako!\n\n",
      "TwitterStatusID": 1232984723716100097
    },
    {
      "Lang": "ta",
      "Title": "ஒரு கணித மாஸ்டர் ஆக! 💯 2 வது தர கணித #25 பிரிவு கணக்கீடு",
      "Description": "ஆசிரியர்கள் மற்றும் பள்ளிகளுக்கு:\nஇந்த வீடியோ கிரியேட்டிவ் காமன்ஸ் உரிமத்தின் கீழ் வெளியிடப்பட்டுள்ளது.\n  CC BY 3.0 https://creativecommons.org/licenses/by/3.0/ \nஉங்கள் வகுப்புகளில் இந்த வீடியோவைப் பயன்படுத்த தயங்காதீர்கள்!\n\n",
      "TwitterStatusID": 1232984724747907074
    },
    {
      "Lang": "te",
      "Title": "ఒక గణిత మాస్టర్ అవ్వండి! 💯 2 వ గ్రేడ్ గణిత #25 డివిజన్ లెక్కింపు",
      "Description": "ఉపాధ్యాయులకు మరియు పాఠశాలలకు:\nఈ వీడియో క్రియేటివ్ కామన్స్ లైసెన్స్ క్రింద ప్రచురించబడింది.\n  CC BY 3.0 https://creativecommons.org/licenses/by/3.0/ \nమీ తరగతుల్లో ఈ వీడియోను ఉపయోగించడానికి సంకోచించకండి!\n\n",
      "TwitterStatusID": 1232984725687427074
    },
    {
      "Lang": "tg",
      "Title": "Табдил як устоди фанни математика! 💯 синфи 2-юм Математика #25 Ҳисоб кардани бахш",
      "Description": "Ба муаллимон ва мактабҳо:\nИн видео зери иҷозатномаи Creative Commons нашр шудааст.\n  CC BY 3.0 https://creativecommons.org/licenses/by/3.0/ \nИн видеоро дар дарсҳои худ истифода баред!\n\n",
      "TwitterStatusID": 1232984726715023361
    },
    {
      "Lang": "th",
      "Title": "กลายเป็นหลักคณิตศาสตร์! 💯 ชั้นประถมศึกษาปีที่ 2 คณิตศาสตร์ #25 การคำนวณหาร",
      "Description": "ถึงครูและโรงเรียน:\nวิดีโอนี้เผยแพร่ภายใต้สัญญาอนุญาตครีเอทีฟคอมมอนส์\n  CC BY 3.0 https://creativecommons.org/licenses/by/3.0/ \nอย่าลังเลที่จะใช้วิดีโอนี้ในชั้นเรียนของคุณ!\n\n",
      "TwitterStatusID": 1232984728120090625
    },
    {
      "Lang": "tr",
      "Title": "Bir matematik ustası ol! 💯 2. sınıf Matematik #25 Bölüm hesaplama",
      "Description": "Öğretmenlere ve okullara:\nBu video Creative Commons License. Altında yayınlandı.\n  CC BY 3.0 https://creativecommons.org/licenses/by/3.0/ \nBu videoyu derslerinizde kullanmaktan çekinmeyin!\n\n",
      "TwitterStatusID": 1232984729059651584
    },
    {
      "Lang": "uk",
      "Title": "Стати математиком майстер! 💯 2-й клас Математичний #25 Розрахунок відділу",
      "Description": "Для вчителів та шкіл:\nЦе відео опубліковане під ліцензією Creative Commons.\n  CC BY 3.0 https://creativecommons.org/licenses/by/3.0/ \nСміливо використовуйте це відео у своїх класах!\n\n",
      "TwitterStatusID": 1232984730452127746
    },
    {
      "Lang": "ur",
      "Title": "ایک ریاضی ماسٹر بن! 💯 2nd گریڈ ریاضی #25 ڈویژن حساب",
      "Description": "اساتذہ اور اسکولوں کے لئے:\nیہ ویڈیو تخلیقی العام لائسنس کے تحت شائع ہوا ہے۔\n  CC BY 3.0 https://creativecommons.org/licenses/by/3.0/ \nاپنی ویڈیو کو اپنی کلاسوں میں آزادانہ طور پر استعمال کریں!\n\n",
      "TwitterStatusID": 1232984731790139392
    },
    {
      "Lang": "uz",
      "Title": "matematika master bo'l! 💯 2-sinf Matematik #25 Bo'limni hisoblash",
      "Description": "O'qituvchilar va maktablarga:\nUshbu video Creative Commons litsenziyasi ostida joylashtirilgan.\n  CC BY 3.0 https://creativecommons.org/licenses/by/3.0/ \nUshbu videoni o'z sinflaringizda ishlatish bepul!\n\n",
      "TwitterStatusID": 1232984733736300544
    },
    {
      "Lang": "vi",
      "Title": "Trở thành chuyên gia toán học! 💯 2 lớp Môn Toán #25 Tính toán phân chia",
      "Description": "Gửi giáo viên và nhà trường:\nVideo này được xuất bản theo Giấy phép Creative Commons.\n  CC BY 3.0 https://creativecommons.org/licenses/by/3.0/ \nHãy sử dụng video này trong các lớp học của bạn!\n\n",
      "TwitterStatusID": 1232984734843539456
    },
    {
      "Lang": "xh",
      "Title": "Yiba yinkosi izibalo! 💯 grade 2 Izibalo #25 Ukubala ngokweCandelo",
      "Description": "Kootitshala nakwizikolo:\nLe vidiyo ipapashwa phantsi kwelayisensi yeCreative Commons.\n  CC BY 3.0 https://creativecommons.org/licenses/by/3.0/ \nZive ukhululekile ukusebenzisa le vidiyo kwiiklasi zakho!\n\n",
      "TwitterStatusID": 1232984735887978496
    },
    {
      "Lang": "yi",
      "Title": "ווערן אַ מאַט בעל! 💯 2 מיינונג מאַט #25 אָפּטייל כעזשבן",
      "Description": "צו לערערס און שולן:\nדער ווידעא איז ארויס אונטער Creative Commons License.\n  CC BY 3.0 https://creativecommons.org/licenses/by/3.0/ \nפילן פריי צו נוצן דעם ווידעא אין דיין קלאסן!\n\n",
      "TwitterStatusID": 1232984736995266562
    },
    {
      "Lang": "yo",
      "Title": "Di a eko isiro titunto si! 💯 2nd ite Isiro #25 Iṣiro pipin",
      "Description": "Si awọn olukọ ati awọn ile-iwe:\nFidio yii ni a tẹjade labẹ Iwe-aṣẹ Creative Commons.\n  CC BY 3.0 https://creativecommons.org/licenses/by/3.0/ \nLero lati lo fidio yii ninu awọn kilasi rẹ!\n\n",
      "TwitterStatusID": 1232984738253553664
    },
    {
      "Lang": "zh-Hans",
      "Title": "成为数学大师！ 💯 二年级 数学 #25 除法计算",
      "Description": "致老师和学校：\n该视频是根据知识共享许可发布的。\n  CC BY 3.0 https://creativecommons.org/licenses/by/3.0/ \n随时在您的课程中使用此视频！\n\n",
      "TwitterStatusID": 1232984739428040704
    },
    {
      "Lang": "zh-Hant",
      "Title": "成為數學大師！ 💯 二年級 數學 #25 除法計算",
      "Description": "致老師和學校：\n該視頻是根據知識共享許可發布的。\n  CC BY 3.0 https://creativecommons.org/licenses/by/3.0/ \n隨時在您的課程中使用此視頻！\n\n",
      "TwitterStatusID": 1232984740543598593
    },
    {
      "Lang": "zu",
      "Title": "Iba master izibalo! 💯 ibanga lesibili Izibalo #25 Ukubalwa kokwahlukaniswa",
      "Description": "Kothisha nasezikoleni:\nLe vidiyo ishicilelwe ngaphansi kwelayisensi yeCreative Commons.\n  CC BY 3.0 https://creativecommons.org/licenses/by/3.0/ \nZizwe ukhululekile ukusebenzisa le vidiyo emakilasini akho!\n\n",
      "TwitterStatusID": 1232984741546037248
    }
  ]
}