{
  "File": "math-grade1-2_30_A.mp4",
  "ID": "aZORBliIkV8",
  "AudioLang": "",
  "DefaultLang": "hy",
  "Title": "Դարձեք մաթեմատիկական վարպետ! 💯 2-րդ դասարան Մաթեմատիկա #30 Հանում",
  "Description": "Ուսուցիչներին և դպրոցներին.\nԱյս տեսանյութը հրապարակված է Creative Commons արտոնագրի ներքո:\n  CC BY 3.0 https://creativecommons.org/licenses/by/3.0/ \nԱզատորեն օգտվեք այս տեսանյութից ձեր դասերից:\n\n",
  "VideoTags": "2-րդ դասարան,2 వ గ్రేడ్,2 등급,vasega 2,2nd grade,2do grado,2. Osztálya,2:e gradeՄաթեմատիկա,ಗಣಿತ,math,masvomhu,matematika,matematika,matematica",
  "YoutubeSynced": true,
  "ThumbnailUploaded": true,
  "Localizations": [
    {
      "Lang": "af",
      "Title": "'N wiskunde meester! 💯 Graad 2 Wiskunde #30 Aftrek",
      "Description": "Aan onderwysers en skole:\nHierdie video word onder Creative Commons-lisensie gepubliseer.\n  CC BY 3.0 https://creativecommons.org/licenses/by/3.0/ \nGebruik gerus hierdie video in u klasse!\n\n"
    },
    {
      "Lang": "am",
      "Title": "አንድ የሒሳብ ማስተር ይሁኑ! 💯 2 ኛ ደረጃ ሒሳብ #30 መቀነስ",
      "Description": "ለመምህራን እና ለት / ቤቶች\nይህ ቪዲዮ በ Creative Commons ፈቃድ ስር ታትሟል ፡፡\n  CC BY 3.0 https://creativecommons.org/licenses/by/3.0/ \nይህንን ቪዲዮ በትምህርቶችዎ ውስጥ ለመጠቀም ነፃ ይሁኑ!\n\n"
    },
    {
      "Lang": "ar",
      "Title": "تصبح على درجة الماجستير في الرياضيات! 💯 2 الصف الرياضيات #30 طرح",
      "Description": "للمعلمين والمدارس:\nتم نشر هذا الفيديو تحت رخصة المشاع الإبداعي.\n  CC BY 3.0 https://creativecommons.org/licenses/by/3.0/ \nلا تتردد في استخدام هذا الفيديو في الفصول الدراسية!\n\n"
    },
    {
      "Lang": "az",
      "Title": "bir riyaziyyat master ol! 💯 2-ci sinif Math #30 Çıxma",
      "Description": "Müəllimlərə və məktəblərə:\nBu video Creative Commons lisenziyası altında yayımlanıb.\n  CC BY 3.0 https://creativecommons.org/licenses/by/3.0/ \nBu videonu dərslərinizdə istifadə etməkdən çekinmeyin!\n\n"
    },
    {
      "Lang": "be",
      "Title": "Стаць матэматыкам майстар! 💯 2-й клас Матэматычны #30 Адніманне",
      "Description": "Для настаўнікаў і школ:\nГэта відэа публікуецца пад ліцэнзіяй Creative Commons.\n  CC BY 3.0 https://creativecommons.org/licenses/by/3.0/ \nНе саромейцеся выкарыстоўваць гэта відэа ў сваіх класах!\n\n"
    },
    {
      "Lang": "bg",
      "Title": "Станете майстор математика! 💯 2-ри клас Математика #30 Изваждане",
      "Description": "За учители и училища:\nТози видеоклип е публикуван под Creative Commons License.\n  CC BY 3.0 https://creativecommons.org/licenses/by/3.0/ \nЧувствайте се свободни да използвате това видео в класовете си!\n\n"
    },
    {
      "Lang": "bn",
      "Title": "একটি গণিত মাস্টার হয়ে যান! 💯 2nd গ্রেড গণিত #30 বিয়োগ",
      "Description": "শিক্ষক এবং বিদ্যালয়ের কাছে:\nএই ভিডিওটি ক্রিয়েটিভ কমন্স লাইসেন্সের আওতায় প্রকাশিত হয়েছে।\n  CC BY 3.0 https://creativecommons.org/licenses/by/3.0/ \nআপনার ক্লাসে এই ভিডিওটি নির্দ্বিধায় ব্যবহার করুন!\n\n"
    },
    {
      "Lang": "bs",
      "Title": "Postanite matematike majstor! 💯 2. razred Matematika #30 Oduzimanje",
      "Description": "Nastavnicima i školama:\nOvaj video je objavljen pod Creative Commons licencom.\n  CC BY 3.0 https://creativecommons.org/licenses/by/3.0/ \nSlobodno koristite ovaj videozapis u svojim predavanjima!\n\n"
    },
    {
      "Lang": "ca",
      "Title": "Convertir-se en un mestre de matemàtiques! 💯 2on grau Matemàtiques #30 Resta",
      "Description": "A professors i escoles:\nAquest vídeo es publica sota llicència Creative Commons.\n  CC BY 3.0 https://creativecommons.org/licenses/by/3.0/ \nNo dubteu a utilitzar aquest vídeo a les vostres classes.\n\n"
    },
    {
      "Lang": "co",
      "Title": "Divintatu un signore maths! 💯 2nd scelta Maths #30 Subtraction",
      "Description": "À i prufessori è à e scole:\nStu video hè publicatu sottu licenza Creative Commons.\n  CC BY 3.0 https://creativecommons.org/licenses/by/3.0/ \nSentitevi liberi d'utilizà stu video in i vostri classi!\n\n"
    },
    {
      "Lang": "cs",
      "Title": "Staňte se matematický pán! 💯 2. stupeň Matematika #30 Odčítání",
      "Description": "Učitelům a školám:\nToto video je publikováno pod licencí Creative Commons License.\n  CC BY 3.0 https://creativecommons.org/licenses/by/3.0/ \nNeváhejte použít toto video ve svých třídách!\n\n"
    },
    {
      "Lang": "cy",
      "Title": "Dod yn feistr mathemateg! 💯 2il radd Mathemateg #30 Tynnu",
      "Description": "I athrawon ac ysgolion:\nCyhoeddir y fideo hon o dan Creative Commons License.\n  CC BY 3.0 https://creativecommons.org/licenses/by/3.0/ \nMae croeso i chi ddefnyddio'r fideo hon yn eich dosbarthiadau!\n\n"
    },
    {
      "Lang": "da",
      "Title": "Bliv matematik mester! 💯 2 Klasse Matematik #30 Subtraktion",
      "Description": "Til lærere og skoler:\nDenne video er offentliggjort under Creative Commons License.\n  CC BY 3.0 https://creativecommons.org/licenses/by/3.0/ \nBrug gjerne denne video i dine klasser!\n\n"
    },
    {
      "Lang": "de",
      "Title": "Werden Sie ein Mathe-Meister! 💯 2 Klasse Mathematik #30 Subtraktion",
      "Description": "An Lehrer und Schulen:\nDieses Video wird unter der Creative Commons License veröffentlicht.\n  CC BY 3.0 https://creativecommons.org/licenses/by/3.0/ \nFühlen Sie sich frei, dieses Video in Ihren Klassen zu verwenden!\n\n"
    },
    {
      "Lang": "el",
      "Title": "Γίνετε πλοίαρχος μαθηματικά! 💯 2η τάξη Μαθηματικά #30 Αφαίρεση",
      "Description": "Στους εκπαιδευτικούς και τα σχολεία:\nΑυτό το βίντεο δημοσιεύεται υπό Creative Commons License.\n  CC BY 3.0 https://creativecommons.org/licenses/by/3.0/ \nΜπορείτε να χρησιμοποιήσετε αυτό το βίντεο στις τάξεις σας!\n\n"
    },
    {
      "Lang": "en",
      "Title": "Be a math master! 💯 2nd grade Math #30 Subtraction",
      "Description": "To teachers and schools:\nThis video is published under Creative Commons License.\n  CC BY 3.0 https://creativecommons.org/licenses/by/3.0/ \nFeel free to use this video in your classes!\n\n"
    },
    {
      "Lang": "es",
      "Title": "Convertirse en un maestro de matemáticas! 💯 2do grado Matemáticas #30 Resta",
      "Description": "A profesores y escuelas:\nEste video se publica bajo licencia Creative Commons.\n  CC BY 3.0 https://creativecommons.org/licenses/by/3.0/ \n¡Siéntete libre de usar este video en tus clases!\n\n"
    },
    {
      "Lang": "et",
      "Title": "Hakka matemaatika kapten! 💯 2. klass Matemaatika #30 Lahutamine",
      "Description": "Õpetajatele ja koolidele:\nSee video on avaldatud Creative Commonsi litsentsi all.\n  CC BY 3.0 https://creativecommons.org/licenses/by/3.0/ \nKasutage seda videot julgelt oma tundides!\n\n"
    },
    {
      "Lang": "eu",
      "Title": "matematika maisu bihurtu! 💯 2. maila Matematika #30 Kenketa",
      "Description": "Irakasleei eta ikastetxeei:\nBideo hau Creative Commons lizentziapean argitaratzen da.\n  CC BY 3.0 https://creativecommons.org/licenses/by/3.0/ \nEz ahaztu bideo hau zure klaseetan erabiltzeko!\n\n"
    },
    {
      "Lang": "fa",
      "Title": "تبدیل به یک استاد ریاضی! 💯 درجه 2 ریاضی #30 تفریق",
      "Description": "به معلمان و مدارس:\nاین ویدیو تحت مجوز Creative Commons منتشر شده است.\n  CC BY 3.0 https://creativecommons.org/licenses/by/3.0/ \nدر استفاده از این فیلم در کلاس های خود احساس راحتی کنید!\n\n"
    },
    {
      "Lang": "fi",
      "Title": "Ryhdy matematiikka mestari! 💯 2. luokka Matematiikka #30 Vähennys",
      "Description": "Opettajille ja kouluille:\nTämä video on julkaistu Creative Commons -lisenssillä.\n  CC BY 3.0 https://creativecommons.org/licenses/by/3.0/ \nVoit vapaasti käyttää tätä videota luokissa!\n\n"
    },
    {
      "Lang": "fil",
      "Title": "Maging isang matematika master! 💯 ikalawang baitang Math #30 Subtraction",
      "Description": "Sa mga guro at paaralan:\nAng video na ito ay nai-publish sa ilalim ng Lisensya ng Creative Commons.\n  CC BY 3.0 https://creativecommons.org/licenses/by/3.0/ \nHuwag mag-atubiling gamitin ang video na ito sa iyong mga klase!\n\n"
    },
    {
      "Lang": "fr",
      "Title": "Devenez un maître de mathématiques! 💯 2e année Math #30 Soustraction",
      "Description": "Aux enseignants et aux écoles:\nCette vidéo est publiée sous licence Creative Commons.\n  CC BY 3.0 https://creativecommons.org/licenses/by/3.0/ \nN'hésitez pas à utiliser cette vidéo dans vos cours!\n\n"
    },
    {
      "Lang": "fy",
      "Title": "Wurd in math master! 💯 2nd grade Math #30 Subtraction",
      "Description": "Oan dosinten en skoallen:\nDizze fideo wurdt publisearre ûnder Creative Commons License.\n  CC BY 3.0 https://creativecommons.org/licenses/by/3.0/ \nFiel jo frij om dizze fideo te brûken yn jo klassen!\n\n"
    },
    {
      "Lang": "gd",
      "Title": "A bhith na mhaighstir math! 💯 2mh ìre Math #30 Toirt air falbh",
      "Description": "Do thidsearan agus sgoiltean:\nTha a ’bhidio seo air fhoillseachadh fo Creative Commons License.\n  CC BY 3.0 https://creativecommons.org/licenses/by/3.0/ \nFaodaidh tu am bhidio seo a chleachdadh anns na clasaichean agad!\n\n"
    },
    {
      "Lang": "gl",
      "Title": "Tornouse un mestre de matemáticas! 💯 2º de primaria Matemáticas #30 Subtracción",
      "Description": "Para profesores e colexios:\nEste vídeo está publicado baixo a licenza Creative Commons.\n  CC BY 3.0 https://creativecommons.org/licenses/by/3.0/ \nNon dubides en usar este vídeo nas túas clases.\n\n"
    },
    {
      "Lang": "gu",
      "Title": "એક ગણિત માસ્ટર બનો! 💯 2 જી ગ્રેડ ગણિત #30 બાદબાકી",
      "Description": "શિક્ષકો અને શાળાઓને:\nઆ વિડિઓ ક્રિએટિવ કonsમન્સ લાઇસન્સ હેઠળ પ્રકાશિત છે.\n  CC BY 3.0 https://creativecommons.org/licenses/by/3.0/ \nતમારા વર્ગોમાં આ વિડિઓનો ઉપયોગ કરવા માટે મફત લાગે!\n\n"
    },
    {
      "Lang": "ha",
      "Title": "Zama ilimin lissafi maigidana! 💯 2nd sa Ilimin lissafi #30 Subtraction",
      "Description": "Ga malamai da makarantu:\nWannan bidiyon an buga shi a ƙarƙashin lasisin Creative Commons.\n  CC BY 3.0 https://creativecommons.org/licenses/by/3.0/ \nJin kyauta don amfani da wannan bidiyon a cikin azuzuwanku!\n\n"
    },
    {
      "Lang": "hi",
      "Title": "एक गणित मास्टर बनें! 💯 दूसरा दर्जा गणित #30 घटाव",
      "Description": "शिक्षकों और स्कूलों के लिए:\nयह वीडियो क्रिएटिव कॉमन्स लाइसेंस के तहत प्रकाशित हुआ है।\n  CC BY 3.0 https://creativecommons.org/licenses/by/3.0/ \nअपनी कक्षाओं में इस वीडियो का उपयोग करने के लिए स्वतंत्र महसूस करें!\n\n"
    },
    {
      "Lang": "hr",
      "Title": "Postanite matematike majstor! 💯 2. razred Matematika #30 Oduzimanje",
      "Description": "Nastavnicima i školama:\nOvaj videozapis objavljen je pod licencom Creative Commons.\n  CC BY 3.0 https://creativecommons.org/licenses/by/3.0/ \nSlobodno upotrijebite ovaj videozapis u svojim predavanjima!\n\n"
    },
    {
      "Lang": "hu",
      "Title": "Legyen egy matematikai mester! 💯 2. Osztálya Matematikai #30 Kivonás",
      "Description": "Tanároknak és iskoláknak:\nEz a videó a Creative Commons License alatt jelenik meg.\n  CC BY 3.0 https://creativecommons.org/licenses/by/3.0/ \nNyugodtan használja ezt a videót az osztályokban!\n\n"
    },
    {
      "Lang": "hy",
      "Title": "Դարձեք մաթեմատիկական վարպետ! 💯 2-րդ դասարան Մաթեմատիկա #30 Հանում",
      "Description": "Ուսուցիչներին և դպրոցներին.\nԱյս տեսանյութը հրապարակված է Creative Commons արտոնագրի ներքո:\n  CC BY 3.0 https://creativecommons.org/licenses/by/3.0/ \nԱզատորեն օգտվեք այս տեսանյութից ձեր դասերից:\n\n"
    },
    {
      "Lang": "id",
      "Title": "Menjadi master matematika! 💯 Kelas 2 Matematika #30 Pengurangan",
      "Description": "Kepada guru dan sekolah:\nVideo ini diterbitkan di bawah Lisensi Creative Commons.\n  CC BY 3.0 https://creativecommons.org/licenses/by/3.0/ \nJangan ragu untuk menggunakan video ini di kelas Anda!\n\n"
    },
    {
      "Lang": "ig",
      "Title": "Bụrụnụ ndị na-a mgbakọ na mwepụ ukwu! 💯 2nd ọkwa Ná mgbakọ na mwepụ #30 Mwepu",
      "Description": "Maka ndị nkuzi na ụlọ akwụkwọ:\nEdere vidiyo a n'okpuru ikikere Creative Commons.\n  CC BY 3.0 https://creativecommons.org/licenses/by/3.0/ \nNwere onwe gị iji vidiyo a na klaasị gị!\n\n"
    },
    {
      "Lang": "is",
      "Title": "Gerast stærðfræði snillingur! 💯 2. bekkjar Stærðfræði #30 Frádráttur",
      "Description": "Til kennara og skóla:\nÞetta myndband er birt undir Creative Commons leyfi.\n  CC BY 3.0 https://creativecommons.org/licenses/by/3.0/ \nEkki hika við að nota þetta myndband í bekkjum þínum!\n\n"
    },
    {
      "Lang": "it",
      "Title": "Diventa un maestro di matematica! 💯 2° grado Matematica #30 Sottrazione",
      "Description": "Per insegnanti e scuole:\nQuesto video è pubblicato sotto la licenza Creative Commons.\n  CC BY 3.0 https://creativecommons.org/licenses/by/3.0/ \nSentiti libero di usare questo video nelle tue lezioni!\n\n"
    },
    {
      "Lang": "iw",
      "Title": "להיות הורים מתמטיקה! 💯 כיתה ב מתמטיקה #30 חיסור",
      "Description": "למורים ובתי ספר:\nסרטון זה מתפרסם תחת רישיון Creative Commons.\n  CC BY 3.0 https://creativecommons.org/licenses/by/3.0/ \nאל תהסס להשתמש בסרטון זה בשיעורים שלך!\n\n"
    },
    {
      "Lang": "ja",
      "Title": "さんすうマスターになろう！ 💯 小2 数学 #30 ひきざん",
      "Description": "先生と学校へ：\nこのビデオは、クリエイティブコモンズライセンスの下で公開されています。\n  CC BY 3.0 https://creativecommons.org/licenses/by/3.0/ \nこのビデオをクラスで自由に使用してください！\n\n"
    },
    {
      "Lang": "jv",
      "Title": "Dadi master math! 💯 2 bahan Math #30 Ping",
      "Description": "Tumrap guru lan sekolah:\nVideo iki diterbitake ing lisensi Creative Commons.\n  CC BY 3.0 https://creativecommons.org/licenses/by/3.0/ \nOjo nggunakake video iki ing kelas sampeyan!\n\n"
    },
    {
      "Lang": "ka",
      "Title": "გახდი მათემატიკის სამაგისტრო! 💯 მე -2 კლასის მათემატიკა #30 გამოკლება",
      "Description": "მასწავლებლებსა და სკოლებს:\nეს ვიდეო გამოქვეყნებულია Creative Commons- ის ლიცენზიით.\n  CC BY 3.0 https://creativecommons.org/licenses/by/3.0/ \nშეგიძლიათ გამოიყენოთ ეს ვიდეო თქვენს კლასებში!\n\n"
    },
    {
      "Lang": "kk",
      "Title": "математика шебері бол! 💯 2-ші сынып Математика #30 Азайту",
      "Description": "Оқытушылар мен мектептерге:\nБұл бейне Creative Commons лицензиясы бойынша жарияланған.\n  CC BY 3.0 https://creativecommons.org/licenses/by/3.0/ \nБұл бейнені өз сабақтарыңызда қолдануға болады!\n\n"
    },
    {
      "Lang": "km",
      "Title": "ក្លាយជាមេគណិតវិទ្យាមួយ! 💯 ថ្នាក់ទី 2 គណិតវិទ្យា #30 ប្រមាណវិធីដក",
      "Description": "ជូនដល់គ្រូនិងសាលា៖\nវីដេអូនេះត្រូវបានផ្សព្វផ្សាយក្រោមអាជ្ញាប័ណ្ណច្នៃប្រឌិត។\n  CC BY 3.0 https://creativecommons.org/licenses/by/3.0/ \nសូមប្រើវីដេអូនេះនៅក្នុងថ្នាក់របស់អ្នកដោយឥតគិតថ្លៃ!\n\n"
    },
    {
      "Lang": "kn",
      "Title": "ಒಂದು ಗಣಿತ ಮಾಸ್ಟರ್ ಆಗಿ! 💯 2 ನೇ ದರ್ಜೆಯ ಗಣಿತ #30 ವ್ಯವಕಲನ",
      "Description": "ಶಿಕ್ಷಕರು ಮತ್ತು ಶಾಲೆಗಳಿಗೆ:\nಈ ವೀಡಿಯೊವನ್ನು ಕ್ರಿಯೇಟಿವ್ ಕಾಮನ್ಸ್ ಪರವಾನಗಿ ಅಡಿಯಲ್ಲಿ ಪ್ರಕಟಿಸಲಾಗಿದೆ.\n  CC BY 3.0 https://creativecommons.org/licenses/by/3.0/ \nನಿಮ್ಮ ತರಗತಿಗಳಲ್ಲಿ ಈ ವೀಡಿಯೊವನ್ನು ಬಳಸಲು ಹಿಂಜರಿಯಬೇಡಿ!\n\n"
    },
    {
      "Lang": "ko",
      "Title": "수학 마스터가 되세요! 💯 2 등급 수학 #30 뺄셈",
      "Description": "교사와 학교 :\n이 비디오는 Creative Commons License에 따라 게시됩니다.\n  CC BY 3.0 https://creativecommons.org/licenses/by/3.0/ \n이 비디오를 수업에 자유롭게 사용하십시오!\n\n"
    },
    {
      "Lang": "ku",
      "Title": "Bibe master math! 💯 2nd grade Math #30 Jexistinî",
      "Description": "Ji mamoste û dibistanan re:\nEv vîdyoyê di bin lîsansa Creative Commons-ê de hatî weşandin.\n  CC BY 3.0 https://creativecommons.org/licenses/by/3.0/ \nHêsan e ku hûn vê vîdyoyê di sinifên xwe de bikar bînin!\n\n"
    },
    {
      "Lang": "ky",
      "Title": "математика мырзасы бол! 💯 2-класс Математика #30 Кемитүү",
      "Description": "мугалимдер жана мектептер үчүн:\nБул көргөзмө Creative Commons лиссиэнсийэ усулуобуйатынан жарыяланат.\n  CC BY 3.0 https://creativecommons.org/licenses/by/3.0/ \nСиздин класстары колдонсо болот!\n\n"
    },
    {
      "Lang": "lb",
      "Title": "Ginn eng temporäre Meeschtesch! 💯 2. Schouljoer Temporäre #30 Subtraction",
      "Description": "Un de Schoulmeeschteren an d'Schoulen:\nDëse Video ass ënner der Creative Commons Lizenz verëffentlecht.\n  CC BY 3.0 https://creativecommons.org/licenses/by/3.0/ \nFillt gratis dësen Video zu Ären Klassen ze benotzen!\n\n"
    },
    {
      "Lang": "lo",
      "Title": "ກາຍເປັນແມ່ບົດຄະນິດສາດ! 💯 ຊັ້ນຮຽນທີ 2 ຄະນິດສາດ #30 ການຫັກລົບ",
      "Description": "ເຖິງຄູອາຈານແລະໂຮງຮຽນ:\nວິດີໂອນີ້ລົງພາຍໃຕ້ໃບອະນຸຍາດສ້າງສັນ.\n  CC BY 3.0 https://creativecommons.org/licenses/by/3.0/ \nຮູ້ສຶກວ່າບໍ່ເສຍຄ່າທີ່ຈະໃຊ້ວິດີໂອນີ້ໃນຫ້ອງຮຽນຂອງທ່ານ!\n\n"
    },
    {
      "Lang": "lt",
      "Title": "Tapkite matematikos meistras! 💯 2 Klasė Matematikos #30 Atimtis",
      "Description": "Mokytojams ir mokykloms:\nŠis vaizdo įrašas paskelbtas naudojant „Creative Commons“ licenciją.\n  CC BY 3.0 https://creativecommons.org/licenses/by/3.0/ \nNesivaržykite naudotis šiuo vaizdo įrašu savo klasėse!\n\n"
    },
    {
      "Lang": "lv",
      "Title": "Kļūsti par math meistars! 💯 2. Klase Matemātika #30 Atņemšana",
      "Description": "Skolotājiem un skolām:\nŠis video ir publicēts saskaņā ar Creative Commons licenci.\n  CC BY 3.0 https://creativecommons.org/licenses/by/3.0/ \nJūtieties brīvi izmantot šo video savās nodarbībās!\n\n"
    },
    {
      "Lang": "mg",
      "Title": "Lasa mpampianatra matematika! 💯 2 kilasy Matematika #30 Subtraction",
      "Description": "Ho an'ireo mpampianatra sy sekoly:\nIty horonantsary ity dia navoaka eo ambanin'ny lisansa Creative Commons.\n  CC BY 3.0 https://creativecommons.org/licenses/by/3.0/ \nAza misalasala mampiasa an'io horonantsary io amin'ny kilasinao!\n\n"
    },
    {
      "Lang": "mi",
      "Title": "Hoko he ariki pāngarau! 💯 2 kōeke Pāngarau #30 Tangohanga",
      "Description": "Ki nga kaiako me nga kura:\nKei te whakaputaina tenei ataata i raro i te Raihana Hoahoatanga.\n  CC BY 3.0 https://creativecommons.org/licenses/by/3.0/ \nKia kore e pai ki te whakamahi i tenei ataata i roto i o akomanga!\n\n"
    },
    {
      "Lang": "mk",
      "Title": "Да стане господар математика! 💯 2 одделение Математика #30 Одземање",
      "Description": "До наставниците и училиштата:\nОва видео е објавено под лиценца Криејтив комонс.\n  CC BY 3.0 https://creativecommons.org/licenses/by/3.0/ \nСлободно можете да го користите ова видео во вашите часови!\n\n"
    },
    {
      "Lang": "ml",
      "Title": "ഒരു ഗണിത മാസ്റ്റർ ആകുക! 💯 2nd ഗ്രേഡ് മാത്ത് #30 വ്യവകലനം",
      "Description": "അധ്യാപകർക്കും സ്കൂളുകൾക്കും:\nക്രിയേറ്റീവ് കോമൺസ് ലൈസൻസിന് കീഴിൽ ഈ വീഡിയോ പ്രസിദ്ധീകരിച്ചു.\n  CC BY 3.0 https://creativecommons.org/licenses/by/3.0/ \nനിങ്ങളുടെ ക്ലാസുകളിൽ ഈ വീഡിയോ ഉപയോഗിക്കാൻ മടിക്കേണ്ടതില്ല!\n\n"
    },
    {
      "Lang": "mn",
      "Title": "математикийн мастер болох! 💯 2-р зэрэг Математикийн #30 Хасах",
      "Description": "Багш, сургуулиудад:\nЭнэ видео нь Creative Commons License лиценз дээр нийтлэгдсэн.\n  CC BY 3.0 https://creativecommons.org/licenses/by/3.0/ \nЭнэ видеог өөрийн ангиудад ашиглах боломжтой шүү!\n\n"
    },
    {
      "Lang": "mr",
      "Title": "एक गणित मास्टर व्हा! 💯 2 ग्रेड गणित #30 वजाबाकी",
      "Description": "शिक्षक आणि शाळा यांना:\nहा व्हिडिओ क्रिएटिव्ह कॉमन्स परवान्या अंतर्गत प्रकाशित झाला आहे.\n  CC BY 3.0 https://creativecommons.org/licenses/by/3.0/ \nआपल्या वर्गांमध्ये हा व्हिडिओ वापरण्यास मोकळ्या मनाने!\n\n"
    },
    {
      "Lang": "ms",
      "Title": "Menjadi tuan matematik! 💯 Gred 2 Matematik #30 Penolakan",
      "Description": "Kepada guru dan sekolah:\nVideo ini diterbitkan di bawah Lesen Creative Commons.\n  CC BY 3.0 https://creativecommons.org/licenses/by/3.0/ \nJangan ragu untuk menggunakan video ini dalam kelas anda!\n\n"
    },
    {
      "Lang": "mt",
      "Title": "Ssir kaptan matematika! 💯 2 grad Matematika #30 Tnaqqis",
      "Description": "Għalliema u skejjel:\nDan il-video huwa ppublikat taħt il-Liċenzja Creative Commons.\n  CC BY 3.0 https://creativecommons.org/licenses/by/3.0/ \nĦossok liberu li tuża dan il-video fil-klassijiet tiegħek!\n\n"
    },
    {
      "Lang": "my",
      "Title": "တစ်သင်္ချာမာစတာဖြစ်လာ! 💯 2nd တန်း သင်္ချာ #30 အနုတ်",
      "Description": "ဆရာများနှင့်ကျောင်းများသို့\nဒီဗီဒီယိုကို Creative Commons လိုင်စင်အောက်မှာထုတ်ဝေထားတယ်။\n  CC BY 3.0 https://creativecommons.org/licenses/by/3.0/ \nဤဗီဒီယိုကိုသင်၏အတန်းများ၌အခမဲ့အသုံးပြုပါ။\n\n"
    },
    {
      "Lang": "ne",
      "Title": "एक गणित मास्टर बन्न! 💯 2nd ग्रेड गणित #30 घटाउ",
      "Description": "शिक्षक र विद्यालयहरुलाई:\nयो भिडियो क्रिएटिभ कमन्स लाइसेन्स अन्तर्गत प्रकाशित गरिएको छ।\n  CC BY 3.0 https://creativecommons.org/licenses/by/3.0/ \nतपाईंको कक्षामा यो भिडियो प्रयोग गर्न स्वतन्त्र महसुस गर्नुहोस्!\n\n"
    },
    {
      "Lang": "nl",
      "Title": "Word math meester! 💯 2e Leerjaar Wiskunde #30 Aftrekking",
      "Description": "Aan leraren en scholen:\nDeze video is gepubliceerd onder Creative Commons License.\n  CC BY 3.0 https://creativecommons.org/licenses/by/3.0/ \nVoel je vrij om deze video in je lessen te gebruiken!\n\n"
    },
    {
      "Lang": "no",
      "Title": "Bli en matte mester! 💯 2. Klasse Matte #30 Subtraksjon",
      "Description": "Til lærere og skoler:\nDenne videoen er publisert under Creative Commons License.\n  CC BY 3.0 https://creativecommons.org/licenses/by/3.0/ \nBruk gjerne denne videoen i klassene dine!\n\n"
    },
    {
      "Lang": "pa",
      "Title": "ਨੂੰ ਇੱਕ ਗਣਿਤ ਮਾਸਟਰ ਬਣੋ! 💯 2 ਗ੍ਰੇਡ ਗਣਿਤ #30 ਘਟਾਓ",
      "Description": "ਅਧਿਆਪਕਾਂ ਅਤੇ ਸਕੂਲਾਂ ਨੂੰ:\nਇਹ ਵੀਡੀਓ ਕਰੀਏਟਿਵ ਕਾਮਨਜ਼ ਲਾਇਸੈਂਸ ਅਧੀਨ ਪ੍ਰਕਾਸ਼ਤ ਕੀਤਾ ਗਿਆ ਹੈ.\n  CC BY 3.0 https://creativecommons.org/licenses/by/3.0/ \nਇਸ ਕਲਾਸ ਨੂੰ ਆਪਣੀਆਂ ਕਲਾਸਾਂ ਵਿਚ ਵਰਤਣ ਲਈ ਮੁਫ਼ਤ ਮਹਿਸੂਸ ਕਰੋ!\n\n"
    },
    {
      "Lang": "pl",
      "Title": "Zostań mistrzem matematyki! 💯 Klasa 2 Matematyka #30 Odejmowanie",
      "Description": "Do nauczycieli i szkół:\nTen film jest opublikowany na licencji Creative Commons.\n  CC BY 3.0 https://creativecommons.org/licenses/by/3.0/ \nZachęcamy do korzystania z tego filmu na zajęciach!\n\n"
    },
    {
      "Lang": "ps",
      "Title": "شي یو ریاضی بادار! 💯 2nd ټولګي ریاضی #30 تفريق",
      "Description": "ښوونکو او ښوونځیو ته:\nدا ویډیو د کریټیو کامنز لایسنس لاندې خپره شوې ده.\n  CC BY 3.0 https://creativecommons.org/licenses/by/3.0/ \nپه خپلو ټولګیو کې د دې ویډیو کارولو لپاره وړیا احساس وکړئ!\n\n"
    },
    {
      "Lang": "pt",
      "Title": "Torne-se um mestre de matemática! 💯 2ª Série Matemática #30 Subtração",
      "Description": "Para professores e escolas:\nEste vídeo é publicado sob licença Creative Commons.\n  CC BY 3.0 https://creativecommons.org/licenses/by/3.0/ \nSinta-se livre para usar este vídeo em suas aulas!\n\n"
    },
    {
      "Lang": "ro",
      "Title": "Deveni un maestru de matematică! 💯 Clasa a II-a Matematica #30 Scădere",
      "Description": "Pentru profesori și școli:\nAcest videoclip este publicat sub licență Creative Commons.\n  CC BY 3.0 https://creativecommons.org/licenses/by/3.0/ \nSimte-te liber să folosești acest videoclip în orele tale!\n\n"
    },
    {
      "Lang": "ru",
      "Title": "Стать математиком мастер! 💯 2-й класс Математический #30 Вычитание",
      "Description": "Учителям и школам:\nЭто видео опубликовано под лицензией Creative Commons.\n  CC BY 3.0 https://creativecommons.org/licenses/by/3.0/ \nНе стесняйтесь использовать это видео в своих классах!\n\n"
    },
    {
      "Lang": "sd",
      "Title": "هڪ رياضي رکن ٿا بڻجي! 💯 2nd گريڊ رياضي #30 Subtraction",
      "Description": "استاد ۽ اسڪولن ڏانهن:\nهيء وڊيو تخليقي العام لائسنس هيٺ شايع ٿيل آهي.\n  CC BY 3.0 https://creativecommons.org/licenses/by/3.0/ \nپنهنجي وڊيوز ۾ هن وڊيو کي استعمال ڪرڻ لاء آزاد ٿيو!\n\n"
    },
    {
      "Lang": "si",
      "Title": "එය ගණිත ස්වාමියා බවට පත් වෙනවා! 💯 2 වන ශ්රේණියේ ගණිත #30 අඩු කිරීම",
      "Description": "ගුරුවරුන්ට සහ පාසල්වලට:\nමෙම වීඩියෝව නිර්මාණාත්මක පොදු බලපත්‍රය යටතේ ප්‍රකාශයට පත් කෙරේ.\n  CC BY 3.0 https://creativecommons.org/licenses/by/3.0/ \nඔබේ පංතිවල මෙම වීඩියෝව භාවිතා කිරීමට නිදහස් වන්න!\n\n"
    },
    {
      "Lang": "sk",
      "Title": "Staňte sa matematický pán! 💯 2. Ročník Matematika #30 Odčítanie",
      "Description": "Pre učiteľov a školy:\nToto video je publikované pod licenciou Creative Commons License.\n  CC BY 3.0 https://creativecommons.org/licenses/by/3.0/ \nNeváhajte použiť toto video vo svojich triedach!\n\n"
    },
    {
      "Lang": "sl",
      "Title": "Postanite math mojster! 💯 2. razred Math #30 Odštevanje",
      "Description": "Učiteljem in šolam:\nTa videoposnetek je objavljen pod licenco Creative Commons.\n  CC BY 3.0 https://creativecommons.org/licenses/by/3.0/ \nUporabite ta video v svojih razredih!\n\n"
    },
    {
      "Lang": "sm",
      "Title": "Avea ma se matai o le numera! 💯 vasega 2 Le numera #30 Tōʻese",
      "Description": "I faiaoga ma aʻoga:\nO lenei vitio ua lomia i lalo o le Creative Commons License.\n  CC BY 3.0 https://creativecommons.org/licenses/by/3.0/ \nLagona le saoloto e faʻaaoga lenei vitio i au vasega!\n\n"
    },
    {
      "Lang": "sn",
      "Title": "Iva tenzi yemasvomhu! 💯 2nd giredha Masvomhu #30 Kubvisa",
      "Description": "Kune vadzidzisi uye zvikoro:\nVhidhiyo iyi inoburitswa pasi peCreative Commons License.\n  CC BY 3.0 https://creativecommons.org/licenses/by/3.0/ \nInzwa wakasununguka kushandisa iyi vhidhiyo mumakirasi ako!\n\n"
    },
    {
      "Lang": "so",
      "Title": "Noqo sayidkiisa xisaab ah! 💯 fasalka 2aad Xisaabta #30 Kalagoyn",
      "Description": "Ku socota macallimiinta iyo iskuulada:\nMuuqaalkan fiidiyaha ah waxaa lagu daabacay hoosta hal-abuurnimada Hal-abuurka.\n  CC BY 3.0 https://creativecommons.org/licenses/by/3.0/ \nXor baad u leedahay inaad fiidiyaha u isticmaasho fasalladaaga!\n\n"
    },
    {
      "Lang": "sq",
      "Title": "Bëhuni një mjeshtër math! 💯 Klasa e Dytë Math #30 Zbritje",
      "Description": "Për mësuesit dhe shkollat:\nKjo video është botuar nën licencën Creative Commons.\n  CC BY 3.0 https://creativecommons.org/licenses/by/3.0/ \nMos ngurroni të përdorni këtë video në klasat tuaja!\n\n"
    },
    {
      "Lang": "sr",
      "Title": "Постаните математика мајстор! 💯 2. разред Математика #30 Одузимање",
      "Description": "Наставницима и школама:\nОвај видео је објављен под Цреативе Цоммонс лиценцом.\n  CC BY 3.0 https://creativecommons.org/licenses/by/3.0/ \nСлободно користите овај видеозапис у својим предавањима!\n\n"
    },
    {
      "Lang": "st",
      "Title": "Ba lipalo monghali! 💯 2nd sehlopheng Lipalo #30 Tlosa ka",
      "Description": "Ho matichere le likolo:\nVideo ena e phatlalalitsoe tlas'a Creative Commons License.\n  CC BY 3.0 https://creativecommons.org/licenses/by/3.0/ \nIkutloe u lokolohile ho sebelisa video ena litlelaseng tsa hau!\n\n"
    },
    {
      "Lang": "su",
      "Title": "Jadi master math! 💯 2nd kelas Math #30 Pangurangan",
      "Description": "Pikeun guru sareng sakola:\nPidéo ieu dikaluarkeun dina Lisensi Lisénsi Creative Commons.\n  CC BY 3.0 https://creativecommons.org/licenses/by/3.0/ \nTong ngosongkeun pidéo ieu di kelas!\n\n"
    },
    {
      "Lang": "sv",
      "Title": "Bli ett matematiskt mästare! 💯 2:e grade Matematik #30 Subtraktion",
      "Description": "Till lärare och skolor:\nDenna video publiceras under Creative Commons License.\n  CC BY 3.0 https://creativecommons.org/licenses/by/3.0/ \nAnvänd gärna den här videon i dina klasser!\n\n"
    },
    {
      "Lang": "sw",
      "Title": "Kuwa hesabu bwana! 💯 Darasa la 2 Hisabati #30 Kutoa",
      "Description": "Kwa waalimu na shule:\nVideo hii imechapishwa chini ya Leseni ya Creative Commons.\n  CC BY 3.0 https://creativecommons.org/licenses/by/3.0/ \nJisikie huru kutumia video hii kwenye darasa lako!\n\n"
    },
    {
      "Lang": "ta",
      "Title": "ஒரு கணித மாஸ்டர் ஆக! 💯 2 வது தர கணித #30 கழித்தலுக்கான",
      "Description": "ஆசிரியர்கள் மற்றும் பள்ளிகளுக்கு:\nஇந்த வீடியோ கிரியேட்டிவ் காமன்ஸ் உரிமத்தின் கீழ் வெளியிடப்பட்டுள்ளது.\n  CC BY 3.0 https://creativecommons.org/licenses/by/3.0/ \nஉங்கள் வகுப்புகளில் இந்த வீடியோவைப் பயன்படுத்த தயங்காதீர்கள்!\n\n"
    },
    {
      "Lang": "te",
      "Title": "ఒక గణిత మాస్టర్ అవ్వండి! 💯 2 వ గ్రేడ్ గణిత #30 వ్యవకలనం",
      "Description": "ఉపాధ్యాయులకు మరియు పాఠశాలలకు:\nఈ వీడియో క్రియేటివ్ కామన్స్ లైసెన్స్ క్రింద ప్రచురించబడింది.\n  CC BY 3.0 https://creativecommons.org/licenses/by/3.0/ \nమీ తరగతుల్లో ఈ వీడియోను ఉపయోగించడానికి సంకోచించకండి!\n\n"
    },
    {
      "Lang": "tg",
      "Title": "Табдил як устоди фанни математика! 💯 синфи 2-юм Математика #30 Ҳисобкунӣ",
      "Description": "Ба муаллимон ва мактабҳо:\nИн видео зери иҷозатномаи Creative Commons нашр шудааст.\n  CC BY 3.0 https://creativecommons.org/licenses/by/3.0/ \nИн видеоро дар дарсҳои худ истифода баред!\n\n"
    },
    {
      "Lang": "th",
      "Title": "กลายเป็นหลักคณิตศาสตร์! 💯 ชั้นประถมศึกษาปีที่ 2 คณิตศาสตร์ #30 การลบ",
      "Description": "ถึงครูและโรงเรียน:\nวิดีโอนี้เผยแพร่ภายใต้สัญญาอนุญาตครีเอทีฟคอมมอนส์\n  CC BY 3.0 https://creativecommons.org/licenses/by/3.0/ \nอย่าลังเลที่จะใช้วิดีโอนี้ในชั้นเรียนของคุณ!\n\n"
    },
    {
      "Lang": "tr",
      "Title": "Bir matematik ustası ol! 💯 2. sınıf Matematik #30 Çıkarma",
      "Description": "Öğretmenlere ve okullara:\nBu video Creative Commons License. Altında yayınlandı.\n  CC BY 3.0 https://creativecommons.org/licenses/by/3.0/ \nBu videoyu derslerinizde kullanmaktan çekinmeyin!\n\n"
    },
    {
      "Lang": "uk",
      "Title": "Стати математиком майстер! 💯 2-й клас Математичний #30 Віднімання",
      "Description": "Для вчителів та шкіл:\nЦе відео опубліковане під ліцензією Creative Commons.\n  CC BY 3.0 https://creativecommons.org/licenses/by/3.0/ \nСміливо використовуйте це відео у своїх класах!\n\n"
    },
    {
      "Lang": "ur",
      "Title": "ایک ریاضی ماسٹر بن! 💯 2nd گریڈ ریاضی #30 تفریق",
      "Description": "اساتذہ اور اسکولوں کے لئے:\nیہ ویڈیو تخلیقی العام لائسنس کے تحت شائع ہوا ہے۔\n  CC BY 3.0 https://creativecommons.org/licenses/by/3.0/ \nاپنی ویڈیو کو اپنی کلاسوں میں آزادانہ طور پر استعمال کریں!\n\n"
    },
    {
      "Lang": "uz",
      "Title": "matematika master bo'l! 💯 2-sinf Matematik #30 Ayiruv",
      "Description": "O'qituvchilar va maktablarga:\nUshbu video Creative Commons litsenziyasi ostida joylashtirilgan.\n  CC BY 3.0 https://creativecommons.org/licenses/by/3.0/ \nUshbu videoni o'z sinflaringizda ishlatish bepul!\n\n"
    },
    {
      "Lang": "vi",
      "Title": "Trở thành chuyên gia toán học! 💯 2 lớp Môn Toán #30 Phép trừ",
      "Description": "Gửi giáo viên và nhà trường:\nVideo này được xuất bản theo Giấy phép Creative Commons.\n  CC BY 3.0 https://creativecommons.org/licenses/by/3.0/ \nHãy sử dụng video này trong các lớp học của bạn!\n\n"
    },
    {
      "Lang": "xh",
      "Title": "Yiba yinkosi izibalo! 💯 grade 2 Izibalo #30 Ukukhupha",
      "Description": "Kootitshala nakwizikolo:\nLe vidiyo ipapashwa phantsi kwelayisensi yeCreative Commons.\n  CC BY 3.0 https://creativecommons.org/licenses/by/3.0/ \nZive ukhululekile ukusebenzisa le vidiyo kwiiklasi zakho!\n\n"
    },
    {
      "Lang": "yi",
      "Title": "ווערן אַ מאַט בעל! 💯 2 מיינונג מאַט #30 כיסער",
      "Description": "צו לערערס און שולן:\nדער ווידעא איז ארויס אונטער Creative Commons License.\n  CC BY 3.0 https://creativecommons.org/licenses/by/3.0/ \nפילן פריי צו נוצן דעם ווידעא אין דיין קלאסן!\n\n"
    },
    {
      "Lang": "yo",
      "Title": "Di a eko isiro titunto si! 💯 2nd ite Isiro #30 Iyokuro",
      "Description": "Si awọn olukọ ati awọn ile-iwe:\nFidio yii ni a tẹjade labẹ Iwe-aṣẹ Creative Commons.\n  CC BY 3.0 https://creativecommons.org/licenses/by/3.0/ \nLero lati lo fidio yii ninu awọn kilasi rẹ!\n\n"
    },
    {
      "Lang": "zh-Hans",
      "Title": "成为数学大师！ 💯 二年级 数学 #30 减法",
      "Description": "致老师和学校：\n该视频是根据知识共享许可发布的。\n  CC BY 3.0 https://creativecommons.org/licenses/by/3.0/ \n随时在您的课程中使用此视频！\n\n"
    },
    {
      "Lang": "zh-Hant",
      "Title": "成為數學大師！ 💯 二年級 數學 #30 減法",
      "Description": "致老師和學校：\n該視頻是根據知識共享許可發布的。\n  CC BY 3.0 https://creativecommons.org/licenses/by/3.0/ \n隨時在您的課程中使用此視頻！\n\n"
    },
    {
      "Lang": "zu",
      "Title": "Iba master izibalo! 💯 ibanga lesibili Izibalo #30 Ukukhupha",
      "Description": "Kothisha nasezikoleni:\nLe vidiyo ishicilelwe ngaphansi kwelayisensi yeCreative Commons.\n  CC BY 3.0 https://creativecommons.org/licenses/by/3.0/ \nZizwe ukhululekile ukusebenzisa le vidiyo emakilasini akho!\n\n"
    }
  ]
}