{
  "Name": "grammar-zh-hsk1",
  "ID": "PLfI6UBkxvOTmyPzPBehsZXSNu09nrbgcj",
  "DefaultLang": "am",
  "Title": "ቻይንኛ ተናገር! የሰዋሰው መልመጃዎች 1",
  "Description": "የቻይና ሰዋሰው ይወቁ! በአረፍተ ነገር ውስጥ አንድ ቃል ይለውጡ!",
  "Localizations": null,
  "PlaylistTags": "የቻይና ሰዋሰው",
  "Updated": true,
  "PlaylistItems": [
    {
      "ID": "UExmSTZVQmt4dk9UbXlQelBCZWhzWlhTTnUwOW5yYmdjai41NkI0NEY2RDEwNTU3Q0M2",
      "VideoID": "OUe4orFzA0E",
      "VideoFile": "grammar-zh-hsk1_1_A.mp4"
    },
    {
      "ID": "UExmSTZVQmt4dk9UbXlQelBCZWhzWlhTTnUwOW5yYmdjai4yODlGNEE0NkRGMEEzMEQy",
      "VideoID": "NFVextpEMTA",
      "VideoFile": "grammar-zh-hsk1_2_A.mp4"
    }
  ]
}