{
  "Name": "grammar-zh-hsk1",
  "ID": "PLfI6UBkxvOTlfkPyepAqaDs2YS76iJNt3",
  "DefaultLang": "ta",
  "Title": "சீன பேச! இலக்கண பயிற்சிகள் 1",
  "Description": "சீன இலக்கணம் அறிக! ஒரு வாக்கியத்தில் ஒரு வார்த்தையை மாற்றவும்!",
  "Localizations": null,
  "PlaylistTags": "சீன இலக்கணம்",
  "Updated": true,
  "PlaylistItems": [
    {
      "ID": "UExmSTZVQmt4dk9UbGZrUHllcEFxYURzMllTNzZpSk50My41NkI0NEY2RDEwNTU3Q0M2",
      "VideoID": "OUe4orFzA0E",
      "VideoFile": "grammar-zh-hsk1_1_A.mp4"
    },
    {
      "ID": "UExmSTZVQmt4dk9UbGZrUHllcEFxYURzMllTNzZpSk50My4yODlGNEE0NkRGMEEzMEQy",
      "VideoID": "NFVextpEMTA",
      "VideoFile": "grammar-zh-hsk1_2_A.mp4"
    }
  ]
}