{
  "Name": "grammar-zh-hsk1",
  "ID": "PLfI6UBkxvOTl8T7GtY4UaSlrh1Wy4xJtv",
  "DefaultLang": "hr",
  "Title": "Govori kineski! Gramatičke vježbe 1",
  "Description": "Saznajte kineski gramatiku! Promijenite riječ u rečenici!",
  "Localizations": null,
  "PlaylistTags": "Kineski gramatika",
  "Updated": true,
  "PlaylistItems": [
    {
      "ID": "UExmSTZVQmt4dk9UbDhUN0d0WTRVYVNscmgxV3k0eEp0di41NkI0NEY2RDEwNTU3Q0M2",
      "VideoID": "OUe4orFzA0E",
      "VideoFile": "grammar-zh-hsk1_1_A.mp4"
    },
    {
      "ID": "UExmSTZVQmt4dk9UbDhUN0d0WTRVYVNscmgxV3k0eEp0di4yODlGNEE0NkRGMEEzMEQy",
      "VideoID": "NFVextpEMTA",
      "VideoFile": "grammar-zh-hsk1_2_A.mp4"
    }
  ]
}