{
  "Name": "grammar-zh-hsk1",
  "ID": "PLfI6UBkxvOTmIlyuBueeGneJ6yujof73K",
  "DefaultLang": "si",
  "Title": "චීන භාෂාව කතා! ව්‍යාකරණ ව්‍යායාම 1",
  "Description": "චීන ව්යාකරණ ඉගෙන ගන්න! වාක්‍යයක වචනයක් වෙනස් කරන්න!",
  "Localizations": null,
  "PlaylistTags": "චීන ව්යාකරණ",
  "Updated": true,
  "PlaylistItems": [
    {
      "ID": "UExmSTZVQmt4dk9UbUlseXVCdWVlR25lSjZ5dWpvZjczSy41NkI0NEY2RDEwNTU3Q0M2",
      "VideoID": "OUe4orFzA0E",
      "VideoFile": "grammar-zh-hsk1_1_A.mp4"
    },
    {
      "ID": "UExmSTZVQmt4dk9UbUlseXVCdWVlR25lSjZ5dWpvZjczSy4yODlGNEE0NkRGMEEzMEQy",
      "VideoID": "NFVextpEMTA",
      "VideoFile": "grammar-zh-hsk1_2_A.mp4"
    }
  ]
}