{
  "Name": "grammar-zh-hsk1",
  "ID": "PLfI6UBkxvOTnhJEXetbWglzDAVy7QG4C9",
  "DefaultLang": "fa",
  "Title": "چینی صحبت کن! تمرین های گرامر 1",
  "Description": "یادگیری گرامر چینی! یک کلمه را در یک جمله تغییر دهید!",
  "Localizations": null,
  "PlaylistTags": "دستور زبان چینی",
  "Updated": true,
  "PlaylistItems": [
    {
      "ID": "UExmSTZVQmt4dk9UbmhKRVhldGJXZ2x6REFWeTdRRzRDOS41NkI0NEY2RDEwNTU3Q0M2",
      "VideoID": "OUe4orFzA0E",
      "VideoFile": "grammar-zh-hsk1_1_A.mp4"
    },
    {
      "ID": "UExmSTZVQmt4dk9UbmhKRVhldGJXZ2x6REFWeTdRRzRDOS4yODlGNEE0NkRGMEEzMEQy",
      "VideoID": "NFVextpEMTA",
      "VideoFile": "grammar-zh-hsk1_2_A.mp4"
    }
  ]
}