{
  "Name": "grammar-zh-hsk1",
  "ID": "PLfI6UBkxvOTm31KFrDOGZVQsWC6qOpcdW",
  "DefaultLang": "zh-Hans",
  "Title": "说中文！ 语法练习 1",
  "Description": "了解中文语法！ 更改句子中的单词！",
  "Localizations": null,
  "PlaylistTags": "汉语语法",
  "Updated": true,
  "PlaylistItems": [
    {
      "ID": "UExmSTZVQmt4dk9UbTMxS0ZyRE9HWlZRc1dDNnFPcGNkVy41NkI0NEY2RDEwNTU3Q0M2",
      "VideoID": "OUe4orFzA0E",
      "VideoFile": "grammar-zh-hsk1_1_A.mp4"
    },
    {
      "ID": "UExmSTZVQmt4dk9UbTMxS0ZyRE9HWlZRc1dDNnFPcGNkVy4yODlGNEE0NkRGMEEzMEQy",
      "VideoID": "NFVextpEMTA",
      "VideoFile": "grammar-zh-hsk1_2_A.mp4"
    }
  ]
}