{
  "Name": "grammar-de-beginner",
  "ID": "PLfI6UBkxvOTnPoI9LsQ7Jfy2mvgnwuVFl",
  "DefaultLang": "nl",
  "Title": "Duitse grammatica-oefeningen ⭐️ Grammatica oefeningen",
  "Description": "Spreek duits!",
  "Localizations": null,
  "PlaylistTags": "Duitse grammatica,Duitse,Grammatica",
  "Updated": true,
  "PlaylistItems": [
    {
      "ID": "UExmSTZVQmt4dk9UblBvSTlMc1E3SmZ5Mm12Z253dVZGbC41NkI0NEY2RDEwNTU3Q0M2",
      "VideoID": "zdAEA69Lhi0",
      "VideoFile": "grammar-de-beginner_1_A.mp4"
    }
  ]
}