{
  "Name": "grammar-de-beginner",
  "ID": "PLfI6UBkxvOTl4JwtLnJLmmqGIJic8ZkPM",
  "DefaultLang": "ar",
  "Title": "تمارين قواعد اللغة الألمانية ⭐️ تمارين القواعد",
  "Description": "يتكلم الألمانية!",
  "Localizations": null,
  "PlaylistTags": "قواعد اللغة الألمانية,ألمانية,قواعد",
  "Updated": true,
  "PlaylistItems": [
    {
      "ID": "UExmSTZVQmt4dk9UbDRKd3RMbkpMbW1xR0lKaWM4WmtQTS41NkI0NEY2RDEwNTU3Q0M2",
      "VideoID": "zdAEA69Lhi0",
      "VideoFile": "grammar-de-beginner_1_A.mp4"
    }
  ]
}