{
  "Name": "grammar-de-beginner",
  "ID": "PLfI6UBkxvOTmfEFxRAKM6Lx7ghk0sl-1_",
  "DefaultLang": "lt",
  "Title": "Vokiečių kalbos gramatikos pratimai ⭐️ Gramatikos pratimai",
  "Description": "Kalbek vokiskai!",
  "Localizations": null,
  "PlaylistTags": "Vokiečių kalbos gramatika,Vokiečių kalba,Gramatika",
  "Updated": true,
  "PlaylistItems": [
    {
      "ID": "UExmSTZVQmt4dk9UbWZFRnhSQUtNNkx4N2doazBzbC0xXy41NkI0NEY2RDEwNTU3Q0M2",
      "VideoID": "zdAEA69Lhi0",
      "VideoFile": "grammar-de-beginner_1_A.mp4"
    }
  ]
}