{
  "Name": "grammar-de-beginner",
  "ID": "PLfI6UBkxvOTkIArxUQfLMzWZ0pI0zeObT",
  "DefaultLang": "uz",
  "Title": "Nemis tilining grammatik mashqlari ⭐️ Grammatik mashqlar",
  "Description": "Nemischa gapiring!",
  "Localizations": null,
  "PlaylistTags": "Nemis tili grammatikasi,Nemis,Grammatika",
  "Updated": true,
  "PlaylistItems": [
    {
      "ID": "UExmSTZVQmt4dk9Ua0lBcnhVUWZMTXpXWjBwSTB6ZU9iVC41NkI0NEY2RDEwNTU3Q0M2",
      "VideoID": "zdAEA69Lhi0",
      "VideoFile": "grammar-de-beginner_1_A.mp4"
    }
  ]
}