{
  "Name": "grammar-de-beginner",
  "ID": "PLfI6UBkxvOTnJbQElGYoSOqbwyBhhX6Px",
  "DefaultLang": "pt",
  "Title": "Exercícios de gramática alemã ⭐️ Exercícios de gramática",
  "Description": "Falar alemão!",
  "Localizations": null,
  "PlaylistTags": "Gramática alemã,alemão,Gramática",
  "Updated": true,
  "PlaylistItems": [
    {
      "ID": "UExmSTZVQmt4dk9UbkpiUUVsR1lvU09xYnd5QmhoWDZQeC41NkI0NEY2RDEwNTU3Q0M2",
      "VideoID": "zdAEA69Lhi0",
      "VideoFile": "grammar-de-beginner_1_A.mp4"
    }
  ]
}