{
  "Name": "math-grade1-1",
  "ID": "PLfI6UBkxvOTmzvGL4dPwPiGpla6QO-dbC",
  "DefaultLang": "fr",
  "Title": "Devenez un maître de mathématiques! 💯 1ère Année Math",
  "Description": "Devenez un maître de mathématiques! 💯 1ère Année Math",
  "Localizations": null,
  "PlaylistTags": "math,1ère Année",
  "Updated": true,
  "PlaylistItems": [
    {
      "ID": "UExmSTZVQmt4dk9UbXp2R0w0ZFB3UGlHcGxhNlFPLWRiQy41NkI0NEY2RDEwNTU3Q0M2",
      "VideoID": "sIQa1zjl5V0",
      "VideoFile": "math-grade1-1_1_A.mp4"
    },
    {
      "ID": "UExmSTZVQmt4dk9UbXp2R0w0ZFB3UGlHcGxhNlFPLWRiQy4yODlGNEE0NkRGMEEzMEQy",
      "VideoID": "uKus9lH4z18",
      "VideoFile": "math-grade1-1_2_A.mp4"
    },
    {
      "ID": "UExmSTZVQmt4dk9UbXp2R0w0ZFB3UGlHcGxhNlFPLWRiQy4wMTcyMDhGQUE4NTIzM0Y5",
      "VideoID": "Dck9nq9n8pw",
      "VideoFile": "math-grade1-1_3_A.mp4"
    },
    {
      "ID": "UExmSTZVQmt4dk9UbXp2R0w0ZFB3UGlHcGxhNlFPLWRiQy41MjE1MkI0OTQ2QzJGNzNG",
      "VideoID": "svvE9kmsdnU",
      "VideoFile": "math-grade1-1_4_A.mp4"
    },
    {
      "ID": "UExmSTZVQmt4dk9UbXp2R0w0ZFB3UGlHcGxhNlFPLWRiQy4wOTA3OTZBNzVEMTUzOTMy",
      "VideoID": "h0qOYA5uN74",
      "VideoFile": "math-grade1-1_5_A.mp4"
    },
    {
      "ID": "UExmSTZVQmt4dk9UbXp2R0w0ZFB3UGlHcGxhNlFPLWRiQy4xMkVGQjNCMUM1N0RFNEUx",
      "VideoID": "OLoI6Ytu5f8",
      "VideoFile": "math-grade1-1_6_A.mp4"
    },
    {
      "ID": "UExmSTZVQmt4dk9UbXp2R0w0ZFB3UGlHcGxhNlFPLWRiQy41MzJCQjBCNDIyRkJDN0VD",
      "VideoID": "PD-hpeSuKZY",
      "VideoFile": "math-grade1-1_7_A.mp4"
    },
    {
      "ID": "UExmSTZVQmt4dk9UbXp2R0w0ZFB3UGlHcGxhNlFPLWRiQy5DQUNERDQ2NkIzRUQxNTY1",
      "VideoID": "Cuu7ch4oV5A",
      "VideoFile": "math-grade1-1_8_A.mp4"
    },
    {
      "ID": "UExmSTZVQmt4dk9UbXp2R0w0ZFB3UGlHcGxhNlFPLWRiQy45NDk1REZENzhEMzU5MDQz",
      "VideoID": "aMz2tHkNLtA",
      "VideoFile": "math-grade1-1_9_A.mp4"
    },
    {
      "ID": "UExmSTZVQmt4dk9UbXp2R0w0ZFB3UGlHcGxhNlFPLWRiQy5GNjNDRDREMDQxOThCMDQ2",
      "VideoID": "xA25A-zYDFE",
      "VideoFile": "math-grade1-1_10_A.mp4"
    },
    {
      "ID": "UExmSTZVQmt4dk9UbXp2R0w0ZFB3UGlHcGxhNlFPLWRiQy40NzZCMERDMjVEN0RFRThB",
      "VideoID": "VTo0nqOEibc",
      "VideoFile": "math-grade1-1_11_A.mp4"
    },
    {
      "ID": "UExmSTZVQmt4dk9UbXp2R0w0ZFB3UGlHcGxhNlFPLWRiQy5EMEEwRUY5M0RDRTU3NDJC",
      "VideoID": "ou0Sw6TZaqY",
      "VideoFile": "math-grade1-1_12_A.mp4"
    },
    {
      "ID": "UExmSTZVQmt4dk9UbXp2R0w0ZFB3UGlHcGxhNlFPLWRiQy45ODRDNTg0QjA4NkFBNkQy",
      "VideoID": "3uZ9ikszpR0",
      "VideoFile": "math-grade1-1_13_A.mp4"
    },
    {
      "ID": "UExmSTZVQmt4dk9UbXp2R0w0ZFB3UGlHcGxhNlFPLWRiQy4zMDg5MkQ5MEVDMEM1NTg2",
      "VideoID": "bjealAhUvp0",
      "VideoFile": "math-grade1-1_14_A.mp4"
    },
    {
      "ID": "UExmSTZVQmt4dk9UbXp2R0w0ZFB3UGlHcGxhNlFPLWRiQy41Mzk2QTAxMTkzNDk4MDhF",
      "VideoID": "hYLOylJkSDc",
      "VideoFile": "math-grade1-1_15_A.mp4"
    },
    {
      "ID": "UExmSTZVQmt4dk9UbXp2R0w0ZFB3UGlHcGxhNlFPLWRiQy5EQUE1NTFDRjcwMDg0NEMz",
      "VideoID": "vFbZ-mI5jko",
      "VideoFile": "math-grade1-1_16_A.mp4"
    },
    {
      "ID": "UExmSTZVQmt4dk9UbXp2R0w0ZFB3UGlHcGxhNlFPLWRiQy41QTY1Q0UxMTVCODczNThE",
      "VideoID": "fJuyfUv3p6g",
      "VideoFile": "math-grade1-1_17_A.mp4"
    },
    {
      "ID": "UExmSTZVQmt4dk9UbXp2R0w0ZFB3UGlHcGxhNlFPLWRiQy4yMUQyQTQzMjRDNzMyQTMy",
      "VideoID": "7TwjPwMFbJk",
      "VideoFile": "math-grade1-1_18_A.mp4"
    },
    {
      "ID": "UExmSTZVQmt4dk9UbXp2R0w0ZFB3UGlHcGxhNlFPLWRiQy45RTgxNDRBMzUwRjQ0MDhC",
      "VideoID": "IhLQlYLhuXo",
      "VideoFile": "math-grade1-1_19_A.mp4"
    },
    {
      "ID": "UExmSTZVQmt4dk9UbXp2R0w0ZFB3UGlHcGxhNlFPLWRiQy5ENDU4Q0M4RDExNzM1Mjcy",
      "VideoID": "rKoKzn-Ea5k",
      "VideoFile": "math-grade1-1_20_A.mp4"
    },
    {
      "ID": "UExmSTZVQmt4dk9UbXp2R0w0ZFB3UGlHcGxhNlFPLWRiQy4yMDhBMkNBNjRDMjQxQTg1",
      "VideoID": "oRNtU3-B9qE",
      "VideoFile": "math-grade1-1_21_A.mp4"
    },
    {
      "ID": "UExmSTZVQmt4dk9UbXp2R0w0ZFB3UGlHcGxhNlFPLWRiQy5GM0Q3M0MzMzY5NTJFNTdE",
      "VideoID": "LBHCMPNxtSQ",
      "VideoFile": "math-grade1-1_22_A.mp4"
    },
    {
      "ID": "UExmSTZVQmt4dk9UbXp2R0w0ZFB3UGlHcGxhNlFPLWRiQy4zRjM0MkVCRTg0MkYyQTM0",
      "VideoID": "_l3y-pbvmAE",
      "VideoFile": "math-grade1-1_23_A.mp4"
    },
    {
      "ID": "UExmSTZVQmt4dk9UbXp2R0w0ZFB3UGlHcGxhNlFPLWRiQy45NzUwQkI1M0UxNThBMkU0",
      "VideoID": "9cyBI2h1C8Y",
      "VideoFile": "math-grade1-1_24_A.mp4"
    },
    {
      "ID": "UExmSTZVQmt4dk9UbXp2R0w0ZFB3UGlHcGxhNlFPLWRiQy5DNzE1RjZEMUZCMjA0RDBB",
      "VideoID": "NkIK54ZwofM",
      "VideoFile": "math-grade1-1_25_A.mp4"
    },
    {
      "ID": "UExmSTZVQmt4dk9UbXp2R0w0ZFB3UGlHcGxhNlFPLWRiQy43MTI1NDIwOTMwQjIxMzNG",
      "VideoID": "ABgajkHAI-g",
      "VideoFile": "math-grade1-1_26_A.mp4"
    },
    {
      "ID": "UExmSTZVQmt4dk9UbXp2R0w0ZFB3UGlHcGxhNlFPLWRiQy5DQ0MyQ0Y4Mzg0M0VGOEYw",
      "VideoID": "VB1hwb_XKYE",
      "VideoFile": "math-grade1-1_27_A.mp4"
    },
    {
      "ID": "UExmSTZVQmt4dk9UbXp2R0w0ZFB3UGlHcGxhNlFPLWRiQy4yQUE2Q0JEMTk4NTM3RTZC",
      "VideoID": "ioLTjfCmFDY",
      "VideoFile": "math-grade1-1_28_A.mp4"
    },
    {
      "ID": "UExmSTZVQmt4dk9UbXp2R0w0ZFB3UGlHcGxhNlFPLWRiQy5DMkU4NTY1QUFGQTYwMDE3",
      "VideoID": "ZT6OaMpToZk",
      "VideoFile": "math-grade1-1_29_A.mp4"
    },
    {
      "ID": "UExmSTZVQmt4dk9UbXp2R0w0ZFB3UGlHcGxhNlFPLWRiQy44Mjc5REFBRUE2MTdFRDU0",
      "VideoID": "8LCsbDVuROs",
      "VideoFile": "math-grade1-1_30_A.mp4"
    },
    {
      "ID": "UExmSTZVQmt4dk9UbXp2R0w0ZFB3UGlHcGxhNlFPLWRiQy43NDhFRTgwOTRERTU4Rjg3",
      "VideoID": "chJWJ5Q84HM",
      "VideoFile": "math-grade1-1_31_A.mp4"
    },
    {
      "ID": "UExmSTZVQmt4dk9UbXp2R0w0ZFB3UGlHcGxhNlFPLWRiQy41QUZGQTY5OTE4QTREQUU4",
      "VideoID": "j6bq8OydE0w",
      "VideoFile": "math-grade1-1_32_A.mp4"
    },
    {
      "ID": "UExmSTZVQmt4dk9UbXp2R0w0ZFB3UGlHcGxhNlFPLWRiQy4zRDBDOEZDOUM0MDY5NEEz",
      "VideoID": "O61uYufCmG0",
      "VideoFile": "math-grade1-1_33_A.mp4"
    }
  ]
}