{
  "Name": "grammar-ja-a",
  "ID": "PLfI6UBkxvOTkgRYJ2agCHFgQ2k1GuDa9T",
  "DefaultLang": "sk",
  "Title": "Japonské gramatické cvičenia",
  "Description": "Naučte sa japonskú gramatiku! Zmeňte slovo vo vete!",
  "Localizations": null,
  "PlaylistTags": "Japonská gramatika,Japon dilbilgisi,Японы дүрмийн,דקדוק יפני,जापानी व्याकरण,ಜಪಾನಿನ ವ್ಯಾಕರಣ,იაპონური გრამატიკის,Grammatica italiana Japanese,Japanesch z'absolvéieren,Japanese gràmair,Грамматикаи Ҷопон,日本語文法,Gramàtica japonesa,Japoniako gramatika,Japanese málfræði",
  "Updated": true,
  "PlaylistItems": [
    {
      "ID": "UExmSTZVQmt4dk9Ua2dSWUoyYWdDSEZnUTJrMUd1RGE5VC41NkI0NEY2RDEwNTU3Q0M2",
      "VideoID": "9SpDvz0LNhk",
      "VideoFile": "grammar-ja-a_1_A.mp4"
    },
    {
      "ID": "UExmSTZVQmt4dk9Ua2dSWUoyYWdDSEZnUTJrMUd1RGE5VC4yODlGNEE0NkRGMEEzMEQy",
      "VideoID": "sVJ4z2OnMcY",
      "VideoFile": "grammar-ja-a_2_A.mp4"
    },
    {
      "ID": "UExmSTZVQmt4dk9Ua2dSWUoyYWdDSEZnUTJrMUd1RGE5VC4wMTcyMDhGQUE4NTIzM0Y5",
      "VideoID": "8WYR5MU9ANY",
      "VideoFile": "grammar-ja-a_3_A.mp4"
    },
    {
      "ID": "UExmSTZVQmt4dk9Ua2dSWUoyYWdDSEZnUTJrMUd1RGE5VC41MjE1MkI0OTQ2QzJGNzNG",
      "VideoID": "WIvXFQjC1Sk",
      "VideoFile": "grammar-ja-a_4_A.mp4"
    },
    {
      "ID": "UExmSTZVQmt4dk9Ua2dSWUoyYWdDSEZnUTJrMUd1RGE5VC4wOTA3OTZBNzVEMTUzOTMy",
      "VideoID": "RSzkdyotzyg",
      "VideoFile": "grammar-ja-a_5_A.mp4"
    },
    {
      "ID": "UExmSTZVQmt4dk9Ua2dSWUoyYWdDSEZnUTJrMUd1RGE5VC4xMkVGQjNCMUM1N0RFNEUx",
      "VideoID": "0XmQKxJ_kaw",
      "VideoFile": "grammar-ja-a_6_A.mp4"
    },
    {
      "ID": "UExmSTZVQmt4dk9Ua2dSWUoyYWdDSEZnUTJrMUd1RGE5VC41MzJCQjBCNDIyRkJDN0VD",
      "VideoID": "_9yeD_4sl5I",
      "VideoFile": "grammar-ja-a_7_A.mp4"
    },
    {
      "ID": "UExmSTZVQmt4dk9Ua2dSWUoyYWdDSEZnUTJrMUd1RGE5VC5DQUNERDQ2NkIzRUQxNTY1",
      "VideoID": "cJs2I-Yt2B8",
      "VideoFile": "grammar-ja-a_8_A.mp4"
    },
    {
      "ID": "UExmSTZVQmt4dk9Ua2dSWUoyYWdDSEZnUTJrMUd1RGE5VC45NDk1REZENzhEMzU5MDQz",
      "VideoID": "BfXRtDIa-Dk",
      "VideoFile": "grammar-ja-a_9_A.mp4"
    },
    {
      "ID": "UExmSTZVQmt4dk9Ua2dSWUoyYWdDSEZnUTJrMUd1RGE5VC5GNjNDRDREMDQxOThCMDQ2",
      "VideoID": "-buL101vhjg",
      "VideoFile": "grammar-ja-a_10_A.mp4"
    },
    {
      "ID": "UExmSTZVQmt4dk9Ua2dSWUoyYWdDSEZnUTJrMUd1RGE5VC40NzZCMERDMjVEN0RFRThB",
      "VideoID": "z64thCIZ7YA",
      "VideoFile": "grammar-ja-a_11_A.mp4"
    },
    {
      "ID": "UExmSTZVQmt4dk9Ua2dSWUoyYWdDSEZnUTJrMUd1RGE5VC5EMEEwRUY5M0RDRTU3NDJC",
      "VideoID": "SLR6uJ1I6jo",
      "VideoFile": "grammar-ja-a_12_A.mp4"
    },
    {
      "ID": "UExmSTZVQmt4dk9Ua2dSWUoyYWdDSEZnUTJrMUd1RGE5VC45ODRDNTg0QjA4NkFBNkQy",
      "VideoID": "U6CYqHnydR8",
      "VideoFile": "grammar-ja-a_13_A.mp4"
    },
    {
      "ID": "UExmSTZVQmt4dk9Ua2dSWUoyYWdDSEZnUTJrMUd1RGE5VC4zMDg5MkQ5MEVDMEM1NTg2",
      "VideoID": "32twWbh9vlY",
      "VideoFile": "grammar-ja-a_14_A.mp4"
    },
    {
      "ID": "UExmSTZVQmt4dk9Ua2dSWUoyYWdDSEZnUTJrMUd1RGE5VC41Mzk2QTAxMTkzNDk4MDhF",
      "VideoID": "yrm2Rq0chJA",
      "VideoFile": "grammar-ja-a_15_A.mp4"
    },
    {
      "ID": "UExmSTZVQmt4dk9Ua2dSWUoyYWdDSEZnUTJrMUd1RGE5VC5EQUE1NTFDRjcwMDg0NEMz",
      "VideoID": "QXpDpsQzwGI",
      "VideoFile": "grammar-ja-a_16_A.mp4"
    },
    {
      "ID": "UExmSTZVQmt4dk9Ua2dSWUoyYWdDSEZnUTJrMUd1RGE5VC41QTY1Q0UxMTVCODczNThE",
      "VideoID": "Am2JcWTAmuI",
      "VideoFile": "grammar-ja-a_17_A.mp4"
    },
    {
      "ID": "UExmSTZVQmt4dk9Ua2dSWUoyYWdDSEZnUTJrMUd1RGE5VC4yMUQyQTQzMjRDNzMyQTMy",
      "VideoID": "pkhFFXlUSu4",
      "VideoFile": "grammar-ja-a_18_A.mp4"
    },
    {
      "ID": "UExmSTZVQmt4dk9Ua2dSWUoyYWdDSEZnUTJrMUd1RGE5VC45RTgxNDRBMzUwRjQ0MDhC",
      "VideoID": "_Kdjo7plCkE",
      "VideoFile": "grammar-ja-a_19_A.mp4"
    },
    {
      "ID": "UExmSTZVQmt4dk9Ua2dSWUoyYWdDSEZnUTJrMUd1RGE5VC5ENDU4Q0M4RDExNzM1Mjcy",
      "VideoID": "4pv2ALZdpY0",
      "VideoFile": "grammar-ja-a_20_A.mp4"
    },
    {
      "ID": "UExmSTZVQmt4dk9Ua2dSWUoyYWdDSEZnUTJrMUd1RGE5VC4yMDhBMkNBNjRDMjQxQTg1",
      "VideoID": "SM3cQfr65fA",
      "VideoFile": "grammar-ja-a_21_A.mp4"
    },
    {
      "ID": "UExmSTZVQmt4dk9Ua2dSWUoyYWdDSEZnUTJrMUd1RGE5VC5GM0Q3M0MzMzY5NTJFNTdE",
      "VideoID": "ih1Li7aZk3w",
      "VideoFile": "grammar-ja-a_22_A.mp4"
    },
    {
      "ID": "UExmSTZVQmt4dk9Ua2dSWUoyYWdDSEZnUTJrMUd1RGE5VC4zRjM0MkVCRTg0MkYyQTM0",
      "VideoID": "6_gH8k3SoB4",
      "VideoFile": "grammar-ja-a_23_A.mp4"
    },
    {
      "ID": "UExmSTZVQmt4dk9Ua2dSWUoyYWdDSEZnUTJrMUd1RGE5VC45NzUwQkI1M0UxNThBMkU0",
      "VideoID": "Rc3ZuhyhZ1g",
      "VideoFile": "grammar-ja-a_24_A.mp4"
    },
    {
      "ID": "UExmSTZVQmt4dk9Ua2dSWUoyYWdDSEZnUTJrMUd1RGE5VC5DNzE1RjZEMUZCMjA0RDBB",
      "VideoID": "Uyz61Q92VXY",
      "VideoFile": "grammar-ja-a_25_A.mp4"
    },
    {
      "ID": "UExmSTZVQmt4dk9Ua2dSWUoyYWdDSEZnUTJrMUd1RGE5VC43MTI1NDIwOTMwQjIxMzNG",
      "VideoID": "OQ7TV5E-0Zw",
      "VideoFile": "grammar-ja-a_26_A.mp4"
    },
    {
      "ID": "UExmSTZVQmt4dk9Ua2dSWUoyYWdDSEZnUTJrMUd1RGE5VC5DQ0MyQ0Y4Mzg0M0VGOEYw",
      "VideoID": "fidyTbqpnPM",
      "VideoFile": "grammar-ja-a_27_A.mp4"
    },
    {
      "ID": "UExmSTZVQmt4dk9Ua2dSWUoyYWdDSEZnUTJrMUd1RGE5VC4yQUE2Q0JEMTk4NTM3RTZC",
      "VideoID": "9VtUYFy9wbM",
      "VideoFile": "grammar-ja-a_28_A.mp4"
    },
    {
      "ID": "UExmSTZVQmt4dk9Ua2dSWUoyYWdDSEZnUTJrMUd1RGE5VC5DMkU4NTY1QUFGQTYwMDE3",
      "VideoID": "AT3cp7sJdwY",
      "VideoFile": "grammar-ja-a_29_A.mp4"
    },
    {
      "ID": "UExmSTZVQmt4dk9Ua2dSWUoyYWdDSEZnUTJrMUd1RGE5VC44Mjc5REFBRUE2MTdFRDU0",
      "VideoID": "qXDwCYp998Q",
      "VideoFile": "grammar-ja-a_30_A.mp4"
    },
    {
      "ID": "UExmSTZVQmt4dk9Ua2dSWUoyYWdDSEZnUTJrMUd1RGE5VC43NDhFRTgwOTRERTU4Rjg3",
      "VideoID": "wPQlepQlJKo",
      "VideoFile": "grammar-ja-a_32_A.mp4"
    },
    {
      "ID": "UExmSTZVQmt4dk9Ua2dSWUoyYWdDSEZnUTJrMUd1RGE5VC41QUZGQTY5OTE4QTREQUU4",
      "VideoID": "mt98JjACzXo",
      "VideoFile": "grammar-ja-a_33_A.mp4"
    },
    {
      "ID": "UExmSTZVQmt4dk9Ua2dSWUoyYWdDSEZnUTJrMUd1RGE5VC4zRDBDOEZDOUM0MDY5NEEz",
      "VideoID": "0mJosNij8SA",
      "VideoFile": "grammar-ja-a_34_A.mp4"
    }
  ]
}