{
  "Name": "grammar-ja-a",
  "ID": "PLfI6UBkxvOTm48UUzYt_eR2E8-wO0iyfD",
  "DefaultLang": "ro",
  "Title": "Exerciții de gramatică japoneză",
  "Description": "Învață gramatica japoneză! Schimbă un cuvânt într-o propoziție!",
  "Localizations": null,
  "PlaylistTags": "Gramatica japoneză,Japanska grammatik,Жапон грамматика,Ιαπωνικά γραμματική,जापानी व्याकरण,ஜப்பனீஸ் இலக்கணம்,ໄວຍະກອນພາສາຍີ່ປຸ່ນ,日語語法,Grammar Japanese,د جاپان د ګرامر,Naxwaha Japanese,Japanese ilo,Tatabahasa Jepun,Jaapani grammatika,Japanska gramatika",
  "Updated": true,
  "PlaylistItems": [
    {
      "ID": "UExmSTZVQmt4dk9UbTQ4VVV6WXRfZVIyRTgtd08waXlmRC41NkI0NEY2RDEwNTU3Q0M2",
      "VideoID": "9SpDvz0LNhk",
      "VideoFile": "grammar-ja-a_1_A.mp4"
    },
    {
      "ID": "UExmSTZVQmt4dk9UbTQ4VVV6WXRfZVIyRTgtd08waXlmRC4yODlGNEE0NkRGMEEzMEQy",
      "VideoID": "sVJ4z2OnMcY",
      "VideoFile": "grammar-ja-a_2_A.mp4"
    },
    {
      "ID": "UExmSTZVQmt4dk9UbTQ4VVV6WXRfZVIyRTgtd08waXlmRC4wMTcyMDhGQUE4NTIzM0Y5",
      "VideoID": "8WYR5MU9ANY",
      "VideoFile": "grammar-ja-a_3_A.mp4"
    },
    {
      "ID": "UExmSTZVQmt4dk9UbTQ4VVV6WXRfZVIyRTgtd08waXlmRC41MjE1MkI0OTQ2QzJGNzNG",
      "VideoID": "WIvXFQjC1Sk",
      "VideoFile": "grammar-ja-a_4_A.mp4"
    },
    {
      "ID": "UExmSTZVQmt4dk9UbTQ4VVV6WXRfZVIyRTgtd08waXlmRC4wOTA3OTZBNzVEMTUzOTMy",
      "VideoID": "RSzkdyotzyg",
      "VideoFile": "grammar-ja-a_5_A.mp4"
    },
    {
      "ID": "UExmSTZVQmt4dk9UbTQ4VVV6WXRfZVIyRTgtd08waXlmRC4xMkVGQjNCMUM1N0RFNEUx",
      "VideoID": "0XmQKxJ_kaw",
      "VideoFile": "grammar-ja-a_6_A.mp4"
    },
    {
      "ID": "UExmSTZVQmt4dk9UbTQ4VVV6WXRfZVIyRTgtd08waXlmRC41MzJCQjBCNDIyRkJDN0VD",
      "VideoID": "_9yeD_4sl5I",
      "VideoFile": "grammar-ja-a_7_A.mp4"
    },
    {
      "ID": "UExmSTZVQmt4dk9UbTQ4VVV6WXRfZVIyRTgtd08waXlmRC5DQUNERDQ2NkIzRUQxNTY1",
      "VideoID": "cJs2I-Yt2B8",
      "VideoFile": "grammar-ja-a_8_A.mp4"
    },
    {
      "ID": "UExmSTZVQmt4dk9UbTQ4VVV6WXRfZVIyRTgtd08waXlmRC45NDk1REZENzhEMzU5MDQz",
      "VideoID": "BfXRtDIa-Dk",
      "VideoFile": "grammar-ja-a_9_A.mp4"
    },
    {
      "ID": "UExmSTZVQmt4dk9UbTQ4VVV6WXRfZVIyRTgtd08waXlmRC5GNjNDRDREMDQxOThCMDQ2",
      "VideoID": "-buL101vhjg",
      "VideoFile": "grammar-ja-a_10_A.mp4"
    },
    {
      "ID": "UExmSTZVQmt4dk9UbTQ4VVV6WXRfZVIyRTgtd08waXlmRC40NzZCMERDMjVEN0RFRThB",
      "VideoID": "z64thCIZ7YA",
      "VideoFile": "grammar-ja-a_11_A.mp4"
    },
    {
      "ID": "UExmSTZVQmt4dk9UbTQ4VVV6WXRfZVIyRTgtd08waXlmRC5EMEEwRUY5M0RDRTU3NDJC",
      "VideoID": "SLR6uJ1I6jo",
      "VideoFile": "grammar-ja-a_12_A.mp4"
    },
    {
      "ID": "UExmSTZVQmt4dk9UbTQ4VVV6WXRfZVIyRTgtd08waXlmRC45ODRDNTg0QjA4NkFBNkQy",
      "VideoID": "U6CYqHnydR8",
      "VideoFile": "grammar-ja-a_13_A.mp4"
    },
    {
      "ID": "UExmSTZVQmt4dk9UbTQ4VVV6WXRfZVIyRTgtd08waXlmRC4zMDg5MkQ5MEVDMEM1NTg2",
      "VideoID": "32twWbh9vlY",
      "VideoFile": "grammar-ja-a_14_A.mp4"
    },
    {
      "ID": "UExmSTZVQmt4dk9UbTQ4VVV6WXRfZVIyRTgtd08waXlmRC41Mzk2QTAxMTkzNDk4MDhF",
      "VideoID": "yrm2Rq0chJA",
      "VideoFile": "grammar-ja-a_15_A.mp4"
    },
    {
      "ID": "UExmSTZVQmt4dk9UbTQ4VVV6WXRfZVIyRTgtd08waXlmRC5EQUE1NTFDRjcwMDg0NEMz",
      "VideoID": "QXpDpsQzwGI",
      "VideoFile": "grammar-ja-a_16_A.mp4"
    },
    {
      "ID": "UExmSTZVQmt4dk9UbTQ4VVV6WXRfZVIyRTgtd08waXlmRC41QTY1Q0UxMTVCODczNThE",
      "VideoID": "Am2JcWTAmuI",
      "VideoFile": "grammar-ja-a_17_A.mp4"
    },
    {
      "ID": "UExmSTZVQmt4dk9UbTQ4VVV6WXRfZVIyRTgtd08waXlmRC4yMUQyQTQzMjRDNzMyQTMy",
      "VideoID": "pkhFFXlUSu4",
      "VideoFile": "grammar-ja-a_18_A.mp4"
    },
    {
      "ID": "UExmSTZVQmt4dk9UbTQ4VVV6WXRfZVIyRTgtd08waXlmRC45RTgxNDRBMzUwRjQ0MDhC",
      "VideoID": "_Kdjo7plCkE",
      "VideoFile": "grammar-ja-a_19_A.mp4"
    },
    {
      "ID": "UExmSTZVQmt4dk9UbTQ4VVV6WXRfZVIyRTgtd08waXlmRC5ENDU4Q0M4RDExNzM1Mjcy",
      "VideoID": "4pv2ALZdpY0",
      "VideoFile": "grammar-ja-a_20_A.mp4"
    },
    {
      "ID": "UExmSTZVQmt4dk9UbTQ4VVV6WXRfZVIyRTgtd08waXlmRC4yMDhBMkNBNjRDMjQxQTg1",
      "VideoID": "SM3cQfr65fA",
      "VideoFile": "grammar-ja-a_21_A.mp4"
    },
    {
      "ID": "UExmSTZVQmt4dk9UbTQ4VVV6WXRfZVIyRTgtd08waXlmRC5GM0Q3M0MzMzY5NTJFNTdE",
      "VideoID": "ih1Li7aZk3w",
      "VideoFile": "grammar-ja-a_22_A.mp4"
    },
    {
      "ID": "UExmSTZVQmt4dk9UbTQ4VVV6WXRfZVIyRTgtd08waXlmRC4zRjM0MkVCRTg0MkYyQTM0",
      "VideoID": "6_gH8k3SoB4",
      "VideoFile": "grammar-ja-a_23_A.mp4"
    },
    {
      "ID": "UExmSTZVQmt4dk9UbTQ4VVV6WXRfZVIyRTgtd08waXlmRC45NzUwQkI1M0UxNThBMkU0",
      "VideoID": "Rc3ZuhyhZ1g",
      "VideoFile": "grammar-ja-a_24_A.mp4"
    },
    {
      "ID": "UExmSTZVQmt4dk9UbTQ4VVV6WXRfZVIyRTgtd08waXlmRC5DNzE1RjZEMUZCMjA0RDBB",
      "VideoID": "Uyz61Q92VXY",
      "VideoFile": "grammar-ja-a_25_A.mp4"
    },
    {
      "ID": "UExmSTZVQmt4dk9UbTQ4VVV6WXRfZVIyRTgtd08waXlmRC43MTI1NDIwOTMwQjIxMzNG",
      "VideoID": "OQ7TV5E-0Zw",
      "VideoFile": "grammar-ja-a_26_A.mp4"
    },
    {
      "ID": "UExmSTZVQmt4dk9UbTQ4VVV6WXRfZVIyRTgtd08waXlmRC5DQ0MyQ0Y4Mzg0M0VGOEYw",
      "VideoID": "fidyTbqpnPM",
      "VideoFile": "grammar-ja-a_27_A.mp4"
    },
    {
      "ID": "UExmSTZVQmt4dk9UbTQ4VVV6WXRfZVIyRTgtd08waXlmRC4yQUE2Q0JEMTk4NTM3RTZC",
      "VideoID": "9VtUYFy9wbM",
      "VideoFile": "grammar-ja-a_28_A.mp4"
    },
    {
      "ID": "UExmSTZVQmt4dk9UbTQ4VVV6WXRfZVIyRTgtd08waXlmRC5DMkU4NTY1QUFGQTYwMDE3",
      "VideoID": "AT3cp7sJdwY",
      "VideoFile": "grammar-ja-a_29_A.mp4"
    },
    {
      "ID": "UExmSTZVQmt4dk9UbTQ4VVV6WXRfZVIyRTgtd08waXlmRC44Mjc5REFBRUE2MTdFRDU0",
      "VideoID": "qXDwCYp998Q",
      "VideoFile": "grammar-ja-a_30_A.mp4"
    },
    {
      "ID": "UExmSTZVQmt4dk9UbTQ4VVV6WXRfZVIyRTgtd08waXlmRC43NDhFRTgwOTRERTU4Rjg3",
      "VideoID": "wPQlepQlJKo",
      "VideoFile": "grammar-ja-a_32_A.mp4"
    },
    {
      "ID": "UExmSTZVQmt4dk9UbTQ4VVV6WXRfZVIyRTgtd08waXlmRC41QUZGQTY5OTE4QTREQUU4",
      "VideoID": "mt98JjACzXo",
      "VideoFile": "grammar-ja-a_33_A.mp4"
    },
    {
      "ID": "UExmSTZVQmt4dk9UbTQ4VVV6WXRfZVIyRTgtd08waXlmRC4zRDBDOEZDOUM0MDY5NEEz",
      "VideoID": "0mJosNij8SA",
      "VideoFile": "grammar-ja-a_34_A.mp4"
    }
  ]
}