{
  "VideoFile": "grammar-en-beginner-simple_72_AU.mp4",
  "Captions": [
    {
      "ID": "-oVtmYklNjcZ7AAcKWZHiN4l-mlPFBnbqxLeMz86GTgYcHdhvn5vqw==",
      "Lang": "af",
      "CaptionKey": "translation",
      "CaptionName": "vertaling",
      "YoutubeSynced": true
    },
    {
      "ID": "LqeeaV23NZNhwRVeW-rXpH3Nh1-KhpSfbFcOIJp825JkuyPWdW8LkQ==",
      "Lang": "am",
      "CaptionKey": "translation",
      "CaptionName": "ትርጉም",
      "YoutubeSynced": true
    },
    {
      "ID": "vSmnotoku98UqyTfkemXmHmH7LngawGqw-64Dk79vopD6eAfxYbbpQ==",
      "Lang": "ar",
      "CaptionKey": "translation",
      "CaptionName": "ترجمة",
      "YoutubeSynced": true
    },
    {
      "ID": "vSmnotoku9-NV_Nzy5zJy7hksVotHGsfi8AeRIFzVCj3hEJu1Dd6fg==",
      "Lang": "az",
      "CaptionKey": "translation",
      "CaptionName": "Tərcümə",
      "YoutubeSynced": true
    },
    {
      "ID": "D4ODUPPf5VBONA0OnL3NKA1VgnyCNgZ0IFRFZJOZugaOBXwz70JD2IJ1DnK1-MXF",
      "Lang": "be",
      "CaptionKey": "translation",
      "CaptionName": "Пераклад",
      "YoutubeSynced": true
    },
    {
      "ID": "LqeeaV23NZNoad026UFvyInzPmU7QjQpbtbfuuwU4ogI1g_0daxSLw==",
      "Lang": "bg",
      "CaptionKey": "translation",
      "CaptionName": "превод",
      "YoutubeSynced": true
    },
    {
      "ID": "DXC-PS4fGj_sqG8XK9vj7FVG7npnOahoKBD0UvuWcgFEbMNRsSxpZ6bNUWyfOOhV",
      "Lang": "bn",
      "CaptionKey": "translation",
      "CaptionName": "অনুবাদ",
      "YoutubeSynced": true
    },
    {
      "ID": "gF9aWCgO76_69ZGyRD5Lr60u0fDc1GAgISeXvxqbokQ=",
      "Lang": "bs",
      "CaptionKey": "translation",
      "CaptionName": "Prevod",
      "YoutubeSynced": true
    },
    {
      "ID": "vSmnotoku9981DwiMvEdzOhCfDvO_q5El6JYRnEemI6-nTm53Orbow==",
      "Lang": "ca",
      "CaptionKey": "translation",
      "CaptionName": "Traducció",
      "YoutubeSynced": true
    },
    {
      "ID": "vSmnotoku9919WRCX1PNi-mgya37Q-e4_knWR-Gq1J9GmN5kF68xJA==",
      "Lang": "co",
      "CaptionKey": "translation",
      "CaptionName": "Traduzione",
      "YoutubeSynced": true
    },
    {
      "ID": "8_pBWYKFsw3_RrTDHR3c-eKyA64IwqOYb2SdPO-1ZkA8dfnV1Ia2XQ==",
      "Lang": "cs",
      "CaptionKey": "translation",
      "CaptionName": "Překlad",
      "YoutubeSynced": true
    },
    {
      "ID": "80irT1EuOXNRyCEB1l4LCS3-z6TKChw-b-1kLMQtBE98w46B4cZkRA==",
      "Lang": "cy",
      "CaptionKey": "translation",
      "CaptionName": "Cyfieithiad",
      "YoutubeSynced": true
    },
    {
      "ID": "TT3a80kwttqobrdUpw8X44nDVyws3ULXiUNQwWvBAQBsDPDTptfv9g==",
      "Lang": "da",
      "CaptionKey": "translation",
      "CaptionName": "Oversættelse",
      "YoutubeSynced": true
    },
    {
      "ID": "LqeeaV23NZOB1ENSS7Jyjo-zSEuaVvfS_Y9NK9JNhYcDXJBQN_FTJA==",
      "Lang": "de",
      "CaptionKey": "translation",
      "CaptionName": "Übersetzung",
      "YoutubeSynced": true
    },
    {
      "ID": "DXC-PS4fGj9aHlkXdG7GqcwUvlybhWtyaTxzo2SqhTBJJusMmNjAOdsBwkL5mdGW",
      "Lang": "el",
      "CaptionKey": "translation",
      "CaptionName": "Μετάφραση",
      "YoutubeSynced": true
    },
    {
      "ID": "80irT1EuOXPJknpRbJsoEFVMmEJ7u2xfD0ULaHoNL_zvfP-HaZdZqQ==",
      "Lang": "en",
      "CaptionKey": "translation",
      "CaptionName": "Translation",
      "YoutubeSynced": true
    },
    {
      "ID": "NZITTycCndpA9s1qo49c9MXrz_UseGqYk9hgu6tSL1Nt6c6axchbTEWd8cZ_9mr2",
      "Lang": "en",
      "CaptionKey": "ruby",
      "CaptionName": "Pronunciation - IPA",
      "YoutubeSynced": true
    },
    {
      "ID": "80irT1EuOXMNnteYDgQr7VU5RRojR0Y121k3kqoVAb2AhTxPvDI3lA==",
      "Lang": "es",
      "CaptionKey": "translation",
      "CaptionName": "Traducción",
      "YoutubeSynced": true
    },
    {
      "ID": "gF9aWCgO76-szHCZb-_kdGrocTTw1sMjkqwrRwhaChg=",
      "Lang": "et",
      "CaptionKey": "translation",
      "CaptionName": "Tõlge",
      "YoutubeSynced": true
    },
    {
      "ID": "-oVtmYklNjdcWR8PgjP7-URHWk5-ZN1Os-lwRA5efcAGAlJXEy5xcg==",
      "Lang": "eu",
      "CaptionKey": "translation",
      "CaptionName": "Itzulpena",
      "YoutubeSynced": true
    },
    {
      "ID": "vSmnotoku98oIHA8fOyd9G39qG-AVEEWoUCU_nZRZz0tnpThyVgFXQ==",
      "Lang": "fa",
      "CaptionKey": "translation",
      "CaptionName": "ترجمه",
      "YoutubeSynced": true
    },
    {
      "ID": "vSmnotoku9-HwqVftHvP6dynZhY9xmsNDXcCPXPpAXtH0i41VmS02g==",
      "Lang": "fi",
      "CaptionKey": "translation",
      "CaptionName": "Käännös",
      "YoutubeSynced": true
    },
    {
      "ID": "80irT1EuOXODx-wM42N3dcGlANDudumwDA8i0Og0SYhyBKxVQqzlrA==",
      "Lang": "fil",
      "CaptionKey": "translation",
      "CaptionName": "Pagsasalin",
      "YoutubeSynced": true
    },
    {
      "ID": "vSmnotoku9_0yVvriQCK7gstZpsoadUAGl_m3y1YvUUzUa9YgXTJTA==",
      "Lang": "fr",
      "CaptionKey": "translation",
      "CaptionName": "Traduction",
      "YoutubeSynced": true
    },
    {
      "ID": "vSmnotoku9_-wQhXVTRlra4oYNwBMlQ-pi9M3lulR0LmtNEzSMv1nQ==",
      "Lang": "fy",
      "CaptionKey": "translation",
      "CaptionName": "Oersetting",
      "YoutubeSynced": true
    },
    {
      "ID": "DXC-PS4fGj-EzbcXXcdcDA2FWkKzBbwVpdLK-P2-fAo0ShP487La0HBxrjJYQD26",
      "Lang": "gd",
      "CaptionKey": "translation",
      "CaptionName": "Eadar-theangachadh",
      "YoutubeSynced": true
    },
    {
      "ID": "vSmnotoku9_y--LXry2Vfzzh76gYxti97TK6MFgbxaT6_JWsDK8Dxw==",
      "Lang": "gl",
      "CaptionKey": "translation",
      "CaptionName": "Tradución",
      "YoutubeSynced": true
    },
    {
      "ID": "DXC-PS4fGj-vRkcxWVAM6qLlzjG8qomT2xyd3vPbd9sHkCA2C0G-u8VkHIRLlm1q",
      "Lang": "gu",
      "CaptionKey": "translation",
      "CaptionName": "અનુવાદ",
      "YoutubeSynced": true
    },
    {
      "ID": "v_0fnLA3umL7V0unCP6gSUq7rwTpqy6553-KZNn_HptoZPIeKXcu8w==",
      "Lang": "ha",
      "CaptionKey": "translation",
      "CaptionName": "Fassara",
      "YoutubeSynced": true
    },
    {
      "ID": "DXC-PS4fGj8Ep_85E2h2EO7us7fehjtzBt89syDxoBA47GNK9cDCN0Df1jMcx0tS",
      "Lang": "hi",
      "CaptionKey": "translation",
      "CaptionName": "अनुवाद",
      "YoutubeSynced": true
    },
    {
      "ID": "8_pBWYKFsw2VdLrAV0QqVyFUDFYVzXlGC_yUaYQOXLizyMOT3REH4Q==",
      "Lang": "hr",
      "CaptionKey": "translation",
      "CaptionName": "Prijevod",
      "YoutubeSynced": true
    },
    {
      "ID": "vSmnotoku98DpcfeFlaZIOTmv1f7QI0mCO-lDXlDLPxMJnJuzLZC5A==",
      "Lang": "hu",
      "CaptionKey": "translation",
      "CaptionName": "Fordítás",
      "YoutubeSynced": true
    },
    {
      "ID": "FJVB5RPhtG6RJr_DYGH4u71TuG0kWa4KL_fzNudbJ_RtSU6KKHFyim7gTuT6IelIf-JXBSDkOtE=",
      "Lang": "hy",
      "CaptionKey": "translation",
      "CaptionName": "Թարգմանություն",
      "YoutubeSynced": true
    },
    {
      "ID": "vSmnotoku987bKPrXRV7SUyw9ZGtHNizsrg6AM8dlrAdetlpSAhRng==",
      "Lang": "id",
      "CaptionKey": "translation",
      "CaptionName": "Terjemahan",
      "YoutubeSynced": true
    },
    {
      "ID": "8_pBWYKFsw0E7EWRz-DLCM8_g6W6RE1X2GvSZy0I5CjpFl9DpovAzw==",
      "Lang": "ig",
      "CaptionKey": "translation",
      "CaptionName": "Ntughari",
      "YoutubeSynced": true
    },
    {
      "ID": "-oVtmYklNjfx2Vc82coL1yKqrdu8iLKfJnTUJvDIFHikzQTGdihsyQ==",
      "Lang": "is",
      "CaptionKey": "translation",
      "CaptionName": "Þýðing",
      "YoutubeSynced": true
    },
    {
      "ID": "vSmnotoku997Xj51o4Coa3IR8CXhbS5cMPtvYCDZW7ux-r8uPJijgw==",
      "Lang": "it",
      "CaptionKey": "translation",
      "CaptionName": "Traduzione",
      "YoutubeSynced": true
    },
    {
      "ID": "vSmnotoku98T1VWhqzqnI7mwMK0_khQKK5m3kEv4QsjP2PasxgFEdg==",
      "Lang": "iw",
      "CaptionKey": "translation",
      "CaptionName": "תרגום",
      "YoutubeSynced": true
    },
    {
      "ID": "gF9aWCgO76-xZiw_AePQTqgd1Up2M3sdYbwDh9VV9xU=",
      "Lang": "ja",
      "CaptionKey": "translation",
      "CaptionName": "翻訳",
      "YoutubeSynced": true
    },
    {
      "ID": "-oVtmYklNjdKL5vx9FPOguRnIQIVGRhxFW_b3KqQFivrCPmyYVbnFw==",
      "Lang": "jv",
      "CaptionKey": "translation",
      "CaptionName": "Ngartekne",
      "YoutubeSynced": true
    },
    {
      "ID": "qKL-67BEtxNGqlJ-Sp_mDcSkSIkhTrDAt1Yxm-Sj6vQOKy59-f3PXTosQcbOCoFIeP3IXrnStpQ=",
      "Lang": "ka",
      "CaptionKey": "translation",
      "CaptionName": "თარგმანი",
      "YoutubeSynced": true
    },
    {
      "ID": "_2z1jQ2ljb-zutxnXqKShZxu0sOXVAsyB6oPX2FDcXpehuzyYl4UVw==",
      "Lang": "kk",
      "CaptionKey": "translation",
      "CaptionName": "Аударма",
      "YoutubeSynced": true
    },
    {
      "ID": "ZoQIoLyaKYgOJhEBVfj6qdkcd8Zp0VqvwHx6xLxzxpWaMTTN9PJ4bts5TGUjrRIBkIWUEDL5n2w=",
      "Lang": "km",
      "CaptionKey": "translation",
      "CaptionName": "ការបកប្រែ",
      "YoutubeSynced": true
    },
    {
      "ID": "DXC-PS4fGj-QpcMgSHt5xK3z_dyVVr-39BaUcydo6RYxRTF3873SOSSh45fMedk8",
      "Lang": "kn",
      "CaptionKey": "translation",
      "CaptionName": "ಅನುವಾದ",
      "YoutubeSynced": true
    },
    {
      "ID": "gF9aWCgO76_XUOK6x1tajJvmBkRU5-SWQk8PuxaeS1c=",
      "Lang": "ko",
      "CaptionKey": "translation",
      "CaptionName": "번역",
      "YoutubeSynced": true
    },
    {
      "ID": "gF9aWCgO7698nWy9Kh0mcPFt_NGmybD1SFWa5e2NtWU=",
      "Lang": "ku",
      "CaptionKey": "translation",
      "CaptionName": "Werger",
      "YoutubeSynced": true
    },
    {
      "ID": "_2z1jQ2ljb8qxsTF1Ejf7EeywkKpjYLk_WhKjreptThwju5TnABglA==",
      "Lang": "ky",
      "CaptionKey": "translation",
      "CaptionName": "котормо",
      "YoutubeSynced": true
    },
    {
      "ID": "LqeeaV23NZO520rUSQheFI5d7t5QZYOX9oROK7T0ZswuYTWzWCZ9tg==",
      "Lang": "lb",
      "CaptionKey": "translation",
      "CaptionName": "Iwwersetzung",
      "YoutubeSynced": true
    },
    {
      "ID": "ZoQIoLyaKYgxO5mRl6pRr7pwn9MYQZPnbW5ryzcNdczN5FdPsuxFLxbThUMeT9mXacvoPP7O380=",
      "Lang": "lo",
      "CaptionKey": "translation",
      "CaptionName": "ການແປພາສາ",
      "YoutubeSynced": true
    },
    {
      "ID": "8_pBWYKFsw1LJ7aHTkdYlNUpl_-_HXkLj9SYTr5KxEAIpw1BeJXHfA==",
      "Lang": "lt",
      "CaptionKey": "translation",
      "CaptionName": "Vertimas",
      "YoutubeSynced": true
    },
    {
      "ID": "vSmnotoku9_a8KmRrJWscPNXvyFTexSnkrFo5aKHeJn_dak3CrYb3Q==",
      "Lang": "lv",
      "CaptionKey": "translation",
      "CaptionName": "Tulkošana",
      "YoutubeSynced": true
    },
    {
      "ID": "80irT1EuOXP45bWy7jimeISGyL_JXwjRgizB4XV1xwpyY_dy8dCLaQ==",
      "Lang": "mg",
      "CaptionKey": "translation",
      "CaptionName": "Translation",
      "YoutubeSynced": true
    },
    {
      "ID": "vOXjNnfW9NswcJrWIyl1vCZgXeglXkqvq9D1B4zGFV3S-ckwTZSgMSubOAP07H-e",
      "Lang": "mi",
      "CaptionKey": "translation",
      "CaptionName": "Whakamaoritanga",
      "YoutubeSynced": true
    },
    {
      "ID": "LqeeaV23NZPCC4GdwMsDx3VRMoWAAURo6p4mn_khOw4HoqXBdqsVvg==",
      "Lang": "mk",
      "CaptionKey": "translation",
      "CaptionName": "Превод",
      "YoutubeSynced": true
    },
    {
      "ID": "ZoQIoLyaKYji_fi3IwCvjfo2fLvLgv741medRQqMDIyhElsI9bkX3P28htTROqZEEboLw6Wz4A0=",
      "Lang": "ml",
      "CaptionKey": "translation",
      "CaptionName": "വിവർത്തനം",
      "YoutubeSynced": true
    },
    {
      "ID": "D4ODUPPf5VCxTAFbqdOgbTGgFJjfc1sxKLhZxennVfwL6C7YAz5_W7pOjjfsDKw-",
      "Lang": "mn",
      "CaptionKey": "translation",
      "CaptionName": "Орчуулга",
      "YoutubeSynced": true
    },
    {
      "ID": "jhVoqWIC_dpJXO5uodDsEdKcIjKci6CWRdjIk1BpGJwC9-Bgrm_YLKgyCBu-tG9E",
      "Lang": "mr",
      "CaptionKey": "translation",
      "CaptionName": "भाषांतर",
      "YoutubeSynced": true
    },
    {
      "ID": "vSmnotoku9_7Olqcki1MZIbSKZZR_XAy-47QeSt3ooHNefLL_wyi1g==",
      "Lang": "ms",
      "CaptionKey": "translation",
      "CaptionName": "Terjemahan",
      "YoutubeSynced": true
    },
    {
      "ID": "80irT1EuOXNJQI7sIobs8hmOZrpI0rR-0INeFm-xGkVIZ0Ws0rpyGg==",
      "Lang": "mt",
      "CaptionKey": "translation",
      "CaptionName": "Traduzzjoni",
      "YoutubeSynced": true
    },
    {
      "ID": "qKL-67BEtxNPDLDOm1EK-lew1RuTpDHjrl3FLVVdgjsShmPl0atn2vvuNsHxNYwTpkYgZnv6nko=",
      "Lang": "my",
      "CaptionKey": "translation",
      "CaptionName": "ဘာသာပြန်",
      "YoutubeSynced": true
    },
    {
      "ID": "DXC-PS4fGj8fZ28dNwp_CAYqq_hKBtUetyDlMImKBmCNZWU9rjLrR53KMIZPFQ9z",
      "Lang": "ne",
      "CaptionKey": "translation",
      "CaptionName": "अनुवाद",
      "YoutubeSynced": true
    },
    {
      "ID": "-oVtmYklNjfeImnGmLBMT_5nco3iC_BxKozLSosUyC4Zv7ZNYv-M3Q==",
      "Lang": "nl",
      "CaptionKey": "translation",
      "CaptionName": "Vertaling",
      "YoutubeSynced": true
    },
    {
      "ID": "LqeeaV23NZOk64taHRIaP4Idf3SvMpAhycKbbIJMe6QcsIpukjMTTA==",
      "Lang": "no",
      "CaptionKey": "translation",
      "CaptionName": "Oversettelse",
      "YoutubeSynced": true
    },
    {
      "ID": "DXC-PS4fGj9NqKSw3YvJYng2lgDdoAcNqrVVst9qzOtjZyMylJZd9-vKJI1Ipb9g",
      "Lang": "pa",
      "CaptionKey": "translation",
      "CaptionName": "ਅਨੁਵਾਦ",
      "YoutubeSynced": true
    },
    {
      "ID": "LqeeaV23NZNb2P7_ZtqUdTIpxc8NCg-Eo0IL4wDPGzXPe3-bh7DkLw==",
      "Lang": "pl",
      "CaptionKey": "translation",
      "CaptionName": "Tłumaczenie",
      "YoutubeSynced": true
    },
    {
      "ID": "vSmnotoku98_ybuZRtfcb2sa7ENYi7yUYmSHaacC5Vr5yVtBbuCYPA==",
      "Lang": "ps",
      "CaptionKey": "translation",
      "CaptionName": "ژباړه",
      "YoutubeSynced": true
    },
    {
      "ID": "vSmnotoku98vZVpV9OKOiTRoV0Y6H4D-oLfW1efqLsgkZl4TmIylIg==",
      "Lang": "pt",
      "CaptionKey": "translation",
      "CaptionName": "Tradução",
      "YoutubeSynced": true
    },
    {
      "ID": "-oVtmYklNjdRowq9qIrWlwIK5LAWTiySz006i18WzJWnP-ldBMEhsw==",
      "Lang": "ro",
      "CaptionKey": "translation",
      "CaptionName": "Traducere",
      "YoutubeSynced": true
    },
    {
      "ID": "_2z1jQ2ljb9aBt78a3EtyeOdm-oI32VZ2JTszxmvByOWJJwU99H3_A==",
      "Lang": "ru",
      "CaptionKey": "translation",
      "CaptionName": "Перевод",
      "YoutubeSynced": true
    },
    {
      "ID": "vSmnotoku98eoHADw0GHylhtlKLspA2i4r20PAPUAosdB91ofwT0vQ==",
      "Lang": "sd",
      "CaptionKey": "translation",
      "CaptionName": "ترجمو",
      "YoutubeSynced": true
    },
    {
      "ID": "ZoQIoLyaKYitZ5VWXSJ6qTwefE4S71C5Cvw2JlCWon3Mwp7AJlBMNH0XhZPub63stBSEXNOhfv8=",
      "Lang": "si",
      "CaptionKey": "translation",
      "CaptionName": "පරිවර්තනය",
      "YoutubeSynced": true
    },
    {
      "ID": "v_0fnLA3umJLxv3C78hNI5Td9llbqXCA4KQ4wEk5MhOmw5bYaZKD8Q==",
      "Lang": "sk",
      "CaptionKey": "translation",
      "CaptionName": "preklad",
      "YoutubeSynced": true
    },
    {
      "ID": "gF9aWCgO769i7k_ZK__cyG7oV8A2VEJ3topZCt0uOMM=",
      "Lang": "sl",
      "CaptionKey": "translation",
      "CaptionName": "Prevod",
      "YoutubeSynced": true
    },
    {
      "ID": "LqeeaV23NZMYfVZJUwKHOY1y8oAMLInS4H1xuQLQ7lhH7aGUrZL9Sg==",
      "Lang": "sm",
      "CaptionKey": "translation",
      "CaptionName": "Faʻaliliuga",
      "YoutubeSynced": true
    },
    {
      "ID": "v_0fnLA3umLF4VAxrYdOzSdA-y3s7Bn6j4rZCrP_7gMxAN9im5RsNA==",
      "Lang": "sn",
      "CaptionKey": "translation",
      "CaptionName": "Dudziro",
      "YoutubeSynced": true
    },
    {
      "ID": "-oVtmYklNjdGADJ1AHJ4RbMkncEZELMQrgZr3fTOO3qo7NoAqZteWw==",
      "Lang": "so",
      "CaptionKey": "translation",
      "CaptionName": "Tarjumida",
      "YoutubeSynced": true
    },
    {
      "ID": "-oVtmYklNjfN6WCmzkNgbsnry4YstHgw4y62oARpwyseVvp1cAEHpg==",
      "Lang": "sq",
      "CaptionKey": "translation",
      "CaptionName": "përkthim",
      "YoutubeSynced": true
    },
    {
      "ID": "LqeeaV23NZN12qMCle5nzRIbpLR3eE0OLF46vyqS4MYELPDF7un9Tw==",
      "Lang": "sr",
      "CaptionKey": "translation",
      "CaptionName": "Превод",
      "YoutubeSynced": true
    },
    {
      "ID": "-oVtmYklNjeeitTZYzMFpy3QkrQ9hYXo9rYtSutB4SDwyGrBQ9ykFw==",
      "Lang": "st",
      "CaptionKey": "translation",
      "CaptionName": "Phetolelo",
      "YoutubeSynced": true
    },
    {
      "ID": "vSmnotoku99XbNX82FM5jKBRVdM0P8KnUoGLGPXSD50XTa7g9zmPSA==",
      "Lang": "su",
      "CaptionKey": "translation",
      "CaptionName": "Tarjamahan",
      "YoutubeSynced": true
    },
    {
      "ID": "_2z1jQ2ljb-koNbLpH2yQhUCnQCOx7ClVBtt6bPVeE9sZD6WO4mOJA==",
      "Lang": "sv",
      "CaptionKey": "translation",
      "CaptionName": "Översättning",
      "YoutubeSynced": true
    },
    {
      "ID": "v_0fnLA3umKEYVQy3-7Vf8jBO-5S4heEXCC5zkLtqA74SmvRBplN_Q==",
      "Lang": "sw",
      "CaptionKey": "translation",
      "CaptionName": "Tafsiri",
      "YoutubeSynced": true
    },
    {
      "ID": "8Zvv_PUy3m0HECqFh6CAYfI9pnqW8wcLYeSfWfchnDqUbG3ibChKFkA40ndgxPbC3k99sOrGPm7ec7bie8_jDNqTldnPRC56",
      "Lang": "ta",
      "CaptionKey": "translation",
      "CaptionName": "மொழிபெயர்ப்பு",
      "YoutubeSynced": true
    },
    {
      "ID": "jhVoqWIC_drCcnTlCMF3lSIIKmCpCqj6SPWqF6Fqs6N_k5gZAYsuOLzMZ3WJDbGj",
      "Lang": "te",
      "CaptionKey": "translation",
      "CaptionName": "అనువాదం",
      "YoutubeSynced": true
    },
    {
      "ID": "_2z1jQ2ljb_gp7PnjBWgo71Bao70ZWMGZxZFhgPuiRh45UwOlZVSfw==",
      "Lang": "tg",
      "CaptionKey": "translation",
      "CaptionName": "Тарҷума",
      "YoutubeSynced": true
    },
    {
      "ID": "DXC-PS4fGj9ppiB_1nvjZ0xILm4x57oSajTrYCSodtEAkIMlUjwAGWH4tn2I27NR",
      "Lang": "th",
      "CaptionKey": "translation",
      "CaptionName": "การแปล",
      "YoutubeSynced": true
    },
    {
      "ID": "8_pBWYKFsw2x4nOC4cfgCqXjp5FJCIgwPYIK_gir--X-33XdYYsjpw==",
      "Lang": "tr",
      "CaptionKey": "translation",
      "CaptionName": "Tercüme",
      "YoutubeSynced": true
    },
    {
      "ID": "D4ODUPPf5VDo5984nyPaLpSRQFvZusnhQlhEjrkEOMswjTYjeyhGsRT3E5vKmRjU",
      "Lang": "uk",
      "CaptionKey": "translation",
      "CaptionName": "Переклад",
      "YoutubeSynced": true
    },
    {
      "ID": "vSmnotoku98u710c3qQfQqbIEv6SeoRHZdPHsTvaaCSSMSGwlg49mg==",
      "Lang": "ur",
      "CaptionKey": "translation",
      "CaptionName": "ترجمہ",
      "YoutubeSynced": true
    },
    {
      "ID": "v_0fnLA3umLiW6zIlq47h9fW1stfWAStSSCZO4lpVFYNbMjmm6H3ug==",
      "Lang": "uz",
      "CaptionKey": "translation",
      "CaptionName": "Tarjima",
      "YoutubeSynced": true
    },
    {
      "ID": "gF9aWCgO7691WZW5c02-XdJrUyE7xtKiScWFYNe7W6E=",
      "Lang": "vi",
      "CaptionKey": "translation",
      "CaptionName": "Dịch",
      "YoutubeSynced": true
    },
    {
      "ID": "vSmnotoku9-NXdjKpD5BtNCtltguykyzIiuSAzDhUnP6prBce2yDXg==",
      "Lang": "xh",
      "CaptionKey": "translation",
      "CaptionName": "Inguqulelo",
      "YoutubeSynced": true
    },
    {
      "ID": "7oaAL1eeOoHRGmLnvm1Dk3aIGnQoJ_JR6kIgVG6cfVMx_Owf-YifDZ13_HEY-o9r",
      "Lang": "yi",
      "CaptionKey": "translation",
      "CaptionName": "איבערזעצונג",
      "YoutubeSynced": true
    },
    {
      "ID": "v_0fnLA3umJx3e0cBhDxO4sehad1M4NhM5F6CJuAqVDGlkJP6VC0RA==",
      "Lang": "yo",
      "CaptionKey": "translation",
      "CaptionName": "Itumọ",
      "YoutubeSynced": true
    },
    {
      "ID": "80irT1EuOXOD6fYKWkFBaC1axkTIPMPXHrpID-KA3UH4DEexk9alQw==",
      "Lang": "zh-Hans",
      "CaptionKey": "translation",
      "CaptionName": "翻译",
      "YoutubeSynced": true
    },
    {
      "ID": "80irT1EuOXOD6fYKWkFBaGo39Fm0Uf7pfo_no8LBjs4Si2ZW7EnWkA==",
      "Lang": "zh-Hant",
      "CaptionKey": "translation",
      "CaptionName": "翻譯",
      "YoutubeSynced": true
    },
    {
      "ID": "vSmnotoku99RJwMeCGqBLSWkVQwJ776EzY0-W1ksGgqAYTkwRwADPQ==",
      "Lang": "zu",
      "CaptionKey": "translation",
      "CaptionName": "Ukuhumusha",
      "YoutubeSynced": true
    }
  ]
}