{
  "VideoFile": "grammar-en-beginner-simple_34_A.mp4",
  "Captions": [
    {
      "ID": "1A1tRE_aIv7O8QnO2wyqY7y2Qq1BDQTyrsN2RrXXYPpNWKFsIsSBrg==",
      "Lang": "af",
      "CaptionKey": "translation",
      "CaptionName": "vertaling",
      "YoutubeSynced": true
    },
    {
      "ID": "5iN7so1JDxpJwCT4rz_yfhdhVlOj-2Bt6d6xmLozJhgH8fqLvD5dCw==",
      "Lang": "am",
      "CaptionKey": "translation",
      "CaptionName": "ትርጉም",
      "YoutubeSynced": true
    },
    {
      "ID": "I6gcCa4YiYgRxDUzUvu1VLBfZ8UNdNlWnucBNB9IQAE-qjD4_4_f1Q==",
      "Lang": "ar",
      "CaptionKey": "translation",
      "CaptionName": "ترجمة",
      "YoutubeSynced": true
    },
    {
      "ID": "I6gcCa4YiYhoseq58sIibR-iyNeH6ZGxzI1mcTYt_SUB4d2NyndMRw==",
      "Lang": "az",
      "CaptionKey": "translation",
      "CaptionName": "Tərcümə",
      "YoutubeSynced": true
    },
    {
      "ID": "vYovPfseKZiiN5pRs70j04oioO7-jaJNRJhGeAHwOtpyV41RZ0hvFID9ffltbmJg",
      "Lang": "be",
      "CaptionKey": "translation",
      "CaptionName": "Пераклад",
      "YoutubeSynced": true
    },
    {
      "ID": "5iN7so1JDxr4zGvlyB7AtX-05rZ3U4EkyArwjbcRydCO6Z26V5jfVg==",
      "Lang": "bg",
      "CaptionKey": "translation",
      "CaptionName": "превод",
      "YoutubeSynced": true
    },
    {
      "ID": "Zh7ExjoQ550YZucICM1eQe-EgoiNJL95JELmYOpE0D-GJm-Of4P3SuhIkcmICaT3",
      "Lang": "bn",
      "CaptionKey": "translation",
      "CaptionName": "অনুবাদ",
      "YoutubeSynced": true
    },
    {
      "ID": "QtkBBnH7D1sAXaCtN0RvvFVdyUOX5fczUagih6xDbO0=",
      "Lang": "bs",
      "CaptionKey": "translation",
      "CaptionName": "Prevod",
      "YoutubeSynced": true
    },
    {
      "ID": "I6gcCa4YiYg8xx90f4rPfegSTGfPRyrAZgHsp_-h2BoeXBnLUUBD3g==",
      "Lang": "ca",
      "CaptionKey": "translation",
      "CaptionName": "Traducció",
      "YoutubeSynced": true
    },
    {
      "ID": "I6gcCa4YiYh9GNZce-CI5aJfMN00ThP2x2Xbp5ra7jf0sGY0exJhCQ==",
      "Lang": "co",
      "CaptionKey": "translation",
      "CaptionName": "Traduzione",
      "YoutubeSynced": true
    },
    {
      "ID": "7n_nOpn01eAApXB-_Kkpreqynxr75A7aydHRNWX15OPoyHTpYpoT_A==",
      "Lang": "cs",
      "CaptionKey": "translation",
      "CaptionName": "Překlad",
      "YoutubeSynced": true
    },
    {
      "ID": "Uov8r581cz-CfDrAGk702RuVy0y8Y4-fzeyQgkec3izrZpaPTS2USw==",
      "Lang": "cy",
      "CaptionKey": "translation",
      "CaptionName": "Cyfieithiad",
      "YoutubeSynced": true
    },
    {
      "ID": "fja5ED84wDcaAVCgCcW5VSJI_xKCivubttU6KzKh_iZAlqvHduhUQA==",
      "Lang": "da",
      "CaptionKey": "translation",
      "CaptionName": "Oversættelse",
      "YoutubeSynced": true
    },
    {
      "ID": "5iN7so1JDxoxy0dvraFFWhecUBY2edqke4IwdSvY1MqBCRINgEHwkA==",
      "Lang": "de",
      "CaptionKey": "translation",
      "CaptionName": "Übersetzung",
      "YoutubeSynced": true
    },
    {
      "ID": "Zh7ExjoQ550nrPoSskK9pYUcb-WUZq6m01kJBq_q_kzDb3LsEU-V-afQZ1qdaAHE",
      "Lang": "el",
      "CaptionKey": "translation",
      "CaptionName": "Μετάφραση",
      "YoutubeSynced": true
    },
    {
      "ID": "Uov8r581cz9juAr2BkkgjXdNK46iEhQI8ghj8PH7blrm54q6QpxSQg==",
      "Lang": "en",
      "CaptionKey": "translation",
      "CaptionName": "Translation",
      "YoutubeSynced": true
    },
    {
      "ID": "lqiNPxtrdx5QN4GB9GCZBbzQZrIophGjHNWTpVZUxitQS9cwPIq4_nea_LrsJzUt",
      "Lang": "en",
      "CaptionKey": "ruby",
      "CaptionName": "Pronunciation - IPA",
      "YoutubeSynced": true
    },
    {
      "ID": "Uov8r581cz_4hl-3W0crjJsEcBqNcXxg_yO2NYn2c_Vu5PDrP7t8cQ==",
      "Lang": "es",
      "CaptionKey": "translation",
      "CaptionName": "Traducción",
      "YoutubeSynced": true
    },
    {
      "ID": "QtkBBnH7D1uwf8LBD3gvSt3fT0fj3LPELJmZPUGTNPM=",
      "Lang": "et",
      "CaptionKey": "translation",
      "CaptionName": "Tõlge",
      "YoutubeSynced": true
    },
    {
      "ID": "1A1tRE_aIv5me4xZjYjsqAcbdRZs0ka0rG_GAavLTVRxolhM0Ce-lw==",
      "Lang": "eu",
      "CaptionKey": "translation",
      "CaptionName": "Itzulpena",
      "YoutubeSynced": true
    },
    {
      "ID": "I6gcCa4YiYhhoDXSoZFPFxJimU4SdfMTdY95mR5u6U5FMlumUabMBw==",
      "Lang": "fa",
      "CaptionKey": "translation",
      "CaptionName": "ترجمه",
      "YoutubeSynced": true
    },
    {
      "ID": "I6gcCa4YiYjyawmyMXAkOGD-26RozylCvN9ushJrLFymjAKkjD1wzw==",
      "Lang": "fi",
      "CaptionKey": "translation",
      "CaptionName": "Käännös",
      "YoutubeSynced": true
    },
    {
      "ID": "Uov8r581cz-xtg_db16HXw2jXrBWp6iW3KP4XmVY7Q0PsbRsnhCnmg==",
      "Lang": "fil",
      "CaptionKey": "translation",
      "CaptionName": "Pagsasalin",
      "YoutubeSynced": true
    },
    {
      "ID": "I6gcCa4YiYgrk6cU18sa5SqB-dg8iTzWErMTk6RjWHhSyDcWGM1KWg==",
      "Lang": "fr",
      "CaptionKey": "translation",
      "CaptionName": "Traduction",
      "YoutubeSynced": true
    },
    {
      "ID": "I6gcCa4YiYgNih942VFhzXvXVcSlo-Z7sHksHufJBmARZruw6qzT6A==",
      "Lang": "fy",
      "CaptionKey": "translation",
      "CaptionName": "Oersetting",
      "YoutubeSynced": true
    },
    {
      "ID": "Zh7ExjoQ551kjVIyow0grnjNt91IHJVZrEhK-I3bKt5xGjQgcbhRF-ohkslLaWYH",
      "Lang": "gd",
      "CaptionKey": "translation",
      "CaptionName": "Eadar-theangachadh",
      "YoutubeSynced": true
    },
    {
      "ID": "I6gcCa4YiYjpp3_oL_kNcNF8qTvw2udpsPEJ8_lFU6hnTX3o4F2TwQ==",
      "Lang": "gl",
      "CaptionKey": "translation",
      "CaptionName": "Tradución",
      "YoutubeSynced": true
    },
    {
      "ID": "Zh7ExjoQ552D2d5x_fTiIq98VZAmDA0iacJtgmcL2glbsXmAGEAJeYvSBm_oo02E",
      "Lang": "gu",
      "CaptionKey": "translation",
      "CaptionName": "અનુવાદ",
      "YoutubeSynced": true
    },
    {
      "ID": "NEzk4EnbghqoGaGWYDDQrLuwX6HFAWFj15gt2WPB0QjJz8lg_8lA6g==",
      "Lang": "ha",
      "CaptionKey": "translation",
      "CaptionName": "Fassara",
      "YoutubeSynced": true
    },
    {
      "ID": "Zh7ExjoQ552cuF8_WELcj7am27YpXD3QXmjIVz68Sjlp8CyvlyQzjaWTnRUZxs0w",
      "Lang": "hi",
      "CaptionKey": "translation",
      "CaptionName": "अनुवाद",
      "YoutubeSynced": true
    },
    {
      "ID": "7n_nOpn01eAwHCkiLky7q5HphyYZgGSJki4CysRckb5RdrVJxES34A==",
      "Lang": "hr",
      "CaptionKey": "translation",
      "CaptionName": "Prijevod",
      "YoutubeSynced": true
    },
    {
      "ID": "I6gcCa4YiYhzCdUHIDfO5K4i-KEDs9NwOSeeCxE730P7K-9o_n_qoA==",
      "Lang": "hu",
      "CaptionKey": "translation",
      "CaptionName": "Fordítás",
      "YoutubeSynced": true
    },
    {
      "ID": "yBi2TDYqRFPmNdgDHBlFJnJ9W-yBr8PTPCEg25UqSd36jwoTd9nkGayav5052ulceHLxAiy0UJw=",
      "Lang": "hy",
      "CaptionKey": "translation",
      "CaptionName": "Թարգմանություն",
      "YoutubeSynced": true
    },
    {
      "ID": "I6gcCa4YiYjBtqXRz3RgTdH_j23l5CmSKCYHdiuzg54nXz75SFvGDg==",
      "Lang": "id",
      "CaptionKey": "translation",
      "CaptionName": "Terjemahan",
      "YoutubeSynced": true
    },
    {
      "ID": "7n_nOpn01eC6NSkhH51SOXGgy0TLYRVD3pPiJuYauqOuKPIqEzxIPQ==",
      "Lang": "ig",
      "CaptionKey": "translation",
      "CaptionName": "Ntughari",
      "YoutubeSynced": true
    },
    {
      "ID": "1A1tRE_aIv7iLJ6FF2Rgh_BQUJ9vZAy-rdjie9Wr16vxKMbiGeBvWQ==",
      "Lang": "is",
      "CaptionKey": "translation",
      "CaptionName": "Þýðing",
      "YoutubeSynced": true
    },
    {
      "ID": "I6gcCa4YiYiDnOJ3CbaF36Ew15I8jel8BH3PYm8aWefYWeoNkCTp4A==",
      "Lang": "it",
      "CaptionKey": "translation",
      "CaptionName": "Traduzione",
      "YoutubeSynced": true
    },
    {
      "ID": "I6gcCa4YiYiusWHkdqq1oOw_0WChW6c2m59MdNBwn6P_CAdeFgyAaA==",
      "Lang": "iw",
      "CaptionKey": "translation",
      "CaptionName": "תרגום",
      "YoutubeSynced": true
    },
    {
      "ID": "QtkBBnH7D1ta9gafsFhw9ElJVTpaUW5er5UE2a4eggg=",
      "Lang": "ja",
      "CaptionKey": "translation",
      "CaptionName": "翻訳",
      "YoutubeSynced": true
    },
    {
      "ID": "1A1tRE_aIv6NmaV6b9DogMqMozSos6Z55Nynh8mE-ZeP27iIyOkw7Q==",
      "Lang": "jv",
      "CaptionKey": "translation",
      "CaptionName": "Ngartekne",
      "YoutubeSynced": true
    },
    {
      "ID": "m02rrmHnT3DeeLWF5MMlvbSH8Wava_vTEQiJH364lqTYU7VqPDhMzz5y9ctE3Ql9vNADfvuAxrw=",
      "Lang": "ka",
      "CaptionKey": "translation",
      "CaptionName": "თარგმანი",
      "YoutubeSynced": true
    },
    {
      "ID": "Ggle969fid1_GRWvkXD3w1fuCgN5KmJIyhSeyyg-F5uFRgaAJ_bkMQ==",
      "Lang": "kk",
      "CaptionKey": "translation",
      "CaptionName": "Аударма",
      "YoutubeSynced": true
    },
    {
      "ID": "95s4l5AaLFBRlZSF0UnU4bohTobOCw3JwyYh70bnUwL2XrrVNcdWvIYKF62KpNj6hJ4Jhj5eJ1s=",
      "Lang": "km",
      "CaptionKey": "translation",
      "CaptionName": "ការបកប្រែ",
      "YoutubeSynced": true
    },
    {
      "ID": "Zh7ExjoQ550CuSiGJMK2Y4CR0lPL71XQm9CAUhdMvntfrcMtEdGzKco_9iDUmlKG",
      "Lang": "kn",
      "CaptionKey": "translation",
      "CaptionName": "ಅನುವಾದ",
      "YoutubeSynced": true
    },
    {
      "ID": "QtkBBnH7D1uyxuu2eVwyPqAAAs7ZFe-cAUvzqfsjW_E=",
      "Lang": "ko",
      "CaptionKey": "translation",
      "CaptionName": "번역",
      "YoutubeSynced": true
    },
    {
      "ID": "QtkBBnH7D1ulc0VqUQOhro8pZqXxJQHjqfNU-HW7_K8=",
      "Lang": "ku",
      "CaptionKey": "translation",
      "CaptionName": "Werger",
      "YoutubeSynced": true
    },
    {
      "ID": "Ggle969fid1A7YC9Sx1c7uxzmXiIpoCOAFBF9mWsBpJDuOkstg8EsQ==",
      "Lang": "ky",
      "CaptionKey": "translation",
      "CaptionName": "котормо",
      "YoutubeSynced": true
    },
    {
      "ID": "5iN7so1JDxoftGN_HsX1gkPPioP8y8saNtP418S0e6Fz2mSsdyoqug==",
      "Lang": "lb",
      "CaptionKey": "translation",
      "CaptionName": "Iwwersetzung",
      "YoutubeSynced": true
    },
    {
      "ID": "95s4l5AaLFAyo2IQ-mY9LowPnqysu0ABYFGKBshI7Bl6Du6Tz--YEc2Y3PihCz6mBWTVy9Ldvak=",
      "Lang": "lo",
      "CaptionKey": "translation",
      "CaptionName": "ການແປພາສາ",
      "YoutubeSynced": true
    },
    {
      "ID": "7n_nOpn01eA9VQRKtX5LBJ6co23-SpWfXf7Cb8ZiigTy6sPVplhW0Q==",
      "Lang": "lt",
      "CaptionKey": "translation",
      "CaptionName": "Vertimas",
      "YoutubeSynced": true
    },
    {
      "ID": "I6gcCa4YiYiZgej5bXq5R1Il9Z9zqZ3sQ3b5elR421kBjIY7dpPjVw==",
      "Lang": "lv",
      "CaptionKey": "translation",
      "CaptionName": "Tulkošana",
      "YoutubeSynced": true
    },
    {
      "ID": "Uov8r581cz-AtoRvlReVFhVkDU2qMUBXYwKA_63hi8NBg9o8CeMfLg==",
      "Lang": "mg",
      "CaptionKey": "translation",
      "CaptionName": "Translation",
      "YoutubeSynced": true
    },
    {
      "ID": "A8oOtFaYg_FzChKhbNmCgZQb_EMOBY6ILK2iY8cikbxKdO1TVqr5qTPqaXPriI4U",
      "Lang": "mi",
      "CaptionKey": "translation",
      "CaptionName": "Whakamaoritanga",
      "YoutubeSynced": true
    },
    {
      "ID": "5iN7so1JDxok-rtLkJDiX0wgDtNCNVTe2UDKLdY-nx3zozW6HTf4Qg==",
      "Lang": "mk",
      "CaptionKey": "translation",
      "CaptionName": "Превод",
      "YoutubeSynced": true
    },
    {
      "ID": "95s4l5AaLFAvYce034WqvVTeBbe5SdYXv-nSzAouMTu13UOfQ17TQktUsWVJOczWmvCMhAhF668=",
      "Lang": "ml",
      "CaptionKey": "translation",
      "CaptionName": "വിവർത്തനം",
      "YoutubeSynced": true
    },
    {
      "ID": "vYovPfseKZj9VUsBUrv3JoRwni1Pv1XDfWxUOJSRn_M9p9WZTLYNYqntsh5Jr-il",
      "Lang": "mn",
      "CaptionKey": "translation",
      "CaptionName": "Орчуулга",
      "YoutubeSynced": true
    },
    {
      "ID": "hiQixx2o-rloQIj-Bs8asQiHeHyX0raSu1k75g4nQxPt3-EVTuHIjJWVV0HjZNDN",
      "Lang": "mr",
      "CaptionKey": "translation",
      "CaptionName": "भाषांतर",
      "YoutubeSynced": true
    },
    {
      "ID": "I6gcCa4YiYj-i57KHwuLnM_0QI9atoqp7I673wZ2R5x6wWh_8E91Tw==",
      "Lang": "ms",
      "CaptionKey": "translation",
      "CaptionName": "Terjemahan",
      "YoutubeSynced": true
    },
    {
      "ID": "Uov8r581cz921o6gGWiGVFwLrYVN2DJS16nC5RPXVvdwh6H4rbdk2g==",
      "Lang": "mt",
      "CaptionKey": "translation",
      "CaptionName": "Traduzzjoni",
      "YoutubeSynced": true
    },
    {
      "ID": "m02rrmHnT3DODKNu3KFxc1Ujyf8a3RTxL0OGIxyf_zDkwcNSe4tSIuBsJR7K3x0-SXqGQjwOK-I=",
      "Lang": "my",
      "CaptionKey": "translation",
      "CaptionName": "ဘာသာပြန်",
      "YoutubeSynced": true
    },
    {
      "ID": "Zh7ExjoQ552feXdoavaJ7EIYkzqtspuAHvmlHmrAUOSnPYzObl-4cXcroD18DSc8",
      "Lang": "ne",
      "CaptionKey": "translation",
      "CaptionName": "अनुवाद",
      "YoutubeSynced": true
    },
    {
      "ID": "1A1tRE_aIv4NTObpeuVG0z_STeexhEzpNg09UsAGpD9dG5ZKtvj0bg==",
      "Lang": "nl",
      "CaptionKey": "translation",
      "CaptionName": "Vertaling",
      "YoutubeSynced": true
    },
    {
      "ID": "5iN7so1JDxr3crxnJjBED_UorDoW0IDpL7MEyTQLy6d3GUOXw1bFFA==",
      "Lang": "no",
      "CaptionKey": "translation",
      "CaptionName": "Oversettelse",
      "YoutubeSynced": true
    },
    {
      "ID": "Zh7ExjoQ5505rNLC0HmmjJng2MgYWDa15trdAp0Z5dViNmIOgUdY4EIYC_q72HvL",
      "Lang": "pa",
      "CaptionKey": "translation",
      "CaptionName": "ਅਨੁਵਾਦ",
      "YoutubeSynced": true
    },
    {
      "ID": "5iN7so1JDxqAsdFNeaMUb2CPL6rfxbijz2xQ9hxJvcBU82Q-AJweGA==",
      "Lang": "pl",
      "CaptionKey": "translation",
      "CaptionName": "Tłumaczenie",
      "YoutubeSynced": true
    },
    {
      "ID": "I6gcCa4YiYjNtsS2nnvr9V2H8aplD5kbMF_S7AZBywGnfy7mkCg-HA==",
      "Lang": "ps",
      "CaptionKey": "translation",
      "CaptionName": "ژباړه",
      "YoutubeSynced": true
    },
    {
      "ID": "I6gcCa4YiYhSA9c0jKVHoPIlsbeZoPdFxkvmr5UcigF5K8wcJ2bCVg==",
      "Lang": "pt",
      "CaptionKey": "translation",
      "CaptionName": "Tradução",
      "YoutubeSynced": true
    },
    {
      "ID": "1A1tRE_aIv5Olq_iRMDZUbj3Z1_TLTRU5-MR2eHzNjuE3DJxf5YMYQ==",
      "Lang": "ro",
      "CaptionKey": "translation",
      "CaptionName": "Traducere",
      "YoutubeSynced": true
    },
    {
      "ID": "Ggle969fid2QltjnJD-cHeW4qhamE9JxrKWbuAvRNqA1SBxtaH414Q==",
      "Lang": "ru",
      "CaptionKey": "translation",
      "CaptionName": "Перевод",
      "YoutubeSynced": true
    },
    {
      "ID": "I6gcCa4YiYh1-xy_I3ZzEzAnwaoPyBaI9mx2gWflZ3j6MR0eoDC57w==",
      "Lang": "sd",
      "CaptionKey": "translation",
      "CaptionName": "ترجمو",
      "YoutubeSynced": true
    },
    {
      "ID": "95s4l5AaLFBf7OuxzNVSnmUE9Ik8ong-DJYIID6rIQP-nGuWNEKtNWKoYL-tPUZBWKJhM6HrM20=",
      "Lang": "si",
      "CaptionKey": "translation",
      "CaptionName": "පරිවර්තනය",
      "YoutubeSynced": true
    },
    {
      "ID": "NEzk4EnbghoFPmDglHZ_bMcOGaRXiPK1wq0a3KX9NbGoYAXijIU1cw==",
      "Lang": "sk",
      "CaptionKey": "translation",
      "CaptionName": "preklad",
      "YoutubeSynced": true
    },
    {
      "ID": "QtkBBnH7D1vvoLxPwJrr9DQ1TIVI0yuI9KUv3jlhkQ8=",
      "Lang": "sl",
      "CaptionKey": "translation",
      "CaptionName": "Prevod",
      "YoutubeSynced": true
    },
    {
      "ID": "5iN7so1JDxof8cqBCKYtw5xDRxeEOyFiRkVJj3-QypWW_jatmndkOw==",
      "Lang": "sm",
      "CaptionKey": "translation",
      "CaptionName": "Faʻaliliuga",
      "YoutubeSynced": true
    },
    {
      "ID": "NEzk4EnbghrAM4QdaYB1zl658Nc60C0kNS9kt3cun9zHZAXJ3Y8vsw==",
      "Lang": "sn",
      "CaptionKey": "translation",
      "CaptionName": "Dudziro",
      "YoutubeSynced": true
    },
    {
      "ID": "1A1tRE_aIv7CWi0oLNClX3Z9w0iNdnSga1TPGvVavEgeVGAqrOACGQ==",
      "Lang": "so",
      "CaptionKey": "translation",
      "CaptionName": "Tarjumida",
      "YoutubeSynced": true
    },
    {
      "ID": "1A1tRE_aIv6CxGX3xQc4ngPhDYZYdxfH_KHZwllAD7j6I7NNTnOgBw==",
      "Lang": "sq",
      "CaptionKey": "translation",
      "CaptionName": "përkthim",
      "YoutubeSynced": true
    },
    {
      "ID": "5iN7so1JDxp9r4S9dJ4IbfS5ZY5gW7SoZnv-ygeW2ANSLFKKjaPQdw==",
      "Lang": "sr",
      "CaptionKey": "translation",
      "CaptionName": "Превод",
      "YoutubeSynced": true
    },
    {
      "ID": "1A1tRE_aIv4VazjkMI4nc2x3NhiZ-Z_bbZ2Bv2o5B-8kz7cEB3aE_g==",
      "Lang": "st",
      "CaptionKey": "translation",
      "CaptionName": "Phetolelo",
      "YoutubeSynced": true
    },
    {
      "ID": "I6gcCa4YiYhv41xqlK0zI5EDl_iuoXDmFoj3BpUz6kTwE4WsgMhnBA==",
      "Lang": "su",
      "CaptionKey": "translation",
      "CaptionName": "Tarjamahan",
      "YoutubeSynced": true
    },
    {
      "ID": "Ggle969fid1XzISYW1RExngJELA36kw_yrQYCdruX2LGIU1YXVNFMw==",
      "Lang": "sv",
      "CaptionKey": "translation",
      "CaptionName": "Översättning",
      "YoutubeSynced": true
    },
    {
      "ID": "NEzk4Enbghr95_YluXCpZiST-L12fHbYzSCI7ZMQty83heTsMHdvyw==",
      "Lang": "sw",
      "CaptionKey": "translation",
      "CaptionName": "Tafsiri",
      "YoutubeSynced": true
    },
    {
      "ID": "I-ErwQ1AvL0g9SIBNFJjdPI7OVm8styfDzRd9HY5LJuOSGfmIJC00v5VcCTDo6opvaSVVBR1-nUsmy9pmUIYxUiyasukfa3E",
      "Lang": "ta",
      "CaptionKey": "translation",
      "CaptionName": "மொழிபெயர்ப்பு",
      "YoutubeSynced": true
    },
    {
      "ID": "hiQixx2o-rl9Ivl9TjiTd_J7BHPxPqATXKy7ys77bchkjFHGxLRP4IO_blwS4gIo",
      "Lang": "te",
      "CaptionKey": "translation",
      "CaptionName": "అనువాదం",
      "YoutubeSynced": true
    },
    {
      "ID": "Ggle969fid1KDxph4wA6AsPpADB9vs42XilbtBRq5Q92W4NdKuAyDQ==",
      "Lang": "tg",
      "CaptionKey": "translation",
      "CaptionName": "Тарҷума",
      "YoutubeSynced": true
    },
    {
      "ID": "Zh7ExjoQ553zn9CLtsmIkWa9-blmkmThfCng6zsJODNMQmXWR8QN9sZULIIqlkgH",
      "Lang": "th",
      "CaptionKey": "translation",
      "CaptionName": "การแปล",
      "YoutubeSynced": true
    },
    {
      "ID": "7n_nOpn01eAhVcCSfWf5g1e9bkCx6FMsZBqXmjKBu9KeyuLYHtcyUQ==",
      "Lang": "tr",
      "CaptionKey": "translation",
      "CaptionName": "Tercüme",
      "YoutubeSynced": true
    },
    {
      "ID": "vYovPfseKZgLIguVs7xkwa8-9PdQVMKbJXf_T3yrJRzYleJmB2_Gl2f4hCvPFfLF",
      "Lang": "uk",
      "CaptionKey": "translation",
      "CaptionName": "Переклад",
      "YoutubeSynced": true
    },
    {
      "ID": "I6gcCa4YiYieJV9H_ea-SxI70FqD3estsY2fsgJ54L5jK6PLKBBKLQ==",
      "Lang": "ur",
      "CaptionKey": "translation",
      "CaptionName": "ترجمہ",
      "YoutubeSynced": true
    },
    {
      "ID": "NEzk4EnbghrUJAwCTs6-8o08tMpwlEeCG807dAc4kFkZ4K_cCi0rxw==",
      "Lang": "uz",
      "CaptionKey": "translation",
      "CaptionName": "Tarjima",
      "YoutubeSynced": true
    },
    {
      "ID": "QtkBBnH7D1v1uJsq2CrDqLHB215DP0uV3pWUuWSI2RQ=",
      "Lang": "vi",
      "CaptionKey": "translation",
      "CaptionName": "Dịch",
      "YoutubeSynced": true
    },
    {
      "ID": "I6gcCa4YiYgu9ZlBy5IGWi2VYJe7jg_8uZziEu9fx9FRMn6iKNUxrw==",
      "Lang": "xh",
      "CaptionKey": "translation",
      "CaptionName": "Inguqulelo",
      "YoutubeSynced": true
    },
    {
      "ID": "Jmop1no6HWjJeqeaWcrgKv_jXL4kvTZ3F2C22FCF9aMJ25CEUtAnlWmO3aI7Zeb_",
      "Lang": "yi",
      "CaptionKey": "translation",
      "CaptionName": "איבערזעצונג",
      "YoutubeSynced": true
    },
    {
      "ID": "NEzk4EnbghrI4sC92rYn82xT8U9dHiLB5GaBGheOfdMiBafZDabLqg==",
      "Lang": "yo",
      "CaptionKey": "translation",
      "CaptionName": "Itumọ",
      "YoutubeSynced": true
    },
    {
      "ID": "Uov8r581cz9kRT6OUEH5B_0Khs1VZi0ee12zzo2dtah5B_MBbkURRw==",
      "Lang": "zh-Hans",
      "CaptionKey": "translation",
      "CaptionName": "翻译",
      "YoutubeSynced": true
    },
    {
      "ID": "Uov8r581cz9kRT6OUEH5BwkbZNjX3bX3ZrNX7ELUrOgoMlra2Pb5QA==",
      "Lang": "zh-Hant",
      "CaptionKey": "translation",
      "CaptionName": "翻譯",
      "YoutubeSynced": true
    },
    {
      "ID": "I6gcCa4YiYiEXKKwW4dedZv2uw_nukY5HhSbrlBBnZO1UmrNA1pFVg==",
      "Lang": "zu",
      "CaptionKey": "translation",
      "CaptionName": "Ukuhumusha",
      "YoutubeSynced": true
    }
  ]
}