{
  "VideoFile": "grammar-en-beginner-simple_46_UK.mp4",
  "Captions": [
    {
      "ID": "KJxMHV85qeRFPgDS82k56e3qkZ585s4cSdHEjOdrBOYxX81J01OQug==",
      "Lang": "af",
      "CaptionKey": "translation",
      "CaptionName": "vertaling",
      "YoutubeSynced": true
    },
    {
      "ID": "jLFk-NuPpxa3iHiK9uEMumzOR9a945csr3fGUDdoJLQxYVufQLtaHw==",
      "Lang": "am",
      "CaptionKey": "translation",
      "CaptionName": "ትርጉም",
      "YoutubeSynced": true
    },
    {
      "ID": "jAU9fbh5aUQsqSnfk3zlVxcTVUzw6nuJKqf7MQt9ee_ycWC1eGPAdQ==",
      "Lang": "ar",
      "CaptionKey": "translation",
      "CaptionName": "ترجمة",
      "YoutubeSynced": true
    },
    {
      "ID": "jAU9fbh5aUSGcJvLY7X2_9J4T9bMSSnW2_d8O_XmfFItUymPIovOSA==",
      "Lang": "az",
      "CaptionKey": "translation",
      "CaptionName": "Tərcümə",
      "YoutubeSynced": true
    },
    {
      "ID": "9b42BBbZ75I8N29kfS8e0jxENwdOilOUBQQYRogqMIN7cewjKKyBCnxA2JxjiKVt",
      "Lang": "be",
      "CaptionKey": "translation",
      "CaptionName": "Пераклад",
      "YoutubeSynced": true
    },
    {
      "ID": "jLFk-NuPpxZnjmB2c-2lUA8XmLSc8V-La6n3Imzo6IIZfM8h5xdqoQ==",
      "Lang": "bg",
      "CaptionKey": "translation",
      "CaptionName": "превод",
      "YoutubeSynced": true
    },
    {
      "ID": "0o3pbph25ghW72k24nIOeEYhh_4B8cQxjIGoPzzzblOmBpRxDTYKCtN-Ur8vaYkF",
      "Lang": "bn",
      "CaptionKey": "translation",
      "CaptionName": "অনুবাদ",
      "YoutubeSynced": true
    },
    {
      "ID": "SNJq6JDQDiwGEAVao6OaD4y49hux8vrP3m3IYz5eKcg=",
      "Lang": "bs",
      "CaptionKey": "translation",
      "CaptionName": "Prevod",
      "YoutubeSynced": true
    },
    {
      "ID": "jAU9fbh5aUSzyvBVBZNjxjoPOX_5A-PRL92CXJtmscuREQzRmyDbog==",
      "Lang": "ca",
      "CaptionKey": "translation",
      "CaptionName": "Traducció",
      "YoutubeSynced": true
    },
    {
      "ID": "jAU9fbh5aUQNbT7XaK3SeKJCRLsyK9Do-enBXWSwqo8u3w5w_DyFvw==",
      "Lang": "co",
      "CaptionKey": "translation",
      "CaptionName": "Traduzione",
      "YoutubeSynced": true
    },
    {
      "ID": "4edPGAfVs4uvx8UgbsdlHiuucFubx3I2BK6ckd-53eXvNCVyvNsRUg==",
      "Lang": "cs",
      "CaptionKey": "translation",
      "CaptionName": "Překlad",
      "YoutubeSynced": true
    },
    {
      "ID": "5OiUrTy_d3_ouL1-AO3YOkNSwTg5jYZpMyLkU8gxYcHtCi6mKrVCKg==",
      "Lang": "cy",
      "CaptionKey": "translation",
      "CaptionName": "Cyfieithiad",
      "YoutubeSynced": true
    },
    {
      "ID": "G3lkVFxf7jiHJz0OpKmjHXbSdC4dtuy_bA5HoCICx2npAvf5yeCSmg==",
      "Lang": "da",
      "CaptionKey": "translation",
      "CaptionName": "Oversættelse",
      "YoutubeSynced": true
    },
    {
      "ID": "jLFk-NuPpxayUS7VwGLsH03AOqt_RbAyPQVk5AzgGLRyxnNJkR7M0w==",
      "Lang": "de",
      "CaptionKey": "translation",
      "CaptionName": "Übersetzung",
      "YoutubeSynced": true
    },
    {
      "ID": "0o3pbph25giPi-f4tmoO2AZvYr4x4LzNRoRlU4iUvCNvNvvsBXye_xMRoeirEAaq",
      "Lang": "el",
      "CaptionKey": "translation",
      "CaptionName": "Μετάφραση",
      "YoutubeSynced": true
    },
    {
      "ID": "5OiUrTy_d3-hvMnFySJSK9XblnEXC7JC_vEgSeZIUu0ykJ-kfdRkxQ==",
      "Lang": "en",
      "CaptionKey": "translation",
      "CaptionName": "Translation",
      "YoutubeSynced": true
    },
    {
      "ID": "ukCkUHROoJvyghVKnRuOrW6oAs93Dr1j6RHYcz5I9L3PK5ZTX76uXmCdDC5nfHls",
      "Lang": "en",
      "CaptionKey": "ruby",
      "CaptionName": "Pronunciation - IPA",
      "YoutubeSynced": true
    },
    {
      "ID": "5OiUrTy_d3-S8J_YsKN_M8YxANUV5_TjoEGljxV4iHgtfEwtNHoMfw==",
      "Lang": "es",
      "CaptionKey": "translation",
      "CaptionName": "Traducción",
      "YoutubeSynced": true
    },
    {
      "ID": "SNJq6JDQDiw9mIT3SP0P69tMW8k02YhMBPTxJHbgfcU=",
      "Lang": "et",
      "CaptionKey": "translation",
      "CaptionName": "Tõlge",
      "YoutubeSynced": true
    },
    {
      "ID": "KJxMHV85qeSqlR0k3M_-QPeoOsOeW5RleDPPbFxT8f-PWQTvtCQJwA==",
      "Lang": "eu",
      "CaptionKey": "translation",
      "CaptionName": "Itzulpena",
      "YoutubeSynced": true
    },
    {
      "ID": "jAU9fbh5aUTPxi4K-rwxDIqkyxuj_k9RtE0FIFNgi6QH3Ihh0-JGMw==",
      "Lang": "fa",
      "CaptionKey": "translation",
      "CaptionName": "ترجمه",
      "YoutubeSynced": true
    },
    {
      "ID": "jAU9fbh5aUSk621nBX2FELFc5KgQ4TtjAXPK-irq2ifVmvgweWQnQA==",
      "Lang": "fi",
      "CaptionKey": "translation",
      "CaptionName": "Käännös",
      "YoutubeSynced": true
    },
    {
      "ID": "5OiUrTy_d3-d6M-N4c0_XTMtndyoMoKQeryrYsyD9XBPGeSXEj53jg==",
      "Lang": "fil",
      "CaptionKey": "translation",
      "CaptionName": "Pagsasalin",
      "YoutubeSynced": true
    },
    {
      "ID": "jAU9fbh5aURN6k_2bJ6zo9wXxv028Noop9AV6vHd5nWmNs7dgOtUTg==",
      "Lang": "fr",
      "CaptionKey": "translation",
      "CaptionName": "Traduction",
      "YoutubeSynced": true
    },
    {
      "ID": "jAU9fbh5aUQk0CaEtiFBEtbV6pj6EkLfX65K8R8TfvH78R70YvwgUA==",
      "Lang": "fy",
      "CaptionKey": "translation",
      "CaptionName": "Oersetting",
      "YoutubeSynced": true
    },
    {
      "ID": "0o3pbph25ggyBsAOBscfGeG1dc457p1LNrljjuuAJJOGdqeEmfSJ2G4nDAMd0ORs",
      "Lang": "gd",
      "CaptionKey": "translation",
      "CaptionName": "Eadar-theangachadh",
      "YoutubeSynced": true
    },
    {
      "ID": "jAU9fbh5aUSQYEUangWlc7kREBLe-lxQ-28_b-Y92RuDrW2r3jlbEA==",
      "Lang": "gl",
      "CaptionKey": "translation",
      "CaptionName": "Tradución",
      "YoutubeSynced": true
    },
    {
      "ID": "0o3pbph25ghOKuxyEHI4nnznAIFD-xW4Z7q41olu3e_wMHo6Sb6-4zkq2pFmQkOz",
      "Lang": "gu",
      "CaptionKey": "translation",
      "CaptionName": "અનુવાદ",
      "YoutubeSynced": true
    },
    {
      "ID": "jOghIkaOLFZF2NHzB_nfyhXxE3YD6MKTqaU8LF4zEJNB9Fgga6hXxg==",
      "Lang": "ha",
      "CaptionKey": "translation",
      "CaptionName": "Fassara",
      "YoutubeSynced": true
    },
    {
      "ID": "0o3pbph25gj5PP1hXiDd47q83Bp9-xIQCGiZOOdrG35eI6DS28Yj4uhQCpnhMwbQ",
      "Lang": "hi",
      "CaptionKey": "translation",
      "CaptionName": "अनुवाद",
      "YoutubeSynced": true
    },
    {
      "ID": "4edPGAfVs4sc9eh7f_dJZ_C9CZ6psgXyUdZXFxkEPOjnzOn98mLQyQ==",
      "Lang": "hr",
      "CaptionKey": "translation",
      "CaptionName": "Prijevod",
      "YoutubeSynced": true
    },
    {
      "ID": "jAU9fbh5aURKQizzk4QMLyFwydVvIq45AixNkzZa8rmeuuoRUCflPg==",
      "Lang": "hu",
      "CaptionKey": "translation",
      "CaptionName": "Fordítás",
      "YoutubeSynced": true
    },
    {
      "ID": "6YRVpOTFQZOqpeFZNRIdNCjxOKfqV29W9f_lehPnZO2gyR6ADduRCpHN5xvG7mbtLPbDkMHznSU=",
      "Lang": "hy",
      "CaptionKey": "translation",
      "CaptionName": "Թարգմանություն",
      "YoutubeSynced": true
    },
    {
      "ID": "jAU9fbh5aUQqrjQZynMk0f9IIv79lFIap8fQLjH44MEuGcX0ISNQrA==",
      "Lang": "id",
      "CaptionKey": "translation",
      "CaptionName": "Terjemahan",
      "YoutubeSynced": true
    },
    {
      "ID": "4edPGAfVs4vMfiuxh8hDRhYhQJMhNhCEo78w_nxEcEeSRwzreEHotg==",
      "Lang": "ig",
      "CaptionKey": "translation",
      "CaptionName": "Ntughari",
      "YoutubeSynced": true
    },
    {
      "ID": "KJxMHV85qeQ9pGsse8e55Fq4q7i4FI-ZKJR116dgn0yIb0KY5c6-GQ==",
      "Lang": "is",
      "CaptionKey": "translation",
      "CaptionName": "Þýðing",
      "YoutubeSynced": true
    },
    {
      "ID": "jAU9fbh5aUScA7VXT8uHsNJPmDRET8BAPrJ2xc_muvRtcM2gfAu5Lg==",
      "Lang": "it",
      "CaptionKey": "translation",
      "CaptionName": "Traduzione",
      "YoutubeSynced": true
    },
    {
      "ID": "jAU9fbh5aUS_HhCgMeyioB94Ospjs398Hwk1b9MyGZu9us9CUmzJaQ==",
      "Lang": "iw",
      "CaptionKey": "translation",
      "CaptionName": "תרגום",
      "YoutubeSynced": true
    },
    {
      "ID": "SNJq6JDQDiw16OSlwyPUGaD9eXk0a1qmnI3VZRmHuZc=",
      "Lang": "ja",
      "CaptionKey": "translation",
      "CaptionName": "翻訳",
      "YoutubeSynced": true
    },
    {
      "ID": "KJxMHV85qeRhwpDIvEByw1jsBiiZZYUOcSp-KfzzTKUXroPNysAJVw==",
      "Lang": "jv",
      "CaptionKey": "translation",
      "CaptionName": "Ngartekne",
      "YoutubeSynced": true
    },
    {
      "ID": "O4NKEAKXBguL3L_1WvEq9TlWjjXkVSEoIeiSPgv9EJn-ptLQ9emkdcaNy_7yls1PeQQ4T9RVLiM=",
      "Lang": "ka",
      "CaptionKey": "translation",
      "CaptionName": "თარგმანი",
      "YoutubeSynced": true
    },
    {
      "ID": "fKrUG2zk-Yc08u1uIT9425Au-yL0AftVFdu1-O-M9X0VZyLiryrjTg==",
      "Lang": "kk",
      "CaptionKey": "translation",
      "CaptionName": "Аударма",
      "YoutubeSynced": true
    },
    {
      "ID": "i70wNpm4Pq2pb0lyfPImGdnp0s3PQFuJnuNAFeJ9CyyVBsC6pAMjHSzlD6CfUPPt2MyvdwqWoAU=",
      "Lang": "km",
      "CaptionKey": "translation",
      "CaptionName": "ការបកប្រែ",
      "YoutubeSynced": true
    },
    {
      "ID": "0o3pbph25ghnse9F9U8QS0TmuPtSE3SlLr11LHEblQCYZZ5lriXSGbe36J8wvULr",
      "Lang": "kn",
      "CaptionKey": "translation",
      "CaptionName": "ಅನುವಾದ",
      "YoutubeSynced": true
    },
    {
      "ID": "SNJq6JDQDiz0HBVPpt7ceAyLGN0enR8A4_bMxYbu7Sg=",
      "Lang": "ko",
      "CaptionKey": "translation",
      "CaptionName": "번역",
      "YoutubeSynced": true
    },
    {
      "ID": "SNJq6JDQDiwW5FgstgZsquflookC6h_Kcfr6OrkdJN0=",
      "Lang": "ku",
      "CaptionKey": "translation",
      "CaptionName": "Werger",
      "YoutubeSynced": true
    },
    {
      "ID": "fKrUG2zk-YeZfI4Q4grXStXilTR01UkRcRcnMQ-OjskB-37MqP4HHA==",
      "Lang": "ky",
      "CaptionKey": "translation",
      "CaptionName": "котормо",
      "YoutubeSynced": true
    },
    {
      "ID": "jLFk-NuPpxZQN55Si6lVCJnFdEzgy9Y47Ca0Xtzvr6aMAykISX_cfQ==",
      "Lang": "lb",
      "CaptionKey": "translation",
      "CaptionName": "Iwwersetzung",
      "YoutubeSynced": true
    },
    {
      "ID": "i70wNpm4Pq2qzcA2nbwHJA9k1mPMNnQ6pqB0gVj0_15QfRaHqHeF1MAJtWS2IxzBbe22aBeE9TU=",
      "Lang": "lo",
      "CaptionKey": "translation",
      "CaptionName": "ການແປພາສາ",
      "YoutubeSynced": true
    },
    {
      "ID": "4edPGAfVs4ucs8Or6xJ-ZRHPI4AP66vTl4HVcXtRaMchmQ_GCcJveQ==",
      "Lang": "lt",
      "CaptionKey": "translation",
      "CaptionName": "Vertimas",
      "YoutubeSynced": true
    },
    {
      "ID": "jAU9fbh5aUQgtKKhWKI_Gmub401CZx8wDjFHgVslNSdyKPAWKxUxlw==",
      "Lang": "lv",
      "CaptionKey": "translation",
      "CaptionName": "Tulkošana",
      "YoutubeSynced": true
    },
    {
      "ID": "5OiUrTy_d3-frkDVcrQL5Ns0ApMs2EpBYf2dPohSQoZt7PgK3XrCeQ==",
      "Lang": "mg",
      "CaptionKey": "translation",
      "CaptionName": "Translation",
      "YoutubeSynced": true
    },
    {
      "ID": "qTuVgy-kZdGT6mKqxjg6n6kfDVzMFnvoU31c-AOPnb8yd0cqg6ew5PAlw_BrUXNw",
      "Lang": "mi",
      "CaptionKey": "translation",
      "CaptionName": "Whakamaoritanga",
      "YoutubeSynced": true
    },
    {
      "ID": "jLFk-NuPpxYFh6d9zapPCh6FdGdwZyHXuA6OKB7EHnm38PzcZX6dVA==",
      "Lang": "mk",
      "CaptionKey": "translation",
      "CaptionName": "Превод",
      "YoutubeSynced": true
    },
    {
      "ID": "i70wNpm4Pq0l63hPBoe7LL4uDr4XaBrKz6dJVQAmFCGtslnUAZh2NFiNj1X3rLKmsg1xb1iae2k=",
      "Lang": "ml",
      "CaptionKey": "translation",
      "CaptionName": "വിവർത്തനം",
      "YoutubeSynced": true
    },
    {
      "ID": "9b42BBbZ75JrTjKFF9FowbpFebgSxvxEGOMEadF_QP5JS-9tX_9E5aRrnkBvyAt_",
      "Lang": "mn",
      "CaptionKey": "translation",
      "CaptionName": "Орчуулга",
      "YoutubeSynced": true
    },
    {
      "ID": "MoRaunm73c1YgxlomLOSJI6lO8wnSbXDi9fAnyFgkDQGvrgTQTbjt4lPJOGe1gU3",
      "Lang": "mr",
      "CaptionKey": "translation",
      "CaptionName": "भाषांतर",
      "YoutubeSynced": true
    },
    {
      "ID": "jAU9fbh5aUTNJ_5hoJ6Ctl_mVAm8iqITuLRBFEq-C1XZxvMBO8QyrA==",
      "Lang": "ms",
      "CaptionKey": "translation",
      "CaptionName": "Terjemahan",
      "YoutubeSynced": true
    },
    {
      "ID": "5OiUrTy_d38OuVg8AnGRLlO3pZfXzbSM5wycZ-WBIxR9HLT0fh9WtQ==",
      "Lang": "mt",
      "CaptionKey": "translation",
      "CaptionName": "Traduzzjoni",
      "YoutubeSynced": true
    },
    {
      "ID": "O4NKEAKXBgsTbKMJtjHQ9KMNzZQHfy4OL0Zg3HZOdkcNKIHnYCkoKn1S8XTOcfb3v3z317mCxSU=",
      "Lang": "my",
      "CaptionKey": "translation",
      "CaptionName": "ဘာသာပြန်",
      "YoutubeSynced": true
    },
    {
      "ID": "0o3pbph25gioX1q0bTQucVF2eF67Ha97JT1rFQQhYMljxGuEVuKXDF4Gm8fiyzOE",
      "Lang": "ne",
      "CaptionKey": "translation",
      "CaptionName": "अनुवाद",
      "YoutubeSynced": true
    },
    {
      "ID": "KJxMHV85qeQtGGWiuilP1EDyNsfwqbEAZdHdJhqz974Xx3oKnbD8OQ==",
      "Lang": "nl",
      "CaptionKey": "translation",
      "CaptionName": "Vertaling",
      "YoutubeSynced": true
    },
    {
      "ID": "jLFk-NuPpxYBk7mq0i__o6eQGoDE1pOmfEPYkdxzUZWuiM16DhJXRQ==",
      "Lang": "no",
      "CaptionKey": "translation",
      "CaptionName": "Oversettelse",
      "YoutubeSynced": true
    },
    {
      "ID": "0o3pbph25gjNs5XgeEJEerTxZeTAaNvNBNB6dbABSEYO8uGpb2Qg7NjneqnKBYIZ",
      "Lang": "pa",
      "CaptionKey": "translation",
      "CaptionName": "ਅਨੁਵਾਦ",
      "YoutubeSynced": true
    },
    {
      "ID": "jLFk-NuPpxavdoeUfrk4171NhSOkjJi-E97yj_QpOPTVUVpdp-8ooA==",
      "Lang": "pl",
      "CaptionKey": "translation",
      "CaptionName": "Tłumaczenie",
      "YoutubeSynced": true
    },
    {
      "ID": "jAU9fbh5aUSthGauT5ZmzcdlEiIl26eJn2wTdfv6yFR0l7wBGP3oXg==",
      "Lang": "ps",
      "CaptionKey": "translation",
      "CaptionName": "ژباړه",
      "YoutubeSynced": true
    },
    {
      "ID": "jAU9fbh5aUTldCJe0plAaaseL-FEhQcGNvnq0yPMUvlrA0KeygS5jw==",
      "Lang": "pt",
      "CaptionKey": "translation",
      "CaptionName": "Tradução",
      "YoutubeSynced": true
    },
    {
      "ID": "KJxMHV85qeSRk5jbt7nktyebr-qyKTQY_W5OEsVeRiGRFK1k1qnYkQ==",
      "Lang": "ro",
      "CaptionKey": "translation",
      "CaptionName": "Traducere",
      "YoutubeSynced": true
    },
    {
      "ID": "fKrUG2zk-YdUrvfqZWawN778cBXU9rBX2kgY8Ju5gNYCH0vSKrYmIA==",
      "Lang": "ru",
      "CaptionKey": "translation",
      "CaptionName": "Перевод",
      "YoutubeSynced": true
    },
    {
      "ID": "jAU9fbh5aUT1TgnB2Vhb5Exsqd1E5bUzi4usnahZBniUglbN1XLk4Q==",
      "Lang": "sd",
      "CaptionKey": "translation",
      "CaptionName": "ترجمو",
      "YoutubeSynced": true
    },
    {
      "ID": "i70wNpm4Pq194KYkyUsmI9qW1mKwBx4YnxqZv-1i5UDZ-aNak5bi6qppoo9sKnGam_oQXjE6_9w=",
      "Lang": "si",
      "CaptionKey": "translation",
      "CaptionName": "පරිවර්තනය",
      "YoutubeSynced": true
    },
    {
      "ID": "jOghIkaOLFZ7njEK2d5op4dF2ougZ6BlrrAbN3OAL2V8hM3QOy8fUg==",
      "Lang": "sk",
      "CaptionKey": "translation",
      "CaptionName": "preklad",
      "YoutubeSynced": true
    },
    {
      "ID": "SNJq6JDQDixP9YpWIveVIU7IlJ5es40BYvs0cnidaos=",
      "Lang": "sl",
      "CaptionKey": "translation",
      "CaptionName": "Prevod",
      "YoutubeSynced": true
    },
    {
      "ID": "jLFk-NuPpxaaGZ9e6RVeAMnlDiuVet_785WvcXvPoUG6yN0d1soctQ==",
      "Lang": "sm",
      "CaptionKey": "translation",
      "CaptionName": "Faʻaliliuga",
      "YoutubeSynced": true
    },
    {
      "ID": "jOghIkaOLFZaEhB3FRFrQQunyMbiVm8R1T7i2ckhtLx2r0SI3AIVHw==",
      "Lang": "sn",
      "CaptionKey": "translation",
      "CaptionName": "Dudziro",
      "YoutubeSynced": true
    },
    {
      "ID": "KJxMHV85qeSp4LJNJPSJPdV_B0GAbkbEtWjas8FFAYoQq034jMW1mg==",
      "Lang": "so",
      "CaptionKey": "translation",
      "CaptionName": "Tarjumida",
      "YoutubeSynced": true
    },
    {
      "ID": "KJxMHV85qeSbVgxqgCOH5OAQKSrS0zIYWiCITi1_y4p2duLvxVqLzA==",
      "Lang": "sq",
      "CaptionKey": "translation",
      "CaptionName": "përkthim",
      "YoutubeSynced": true
    },
    {
      "ID": "jLFk-NuPpxYaMU0aRUq1lHDllxiZ-eO8qvlnk9gOZNfd7TY-YTZV7Q==",
      "Lang": "sr",
      "CaptionKey": "translation",
      "CaptionName": "Превод",
      "YoutubeSynced": true
    },
    {
      "ID": "KJxMHV85qeQk-dBRh58es2HK4-Sjp3LoSH_NUtwvNhCPhB3BYRbKUw==",
      "Lang": "st",
      "CaptionKey": "translation",
      "CaptionName": "Phetolelo",
      "YoutubeSynced": true
    },
    {
      "ID": "jAU9fbh5aURBIhQerULsAQdEfoEa5P_KSB4gYhK2m3sVZPKADhwwcQ==",
      "Lang": "su",
      "CaptionKey": "translation",
      "CaptionName": "Tarjamahan",
      "YoutubeSynced": true
    },
    {
      "ID": "fKrUG2zk-YdE-S046bj6Rv89oJIBpmEPE0SkqJRhdBQHoZrUt9JHSg==",
      "Lang": "sv",
      "CaptionKey": "translation",
      "CaptionName": "Översättning",
      "YoutubeSynced": true
    },
    {
      "ID": "jOghIkaOLFZ5iY3vMDt3KTYCzH9odwBlMeiUmWxuoRO2pga0tfYq8Q==",
      "Lang": "sw",
      "CaptionKey": "translation",
      "CaptionName": "Tafsiri",
      "YoutubeSynced": true
    },
    {
      "ID": "EUL8dbhEPGRKU-9OCTLv2LEfbBstKmondp35T9jPCjOfh9u529-oMkdQ-AOOAb1gesHCXBdQ6Zf3Q9166cRUXH1vrsrrp4Bc",
      "Lang": "ta",
      "CaptionKey": "translation",
      "CaptionName": "மொழிபெயர்ப்பு",
      "YoutubeSynced": true
    },
    {
      "ID": "MoRaunm73c2VjbqJ1F5N_QOhEVolwM6w05qcwnlvxzMJVoVJ5kExjU5kef5q0ugU",
      "Lang": "te",
      "CaptionKey": "translation",
      "CaptionName": "అనువాదం",
      "YoutubeSynced": true
    },
    {
      "ID": "fKrUG2zk-Yc-CYXpynZI-Fy7B3TWpxaullo_4aweD8REqe1R-hJNRQ==",
      "Lang": "tg",
      "CaptionKey": "translation",
      "CaptionName": "Тарҷума",
      "YoutubeSynced": true
    },
    {
      "ID": "0o3pbph25gjHo-3Q1w_NYKMBpEJt7caZi7PGod9hnWT69K9Wisi8YO5sEaTfGxRO",
      "Lang": "th",
      "CaptionKey": "translation",
      "CaptionName": "การแปล",
      "YoutubeSynced": true
    },
    {
      "ID": "4edPGAfVs4vbwOnJyWHCWBaGf-6Bz_kIC0_rZLTITPaGQ4MIpotxhw==",
      "Lang": "tr",
      "CaptionKey": "translation",
      "CaptionName": "Tercüme",
      "YoutubeSynced": true
    },
    {
      "ID": "9b42BBbZ75LOoA5vodBC3LznebzTpNjAoXIkNcr2TJEhwMFlAjaAYof0xVAOo8HN",
      "Lang": "uk",
      "CaptionKey": "translation",
      "CaptionName": "Переклад",
      "YoutubeSynced": true
    },
    {
      "ID": "jAU9fbh5aUTdG2Id81G_dTSqGwdF8IuCMLZt_Kdqr4wH1tkmdxCUSw==",
      "Lang": "ur",
      "CaptionKey": "translation",
      "CaptionName": "ترجمہ",
      "YoutubeSynced": true
    },
    {
      "ID": "jOghIkaOLFZKjTW_BKxi1qL40Ls31OoDHNegxMG7FggEqgHgGAEx0A==",
      "Lang": "uz",
      "CaptionKey": "translation",
      "CaptionName": "Tarjima",
      "YoutubeSynced": true
    },
    {
      "ID": "SNJq6JDQDiw4C3ldDeWfM2l82OowMIF2-8_vcIBkgT8=",
      "Lang": "vi",
      "CaptionKey": "translation",
      "CaptionName": "Dịch",
      "YoutubeSynced": true
    },
    {
      "ID": "jAU9fbh5aUQIV-9CD4q1-X6eO3KhpKq4QwsljpKyhdqCdu9uNylxnw==",
      "Lang": "xh",
      "CaptionKey": "translation",
      "CaptionName": "Inguqulelo",
      "YoutubeSynced": true
    },
    {
      "ID": "Tu1oihavlrp0k8zzyWcOIegrhboavgn4EVmlnUwdpI91v2u6oY163pgjik2lsE6L",
      "Lang": "yi",
      "CaptionKey": "translation",
      "CaptionName": "איבערזעצונג",
      "YoutubeSynced": true
    },
    {
      "ID": "jOghIkaOLFbufUUknyWKxkMm9UOkGboFQ5iaCozRpTPcwTbBqT_yfQ==",
      "Lang": "yo",
      "CaptionKey": "translation",
      "CaptionName": "Itumọ",
      "YoutubeSynced": true
    },
    {
      "ID": "5OiUrTy_d38CL_QV9uaF3wnKxNMLsv1aqlXtvy3YlYw1Dmf_0fFsGQ==",
      "Lang": "zh-Hans",
      "CaptionKey": "translation",
      "CaptionName": "翻译",
      "YoutubeSynced": true
    },
    {
      "ID": "5OiUrTy_d38CL_QV9uaF33XMu-yrIoXUIZHG-PLJAvQQg220M39NbA==",
      "Lang": "zh-Hant",
      "CaptionKey": "translation",
      "CaptionName": "翻譯",
      "YoutubeSynced": true
    },
    {
      "ID": "jAU9fbh5aUQOtzLsW6RSLAzRb9jSC_IZaAPsP3Wh7cuHAIHgPv8JVQ==",
      "Lang": "zu",
      "CaptionKey": "translation",
      "CaptionName": "Ukuhumusha",
      "YoutubeSynced": true
    }
  ]
}