{
  "VideoFile": "grammar-en-beginner-simple_98_A.mp4",
  "Captions": [
    {
      "ID": "l5XXCmHwaQMuUQ0NZd7W8kXNNH18wZcu4np5tmMtSXXmBfbBV_Nv2Q==",
      "Lang": "af",
      "CaptionKey": "translation",
      "CaptionName": "vertaling",
      "YoutubeSynced": true
    },
    {
      "ID": "lKXZZRTfvSDphBHszB_5rsxFux7nAZKzNjtjPcCveuVgJTb0AH0KFA==",
      "Lang": "am",
      "CaptionKey": "translation",
      "CaptionName": "ትርጉም",
      "YoutubeSynced": true
    },
    {
      "ID": "ncIf6q_ZEYw3uxa6JLx38Gz2sHlZXASWkUZ1eUizNPwN1C8Eqm-Kdg==",
      "Lang": "ar",
      "CaptionKey": "translation",
      "CaptionName": "ترجمة",
      "YoutubeSynced": true
    },
    {
      "ID": "ncIf6q_ZEYxT4s1I7R6s2rPS2BZgLUAtczw2w7gfe_Ue_579dziEqA==",
      "Lang": "az",
      "CaptionKey": "translation",
      "CaptionName": "Tərcümə",
      "YoutubeSynced": true
    },
    {
      "ID": "KjD1Oe48F6g2bJmn33McZGI4YKzj8GjBYDKDdG49WR6fwmKi7rHjXDiLLlzSG2Xb",
      "Lang": "be",
      "CaptionKey": "translation",
      "CaptionName": "Пераклад",
      "YoutubeSynced": true
    },
    {
      "ID": "lKXZZRTfvSDyitcEaBzXWt7-wxEJ7QB0DUNhgShCyUMluVBd9qx77Q==",
      "Lang": "bg",
      "CaptionKey": "translation",
      "CaptionName": "превод",
      "YoutubeSynced": true
    },
    {
      "ID": "vddcfPAYag-oZfC9QpjFJIE61mIPOcDfv5UDIfUper8GpVR_T04xj07Zpj7G4C0A",
      "Lang": "bn",
      "CaptionKey": "translation",
      "CaptionName": "অনুবাদ",
      "YoutubeSynced": true
    },
    {
      "ID": "cnScPCkr8j7GEtO6UfU14_Yq2UU37o6OQtGJn5F_4Eo=",
      "Lang": "bs",
      "CaptionKey": "translation",
      "CaptionName": "Prevod",
      "YoutubeSynced": true
    },
    {
      "ID": "ncIf6q_ZEYx6V378EjtkVcTstlo0gHuFxZn5SAOVkmpKpfEGqvHN0Q==",
      "Lang": "ca",
      "CaptionKey": "translation",
      "CaptionName": "Traducció",
      "YoutubeSynced": true
    },
    {
      "ID": "ncIf6q_ZEYzbopA6DnzBVpujSp-YSbs0_uLBGsfAjfrqmYYAfmF-iQ==",
      "Lang": "co",
      "CaptionKey": "translation",
      "CaptionName": "Traduzione",
      "YoutubeSynced": true
    },
    {
      "ID": "acnLaMu6pPWk0hLT6dNO_uUd7QSQYLa9u5G80QJkbiMjUvkUUliGUQ==",
      "Lang": "cs",
      "CaptionKey": "translation",
      "CaptionName": "Překlad",
      "YoutubeSynced": true
    },
    {
      "ID": "nsqLlglVxnrK0UfWuu2XRD8FGdnnZrKdghpcoTZXKNZJH28_3KxNoA==",
      "Lang": "cy",
      "CaptionKey": "translation",
      "CaptionName": "Cyfieithiad",
      "YoutubeSynced": true
    },
    {
      "ID": "_-1vQ0IplePTbjaX4UI02JHqALKFaXj6JWg4ni50ynz6KEdYEpWAHg==",
      "Lang": "da",
      "CaptionKey": "translation",
      "CaptionName": "Oversættelse",
      "YoutubeSynced": true
    },
    {
      "ID": "lKXZZRTfvSCWK-Yy6i0l8SeuEztymz0QclEfrSGuwxQK-bmvuhHA_w==",
      "Lang": "de",
      "CaptionKey": "translation",
      "CaptionName": "Übersetzung",
      "YoutubeSynced": true
    },
    {
      "ID": "vddcfPAYag-vAUsyrFoabhaYzgicjebiYHnsK_0TzoHAIL3eDL7iKKmCw1QJSEG5",
      "Lang": "el",
      "CaptionKey": "translation",
      "CaptionName": "Μετάφραση",
      "YoutubeSynced": true
    },
    {
      "ID": "nsqLlglVxnoJ74jbTOdcLF12lJoUYtNidM-hCHhAqWRW1W_bX7yGVA==",
      "Lang": "en",
      "CaptionKey": "translation",
      "CaptionName": "Translation",
      "YoutubeSynced": true
    },
    {
      "ID": "SX-5aCidBd-CXxnbifSJaiSJvUj6KKuP2ipkn8mQwQv2gbo8ysdQV02eNlpcCP3V",
      "Lang": "en",
      "CaptionKey": "ruby",
      "CaptionName": "Pronunciation - IPA",
      "YoutubeSynced": true
    },
    {
      "ID": "nsqLlglVxnoiB9TBUjnDHtPn6svryqZhCwSV3l6ADNoXBDkXZw2YGA==",
      "Lang": "es",
      "CaptionKey": "translation",
      "CaptionName": "Traducción",
      "YoutubeSynced": true
    },
    {
      "ID": "cnScPCkr8j7TVT64KDyMOyV0lK_ztYxgxrWYIseRkos=",
      "Lang": "et",
      "CaptionKey": "translation",
      "CaptionName": "Tõlge",
      "YoutubeSynced": true
    },
    {
      "ID": "l5XXCmHwaQMXGvLuIQYLxwiXSR9n8nogkNpv5tnvvd9tCNtsJr0kMA==",
      "Lang": "eu",
      "CaptionKey": "translation",
      "CaptionName": "Itzulpena",
      "YoutubeSynced": true
    },
    {
      "ID": "ncIf6q_ZEYwxYYtbD2ZdAPgiUgpkUi1hA4dTWBkhsrv6nmcDQdkYZA==",
      "Lang": "fa",
      "CaptionKey": "translation",
      "CaptionName": "ترجمه",
      "YoutubeSynced": true
    },
    {
      "ID": "ncIf6q_ZEYyd9Q_p1QWW37JmKL_3PYN4zVB6L8VtO1MtebEty8TjbQ==",
      "Lang": "fi",
      "CaptionKey": "translation",
      "CaptionName": "Käännös",
      "YoutubeSynced": true
    },
    {
      "ID": "nsqLlglVxnqqsHQX8zmKn_buOnuViS-gEVC0T6a1hYEysxuHe44Ayw==",
      "Lang": "fil",
      "CaptionKey": "translation",
      "CaptionName": "Pagsasalin",
      "YoutubeSynced": true
    },
    {
      "ID": "ncIf6q_ZEYxOKwz2H3VK-BRPJRRGLJNSaIXVbDAsC_zB8iPsnjOG_A==",
      "Lang": "fr",
      "CaptionKey": "translation",
      "CaptionName": "Traduction",
      "YoutubeSynced": true
    },
    {
      "ID": "ncIf6q_ZEYyAB3FS1wydN8Zl67frYDnmmLcEs1YSNc6s-NpyA8d1pA==",
      "Lang": "fy",
      "CaptionKey": "translation",
      "CaptionName": "Oersetting",
      "YoutubeSynced": true
    },
    {
      "ID": "vddcfPAYag_NC_kFP5YcbdGMRXtwRQk-qpiasSkdn4hy_hq8qr6ZpkJclLegbMli",
      "Lang": "gd",
      "CaptionKey": "translation",
      "CaptionName": "Eadar-theangachadh",
      "YoutubeSynced": true
    },
    {
      "ID": "ncIf6q_ZEYxkAkTH8En9S7iP8y7DyHUxr6wVkyNGtcL68wiOuE_4IQ==",
      "Lang": "gl",
      "CaptionKey": "translation",
      "CaptionName": "Tradución",
      "YoutubeSynced": true
    },
    {
      "ID": "vddcfPAYag9Y5M15C3UBLiauKKB2W0CAgdZZTdGY6r5QUWhUvU05ZJOms10pfIAJ",
      "Lang": "gu",
      "CaptionKey": "translation",
      "CaptionName": "અનુવાદ",
      "YoutubeSynced": true
    },
    {
      "ID": "UGP_75teIGFkiBqoajruKDkDw_SLBwTtyHo2uT3p483iW81gs6t_zg==",
      "Lang": "ha",
      "CaptionKey": "translation",
      "CaptionName": "Fassara",
      "YoutubeSynced": true
    },
    {
      "ID": "vddcfPAYag8HCG_clUw1Ti08Keddvmf2_wr-FAx2onEy-1y0HZV-8hlWMWpazjvo",
      "Lang": "hi",
      "CaptionKey": "translation",
      "CaptionName": "अनुवाद",
      "YoutubeSynced": true
    },
    {
      "ID": "acnLaMu6pPUWaVnSXoRf3fSy7Iz2tLeUhJF1kTr9xztOt2mSI_jr3w==",
      "Lang": "hr",
      "CaptionKey": "translation",
      "CaptionName": "Prijevod",
      "YoutubeSynced": true
    },
    {
      "ID": "ncIf6q_ZEYweHiQ6f9RWOv_3LaXMczy7ErTIN5ZECPnppPP64BeLdA==",
      "Lang": "hu",
      "CaptionKey": "translation",
      "CaptionName": "Fordítás",
      "YoutubeSynced": true
    },
    {
      "ID": "nvRf5ps3ZTdHUXPDb2dC_Znx6CQUiWNbe_K-nk7ZDtH3PH6_V8syGY5xdV1T4yDmjqTYQbDsXTw=",
      "Lang": "hy",
      "CaptionKey": "translation",
      "CaptionName": "Թարգմանություն",
      "YoutubeSynced": true
    },
    {
      "ID": "ncIf6q_ZEYxnvq3g3lW5H6ruTu97PtrxP4WLCwxso55Jf77p_HFISw==",
      "Lang": "id",
      "CaptionKey": "translation",
      "CaptionName": "Terjemahan",
      "YoutubeSynced": true
    },
    {
      "ID": "acnLaMu6pPUt4PTb28ASXnvBfXdsqXZr48iCYkTbTo-Mz3tVVfOvrA==",
      "Lang": "ig",
      "CaptionKey": "translation",
      "CaptionName": "Ntughari",
      "YoutubeSynced": true
    },
    {
      "ID": "l5XXCmHwaQNEtm7NvoD4tfLfy0GOn4JcDkAag9uy7TEVnbTkA9i5Tg==",
      "Lang": "is",
      "CaptionKey": "translation",
      "CaptionName": "Þýðing",
      "YoutubeSynced": true
    },
    {
      "ID": "ncIf6q_ZEYzPFJ6Ll7vAYULU4hkrXujXF-qo_CXgFLRmvf7NDg6tlQ==",
      "Lang": "it",
      "CaptionKey": "translation",
      "CaptionName": "Traduzione",
      "YoutubeSynced": true
    },
    {
      "ID": "ncIf6q_ZEYyhJHLvwsh7IftHEfc-SrTw9zoaLfIeGVgauApEfnb1zg==",
      "Lang": "iw",
      "CaptionKey": "translation",
      "CaptionName": "תרגום",
      "YoutubeSynced": true
    },
    {
      "ID": "cnScPCkr8j6u5aaxBHIStb7lBQv4xs8lwq5oHUa9lWU=",
      "Lang": "ja",
      "CaptionKey": "translation",
      "CaptionName": "翻訳",
      "YoutubeSynced": true
    },
    {
      "ID": "l5XXCmHwaQOKrqip6nKSAlcjILuuWlfE89gXS1gf0SSsBs-QUT_36Q==",
      "Lang": "jv",
      "CaptionKey": "translation",
      "CaptionName": "Ngartekne",
      "YoutubeSynced": true
    },
    {
      "ID": "zmCQ319sox6Df4UacBvi0sFm2JFLQqIPy7vAHDAzrTHdzFEjL9gT1XpXJnwny7uwvXY8lyX5KMs=",
      "Lang": "ka",
      "CaptionKey": "translation",
      "CaptionName": "თარგმანი",
      "YoutubeSynced": true
    },
    {
      "ID": "k_2QOmdmFa1nuvnvaddft_xg8XpIpwDVNBnSUWHxSPzeN82Ep0PtWA==",
      "Lang": "kk",
      "CaptionKey": "translation",
      "CaptionName": "Аударма",
      "YoutubeSynced": true
    },
    {
      "ID": "FiShlR7p4Pg4SWHtVdnuIDCODI9zzuKX7plu1yb8DlyW_XP2jDpOuR3F3pSpnkAXoRxTKuu2PVU=",
      "Lang": "km",
      "CaptionKey": "translation",
      "CaptionName": "ការបកប្រែ",
      "YoutubeSynced": true
    },
    {
      "ID": "vddcfPAYag8FmYc0btWe1TjqRpRGWpDW5uWvPoce0WIQXS9sd7wlMZXU1bxaoazk",
      "Lang": "kn",
      "CaptionKey": "translation",
      "CaptionName": "ಅನುವಾದ",
      "YoutubeSynced": true
    },
    {
      "ID": "cnScPCkr8j5w7IR2gLABxKPGcQ7UFovMEiuSnQ-BRV8=",
      "Lang": "ko",
      "CaptionKey": "translation",
      "CaptionName": "번역",
      "YoutubeSynced": true
    },
    {
      "ID": "cnScPCkr8j4RUHMs7-STt-8b3oKXCoXAUIQ1Rqx_db4=",
      "Lang": "ku",
      "CaptionKey": "translation",
      "CaptionName": "Werger",
      "YoutubeSynced": true
    },
    {
      "ID": "k_2QOmdmFa2U882peRWpvKRzP641HjrKed3CpAds2-tgyw17SOLvFQ==",
      "Lang": "ky",
      "CaptionKey": "translation",
      "CaptionName": "котормо",
      "YoutubeSynced": true
    },
    {
      "ID": "lKXZZRTfvSB_liaiVUBvjs3gMIPklF-yA4G1T15NOaREEvbyMV_ySg==",
      "Lang": "lb",
      "CaptionKey": "translation",
      "CaptionName": "Iwwersetzung",
      "YoutubeSynced": true
    },
    {
      "ID": "FiShlR7p4PjcpWLGa76njqMck73XEOjSeFGnvm60vYOGnn-I8_J2egUj9HRbKkc8sb-Hewwb1z8=",
      "Lang": "lo",
      "CaptionKey": "translation",
      "CaptionName": "ການແປພາສາ",
      "YoutubeSynced": true
    },
    {
      "ID": "acnLaMu6pPXYN7DTac95V-X_hNzxWwDqZSpiWooE6S2Wx0L1U5zHsw==",
      "Lang": "lt",
      "CaptionKey": "translation",
      "CaptionName": "Vertimas",
      "YoutubeSynced": true
    },
    {
      "ID": "ncIf6q_ZEYz0__QS9j8ezC-56_WISNJLxQczW4LCWa4yTzMdKw05_g==",
      "Lang": "lv",
      "CaptionKey": "translation",
      "CaptionName": "Tulkošana",
      "YoutubeSynced": true
    },
    {
      "ID": "nsqLlglVxnqxm81mXLiri2qDiA0jxEPFm7tlGe-evnG-aIcxzM7Oug==",
      "Lang": "mg",
      "CaptionKey": "translation",
      "CaptionName": "Translation",
      "YoutubeSynced": true
    },
    {
      "ID": "pbNQ-2aqdUJXjEYeFLECQ1fZlPmWo4r8KhsOD9NWuJeMOJf1aAJbz35CkYS_vTL3",
      "Lang": "mi",
      "CaptionKey": "translation",
      "CaptionName": "Whakamaoritanga",
      "YoutubeSynced": true
    },
    {
      "ID": "lKXZZRTfvSC-Cwr8FNW3JyRC7gQqNlMzvZmskQ2KHm2LhZH2G3RmeA==",
      "Lang": "mk",
      "CaptionKey": "translation",
      "CaptionName": "Превод",
      "YoutubeSynced": true
    },
    {
      "ID": "FiShlR7p4Pjk-qeWE4HwRzFuyZn3yB342_uk6UnlpjVYfxVFLUlfT7m32lbd7uQfBKpKCadCM1w=",
      "Lang": "ml",
      "CaptionKey": "translation",
      "CaptionName": "വിവർത്തനം",
      "YoutubeSynced": true
    },
    {
      "ID": "KjD1Oe48F6iHnNuCD4NnxSBVyz0f9yjb-2toAkXHfkj76n8CbD2IxVDEaBFuupYX",
      "Lang": "mn",
      "CaptionKey": "translation",
      "CaptionName": "Орчуулга",
      "YoutubeSynced": true
    },
    {
      "ID": "QS0MhtdUduJ7JNW0b1JLLO0aCuAKSyxzWYUCJqVAXtSqwBVoRJQRoF_BWU1HenOa",
      "Lang": "mr",
      "CaptionKey": "translation",
      "CaptionName": "भाषांतर",
      "YoutubeSynced": true
    },
    {
      "ID": "ncIf6q_ZEYxbGRpq4V9Td2ei0WuM1wCJaQp-cvNaJTurQmTjHmAkQw==",
      "Lang": "ms",
      "CaptionKey": "translation",
      "CaptionName": "Terjemahan",
      "YoutubeSynced": true
    },
    {
      "ID": "nsqLlglVxnrpAG4rSho8YYtzNFNB0od1K87pJKn_utvO1KGZNQlNDQ==",
      "Lang": "mt",
      "CaptionKey": "translation",
      "CaptionName": "Traduzzjoni",
      "YoutubeSynced": true
    },
    {
      "ID": "zmCQ319sox7OATFrig4a63xbh38a6egFmDHVPFhGGKR8AtNpAGwgMYSqnbx_QJteRNTMh3A9uDE=",
      "Lang": "my",
      "CaptionKey": "translation",
      "CaptionName": "ဘာသာပြန်",
      "YoutubeSynced": true
    },
    {
      "ID": "vddcfPAYag9yIH1OC6y2ruMuKrbUtMdyxbLnooMWqVhwUDi799no1MHN_ggvWBsE",
      "Lang": "ne",
      "CaptionKey": "translation",
      "CaptionName": "अनुवाद",
      "YoutubeSynced": true
    },
    {
      "ID": "l5XXCmHwaQOST6iCqnFJkZndOCLYu6kq_EO3C6Zl-4-m-VMSH_hc8Q==",
      "Lang": "nl",
      "CaptionKey": "translation",
      "CaptionName": "Vertaling",
      "YoutubeSynced": true
    },
    {
      "ID": "lKXZZRTfvSD6Z3ykoHDiMpRYbm7VFxag_TNwPkhAWtp0i3pDdDVPQA==",
      "Lang": "no",
      "CaptionKey": "translation",
      "CaptionName": "Oversettelse",
      "YoutubeSynced": true
    },
    {
      "ID": "vddcfPAYag-7Zw0MD2ASas7wnV29zdM1znclE6PYnhjFdsgs5DiQIOeU263k7Wyh",
      "Lang": "pa",
      "CaptionKey": "translation",
      "CaptionName": "ਅਨੁਵਾਦ",
      "YoutubeSynced": true
    },
    {
      "ID": "lKXZZRTfvSBLZCZ1ZCdVGt4YFlpEu1RGkQFHE6tKG6DA4JAf1CYARw==",
      "Lang": "pl",
      "CaptionKey": "translation",
      "CaptionName": "Tłumaczenie",
      "YoutubeSynced": true
    },
    {
      "ID": "ncIf6q_ZEYzs5A8NOzWDJw1mfyCF-5D1WpevYp8ejTEx9qb1H14OAQ==",
      "Lang": "ps",
      "CaptionKey": "translation",
      "CaptionName": "ژباړه",
      "YoutubeSynced": true
    },
    {
      "ID": "ncIf6q_ZEYw4wFVpw367tdwQop_srUSyAxs7XJy6dC314RdZMLyf3g==",
      "Lang": "pt",
      "CaptionKey": "translation",
      "CaptionName": "Tradução",
      "YoutubeSynced": true
    },
    {
      "ID": "l5XXCmHwaQOqjG6WmPH9irBrAJ1nRoZyZOAfeLSJh2vVjCFMNpxaAA==",
      "Lang": "ro",
      "CaptionKey": "translation",
      "CaptionName": "Traducere",
      "YoutubeSynced": true
    },
    {
      "ID": "k_2QOmdmFa3L7s68E6x1nHAiR016djJ3Av9VS1zvz81GgjK4s8d_ug==",
      "Lang": "ru",
      "CaptionKey": "translation",
      "CaptionName": "Перевод",
      "YoutubeSynced": true
    },
    {
      "ID": "ncIf6q_ZEYx9fPN7qEVFwWZjyFqjPsPsfEXryj9NQbz0KsJ3yAuAgw==",
      "Lang": "sd",
      "CaptionKey": "translation",
      "CaptionName": "ترجمو",
      "YoutubeSynced": true
    },
    {
      "ID": "FiShlR7p4PhaUpMDZQrtaA23LavK5XaHSMWXtSVtzNuVjRYfqn3ovlVAOPJxUngq8lQjsuvbI2k=",
      "Lang": "si",
      "CaptionKey": "translation",
      "CaptionName": "පරිවර්තනය",
      "YoutubeSynced": true
    },
    {
      "ID": "UGP_75teIGF_ipBlXUFDCOaQuQoJSJCAwFi-poiwrn5OOdt1NT3Ulg==",
      "Lang": "sk",
      "CaptionKey": "translation",
      "CaptionName": "preklad",
      "YoutubeSynced": true
    },
    {
      "ID": "cnScPCkr8j56Jw8KOYQpfbnEVAitSqJzZYbIs4lTCfg=",
      "Lang": "sl",
      "CaptionKey": "translation",
      "CaptionName": "Prevod",
      "YoutubeSynced": true
    },
    {
      "ID": "lKXZZRTfvSAEa_k0iUs4xhPK2n-CWaTSAwSMkMI5SvaOd_y3nsA3Rg==",
      "Lang": "sm",
      "CaptionKey": "translation",
      "CaptionName": "Faʻaliliuga",
      "YoutubeSynced": true
    },
    {
      "ID": "UGP_75teIGE7GXVKSwtB9-Z1vjyqUgWYoXB7zeuSu472LaG7yO6UIg==",
      "Lang": "sn",
      "CaptionKey": "translation",
      "CaptionName": "Dudziro",
      "YoutubeSynced": true
    },
    {
      "ID": "l5XXCmHwaQNl2IJIqpX1SykfP4-rNic3iTxuGNzZJeRVs-iWilDswA==",
      "Lang": "so",
      "CaptionKey": "translation",
      "CaptionName": "Tarjumida",
      "YoutubeSynced": true
    },
    {
      "ID": "l5XXCmHwaQO4D_PvEOgqihSOE48X45Nz-OlWt4baSf8-g0PnfcuY5Q==",
      "Lang": "sq",
      "CaptionKey": "translation",
      "CaptionName": "përkthim",
      "YoutubeSynced": true
    },
    {
      "ID": "lKXZZRTfvSDWx_FuWkv_FmX8utzamdN_Rz3CNvVC0TnR2FbdvcB0Dw==",
      "Lang": "sr",
      "CaptionKey": "translation",
      "CaptionName": "Превод",
      "YoutubeSynced": true
    },
    {
      "ID": "l5XXCmHwaQOfuFsZF-eWalyGLrbDUC-ehQ-ceogb7IZaxt_IeKWpdw==",
      "Lang": "st",
      "CaptionKey": "translation",
      "CaptionName": "Phetolelo",
      "YoutubeSynced": true
    },
    {
      "ID": "ncIf6q_ZEYxgCLuDMJad5m080IaX-LeUmvhwMHSRdWbcETp7TNNMbQ==",
      "Lang": "su",
      "CaptionKey": "translation",
      "CaptionName": "Tarjamahan",
      "YoutubeSynced": true
    },
    {
      "ID": "k_2QOmdmFa3LeMRphy7A8axVBskYqpDNwyQDMzDTTkozsLIUurXJGg==",
      "Lang": "sv",
      "CaptionKey": "translation",
      "CaptionName": "Översättning",
      "YoutubeSynced": true
    },
    {
      "ID": "UGP_75teIGGazEgxeJIcVTBM6AebosH3QAmkUtA9bCKv4v0-4NehGw==",
      "Lang": "sw",
      "CaptionKey": "translation",
      "CaptionName": "Tafsiri",
      "YoutubeSynced": true
    },
    {
      "ID": "rqIB1JKNfimbAaAPwqgTik2PzD3GxY5BuSfTiFuqF7Q1TXM5zaEYkXp-ZaVXkE8EcB1XfgxItSqNXEhESL0CCUtH8qs3voPr",
      "Lang": "ta",
      "CaptionKey": "translation",
      "CaptionName": "மொழிபெயர்ப்பு",
      "YoutubeSynced": true
    },
    {
      "ID": "QS0MhtdUduKmDT8AuSPEw2fIBtaygszDDoft7koAo2NkSLDgBxDcn2xqHbsUYOic",
      "Lang": "te",
      "CaptionKey": "translation",
      "CaptionName": "అనువాదం",
      "YoutubeSynced": true
    },
    {
      "ID": "k_2QOmdmFa2_CX2-RE_R58UvqAn2SMfU1gLOItjA3E2NCe_XZM28aQ==",
      "Lang": "tg",
      "CaptionKey": "translation",
      "CaptionName": "Тарҷума",
      "YoutubeSynced": true
    },
    {
      "ID": "vddcfPAYag89dn3hyWg8Fuo8p202Xb24kvSjkff5pcHXvFWsacG-5yuE1pmeG1Mf",
      "Lang": "th",
      "CaptionKey": "translation",
      "CaptionName": "การแปล",
      "YoutubeSynced": true
    },
    {
      "ID": "acnLaMu6pPXlNeBH0ohzUJyaMNlJRjwoxUhQuxMwEUphoiU3QKFGSw==",
      "Lang": "tr",
      "CaptionKey": "translation",
      "CaptionName": "Tercüme",
      "YoutubeSynced": true
    },
    {
      "ID": "KjD1Oe48F6ieZFrhZxG-5NIIW77GD9X9vw9Ljsswwv384Lz60pXxvSUtFe6cJ63A",
      "Lang": "uk",
      "CaptionKey": "translation",
      "CaptionName": "Переклад",
      "YoutubeSynced": true
    },
    {
      "ID": "ncIf6q_ZEYyDFeb3qu2CvhiFxaySqHm-brEm-u7yL3Ue91dsoaxiOQ==",
      "Lang": "ur",
      "CaptionKey": "translation",
      "CaptionName": "ترجمہ",
      "YoutubeSynced": true
    },
    {
      "ID": "UGP_75teIGE6sgCd_Oqyjzq0fKexqwOtosvvfNxYNAPGPeOHIZW-Lg==",
      "Lang": "uz",
      "CaptionKey": "translation",
      "CaptionName": "Tarjima",
      "YoutubeSynced": true
    },
    {
      "ID": "cnScPCkr8j60vN9_VVe6ruKEJlxu5Zz_twHg2teZjow=",
      "Lang": "vi",
      "CaptionKey": "translation",
      "CaptionName": "Dịch",
      "YoutubeSynced": true
    },
    {
      "ID": "ncIf6q_ZEYyaLycDJGwXzM4KmI8x_KFYrBKvsTy46c8o32ITRCKYVw==",
      "Lang": "xh",
      "CaptionKey": "translation",
      "CaptionName": "Inguqulelo",
      "YoutubeSynced": true
    },
    {
      "ID": "vbCOs9eeGKFs5UXmzxWpivp5gbVnMcbFV384jZT-OPmPauUJlvS0UUDbgt2z1zqN",
      "Lang": "yi",
      "CaptionKey": "translation",
      "CaptionName": "איבערזעצונג",
      "YoutubeSynced": true
    },
    {
      "ID": "UGP_75teIGGtGLEttDqJYqnOyLtE7hBMZgDIZdHM986em8yuzRrMww==",
      "Lang": "yo",
      "CaptionKey": "translation",
      "CaptionName": "Itumọ",
      "YoutubeSynced": true
    },
    {
      "ID": "nsqLlglVxnpyG5-2sRgT1gd9W3h9fw2PBNJdwkXq4q7GVyIOXmv_Vw==",
      "Lang": "zh-Hans",
      "CaptionKey": "translation",
      "CaptionName": "翻译",
      "YoutubeSynced": true
    },
    {
      "ID": "nsqLlglVxnpyG5-2sRgT1u5e1ujfS6_Zwk8l0jhICEHG0SoUoyrmbw==",
      "Lang": "zh-Hant",
      "CaptionKey": "translation",
      "CaptionName": "翻譯",
      "YoutubeSynced": true
    },
    {
      "ID": "ncIf6q_ZEYxrDdFKOD7sH2gCZs19VQ2ga9wpYZD0kw6HQQewt7pMXA==",
      "Lang": "zu",
      "CaptionKey": "translation",
      "CaptionName": "Ukuhumusha",
      "YoutubeSynced": true
    }
  ]
}