{
  "VideoFile": "grammar-en-beginner-simple_38_A.mp4",
  "Captions": [
    {
      "ID": "9nSukuqdqN-YStU0FVMvhvZM2PzUt5j6CiyNgOBHtUyMXHpzUUeV6g==",
      "Lang": "af",
      "CaptionKey": "translation",
      "CaptionName": "vertaling",
      "YoutubeSynced": true
    },
    {
      "ID": "b-aViWWkmj7GSVVo5EuIxQx_m1n1QZ18zg_b9gc7K1vJ_fkW1P3f8g==",
      "Lang": "am",
      "CaptionKey": "translation",
      "CaptionName": "ትርጉም",
      "YoutubeSynced": true
    },
    {
      "ID": "RiJVhBhiKFL3NBJ71zbhWXSll-a-ZLr864gxEppCCkts3ahqTvXnXw==",
      "Lang": "ar",
      "CaptionKey": "translation",
      "CaptionName": "ترجمة",
      "YoutubeSynced": true
    },
    {
      "ID": "RiJVhBhiKFJduNNcgfSgK1Cze87dxODwr6E-tbAzvLfmyGCaIqt6WA==",
      "Lang": "az",
      "CaptionKey": "translation",
      "CaptionName": "Tərcümə",
      "YoutubeSynced": true
    },
    {
      "ID": "IkbDqcusBabEZ0XYT9CJybS0OcFNZWRbb1n88i-2GbCaG9mT51ajBCOoSdmE0Vux",
      "Lang": "be",
      "CaptionKey": "translation",
      "CaptionName": "Пераклад",
      "YoutubeSynced": true
    },
    {
      "ID": "b-aViWWkmj733YB1ea6CV9ng8VshtAPz0CtYoYJUFIHBa0Rs8METMQ==",
      "Lang": "bg",
      "CaptionKey": "translation",
      "CaptionName": "превод",
      "YoutubeSynced": true
    },
    {
      "ID": "U-m3PkLEzbSsh9V5FKKQOHVI0MC0QtJKC8C5z5maYsnXVY2iFWo4naotwFWl_pAA",
      "Lang": "bn",
      "CaptionKey": "translation",
      "CaptionName": "অনুবাদ",
      "YoutubeSynced": true
    },
    {
      "ID": "WR0XmO04bXcp_rtm_ncu4-BIzls3Mn6srrg9oopeedo=",
      "Lang": "bs",
      "CaptionKey": "translation",
      "CaptionName": "Prevod",
      "YoutubeSynced": true
    },
    {
      "ID": "RiJVhBhiKFIX661PV5xQcde6RUvM7hu7WZKsWg4BdJsoN2OVICwBgQ==",
      "Lang": "ca",
      "CaptionKey": "translation",
      "CaptionName": "Traducció",
      "YoutubeSynced": true
    },
    {
      "ID": "RiJVhBhiKFLGqJtj_OHhRSH-6J7bHdCxRy67UO5ew2d-p1VbSyniuQ==",
      "Lang": "co",
      "CaptionKey": "translation",
      "CaptionName": "Traduzione",
      "YoutubeSynced": true
    },
    {
      "ID": "3dDL6VzCAInnLuoM8mEwxtNhuGArA3jyEIX08d2vBT81aq67ZA_h2Q==",
      "Lang": "cs",
      "CaptionKey": "translation",
      "CaptionName": "Překlad",
      "YoutubeSynced": true
    },
    {
      "ID": "9scjJOTPdUx7GlbZVjBMGIlAmdi4sdK2XEyf4BugQcwv5rT4hhkZcw==",
      "Lang": "cy",
      "CaptionKey": "translation",
      "CaptionName": "Cyfieithiad",
      "YoutubeSynced": true
    },
    {
      "ID": "FHYJcOM28AOPK3xnX5TXYDv_CUUQj7mqRajSmDHOHfjYGZ-zVJxUVA==",
      "Lang": "da",
      "CaptionKey": "translation",
      "CaptionName": "Oversættelse",
      "YoutubeSynced": true
    },
    {
      "ID": "b-aViWWkmj7G-_SVxI8MXiROtBgzwm7y6mbIh7SwWCATpSy48wiQnw==",
      "Lang": "de",
      "CaptionKey": "translation",
      "CaptionName": "Übersetzung",
      "YoutubeSynced": true
    },
    {
      "ID": "U-m3PkLEzbT-Xb_-O0EqNi9xNgC73WgWnbIWcqIQeeZXaSIz_cwUIeAJ2Mx4r5PU",
      "Lang": "el",
      "CaptionKey": "translation",
      "CaptionName": "Μετάφραση",
      "YoutubeSynced": true
    },
    {
      "ID": "9scjJOTPdUzhMTv4AZX32kv-B8VSFk8l7YwQJ48ua-UWEdu1-GHSgw==",
      "Lang": "en",
      "CaptionKey": "translation",
      "CaptionName": "Translation",
      "YoutubeSynced": true
    },
    {
      "ID": "nreC8Srytxi12WvyeV7opzD-l6vp0VSHMsV-jU4ad8AVqSHO_kQrnmFqS72rMd5h",
      "Lang": "en",
      "CaptionKey": "ruby",
      "CaptionName": "Pronunciation - IPA",
      "YoutubeSynced": true
    },
    {
      "ID": "9scjJOTPdUyZ9M7livLgA7-kuzxGB8gpeU_chaL8PhXrmKexG1884Q==",
      "Lang": "es",
      "CaptionKey": "translation",
      "CaptionName": "Traducción",
      "YoutubeSynced": true
    },
    {
      "ID": "WR0XmO04bXc1rPpSDPHvLFUtbhucl2F6itCByw6wmIg=",
      "Lang": "et",
      "CaptionKey": "translation",
      "CaptionName": "Tõlge",
      "YoutubeSynced": true
    },
    {
      "ID": "9nSukuqdqN-U3rS9rcriXEm1jfCqP-8LU-MWX2heP8yTPClzTT3pnw==",
      "Lang": "eu",
      "CaptionKey": "translation",
      "CaptionName": "Itzulpena",
      "YoutubeSynced": true
    },
    {
      "ID": "RiJVhBhiKFIRU-EdLQNHbkdME60uSWULYIUDfE38E3TZnfP8GneJwQ==",
      "Lang": "fa",
      "CaptionKey": "translation",
      "CaptionName": "ترجمه",
      "YoutubeSynced": true
    },
    {
      "ID": "RiJVhBhiKFK4noZV17VXc4ahMiYfGppjT2fYcR9PNP1IosYrb3r7Gg==",
      "Lang": "fi",
      "CaptionKey": "translation",
      "CaptionName": "Käännös",
      "YoutubeSynced": true
    },
    {
      "ID": "9scjJOTPdUw2OLYMwJFrbwKhzOHFIFfb0YhsDxJ2YK7H2lJvgTKKtg==",
      "Lang": "fil",
      "CaptionKey": "translation",
      "CaptionName": "Pagsasalin",
      "YoutubeSynced": true
    },
    {
      "ID": "RiJVhBhiKFI6RftNKqSDOS6ZwKhFvlzQ21Mtv1qiruHnvqEfi2sM6Q==",
      "Lang": "fr",
      "CaptionKey": "translation",
      "CaptionName": "Traduction",
      "YoutubeSynced": true
    },
    {
      "ID": "RiJVhBhiKFJfrAIY7uQTGrNDLp5co-7PrldA45v-SHeL8-OoHGRmWQ==",
      "Lang": "fy",
      "CaptionKey": "translation",
      "CaptionName": "Oersetting",
      "YoutubeSynced": true
    },
    {
      "ID": "U-m3PkLEzbSl07E-4-w1oVT2XJBF-5w7p8DR90LwqDHAY9Eb5Vp1Y4wkIrfNZgLR",
      "Lang": "gd",
      "CaptionKey": "translation",
      "CaptionName": "Eadar-theangachadh",
      "YoutubeSynced": true
    },
    {
      "ID": "RiJVhBhiKFJuztzc153NqSY-m191ymXS-08QZRWU1Hc_x6r6hEsqiw==",
      "Lang": "gl",
      "CaptionKey": "translation",
      "CaptionName": "Tradución",
      "YoutubeSynced": true
    },
    {
      "ID": "U-m3PkLEzbRn-jFYUWZsYUb-IH5qIDZUrIJcFQFyaAlKdwKaIOeGk8-Qc8eyt4Bq",
      "Lang": "gu",
      "CaptionKey": "translation",
      "CaptionName": "અનુવાદ",
      "YoutubeSynced": true
    },
    {
      "ID": "XoJ6JeYY9hrE0lZ62YOWz5P6EXOetResT4jdG-fqe900zBDKJifhzA==",
      "Lang": "ha",
      "CaptionKey": "translation",
      "CaptionName": "Fassara",
      "YoutubeSynced": true
    },
    {
      "ID": "U-m3PkLEzbS_ByWpZZlvG0WS7qZ9-Ui0h42pTDziqeeXtO1OvJspUfY54k7P-nN_",
      "Lang": "hi",
      "CaptionKey": "translation",
      "CaptionName": "अनुवाद",
      "YoutubeSynced": true
    },
    {
      "ID": "3dDL6VzCAIk6gSVq3kO6Ns15zQ0O22aZ9oiaYr-sVoM9gnjIEZAICQ==",
      "Lang": "hr",
      "CaptionKey": "translation",
      "CaptionName": "Prijevod",
      "YoutubeSynced": true
    },
    {
      "ID": "RiJVhBhiKFLJmispJyQ6J1aN0GPy6KUDIIbsPOlURzUUNF2MJ6YZnw==",
      "Lang": "hu",
      "CaptionKey": "translation",
      "CaptionName": "Fordítás",
      "YoutubeSynced": true
    },
    {
      "ID": "pfJOpUBaBo1wWyyVwwDP0pm5BfwGgKxjZdpuf_Kzur-5Kxf6qDLxtlzlZ6LASLtNfXiZ7tc641c=",
      "Lang": "hy",
      "CaptionKey": "translation",
      "CaptionName": "Թարգմանություն",
      "YoutubeSynced": true
    },
    {
      "ID": "RiJVhBhiKFI_fczTbj_bUbyNN9YGPXh0NZccqqsB73QUGPX9N0Olzg==",
      "Lang": "id",
      "CaptionKey": "translation",
      "CaptionName": "Terjemahan",
      "YoutubeSynced": true
    },
    {
      "ID": "3dDL6VzCAImcMdPWe_eg5LrRmeGSGku_acT_o8hQUygX7eJg4xsjYQ==",
      "Lang": "ig",
      "CaptionKey": "translation",
      "CaptionName": "Ntughari",
      "YoutubeSynced": true
    },
    {
      "ID": "9nSukuqdqN9wDq1khpP9rwx9XtsSssjgDvGATt5UK_h6eJ_MSXvEqQ==",
      "Lang": "is",
      "CaptionKey": "translation",
      "CaptionName": "Þýðing",
      "YoutubeSynced": true
    },
    {
      "ID": "RiJVhBhiKFIWnT5JBISnfwB7h4XKGd_ppXe50sRc7cvi0dDIuqwHNw==",
      "Lang": "it",
      "CaptionKey": "translation",
      "CaptionName": "Traduzione",
      "YoutubeSynced": true
    },
    {
      "ID": "RiJVhBhiKFKpbc3JCRr6yDd0qRDiGu3Z8xaVR6ZVrAz_TBnxwkicLw==",
      "Lang": "iw",
      "CaptionKey": "translation",
      "CaptionName": "תרגום",
      "YoutubeSynced": true
    },
    {
      "ID": "WR0XmO04bXdMwbDbzKEqgqiYbjVI8LIysKpm06BALXQ=",
      "Lang": "ja",
      "CaptionKey": "translation",
      "CaptionName": "翻訳",
      "YoutubeSynced": true
    },
    {
      "ID": "9nSukuqdqN9CZAmKNdQN3-adSBg_RQ6TDNK6KBXEXuminyO8I3TuSQ==",
      "Lang": "jv",
      "CaptionKey": "translation",
      "CaptionName": "Ngartekne",
      "YoutubeSynced": true
    },
    {
      "ID": "uic7ngpoN2ZZClJHWLSTXj9HIqV1frYXCEK5dfae4rwm06i_Pu9kr0jrdYSrFJ8NbiljtbmkmII=",
      "Lang": "ka",
      "CaptionKey": "translation",
      "CaptionName": "თარგმანი",
      "YoutubeSynced": true
    },
    {
      "ID": "BP5baQaU4ikH71J7XlAiBWG114bVH4p0BBP7VBcCdIf473dc1rRTRQ==",
      "Lang": "kk",
      "CaptionKey": "translation",
      "CaptionName": "Аударма",
      "YoutubeSynced": true
    },
    {
      "ID": "E_D5nuyJ4FxQXlxM-agJETt7xpBUb_1O9lAyWCqndOojZF5-E6gNa30H-Cb8hF7bhIT_-7UDl2k=",
      "Lang": "km",
      "CaptionKey": "translation",
      "CaptionName": "ការបកប្រែ",
      "YoutubeSynced": true
    },
    {
      "ID": "U-m3PkLEzbQbH2Q_INN9FISApZWMrjxFdrdjg0OQyc3f6b7fxk-X1x0WD8AGsvaE",
      "Lang": "kn",
      "CaptionKey": "translation",
      "CaptionName": "ಅನುವಾದ",
      "YoutubeSynced": true
    },
    {
      "ID": "WR0XmO04bXcMR_KFBwaqVVGZQleg9_xYiVyjZ_f3rQc=",
      "Lang": "ko",
      "CaptionKey": "translation",
      "CaptionName": "번역",
      "YoutubeSynced": true
    },
    {
      "ID": "WR0XmO04bXdZ8KwPN-OdGxsMCZz3tM9RnpYOn1hRn6I=",
      "Lang": "ku",
      "CaptionKey": "translation",
      "CaptionName": "Werger",
      "YoutubeSynced": true
    },
    {
      "ID": "BP5baQaU4il8QrJ79RHMTrM09rufPvsqZUV0tIm_D__X3ImQBa9oFA==",
      "Lang": "ky",
      "CaptionKey": "translation",
      "CaptionName": "котормо",
      "YoutubeSynced": true
    },
    {
      "ID": "b-aViWWkmj74LvIV67HHCePnFN0esNXdDGFAn3ZZQDnaJ4M4YSR9tw==",
      "Lang": "lb",
      "CaptionKey": "translation",
      "CaptionName": "Iwwersetzung",
      "YoutubeSynced": true
    },
    {
      "ID": "E_D5nuyJ4FzrDSgY-hUNWlkMGm-Tk2ZzqDeYdaNxOB1kfcGA16bbqNcUMy-G4ceZcld7Re26PBk=",
      "Lang": "lo",
      "CaptionKey": "translation",
      "CaptionName": "ການແປພາສາ",
      "YoutubeSynced": true
    },
    {
      "ID": "3dDL6VzCAImoCirTbS3QApjlHvBNJKr0eo6oSVL-mwdkAJieUPoaog==",
      "Lang": "lt",
      "CaptionKey": "translation",
      "CaptionName": "Vertimas",
      "YoutubeSynced": true
    },
    {
      "ID": "RiJVhBhiKFJu821lS0pjtKdF7g7krDNskuufvYt-YlaEqV6ZpVyuzQ==",
      "Lang": "lv",
      "CaptionKey": "translation",
      "CaptionName": "Tulkošana",
      "YoutubeSynced": true
    },
    {
      "ID": "9scjJOTPdUxkLvNWIqpVG3-yw59WxqNbZmLljfO2rL2jA3yXqDR3QA==",
      "Lang": "mg",
      "CaptionKey": "translation",
      "CaptionName": "Translation",
      "YoutubeSynced": true
    },
    {
      "ID": "VgrQZl9RiQMrzkkokmzmz-Dk5KQCe6IwKmTekop3XOhv_6HIYqsHrJDhETt41sRz",
      "Lang": "mi",
      "CaptionKey": "translation",
      "CaptionName": "Whakamaoritanga",
      "YoutubeSynced": true
    },
    {
      "ID": "b-aViWWkmj4JUrL7T43En2uf99OUmxZFHCM_xLZXMxhLFVTWUfc9_w==",
      "Lang": "mk",
      "CaptionKey": "translation",
      "CaptionName": "Превод",
      "YoutubeSynced": true
    },
    {
      "ID": "E_D5nuyJ4FzIg14VZlE7waOAGdzFwZ5nWWDMWPbliksQUGTI8DvILPh20D7tMzgVr_jmE1_9rAA=",
      "Lang": "ml",
      "CaptionKey": "translation",
      "CaptionName": "വിവർത്തനം",
      "YoutubeSynced": true
    },
    {
      "ID": "IkbDqcusBabngR-msAZFFSl-QQTAedzM0N2venoku9HFvgW2diNQW_wi3115QjU_",
      "Lang": "mn",
      "CaptionKey": "translation",
      "CaptionName": "Орчуулга",
      "YoutubeSynced": true
    },
    {
      "ID": "whXHR1mW_kbC06G6C-IvG3Dk5AIpQShz4_TT-C_GKUEqXtXeVgDnJASZyG31LEwX",
      "Lang": "mr",
      "CaptionKey": "translation",
      "CaptionName": "भाषांतर",
      "YoutubeSynced": true
    },
    {
      "ID": "RiJVhBhiKFKj7BRAnnhpyvsVZ0cZ4ns8unHNmYyBC_LBPCLe5kwnbA==",
      "Lang": "ms",
      "CaptionKey": "translation",
      "CaptionName": "Terjemahan",
      "YoutubeSynced": true
    },
    {
      "ID": "9scjJOTPdUxcwAF-y-HALuI2MlW-wWmCfPrq33fir6YT57Cajt-D0g==",
      "Lang": "mt",
      "CaptionKey": "translation",
      "CaptionName": "Traduzzjoni",
      "YoutubeSynced": true
    },
    {
      "ID": "uic7ngpoN2bDyJTSzMPDQlQLym262AYllIEjfXRYM-y2G6J68UTdSPIk-xycN93BEtO7W2nuaq0=",
      "Lang": "my",
      "CaptionKey": "translation",
      "CaptionName": "ဘာသာပြန်",
      "YoutubeSynced": true
    },
    {
      "ID": "U-m3PkLEzbS3miDpzRrzuyaVkWVuIOd1lKcosMZK10DH-jrks21eo-8rd3tt2B1q",
      "Lang": "ne",
      "CaptionKey": "translation",
      "CaptionName": "अनुवाद",
      "YoutubeSynced": true
    },
    {
      "ID": "9nSukuqdqN9eiaPcw7v4i-9QkPjmrpKsDNoakuN3FHEKNCcLST27nA==",
      "Lang": "nl",
      "CaptionKey": "translation",
      "CaptionName": "Vertaling",
      "YoutubeSynced": true
    },
    {
      "ID": "b-aViWWkmj5J1Ro6JAnyXSdQjUFqHzzW3ndDftYcuVyjs2_d9pi33w==",
      "Lang": "no",
      "CaptionKey": "translation",
      "CaptionName": "Oversettelse",
      "YoutubeSynced": true
    },
    {
      "ID": "U-m3PkLEzbTinBlXvBZYiZ47fjQhyQLy7PH49ju--kTeMtd7LAWAZVFBzATJEVhJ",
      "Lang": "pa",
      "CaptionKey": "translation",
      "CaptionName": "ਅਨੁਵਾਦ",
      "YoutubeSynced": true
    },
    {
      "ID": "b-aViWWkmj5VrkKiecnpz5MvRJbo6EKRefDk2Pl0P5GKmts3ufgSYg==",
      "Lang": "pl",
      "CaptionKey": "translation",
      "CaptionName": "Tłumaczenie",
      "YoutubeSynced": true
    },
    {
      "ID": "RiJVhBhiKFL667VCi3YmT3ClUXdy2EgYlP5PSJNvPZ2Kz-TCLX-rKg==",
      "Lang": "ps",
      "CaptionKey": "translation",
      "CaptionName": "ژباړه",
      "YoutubeSynced": true
    },
    {
      "ID": "RiJVhBhiKFIK5iP_QyuocSucKVfyYCCZE1MX5KxaZiqE3oNF-laePw==",
      "Lang": "pt",
      "CaptionKey": "translation",
      "CaptionName": "Tradução",
      "YoutubeSynced": true
    },
    {
      "ID": "9nSukuqdqN_53OElcF2kqejV7-HCh4v__f9liQuDdFnwd7EPhla24Q==",
      "Lang": "ro",
      "CaptionKey": "translation",
      "CaptionName": "Traducere",
      "YoutubeSynced": true
    },
    {
      "ID": "BP5baQaU4im5ghFBIEMpAp8z2sDAAxny7q7BykA9Kg1AtsYxKbYlOg==",
      "Lang": "ru",
      "CaptionKey": "translation",
      "CaptionName": "Перевод",
      "YoutubeSynced": true
    },
    {
      "ID": "RiJVhBhiKFIrHdF9BolA84fs5MtSJTx7d0Nk52OayUOc3aRLVcAHsg==",
      "Lang": "sd",
      "CaptionKey": "translation",
      "CaptionName": "ترجمو",
      "YoutubeSynced": true
    },
    {
      "ID": "E_D5nuyJ4Fwz9gGTu934WfGpQ8Bf1NT6LbIUTbCdAyEnNzDnRNxxxZTvcwp-2kXxjyel7rl90Qk=",
      "Lang": "si",
      "CaptionKey": "translation",
      "CaptionName": "පරිවර්තනය",
      "YoutubeSynced": true
    },
    {
      "ID": "XoJ6JeYY9hqT46cb61cj-43515SKxVLzcT6VJMKcPY4jB0u1quohhg==",
      "Lang": "sk",
      "CaptionKey": "translation",
      "CaptionName": "preklad",
      "YoutubeSynced": true
    },
    {
      "ID": "WR0XmO04bXdmmpTitTWRlEGbrxCdj9-SFLOio4Jygx8=",
      "Lang": "sl",
      "CaptionKey": "translation",
      "CaptionName": "Prevod",
      "YoutubeSynced": true
    },
    {
      "ID": "b-aViWWkmj7cHHoKv590R_-7l88eWMuHSoecKYx5Me3jjSop33m2CA==",
      "Lang": "sm",
      "CaptionKey": "translation",
      "CaptionName": "Faʻaliliuga",
      "YoutubeSynced": true
    },
    {
      "ID": "XoJ6JeYY9hpJDB5LPv6zXEUyNBqJGV-eS0LXE7kn8084xf7vN3YBHg==",
      "Lang": "sn",
      "CaptionKey": "translation",
      "CaptionName": "Dudziro",
      "YoutubeSynced": true
    },
    {
      "ID": "9nSukuqdqN8yVvKxv9aE-JckwaGyMwizHSzkziQwaTF7nGfUlJha2A==",
      "Lang": "so",
      "CaptionKey": "translation",
      "CaptionName": "Tarjumida",
      "YoutubeSynced": true
    },
    {
      "ID": "9nSukuqdqN-hyWbxnBIr2n9mJRNONOYvtgCAKQYfHTvyv7tnzRARkg==",
      "Lang": "sq",
      "CaptionKey": "translation",
      "CaptionName": "përkthim",
      "YoutubeSynced": true
    },
    {
      "ID": "b-aViWWkmj4_t5_JeF42JcdKGLttZxMcQdJ9DJ13JXsOgY0hLLmHZQ==",
      "Lang": "sr",
      "CaptionKey": "translation",
      "CaptionName": "Превод",
      "YoutubeSynced": true
    },
    {
      "ID": "9nSukuqdqN_MX_RORNT9tG9VgYdUxM4rwwzW6tovcfYO3xzbhamqrA==",
      "Lang": "st",
      "CaptionKey": "translation",
      "CaptionName": "Phetolelo",
      "YoutubeSynced": true
    },
    {
      "ID": "RiJVhBhiKFL9_kyPNTHTfsOpC2tYImMkp6f3IJCJKAT_NhfCVoLjQA==",
      "Lang": "su",
      "CaptionKey": "translation",
      "CaptionName": "Tarjamahan",
      "YoutubeSynced": true
    },
    {
      "ID": "BP5baQaU4imP46l1xnS1BwubanE5rMNsWu09Khw0nf8qTZ_EKe2RJQ==",
      "Lang": "sv",
      "CaptionKey": "translation",
      "CaptionName": "Översättning",
      "YoutubeSynced": true
    },
    {
      "ID": "XoJ6JeYY9hpxqSXQn7XZAb559x_hMhYnLhPAPfwGZoWi9pewsEPpXw==",
      "Lang": "sw",
      "CaptionKey": "translation",
      "CaptionName": "Tafsiri",
      "YoutubeSynced": true
    },
    {
      "ID": "JaXsM-SvjnkpWSIvtqb8ULjSdO190n3CwCN8c_D9SbVtOuqoU68Ou9pNK_tOGOkPA9Rewliy4X5tVx1Byj9CO7dsFb7V-2pC",
      "Lang": "ta",
      "CaptionKey": "translation",
      "CaptionName": "மொழிபெயர்ப்பு",
      "YoutubeSynced": true
    },
    {
      "ID": "whXHR1mW_ka1FpoqIJkBDiKt0w0MQRPf9a6ay7mMT8beAMR2sesDx_fT5W1sbe6D",
      "Lang": "te",
      "CaptionKey": "translation",
      "CaptionName": "అనువాదం",
      "YoutubeSynced": true
    },
    {
      "ID": "BP5baQaU4innENgbVoH1tf9p18Wti9_D5J51PTgpr3qpJXdWW9mCng==",
      "Lang": "tg",
      "CaptionKey": "translation",
      "CaptionName": "Тарҷума",
      "YoutubeSynced": true
    },
    {
      "ID": "U-m3PkLEzbStWQClEOROuPpFA6jsGh8Ho-eo3TSsiN37rdVxS2k_Ce8ImJfBuknD",
      "Lang": "th",
      "CaptionKey": "translation",
      "CaptionName": "การแปล",
      "YoutubeSynced": true
    },
    {
      "ID": "3dDL6VzCAIlDM7HaqjB-LbnlA_pV1weHPgeq760wvIOVLmoM_CyQag==",
      "Lang": "tr",
      "CaptionKey": "translation",
      "CaptionName": "Tercüme",
      "YoutubeSynced": true
    },
    {
      "ID": "IkbDqcusBaa8Zod0X_bJMhtXHyRHowPNF7Klc8kki29C0NxtLwUC4LIs4iZEuKRC",
      "Lang": "uk",
      "CaptionKey": "translation",
      "CaptionName": "Переклад",
      "YoutubeSynced": true
    },
    {
      "ID": "RiJVhBhiKFKWiVUCH8TRXM0vporXRpNqBhFK5Bq48MqGU_co1UhhUg==",
      "Lang": "ur",
      "CaptionKey": "translation",
      "CaptionName": "ترجمہ",
      "YoutubeSynced": true
    },
    {
      "ID": "XoJ6JeYY9hpWYzOAF0uCEh2GCY7fbKh0QIfGD2rr5w-tcWHW-jAFtg==",
      "Lang": "uz",
      "CaptionKey": "translation",
      "CaptionName": "Tarjima",
      "YoutubeSynced": true
    },
    {
      "ID": "WR0XmO04bXckrBRMY8r8S6eaV5lR88_JAFHBrqG_BDw=",
      "Lang": "vi",
      "CaptionKey": "translation",
      "CaptionName": "Dịch",
      "YoutubeSynced": true
    },
    {
      "ID": "RiJVhBhiKFLPT7Udi7IW-leM2RHwtKMZh9yMgJ0RE4MPVfJ9soBZrQ==",
      "Lang": "xh",
      "CaptionKey": "translation",
      "CaptionName": "Inguqulelo",
      "YoutubeSynced": true
    },
    {
      "ID": "xXWmXDequWLSoLdh7XrBNS-kZx_6GYigeIQBdtvU7zXvTYRo4NkVZsl2usXn8_po",
      "Lang": "yi",
      "CaptionKey": "translation",
      "CaptionName": "איבערזעצונג",
      "YoutubeSynced": true
    },
    {
      "ID": "XoJ6JeYY9hpxtqP6Bs7iS5fJv-bY1L1lLIKXF8YHjyTVQCNUIP83ag==",
      "Lang": "yo",
      "CaptionKey": "translation",
      "CaptionName": "Itumọ",
      "YoutubeSynced": true
    },
    {
      "ID": "9scjJOTPdUyM6nQ41b-AU1h5IOEkdRvZoHSfUjmpuGvNW6cRfpn3hw==",
      "Lang": "zh-Hans",
      "CaptionKey": "translation",
      "CaptionName": "翻译",
      "YoutubeSynced": true
    },
    {
      "ID": "9scjJOTPdUyM6nQ41b-AU9OfM4pELR-_SUOcOgYH6H5r9hUUeXO_Cw==",
      "Lang": "zh-Hant",
      "CaptionKey": "translation",
      "CaptionName": "翻譯",
      "YoutubeSynced": true
    },
    {
      "ID": "RiJVhBhiKFJvqvOh-DgFHQGw70j_HDX7co5tXCWeqBd3OhY6VVVRvQ==",
      "Lang": "zu",
      "CaptionKey": "translation",
      "CaptionName": "Ukuhumusha",
      "YoutubeSynced": true
    }
  ]
}