{
  "VideoFile": "grammar-en-beginner-simple_47_UK.mp4",
  "Captions": [
    {
      "ID": "V0-n7g8SeA8P7bPlvmclzMnCbIQerd1WkPr32tVh6r7c-q2F5voOuw==",
      "Lang": "af",
      "CaptionKey": "translation",
      "CaptionName": "vertaling",
      "YoutubeSynced": true
    },
    {
      "ID": "qVzf9x7r3RO7-dhRNwl-Mw6u_a1qU7I0E_NaDuYdZdhh_TDltQnHEg==",
      "Lang": "am",
      "CaptionKey": "translation",
      "CaptionName": "ትርጉም",
      "YoutubeSynced": true
    },
    {
      "ID": "BLriOouHkM41Tvtku6UbUxCN3Tli4TZl_LjHQpvmGRUUzlbnsQQaZw==",
      "Lang": "ar",
      "CaptionKey": "translation",
      "CaptionName": "ترجمة",
      "YoutubeSynced": true
    },
    {
      "ID": "BLriOouHkM4uxwhuXskDPNQDGEI_3JaVaMcfSgGQnTcPV1OUWEuHhA==",
      "Lang": "az",
      "CaptionKey": "translation",
      "CaptionName": "Tərcümə",
      "YoutubeSynced": true
    },
    {
      "ID": "O437-6PYGpmharmFhBOtEtZC0wWtNZyfAJOS_nxZAKzf0B9rFPbdm9uhj22of7_z",
      "Lang": "be",
      "CaptionKey": "translation",
      "CaptionName": "Пераклад",
      "YoutubeSynced": true
    },
    {
      "ID": "qVzf9x7r3RMn5vO0iorjd0tCYM8uYcuUnFCwBhzQ5tjDbtK-bP_3hg==",
      "Lang": "bg",
      "CaptionKey": "translation",
      "CaptionName": "превод",
      "YoutubeSynced": true
    },
    {
      "ID": "DQU3XCaX20qELjjBY5Sh6H-Njp-FhXmuDKQLBHA3LP2S2B9NJCVjjBX__I3nqK0e",
      "Lang": "bn",
      "CaptionKey": "translation",
      "CaptionName": "অনুবাদ",
      "YoutubeSynced": true
    },
    {
      "ID": "a8pPROoU8Mhi14Gb3oEBy-MRh3pD26QO08vAOIx1BTs=",
      "Lang": "bs",
      "CaptionKey": "translation",
      "CaptionName": "Prevod",
      "YoutubeSynced": true
    },
    {
      "ID": "BLriOouHkM4YC1FE1OpKcGbFEONBKJwZolenUy9dPtZynTIcNddBqg==",
      "Lang": "ca",
      "CaptionKey": "translation",
      "CaptionName": "Traducció",
      "YoutubeSynced": true
    },
    {
      "ID": "BLriOouHkM4UxKmyystC2_8y4vulpwJpsECMkBNfapv92XbnWm8SBQ==",
      "Lang": "co",
      "CaptionKey": "translation",
      "CaptionName": "Traduzione",
      "YoutubeSynced": true
    },
    {
      "ID": "TRCpnMWj4_OiFuII7MhC5O_FSBVewsdSLf03WqHxkSzu3roSP7P61g==",
      "Lang": "cs",
      "CaptionKey": "translation",
      "CaptionName": "Překlad",
      "YoutubeSynced": true
    },
    {
      "ID": "QxjpyeyLJRIo-CQGVsDigeM1lu7CVKHwcsth07-DkjR5WkIUhY2X2A==",
      "Lang": "cy",
      "CaptionKey": "translation",
      "CaptionName": "Cyfieithiad",
      "YoutubeSynced": true
    },
    {
      "ID": "zofMQgB20TB7rqeMXyzB4OOFlLgycdNbtiEtIqdakmrEO_fFUSLe-w==",
      "Lang": "da",
      "CaptionKey": "translation",
      "CaptionName": "Oversættelse",
      "YoutubeSynced": true
    },
    {
      "ID": "qVzf9x7r3RPT-3zeUW_sMtgFG7Yku30wBbGA3Em35WasMpE6GQevJg==",
      "Lang": "de",
      "CaptionKey": "translation",
      "CaptionName": "Übersetzung",
      "YoutubeSynced": true
    },
    {
      "ID": "DQU3XCaX20qi07lXBiIpGdIXJjfirV6uuz_GKZFYZGD-OL3N3_GFWkeEz9edQ6OZ",
      "Lang": "el",
      "CaptionKey": "translation",
      "CaptionName": "Μετάφραση",
      "YoutubeSynced": true
    },
    {
      "ID": "QxjpyeyLJRLRnQ3slWifKS7ktc3c_FfEUmv2rl3bf0_IZNWezXBVpg==",
      "Lang": "en",
      "CaptionKey": "translation",
      "CaptionName": "Translation",
      "YoutubeSynced": true
    },
    {
      "ID": "jjPI6il3X8aTAiJGc01oT8slnbT_I9bto3v4mKPl3BqdP6dKs1-eqfDt5kWu3xcB",
      "Lang": "en",
      "CaptionKey": "ruby",
      "CaptionName": "Pronunciation - IPA",
      "YoutubeSynced": true
    },
    {
      "ID": "QxjpyeyLJRKMY3sPTVejKQqsRPDhIL0NqNNH7MNYQL4UfOE-XHgNUA==",
      "Lang": "es",
      "CaptionKey": "translation",
      "CaptionName": "Traducción",
      "YoutubeSynced": true
    },
    {
      "ID": "a8pPROoU8Mhy86yCttgfcZvX2KqjknUAbOWN4GrhoGA=",
      "Lang": "et",
      "CaptionKey": "translation",
      "CaptionName": "Tõlge",
      "YoutubeSynced": true
    },
    {
      "ID": "V0-n7g8SeA9b3inhPJKPzNckG9ahqObIqijMdvAbwRip3Xaq4lD5Yg==",
      "Lang": "eu",
      "CaptionKey": "translation",
      "CaptionName": "Itzulpena",
      "YoutubeSynced": true
    },
    {
      "ID": "BLriOouHkM7f1-JQaaPFbp9yauQf7qtdMlpy9a17bIBnjf6wqI0T9w==",
      "Lang": "fa",
      "CaptionKey": "translation",
      "CaptionName": "ترجمه",
      "YoutubeSynced": true
    },
    {
      "ID": "BLriOouHkM6WCRhSlLRT0fcA4Hnr6DkbcLrdfH88GslqTh5oE2Uz2g==",
      "Lang": "fi",
      "CaptionKey": "translation",
      "CaptionName": "Käännös",
      "YoutubeSynced": true
    },
    {
      "ID": "QxjpyeyLJRIQBLngCc24EAcZMsJH9ZlxF09UMa-JiE6SPUcelsiDgQ==",
      "Lang": "fil",
      "CaptionKey": "translation",
      "CaptionName": "Pagsasalin",
      "YoutubeSynced": true
    },
    {
      "ID": "BLriOouHkM7AZ7haYYPT2EiFfv9gjEir7RXvGUlPLc5ZzC2Qz6ONdg==",
      "Lang": "fr",
      "CaptionKey": "translation",
      "CaptionName": "Traduction",
      "YoutubeSynced": true
    },
    {
      "ID": "BLriOouHkM4YOcp8Oi3s8lg2eJHeZvYKA_s-vp3GN7I2n6HAEFX32Q==",
      "Lang": "fy",
      "CaptionKey": "translation",
      "CaptionName": "Oersetting",
      "YoutubeSynced": true
    },
    {
      "ID": "DQU3XCaX20p7MnBmLMHx1BLe5YRfTNkC07WzkIUD9TKDZjSWnCtdlX7HNGUINJz4",
      "Lang": "gd",
      "CaptionKey": "translation",
      "CaptionName": "Eadar-theangachadh",
      "YoutubeSynced": true
    },
    {
      "ID": "BLriOouHkM5Ed-rSFv9Z7BEoTxw4YyrIGLE638S6gQkcfMbo_Nyd9Q==",
      "Lang": "gl",
      "CaptionKey": "translation",
      "CaptionName": "Tradución",
      "YoutubeSynced": true
    },
    {
      "ID": "DQU3XCaX20qWKHad5O55OXETR9o5_9aLSpz34f573UKIXXmRxYQBmQvxC0lKO2iU",
      "Lang": "gu",
      "CaptionKey": "translation",
      "CaptionName": "અનુવાદ",
      "YoutubeSynced": true
    },
    {
      "ID": "rJuW_SyALmH6yQ8wPoP-Q4eOSBRipsMUl_mYylENGQXZBUGn3s6CKQ==",
      "Lang": "ha",
      "CaptionKey": "translation",
      "CaptionName": "Fassara",
      "YoutubeSynced": true
    },
    {
      "ID": "DQU3XCaX20pV5BrxUsUcj7QAoKjzBaxkef9EM7AeF88U6daeHizity6x3m-8fKOQ",
      "Lang": "hi",
      "CaptionKey": "translation",
      "CaptionName": "अनुवाद",
      "YoutubeSynced": true
    },
    {
      "ID": "TRCpnMWj4_Mym0LjSkhJRzqXiQpCYnZVe1IB0Tr63jdpzLrSFWN_IQ==",
      "Lang": "hr",
      "CaptionKey": "translation",
      "CaptionName": "Prijevod",
      "YoutubeSynced": true
    },
    {
      "ID": "BLriOouHkM5SftgiXzrdTcgHIOFsJ2l3yISEXVeuKM3MnLAjw8YagQ==",
      "Lang": "hu",
      "CaptionKey": "translation",
      "CaptionName": "Fordítás",
      "YoutubeSynced": true
    },
    {
      "ID": "wtoAS6zlEUc5K9gYtHriSJMOilcZU8eKPT2K4Wmx_Pl49-HfdZP4XeZlWDoHeYBy2IwzhDm4Isc=",
      "Lang": "hy",
      "CaptionKey": "translation",
      "CaptionName": "Թարգմանություն",
      "YoutubeSynced": true
    },
    {
      "ID": "BLriOouHkM5nk3GUsjR6ya4dOV43fffiA1HUhhDa0MxpnfemDXCQgw==",
      "Lang": "id",
      "CaptionKey": "translation",
      "CaptionName": "Terjemahan",
      "YoutubeSynced": true
    },
    {
      "ID": "TRCpnMWj4_P9zC8RmCDugHzKO4qYOvv5p3aK-SducFOVq8na9x6AkQ==",
      "Lang": "ig",
      "CaptionKey": "translation",
      "CaptionName": "Ntughari",
      "YoutubeSynced": true
    },
    {
      "ID": "V0-n7g8SeA9iNkHIY53Qbc1hkTiivrI6LW6lDlJtwzf4Po-ApTH1Sg==",
      "Lang": "is",
      "CaptionKey": "translation",
      "CaptionName": "Þýðing",
      "YoutubeSynced": true
    },
    {
      "ID": "BLriOouHkM6dugdWQjRaMM-h6fUPFu-3UT9qmX_0OGKIFgRtjoQfCw==",
      "Lang": "it",
      "CaptionKey": "translation",
      "CaptionName": "Traduzione",
      "YoutubeSynced": true
    },
    {
      "ID": "BLriOouHkM7WmIBJddMn_FDwDg_2izvKLpRMi88rs9vX9edkWdwFiw==",
      "Lang": "iw",
      "CaptionKey": "translation",
      "CaptionName": "תרגום",
      "YoutubeSynced": true
    },
    {
      "ID": "a8pPROoU8MjeqAcWeF-Auy0VfPNnmzTiIYgyEAqmX5M=",
      "Lang": "ja",
      "CaptionKey": "translation",
      "CaptionName": "翻訳",
      "YoutubeSynced": true
    },
    {
      "ID": "V0-n7g8SeA-B552bkqAgec3fv4_hSw-F2gL7_es7IrFLCQHvYyBrfA==",
      "Lang": "jv",
      "CaptionKey": "translation",
      "CaptionName": "Ngartekne",
      "YoutubeSynced": true
    },
    {
      "ID": "pjMUYHw8ogMLejMiL57bd59PSjiZEao23AHoSgUnVzNt84tLzAHwjZouNMDg8_xIaxBcNnjgwuI=",
      "Lang": "ka",
      "CaptionKey": "translation",
      "CaptionName": "თარგმანი",
      "YoutubeSynced": true
    },
    {
      "ID": "6l1qeOLRu-DZ0PIahL4fQeCdEfEJrGjUcsjFHS9cuazgvuuRdZTWPA==",
      "Lang": "kk",
      "CaptionKey": "translation",
      "CaptionName": "Аударма",
      "YoutubeSynced": true
    },
    {
      "ID": "KQI3rKLuxJPR2JFYuz31VW8CUZeMz9VZksuIV4qZ-7ZaZIdlxCuk-V0bbxia_o-NxyjGQjSR0xw=",
      "Lang": "km",
      "CaptionKey": "translation",
      "CaptionName": "ការបកប្រែ",
      "YoutubeSynced": true
    },
    {
      "ID": "DQU3XCaX20qI2GfZy-3BeSRTUxZwvQiEVNkrDY-JMatPvJjHPeAPc8N_vBiMrh1k",
      "Lang": "kn",
      "CaptionKey": "translation",
      "CaptionName": "ಅನುವಾದ",
      "YoutubeSynced": true
    },
    {
      "ID": "a8pPROoU8MhsAEunFYF0YXWiZm3MY1itJehNL6CRDAw=",
      "Lang": "ko",
      "CaptionKey": "translation",
      "CaptionName": "번역",
      "YoutubeSynced": true
    },
    {
      "ID": "a8pPROoU8MgUC-ekTxrpvadv4JkEpw4M1O93TLKnW2I=",
      "Lang": "ku",
      "CaptionKey": "translation",
      "CaptionName": "Werger",
      "YoutubeSynced": true
    },
    {
      "ID": "6l1qeOLRu-B5a_T5ndOWreL3jpDsXn2eyAaO1bSYkgxagE0jXVWrAA==",
      "Lang": "ky",
      "CaptionKey": "translation",
      "CaptionName": "котормо",
      "YoutubeSynced": true
    },
    {
      "ID": "qVzf9x7r3RMiijinPOGsECqOt_RTzHsffCOSpKvB04e33xcPmezQQQ==",
      "Lang": "lb",
      "CaptionKey": "translation",
      "CaptionName": "Iwwersetzung",
      "YoutubeSynced": true
    },
    {
      "ID": "KQI3rKLuxJMubUTxzuwrFuT09hIbSNaVqY6Slv2Hbqsd_uXqaonxfj-BRnxyGUM68_TcdxxsgRE=",
      "Lang": "lo",
      "CaptionKey": "translation",
      "CaptionName": "ການແປພາສາ",
      "YoutubeSynced": true
    },
    {
      "ID": "TRCpnMWj4_Ngh52cyXs-smA5jU6VKqSyO1Gqyld1Vv9WcUp0RLtn7A==",
      "Lang": "lt",
      "CaptionKey": "translation",
      "CaptionName": "Vertimas",
      "YoutubeSynced": true
    },
    {
      "ID": "BLriOouHkM6__AcAqs83AMxAE7DwRpHkTVIreQGVJ1Q66lJbkARaCw==",
      "Lang": "lv",
      "CaptionKey": "translation",
      "CaptionName": "Tulkošana",
      "YoutubeSynced": true
    },
    {
      "ID": "QxjpyeyLJRKEcn-7q_Cn7-WfT5XFv_nF-2Q0hlVuzZlSEs6HWR_kyQ==",
      "Lang": "mg",
      "CaptionKey": "translation",
      "CaptionName": "Translation",
      "YoutubeSynced": true
    },
    {
      "ID": "ExJtOltG6RPzbt6RhhYD6uVwBSgLCZlp0fiAZ4IV2DrSj-fh2VkS8jFVpP3sRYvT",
      "Lang": "mi",
      "CaptionKey": "translation",
      "CaptionName": "Whakamaoritanga",
      "YoutubeSynced": true
    },
    {
      "ID": "qVzf9x7r3RMWYHa7P-njWf74Ys8ri74bxPy0hezGNIWtaDdpZGKRAg==",
      "Lang": "mk",
      "CaptionKey": "translation",
      "CaptionName": "Превод",
      "YoutubeSynced": true
    },
    {
      "ID": "KQI3rKLuxJNEF7wGmr-q3MkvB9MwAb3SNWGlkH4wqxKGyKxISCz14IT9PqvT-fZNu65a0gkP6iM=",
      "Lang": "ml",
      "CaptionKey": "translation",
      "CaptionName": "വിവർത്തനം",
      "YoutubeSynced": true
    },
    {
      "ID": "O437-6PYGpkuHj4FtoMOZ7-usXcBo9sL7zB9XH_r6KtiaCb9K0leTX2-gLL-bqf2",
      "Lang": "mn",
      "CaptionKey": "translation",
      "CaptionName": "Орчуулга",
      "YoutubeSynced": true
    },
    {
      "ID": "lOhtP76hHTV8UTOa3CjHZ1E1pLoqHSn-5HY1cBtYQURbAFThyg5N4xKztdbcEmzX",
      "Lang": "mr",
      "CaptionKey": "translation",
      "CaptionName": "भाषांतर",
      "YoutubeSynced": true
    },
    {
      "ID": "BLriOouHkM4IcJkjDVt08NJ5eYG2NjAHEfRLg5Uu14Oz8pGV7myg2w==",
      "Lang": "ms",
      "CaptionKey": "translation",
      "CaptionName": "Terjemahan",
      "YoutubeSynced": true
    },
    {
      "ID": "QxjpyeyLJRLfrmHggq-9uS1pvLcfowPJ--rVq0Mnw914GyxaZ1yRbw==",
      "Lang": "mt",
      "CaptionKey": "translation",
      "CaptionName": "Traduzzjoni",
      "YoutubeSynced": true
    },
    {
      "ID": "pjMUYHw8ogNgqIn8ztx7yisiAA1q92rwzBUNLUtqPvqGfhVc782F3sS4v8eLV4Xa3QuS_DJW3w8=",
      "Lang": "my",
      "CaptionKey": "translation",
      "CaptionName": "ဘာသာပြန်",
      "YoutubeSynced": true
    },
    {
      "ID": "DQU3XCaX20pb2t94ynRmfQxMfbuIgIdN8_1bCIrcEwj0rkdG8V5aWFHJBxa_TWsJ",
      "Lang": "ne",
      "CaptionKey": "translation",
      "CaptionName": "अनुवाद",
      "YoutubeSynced": true
    },
    {
      "ID": "V0-n7g8SeA8tCHQzYpB04o2sH2MlcuVURD2a9Al4OHP3yxxKglX_nA==",
      "Lang": "nl",
      "CaptionKey": "translation",
      "CaptionName": "Vertaling",
      "YoutubeSynced": true
    },
    {
      "ID": "qVzf9x7r3RPhoXTCCL7PDHw2funbTft09IY6w4T-eYp9Y863dlVflA==",
      "Lang": "no",
      "CaptionKey": "translation",
      "CaptionName": "Oversettelse",
      "YoutubeSynced": true
    },
    {
      "ID": "DQU3XCaX20ohLE7M2FL7F4btfAqeGtZZw466uj4vaQkZ0TgVoZZktehZkNrnZhAz",
      "Lang": "pa",
      "CaptionKey": "translation",
      "CaptionName": "ਅਨੁਵਾਦ",
      "YoutubeSynced": true
    },
    {
      "ID": "qVzf9x7r3RPSKkjMfJWuxtlcPAcUC2jKDhvf3mbGSzeARDqEnwM1LQ==",
      "Lang": "pl",
      "CaptionKey": "translation",
      "CaptionName": "Tłumaczenie",
      "YoutubeSynced": true
    },
    {
      "ID": "BLriOouHkM7jmqhAHuXJF1trMDeHjz6Xk2FfekvGTnv7GjPW0NUbkg==",
      "Lang": "ps",
      "CaptionKey": "translation",
      "CaptionName": "ژباړه",
      "YoutubeSynced": true
    },
    {
      "ID": "BLriOouHkM7Zb1O4XOkOOJNNg0I-JF-w_ZlJvYEhQA5TNRdYcnS1qg==",
      "Lang": "pt",
      "CaptionKey": "translation",
      "CaptionName": "Tradução",
      "YoutubeSynced": true
    },
    {
      "ID": "V0-n7g8SeA_1gUcGJ_5X_YuqTdlefHRVkryAz7eXQEGS717k1X4VYA==",
      "Lang": "ro",
      "CaptionKey": "translation",
      "CaptionName": "Traducere",
      "YoutubeSynced": true
    },
    {
      "ID": "6l1qeOLRu-CqPN1duQ6upZXFfUkA4JjD_zXodelcr5Bh2ZeB5UwmGw==",
      "Lang": "ru",
      "CaptionKey": "translation",
      "CaptionName": "Перевод",
      "YoutubeSynced": true
    },
    {
      "ID": "BLriOouHkM5uw09wbSZZI1gCzJnD6eFs7uYpD_JbPgcHA6uvv3Rvsg==",
      "Lang": "sd",
      "CaptionKey": "translation",
      "CaptionName": "ترجمو",
      "YoutubeSynced": true
    },
    {
      "ID": "KQI3rKLuxJMTCmkQpdSwHfj6SaObZvJbhkccNUVanC_16AZJPEZJ0tvyerUssOjdPQPIlCxETmA=",
      "Lang": "si",
      "CaptionKey": "translation",
      "CaptionName": "පරිවර්තනය",
      "YoutubeSynced": true
    },
    {
      "ID": "rJuW_SyALmE6TtKK5UHuwZQmFhJTjSIGlOxXttJox6zXw_CWgqRCSQ==",
      "Lang": "sk",
      "CaptionKey": "translation",
      "CaptionName": "preklad",
      "YoutubeSynced": true
    },
    {
      "ID": "a8pPROoU8MjbJJGq6m-O0LCrS_NxC3NMlHjiTjnHiNw=",
      "Lang": "sl",
      "CaptionKey": "translation",
      "CaptionName": "Prevod",
      "YoutubeSynced": true
    },
    {
      "ID": "qVzf9x7r3RMJTi8zhA4a5bEstzRafVrbICQrKQTR4zkvo7QD7b3mPQ==",
      "Lang": "sm",
      "CaptionKey": "translation",
      "CaptionName": "Faʻaliliuga",
      "YoutubeSynced": true
    },
    {
      "ID": "rJuW_SyALmF8IeMsxo6_UwqSd3lUd78j-FYffDZ2z5FhUoNvVuYALA==",
      "Lang": "sn",
      "CaptionKey": "translation",
      "CaptionName": "Dudziro",
      "YoutubeSynced": true
    },
    {
      "ID": "V0-n7g8SeA8PBNVYAjlHkzMS6yzKj0woipHgNzQdG77oDV9twqcGVg==",
      "Lang": "so",
      "CaptionKey": "translation",
      "CaptionName": "Tarjumida",
      "YoutubeSynced": true
    },
    {
      "ID": "V0-n7g8SeA9ECtQ0Jy36LgdzvyPHrTe3UnSLW7-tucGddumSOt_zkg==",
      "Lang": "sq",
      "CaptionKey": "translation",
      "CaptionName": "përkthim",
      "YoutubeSynced": true
    },
    {
      "ID": "qVzf9x7r3RPdmlqVqzp4TEwIa9FR_44fgJy-2oukv0n38gBAFqb8qw==",
      "Lang": "sr",
      "CaptionKey": "translation",
      "CaptionName": "Превод",
      "YoutubeSynced": true
    },
    {
      "ID": "V0-n7g8SeA_ZLgIL2KMhbSnsO2LknymPOLODhFUgnYfO_Bk93gMlZA==",
      "Lang": "st",
      "CaptionKey": "translation",
      "CaptionName": "Phetolelo",
      "YoutubeSynced": true
    },
    {
      "ID": "BLriOouHkM5hROOLaJN1ckjVKCWfxMvGn_o7RSI6A2qNZTf30TSYgw==",
      "Lang": "su",
      "CaptionKey": "translation",
      "CaptionName": "Tarjamahan",
      "YoutubeSynced": true
    },
    {
      "ID": "6l1qeOLRu-AL4Jh6m1Npmo82BwViDKAx9kM0YTuW-0EbLj2Gt5_7tw==",
      "Lang": "sv",
      "CaptionKey": "translation",
      "CaptionName": "Översättning",
      "YoutubeSynced": true
    },
    {
      "ID": "rJuW_SyALmFIFeZkyNamPJbouYuTrtgOL-bRzG9mGTzYjh0ZSNrxmA==",
      "Lang": "sw",
      "CaptionKey": "translation",
      "CaptionName": "Tafsiri",
      "YoutubeSynced": true
    },
    {
      "ID": "ZULMQ5dvlVYpuWz3q-3pjsAx8oFfQiOJvmXnF6MEIwLgeQBZIatuzcvH3mqTSknctoAR1M8egGOHQIj1IX1FaEColqlKMaAp",
      "Lang": "ta",
      "CaptionKey": "translation",
      "CaptionName": "மொழிபெயர்ப்பு",
      "YoutubeSynced": true
    },
    {
      "ID": "lOhtP76hHTVzx7vmBrXgR392TsPdPKTDQ0WsWpo78tdF_iKTlWgo6bFM8LjA5FaS",
      "Lang": "te",
      "CaptionKey": "translation",
      "CaptionName": "అనువాదం",
      "YoutubeSynced": true
    },
    {
      "ID": "6l1qeOLRu-DJmmUb9xGIw9Smgw_aRPy2vQ_vPM4gDaBBSqWjCKPU1A==",
      "Lang": "tg",
      "CaptionKey": "translation",
      "CaptionName": "Тарҷума",
      "YoutubeSynced": true
    },
    {
      "ID": "DQU3XCaX20rU3nMRLIc9DpolIsGCS4lkuXG0oHEvEFEickU0hLgokAapTOcFT0jH",
      "Lang": "th",
      "CaptionKey": "translation",
      "CaptionName": "การแปล",
      "YoutubeSynced": true
    },
    {
      "ID": "TRCpnMWj4_MfH_-vuItH2bRQlJe1SulFO1kmEVPu6f62-mbOEKhstg==",
      "Lang": "tr",
      "CaptionKey": "translation",
      "CaptionName": "Tercüme",
      "YoutubeSynced": true
    },
    {
      "ID": "O437-6PYGplF_lOH2f3Wplu6AhIylOaKKAglRL8UJ_zaANexftBVvvSRPA6grIGZ",
      "Lang": "uk",
      "CaptionKey": "translation",
      "CaptionName": "Переклад",
      "YoutubeSynced": true
    },
    {
      "ID": "BLriOouHkM6SzHFoXPpH1hnqaL_FdVZI9rDVpFJmj3wM9Q9eyqFDmQ==",
      "Lang": "ur",
      "CaptionKey": "translation",
      "CaptionName": "ترجمہ",
      "YoutubeSynced": true
    },
    {
      "ID": "rJuW_SyALmEhdDKY6NcXLi7I3EGxaMBl0lP_6VOw5u7ndZiCfcuh-Q==",
      "Lang": "uz",
      "CaptionKey": "translation",
      "CaptionName": "Tarjima",
      "YoutubeSynced": true
    },
    {
      "ID": "a8pPROoU8MjyOqL55tBx2tMs1-Gpikl50fVn024pR-w=",
      "Lang": "vi",
      "CaptionKey": "translation",
      "CaptionName": "Dịch",
      "YoutubeSynced": true
    },
    {
      "ID": "BLriOouHkM6E1NmCYXhqRgrG1bBOPr2YX7dRWPds5ihar0zS4W6RBw==",
      "Lang": "xh",
      "CaptionKey": "translation",
      "CaptionName": "Inguqulelo",
      "YoutubeSynced": true
    },
    {
      "ID": "HsdQ3S2lXiy62N3XRCYvCTviLMTRJaLkJS9FvSHcgJq4RtGbXJhAG9csUuUH8obV",
      "Lang": "yi",
      "CaptionKey": "translation",
      "CaptionName": "איבערזעצונג",
      "YoutubeSynced": true
    },
    {
      "ID": "rJuW_SyALmHiGGiko-S-3HSv3fF7xFagdshDa4sBuG7iR4zzuNkKoA==",
      "Lang": "yo",
      "CaptionKey": "translation",
      "CaptionName": "Itumọ",
      "YoutubeSynced": true
    },
    {
      "ID": "QxjpyeyLJRJWnQl2u0LnVJv6QHdkdCS53Ynhi3fmQD8Mr7DgYf0XkQ==",
      "Lang": "zh-Hans",
      "CaptionKey": "translation",
      "CaptionName": "翻译",
      "YoutubeSynced": true
    },
    {
      "ID": "QxjpyeyLJRJWnQl2u0LnVNrD_j7GpHenQqU-1Q9jqpsH9i96E7Kd2A==",
      "Lang": "zh-Hant",
      "CaptionKey": "translation",
      "CaptionName": "翻譯",
      "YoutubeSynced": true
    },
    {
      "ID": "BLriOouHkM77ivwYeUqi_M15JHeJQ4oJI08XZ9n2QktNPF9KNJGZ0Q==",
      "Lang": "zu",
      "CaptionKey": "translation",
      "CaptionName": "Ukuhumusha",
      "YoutubeSynced": true
    }
  ]
}