{
  "VideoFile": "grammar-en-beginner-simple_49_AU.mp4",
  "Captions": [
    {
      "ID": "aMYmuWIP31m27R2UEwuZBefZ3asfFZ5iY3jD3a8WK1MTaoUcezPK0w==",
      "Lang": "af",
      "CaptionKey": "translation",
      "CaptionName": "vertaling",
      "YoutubeSynced": true
    },
    {
      "ID": "oedkCWb8_d76cO5JePUXEt555epqj7fCow4EkOUSOHhvI1CX4QRU0g==",
      "Lang": "am",
      "CaptionKey": "translation",
      "CaptionName": "ትርጉም",
      "YoutubeSynced": true
    },
    {
      "ID": "QNgipwUUneu181y0CS-qhEgsJIIWJr9sPQS9W40alHeUqtOzaoh4yQ==",
      "Lang": "ar",
      "CaptionKey": "translation",
      "CaptionName": "ترجمة",
      "YoutubeSynced": true
    },
    {
      "ID": "QNgipwUUnesx1YjbQypvT-LVMtA6XGkmcizA4puW3Zfti1LHdkQF7Q==",
      "Lang": "az",
      "CaptionKey": "translation",
      "CaptionName": "Tərcümə",
      "YoutubeSynced": true
    },
    {
      "ID": "ieDiBhVDPXyJZn_pzj687zuXZ1Dy0QXdvwdd_kMUXri6aSDAVVl6JAIHxu6d4KWV",
      "Lang": "be",
      "CaptionKey": "translation",
      "CaptionName": "Пераклад",
      "YoutubeSynced": true
    },
    {
      "ID": "oedkCWb8_d53WSBWKaiEddOAtH2k-ujrRKQUcMv9CnLkjdbnUcxizA==",
      "Lang": "bg",
      "CaptionKey": "translation",
      "CaptionName": "превод",
      "YoutubeSynced": true
    },
    {
      "ID": "R2jSpmDq4YQraZEElIJ6rpEEezseNWGveYi77uCdH0PXbB3SiPshBcazXCdT7uzP",
      "Lang": "bn",
      "CaptionKey": "translation",
      "CaptionName": "অনুবাদ",
      "YoutubeSynced": true
    },
    {
      "ID": "DAvZ9KgYoYTujI2l9j4L1W7eNTd2RsJ16t309qWq0JI=",
      "Lang": "bs",
      "CaptionKey": "translation",
      "CaptionName": "Prevod",
      "YoutubeSynced": true
    },
    {
      "ID": "QNgipwUUnevXcAUDwwLWZzr6FAC2JhbMzwkJpiRub_FIPYMITp88Gg==",
      "Lang": "ca",
      "CaptionKey": "translation",
      "CaptionName": "Traducció",
      "YoutubeSynced": true
    },
    {
      "ID": "QNgipwUUnesJc2sKF3orebz1gVpGM5W6je1VKZEL1SafGXnIU2kRpw==",
      "Lang": "co",
      "CaptionKey": "translation",
      "CaptionName": "Traduzione",
      "YoutubeSynced": true
    },
    {
      "ID": "KIwO-X756xuxEHDb2o49_gLU-c8k6dH1eUwh0DnUDb6mjKS_2L1GaA==",
      "Lang": "cs",
      "CaptionKey": "translation",
      "CaptionName": "Překlad",
      "YoutubeSynced": true
    },
    {
      "ID": "1XZUkGiou9vphIRSMLCQQoWPIaYTomatIWx-GQoHTc8k89f1j8Xd1Q==",
      "Lang": "cy",
      "CaptionKey": "translation",
      "CaptionName": "Cyfieithiad",
      "YoutubeSynced": true
    },
    {
      "ID": "w9sFKHrP9xjjyr9FX1GiKoFjNYCFpnaDfkXhgO4f7IRmztaY1DRAZA==",
      "Lang": "da",
      "CaptionKey": "translation",
      "CaptionName": "Oversættelse",
      "YoutubeSynced": true
    },
    {
      "ID": "oedkCWb8_d6gh0TLKmfX6VDaLQnzZn3uvv4Sr7Ix6-jjQLExKWci_g==",
      "Lang": "de",
      "CaptionKey": "translation",
      "CaptionName": "Übersetzung",
      "YoutubeSynced": true
    },
    {
      "ID": "R2jSpmDq4YQ2adaCWmR5xsYxQgK2rgw25hx_36YmvXZXnqVeN4EWEtd22reBg3V9",
      "Lang": "el",
      "CaptionKey": "translation",
      "CaptionName": "Μετάφραση",
      "YoutubeSynced": true
    },
    {
      "ID": "1XZUkGiou9uWA1IJmHaNv8_tPbFBlRfwO9XJs5GUNGvCQ_Dv1XqDbw==",
      "Lang": "en",
      "CaptionKey": "translation",
      "CaptionName": "Translation",
      "YoutubeSynced": true
    },
    {
      "ID": "fti_8GuNlz75R6IEy1XCEj0Rmqw6BK325Hjip5pmMJuc_VZK6-YhNImtA4_2yVAI",
      "Lang": "en",
      "CaptionKey": "ruby",
      "CaptionName": "Pronunciation - IPA",
      "YoutubeSynced": true
    },
    {
      "ID": "1XZUkGiou9vqgbDfx1ovsN9Gshr8AhwwCiUUvLvkwxmx1DLQ9f2ELQ==",
      "Lang": "es",
      "CaptionKey": "translation",
      "CaptionName": "Traducción",
      "YoutubeSynced": true
    },
    {
      "ID": "DAvZ9KgYoYRV1tPnRZzFSqm4HXYw4jdvUH70CTD-qMs=",
      "Lang": "et",
      "CaptionKey": "translation",
      "CaptionName": "Tõlge",
      "YoutubeSynced": true
    },
    {
      "ID": "aMYmuWIP31n1uONAISUBnZsPApT0fWxeAAP4AGrjJM2hTuFStSL3PQ==",
      "Lang": "eu",
      "CaptionKey": "translation",
      "CaptionName": "Itzulpena",
      "YoutubeSynced": true
    },
    {
      "ID": "QNgipwUUnevPvRSUu-3JJxd6tx5gKnBJFXs325C489wSpkYKNkbVPg==",
      "Lang": "fa",
      "CaptionKey": "translation",
      "CaptionName": "ترجمه",
      "YoutubeSynced": true
    },
    {
      "ID": "QNgipwUUnevmWqrtLFhSxCpyU3jgFuSfPu0L3vllTNBlS6vCAlbM_A==",
      "Lang": "fi",
      "CaptionKey": "translation",
      "CaptionName": "Käännös",
      "YoutubeSynced": true
    },
    {
      "ID": "1XZUkGiou9taEhAVt3OPKJX3DkCDrA_SVeh2DCzvtjboJppxaXDbhQ==",
      "Lang": "fil",
      "CaptionKey": "translation",
      "CaptionName": "Pagsasalin",
      "YoutubeSynced": true
    },
    {
      "ID": "QNgipwUUnev6PUoeA0kEOgIwmfbFaSx1PqdZ7b-ab4dAgOgFe2v2LQ==",
      "Lang": "fr",
      "CaptionKey": "translation",
      "CaptionName": "Traduction",
      "YoutubeSynced": true
    },
    {
      "ID": "QNgipwUUneu0PTeH20oLmiSJGQoEQX-fmlYeG7dgUH3FNxMFsEtkCg==",
      "Lang": "fy",
      "CaptionKey": "translation",
      "CaptionName": "Oersetting",
      "YoutubeSynced": true
    },
    {
      "ID": "R2jSpmDq4YTv0pRSx7LEJB8qWrU4F4pztStni1E8VWmhjYruwHRi3czsKdgRdgqg",
      "Lang": "gd",
      "CaptionKey": "translation",
      "CaptionName": "Eadar-theangachadh",
      "YoutubeSynced": true
    },
    {
      "ID": "QNgipwUUnevs7iKM7o4wCmYrts6ix9A7u4kQ0e5o-JU2x9sY1yMIpg==",
      "Lang": "gl",
      "CaptionKey": "translation",
      "CaptionName": "Tradución",
      "YoutubeSynced": true
    },
    {
      "ID": "R2jSpmDq4YTDeU5RTRBPGiZJAxIqk2JJpk0vVEHVn-F-BeVbXkF1dhG9OMBZluXS",
      "Lang": "gu",
      "CaptionKey": "translation",
      "CaptionName": "અનુવાદ",
      "YoutubeSynced": true
    },
    {
      "ID": "7d8QtzGnw7xRuuVaxcpDGnUvGq_Q0T4R91h2HTwPthslqiXQ9bRoRA==",
      "Lang": "ha",
      "CaptionKey": "translation",
      "CaptionName": "Fassara",
      "YoutubeSynced": true
    },
    {
      "ID": "R2jSpmDq4YRF_NJsv2Emx3k5ocwUq6M2G1CgtCBLMvNkudOGRkqjpOsnOdJWRjw-",
      "Lang": "hi",
      "CaptionKey": "translation",
      "CaptionName": "अनुवाद",
      "YoutubeSynced": true
    },
    {
      "ID": "KIwO-X756xuHX7KroOSfuct7GPfhPCA-YRt4PftarWDcxPaKttC5wA==",
      "Lang": "hr",
      "CaptionKey": "translation",
      "CaptionName": "Prijevod",
      "YoutubeSynced": true
    },
    {
      "ID": "QNgipwUUnesDV9QRt3OnQc_mwLpqZT7gBsoqYPEIDx-UkaeyLlQgSw==",
      "Lang": "hu",
      "CaptionKey": "translation",
      "CaptionName": "Fordítás",
      "YoutubeSynced": true
    },
    {
      "ID": "M1MsgajEvLGIVyZWdOjuvwUYk8_VfM0xOrEQroX74OI6hQZkdEGVtguKfRIKHSrb0pgk1qxEuZc=",
      "Lang": "hy",
      "CaptionKey": "translation",
      "CaptionName": "Թարգմանություն",
      "YoutubeSynced": true
    },
    {
      "ID": "QNgipwUUneuNBF08q10_szhW28hgEUHeFuGmNN2xBl7FRMLiBoc8nA==",
      "Lang": "id",
      "CaptionKey": "translation",
      "CaptionName": "Terjemahan",
      "YoutubeSynced": true
    },
    {
      "ID": "KIwO-X756xuXZcGMuOrywy2AGfQKo5aL6lZDrnIouKIJAkhax6VeDQ==",
      "Lang": "ig",
      "CaptionKey": "translation",
      "CaptionName": "Ntughari",
      "YoutubeSynced": true
    },
    {
      "ID": "aMYmuWIP31kPyTQu24RYOcMD4Y70UtVEfU0WEACly4qKhYv8QXTxhQ==",
      "Lang": "is",
      "CaptionKey": "translation",
      "CaptionName": "Þýðing",
      "YoutubeSynced": true
    },
    {
      "ID": "QNgipwUUneth4tOJKusfV4XrrvDxTfiYcUJSV3Q_JTrgDMbcbQU2OA==",
      "Lang": "it",
      "CaptionKey": "translation",
      "CaptionName": "Traduzione",
      "YoutubeSynced": true
    },
    {
      "ID": "QNgipwUUnesE-jew9UJB1_NGtBJDXHpS5TkRLh9nM1fTy_At3ufARA==",
      "Lang": "iw",
      "CaptionKey": "translation",
      "CaptionName": "תרגום",
      "YoutubeSynced": true
    },
    {
      "ID": "DAvZ9KgYoYR5BjC_M-whQ6VY_mLaXPQXvAmvSQtyc3M=",
      "Lang": "ja",
      "CaptionKey": "translation",
      "CaptionName": "翻訳",
      "YoutubeSynced": true
    },
    {
      "ID": "aMYmuWIP31miRhHjnJtUCU0U6ee5eQi2W6G0wYhNX9M-Uxn-IJJxCQ==",
      "Lang": "jv",
      "CaptionKey": "translation",
      "CaptionName": "Ngartekne",
      "YoutubeSynced": true
    },
    {
      "ID": "aYCWAjOH_84GirjMi4OX384CtOk09yGs1QxFGU8XJk6LPUsS01AVTax1S7SaXJpFc8VAIpBP6xY=",
      "Lang": "ka",
      "CaptionKey": "translation",
      "CaptionName": "თარგმანი",
      "YoutubeSynced": true
    },
    {
      "ID": "zd4t9jsAoyK3X_6Z2VWWj6tyxs0XgwUQpcAkuWYkiOxOQUjC36Q5lg==",
      "Lang": "kk",
      "CaptionKey": "translation",
      "CaptionName": "Аударма",
      "YoutubeSynced": true
    },
    {
      "ID": "Z-0CG4uVBXTZb113_lbpHe0qmH2pURf1BbI4zFTdGkHV7JLXjhQSLQHHoxk-vVGRVYIUYzrowwk=",
      "Lang": "km",
      "CaptionKey": "translation",
      "CaptionName": "ការបកប្រែ",
      "YoutubeSynced": true
    },
    {
      "ID": "R2jSpmDq4YRfGHJaVstOCvqVB421xjdgELSte7YbVvVhS7kFHDuR7FCoHICMjSgO",
      "Lang": "kn",
      "CaptionKey": "translation",
      "CaptionName": "ಅನುವಾದ",
      "YoutubeSynced": true
    },
    {
      "ID": "DAvZ9KgYoYR0ZS4mtJthWHSdoT6KUQLeP8VO4ZirOYs=",
      "Lang": "ko",
      "CaptionKey": "translation",
      "CaptionName": "번역",
      "YoutubeSynced": true
    },
    {
      "ID": "DAvZ9KgYoYQUpw6n4LuRC_9CBf0O1QRoaBSzr2ZtJ_o=",
      "Lang": "ku",
      "CaptionKey": "translation",
      "CaptionName": "Werger",
      "YoutubeSynced": true
    },
    {
      "ID": "zd4t9jsAoyK2Y-teIltruECqLKkRpemF-wEx6BQrhAYbkBqOJmoc-A==",
      "Lang": "ky",
      "CaptionKey": "translation",
      "CaptionName": "котормо",
      "YoutubeSynced": true
    },
    {
      "ID": "oedkCWb8_d4_Pef3Dt1Z8uScxlj2X0vc4IcOT0qxfxMEdFYlyAa2iQ==",
      "Lang": "lb",
      "CaptionKey": "translation",
      "CaptionName": "Iwwersetzung",
      "YoutubeSynced": true
    },
    {
      "ID": "Z-0CG4uVBXTdHLJ3v5PLNr3gXOtRXNDyzUFUnVZ94BRwBH9bolaBVjQ1pyAeBsCABR51V4jZooY=",
      "Lang": "lo",
      "CaptionKey": "translation",
      "CaptionName": "ການແປພາສາ",
      "YoutubeSynced": true
    },
    {
      "ID": "KIwO-X756xuHCTNMF7Ya8AKWlrZ_y48o13o9oyAA49BT_6ZoK8QZUA==",
      "Lang": "lt",
      "CaptionKey": "translation",
      "CaptionName": "Vertimas",
      "YoutubeSynced": true
    },
    {
      "ID": "QNgipwUUnesOtPdwffgioGX3uv8Z_cjLVOKmDXjhrqK6WlOmjVVvFw==",
      "Lang": "lv",
      "CaptionKey": "translation",
      "CaptionName": "Tulkošana",
      "YoutubeSynced": true
    },
    {
      "ID": "1XZUkGiou9v2PSdtLgd39dJxfc2jEXqwPTK4Ht9hTfQaphZB43zg2Q==",
      "Lang": "mg",
      "CaptionKey": "translation",
      "CaptionName": "Translation",
      "YoutubeSynced": true
    },
    {
      "ID": "DI-oNjoolcskP2QgDVbZ-GpbL0sQ50L38-lpAQ35X-KByavJBz3mRC4KaL5YVMKp",
      "Lang": "mi",
      "CaptionKey": "translation",
      "CaptionName": "Whakamaoritanga",
      "YoutubeSynced": true
    },
    {
      "ID": "oedkCWb8_d5bVffC4O8_KRxx0VzojVZXgPcxbuwBxWGobVrmskujZA==",
      "Lang": "mk",
      "CaptionKey": "translation",
      "CaptionName": "Превод",
      "YoutubeSynced": true
    },
    {
      "ID": "Z-0CG4uVBXR-nMjdIR8aSa-AdhCOeIisHvLeXSjoCeS1PYQOUkpbPbfoIrZ8ThUrf1IpCwi8QPU=",
      "Lang": "ml",
      "CaptionKey": "translation",
      "CaptionName": "വിവർത്തനം",
      "YoutubeSynced": true
    },
    {
      "ID": "ieDiBhVDPXwz2bB-QeDwQH1AGhogLV3aXN6PLVPODuTSmp3IHuBl1A1V8lairjrC",
      "Lang": "mn",
      "CaptionKey": "translation",
      "CaptionName": "Орчуулга",
      "YoutubeSynced": true
    },
    {
      "ID": "DnzmNfVKiuZXWjo9M9czBDD-WQnMh0hrwc8W7gcxTJ7q2h2GpOmMa-kH0uV0Cw1M",
      "Lang": "mr",
      "CaptionKey": "translation",
      "CaptionName": "भाषांतर",
      "YoutubeSynced": true
    },
    {
      "ID": "QNgipwUUnetHoNHuGQo4TgsLLaYUmMcZDvrx9Cb1d3Hnq7mFpEAetg==",
      "Lang": "ms",
      "CaptionKey": "translation",
      "CaptionName": "Terjemahan",
      "YoutubeSynced": true
    },
    {
      "ID": "1XZUkGiou9sjUIMtXFq3IkM7tY6zJ9HgtWtrsKO5-ZO0mSCeeWjfyQ==",
      "Lang": "mt",
      "CaptionKey": "translation",
      "CaptionName": "Traduzzjoni",
      "YoutubeSynced": true
    },
    {
      "ID": "aYCWAjOH_85H_B-QJ-CExNKc3njZWlNH8lxOx6hFfIDfDJzxtp2tW1P0CmSsfJ5fcLntHCRlRBI=",
      "Lang": "my",
      "CaptionKey": "translation",
      "CaptionName": "ဘာသာပြန်",
      "YoutubeSynced": true
    },
    {
      "ID": "R2jSpmDq4YSN2Bax7SUWu4uq5TrZA705kZ8JzBBbe6G-fzeIGrePvk_SDskaRLO9",
      "Lang": "ne",
      "CaptionKey": "translation",
      "CaptionName": "अनुवाद",
      "YoutubeSynced": true
    },
    {
      "ID": "aMYmuWIP31kja_368tGtDiQhicAU0eqlMEmDfh8Cqm9zO1KK4nTgyQ==",
      "Lang": "nl",
      "CaptionKey": "translation",
      "CaptionName": "Vertaling",
      "YoutubeSynced": true
    },
    {
      "ID": "oedkCWb8_d4UQwJHjZ4pk4prxIePGVnm4K1hTLrZMVpdnvSDXd5EYw==",
      "Lang": "no",
      "CaptionKey": "translation",
      "CaptionName": "Oversettelse",
      "YoutubeSynced": true
    },
    {
      "ID": "R2jSpmDq4YTIQXJQRoN7bjaTG4i284Xe0nFK10KX05Wd4ejGX0eVNR9Vp6YOJCAY",
      "Lang": "pa",
      "CaptionKey": "translation",
      "CaptionName": "ਅਨੁਵਾਦ",
      "YoutubeSynced": true
    },
    {
      "ID": "oedkCWb8_d79Y7-KsD6o4xTRUdw_XDeoAEZjyVq3xMYaNXjPAXXX5w==",
      "Lang": "pl",
      "CaptionKey": "translation",
      "CaptionName": "Tłumaczenie",
      "YoutubeSynced": true
    },
    {
      "ID": "QNgipwUUnesn48_5QhZ-0c2qiNUdJbvG2dadIYaxymgM_uBHb3482w==",
      "Lang": "ps",
      "CaptionKey": "translation",
      "CaptionName": "ژباړه",
      "YoutubeSynced": true
    },
    {
      "ID": "QNgipwUUnevll77U4Fx6NF7s2YFIsp038FgPqC4txKsMnuz_2cbc7g==",
      "Lang": "pt",
      "CaptionKey": "translation",
      "CaptionName": "Tradução",
      "YoutubeSynced": true
    },
    {
      "ID": "aMYmuWIP31nkSGL1ouCikR3pIDHmuK8uZDda2wAJIbuwIL6HssqopA==",
      "Lang": "ro",
      "CaptionKey": "translation",
      "CaptionName": "Traducere",
      "YoutubeSynced": true
    },
    {
      "ID": "zd4t9jsAoyJCQTcDDSDx1494b7TAyx03sC9NCZ5mzAbegJExzhHnUQ==",
      "Lang": "ru",
      "CaptionKey": "translation",
      "CaptionName": "Перевод",
      "YoutubeSynced": true
    },
    {
      "ID": "QNgipwUUnevet26Va3qpKiIKNH8sGrqlrI5cmiBVnEiEHKBB-rJF9g==",
      "Lang": "sd",
      "CaptionKey": "translation",
      "CaptionName": "ترجمو",
      "YoutubeSynced": true
    },
    {
      "ID": "Z-0CG4uVBXSOGRiukq8_BEedigibitT2oN-cgY8dlwERCD11heWq80m3JRbP5lFpSPUo_9VmywY=",
      "Lang": "si",
      "CaptionKey": "translation",
      "CaptionName": "පරිවර්තනය",
      "YoutubeSynced": true
    },
    {
      "ID": "7d8QtzGnw7zD8MiYVfA0H39BnXfCI2MT4ZaYJY0kVMeCSheEZhNGNw==",
      "Lang": "sk",
      "CaptionKey": "translation",
      "CaptionName": "preklad",
      "YoutubeSynced": true
    },
    {
      "ID": "DAvZ9KgYoYS1SD8dO8oeY_cRHLdA3PxFIWpEptVtkuc=",
      "Lang": "sl",
      "CaptionKey": "translation",
      "CaptionName": "Prevod",
      "YoutubeSynced": true
    },
    {
      "ID": "oedkCWb8_d6OrFZtKGiocYfJep--dBRUXcCbw4jdn8wsN9jgQjwbmQ==",
      "Lang": "sm",
      "CaptionKey": "translation",
      "CaptionName": "Faʻaliliuga",
      "YoutubeSynced": true
    },
    {
      "ID": "7d8QtzGnw7za42e3qVBTGYk1icbQQvD2eKn_BAsyUXnXqa_rlHpiwQ==",
      "Lang": "sn",
      "CaptionKey": "translation",
      "CaptionName": "Dudziro",
      "YoutubeSynced": true
    },
    {
      "ID": "aMYmuWIP31lfKfPKZgYT5yQ-9xG6mg6DiGpLt0ifviK45JR0eVA5Kw==",
      "Lang": "so",
      "CaptionKey": "translation",
      "CaptionName": "Tarjumida",
      "YoutubeSynced": true
    },
    {
      "ID": "aMYmuWIP31n6-T7y5k-1pwAWB_kSX6mm7x7DVocZlwlAeaVsJyOciA==",
      "Lang": "sq",
      "CaptionKey": "translation",
      "CaptionName": "përkthim",
      "YoutubeSynced": true
    },
    {
      "ID": "oedkCWb8_d7RuDaekLtfFWAt7ctmkjZU5JHJz5gghjf2a9t7ovmNBw==",
      "Lang": "sr",
      "CaptionKey": "translation",
      "CaptionName": "Превод",
      "YoutubeSynced": true
    },
    {
      "ID": "aMYmuWIP31levj5Q5Wkv0mATCEEGnppW-slMaXz36noRV7NboFssog==",
      "Lang": "st",
      "CaptionKey": "translation",
      "CaptionName": "Phetolelo",
      "YoutubeSynced": true
    },
    {
      "ID": "QNgipwUUnesNIz33aVrezkWUMDsXKt0XXaa7lNO_3zgrjlh_4SY16A==",
      "Lang": "su",
      "CaptionKey": "translation",
      "CaptionName": "Tarjamahan",
      "YoutubeSynced": true
    },
    {
      "ID": "zd4t9jsAoyLuu-8xj0icIKxtOebRfuBLmJmdEru-fUVxX5AUbHULJg==",
      "Lang": "sv",
      "CaptionKey": "translation",
      "CaptionName": "Översättning",
      "YoutubeSynced": true
    },
    {
      "ID": "7d8QtzGnw7xDqUdT7LzltaeHnxBy5K9WOw8QW9a1c2RzueeEf0-ClQ==",
      "Lang": "sw",
      "CaptionKey": "translation",
      "CaptionName": "Tafsiri",
      "YoutubeSynced": true
    },
    {
      "ID": "49kAoaCkb_72DxQ7MyZTq29g0arf-kmFTBzBI_D3AJ3zS-ZGNMmRHz7wWx7OuMFgdZPzqo-s4hYB7bpt0XaQFCp4aADTIQaF",
      "Lang": "ta",
      "CaptionKey": "translation",
      "CaptionName": "மொழிபெயர்ப்பு",
      "YoutubeSynced": true
    },
    {
      "ID": "DnzmNfVKiuZQBLW294GlYVcYvaa80sudJKu5YBKIH3e96buL8HT29OzmcTKV4xqc",
      "Lang": "te",
      "CaptionKey": "translation",
      "CaptionName": "అనువాదం",
      "YoutubeSynced": true
    },
    {
      "ID": "zd4t9jsAoyLhTE-hLRKyRgikx9F3azcnTZ-iJwJTGPqnDifWJlUVTg==",
      "Lang": "tg",
      "CaptionKey": "translation",
      "CaptionName": "Тарҷума",
      "YoutubeSynced": true
    },
    {
      "ID": "R2jSpmDq4YSZpjJqSknK1PX0hqTS8J3BK4lBU0zQ6I9nlrKOToVvkTxwSAqiB23E",
      "Lang": "th",
      "CaptionKey": "translation",
      "CaptionName": "การแปล",
      "YoutubeSynced": true
    },
    {
      "ID": "KIwO-X756xufhXm5uIyo-PyVHYh9LYzqjhK_jnhhJ6p-Gd1uLz07bw==",
      "Lang": "tr",
      "CaptionKey": "translation",
      "CaptionName": "Tercüme",
      "YoutubeSynced": true
    },
    {
      "ID": "ieDiBhVDPXxT15PQQ8WfijSl8TgJ_7_FEfRyfD9r2Zg-TdmHQXPiqEzRC9_irwPd",
      "Lang": "uk",
      "CaptionKey": "translation",
      "CaptionName": "Переклад",
      "YoutubeSynced": true
    },
    {
      "ID": "QNgipwUUnet0lcq1ICbzXdvVNH96-NXSpfYQKX3QWI6IcBkQx23rqQ==",
      "Lang": "ur",
      "CaptionKey": "translation",
      "CaptionName": "ترجمہ",
      "YoutubeSynced": true
    },
    {
      "ID": "7d8QtzGnw7waLmBUb9uRgFRjWNxiMMfP0IVK4w5gO60WJoZCm50Qpw==",
      "Lang": "uz",
      "CaptionKey": "translation",
      "CaptionName": "Tarjima",
      "YoutubeSynced": true
    },
    {
      "ID": "DAvZ9KgYoYSIAc5cfYyyrs6970uB3hbaOdyfIh5iaaw=",
      "Lang": "vi",
      "CaptionKey": "translation",
      "CaptionName": "Dịch",
      "YoutubeSynced": true
    },
    {
      "ID": "QNgipwUUnevWBYGzHmJypgLX1WW_loEt3TiVPueBT6Czi5mYDeD6PQ==",
      "Lang": "xh",
      "CaptionKey": "translation",
      "CaptionName": "Inguqulelo",
      "YoutubeSynced": true
    },
    {
      "ID": "gbB4zECikkCMu3cGxMLKA3CX471AULTZscm4csCnuNWgIoOMNw2-D9_L7VKyIc2W",
      "Lang": "yi",
      "CaptionKey": "translation",
      "CaptionName": "איבערזעצונג",
      "YoutubeSynced": true
    },
    {
      "ID": "7d8QtzGnw7wnNvg1HzBBIAQxX8_L3rvjtT_E33NFKMzuaBL183PiJg==",
      "Lang": "yo",
      "CaptionKey": "translation",
      "CaptionName": "Itumọ",
      "YoutubeSynced": true
    },
    {
      "ID": "1XZUkGiou9u8IsLTcB0cfrEmxeV8_CehFrHt4Th2lkPIJ1j4558iTQ==",
      "Lang": "zh-Hans",
      "CaptionKey": "translation",
      "CaptionName": "翻译",
      "YoutubeSynced": true
    },
    {
      "ID": "1XZUkGiou9u8IsLTcB0cficb_U9w3CCX3eDUWcqfZK7lwXAEepslSA==",
      "Lang": "zh-Hant",
      "CaptionKey": "translation",
      "CaptionName": "翻譯",
      "YoutubeSynced": true
    },
    {
      "ID": "QNgipwUUnesjv11pE2pDRApH9JdRD7WltmvgchZqtKpJ67zo-h6U4g==",
      "Lang": "zu",
      "CaptionKey": "translation",
      "CaptionName": "Ukuhumusha",
      "YoutubeSynced": true
    }
  ]
}