{
  "VideoFile": "grammar-en-beginner-simple_33_IN.mp4",
  "Captions": [
    {
      "ID": "spgLJgb485g6ZmjiM8fF00MplguXZWPQxft9nwGpLxZDyJ6mhOmk-A==",
      "Lang": "af",
      "CaptionKey": "translation",
      "CaptionName": "vertaling",
      "YoutubeSynced": true
    },
    {
      "ID": "YC8wGbjoDRnS-fhhuxGbVyHEjPCxRKDDL0MpNtxSbxB9jadwXZaeKg==",
      "Lang": "am",
      "CaptionKey": "translation",
      "CaptionName": "ትርጉም",
      "YoutubeSynced": true
    },
    {
      "ID": "ejCGg5LLRzEp2NTzdEwiOwIPGcLd8ncbJ4AKKz9ISEpSwOMaiILmgw==",
      "Lang": "ar",
      "CaptionKey": "translation",
      "CaptionName": "ترجمة",
      "YoutubeSynced": true
    },
    {
      "ID": "ejCGg5LLRzEjp7otjKamofqBvCnNGT7CJuR9BDZP_EK_h1v75r88hQ==",
      "Lang": "az",
      "CaptionKey": "translation",
      "CaptionName": "Tərcümə",
      "YoutubeSynced": true
    },
    {
      "ID": "EB10Z84J6ExqGpPlWKK8Cfv7Gb0q21FlLAfR9gShRMaQMjkzpFhgl7xr3FDBeLet",
      "Lang": "be",
      "CaptionKey": "translation",
      "CaptionName": "Пераклад",
      "YoutubeSynced": true
    },
    {
      "ID": "YC8wGbjoDRnNjruPQ1N4wBqoJ_L9-huqJtsUIm1s8ktON9b9cpGYEA==",
      "Lang": "bg",
      "CaptionKey": "translation",
      "CaptionName": "превод",
      "YoutubeSynced": true
    },
    {
      "ID": "ZrIjt8j4qONekTdt1arZAi2iyQ0ADIIRiyF0AecYNwILXx9g6RzXw3OOqLKGIjVG",
      "Lang": "bn",
      "CaptionKey": "translation",
      "CaptionName": "অনুবাদ",
      "YoutubeSynced": true
    },
    {
      "ID": "dva-H_yhccnj8Cjw1aVTHFNEpu3LxL1qsE6CEdCdUYk=",
      "Lang": "bs",
      "CaptionKey": "translation",
      "CaptionName": "Prevod",
      "YoutubeSynced": true
    },
    {
      "ID": "ejCGg5LLRzFLQd0bpm4rajmNRgvjo7svwwGbam3PFxcYkzymm_h12g==",
      "Lang": "ca",
      "CaptionKey": "translation",
      "CaptionName": "Traducció",
      "YoutubeSynced": true
    },
    {
      "ID": "ejCGg5LLRzFuENkhiIwGcZAcj5eECe5fZNEpOcuP8UKd2pxQ9KxOnQ==",
      "Lang": "co",
      "CaptionKey": "translation",
      "CaptionName": "Traduzione",
      "YoutubeSynced": true
    },
    {
      "ID": "7RWHrUcQnUMEQbxUREP7kHjA9uOoHyRaKuy3YdwXRge5RBIIsS33gg==",
      "Lang": "cs",
      "CaptionKey": "translation",
      "CaptionName": "Překlad",
      "YoutubeSynced": true
    },
    {
      "ID": "pDJR1fMe8WiRNoXD8fHusFwT4g_OGnWmv3P74tN4pEn4r4l9mj1r-w==",
      "Lang": "cy",
      "CaptionKey": "translation",
      "CaptionName": "Cyfieithiad",
      "YoutubeSynced": true
    },
    {
      "ID": "LIcjjy7NQntur88LHUtmyFTb-iTRmQd-4gWHPYwJH6AYdObHOlDxrQ==",
      "Lang": "da",
      "CaptionKey": "translation",
      "CaptionName": "Oversættelse",
      "YoutubeSynced": true
    },
    {
      "ID": "YC8wGbjoDRkC4tWgbsUuEVovY0bbm6M_Pg2fP7ZA3c-jvFLhFUcdSQ==",
      "Lang": "de",
      "CaptionKey": "translation",
      "CaptionName": "Übersetzung",
      "YoutubeSynced": true
    },
    {
      "ID": "ZrIjt8j4qOO0QuYifDaEuW7r0sDbKiGWQR-MI1mO74amwZlvW-JO2G9n7jYcYeSF",
      "Lang": "el",
      "CaptionKey": "translation",
      "CaptionName": "Μετάφραση",
      "YoutubeSynced": true
    },
    {
      "ID": "pDJR1fMe8WjgVdUXLtF1BS8YeGyHZLTnhF046BX58Cn3oDJDRaKiIA==",
      "Lang": "en",
      "CaptionKey": "translation",
      "CaptionName": "Translation",
      "YoutubeSynced": true
    },
    {
      "ID": "6LRLrdHQq1b8zy9dMWAL1lC-udH66hTNQ-xwLiX4cOn7XBu-g7lhAwDxSD73uwKE",
      "Lang": "en",
      "CaptionKey": "ruby",
      "CaptionName": "Pronunciation - IPA",
      "YoutubeSynced": true
    },
    {
      "ID": "pDJR1fMe8Wjos5-Z_SY3izCKf0XmHdi0Ozy59b4wNdVWfQQD1cQBDQ==",
      "Lang": "es",
      "CaptionKey": "translation",
      "CaptionName": "Traducción",
      "YoutubeSynced": true
    },
    {
      "ID": "dva-H_yhcckPzDORuVLoMWZfQoBY5xVgrWVv0OZCYyw=",
      "Lang": "et",
      "CaptionKey": "translation",
      "CaptionName": "Tõlge",
      "YoutubeSynced": true
    },
    {
      "ID": "spgLJgb485huNVVje_1Bm922HA0DM0ntnyXECHqKOAZebf9htAoxfg==",
      "Lang": "eu",
      "CaptionKey": "translation",
      "CaptionName": "Itzulpena",
      "YoutubeSynced": true
    },
    {
      "ID": "ejCGg5LLRzElk1sCXRoOt1GE6xEO0Xvk0qohPVAxeSlxTtGWgNWGZA==",
      "Lang": "fa",
      "CaptionKey": "translation",
      "CaptionName": "ترجمه",
      "YoutubeSynced": true
    },
    {
      "ID": "ejCGg5LLRzGLKoT5ygi3OXTw_jvxAsRihDS1CZl-1Blo-6rxsZMGww==",
      "Lang": "fi",
      "CaptionKey": "translation",
      "CaptionName": "Käännös",
      "YoutubeSynced": true
    },
    {
      "ID": "pDJR1fMe8WjlS_knZLA-HT4OuL5E4ZnLTX-WPWNL9SB5sPo25oNH4w==",
      "Lang": "fil",
      "CaptionKey": "translation",
      "CaptionName": "Pagsasalin",
      "YoutubeSynced": true
    },
    {
      "ID": "ejCGg5LLRzGEwhzkbQwE_6Id4KG-j2bqak5H9YP_fEs3QArTv9HBmw==",
      "Lang": "fr",
      "CaptionKey": "translation",
      "CaptionName": "Traduction",
      "YoutubeSynced": true
    },
    {
      "ID": "ejCGg5LLRzFLYyzoBY8zKp9vmzj6X6WTTnsuAOW4ImvujSBQXiv6qQ==",
      "Lang": "fy",
      "CaptionKey": "translation",
      "CaptionName": "Oersetting",
      "YoutubeSynced": true
    },
    {
      "ID": "ZrIjt8j4qOML-XRZB9DoLcH5RYIklW7Wi7ZEZNNQfg7c6oyW0kkZ_cCJGFd75IiG",
      "Lang": "gd",
      "CaptionKey": "translation",
      "CaptionName": "Eadar-theangachadh",
      "YoutubeSynced": true
    },
    {
      "ID": "ejCGg5LLRzH-OrvPBlhEzNNMD0nxtmyYwX6v3autZLqtbZwXnk6leA==",
      "Lang": "gl",
      "CaptionKey": "translation",
      "CaptionName": "Tradución",
      "YoutubeSynced": true
    },
    {
      "ID": "ZrIjt8j4qOMR7In1XtXnNe04d7-bJiPVWqvyVnZdLw76jajvZidonpu52_1tS3PY",
      "Lang": "gu",
      "CaptionKey": "translation",
      "CaptionName": "અનુવાદ",
      "YoutubeSynced": true
    },
    {
      "ID": "dbRcXvxQX7zixxO9TkTw-4yQqYq4VGvlJnyLqrmwp5zq6FLjiH_wog==",
      "Lang": "ha",
      "CaptionKey": "translation",
      "CaptionName": "Fassara",
      "YoutubeSynced": true
    },
    {
      "ID": "ZrIjt8j4qOP9tch1XIiGQ_Hrm-FzYbrqWNCFon0gvly0J7N1lJPonNbtEiGQKGMR",
      "Lang": "hi",
      "CaptionKey": "translation",
      "CaptionName": "अनुवाद",
      "YoutubeSynced": true
    },
    {
      "ID": "7RWHrUcQnUNZiOWMUD5X5bDoaUQZOnJ9W5de7rYNnpnaJczxEt_qBA==",
      "Lang": "hr",
      "CaptionKey": "translation",
      "CaptionName": "Prijevod",
      "YoutubeSynced": true
    },
    {
      "ID": "ejCGg5LLRzFty-O3XYrgzbOKSWMRKdTPRYvkewxiHIxwQGIZOt0sDQ==",
      "Lang": "hu",
      "CaptionKey": "translation",
      "CaptionName": "Fordítás",
      "YoutubeSynced": true
    },
    {
      "ID": "3qgAkfwLjnoJ9RqfPimeVHrVXJQR9ownkd5it6K63KJQKtMKVekRl6iG52XZuGtTKan-hGy3CBA=",
      "Lang": "hy",
      "CaptionKey": "translation",
      "CaptionName": "Թարգմանություն",
      "YoutubeSynced": true
    },
    {
      "ID": "ejCGg5LLRzFoAKraGUoUjg0gHxMFIshvNWPL4hTszHpfAIi2p0W-6g==",
      "Lang": "id",
      "CaptionKey": "translation",
      "CaptionName": "Terjemahan",
      "YoutubeSynced": true
    },
    {
      "ID": "7RWHrUcQnUN5wCBRFDWEcSDfDWuPAYWMnlHoCp8MdUqEEu8snStL4g==",
      "Lang": "ig",
      "CaptionKey": "translation",
      "CaptionName": "Ntughari",
      "YoutubeSynced": true
    },
    {
      "ID": "spgLJgb485j3a4IDSR_uDuQ7Dl6CtOT39nMH-dMTero0CcWF1N9mFg==",
      "Lang": "is",
      "CaptionKey": "translation",
      "CaptionName": "Þýðing",
      "YoutubeSynced": true
    },
    {
      "ID": "ejCGg5LLRzHIOofV3RcMxoy_vwwQOYVh66w1BSMz_47rWSTqtYZVmg==",
      "Lang": "it",
      "CaptionKey": "translation",
      "CaptionName": "Traduzione",
      "YoutubeSynced": true
    },
    {
      "ID": "ejCGg5LLRzEDTLLIVxPwFC8ZwgR0JciwLVyBVuTsPWCsFJsiqwQAZg==",
      "Lang": "iw",
      "CaptionKey": "translation",
      "CaptionName": "תרגום",
      "YoutubeSynced": true
    },
    {
      "ID": "dva-H_yhccmwz3-W9Sw4usoSjL7G--tueE_lYba222o=",
      "Lang": "ja",
      "CaptionKey": "translation",
      "CaptionName": "翻訳",
      "YoutubeSynced": true
    },
    {
      "ID": "spgLJgb485iZW1EkaMyRhpmhCqiwBmPFN7QjnkNwPmI2rZsa3pFT8A==",
      "Lang": "jv",
      "CaptionKey": "translation",
      "CaptionName": "Ngartekne",
      "YoutubeSynced": true
    },
    {
      "ID": "gCqmQYWaxc6bkfh8kX2Gyp-htruqCzzObohowprA5VcCoxACEpGS_1M8rBz1JpjRO7OYNg2OvrI=",
      "Lang": "ka",
      "CaptionKey": "translation",
      "CaptionName": "თარგმანი",
      "YoutubeSynced": true
    },
    {
      "ID": "p8cyL_muaWTNtxaMmJBk2gVHdXo964LU8dtT4XfWlcNI_jaWT6BtXQ==",
      "Lang": "kk",
      "CaptionKey": "translation",
      "CaptionName": "Аударма",
      "YoutubeSynced": true
    },
    {
      "ID": "HXvXBkJr0-LwiYLAKBGWgxFfoNYox262k0SRCq0SSMIRzRTMVD290vYYMqO5a4O5lXUmCHr_Eaw=",
      "Lang": "km",
      "CaptionKey": "translation",
      "CaptionName": "ការបកប្រែ",
      "YoutubeSynced": true
    },
    {
      "ID": "ZrIjt8j4qON4dwUfW4bAb1dHxKZSoIasm4lJve4-hxLuXMA1G-8EiBl6sKztDZSS",
      "Lang": "kn",
      "CaptionKey": "translation",
      "CaptionName": "ಅನುವಾದ",
      "YoutubeSynced": true
    },
    {
      "ID": "dva-H_yhccme-ltK1qLB5FaIYiwYZkleDN3OEm1K8gQ=",
      "Lang": "ko",
      "CaptionKey": "translation",
      "CaptionName": "번역",
      "YoutubeSynced": true
    },
    {
      "ID": "dva-H_yhccn1s98bXA4a-m4VGivT4sX1-BLV862j0Y0=",
      "Lang": "ku",
      "CaptionKey": "translation",
      "CaptionName": "Werger",
      "YoutubeSynced": true
    },
    {
      "ID": "p8cyL_muaWRzYcZEcZRQmf-Z2K-aBUXAjruB0P01hZ7_QL7bjINqBw==",
      "Lang": "ky",
      "CaptionKey": "translation",
      "CaptionName": "котормо",
      "YoutubeSynced": true
    },
    {
      "ID": "YC8wGbjoDRkqR8QYwZITOvZGzHYwUNFPD-fT7_SmMvb43eoaOWo7wQ==",
      "Lang": "lb",
      "CaptionKey": "translation",
      "CaptionName": "Iwwersetzung",
      "YoutubeSynced": true
    },
    {
      "ID": "HXvXBkJr0-IfdZWP7qQcgvuS7AfeuNw6ogH5JWENARevMvgIa9EtOMpQ_kZiVqsn-PQ1rBU04dA=",
      "Lang": "lo",
      "CaptionKey": "translation",
      "CaptionName": "ການແປພາສາ",
      "YoutubeSynced": true
    },
    {
      "ID": "7RWHrUcQnUNmnBxqCUK4RjoQSwpZ08Os4XawVsfkUITJwpt_3Jjgqg==",
      "Lang": "lt",
      "CaptionKey": "translation",
      "CaptionName": "Vertimas",
      "YoutubeSynced": true
    },
    {
      "ID": "ejCGg5LLRzHFLm0Vpv737mN-xb6adL8eAiiZu8XQy1YRUgYJ0LQojA==",
      "Lang": "lv",
      "CaptionKey": "translation",
      "CaptionName": "Tulkošana",
      "YoutubeSynced": true
    },
    {
      "ID": "pDJR1fMe8WhoalUOjR0ZjlHUS5RlKTD6PTPebJVXN-3jGxVrXzgUUQ==",
      "Lang": "mg",
      "CaptionKey": "translation",
      "CaptionName": "Translation",
      "YoutubeSynced": true
    },
    {
      "ID": "PLgOIPh65NqIRnnKasIj_TA7JTS9YfAUXUPp0UC-IBq1ZCIJKg6LzfqXYlwq5yAG",
      "Lang": "mi",
      "CaptionKey": "translation",
      "CaptionName": "Whakamaoritanga",
      "YoutubeSynced": true
    },
    {
      "ID": "YC8wGbjoDRkrpo-MlQ7DS9AqmCplBjtMT1JGpwA3WyFUoho0BKoBoA==",
      "Lang": "mk",
      "CaptionKey": "translation",
      "CaptionName": "Превод",
      "YoutubeSynced": true
    },
    {
      "ID": "HXvXBkJr0-LqTqT9nVIhdZ-LxWf3L9twx2jHsKU0ef4JB1yOl7twOr_jaKjStOwGdhCndumrifU=",
      "Lang": "ml",
      "CaptionKey": "translation",
      "CaptionName": "വിവർത്തനം",
      "YoutubeSynced": true
    },
    {
      "ID": "EB10Z84J6Ewn3pl6meNSNcy_X4ZR06m5acOgdJeNLUKZ8OvO6GCvFQ6TPz9yZai_",
      "Lang": "mn",
      "CaptionKey": "translation",
      "CaptionName": "Орчуулга",
      "YoutubeSynced": true
    },
    {
      "ID": "Q1n6LmimAJVwDSpErLS4lJfe35BQngSJ6xDzSNJV_XFPZZHS6JoQseMdoksS6xSY",
      "Lang": "mr",
      "CaptionKey": "translation",
      "CaptionName": "भाषांतर",
      "YoutubeSynced": true
    },
    {
      "ID": "ejCGg5LLRzFfB6nzvth8F9n-mut8K4pS58QzvrTk8ckhiCGOS6pNyQ==",
      "Lang": "ms",
      "CaptionKey": "translation",
      "CaptionName": "Terjemahan",
      "YoutubeSynced": true
    },
    {
      "ID": "pDJR1fMe8WhVekot61f11s-JuTmgAlmamBBuAzOeQoVw8wqbI7nzxA==",
      "Lang": "mt",
      "CaptionKey": "translation",
      "CaptionName": "Traduzzjoni",
      "YoutubeSynced": true
    },
    {
      "ID": "gCqmQYWaxc6uZtxD8Gh2-tp9tKrMU1jbjAWodzGca2BcYCfgLrc2JFtVgOkF52Yg3Ya9k97Fk9M=",
      "Lang": "my",
      "CaptionKey": "translation",
      "CaptionName": "ဘာသာပြန်",
      "YoutubeSynced": true
    },
    {
      "ID": "ZrIjt8j4qOMasEFsj-7ia1Cb-odjzEnrIbU0ifD5W_jyJFATFzkBt7-qi6lJ0Wli",
      "Lang": "ne",
      "CaptionKey": "translation",
      "CaptionName": "अनुवाद",
      "YoutubeSynced": true
    },
    {
      "ID": "spgLJgb485itPGVT4ypkjEH2SMekew81NZSauUuLqH4L7Lnqb0Eo0g==",
      "Lang": "nl",
      "CaptionKey": "translation",
      "CaptionName": "Vertaling",
      "YoutubeSynced": true
    },
    {
      "ID": "YC8wGbjoDRn8bs7l8lBFY18gy7jhbkg0DiTGzZKdwKv9kPbHJszhqw==",
      "Lang": "no",
      "CaptionKey": "translation",
      "CaptionName": "Oversettelse",
      "YoutubeSynced": true
    },
    {
      "ID": "ZrIjt8j4qOMjbp8b4rIoJ2vTMuzkY5ziic7D1rMP88zYQTli9MW08dgbWm8RYON2",
      "Lang": "pa",
      "CaptionKey": "translation",
      "CaptionName": "ਅਨੁਵਾਦ",
      "YoutubeSynced": true
    },
    {
      "ID": "YC8wGbjoDRlCRc7yqMDqKUoI-DzQcR_V7a0swXSfhZBA_vnk6H9RGw==",
      "Lang": "pl",
      "CaptionKey": "translation",
      "CaptionName": "Tłumaczenie",
      "YoutubeSynced": true
    },
    {
      "ID": "ejCGg5LLRzESzOIaIVQq9A78IOMKIFj5oIzwA4hCaNb9d5LXCZ5ktQ==",
      "Lang": "ps",
      "CaptionKey": "translation",
      "CaptionName": "ژباړه",
      "YoutubeSynced": true
    },
    {
      "ID": "ejCGg5LLRzFeDDSHL32uLI0kXTc-Vt1TD__QzyMsyLi0LmjRHiR0AQ==",
      "Lang": "pt",
      "CaptionKey": "translation",
      "CaptionName": "Tradução",
      "YoutubeSynced": true
    },
    {
      "ID": "spgLJgb485g2NMkFUZ42xmX1_Af5WsVOxHvfk__-Z0LQjHAplc6oVg==",
      "Lang": "ro",
      "CaptionKey": "translation",
      "CaptionName": "Traducere",
      "YoutubeSynced": true
    },
    {
      "ID": "p8cyL_muaWTydW1jWWNvQ9Og2cRXA3lldO64J_Y-nlsMX9VO0oFl8Q==",
      "Lang": "ru",
      "CaptionKey": "translation",
      "CaptionName": "Перевод",
      "YoutubeSynced": true
    },
    {
      "ID": "ejCGg5LLRzE8vaofa7FtuWe1AdNWv0BVRGzvcBJ_LrdCVO2QoUJ33Q==",
      "Lang": "sd",
      "CaptionKey": "translation",
      "CaptionName": "ترجمو",
      "YoutubeSynced": true
    },
    {
      "ID": "HXvXBkJr0-K4a09W0fZEz8mgi0QwvGpVPqK4ztgbv9NM_xfmfQf2nus4aK4Q-dD9wVygC53Llqs=",
      "Lang": "si",
      "CaptionKey": "translation",
      "CaptionName": "පරිවර්තනය",
      "YoutubeSynced": true
    },
    {
      "ID": "dbRcXvxQX7y5yCxX1BcYSG_L-xJNdtXRIBQDKlqa-1FHoqCInp2-tQ==",
      "Lang": "sk",
      "CaptionKey": "translation",
      "CaptionName": "preklad",
      "YoutubeSynced": true
    },
    {
      "ID": "dva-H_yhccnGkEFr4RJEU1KpsyPTad3S4dyWId2_hu0=",
      "Lang": "sl",
      "CaptionKey": "translation",
      "CaptionName": "Prevod",
      "YoutubeSynced": true
    },
    {
      "ID": "YC8wGbjoDRmVBKteraSuLK71lYGkD6luN1GAcsQIsEyW3bOOjokCSQ==",
      "Lang": "sm",
      "CaptionKey": "translation",
      "CaptionName": "Faʻaliliuga",
      "YoutubeSynced": true
    },
    {
      "ID": "dbRcXvxQX7wqyVbd2WlAAN_LYsFmzs6HY_-TmUjPeyU_HGtejP-ePw==",
      "Lang": "sn",
      "CaptionKey": "translation",
      "CaptionName": "Dudziro",
      "YoutubeSynced": true
    },
    {
      "ID": "spgLJgb485jakvjnm7SaRMxcAM-CUurM6h3m0BoWngRYGiBiYwTmPw==",
      "Lang": "so",
      "CaptionKey": "translation",
      "CaptionName": "Tarjumida",
      "YoutubeSynced": true
    },
    {
      "ID": "spgLJgb485gXkvbFQSiHLl_SUstR95ejkC2l9LVliTdwNtcEXwlv5A==",
      "Lang": "sq",
      "CaptionKey": "translation",
      "CaptionName": "përkthim",
      "YoutubeSynced": true
    },
    {
      "ID": "YC8wGbjoDRmhciQGOo9yemu_Qc6p4j0DUxBIcaCQ8Csj_fH-IBd-zg==",
      "Lang": "sr",
      "CaptionKey": "translation",
      "CaptionName": "Превод",
      "YoutubeSynced": true
    },
    {
      "ID": "spgLJgb485gZ-uXRAHWLNDMKcQvul96iMfovTJcjrLzuTGpj1X85EQ==",
      "Lang": "st",
      "CaptionKey": "translation",
      "CaptionName": "Phetolelo",
      "YoutubeSynced": true
    },
    {
      "ID": "ejCGg5LLRzGMwsxeBo1ZNw7LIXsiOl4VC4cJoAA_zJYXwr30D6JXYg==",
      "Lang": "su",
      "CaptionKey": "translation",
      "CaptionName": "Tarjamahan",
      "YoutubeSynced": true
    },
    {
      "ID": "p8cyL_muaWQqrNU60pRzT9UfaI4RPPxQyvv1sYt6wqDi78sKImN1rg==",
      "Lang": "sv",
      "CaptionKey": "translation",
      "CaptionName": "Översättning",
      "YoutubeSynced": true
    },
    {
      "ID": "dbRcXvxQX7z7y98e02258d0xgG_mSCNNZMGumgpQdEbZ5QRTYpwH4A==",
      "Lang": "sw",
      "CaptionKey": "translation",
      "CaptionName": "Tafsiri",
      "YoutubeSynced": true
    },
    {
      "ID": "DUFP9bkeIMD3eC5dyPgnB36D_0Yas0rFR7p_oCrjLiDMNkADxZWb7_E2HRnwpfIKVWY5QYq2tJSsdthtib9Fou55cVB1ZgS8",
      "Lang": "ta",
      "CaptionKey": "translation",
      "CaptionName": "மொழிபெயர்ப்பு",
      "YoutubeSynced": true
    },
    {
      "ID": "Q1n6LmimAJXCthfYj8_7yHQYSV1h4ZAUbOXwsz9WRIM0FMu94qjzv1DRPchN3VKb",
      "Lang": "te",
      "CaptionKey": "translation",
      "CaptionName": "అనువాదం",
      "YoutubeSynced": true
    },
    {
      "ID": "p8cyL_muaWQOPCs7D8G26qvaH5msy4RSx5vwmFEbGESYgebIJm4EcA==",
      "Lang": "tg",
      "CaptionKey": "translation",
      "CaptionName": "Тарҷума",
      "YoutubeSynced": true
    },
    {
      "ID": "ZrIjt8j4qOOhvUOBu-78a9T4WRuzJCWpJfpLqEXTXPEoRxoFfqBASaCyvWBfhqEC",
      "Lang": "th",
      "CaptionKey": "translation",
      "CaptionName": "การแปล",
      "YoutubeSynced": true
    },
    {
      "ID": "7RWHrUcQnUNk_Xw3vXCpwkYcRFOCiWnc7HphJqLeJ3QiXlkQjYap3w==",
      "Lang": "tr",
      "CaptionKey": "translation",
      "CaptionName": "Tercüme",
      "YoutubeSynced": true
    },
    {
      "ID": "EB10Z84J6Ew8I77IFjljxQGHxsmJ2aiRkGep7hpcMOv1m6fDpzlPzMnCk7s186xj",
      "Lang": "uk",
      "CaptionKey": "translation",
      "CaptionName": "Переклад",
      "YoutubeSynced": true
    },
    {
      "ID": "ejCGg5LLRzEsZ4NlHKSaE6ubvKcKqoLH7Iix2Ui21nA2Rb-KEcQrcg==",
      "Lang": "ur",
      "CaptionKey": "translation",
      "CaptionName": "ترجمہ",
      "YoutubeSynced": true
    },
    {
      "ID": "dbRcXvxQX7znU4vQPeVPmOBFGwl8mmYXGPTqU90DfnHdQQrlcPfDcQ==",
      "Lang": "uz",
      "CaptionKey": "translation",
      "CaptionName": "Tarjima",
      "YoutubeSynced": true
    },
    {
      "ID": "dva-H_yhccldF5_yXaDSqcsAg1dr2N0_tZH0cipvofE=",
      "Lang": "vi",
      "CaptionKey": "translation",
      "CaptionName": "Dịch",
      "YoutubeSynced": true
    },
    {
      "ID": "ejCGg5LLRzE7uun4HkERMu_S7FnZY135tywX-o7CkuyvQnCPs3CERQ==",
      "Lang": "xh",
      "CaptionKey": "translation",
      "CaptionName": "Inguqulelo",
      "YoutubeSynced": true
    },
    {
      "ID": "bBkfK0XJ6B0atMZWyD_tNtIGnhPr6fKnZLCVdIPI5J7XYjphbqTNYSXn1Tu4qO9o",
      "Lang": "yi",
      "CaptionKey": "translation",
      "CaptionName": "איבערזעצונג",
      "YoutubeSynced": true
    },
    {
      "ID": "dbRcXvxQX7yWFNnolT3tMQOBZbwjE2hOo2m7Z8qAN90HXUXVV7AQ5g==",
      "Lang": "yo",
      "CaptionKey": "translation",
      "CaptionName": "Itumọ",
      "YoutubeSynced": true
    },
    {
      "ID": "pDJR1fMe8WgPLj-gCLt_sa-7-rctOmz59cpxwhXplCIDVhFDYsBFQg==",
      "Lang": "zh-Hans",
      "CaptionKey": "translation",
      "CaptionName": "翻译",
      "YoutubeSynced": true
    },
    {
      "ID": "pDJR1fMe8WgPLj-gCLt_sRrQ-BYkFa_LxnA-tQ1X8aOadKOFhcXtMw==",
      "Lang": "zh-Hant",
      "CaptionKey": "translation",
      "CaptionName": "翻譯",
      "YoutubeSynced": true
    },
    {
      "ID": "ejCGg5LLRzG9HGZhgXDWV7NDCZ5ucbGNX29iKB0lnNXHIYkwIs9WwQ==",
      "Lang": "zu",
      "CaptionKey": "translation",
      "CaptionName": "Ukuhumusha",
      "YoutubeSynced": true
    }
  ]
}