{
  "VideoFile": "grammar-en-beginner-simple_84_IN.mp4",
  "Captions": [
    {
      "ID": "kfyRn4UcKGoSMkLHujKevQ5krtwiYXeT-PgAhzwoGuhIL4o1wVxqDA==",
      "Lang": "af",
      "CaptionKey": "translation",
      "CaptionName": "vertaling",
      "YoutubeSynced": true
    },
    {
      "ID": "gehtWoCEPjYMnCS1Whv1qLsUZYiHW-eIbdbVq8OJTIvyX7jzpu-Wng==",
      "Lang": "am",
      "CaptionKey": "translation",
      "CaptionName": "ትርጉም",
      "YoutubeSynced": true
    },
    {
      "ID": "30MByRfM0qqFpRTrrqs741CnVWVlJKDY652nWCotNC0kn4yQn13LAg==",
      "Lang": "ar",
      "CaptionKey": "translation",
      "CaptionName": "ترجمة",
      "YoutubeSynced": true
    },
    {
      "ID": "30MByRfM0qo7hSI-2IXriwAXRaxRXhI07olFSA97D2JtN8enkQgrkw==",
      "Lang": "az",
      "CaptionKey": "translation",
      "CaptionName": "Tərcümə",
      "YoutubeSynced": true
    },
    {
      "ID": "Uu7KpTAOC1_TyJMNSyNS7aGmvyDtccVo5ZWEAi5BPjwbPJ5NG7gbVhmSySYp0MuX",
      "Lang": "be",
      "CaptionKey": "translation",
      "CaptionName": "Пераклад",
      "YoutubeSynced": true
    },
    {
      "ID": "gehtWoCEPjYBz-zBRdCi64s4zIWpBZ4kUttwYGKgP5b9Y0GQ6qpPTA==",
      "Lang": "bg",
      "CaptionKey": "translation",
      "CaptionName": "превод",
      "YoutubeSynced": true
    },
    {
      "ID": "Itxo0XsT0By8NVDT6BRvVgO2V9iR7loYLhayO_QiXr5v1DvqpDEvbknSkEkL56Qt",
      "Lang": "bn",
      "CaptionKey": "translation",
      "CaptionName": "অনুবাদ",
      "YoutubeSynced": true
    },
    {
      "ID": "-ZVW5NJCZWkCK8YA0zTAxGNtHRty5LMttLxIaAUiRBc=",
      "Lang": "bs",
      "CaptionKey": "translation",
      "CaptionName": "Prevod",
      "YoutubeSynced": true
    },
    {
      "ID": "30MByRfM0qq2OiVsNS50VHtN7UrbWSkGJXxFry3CpOQQQm-5CcMwgA==",
      "Lang": "ca",
      "CaptionKey": "translation",
      "CaptionName": "Traducció",
      "YoutubeSynced": true
    },
    {
      "ID": "30MByRfM0qpFnqgYOLtY5AXJZib19yXZnEaXTWHVTeYTSjpuDQX7ng==",
      "Lang": "co",
      "CaptionKey": "translation",
      "CaptionName": "Traduzione",
      "YoutubeSynced": true
    },
    {
      "ID": "mk_3wcoCo-qcYcD1XidL8785Bf0ApUoE8xE33xjYiNtLCOffctgMVQ==",
      "Lang": "cs",
      "CaptionKey": "translation",
      "CaptionName": "Překlad",
      "YoutubeSynced": true
    },
    {
      "ID": "AsiYvvpqsv6bklK7hRzWRI5d_HTUM1_J1oEjxOtYU6Qtxck0evqang==",
      "Lang": "cy",
      "CaptionKey": "translation",
      "CaptionName": "Cyfieithiad",
      "YoutubeSynced": true
    },
    {
      "ID": "Ox5biOckxvN1UX-LsQvsledal3uD9XOvbWtV77igRaGuIU1FoXkhMg==",
      "Lang": "da",
      "CaptionKey": "translation",
      "CaptionName": "Oversættelse",
      "YoutubeSynced": true
    },
    {
      "ID": "gehtWoCEPjYZr30Ctw8viDFvljxn40fFhInxJta7aGdpS6BBfdQcrQ==",
      "Lang": "de",
      "CaptionKey": "translation",
      "CaptionName": "Übersetzung",
      "YoutubeSynced": true
    },
    {
      "ID": "Itxo0XsT0Bxx3YcHH8hLARG4CwF2jY-uDSS_BZRG3Pf3Cd5S4-HypLlrc02pUUNz",
      "Lang": "el",
      "CaptionKey": "translation",
      "CaptionName": "Μετάφραση",
      "YoutubeSynced": true
    },
    {
      "ID": "AsiYvvpqsv53BviJDDD0AkylAKrmAX9Efn5ILLfqgqEih8oUXj7-kQ==",
      "Lang": "en",
      "CaptionKey": "translation",
      "CaptionName": "Translation",
      "YoutubeSynced": true
    },
    {
      "ID": "Rd7jYk5ypwP1UtZpItqSHP07eO9vmvWlDG2j6roMd46Km5j1hOiz1JSzQaCHcxer",
      "Lang": "en",
      "CaptionKey": "ruby",
      "CaptionName": "Pronunciation - IPA",
      "YoutubeSynced": true
    },
    {
      "ID": "AsiYvvpqsv6nRxLtnJJhyZAdx9EQkCtNnOmQu0bdKVhRGHB9wML-Pg==",
      "Lang": "es",
      "CaptionKey": "translation",
      "CaptionName": "Traducción",
      "YoutubeSynced": true
    },
    {
      "ID": "-ZVW5NJCZWlSnAhp0ceYo5_4lUOBDScBxp3vo3eFLok=",
      "Lang": "et",
      "CaptionKey": "translation",
      "CaptionName": "Tõlge",
      "YoutubeSynced": true
    },
    {
      "ID": "kfyRn4UcKGpVWNKB5ugmUs8QSH-9go7nT-5uTjA8AWLY6PdTqPGGzw==",
      "Lang": "eu",
      "CaptionKey": "translation",
      "CaptionName": "Itzulpena",
      "YoutubeSynced": true
    },
    {
      "ID": "30MByRfM0qoTDJ1Fe6eWpwElv7C6SZHWFWnMZS9vgMMernszLI_Vxg==",
      "Lang": "fa",
      "CaptionKey": "translation",
      "CaptionName": "ترجمه",
      "YoutubeSynced": true
    },
    {
      "ID": "30MByRfM0qr7QAk8wbWNjhJR4fDCQ0hXa9jKn78-fQJSfURMadZUWQ==",
      "Lang": "fi",
      "CaptionKey": "translation",
      "CaptionName": "Käännös",
      "YoutubeSynced": true
    },
    {
      "ID": "AsiYvvpqsv7kdvq9G2k5n8sWZDl0bJQArU1t70gjKtdI61vNYFNsgA==",
      "Lang": "fil",
      "CaptionKey": "translation",
      "CaptionName": "Pagsasalin",
      "YoutubeSynced": true
    },
    {
      "ID": "30MByRfM0qob7FoKzGyFG_0u9zu29pv735ZXNrtfMz0l0xR863jihg==",
      "Lang": "fr",
      "CaptionKey": "translation",
      "CaptionName": "Traduction",
      "YoutubeSynced": true
    },
    {
      "ID": "30MByRfM0qoaCqIarX1pa1jFaqWtdkPE8EADpFzE5hEMF0uHkzOQig==",
      "Lang": "fy",
      "CaptionKey": "translation",
      "CaptionName": "Oersetting",
      "YoutubeSynced": true
    },
    {
      "ID": "Itxo0XsT0Bz5az8MmJNyg0QOsyPqvQ8cYIU4D0E0g3pKJSmmqa7Z3z93sqsSvnDv",
      "Lang": "gd",
      "CaptionKey": "translation",
      "CaptionName": "Eadar-theangachadh",
      "YoutubeSynced": true
    },
    {
      "ID": "30MByRfM0qq1pv7QTWoEHYoBaehN_9v_ttewo7vOupNTtKx6ukooag==",
      "Lang": "gl",
      "CaptionKey": "translation",
      "CaptionName": "Tradución",
      "YoutubeSynced": true
    },
    {
      "ID": "Itxo0XsT0Bxl5-TSmD514lwKKZPYIW0l1vwWRh-HIJV35evrNbyYchUDOd8JT-OR",
      "Lang": "gu",
      "CaptionKey": "translation",
      "CaptionName": "અનુવાદ",
      "YoutubeSynced": true
    },
    {
      "ID": "8pO8Oo0JLxXpLUOLGAmJ6k5QUBxMavnPRvGOHyVGF4qHbRdyNLKhTg==",
      "Lang": "ha",
      "CaptionKey": "translation",
      "CaptionName": "Fassara",
      "YoutubeSynced": true
    },
    {
      "ID": "Itxo0XsT0BygpPk5a76iC9Xz1begKGimDCiLSVneeMK2xS1ZqV82MqxPe6xbylWG",
      "Lang": "hi",
      "CaptionKey": "translation",
      "CaptionName": "अनुवाद",
      "YoutubeSynced": true
    },
    {
      "ID": "mk_3wcoCo-q8-IiVAfeFR0aExCHQPLwHnUz0FPQjJmAaciif7ZC2mw==",
      "Lang": "hr",
      "CaptionKey": "translation",
      "CaptionName": "Prijevod",
      "YoutubeSynced": true
    },
    {
      "ID": "30MByRfM0qrUz4HKq33cymM1edoclmlS5y4kd_XGslY-xpc87mR0Hw==",
      "Lang": "hu",
      "CaptionKey": "translation",
      "CaptionName": "Fordítás",
      "YoutubeSynced": true
    },
    {
      "ID": "zFkJkrmHrWmqpLnPCIvBsB5Q7Z8J5mol-dTTuQOysqtPjMKtUfifzQl_wemvXsnN6ZZ4J44QOlQ=",
      "Lang": "hy",
      "CaptionKey": "translation",
      "CaptionName": "Թարգմանություն",
      "YoutubeSynced": true
    },
    {
      "ID": "30MByRfM0qpYznG4r6h5elUMQPTySdBWRNwW99-Cec0ORLExcX3WSQ==",
      "Lang": "id",
      "CaptionKey": "translation",
      "CaptionName": "Terjemahan",
      "YoutubeSynced": true
    },
    {
      "ID": "mk_3wcoCo-o8lbSmWhufoiz8vgjSrejXsxL8HPFweRkuInwKXIE3Hw==",
      "Lang": "ig",
      "CaptionKey": "translation",
      "CaptionName": "Ntughari",
      "YoutubeSynced": true
    },
    {
      "ID": "kfyRn4UcKGo85e4HrplTtrCbYGQvkls23fa8ofLNO7nEzUQF7uvJ-A==",
      "Lang": "is",
      "CaptionKey": "translation",
      "CaptionName": "Þýðing",
      "YoutubeSynced": true
    },
    {
      "ID": "30MByRfM0qr49AIEzCAg1VotcjHUaEzb1sPUONDYnMf4oETzkwkdDw==",
      "Lang": "it",
      "CaptionKey": "translation",
      "CaptionName": "Traduzione",
      "YoutubeSynced": true
    },
    {
      "ID": "30MByRfM0qpEMSi5OBzEOduPdRIXDMnyi-j0vwcsOxyu22ETd2TgqQ==",
      "Lang": "iw",
      "CaptionKey": "translation",
      "CaptionName": "תרגום",
      "YoutubeSynced": true
    },
    {
      "ID": "-ZVW5NJCZWkhNIbFiZAC2xRrUuodQgmezd5FHrtHd80=",
      "Lang": "ja",
      "CaptionKey": "translation",
      "CaptionName": "翻訳",
      "YoutubeSynced": true
    },
    {
      "ID": "kfyRn4UcKGrazmKCXJF8E5zeCYwAAkUVXbETWeF1ywj-_X5hufjICA==",
      "Lang": "jv",
      "CaptionKey": "translation",
      "CaptionName": "Ngartekne",
      "YoutubeSynced": true
    },
    {
      "ID": "9Q79nXcHMorBAJd0bmWTdTDy2I_U90QUgf2SUvVXdPQtN8RPqTOnB7hcsG2AdZtPUe0QCF5P3V4=",
      "Lang": "ka",
      "CaptionKey": "translation",
      "CaptionName": "თარგმანი",
      "YoutubeSynced": true
    },
    {
      "ID": "z3RIs8taWbfiu79q0A7F4fSPg-bUPowJaYsXX2KL4fhT9QHY-S7J5g==",
      "Lang": "kk",
      "CaptionKey": "translation",
      "CaptionName": "Аударма",
      "YoutubeSynced": true
    },
    {
      "ID": "HkDsfPnvp7TwnQzymR7313myyVgbeHK87Tl83YHExxmj16Nhp9bcijLuiyZImMBDHk7GD6vcthk=",
      "Lang": "km",
      "CaptionKey": "translation",
      "CaptionName": "ការបកប្រែ",
      "YoutubeSynced": true
    },
    {
      "ID": "Itxo0XsT0Bwff3vlgwMhDCOjoLdnDi47VQPqMgWRniYdokUSXeJof7rJs-AM9ous",
      "Lang": "kn",
      "CaptionKey": "translation",
      "CaptionName": "ಅನುವಾದ",
      "YoutubeSynced": true
    },
    {
      "ID": "-ZVW5NJCZWmeJjS4thMwV_Qf0b1dxZl3sNLm6MRkh4s=",
      "Lang": "ko",
      "CaptionKey": "translation",
      "CaptionName": "번역",
      "YoutubeSynced": true
    },
    {
      "ID": "-ZVW5NJCZWm9SAHabiWGS1sYVNeqpXrc0QG6z8O0ehE=",
      "Lang": "ku",
      "CaptionKey": "translation",
      "CaptionName": "Werger",
      "YoutubeSynced": true
    },
    {
      "ID": "z3RIs8taWbe2gjAFtYi-VQGdBv8PqFAYr1VQlpgE2F2487KybYLifw==",
      "Lang": "ky",
      "CaptionKey": "translation",
      "CaptionName": "котормо",
      "YoutubeSynced": true
    },
    {
      "ID": "gehtWoCEPjbFWCEd8aBXe4rd_tvJffzq9W1YJqJxLIE4QAc3_i0uuw==",
      "Lang": "lb",
      "CaptionKey": "translation",
      "CaptionName": "Iwwersetzung",
      "YoutubeSynced": true
    },
    {
      "ID": "HkDsfPnvp7SBKm2K18XJhHsVyrUfqNfuI06Zp9cv5BoVgz_m1dRywYOctKkuu0igoGRcOx8Aox4=",
      "Lang": "lo",
      "CaptionKey": "translation",
      "CaptionName": "ການແປພາສາ",
      "YoutubeSynced": true
    },
    {
      "ID": "mk_3wcoCo-oExq6fbJNGZ4kCg1mRI--1tp2T5lByZeWlM1Rzc0l6Gw==",
      "Lang": "lt",
      "CaptionKey": "translation",
      "CaptionName": "Vertimas",
      "YoutubeSynced": true
    },
    {
      "ID": "30MByRfM0qrYaICDmuOB-JdBw37-_m5B8gBi_0BikBDxAt72a7Yg_w==",
      "Lang": "lv",
      "CaptionKey": "translation",
      "CaptionName": "Tulkošana",
      "YoutubeSynced": true
    },
    {
      "ID": "AsiYvvpqsv5bUPs7_7zHJ654klBzOPHjGMzEYR5DlxC3vjxkw2FzRw==",
      "Lang": "mg",
      "CaptionKey": "translation",
      "CaptionName": "Translation",
      "YoutubeSynced": true
    },
    {
      "ID": "cPY8gRq2_R08pLz68RrWkTFj0oSwfKaqGVBm3LEtw5kYFkPtezUndz24lAsM1Qwm",
      "Lang": "mi",
      "CaptionKey": "translation",
      "CaptionName": "Whakamaoritanga",
      "YoutubeSynced": true
    },
    {
      "ID": "gehtWoCEPjYesVjVGlGq82RPup9v__ffmEgsUw3CppWivlqcs0Z_6A==",
      "Lang": "mk",
      "CaptionKey": "translation",
      "CaptionName": "Превод",
      "YoutubeSynced": true
    },
    {
      "ID": "HkDsfPnvp7QM1Vd6XmTGtrXA96B4NGdj-WFjZQLk_wqhsMS0UN2Ehu5u0iZSFfazShOcUVf5SKg=",
      "Lang": "ml",
      "CaptionKey": "translation",
      "CaptionName": "വിവർത്തനം",
      "YoutubeSynced": true
    },
    {
      "ID": "Uu7KpTAOC1_h4gW_n9kf9Qh57Eu_4IXxeSFHRnXYZm0snuHZ-Gj4jMaLZwmHRM4x",
      "Lang": "mn",
      "CaptionKey": "translation",
      "CaptionName": "Орчуулга",
      "YoutubeSynced": true
    },
    {
      "ID": "PnoZthxkmHD8IQgbYrQICAAbZqdhRilnu6lSNXV61_DDmO_a6TSq1Yug-LsgIYO3",
      "Lang": "mr",
      "CaptionKey": "translation",
      "CaptionName": "भाषांतर",
      "YoutubeSynced": true
    },
    {
      "ID": "30MByRfM0qq7DTFGLtJq_P1_WD5XQQFW9ZBqdLiNPeqWV2hLjxpECw==",
      "Lang": "ms",
      "CaptionKey": "translation",
      "CaptionName": "Terjemahan",
      "YoutubeSynced": true
    },
    {
      "ID": "AsiYvvpqsv61ylnsvNM44ig3gbrEUiYia0FV4uHOXAOWctj3JZU0qA==",
      "Lang": "mt",
      "CaptionKey": "translation",
      "CaptionName": "Traduzzjoni",
      "YoutubeSynced": true
    },
    {
      "ID": "9Q79nXcHMopdAswMY_z0-C2Ox9r2bF2dJgx5gLwvT1t9poi-C-Ua0YLpcAWY15g_cCN3a8P6Inw=",
      "Lang": "my",
      "CaptionKey": "translation",
      "CaptionName": "ဘာသာပြန်",
      "YoutubeSynced": true
    },
    {
      "ID": "Itxo0XsT0ByP1LO6puO38qULc1BO1c6F6pV4MW1po74yn2oulqosydSEQdJUZN3G",
      "Lang": "ne",
      "CaptionKey": "translation",
      "CaptionName": "अनुवाद",
      "YoutubeSynced": true
    },
    {
      "ID": "kfyRn4UcKGrpsTUOjhJukcPurrGN2I3XoVNIoWFajjxMLCgRFSNf_Q==",
      "Lang": "nl",
      "CaptionKey": "translation",
      "CaptionName": "Vertaling",
      "YoutubeSynced": true
    },
    {
      "ID": "gehtWoCEPjYOseS9xz6aqlzOlMLklLybDHzIVmTlToeKdM7BL0jm6A==",
      "Lang": "no",
      "CaptionKey": "translation",
      "CaptionName": "Oversettelse",
      "YoutubeSynced": true
    },
    {
      "ID": "Itxo0XsT0BwOurY9Se3Jl76j5431jqShgrZwCethISggI2NF4EUFmfT3-QQ5UPf4",
      "Lang": "pa",
      "CaptionKey": "translation",
      "CaptionName": "ਅਨੁਵਾਦ",
      "YoutubeSynced": true
    },
    {
      "ID": "gehtWoCEPjZhJ2C_F3WXq3dKuNWyCOs5rU-cOu8jS4mNq1luhVMRPA==",
      "Lang": "pl",
      "CaptionKey": "translation",
      "CaptionName": "Tłumaczenie",
      "YoutubeSynced": true
    },
    {
      "ID": "30MByRfM0qp0csINWXCBYIriajppYpDGNWLGL-PX3XQfCBI9T5zbrg==",
      "Lang": "ps",
      "CaptionKey": "translation",
      "CaptionName": "ژباړه",
      "YoutubeSynced": true
    },
    {
      "ID": "30MByRfM0qownhIAmX5kF6oyXGzY8V0xP8u5YKR0LFoNrUrdDcHLnA==",
      "Lang": "pt",
      "CaptionKey": "translation",
      "CaptionName": "Tradução",
      "YoutubeSynced": true
    },
    {
      "ID": "kfyRn4UcKGqeyS9tNRMGw8GPo2CHgeLyYbct_7Net_0xO6Y31pi6_Q==",
      "Lang": "ro",
      "CaptionKey": "translation",
      "CaptionName": "Traducere",
      "YoutubeSynced": true
    },
    {
      "ID": "z3RIs8taWbfGBuVH4dAuXDn2gbixVhfslyi9UJYX0AtVl9dHsb0j3w==",
      "Lang": "ru",
      "CaptionKey": "translation",
      "CaptionName": "Перевод",
      "YoutubeSynced": true
    },
    {
      "ID": "30MByRfM0qpONguTW2ArR3qQAlFN-nPHhhL7vEGTc9nQGGHgmrz0mA==",
      "Lang": "sd",
      "CaptionKey": "translation",
      "CaptionName": "ترجمو",
      "YoutubeSynced": true
    },
    {
      "ID": "HkDsfPnvp7SZGioJttr7kaIYsKKjUEZaSbUnMrw2uhQgkSEFg7No7NrRKor5WsFYLbkcfRvALRU=",
      "Lang": "si",
      "CaptionKey": "translation",
      "CaptionName": "පරිවර්තනය",
      "YoutubeSynced": true
    },
    {
      "ID": "8pO8Oo0JLxWf5ya5-qNI8iDO_c_BFJ3KjVUWEU8_fkiiZiTfMuXGGA==",
      "Lang": "sk",
      "CaptionKey": "translation",
      "CaptionName": "preklad",
      "YoutubeSynced": true
    },
    {
      "ID": "-ZVW5NJCZWnp-jHepwqfuDFJ_uhDeXTSad6ICOF5Lw0=",
      "Lang": "sl",
      "CaptionKey": "translation",
      "CaptionName": "Prevod",
      "YoutubeSynced": true
    },
    {
      "ID": "gehtWoCEPjZQFmXMU-G2MJ_R4wuJ9pzydMLJGA7LeitYhmhfkGxDVQ==",
      "Lang": "sm",
      "CaptionKey": "translation",
      "CaptionName": "Faʻaliliuga",
      "YoutubeSynced": true
    },
    {
      "ID": "8pO8Oo0JLxW3SXM5IzVCuuJgeyEnOVbRkMq8RB9H_OfScJSXkQ7kAg==",
      "Lang": "sn",
      "CaptionKey": "translation",
      "CaptionName": "Dudziro",
      "YoutubeSynced": true
    },
    {
      "ID": "kfyRn4UcKGoz635w0XLANh7fWrTAwRiK-ftfojsPDY0GnjCfEqAG1g==",
      "Lang": "so",
      "CaptionKey": "translation",
      "CaptionName": "Tarjumida",
      "YoutubeSynced": true
    },
    {
      "ID": "kfyRn4UcKGqVy6n45UvMjWOeA-5kCMCqLcj-ffHnAEtgKJYQgwGEkw==",
      "Lang": "sq",
      "CaptionKey": "translation",
      "CaptionName": "përkthim",
      "YoutubeSynced": true
    },
    {
      "ID": "gehtWoCEPja8AD2_4hGksLv3smY2bU_Jrb-6u8jxYrI9YAlEPWQl7g==",
      "Lang": "sr",
      "CaptionKey": "translation",
      "CaptionName": "Превод",
      "YoutubeSynced": true
    },
    {
      "ID": "kfyRn4UcKGrSkkXnr6EOtfhDi4Togd7tBrlD6Bifi_Hjt0-fmknF9A==",
      "Lang": "st",
      "CaptionKey": "translation",
      "CaptionName": "Phetolelo",
      "YoutubeSynced": true
    },
    {
      "ID": "30MByRfM0qrJIgCLEIYBuiyaTBFBskxFZ-xPrCVAkZpBEEwy7rx9Gw==",
      "Lang": "su",
      "CaptionKey": "translation",
      "CaptionName": "Tarjamahan",
      "YoutubeSynced": true
    },
    {
      "ID": "z3RIs8taWbeHTrg60blyz56nBc0aEchG5XCmRjAj-Rq1TOTjJ8gW-g==",
      "Lang": "sv",
      "CaptionKey": "translation",
      "CaptionName": "Översättning",
      "YoutubeSynced": true
    },
    {
      "ID": "8pO8Oo0JLxWaauloxxmtFEgUJS6aW8uTpkJTDt-u0nEEnu8kGbKMKg==",
      "Lang": "sw",
      "CaptionKey": "translation",
      "CaptionName": "Tafsiri",
      "YoutubeSynced": true
    },
    {
      "ID": "WKPJYEKjogbsE4-mpA2OdqFe5NIGGNqftTQOf1dtlW7J8Kz1wkcVVr-usKHwADTHZ_V6SAfCkPQkUmDmoZUC22tpUdDEYTyi",
      "Lang": "ta",
      "CaptionKey": "translation",
      "CaptionName": "மொழிபெயர்ப்பு",
      "YoutubeSynced": true
    },
    {
      "ID": "PnoZthxkmHD7QG8mX8GRjAcPzcDlC6cVd6d2nHclRG8FDhg65TFfWN9ebljklTHP",
      "Lang": "te",
      "CaptionKey": "translation",
      "CaptionName": "అనువాదం",
      "YoutubeSynced": true
    },
    {
      "ID": "z3RIs8taWbdS0YKPAvvoLQ5RSKTJQ_vnl4S6tDCWUenI5kRtVG0Ucg==",
      "Lang": "tg",
      "CaptionKey": "translation",
      "CaptionName": "Тарҷума",
      "YoutubeSynced": true
    },
    {
      "ID": "Itxo0XsT0BwjY4otCX5BPV606t0-JODFv0UjEvCzf6AIFshBA5lrhfTgYXBKhBdq",
      "Lang": "th",
      "CaptionKey": "translation",
      "CaptionName": "การแปล",
      "YoutubeSynced": true
    },
    {
      "ID": "mk_3wcoCo-oPrY1hqjr4xzY6vlUKOuyAQb3KWHguGq7rNiLtkjfOlg==",
      "Lang": "tr",
      "CaptionKey": "translation",
      "CaptionName": "Tercüme",
      "YoutubeSynced": true
    },
    {
      "ID": "Uu7KpTAOC18msNF4fgAHa67T0hCHz-EC5qbPGFznDAR4VbAYOIsMiIEoYDIf5_Nq",
      "Lang": "uk",
      "CaptionKey": "translation",
      "CaptionName": "Переклад",
      "YoutubeSynced": true
    },
    {
      "ID": "30MByRfM0qp_vklSaQlXdKpdWXlqlIZf_G_hBuuHQea43eea1gNuMg==",
      "Lang": "ur",
      "CaptionKey": "translation",
      "CaptionName": "ترجمہ",
      "YoutubeSynced": true
    },
    {
      "ID": "8pO8Oo0JLxWsHuEk4huYS07f-tTeV4PKYQEzMNfBNxUcMxbdkCmK-A==",
      "Lang": "uz",
      "CaptionKey": "translation",
      "CaptionName": "Tarjima",
      "YoutubeSynced": true
    },
    {
      "ID": "-ZVW5NJCZWlWG3s-Au36y45VnWPZwfz8FPG8qHtbDVI=",
      "Lang": "vi",
      "CaptionKey": "translation",
      "CaptionName": "Dịch",
      "YoutubeSynced": true
    },
    {
      "ID": "30MByRfM0qoY99NwPXBZFXaPkyDtmcjPXopyir40dD2qLAQC7XkI1A==",
      "Lang": "xh",
      "CaptionKey": "translation",
      "CaptionName": "Inguqulelo",
      "YoutubeSynced": true
    },
    {
      "ID": "Ue3hoOx8UrpLV-TnQhQ2jf80hWKgWfR9nU3qYFrCyvbTwO1dwmGlygYyn-BQ8YyL",
      "Lang": "yi",
      "CaptionKey": "translation",
      "CaptionName": "איבערזעצונג",
      "YoutubeSynced": true
    },
    {
      "ID": "8pO8Oo0JLxVd4PZ1xLIGMZ_55U3EjW4tXT8c6v-PtxbtVU8Os6FB2A==",
      "Lang": "yo",
      "CaptionKey": "translation",
      "CaptionName": "Itumọ",
      "YoutubeSynced": true
    },
    {
      "ID": "AsiYvvpqsv5nGoEYDN3U6Ofqs0-dtbQG0vrTeP3ec4_bzD3UIZiipw==",
      "Lang": "zh-Hans",
      "CaptionKey": "translation",
      "CaptionName": "翻译",
      "YoutubeSynced": true
    },
    {
      "ID": "AsiYvvpqsv5nGoEYDN3U6IQrF3LOtmVmSUZRKVR4WNPIiZuiL4kB1A==",
      "Lang": "zh-Hant",
      "CaptionKey": "translation",
      "CaptionName": "翻譯",
      "YoutubeSynced": true
    },
    {
      "ID": "30MByRfM0qqHI1vSb3peZJ1gBGei37_e4_dPmeoDZ6G0sCiE3gvoKA==",
      "Lang": "zu",
      "CaptionKey": "translation",
      "CaptionName": "Ukuhumusha",
      "YoutubeSynced": true
    }
  ]
}