{
  "VideoFile": "grammar-en-beginner-simple_17_IN.mp4",
  "Captions": [
    {
      "ID": "uphOONH7_ySMoV_iaIyOFgzQ30Dj2sFVeVpJ95sTAj-2kzX1-ipWYw==",
      "Lang": "af",
      "CaptionKey": "translation",
      "CaptionName": "vertaling",
      "YoutubeSynced": true
    },
    {
      "ID": "BQjDGKLtateoyPkZO0v81YhGghqp6fkm_FuvKbUGjke4NA04nTGJfQ==",
      "Lang": "am",
      "CaptionKey": "translation",
      "CaptionName": "ትርጉም",
      "YoutubeSynced": true
    },
    {
      "ID": "eaXlZF5LQzv6KoeAbwLZxFCK9VPDbTb7xLNpQ5jf6V1NQv2yVPAsRw==",
      "Lang": "ar",
      "CaptionKey": "translation",
      "CaptionName": "ترجمة",
      "YoutubeSynced": true
    },
    {
      "ID": "eaXlZF5LQzu7oqz6kda-t2N8hImQ57_P6cqMcPiKy47pzMpgwxlBzQ==",
      "Lang": "az",
      "CaptionKey": "translation",
      "CaptionName": "Tərcümə",
      "YoutubeSynced": true
    },
    {
      "ID": "5mf8CoYAqq2qcQ9eANDa6agIDMmqSgWOjUEo6qNghncNKN6BlGwZkHvY1xwqXIaF",
      "Lang": "be",
      "CaptionKey": "translation",
      "CaptionName": "Пераклад",
      "YoutubeSynced": true
    },
    {
      "ID": "BQjDGKLtatchjErG9MR6eseBwKYuMJVpBUMJZoZugmONiUJaZB-50A==",
      "Lang": "bg",
      "CaptionKey": "translation",
      "CaptionName": "превод",
      "YoutubeSynced": true
    },
    {
      "ID": "oJHMENYLI8u0Fn5Any5p_z1uxmTgwQpqCUHibKgwsRW2kuYrAMsK1qX2VuKKQZGz",
      "Lang": "bn",
      "CaptionKey": "translation",
      "CaptionName": "অনুবাদ",
      "YoutubeSynced": true
    },
    {
      "ID": "_TAQNdpD8Ol6VHPef2Xu4XgAwWs4fciFJSQmfXEmJBU=",
      "Lang": "bs",
      "CaptionKey": "translation",
      "CaptionName": "Prevod",
      "YoutubeSynced": true
    },
    {
      "ID": "eaXlZF5LQzscIrlPo4Mg_2ytrkgq25ZgeilonfJ4S-yld5Z0IKCs5Q==",
      "Lang": "ca",
      "CaptionKey": "translation",
      "CaptionName": "Traducció",
      "YoutubeSynced": true
    },
    {
      "ID": "eaXlZF5LQzt4AxpjV3FRNSuWHxonI6NRxQuPB_wHUtgw3ADNb7sCXw==",
      "Lang": "co",
      "CaptionKey": "translation",
      "CaptionName": "Traduzione",
      "YoutubeSynced": true
    },
    {
      "ID": "RiaX2zzLWzWfiQaZohLULxPnlSC5Ps3klIZv0zTAkhBoSzlz5Ms1cQ==",
      "Lang": "cs",
      "CaptionKey": "translation",
      "CaptionName": "Překlad",
      "YoutubeSynced": true
    },
    {
      "ID": "TdJwKj3SnfGMnBJkNoGOVrg7EEH7_VzdFIShGrIAkv1JKBFvHoOS5A==",
      "Lang": "cy",
      "CaptionKey": "translation",
      "CaptionName": "Cyfieithiad",
      "YoutubeSynced": true
    },
    {
      "ID": "V_Dqkum3YOhcl_K3F9RuGi4NZCQDivdyUUJ1B7u5pNjb4dnQs5Lgcg==",
      "Lang": "da",
      "CaptionKey": "translation",
      "CaptionName": "Oversættelse",
      "YoutubeSynced": true
    },
    {
      "ID": "BQjDGKLtatcup6gP81jksFPt1WhX7ptYwzkdAdwCh2N3pLYp3vLzyA==",
      "Lang": "de",
      "CaptionKey": "translation",
      "CaptionName": "Übersetzung",
      "YoutubeSynced": true
    },
    {
      "ID": "oJHMENYLI8t98pcM2YEI1Ov6B35B2z8hMocRmdJrzt2E7OOp47LPD7hGyaeKqCiY",
      "Lang": "el",
      "CaptionKey": "translation",
      "CaptionName": "Μετάφραση",
      "YoutubeSynced": true
    },
    {
      "ID": "TdJwKj3SnfEu6QpGyIyp6FCOkvkZjU1pEepfXpoqRkOPWxhZTa0yfQ==",
      "Lang": "en",
      "CaptionKey": "translation",
      "CaptionName": "Translation",
      "YoutubeSynced": true
    },
    {
      "ID": "87wBhkCMDxbsnyQ6J8djt_1Q9SQ79e6fJ2IcEH70cgjzSswjZNXgxPhxULEgUyeV",
      "Lang": "en",
      "CaptionKey": "ruby",
      "CaptionName": "Pronunciation - IPA",
      "YoutubeSynced": true
    },
    {
      "ID": "TdJwKj3SnfGN2g2CFKR-4F4JC0stBPDK8875BTGRtWzjl5mZsfm1qQ==",
      "Lang": "es",
      "CaptionKey": "translation",
      "CaptionName": "Traducción",
      "YoutubeSynced": true
    },
    {
      "ID": "_TAQNdpD8Okur5Xgm5b2yuenQZHW34miM8dYM9dS4QM=",
      "Lang": "et",
      "CaptionKey": "translation",
      "CaptionName": "Tõlge",
      "YoutubeSynced": true
    },
    {
      "ID": "uphOONH7_yR8MZkQNWjwODySNJKSfFV4iBnmn0y8_K5fv9ivw1E8pg==",
      "Lang": "eu",
      "CaptionKey": "translation",
      "CaptionName": "Itzulpena",
      "YoutubeSynced": true
    },
    {
      "ID": "eaXlZF5LQzsHu-tSeQlTm28K29GRBG6GL7mhyFysY-KCte-7dMwluw==",
      "Lang": "fa",
      "CaptionKey": "translation",
      "CaptionName": "ترجمه",
      "YoutubeSynced": true
    },
    {
      "ID": "eaXlZF5LQzuP4GgF2H2SzOVbGdagwtw3a60vERU3PEju9avMPrvodQ==",
      "Lang": "fi",
      "CaptionKey": "translation",
      "CaptionName": "Käännös",
      "YoutubeSynced": true
    },
    {
      "ID": "TdJwKj3SnfFvcL31BgkwRATkrhQHJPLcARsrpAm5nMLz_FGiSQ_QPw==",
      "Lang": "fil",
      "CaptionKey": "translation",
      "CaptionName": "Pagsasalin",
      "YoutubeSynced": true
    },
    {
      "ID": "eaXlZF5LQzvSrQjCxYMuRhI_o7JXK0zdL8l8yhp_XkRTu1wd7K9CAw==",
      "Lang": "fr",
      "CaptionKey": "translation",
      "CaptionName": "Traduction",
      "YoutubeSynced": true
    },
    {
      "ID": "eaXlZF5LQzuHqAPHMcs6Fb7wY7W-ncHTw1Vp15hF9X2I5kqCB4o6dA==",
      "Lang": "fy",
      "CaptionKey": "translation",
      "CaptionName": "Oersetting",
      "YoutubeSynced": true
    },
    {
      "ID": "oJHMENYLI8uQQ940r75Okw0RVZqx2mk5AiMPGh3Qn9OsVNgBsTKxALj-sPWaOroj",
      "Lang": "gd",
      "CaptionKey": "translation",
      "CaptionName": "Eadar-theangachadh",
      "YoutubeSynced": true
    },
    {
      "ID": "eaXlZF5LQzugjWN7hQba1CTZoLJ4ziSpcCtQZ4wGKMJLoHm7770_5A==",
      "Lang": "gl",
      "CaptionKey": "translation",
      "CaptionName": "Tradución",
      "YoutubeSynced": true
    },
    {
      "ID": "-",
      "Lang": "gu",
      "CaptionKey": "translation",
      "CaptionName": "અનુવાદ",
      "YoutubeSynced": true
    },
    {
      "ID": "EO2NA7OydApmJm5Kn6XRQEm9SchdgG7eOaNNP7yX21jfZf6D7I1z6A==",
      "Lang": "ha",
      "CaptionKey": "translation",
      "CaptionName": "Fassara",
      "YoutubeSynced": true
    },
    {
      "ID": "oJHMENYLI8tHG0sNTKY5N984iyb5WNDaUjxA_nydtqQ8HZXPycLCXEMA-qFkSFry",
      "Lang": "hi",
      "CaptionKey": "translation",
      "CaptionName": "अनुवाद",
      "YoutubeSynced": true
    },
    {
      "ID": "RiaX2zzLWzUMoT0NBIDhqHWTjSUSFwcoJinAbpYAlTlKJo2Zpw_zzg==",
      "Lang": "hr",
      "CaptionKey": "translation",
      "CaptionName": "Prijevod",
      "YoutubeSynced": true
    },
    {
      "ID": "eaXlZF5LQzuOp525cnUoSS6qXM26KCdDb9f3K1gMXM7vF5ZS6X5sAQ==",
      "Lang": "hu",
      "CaptionKey": "translation",
      "CaptionName": "Fordítás",
      "YoutubeSynced": true
    },
    {
      "ID": "p3v4UksrrOggUBAjO5_tte6vE3EOFTHVUMjQa9t3ObYUAqCmKpMSFtJx5Co2dMTFnNrlA3KWNC0=",
      "Lang": "hy",
      "CaptionKey": "translation",
      "CaptionName": "Թարգմանություն",
      "YoutubeSynced": true
    },
    {
      "ID": "eaXlZF5LQzt5_bj5YMgjin6vX9gpPGB-IkL4SI61d9ZbxoKa2nngDg==",
      "Lang": "id",
      "CaptionKey": "translation",
      "CaptionName": "Terjemahan",
      "YoutubeSynced": true
    },
    {
      "ID": "RiaX2zzLWzX4nk7ggrQ76nGsFQstsMBJYDU0UfGQzL31f8eYgSvPOA==",
      "Lang": "ig",
      "CaptionKey": "translation",
      "CaptionName": "Ntughari",
      "YoutubeSynced": true
    },
    {
      "ID": "uphOONH7_yRKFS94T7MeUYx-3cIn1inA-78Mo6z3mg70GenUE4oriQ==",
      "Lang": "is",
      "CaptionKey": "translation",
      "CaptionName": "Þýðing",
      "YoutubeSynced": true
    },
    {
      "ID": "eaXlZF5LQzuqmOQAoAsnsAEgjVRgtAxDVnrQnM1WemjdcyRbAFL6lA==",
      "Lang": "it",
      "CaptionKey": "translation",
      "CaptionName": "Traduzione",
      "YoutubeSynced": true
    },
    {
      "ID": "eaXlZF5LQzutAHxLa_OhQxp-ezLNGvB99ICQASuymQeghOAEUUk6ZA==",
      "Lang": "iw",
      "CaptionKey": "translation",
      "CaptionName": "תרגום",
      "YoutubeSynced": true
    },
    {
      "ID": "_TAQNdpD8Om2-Ih1PPdP500m4r7F7A7sNpstjSOWENg=",
      "Lang": "ja",
      "CaptionKey": "translation",
      "CaptionName": "翻訳",
      "YoutubeSynced": true
    },
    {
      "ID": "uphOONH7_yQUsPKtXGpjgWXjNP8N62meSDFEqjNtcxkfDkMaI0jfjQ==",
      "Lang": "jv",
      "CaptionKey": "translation",
      "CaptionName": "Ngartekne",
      "YoutubeSynced": true
    },
    {
      "ID": "NccJFl_hOSMeB5sWVGsRmWYXy8jSKCDTHY3SGeiikIQqbSSoqsvZe2fIGXSJAgmjRMk4ZBfuHtY=",
      "Lang": "ka",
      "CaptionKey": "translation",
      "CaptionName": "თარგმანი",
      "YoutubeSynced": true
    },
    {
      "ID": "ci15rcNfeKNcH0JyaEzZpqcUwIL2VZCbWBG6y9L9t3CEZNXWuky5IQ==",
      "Lang": "kk",
      "CaptionKey": "translation",
      "CaptionName": "Аударма",
      "YoutubeSynced": true
    },
    {
      "ID": "vPHqUqSwQLqc0h37gqLu-acrwTKYTOLBxxTr4Mtkk37jJ89HD2MmWkbPIi8gRtW27_XJ_Ahiun4=",
      "Lang": "km",
      "CaptionKey": "translation",
      "CaptionName": "ការបកប្រែ",
      "YoutubeSynced": true
    },
    {
      "ID": "oJHMENYLI8v1vjY2a-edRgQGZhxT3y25htKWZt9WIcTKxtp4vIuNR-bTuDgEc7tM",
      "Lang": "kn",
      "CaptionKey": "translation",
      "CaptionName": "ಅನುವಾದ",
      "YoutubeSynced": true
    },
    {
      "ID": "_TAQNdpD8Oki1Lmjx0xgcS5QVjShdl_ZwWosU8SI2zQ=",
      "Lang": "ko",
      "CaptionKey": "translation",
      "CaptionName": "번역",
      "YoutubeSynced": true
    },
    {
      "ID": "_TAQNdpD8OntiaYhzdkT5safSEYWTDuoFdlKLjXZuVc=",
      "Lang": "ku",
      "CaptionKey": "translation",
      "CaptionName": "Werger",
      "YoutubeSynced": true
    },
    {
      "ID": "ci15rcNfeKMkre1EsU0b3Rofdj39PiChOudMYErY1rNztQrAYyv1Bg==",
      "Lang": "ky",
      "CaptionKey": "translation",
      "CaptionName": "котормо",
      "YoutubeSynced": true
    },
    {
      "ID": "BQjDGKLtatee2ADiypSf4rQXv9B74OxQKA35wbNuQcyE6g1xUnTPmA==",
      "Lang": "lb",
      "CaptionKey": "translation",
      "CaptionName": "Iwwersetzung",
      "YoutubeSynced": true
    },
    {
      "ID": "vPHqUqSwQLraUlzlbuwKT52dL7OsYSy0tRLHCdiZVyaEbdM0qSN5sT5oQHibix6ui_6QmMLuN1A=",
      "Lang": "lo",
      "CaptionKey": "translation",
      "CaptionName": "ການແປພາສາ",
      "YoutubeSynced": true
    },
    {
      "ID": "RiaX2zzLWzVsUrcclgTeRoSQvTs1mslLmAAIrv7CSpRWcMw5BsfkDw==",
      "Lang": "lt",
      "CaptionKey": "translation",
      "CaptionName": "Vertimas",
      "YoutubeSynced": true
    },
    {
      "ID": "eaXlZF5LQzt0tsQrp8IwTejmH4Zk3pPtNY1I-eBUS_Xvu9UGvGuCcQ==",
      "Lang": "lv",
      "CaptionKey": "translation",
      "CaptionName": "Tulkošana",
      "YoutubeSynced": true
    },
    {
      "ID": "TdJwKj3SnfGc_yvn6Jo9glWvfbc5D-jaHCWF3lX-hUlxmyeF-7TVAQ==",
      "Lang": "mg",
      "CaptionKey": "translation",
      "CaptionName": "Translation",
      "YoutubeSynced": true
    },
    {
      "ID": "Sjzj4D2MfZH5qxc7vRo_Sinx7yTNvwRuyC4bkOSiemaaL6ijDyeS26UaMgKwL5uS",
      "Lang": "mi",
      "CaptionKey": "translation",
      "CaptionName": "Whakamaoritanga",
      "YoutubeSynced": true
    },
    {
      "ID": "BQjDGKLtatfkb2JPPbp8hAKux_8DJ7OQNJdNJ45qPjX_5ysqlxK4Cg==",
      "Lang": "mk",
      "CaptionKey": "translation",
      "CaptionName": "Превод",
      "YoutubeSynced": true
    },
    {
      "ID": "vPHqUqSwQLq5ATmYc4e73thnRMA4omJN9ecq80n4sAOrU0GH1anmDWqD1HrISTp5U6IR6-GsnlE=",
      "Lang": "ml",
      "CaptionKey": "translation",
      "CaptionName": "വിവർത്തനം",
      "YoutubeSynced": true
    },
    {
      "ID": "5mf8CoYAqq0XGcLMilGA55Vd-yaQP-SA7MFfbnwOvSy7FQyLuSeaqW2gIfPySuiz",
      "Lang": "mn",
      "CaptionKey": "translation",
      "CaptionName": "Орчуулга",
      "YoutubeSynced": true
    },
    {
      "ID": "dCLna7R4gEOQiE3CWdkuYAIkwi3fxmmPdZU0WIocnstNI8pOj52dpSIF4-3yyWlf",
      "Lang": "mr",
      "CaptionKey": "translation",
      "CaptionName": "भाषांतर",
      "YoutubeSynced": true
    },
    {
      "ID": "eaXlZF5LQzvb5wIPjbieq8_rDxuIkvYkM0bgnn4stWrfbT11dFe0zQ==",
      "Lang": "ms",
      "CaptionKey": "translation",
      "CaptionName": "Terjemahan",
      "YoutubeSynced": true
    },
    {
      "ID": "TdJwKj3SnfE68ibZYw0heCzIEQhTLsQjdtxZBTNfgNuxU4WcjBDBvw==",
      "Lang": "mt",
      "CaptionKey": "translation",
      "CaptionName": "Traduzzjoni",
      "YoutubeSynced": true
    },
    {
      "ID": "NccJFl_hOSOrHlqiv51IsKk85dB-mfvannHQXPSYqmXxzUnHdV_T6XANHG8bntUMB_1_Qq6psME=",
      "Lang": "my",
      "CaptionKey": "translation",
      "CaptionName": "ဘာသာပြန်",
      "YoutubeSynced": true
    },
    {
      "ID": "oJHMENYLI8uB1K7KIh-9sGWLbMZ5H_Lych42-mHDGgL5F9ZA8KmRDUYaPx3n_Fvm",
      "Lang": "ne",
      "CaptionKey": "translation",
      "CaptionName": "अनुवाद",
      "YoutubeSynced": true
    },
    {
      "ID": "uphOONH7_ySZCVjmL28NlFdx0f-OACDn9lsApvjvWhB0kmhBipkykw==",
      "Lang": "nl",
      "CaptionKey": "translation",
      "CaptionName": "Vertaling",
      "YoutubeSynced": true
    },
    {
      "ID": "BQjDGKLtatekwmxA9ZxZPT2KOq6DvyGXbd_licJT8fjDMI2HU_F9nA==",
      "Lang": "no",
      "CaptionKey": "translation",
      "CaptionName": "Oversettelse",
      "YoutubeSynced": true
    },
    {
      "ID": "oJHMENYLI8tSiiE52ls7yZ4A1LuD1SlqqHX7upfP_dMaCCZjxn1z88ze12epjWJe",
      "Lang": "pa",
      "CaptionKey": "translation",
      "CaptionName": "ਅਨੁਵਾਦ",
      "YoutubeSynced": true
    },
    {
      "ID": "BQjDGKLtatfcQLdisRc7UhAuQdo58Pf0tjQ4m5LUcaraftOFgEhohQ==",
      "Lang": "pl",
      "CaptionKey": "translation",
      "CaptionName": "Tłumaczenie",
      "YoutubeSynced": true
    },
    {
      "ID": "eaXlZF5LQzu7aahTLOuAavP5qsBWRNjHcJChGHMdedLjm_on_lZy6Q==",
      "Lang": "ps",
      "CaptionKey": "translation",
      "CaptionName": "ژباړه",
      "YoutubeSynced": true
    },
    {
      "ID": "eaXlZF5LQzuExC4M6SidhQRQw3q2eev6jpTigF1i5C_nLtaJRkqBCw==",
      "Lang": "pt",
      "CaptionKey": "translation",
      "CaptionName": "Tradução",
      "YoutubeSynced": true
    },
    {
      "ID": "uphOONH7_yQWz4LBBZwrmK0O4IeP9Xf6aJ4fBntZbGK4D7BSYig8og==",
      "Lang": "ro",
      "CaptionKey": "translation",
      "CaptionName": "Traducere",
      "YoutubeSynced": true
    },
    {
      "ID": "ci15rcNfeKOwq1FIQbWdXbJolpgbB2daTxrjmq36YXz3Ju4scuas4A==",
      "Lang": "ru",
      "CaptionKey": "translation",
      "CaptionName": "Перевод",
      "YoutubeSynced": true
    },
    {
      "ID": "eaXlZF5LQzsvSJrNJGGN1ZAk8wa4fh7D426GarPe4RoSpf4TF-uTng==",
      "Lang": "sd",
      "CaptionKey": "translation",
      "CaptionName": "ترجمو",
      "YoutubeSynced": true
    },
    {
      "ID": "vPHqUqSwQLq0rQ9fVyTQGTDFVZLrXkNkhC834uSWFKhtwQGgWV5IZ43fbvSohMEDZ94obywKJiY=",
      "Lang": "si",
      "CaptionKey": "translation",
      "CaptionName": "පරිවර්තනය",
      "YoutubeSynced": true
    },
    {
      "ID": "EO2NA7OydAoKWmYdsfOO7jok7q8E8wFYllaqCyD7pvyugezqpqfdjw==",
      "Lang": "sk",
      "CaptionKey": "translation",
      "CaptionName": "preklad",
      "YoutubeSynced": true
    },
    {
      "ID": "_TAQNdpD8Ok46tjq34ODZ6S26ME6gfXJmURzUkngW3w=",
      "Lang": "sl",
      "CaptionKey": "translation",
      "CaptionName": "Prevod",
      "YoutubeSynced": true
    },
    {
      "ID": "BQjDGKLtatemn_iBI6pBhBQtYW2x4dxVzOpeVWxSthPU2fVjXD-KEA==",
      "Lang": "sm",
      "CaptionKey": "translation",
      "CaptionName": "Faʻaliliuga",
      "YoutubeSynced": true
    },
    {
      "ID": "EO2NA7OydAqg6Tj_hAE_EI_10qlwgwyQOIPUVnKSdYIeruILcTVydA==",
      "Lang": "sn",
      "CaptionKey": "translation",
      "CaptionName": "Dudziro",
      "YoutubeSynced": true
    },
    {
      "ID": "uphOONH7_yTSNvBbvhDLIqHHynssC0zt3fA6_VIViXy5fHCXv1FeBQ==",
      "Lang": "so",
      "CaptionKey": "translation",
      "CaptionName": "Tarjumida",
      "YoutubeSynced": true
    },
    {
      "ID": "uphOONH7_yTuxD0dlqpBiEv9Eok_5UPNqaHEWvgWq0nPu2ovRfwiPw==",
      "Lang": "sq",
      "CaptionKey": "translation",
      "CaptionName": "përkthim",
      "YoutubeSynced": true
    },
    {
      "ID": "BQjDGKLtatdeVhUgGnTdw0hy0AVqYcaaJDD0ZHH49Kko_jc0Eh0SHg==",
      "Lang": "sr",
      "CaptionKey": "translation",
      "CaptionName": "Превод",
      "YoutubeSynced": true
    },
    {
      "ID": "uphOONH7_yQ_rBaJfk8Axf0eGD6rPgGdWrJWupahSYe95HFwGC2s5A==",
      "Lang": "st",
      "CaptionKey": "translation",
      "CaptionName": "Phetolelo",
      "YoutubeSynced": true
    },
    {
      "ID": "eaXlZF5LQzswFfS5ziJ-PCjSeVsueNZvqyvoR5pvtUn8R0qlDtvBtg==",
      "Lang": "su",
      "CaptionKey": "translation",
      "CaptionName": "Tarjamahan",
      "YoutubeSynced": true
    },
    {
      "ID": "ci15rcNfeKMf2-vfRdG7_4jTa69s2jFkCsJaQr8ZEdGnOHC75Wz-hQ==",
      "Lang": "sv",
      "CaptionKey": "translation",
      "CaptionName": "Översättning",
      "YoutubeSynced": true
    },
    {
      "ID": "EO2NA7OydArjzuCVlburX3qiTABhcEj4NRDCNOcnV2w7WPv5fhjTKw==",
      "Lang": "sw",
      "CaptionKey": "translation",
      "CaptionName": "Tafsiri",
      "YoutubeSynced": true
    },
    {
      "ID": "QIq3khy3TWDBMGUMzFFcuqydu0PGdIYaqqvGa7fJ4pqhsLenLK5-PvIAcBXoSzDaFzYSOCGZNxPjGMpma6UaMab0MhRWq9o1",
      "Lang": "ta",
      "CaptionKey": "translation",
      "CaptionName": "மொழிபெயர்ப்பு",
      "YoutubeSynced": true
    },
    {
      "ID": "dCLna7R4gEPi9jGHdfL25zm1xVa6Iemb20wB-zYEUxY4O9zSf7kkXAoVLJZanpxT",
      "Lang": "te",
      "CaptionKey": "translation",
      "CaptionName": "అనువాదం",
      "YoutubeSynced": true
    },
    {
      "ID": "ci15rcNfeKOLv7GLGvYtKuOjSLgIc0JppSvPf6NBsCXNwct-Dq1hmA==",
      "Lang": "tg",
      "CaptionKey": "translation",
      "CaptionName": "Тарҷума",
      "YoutubeSynced": true
    },
    {
      "ID": "oJHMENYLI8u0ROUkf3JO8v-qAPH1175_sFSP3i9z1ZK1zdw79syv98jhINaQDWUw",
      "Lang": "th",
      "CaptionKey": "translation",
      "CaptionName": "การแปล",
      "YoutubeSynced": true
    },
    {
      "ID": "RiaX2zzLWzUXb67KSmMKBrg6t8LVbS2xo7S3fy-_gxi3EBQfvS2VlQ==",
      "Lang": "tr",
      "CaptionKey": "translation",
      "CaptionName": "Tercüme",
      "YoutubeSynced": true
    },
    {
      "ID": "5mf8CoYAqq1DLxaGqspTkYFufKr_3SD8eXi7FwkpbdVrKVHA0A63TjIHDJzRwiLN",
      "Lang": "uk",
      "CaptionKey": "translation",
      "CaptionName": "Переклад",
      "YoutubeSynced": true
    },
    {
      "ID": "eaXlZF5LQzvcM2JWAPau-ftpkSYuL88WUxDMqeyd6W7KrGbzQOfDtw==",
      "Lang": "ur",
      "CaptionKey": "translation",
      "CaptionName": "ترجمہ",
      "YoutubeSynced": true
    },
    {
      "ID": "EO2NA7OydApB5C7xhUOFZGK4GFdic4NskIpb7frnKXquUvXYGiqXyg==",
      "Lang": "uz",
      "CaptionKey": "translation",
      "CaptionName": "Tarjima",
      "YoutubeSynced": true
    },
    {
      "ID": "_TAQNdpD8OlWnviSwvglfHVSu37rgR1BOZqCLTSpwl0=",
      "Lang": "vi",
      "CaptionKey": "translation",
      "CaptionName": "Dịch",
      "YoutubeSynced": true
    },
    {
      "ID": "eaXlZF5LQzto9B_roNBmlfO4Lu5_up7l_IbDtfVr8maQy4U5wdbelw==",
      "Lang": "xh",
      "CaptionKey": "translation",
      "CaptionName": "Inguqulelo",
      "YoutubeSynced": true
    },
    {
      "ID": "a6ot5GgtbU4DN7NSRWf-4KGrtHvhu7Xzht-cDIgl2PiMNMlU_Y1hTbhWaH0kX3gO",
      "Lang": "yi",
      "CaptionKey": "translation",
      "CaptionName": "איבערזעצונג",
      "YoutubeSynced": true
    },
    {
      "ID": "EO2NA7OydAqDuS_GHhzJaTUCo1yUHEi7dNLuvAjhTPLxi7291C2Jtw==",
      "Lang": "yo",
      "CaptionKey": "translation",
      "CaptionName": "Itumọ",
      "YoutubeSynced": true
    },
    {
      "ID": "TdJwKj3SnfGhIcyTngTrnqCpb66nvtv-UCZADpwEa6f30Y0wmjKOyA==",
      "Lang": "zh-Hans",
      "CaptionKey": "translation",
      "CaptionName": "翻译",
      "YoutubeSynced": true
    },
    {
      "ID": "TdJwKj3SnfGhIcyTngTrnjlhUj8u5rZSkrtJfUcNX3yXRsjUA4Eyrg==",
      "Lang": "zh-Hant",
      "CaptionKey": "translation",
      "CaptionName": "翻譯",
      "YoutubeSynced": true
    },
    {
      "ID": "eaXlZF5LQzvZH7810QTvNBV81GRkS8M1_41BN_ukEHbSo-2t42TORA==",
      "Lang": "zu",
      "CaptionKey": "translation",
      "CaptionName": "Ukuhumusha",
      "YoutubeSynced": true
    }
  ]
}