{
  "VideoFile": "grammar-en-beginner-simple_55_IN.mp4",
  "Captions": [
    {
      "ID": "YLgD5mnxjgbtinQtDBqKxbRy7Nk2UCMNjGxmluLS-4x0DmXO97UieQ==",
      "Lang": "af",
      "CaptionKey": "translation",
      "CaptionName": "vertaling",
      "YoutubeSynced": true
    },
    {
      "ID": "gVGAEHRMv6tnwc3rkcWJ_nfDKQmzlBFXUKMAdPt99FsBbC9J7vISBA==",
      "Lang": "am",
      "CaptionKey": "translation",
      "CaptionName": "ትርጉም",
      "YoutubeSynced": true
    },
    {
      "ID": "rkLEQTxS-fwED2p_nAEjIiDfEGuf8Fnc72QzoYS_QSe_4JKqmYxd2Q==",
      "Lang": "ar",
      "CaptionKey": "translation",
      "CaptionName": "ترجمة",
      "YoutubeSynced": true
    },
    {
      "ID": "rkLEQTxS-fxP7dK0__kWCAzjNvDD1Dfu9XJMEDWAxIhRU8nqWGJXiQ==",
      "Lang": "az",
      "CaptionKey": "translation",
      "CaptionName": "Tərcümə",
      "YoutubeSynced": true
    },
    {
      "ID": "Zj-QNSoudodspHQvOs1BMYgXzVCT7R5dJzNnQRNaXVnCGD_S50nrPZAORe4NfowL",
      "Lang": "be",
      "CaptionKey": "translation",
      "CaptionName": "Пераклад",
      "YoutubeSynced": true
    },
    {
      "ID": "gVGAEHRMv6tWD_KY8wAcmbWC4YbX9iq-1pyPthJ4nRlOnXf6uG9DZw==",
      "Lang": "bg",
      "CaptionKey": "translation",
      "CaptionName": "превод",
      "YoutubeSynced": true
    },
    {
      "ID": "PUl00ujR9dqX2e2WCGAxg9n0OhrSU5xq0d7F5cOFJTOdgwg936r0kbWKhPP9jiXA",
      "Lang": "bn",
      "CaptionKey": "translation",
      "CaptionName": "অনুবাদ",
      "YoutubeSynced": true
    },
    {
      "ID": "poESddHY_zh--5KPuvOuzHQfGBe0Rumb_ShihZARu4o=",
      "Lang": "bs",
      "CaptionKey": "translation",
      "CaptionName": "Prevod",
      "YoutubeSynced": true
    },
    {
      "ID": "rkLEQTxS-fxb9KAHNWpsOKYmaftTERPwLP84vZz4bFK7kmUFTxVaHQ==",
      "Lang": "ca",
      "CaptionKey": "translation",
      "CaptionName": "Traducció",
      "YoutubeSynced": true
    },
    {
      "ID": "rkLEQTxS-fyCvDWdjp8H-McnOzQ6rz88TyW6IJW5ngsMFBz91grohg==",
      "Lang": "co",
      "CaptionKey": "translation",
      "CaptionName": "Traduzione",
      "YoutubeSynced": true
    },
    {
      "ID": "t9bELNoDpvE4FXatRhc_aIITnOJykyTCA3fGqIi1vfUz3LlxPBjotg==",
      "Lang": "cs",
      "CaptionKey": "translation",
      "CaptionName": "Překlad",
      "YoutubeSynced": true
    },
    {
      "ID": "cwnfUGhjmTDuYN3qoU8H81eeM9uPw-smJwhpQnNt7FtWHscbDN8E9A==",
      "Lang": "cy",
      "CaptionKey": "translation",
      "CaptionName": "Cyfieithiad",
      "YoutubeSynced": true
    },
    {
      "ID": "iLUCWiGq9pxw8PnoB4P7U9oh5SxSiCQmWivvPAKLD6sKhSzO9mmxRw==",
      "Lang": "da",
      "CaptionKey": "translation",
      "CaptionName": "Oversættelse",
      "YoutubeSynced": true
    },
    {
      "ID": "gVGAEHRMv6s0cq3-XjZHK-nJG1dyukFcu7Z9GxB6BZubXLwDbs-Rng==",
      "Lang": "de",
      "CaptionKey": "translation",
      "CaptionName": "Übersetzung",
      "YoutubeSynced": true
    },
    {
      "ID": "PUl00ujR9dq3drxrfptZPJc01J_9oXPP1QQcn7p9TaNldpTDzohoIBVE1vScdF_C",
      "Lang": "el",
      "CaptionKey": "translation",
      "CaptionName": "Μετάφραση",
      "YoutubeSynced": true
    },
    {
      "ID": "cwnfUGhjmTDycI72ki5vQnsRFqVB6n6V1W6iCMHJ3Uu6yCbkF2d8nw==",
      "Lang": "en",
      "CaptionKey": "translation",
      "CaptionName": "Translation",
      "YoutubeSynced": true
    },
    {
      "ID": "ktv8OFcOB65zL2IPMJScIEwWOqHUN0icz4Yn4DcXeBJSifj4hZ0lDNVTyC15AZoY",
      "Lang": "en",
      "CaptionKey": "ruby",
      "CaptionName": "Pronunciation - IPA",
      "YoutubeSynced": true
    },
    {
      "ID": "cwnfUGhjmTBvfeqdRcU05RItLOZpZHqrneH8OVg9ndTwRndv6t6C8w==",
      "Lang": "es",
      "CaptionKey": "translation",
      "CaptionName": "Traducción",
      "YoutubeSynced": true
    },
    {
      "ID": "poESddHY_ziGJBBvSnkpKvPVRfAHt1mgLmtDvde1rDY=",
      "Lang": "et",
      "CaptionKey": "translation",
      "CaptionName": "Tõlge",
      "YoutubeSynced": true
    },
    {
      "ID": "YLgD5mnxjgbkMq3PWNMXUx3qpMKCcs_FZMbTJLEBvOk18oxSGITZdw==",
      "Lang": "eu",
      "CaptionKey": "translation",
      "CaptionName": "Itzulpena",
      "YoutubeSynced": true
    },
    {
      "ID": "rkLEQTxS-fz7NgszEUsTLg-s_77mlHyFbxIQVBvItPTtzOkvyWD0tA==",
      "Lang": "fa",
      "CaptionKey": "translation",
      "CaptionName": "ترجمه",
      "YoutubeSynced": true
    },
    {
      "ID": "rkLEQTxS-fzn4pNUbZV2SELAsZsYrXIdhzS1MBgkm31Lz_Ts-8kssQ==",
      "Lang": "fi",
      "CaptionKey": "translation",
      "CaptionName": "Käännös",
      "YoutubeSynced": true
    },
    {
      "ID": "cwnfUGhjmTDihjRoqqz1DmB-YEm0lmgybGF106vndjMfOjkj9oYOug==",
      "Lang": "fil",
      "CaptionKey": "translation",
      "CaptionName": "Pagsasalin",
      "YoutubeSynced": true
    },
    {
      "ID": "rkLEQTxS-fxpKCiddoDKL9SunjNJMb3E4GiAqFZDUHvwONORnPbepg==",
      "Lang": "fr",
      "CaptionKey": "translation",
      "CaptionName": "Traduction",
      "YoutubeSynced": true
    },
    {
      "ID": "rkLEQTxS-fybRm4CXAWx7YhbyfcDUWdf-e7MawT0DHWI-5T9jM-1lA==",
      "Lang": "fy",
      "CaptionKey": "translation",
      "CaptionName": "Oersetting",
      "YoutubeSynced": true
    },
    {
      "ID": "PUl00ujR9dplHHu7emXOmSpBk4p8S8bS_4gc8f60G_VZ_Oy3oJTZjE4IQ__YvIRG",
      "Lang": "gd",
      "CaptionKey": "translation",
      "CaptionName": "Eadar-theangachadh",
      "YoutubeSynced": true
    },
    {
      "ID": "rkLEQTxS-fy9p2fFXDDJUz8wX-xT4s1XYrcO3BqO1Xq9o3qqojgh9A==",
      "Lang": "gl",
      "CaptionKey": "translation",
      "CaptionName": "Tradución",
      "YoutubeSynced": true
    },
    {
      "ID": "PUl00ujR9dpeEQGx1u3NrHJ6ANIzrnbFringyLNfu9OdKSbUoBtrm7DHpKllbWY2",
      "Lang": "gu",
      "CaptionKey": "translation",
      "CaptionName": "અનુવાદ",
      "YoutubeSynced": true
    },
    {
      "ID": "_6sVreFcCQw7S7-gOZl0OM7uIS3YRO3BQwdMZRnmHu-z3dnMhW4Ecg==",
      "Lang": "ha",
      "CaptionKey": "translation",
      "CaptionName": "Fassara",
      "YoutubeSynced": true
    },
    {
      "ID": "PUl00ujR9doyWh8JElydwccaBgQJDWZESDfmxN3kdpBU3XE1sDqA2YVHL82m0en3",
      "Lang": "hi",
      "CaptionKey": "translation",
      "CaptionName": "अनुवाद",
      "YoutubeSynced": true
    },
    {
      "ID": "t9bELNoDpvEj61uZnqwbLhxhlkfLEqtFEkeE3at70yNmS4O41cKiVA==",
      "Lang": "hr",
      "CaptionKey": "translation",
      "CaptionName": "Prijevod",
      "YoutubeSynced": true
    },
    {
      "ID": "rkLEQTxS-fwvFRVlkAL-LpKKbg-B3RlXiY-QL-XXZeVLG4MAOch31w==",
      "Lang": "hu",
      "CaptionKey": "translation",
      "CaptionName": "Fordítás",
      "YoutubeSynced": true
    },
    {
      "ID": "f0gE-vGWSMcipkcdA9RMd9FQFarHgFpzTYQ1BCjYs960thlkVTDaMAlyt1s46Eg-y76yen13WAM=",
      "Lang": "hy",
      "CaptionKey": "translation",
      "CaptionName": "Թարգմանություն",
      "YoutubeSynced": true
    },
    {
      "ID": "rkLEQTxS-fyWT1xFwOg0GDuRohHAzHFyI8VzgswuP8qPC2fH-np2Yg==",
      "Lang": "id",
      "CaptionKey": "translation",
      "CaptionName": "Terjemahan",
      "YoutubeSynced": true
    },
    {
      "ID": "t9bELNoDpvFwaGUNs5c5Oj5lptA-nfJjDg7Cw6gHYDqi6e-ssh2Gng==",
      "Lang": "ig",
      "CaptionKey": "translation",
      "CaptionName": "Ntughari",
      "YoutubeSynced": true
    },
    {
      "ID": "YLgD5mnxjgZ3mFTZy7kBqXtJLmDGuCGiTcC1KKRndj52QOeTHcjkiA==",
      "Lang": "is",
      "CaptionKey": "translation",
      "CaptionName": "Þýðing",
      "YoutubeSynced": true
    },
    {
      "ID": "rkLEQTxS-fyyHwck6-Nj_qMp7WGaDaC6Fsmr7AUg2aRupsUcRSKjmw==",
      "Lang": "it",
      "CaptionKey": "translation",
      "CaptionName": "Traduzione",
      "YoutubeSynced": true
    },
    {
      "ID": "rkLEQTxS-fzR_HNvwT_He8Mg_ySATq3AHrWyoxUPY06QXnQxp9T_pQ==",
      "Lang": "iw",
      "CaptionKey": "translation",
      "CaptionName": "תרגום",
      "YoutubeSynced": true
    },
    {
      "ID": "poESddHY_zjZPhrjPeQXYyaKHt0pY_6WOXwLlFBto5U=",
      "Lang": "ja",
      "CaptionKey": "translation",
      "CaptionName": "翻訳",
      "YoutubeSynced": true
    },
    {
      "ID": "YLgD5mnxjgZ_7NBfnKU-ItkkzuOOHQfen66nyxbZjY6G8MiJTxDKUQ==",
      "Lang": "jv",
      "CaptionKey": "translation",
      "CaptionName": "Ngartekne",
      "YoutubeSynced": true
    },
    {
      "ID": "yCJ2o8jtYYShq0UetCj64Nr0swKGVx1d_5Cc9Bz2kV4yW4mpCxZWM6miv-DAt-726TMgvKWPziY=",
      "Lang": "ka",
      "CaptionKey": "translation",
      "CaptionName": "თარგმანი",
      "YoutubeSynced": true
    },
    {
      "ID": "GX0b7hBYzgevnzOGQnhDJq3AKzA0xXT3U136myp4XQ1vJyjOM907CA==",
      "Lang": "kk",
      "CaptionKey": "translation",
      "CaptionName": "Аударма",
      "YoutubeSynced": true
    },
    {
      "ID": "fzqtPyyTDm21XVbanuUmfJp-G2b6AxAunJKROPIv7rQBBTS0o3Gyk2erO2OOdqileuRBCHuPs4E=",
      "Lang": "km",
      "CaptionKey": "translation",
      "CaptionName": "ការបកប្រែ",
      "YoutubeSynced": true
    },
    {
      "ID": "PUl00ujR9docMKX8mcDqwnrh6HfWkUmeZP-xhIpHGyY3k6fA4N8Eh7tsukeVSwLh",
      "Lang": "kn",
      "CaptionKey": "translation",
      "CaptionName": "ಅನುವಾದ",
      "YoutubeSynced": true
    },
    {
      "ID": "poESddHY_zh-fKG8C-_uwYoFmQksmCUNdVPgyJfzQpk=",
      "Lang": "ko",
      "CaptionKey": "translation",
      "CaptionName": "번역",
      "YoutubeSynced": true
    },
    {
      "ID": "poESddHY_zgzK_Fclgjbc-b8fPL7ZvcvM0DsQBxZYf4=",
      "Lang": "ku",
      "CaptionKey": "translation",
      "CaptionName": "Werger",
      "YoutubeSynced": true
    },
    {
      "ID": "GX0b7hBYzgcxcaNavJhSGH-qYGiWiFK-9YEy7OFq5CYCvFR4YQ0Kag==",
      "Lang": "ky",
      "CaptionKey": "translation",
      "CaptionName": "котормо",
      "YoutubeSynced": true
    },
    {
      "ID": "gVGAEHRMv6t49_ALRAlv4z8ciyaWArvtWykighi2gFu423G-Xl-viQ==",
      "Lang": "lb",
      "CaptionKey": "translation",
      "CaptionName": "Iwwersetzung",
      "YoutubeSynced": true
    },
    {
      "ID": "fzqtPyyTDm3zBKXZ4It3IDpC3H47GdYMZ_yI5rzpxXmksWt4QQXObzg9499lu5qIhYGSeGWc310=",
      "Lang": "lo",
      "CaptionKey": "translation",
      "CaptionName": "ການແປພາສາ",
      "YoutubeSynced": true
    },
    {
      "ID": "t9bELNoDpvERp4nlqcs9OxLHrYUf-kJENLs-NS-sWrwk_60ni_Muog==",
      "Lang": "lt",
      "CaptionKey": "translation",
      "CaptionName": "Vertimas",
      "YoutubeSynced": true
    },
    {
      "ID": "rkLEQTxS-fw0RIlNYfNhETd21msAtbRz24A-nJvs66T2xnCVerIzTg==",
      "Lang": "lv",
      "CaptionKey": "translation",
      "CaptionName": "Tulkošana",
      "YoutubeSynced": true
    },
    {
      "ID": "cwnfUGhjmTCUXVVgmx9boENaaQudM8uAr9_qf7fMev5TBkTbpsutIg==",
      "Lang": "mg",
      "CaptionKey": "translation",
      "CaptionName": "Translation",
      "YoutubeSynced": true
    },
    {
      "ID": "s72bcLZiPA4P4fSOeXsXufenXAIm5NhjtALmHRdJDpJ_0bBMLdu-RElwhPpFenQh",
      "Lang": "mi",
      "CaptionKey": "translation",
      "CaptionName": "Whakamaoritanga",
      "YoutubeSynced": true
    },
    {
      "ID": "gVGAEHRMv6t3ibAkrkcuEB7ySxpbcamFEPTvsPdl4fGoqH003srqsw==",
      "Lang": "mk",
      "CaptionKey": "translation",
      "CaptionName": "Превод",
      "YoutubeSynced": true
    },
    {
      "ID": "fzqtPyyTDm3dSoir5upxrpfohjxjAH7XmPHPN3KBo8iuzXPgukt5nZOZpjHflrNQVKHawyrKnIo=",
      "Lang": "ml",
      "CaptionKey": "translation",
      "CaptionName": "വിവർത്തനം",
      "YoutubeSynced": true
    },
    {
      "ID": "Zj-QNSoudodL3-TVTPMHBUjvqRqaDk817HgOGjQz5tQRL6Y9Q_Jt11c9RBAsXteD",
      "Lang": "mn",
      "CaptionKey": "translation",
      "CaptionName": "Орчуулга",
      "YoutubeSynced": true
    },
    {
      "ID": "r-kuFtplJkTDfLPn8zM6mds4Skcyt4hvBThYtfj58ZywI0sdtfmBguWb_gKyAKH1",
      "Lang": "mr",
      "CaptionKey": "translation",
      "CaptionName": "भाषांतर",
      "YoutubeSynced": true
    },
    {
      "ID": "rkLEQTxS-fxcSJ61Q4VO5N1fzJQL29DdcZP-H-L8syMXSe4YYQhCMQ==",
      "Lang": "ms",
      "CaptionKey": "translation",
      "CaptionName": "Terjemahan",
      "YoutubeSynced": true
    },
    {
      "ID": "cwnfUGhjmTAr8V35Rt-w_vUbkjKhRrOkHtz0Dho-J-9l7zKAZvIBSg==",
      "Lang": "mt",
      "CaptionKey": "translation",
      "CaptionName": "Traduzzjoni",
      "YoutubeSynced": true
    },
    {
      "ID": "yCJ2o8jtYYRjR5VytIUPP1Yu36rMhJhWDGtcjo-gjIRV_7K62XbLWwCQ7zbCCQ4Hz-r3BSWQ8bw=",
      "Lang": "my",
      "CaptionKey": "translation",
      "CaptionName": "ဘာသာပြန်",
      "YoutubeSynced": true
    },
    {
      "ID": "PUl00ujR9dr7OSv90CUl4E_JMR7Zb7mAmZuPUe3MsjOSwZlUF2xXTBQMbJ9GuFEp",
      "Lang": "ne",
      "CaptionKey": "translation",
      "CaptionName": "अनुवाद",
      "YoutubeSynced": true
    },
    {
      "ID": "YLgD5mnxjgbWMz_3bOEweGDqSe9iiMK3KLtVXHe4_o88zWSDKt_8IQ==",
      "Lang": "nl",
      "CaptionKey": "translation",
      "CaptionName": "Vertaling",
      "YoutubeSynced": true
    },
    {
      "ID": "gVGAEHRMv6vM3v8SXHtAONoZrKbRQVA-RCJwXci10ZKjJZ6iSoH3GA==",
      "Lang": "no",
      "CaptionKey": "translation",
      "CaptionName": "Oversettelse",
      "YoutubeSynced": true
    },
    {
      "ID": "PUl00ujR9dr2agOf6Zy7wZ-j3Vr1k6YopQQw4zk72IAlK_lXWxh5mZNOikSQRUUv",
      "Lang": "pa",
      "CaptionKey": "translation",
      "CaptionName": "ਅਨੁਵਾਦ",
      "YoutubeSynced": true
    },
    {
      "ID": "gVGAEHRMv6twz9NMaWbYdeM0z1GZz3iJQ2kRxU3PsbIhuRoK1HhnVw==",
      "Lang": "pl",
      "CaptionKey": "translation",
      "CaptionName": "Tłumaczenie",
      "YoutubeSynced": true
    },
    {
      "ID": "rkLEQTxS-fxZq4qnubHQ3NjfEYlXPn9E_RolW05svCln8_BJaDOFdw==",
      "Lang": "ps",
      "CaptionKey": "translation",
      "CaptionName": "ژباړه",
      "YoutubeSynced": true
    },
    {
      "ID": "rkLEQTxS-fyHgAEJYpyOmga-ERmH0aOLKNLPSKUPkDR0QAYLu21ucw==",
      "Lang": "pt",
      "CaptionKey": "translation",
      "CaptionName": "Tradução",
      "YoutubeSynced": true
    },
    {
      "ID": "YLgD5mnxjga5ePJz00PFxaGG1nMfGd4Keh1vyFGljPkVa2ZcCtdDEQ==",
      "Lang": "ro",
      "CaptionKey": "translation",
      "CaptionName": "Traducere",
      "YoutubeSynced": true
    },
    {
      "ID": "GX0b7hBYzge6665CpwwzbBiLLiJAUT5CBtMTMtomYtLdbip_OA97sg==",
      "Lang": "ru",
      "CaptionKey": "translation",
      "CaptionName": "Перевод",
      "YoutubeSynced": true
    },
    {
      "ID": "rkLEQTxS-fyHLJkMvMcbTwYVTzr2owTdKolbJP3_LIhp5A6cF_ErLg==",
      "Lang": "sd",
      "CaptionKey": "translation",
      "CaptionName": "ترجمو",
      "YoutubeSynced": true
    },
    {
      "ID": "fzqtPyyTDm1dk1Fsw1JmUdceSvkuTQXp8jK6DqCQcG8DXP0upvqOSOxDizYrUSMyIWIzZkxBDA0=",
      "Lang": "si",
      "CaptionKey": "translation",
      "CaptionName": "පරිවර්තනය",
      "YoutubeSynced": true
    },
    {
      "ID": "_6sVreFcCQw0fK0HPlsF6sVP0qlCJS-PQkW3J7VS_7oPUDLgaKSQVg==",
      "Lang": "sk",
      "CaptionKey": "translation",
      "CaptionName": "preklad",
      "YoutubeSynced": true
    },
    {
      "ID": "poESddHY_zhYClKVAUKKJf1Qa9YAcp2j244y5soUEbE=",
      "Lang": "sl",
      "CaptionKey": "translation",
      "CaptionName": "Prevod",
      "YoutubeSynced": true
    },
    {
      "ID": "gVGAEHRMv6vgZxYTya5y58BMrEEs4WE1Ol67klio8s9dlMfVamwnGQ==",
      "Lang": "sm",
      "CaptionKey": "translation",
      "CaptionName": "Faʻaliliuga",
      "YoutubeSynced": true
    },
    {
      "ID": "_6sVreFcCQzYn75_asm_kceGlzvBMs7238tIcjT2TAwd1ofDNzqveA==",
      "Lang": "sn",
      "CaptionKey": "translation",
      "CaptionName": "Dudziro",
      "YoutubeSynced": true
    },
    {
      "ID": "YLgD5mnxjgbE-OeyN3HxN57SHhbQYjCSXUgk7vZMcTWV7WsE4MpZ4A==",
      "Lang": "so",
      "CaptionKey": "translation",
      "CaptionName": "Tarjumida",
      "YoutubeSynced": true
    },
    {
      "ID": "YLgD5mnxjgY7JVMRRuLcGkF6fWPBPijLSKTJ54POy4RkjlSHGgVJBQ==",
      "Lang": "sq",
      "CaptionKey": "translation",
      "CaptionName": "përkthim",
      "YoutubeSynced": true
    },
    {
      "ID": "gVGAEHRMv6tvg4BflaR1v8M3vFJnk5ExKA0nKMsQVOzTKE4xmBa22w==",
      "Lang": "sr",
      "CaptionKey": "translation",
      "CaptionName": "Превод",
      "YoutubeSynced": true
    },
    {
      "ID": "YLgD5mnxjgbHLFJyi9ZYn_5mNsctaiYv6KNWa3QXgCiGufnVqzTUnQ==",
      "Lang": "st",
      "CaptionKey": "translation",
      "CaptionName": "Phetolelo",
      "YoutubeSynced": true
    },
    {
      "ID": "rkLEQTxS-fz8tfQIiEoOg5U2Z95I37oyYEdzOA263cxYWCMIoIp45w==",
      "Lang": "su",
      "CaptionKey": "translation",
      "CaptionName": "Tarjamahan",
      "YoutubeSynced": true
    },
    {
      "ID": "GX0b7hBYzgf4g9F4PtJG7IWaMBDUvMoevUP6TmpgsVLBsFx9KsLRqg==",
      "Lang": "sv",
      "CaptionKey": "translation",
      "CaptionName": "Översättning",
      "YoutubeSynced": true
    },
    {
      "ID": "_6sVreFcCQzVXHHb-DpTzEZ-dwHhqoiLT2ExGxRxz62AmH_Jl1nKVQ==",
      "Lang": "sw",
      "CaptionKey": "translation",
      "CaptionName": "Tafsiri",
      "YoutubeSynced": true
    },
    {
      "ID": "SAiIJ_TBGVq6KF5q4i9tahIiwlWE1Gp_YXpG29wF1tLD0F9aR1fwQcGTGjNivts8j9tEPhS9rXlsGWfX6xv5busXK-tE_VjZ",
      "Lang": "ta",
      "CaptionKey": "translation",
      "CaptionName": "மொழிபெயர்ப்பு",
      "YoutubeSynced": true
    },
    {
      "ID": "r-kuFtplJkTEwkDherSD4Ryt9DQawKbCVTSgAF6DbRzhdbcn_9xXS3YfGywPZZQG",
      "Lang": "te",
      "CaptionKey": "translation",
      "CaptionName": "అనువాదం",
      "YoutubeSynced": true
    },
    {
      "ID": "GX0b7hBYzge7yNdo2v7nYn0kWslPuOOaTSeZKyQ1wzgbQ1BQI9zMqQ==",
      "Lang": "tg",
      "CaptionKey": "translation",
      "CaptionName": "Тарҷума",
      "YoutubeSynced": true
    },
    {
      "ID": "PUl00ujR9dqAWqhqG7N1mo6MAwWKUIxUTF9i9FNlc7Uo3PiNZh4p9DcNp05UMtCx",
      "Lang": "th",
      "CaptionKey": "translation",
      "CaptionName": "การแปล",
      "YoutubeSynced": true
    },
    {
      "ID": "t9bELNoDpvG_hWhTKF6HLz4AafeTMJ9O-yiA_nMycg5HT06rXUtAGw==",
      "Lang": "tr",
      "CaptionKey": "translation",
      "CaptionName": "Tercüme",
      "YoutubeSynced": true
    },
    {
      "ID": "Zj-QNSoudoerWCxxlT-5WgzP4QNU6zV49A8zH-LEimE1DIE2RB09STq2GrDP9V6x",
      "Lang": "uk",
      "CaptionKey": "translation",
      "CaptionName": "Переклад",
      "YoutubeSynced": true
    },
    {
      "ID": "rkLEQTxS-fztiFHm2V2qSLu8WQ7JuOrDtaULbz-swtfWPS31L8njMA==",
      "Lang": "ur",
      "CaptionKey": "translation",
      "CaptionName": "ترجمہ",
      "YoutubeSynced": true
    },
    {
      "ID": "_6sVreFcCQx-SR7hpWGfRlZh3UDzdHmA9zmB4CqzcH6-yUKDTl9ARQ==",
      "Lang": "uz",
      "CaptionKey": "translation",
      "CaptionName": "Tarjima",
      "YoutubeSynced": true
    },
    {
      "ID": "poESddHY_zglJzST_Hr8q7I7PDVk3zIsFlpwslBbHqU=",
      "Lang": "vi",
      "CaptionKey": "translation",
      "CaptionName": "Dịch",
      "YoutubeSynced": true
    },
    {
      "ID": "rkLEQTxS-fwcbdAVWuPXnGD0m2RBbQ7w_TqI4IWClDZ6Iut4KEEBRQ==",
      "Lang": "xh",
      "CaptionKey": "translation",
      "CaptionName": "Inguqulelo",
      "YoutubeSynced": true
    },
    {
      "ID": "8G_kClAFIp3HMHdD9d1xuQE7beDhIcQ4TLuF24XH1hbP807gOb6XD7PA-75qdhYw",
      "Lang": "yi",
      "CaptionKey": "translation",
      "CaptionName": "איבערזעצונג",
      "YoutubeSynced": true
    },
    {
      "ID": "_6sVreFcCQyx_iqQw_sPCyXZxwylQfcRrUeDF1H7RYqbnb9eoPR3vw==",
      "Lang": "yo",
      "CaptionKey": "translation",
      "CaptionName": "Itumọ",
      "YoutubeSynced": true
    },
    {
      "ID": "cwnfUGhjmTDHHZbFJoS29Niz6czeLSHemj2ZM4KgQ9r8ESf3XhgVnA==",
      "Lang": "zh-Hans",
      "CaptionKey": "translation",
      "CaptionName": "翻译",
      "YoutubeSynced": true
    },
    {
      "ID": "cwnfUGhjmTDHHZbFJoS29GqLdeoPVDKSBaa8vPX9Gj-sDsF5pVF0cg==",
      "Lang": "zh-Hant",
      "CaptionKey": "translation",
      "CaptionName": "翻譯",
      "YoutubeSynced": true
    },
    {
      "ID": "rkLEQTxS-fx2_qc4bUeA_hVSuPhe_oaBMc6BX47YhzRmuuvugv_77g==",
      "Lang": "zu",
      "CaptionKey": "translation",
      "CaptionName": "Ukuhumusha",
      "YoutubeSynced": true
    }
  ]
}