{
  "VideoFile": "grammar-en-beginner-simple_2_AU.mp4",
  "Captions": [
    {
      "ID": "HyUMBZd7vEGLrRPmhzAQDrZRCwGELP4cjl0z3D3FKFPlhlnq4_s8wA==",
      "Lang": "af",
      "CaptionKey": "translation",
      "CaptionName": "vertaling",
      "YoutubeSynced": true
    },
    {
      "ID": "fpcOy3Vc4eLgcpBXOr_J4aCJSMY7FmgQsE3A-SuYNoBXBK8AQTqBeA==",
      "Lang": "am",
      "CaptionKey": "translation",
      "CaptionName": "ትርጉም",
      "YoutubeSynced": true
    },
    {
      "ID": "ZT-VlFqrNTtjr0AWvN0kqxyVJ7DMeDhxePLEsrsQq8ZBcvIsvGyiPg==",
      "Lang": "ar",
      "CaptionKey": "translation",
      "CaptionName": "ترجمة",
      "YoutubeSynced": true
    },
    {
      "ID": "ZT-VlFqrNTtia4-8O2nzfXJDW5ycuHGPiFlQLKV_ncyBKqyayQBIAg==",
      "Lang": "az",
      "CaptionKey": "translation",
      "CaptionName": "Tərcümə",
      "YoutubeSynced": true
    },
    {
      "ID": "12Dc-UMbAAa6JWctyBcuxql7AoUfDc3Wf_-wFoqKua_sJZT8TPbQNiihD_h-lNgI",
      "Lang": "be",
      "CaptionKey": "translation",
      "CaptionName": "Пераклад",
      "YoutubeSynced": true
    },
    {
      "ID": "fpcOy3Vc4eJdA9B9n08Kroe7I7M3zm2uB_W8RbKEKP0oQWewiC9Gng==",
      "Lang": "bg",
      "CaptionKey": "translation",
      "CaptionName": "превод",
      "YoutubeSynced": true
    },
    {
      "ID": "NcrPlzqQAweT9WgPXaKTzheJqr7gT3px06HJigiF3MC3WD5dygj2nQ2jmrD8dwrA",
      "Lang": "bn",
      "CaptionKey": "translation",
      "CaptionName": "অনুবাদ",
      "YoutubeSynced": true
    },
    {
      "ID": "6OSKHW_kryL4XLqJ1S_NG3ArtbkmaBzpcO-3r1ECn6c=",
      "Lang": "bs",
      "CaptionKey": "translation",
      "CaptionName": "Prevod",
      "YoutubeSynced": true
    },
    {
      "ID": "ZT-VlFqrNTtL2g02OL4go1F8QZiW4XVWOg6PqO34a7P5WGM2x-xQaQ==",
      "Lang": "ca",
      "CaptionKey": "translation",
      "CaptionName": "Traducció",
      "YoutubeSynced": true
    },
    {
      "ID": "ZT-VlFqrNTswW8Ru5XFiUkmaFe8LTs5442aaGWusPXocZo8bV9qbdQ==",
      "Lang": "co",
      "CaptionKey": "translation",
      "CaptionName": "Traduzione",
      "YoutubeSynced": true
    },
    {
      "ID": "UMTS_MExKiBOL4kcJLMDgk_8kw9S_i8OVIYYNRIID4hzHP8jHCCiCA==",
      "Lang": "cs",
      "CaptionKey": "translation",
      "CaptionName": "Překlad",
      "YoutubeSynced": true
    },
    {
      "ID": "uRj_IX5t6RDIfCxfJPtpVYJ7m9TSydKOKzH9mHcZzSrePeRmYNABCQ==",
      "Lang": "cy",
      "CaptionKey": "translation",
      "CaptionName": "Cyfieithiad",
      "YoutubeSynced": true
    },
    {
      "ID": "RoaohexfFoy6YqmDa5WFpXKqeca62PjbbpOr6NUSnoxNBZAT4YEwIQ==",
      "Lang": "da",
      "CaptionKey": "translation",
      "CaptionName": "Oversættelse",
      "YoutubeSynced": true
    },
    {
      "ID": "fpcOy3Vc4eJILrGNdgUxPuUw9znTLzKSVn-iaxi5DYvqIB5k-rPkOw==",
      "Lang": "de",
      "CaptionKey": "translation",
      "CaptionName": "Übersetzung",
      "YoutubeSynced": true
    },
    {
      "ID": "NcrPlzqQAwed7AGXuT1FjnTjk42WFr35kf0oFAPT-qSMetA-zyzsunIIVfVXonTX",
      "Lang": "el",
      "CaptionKey": "translation",
      "CaptionName": "Μετάφραση",
      "YoutubeSynced": true
    },
    {
      "ID": "uRj_IX5t6RC8kGgIBBO8yHMNKgAz26foaZ5Kd4Vr6K-Y4q-qA9459A==",
      "Lang": "en",
      "CaptionKey": "translation",
      "CaptionName": "Translation",
      "YoutubeSynced": true
    },
    {
      "ID": "jlvPBo0AwcGhYNvqHf9OVcpNvy1zIjTDUDkwDH4oJYz4_TO08CnBhJkZtScvbJ4d",
      "Lang": "en",
      "CaptionKey": "ruby",
      "CaptionName": "Pronunciation - IPA",
      "YoutubeSynced": true
    },
    {
      "ID": "uRj_IX5t6RDRHUp9BU_eARmkNSBxCrVIoQdW88lOtFYBXTc6JKF6Tw==",
      "Lang": "es",
      "CaptionKey": "translation",
      "CaptionName": "Traducción",
      "YoutubeSynced": true
    },
    {
      "ID": "6OSKHW_kryLjaUsiJ_VgVSxMHvfUDR_oUWzKvls-dYg=",
      "Lang": "et",
      "CaptionKey": "translation",
      "CaptionName": "Tõlge",
      "YoutubeSynced": true
    },
    {
      "ID": "HyUMBZd7vEHthd8wberQ_NTLXSd0yyCreLdQT70k7tNC31alYl3ctA==",
      "Lang": "eu",
      "CaptionKey": "translation",
      "CaptionName": "Itzulpena",
      "YoutubeSynced": true
    },
    {
      "ID": "ZT-VlFqrNTsGyIR2x09hRqJjBkc9PHL9V12PRSsEoftW6RiATLUpew==",
      "Lang": "fa",
      "CaptionKey": "translation",
      "CaptionName": "ترجمه",
      "YoutubeSynced": true
    },
    {
      "ID": "ZT-VlFqrNTtDnlKCL4UR3OT9hx6_490XIj9Jrt46zwkr7B4yVy8ixw==",
      "Lang": "fi",
      "CaptionKey": "translation",
      "CaptionName": "Käännös",
      "YoutubeSynced": true
    },
    {
      "ID": "uRj_IX5t6RBWPYTVfxcrZ1GMXE9pTi4YdJUXJVfQW5ItHVSP265t3Q==",
      "Lang": "fil",
      "CaptionKey": "translation",
      "CaptionName": "Pagsasalin",
      "YoutubeSynced": true
    },
    {
      "ID": "ZT-VlFqrNTs7E3E8AtpHhDSIRjZgaSEMhjO_hD_-Jf1hd5TpCC-eQg==",
      "Lang": "fr",
      "CaptionKey": "translation",
      "CaptionName": "Traduction",
      "YoutubeSynced": true
    },
    {
      "ID": "ZT-VlFqrNTsyhSVnXGUyR1ghwlJwxg34UHCJw_CFOxzvKDKIRSb4mg==",
      "Lang": "fy",
      "CaptionKey": "translation",
      "CaptionName": "Oersetting",
      "YoutubeSynced": true
    },
    {
      "ID": "NcrPlzqQAwcKUoXcoWSDjTfA7hcg0HOv6E5hk4IHfoY2c0re1iN_a23mHojIQ2vO",
      "Lang": "gd",
      "CaptionKey": "translation",
      "CaptionName": "Eadar-theangachadh",
      "YoutubeSynced": true
    },
    {
      "ID": "ZT-VlFqrNTtqq0d_JwB-5JC8xJLc9oh9QeHIXgl896f-U_IxW8do5Q==",
      "Lang": "gl",
      "CaptionKey": "translation",
      "CaptionName": "Tradución",
      "YoutubeSynced": true
    },
    {
      "ID": "NcrPlzqQAwei9s46MJdg_OVHaTtQXUJo5sg9DcQuASxVCw--SN7dbi9FKoD1aOVS",
      "Lang": "gu",
      "CaptionKey": "translation",
      "CaptionName": "અનુવાદ",
      "YoutubeSynced": true
    },
    {
      "ID": "qrD-HALRJweNSzpWxEYbaUUF2sl93bsSar3ANAcUIxbLh8QkK0Y2Dw==",
      "Lang": "ha",
      "CaptionKey": "translation",
      "CaptionName": "Fassara",
      "YoutubeSynced": true
    },
    {
      "ID": "NcrPlzqQAwdNzlM7QnqeZgvvoBmYfK7kjZLJFju7d3gu1EDoeRk2m1FRUV0KiYo1",
      "Lang": "hi",
      "CaptionKey": "translation",
      "CaptionName": "अनुवाद",
      "YoutubeSynced": true
    },
    {
      "ID": "UMTS_MExKiCxhhr1PS0V_wIgqCrYhSEfWKVBxgG_jNQ8OTwfKXD9Rg==",
      "Lang": "hr",
      "CaptionKey": "translation",
      "CaptionName": "Prijevod",
      "YoutubeSynced": true
    },
    {
      "ID": "ZT-VlFqrNTvodQPGGZU3uKKyKtsRpQj4X9fOkKFBm7G1mFJcdZCClA==",
      "Lang": "hu",
      "CaptionKey": "translation",
      "CaptionName": "Fordítás",
      "YoutubeSynced": true
    },
    {
      "ID": "PdfnOp_GuRSi28sD7S5mbim8fl47zWeTi5yr5BISHOj1rE54fZGAQOyL9cdfStCEG4vvswwJ1wo=",
      "Lang": "hy",
      "CaptionKey": "translation",
      "CaptionName": "Թարգմանություն",
      "YoutubeSynced": true
    },
    {
      "ID": "ZT-VlFqrNTutzcA4L2WwBF-zaUpNrGQM5MBhC4u9EIXWDnHPRsc-zA==",
      "Lang": "id",
      "CaptionKey": "translation",
      "CaptionName": "Terjemahan",
      "YoutubeSynced": true
    },
    {
      "ID": "UMTS_MExKiDQpYXxkEGirlSMRMWzo2Lt2pZjhmHN1YnsP7Yvik2qfw==",
      "Lang": "ig",
      "CaptionKey": "translation",
      "CaptionName": "Ntughari",
      "YoutubeSynced": true
    },
    {
      "ID": "HyUMBZd7vEF5ziL8HUsZrpz70lSXxGcfpIflxjv6Pl9JCp7P9l8hhg==",
      "Lang": "is",
      "CaptionKey": "translation",
      "CaptionName": "Þýðing",
      "YoutubeSynced": true
    },
    {
      "ID": "ZT-VlFqrNTuvKL3gqaaUnb_lWpEDZOv7gvAWIz9bSIIbJhWTTYooJw==",
      "Lang": "it",
      "CaptionKey": "translation",
      "CaptionName": "Traduzione",
      "YoutubeSynced": true
    },
    {
      "ID": "ZT-VlFqrNTsVyz5GCf_UnkBGxaZgWB-BI7Hc2C2tXjQJSmQxj_loPQ==",
      "Lang": "iw",
      "CaptionKey": "translation",
      "CaptionName": "תרגום",
      "YoutubeSynced": true
    },
    {
      "ID": "6OSKHW_kryIdnEX-S2lbVJdTSH28KvxUk2L8J9MOHY0=",
      "Lang": "ja",
      "CaptionKey": "translation",
      "CaptionName": "翻訳",
      "YoutubeSynced": true
    },
    {
      "ID": "HyUMBZd7vEHC6cY-eMQ9Gm_4ipxZ6SMsoLftAb22lRYd33h7eoyXxQ==",
      "Lang": "jv",
      "CaptionKey": "translation",
      "CaptionName": "Ngartekne",
      "YoutubeSynced": true
    },
    {
      "ID": "pKUfJn5TW8mRicAC5fnANWc1jiF9DDYcUOupr_wKos8nB4ThhontERdIqofb7MTW9ax4ZvpKHIY=",
      "Lang": "ka",
      "CaptionKey": "translation",
      "CaptionName": "თარგმანი",
      "YoutubeSynced": true
    },
    {
      "ID": "BQjSbW0EXk5El0fOQeEUze5CROCY5WayEfWFY_Ox08HpKAtGpCuyiw==",
      "Lang": "kk",
      "CaptionKey": "translation",
      "CaptionName": "Аударма",
      "YoutubeSynced": true
    },
    {
      "ID": "4RqnSA4u1BNy7LW74H5wBGzMoLrEQcnF1WvrrrN3DjKikVNXdV5-3A1Nf4s2LLyOTneB5mgmUvY=",
      "Lang": "km",
      "CaptionKey": "translation",
      "CaptionName": "ការបកប្រែ",
      "YoutubeSynced": true
    },
    {
      "ID": "NcrPlzqQAwf_ldMLwewQ-WAF3sTsFgMSL94cc69F2wjziEDpniWG05nomMSPQXyv",
      "Lang": "kn",
      "CaptionKey": "translation",
      "CaptionName": "ಅನುವಾದ",
      "YoutubeSynced": true
    },
    {
      "ID": "6OSKHW_kryJnCRbWZP_rEVBOLxpWWNhz9m_ZU2Qibu0=",
      "Lang": "ko",
      "CaptionKey": "translation",
      "CaptionName": "번역",
      "YoutubeSynced": true
    },
    {
      "ID": "6OSKHW_kryJYQghsuE7xsdfBav_obtbIjiKMhgQQqIU=",
      "Lang": "ku",
      "CaptionKey": "translation",
      "CaptionName": "Werger",
      "YoutubeSynced": true
    },
    {
      "ID": "BQjSbW0EXk7-_SETMIqkB4beWkTRu6RU1VAAnFht1trnSO_cWYr12Q==",
      "Lang": "ky",
      "CaptionKey": "translation",
      "CaptionName": "котормо",
      "YoutubeSynced": true
    },
    {
      "ID": "fpcOy3Vc4eJY10SQeSmWLIWulbED3Nn08LiSlovXptUnmjeENRLNnA==",
      "Lang": "lb",
      "CaptionKey": "translation",
      "CaptionName": "Iwwersetzung",
      "YoutubeSynced": true
    },
    {
      "ID": "4RqnSA4u1BP6oz8lL1e1CcszQzzSIL1XPhr1Aa23PC27ASQDrP-TFRzROfspVw1ZTA9TTaeUeHg=",
      "Lang": "lo",
      "CaptionKey": "translation",
      "CaptionName": "ການແປພາສາ",
      "YoutubeSynced": true
    },
    {
      "ID": "UMTS_MExKiB0f8k6_VOCi2PnEgxWFb5kJMzg_ZkfbI4Tqa8f85gPKg==",
      "Lang": "lt",
      "CaptionKey": "translation",
      "CaptionName": "Vertimas",
      "YoutubeSynced": true
    },
    {
      "ID": "ZT-VlFqrNTvzs0JqDuT_hr0DLPU-WHQWNdRclvFxsaCK7OOczIKsww==",
      "Lang": "lv",
      "CaptionKey": "translation",
      "CaptionName": "Tulkošana",
      "YoutubeSynced": true
    },
    {
      "ID": "uRj_IX5t6RC9vlHtCZfiuXRsmrcuEQOIeczCVkW5vDkE8MyTbSKlCw==",
      "Lang": "mg",
      "CaptionKey": "translation",
      "CaptionName": "Translation",
      "YoutubeSynced": true
    },
    {
      "ID": "FCZPFo_KRCsCPCiPRkelNbDvZ3tEtrZn32AByhmgu1jM0cJOtVF9gnCgxiCX7N6Z",
      "Lang": "mi",
      "CaptionKey": "translation",
      "CaptionName": "Whakamaoritanga",
      "YoutubeSynced": true
    },
    {
      "ID": "fpcOy3Vc4eIliGrmbhUkx0whw1qDmtld2agZjQLdeWq_Lj34PNpGqw==",
      "Lang": "mk",
      "CaptionKey": "translation",
      "CaptionName": "Превод",
      "YoutubeSynced": true
    },
    {
      "ID": "4RqnSA4u1BN_M8l_ic5NkUpXLGG5boRKjGZmCRTtgukJ57pFeMvbErgjTC5PIDuR0Koieg3vS2E=",
      "Lang": "ml",
      "CaptionKey": "translation",
      "CaptionName": "വിവർത്തനം",
      "YoutubeSynced": true
    },
    {
      "ID": "12Dc-UMbAAa6z_WYl4VDcM_alm2ftgCo07CHFV0cmMoqOzyWSX5tWzjqRjCIw1es",
      "Lang": "mn",
      "CaptionKey": "translation",
      "CaptionName": "Орчуулга",
      "YoutubeSynced": true
    },
    {
      "ID": "uJzrGT0PNFjQXv0qwVlBm-Cg2rpuENmvqWgM_GKZE_GOpcSKOhfzyiP74c7IWuaF",
      "Lang": "mr",
      "CaptionKey": "translation",
      "CaptionName": "भाषांतर",
      "YoutubeSynced": true
    },
    {
      "ID": "ZT-VlFqrNTuDGug0Wtx4LCJ9KSUN0DK5fS6ROKvLRPgdy83oazvbsQ==",
      "Lang": "ms",
      "CaptionKey": "translation",
      "CaptionName": "Terjemahan",
      "YoutubeSynced": true
    },
    {
      "ID": "uRj_IX5t6RCsYFkZc9tO7MioyG7VWPcpedX0ShXADOcroepPOgklzg==",
      "Lang": "mt",
      "CaptionKey": "translation",
      "CaptionName": "Traduzzjoni",
      "YoutubeSynced": true
    },
    {
      "ID": "pKUfJn5TW8mcteAzm8L9x0z-qgPUlHNSfLwPr0Od0RidGn11DinslubJ0i0TsvRTBqid4EUchRs=",
      "Lang": "my",
      "CaptionKey": "translation",
      "CaptionName": "ဘာသာပြန်",
      "YoutubeSynced": true
    },
    {
      "ID": "NcrPlzqQAwfPlWnVatyy-XT3KIDEMd6zXBTWOmgh6h1TFOE_ek5G7STxD4jcfk0E",
      "Lang": "ne",
      "CaptionKey": "translation",
      "CaptionName": "अनुवाद",
      "YoutubeSynced": true
    },
    {
      "ID": "HyUMBZd7vEEMkAN90ONRCWdyVE6hRUWlvUGhA8WPljs4SdpvD-wydQ==",
      "Lang": "nl",
      "CaptionKey": "translation",
      "CaptionName": "Vertaling",
      "YoutubeSynced": true
    },
    {
      "ID": "fpcOy3Vc4eI1ikubq2y-q3julQ8vWWtzW7yk-Xw8vYbVJeC4benHzA==",
      "Lang": "no",
      "CaptionKey": "translation",
      "CaptionName": "Oversettelse",
      "YoutubeSynced": true
    },
    {
      "ID": "NcrPlzqQAweMWSs5llku4wk3CWDN-Vt_8DC_reGMxRMyt5OVmUm6eBmvoVijyXRu",
      "Lang": "pa",
      "CaptionKey": "translation",
      "CaptionName": "ਅਨੁਵਾਦ",
      "YoutubeSynced": true
    },
    {
      "ID": "fpcOy3Vc4eI94LygJxvZrp0dk0h6HBDkw1tlPIwnjvFej1_OTUy3Zw==",
      "Lang": "pl",
      "CaptionKey": "translation",
      "CaptionName": "Tłumaczenie",
      "YoutubeSynced": true
    },
    {
      "ID": "ZT-VlFqrNTt24rKO4kGBoyp6Ns5JU8cJx1WmGXd-HefaYMsoWXQQOg==",
      "Lang": "ps",
      "CaptionKey": "translation",
      "CaptionName": "ژباړه",
      "YoutubeSynced": true
    },
    {
      "ID": "ZT-VlFqrNTtIoBniRUH-A-8l9bHNL4YplXgcmp7dbMe9f80z5v4dYQ==",
      "Lang": "pt",
      "CaptionKey": "translation",
      "CaptionName": "Tradução",
      "YoutubeSynced": true
    },
    {
      "ID": "HyUMBZd7vEFcwWEHWOVTwm4xvpMtHbuZSChr0PwYlU4KTiHT9DLT7Q==",
      "Lang": "ro",
      "CaptionKey": "translation",
      "CaptionName": "Traducere",
      "YoutubeSynced": true
    },
    {
      "ID": "BQjSbW0EXk7UQM7WpPHG6bPllbunXmYCkSsTTDdyuxFPD3XaGTFzSw==",
      "Lang": "ru",
      "CaptionKey": "translation",
      "CaptionName": "Перевод",
      "YoutubeSynced": true
    },
    {
      "ID": "ZT-VlFqrNTv47Dlt2bFL-NpzYLlJdVzXopCpJAd9OqmD9V8qW1wSiw==",
      "Lang": "sd",
      "CaptionKey": "translation",
      "CaptionName": "ترجمو",
      "YoutubeSynced": true
    },
    {
      "ID": "4RqnSA4u1BM-P-15xxq2a1QhS45QoSi5O3eo9p3X6sNRoBm8g1ame7PUIiunZqBm4CgpoLbDzc8=",
      "Lang": "si",
      "CaptionKey": "translation",
      "CaptionName": "පරිවර්තනය",
      "YoutubeSynced": true
    },
    {
      "ID": "qrD-HALRJwdY7_C8mkzamXzasL9x1FDQsjZTWhUvC0SfsfHagYh5mw==",
      "Lang": "sk",
      "CaptionKey": "translation",
      "CaptionName": "preklad",
      "YoutubeSynced": true
    },
    {
      "ID": "6OSKHW_kryIWiv1g5OH89Ka5bj9ks-CJsQIMY0KL9lM=",
      "Lang": "sl",
      "CaptionKey": "translation",
      "CaptionName": "Prevod",
      "YoutubeSynced": true
    },
    {
      "ID": "fpcOy3Vc4eLZFAZZ1EOPhlZGFB79MxJyAKh8SopV9JmLzyvHqUMrVA==",
      "Lang": "sm",
      "CaptionKey": "translation",
      "CaptionName": "Faʻaliliuga",
      "YoutubeSynced": true
    },
    {
      "ID": "qrD-HALRJwc9nydktsiwL4nvum0wdfWsF9-a9v85kX7FBSeljgrqEg==",
      "Lang": "sn",
      "CaptionKey": "translation",
      "CaptionName": "Dudziro",
      "YoutubeSynced": true
    },
    {
      "ID": "HyUMBZd7vEHuPGY0hIDzroZaEBRGSaSbXeZTrOa2z7QJ1YFoyuaHRQ==",
      "Lang": "so",
      "CaptionKey": "translation",
      "CaptionName": "Tarjumida",
      "YoutubeSynced": true
    },
    {
      "ID": "HyUMBZd7vEGV9VC-XkgUh66TBGNKDSrsNza1za6e7sxff4o1ShiBwQ==",
      "Lang": "sq",
      "CaptionKey": "translation",
      "CaptionName": "përkthim",
      "YoutubeSynced": true
    },
    {
      "ID": "fpcOy3Vc4eL1sVAK7HenRzo3tWJzcV1L7qj3Tfxgy2ME5CYwyDYK9Q==",
      "Lang": "sr",
      "CaptionKey": "translation",
      "CaptionName": "Превод",
      "YoutubeSynced": true
    },
    {
      "ID": "HyUMBZd7vEGVsw4RPpI7jqNc7Rouf3ZBXJ2jkiRBn49swuV4mGXPPQ==",
      "Lang": "st",
      "CaptionKey": "translation",
      "CaptionName": "Phetolelo",
      "YoutubeSynced": true
    },
    {
      "ID": "ZT-VlFqrNTvzQRtlnItaQ2WdjgWFU4X840RIQp-s9SV3Up-Wqkthhg==",
      "Lang": "su",
      "CaptionKey": "translation",
      "CaptionName": "Tarjamahan",
      "YoutubeSynced": true
    },
    {
      "ID": "BQjSbW0EXk49b3luIJ2HZ2mmpwUGwSOt8tDyWiNDpQGWnIVLxjY7jg==",
      "Lang": "sv",
      "CaptionKey": "translation",
      "CaptionName": "Översättning",
      "YoutubeSynced": true
    },
    {
      "ID": "qrD-HALRJwe2fRhoaHAHvAg1aePvMBgJR5sMRr3kQrq7PH8oOuZq_A==",
      "Lang": "sw",
      "CaptionKey": "translation",
      "CaptionName": "Tafsiri",
      "YoutubeSynced": true
    },
    {
      "ID": "RxhQ9JysJhcgF5KSHmUTNvD0y0r9Fk0uRpQviwbTF9o9rghyB8r2rdcH7AnPvMrMKFWhROAl7KzRNv2kO2gdcwm5TzQ9VdpK",
      "Lang": "ta",
      "CaptionKey": "translation",
      "CaptionName": "மொழிபெயர்ப்பு",
      "YoutubeSynced": true
    },
    {
      "ID": "uJzrGT0PNFgwynDDs93yN6cGF1CO7NxqCnl3YLXWzp3tWkBMVOTH9GkCEvkfIZZh",
      "Lang": "te",
      "CaptionKey": "translation",
      "CaptionName": "అనువాదం",
      "YoutubeSynced": true
    },
    {
      "ID": "BQjSbW0EXk5iDQ58wR7KSdYx_ls7IMFLZ2RPLApbSD3DMqUrAQAppw==",
      "Lang": "tg",
      "CaptionKey": "translation",
      "CaptionName": "Тарҷума",
      "YoutubeSynced": true
    },
    {
      "ID": "NcrPlzqQAwefm9_qjgeSAVpr3f-N19ExBrdZMf7o95g9Rojoew31CWzWu6bnOLAn",
      "Lang": "th",
      "CaptionKey": "translation",
      "CaptionName": "การแปล",
      "YoutubeSynced": true
    },
    {
      "ID": "UMTS_MExKiD5QEUq1boKycG_98iTeuBxQK8x_6ePXAY9-DL8UqxJgA==",
      "Lang": "tr",
      "CaptionKey": "translation",
      "CaptionName": "Tercüme",
      "YoutubeSynced": true
    },
    {
      "ID": "12Dc-UMbAAbV9HrNcsdti_WJHaf18RhiyuX7g5gBH_j5fYhtkxVGBYjGUEcn7Igv",
      "Lang": "uk",
      "CaptionKey": "translation",
      "CaptionName": "Переклад",
      "YoutubeSynced": true
    },
    {
      "ID": "ZT-VlFqrNTuyL6oJfKeXtJNrYCy471MoV2BypvEARY3HK0pb-Kjq3w==",
      "Lang": "ur",
      "CaptionKey": "translation",
      "CaptionName": "ترجمہ",
      "YoutubeSynced": true
    },
    {
      "ID": "qrD-HALRJwcbDsROVFlvnpwdfYqHQbYSFbdL-uV7QnyKHsm3Av0LAg==",
      "Lang": "uz",
      "CaptionKey": "translation",
      "CaptionName": "Tarjima",
      "YoutubeSynced": true
    },
    {
      "ID": "6OSKHW_kryLLrWWskQb5odt-2APN5oJD-RFT5cJQz-M=",
      "Lang": "vi",
      "CaptionKey": "translation",
      "CaptionName": "Dịch",
      "YoutubeSynced": true
    },
    {
      "ID": "ZT-VlFqrNTvGR0Mxm2aVjQGyWolF53OoT5x9bluLRFdCnKR477gJ_g==",
      "Lang": "xh",
      "CaptionKey": "translation",
      "CaptionName": "Inguqulelo",
      "YoutubeSynced": true
    },
    {
      "ID": "HaDTonPhkqPi9BDIxVEfFU_aCWvok9G_0UapNpcbmYZRJP7LPGr7q0GHku76QXS_",
      "Lang": "yi",
      "CaptionKey": "translation",
      "CaptionName": "איבערזעצונג",
      "YoutubeSynced": true
    },
    {
      "ID": "qrD-HALRJweakyVTmxfwWZwow1VSTto9i-bnY3t2epO1bHAb6IHJ6w==",
      "Lang": "yo",
      "CaptionKey": "translation",
      "CaptionName": "Itumọ",
      "YoutubeSynced": true
    },
    {
      "ID": "uRj_IX5t6RBLtdGLton8fS2H8uzYkOspm049SzfrbpcbpAZx40i6kw==",
      "Lang": "zh-Hans",
      "CaptionKey": "translation",
      "CaptionName": "翻译",
      "YoutubeSynced": true
    },
    {
      "ID": "uRj_IX5t6RBLtdGLton8fXjpnT6VvwBnj6KHJ2nNk25TCTrjyPOYEA==",
      "Lang": "zh-Hant",
      "CaptionKey": "translation",
      "CaptionName": "翻譯",
      "YoutubeSynced": true
    },
    {
      "ID": "ZT-VlFqrNTvOiJCjnn0keElYy0MnD6ZFu0FOmwqIv6f5CZF0E4LpDw==",
      "Lang": "zu",
      "CaptionKey": "translation",
      "CaptionName": "Ukuhumusha",
      "YoutubeSynced": true
    }
  ]
}