{
  "VideoFile": "grammar-en-beginner-simple_69_AU.mp4",
  "Captions": [
    {
      "ID": "vGlLie6d1v6bUAAdl1VakvDquIxJmvfxpTSbv4zyd9dU2SsSO4mSqw==",
      "Lang": "af",
      "CaptionKey": "translation",
      "CaptionName": "vertaling",
      "YoutubeSynced": true
    },
    {
      "ID": "5mcMFOU8jfVMcOLNJz_cRBOD2jxLYGCFKsU7-nwGng8z_fFxBwHgFQ==",
      "Lang": "am",
      "CaptionKey": "translation",
      "CaptionName": "ትርጉም",
      "YoutubeSynced": true
    },
    {
      "ID": "BbWqn8J-giQwzMyY1U6_nXhlScKJ7Ih7SIWrrB6QvoCC00WRe1oaHA==",
      "Lang": "ar",
      "CaptionKey": "translation",
      "CaptionName": "ترجمة",
      "YoutubeSynced": true
    },
    {
      "ID": "BbWqn8J-giSTQ-rHZ7gkb_nXjmdleiRHKQctMaggk52SHqsYjwHhmA==",
      "Lang": "az",
      "CaptionKey": "translation",
      "CaptionName": "Tərcümə",
      "YoutubeSynced": true
    },
    {
      "ID": "APBy5BAtF0gEnQ6SSYKUqdwbMyebkKEJ3wwQAGXYdBBLVTs54YhdA-HcZrzJhkTo",
      "Lang": "be",
      "CaptionKey": "translation",
      "CaptionName": "Пераклад",
      "YoutubeSynced": true
    },
    {
      "ID": "5mcMFOU8jfXT-GEMwq1lWBw4HJWlulWguDRSx7IptQX8rsIaEAa_PA==",
      "Lang": "bg",
      "CaptionKey": "translation",
      "CaptionName": "превод",
      "YoutubeSynced": true
    },
    {
      "ID": "6tce28yW-zaC6vttKx9JUJmOU8BweGrSJa40IA0Hmh1GnKOUXesoVHXzSRNR0XdM",
      "Lang": "bn",
      "CaptionKey": "translation",
      "CaptionName": "অনুবাদ",
      "YoutubeSynced": true
    },
    {
      "ID": "2phDL_KxgSJGEKOUiXvJ4aqhWE9DSCUNUq2AwI8xrJI=",
      "Lang": "bs",
      "CaptionKey": "translation",
      "CaptionName": "Prevod",
      "YoutubeSynced": true
    },
    {
      "ID": "BbWqn8J-giTzyb-GGA1V4qwkamMzRmbjNhuZORhOlds7keyLhfaJbw==",
      "Lang": "ca",
      "CaptionKey": "translation",
      "CaptionName": "Traducció",
      "YoutubeSynced": true
    },
    {
      "ID": "BbWqn8J-giQ56SEGm2zAIwT5ZZ3JimzOv_Cn-W9O15G991rDmx0i2w==",
      "Lang": "co",
      "CaptionKey": "translation",
      "CaptionName": "Traduzione",
      "YoutubeSynced": true
    },
    {
      "ID": "O9GWwyKrkDfs0s690fIvjF5x1aInuvoWCtRvhkBVJbgdUy25UP7wcg==",
      "Lang": "cs",
      "CaptionKey": "translation",
      "CaptionName": "Překlad",
      "YoutubeSynced": true
    },
    {
      "ID": "w70y8FeupuG1Qy6ZNcHgsuVw8TAiPN-Ydr_hOkTThCqAC5jgBVZEag==",
      "Lang": "cy",
      "CaptionKey": "translation",
      "CaptionName": "Cyfieithiad",
      "YoutubeSynced": true
    },
    {
      "ID": "EvUrK_k1du0JCPeIHSEe5WEjRcXUWr2adnmzXabmBdJj3KxttGUmZw==",
      "Lang": "da",
      "CaptionKey": "translation",
      "CaptionName": "Oversættelse",
      "YoutubeSynced": true
    },
    {
      "ID": "5mcMFOU8jfUl74T750VaKhtvy0dmAux5UAiFWzG8bqTt38zuEPBQEg==",
      "Lang": "de",
      "CaptionKey": "translation",
      "CaptionName": "Übersetzung",
      "YoutubeSynced": true
    },
    {
      "ID": "6tce28yW-zbusogmc-g0YZnkYI_dwR0nAEYIpiSCDd902LtF6OucCIjBjgQBAPUm",
      "Lang": "el",
      "CaptionKey": "translation",
      "CaptionName": "Μετάφραση",
      "YoutubeSynced": true
    },
    {
      "ID": "w70y8FeupuHu9F-JOWz-vnV7dO8duiVYgc2H0IoqevOAvd1hatUn4w==",
      "Lang": "en",
      "CaptionKey": "translation",
      "CaptionName": "Translation",
      "YoutubeSynced": true
    },
    {
      "ID": "DgzI3OdOlz_DY00BBZW22_2-_NlPCn43-YYaTMhZmLbZL8QNjxbXWwQ8sA-bJJOV",
      "Lang": "en",
      "CaptionKey": "ruby",
      "CaptionName": "Pronunciation - IPA",
      "YoutubeSynced": true
    },
    {
      "ID": "w70y8FeupuHfrW2xzwvi7vdlQnMhpfY2vAUAp7RAVBNNxC2Tbf264A==",
      "Lang": "es",
      "CaptionKey": "translation",
      "CaptionName": "Traducción",
      "YoutubeSynced": true
    },
    {
      "ID": "2phDL_KxgSK2vaE57Tsnhf8Tv4WSd9-yF6ziyq63_J8=",
      "Lang": "et",
      "CaptionKey": "translation",
      "CaptionName": "Tõlge",
      "YoutubeSynced": true
    },
    {
      "ID": "vGlLie6d1v4fRU_ff-RTJK9EP-0UVTUvCyr-l3NpjpVj6lNdcaRIHg==",
      "Lang": "eu",
      "CaptionKey": "translation",
      "CaptionName": "Itzulpena",
      "YoutubeSynced": true
    },
    {
      "ID": "BbWqn8J-giTf61bJB08cKzfHCbWRNJ-iEZ0gLWtOUHqKLartFPmVCg==",
      "Lang": "fa",
      "CaptionKey": "translation",
      "CaptionName": "ترجمه",
      "YoutubeSynced": true
    },
    {
      "ID": "BbWqn8J-giSJFSuZSJyefi5_0T6EQ50pmMVmHmMp_kuAlAQ7D7F4Mg==",
      "Lang": "fi",
      "CaptionKey": "translation",
      "CaptionName": "Käännös",
      "YoutubeSynced": true
    },
    {
      "ID": "w70y8FeupuH9567zUBXDuvJ26McdtBw_CW5W7gPsPTfSJJ66nYsK2g==",
      "Lang": "fil",
      "CaptionKey": "translation",
      "CaptionName": "Pagsasalin",
      "YoutubeSynced": true
    },
    {
      "ID": "BbWqn8J-giQEAebV3MbcAD_LFfTOEbNyPgZRZNAkqonkIiuPDHhU_w==",
      "Lang": "fr",
      "CaptionKey": "translation",
      "CaptionName": "Traduction",
      "YoutubeSynced": true
    },
    {
      "ID": "BbWqn8J-giRIc2a8IeYDMKge6QAJ_vAvS6A-IoeYW_HPzjgveDmvrA==",
      "Lang": "fy",
      "CaptionKey": "translation",
      "CaptionName": "Oersetting",
      "YoutubeSynced": true
    },
    {
      "ID": "6tce28yW-zamr7-ZdMTyrEfc93LRmlcN9dIzWLbvqcDWGK6bAJahTJBOhVJT1H6o",
      "Lang": "gd",
      "CaptionKey": "translation",
      "CaptionName": "Eadar-theangachadh",
      "YoutubeSynced": true
    },
    {
      "ID": "BbWqn8J-giQ7PqLL74JM2gXPw6zNqmseA5xz_OgVHMEnPdNoKNznrA==",
      "Lang": "gl",
      "CaptionKey": "translation",
      "CaptionName": "Tradución",
      "YoutubeSynced": true
    },
    {
      "ID": "6tce28yW-zbATFDiPZpuHYfQDil3orFfxOdil36FhAj0tgvWvWK61L5I70tBusGC",
      "Lang": "gu",
      "CaptionKey": "translation",
      "CaptionName": "અનુવાદ",
      "YoutubeSynced": true
    },
    {
      "ID": "lJF8vkXucFKHWuwGZK8QuuIeiQi1OlNmLt6zdhvp6Qjn-kXmpcdXCA==",
      "Lang": "ha",
      "CaptionKey": "translation",
      "CaptionName": "Fassara",
      "YoutubeSynced": true
    },
    {
      "ID": "6tce28yW-zaUiv5Du1SRnzTqVV7VmVpeT4egdJ2yAlqWm2u7ag4fXYzASRlVxZQi",
      "Lang": "hi",
      "CaptionKey": "translation",
      "CaptionName": "अनुवाद",
      "YoutubeSynced": true
    },
    {
      "ID": "O9GWwyKrkDfkIa-pJ9auHse6OKjWVXqP4g2stJ45B0NAzvdrnKjsQw==",
      "Lang": "hr",
      "CaptionKey": "translation",
      "CaptionName": "Prijevod",
      "YoutubeSynced": true
    },
    {
      "ID": "BbWqn8J-giSrHtOWSTBX2q1-lOLekarJg6UARIqtfUkUCNH-RlyYqg==",
      "Lang": "hu",
      "CaptionKey": "translation",
      "CaptionName": "Fordítás",
      "YoutubeSynced": true
    },
    {
      "ID": "_8qc8q74X-Gf5G6f51cEGR7yq11qe8KhejPGI5UftvtBF0QxIsfn8CwWCAuEbbUUcG_6bdVl1co=",
      "Lang": "hy",
      "CaptionKey": "translation",
      "CaptionName": "Թարգմանություն",
      "YoutubeSynced": true
    },
    {
      "ID": "BbWqn8J-giSHGN-yWomwz3Zynjn1dMYUHaCCQLzxrIwoaReRWjPqwA==",
      "Lang": "id",
      "CaptionKey": "translation",
      "CaptionName": "Terjemahan",
      "YoutubeSynced": true
    },
    {
      "ID": "O9GWwyKrkDerlp56GvhG89pYhq1hSIy6FkePuFcg37mC0FxOccFjQg==",
      "Lang": "ig",
      "CaptionKey": "translation",
      "CaptionName": "Ntughari",
      "YoutubeSynced": true
    },
    {
      "ID": "vGlLie6d1v7oLNnglEN-M9wjLFsABhuH6Lmkc8LVRT2lU4vMJwPmcA==",
      "Lang": "is",
      "CaptionKey": "translation",
      "CaptionName": "Þýðing",
      "YoutubeSynced": true
    },
    {
      "ID": "BbWqn8J-giTMOeYk85l2xG4Q0LfDEr-yGNBPacrtxXY21RkU5YXNfQ==",
      "Lang": "it",
      "CaptionKey": "translation",
      "CaptionName": "Traduzione",
      "YoutubeSynced": true
    },
    {
      "ID": "BbWqn8J-giRrM7WHxbJD6yStT54FhSGTjI0SoTNn4PhoyqRhkfKcjQ==",
      "Lang": "iw",
      "CaptionKey": "translation",
      "CaptionName": "תרגום",
      "YoutubeSynced": true
    },
    {
      "ID": "2phDL_KxgSLjHrG0Ngr--ZT6qwqnRSYfaJaKx5tAUPs=",
      "Lang": "ja",
      "CaptionKey": "translation",
      "CaptionName": "翻訳",
      "YoutubeSynced": true
    },
    {
      "ID": "vGlLie6d1v4oAl9FgABW_tZK1IN9kH-yuQRh16MXmVeHDBpcWtjnhQ==",
      "Lang": "jv",
      "CaptionKey": "translation",
      "CaptionName": "Ngartekne",
      "YoutubeSynced": true
    },
    {
      "ID": "EXzO-SyxFRrnOi5O5xUfIoQTa10oMZ0ZQzH9a6DOsmmw46tXN-DSnDza-CR5N2euIwiO_UbuXaI=",
      "Lang": "ka",
      "CaptionKey": "translation",
      "CaptionName": "თარგმანი",
      "YoutubeSynced": true
    },
    {
      "ID": "0L26gTRXS6RxQ161XFbatbf7hsfiFmUywTYfI636eUbKr3zwa43jIw==",
      "Lang": "kk",
      "CaptionKey": "translation",
      "CaptionName": "Аударма",
      "YoutubeSynced": true
    },
    {
      "ID": "eXfQtSLQi2o5mFlP49PveiKBEcPQzaAXzvhrW7eRIF6WJG-Gx1exatCVIIxrGoyLCGvSTzHK__A=",
      "Lang": "km",
      "CaptionKey": "translation",
      "CaptionName": "ការបកប្រែ",
      "YoutubeSynced": true
    },
    {
      "ID": "6tce28yW-zayS1xHrgcrm0WBsKY7br2y3k5_Marnz3JEb9uXK7qFUWqEYxGkukA0",
      "Lang": "kn",
      "CaptionKey": "translation",
      "CaptionName": "ಅನುವಾದ",
      "YoutubeSynced": true
    },
    {
      "ID": "2phDL_KxgSIciiQq4NCVyoJor_p_bxpF806MIGnSTJY=",
      "Lang": "ko",
      "CaptionKey": "translation",
      "CaptionName": "번역",
      "YoutubeSynced": true
    },
    {
      "ID": "2phDL_KxgSJ9_-45Gd_4x8KW080OTPoEB77tN1-1VWU=",
      "Lang": "ku",
      "CaptionKey": "translation",
      "CaptionName": "Werger",
      "YoutubeSynced": true
    },
    {
      "ID": "0L26gTRXS6TmBd27wm4I5jg4KSpMD7K5SOMd53ZTP50lvy2KT4QpDQ==",
      "Lang": "ky",
      "CaptionKey": "translation",
      "CaptionName": "котормо",
      "YoutubeSynced": true
    },
    {
      "ID": "5mcMFOU8jfUG_XVNaP4glnA0lDfEDXtFuBaDQkkUjnBbeIQtdmgpVA==",
      "Lang": "lb",
      "CaptionKey": "translation",
      "CaptionName": "Iwwersetzung",
      "YoutubeSynced": true
    },
    {
      "ID": "eXfQtSLQi2qnwuOMHKsh18bqlHEGwYwrAMFn556MsTkXa5PPSeq8gCWb_M1flezHLBuSpg1657g=",
      "Lang": "lo",
      "CaptionKey": "translation",
      "CaptionName": "ການແປພາສາ",
      "YoutubeSynced": true
    },
    {
      "ID": "O9GWwyKrkDfgjfqr_aRq0nkqdhCknR5vxY9NYekqMFibiXrZDYivew==",
      "Lang": "lt",
      "CaptionKey": "translation",
      "CaptionName": "Vertimas",
      "YoutubeSynced": true
    },
    {
      "ID": "BbWqn8J-giSylhV2nFK7v00mqZegINb7eEfh9TJ-C-WkStZ-B8VN1g==",
      "Lang": "lv",
      "CaptionKey": "translation",
      "CaptionName": "Tulkošana",
      "YoutubeSynced": true
    },
    {
      "ID": "w70y8FeupuF6YeiciMYIJza8tjtNbXTWs0tj2jSfHH2YwrR4ttV6Wg==",
      "Lang": "mg",
      "CaptionKey": "translation",
      "CaptionName": "Translation",
      "YoutubeSynced": true
    },
    {
      "ID": "jVI2Z2Eaa-git5JTGNktUTvSXbHOSdgdQvSlUBcvgkg_EOTNwN33po8kRAAy0xPQ",
      "Lang": "mi",
      "CaptionKey": "translation",
      "CaptionName": "Whakamaoritanga",
      "YoutubeSynced": true
    },
    {
      "ID": "5mcMFOU8jfVp_QJV-Ic6U7tPWIEQQVrBDwwFmtP3zeIhrKiR5zrIEg==",
      "Lang": "mk",
      "CaptionKey": "translation",
      "CaptionName": "Превод",
      "YoutubeSynced": true
    },
    {
      "ID": "eXfQtSLQi2orD7SH5s2fW-LL0RWHDz1cpgwVMWu1az0Wk8Db5q9x6kXX48y2-izPBzbMZZkwNds=",
      "Lang": "ml",
      "CaptionKey": "translation",
      "CaptionName": "വിവർത്തനം",
      "YoutubeSynced": true
    },
    {
      "ID": "APBy5BAtF0iLkaDPTzT_LlDES4vTT-9MvWPiTvTCq-DvTQ1SQ2OUp5RjZ-sjxe8R",
      "Lang": "mn",
      "CaptionKey": "translation",
      "CaptionName": "Орчуулга",
      "YoutubeSynced": true
    },
    {
      "ID": "yGp797lHXVfZAOeiT0b1imScqkOi41HABm88K2r7BKfY9ihNU13zQD4U0QJubNs8",
      "Lang": "mr",
      "CaptionKey": "translation",
      "CaptionName": "भाषांतर",
      "YoutubeSynced": true
    },
    {
      "ID": "BbWqn8J-giTDfEcfApgcY-DLZ8wdCR6223pjer_IyL9oE7c0fcqb4g==",
      "Lang": "ms",
      "CaptionKey": "translation",
      "CaptionName": "Terjemahan",
      "YoutubeSynced": true
    },
    {
      "ID": "w70y8FeupuGdohdtsaoAnTc-Ia2KML-GJysBfCM-43gKGKo1vZTSWA==",
      "Lang": "mt",
      "CaptionKey": "translation",
      "CaptionName": "Traduzzjoni",
      "YoutubeSynced": true
    },
    {
      "ID": "EXzO-SyxFRpHSYz7aKCV43FSZyFhXCDuzrVLHezTIS6zBez-V8jPlSaZ6EkOdtgFd7MSWuIpCVs=",
      "Lang": "my",
      "CaptionKey": "translation",
      "CaptionName": "ဘာသာပြန်",
      "YoutubeSynced": true
    },
    {
      "ID": "6tce28yW-zYltCbuY204w-tSknltJNdZzqqRHscgSdx1WWlw7wfmfHafIkHkGLuL",
      "Lang": "ne",
      "CaptionKey": "translation",
      "CaptionName": "अनुवाद",
      "YoutubeSynced": true
    },
    {
      "ID": "vGlLie6d1v4Jf7lV85IpmpRzsXv9MjrPaRJCqy5vsLliRtH-rHtd8g==",
      "Lang": "nl",
      "CaptionKey": "translation",
      "CaptionName": "Vertaling",
      "YoutubeSynced": true
    },
    {
      "ID": "5mcMFOU8jfVB4EjYxvph0oAfkEEkujh5G9cGOgdbioatxieukZYIKw==",
      "Lang": "no",
      "CaptionKey": "translation",
      "CaptionName": "Oversettelse",
      "YoutubeSynced": true
    },
    {
      "ID": "6tce28yW-zaWCRTUPsbiexzjKnhciFeeHUtgGbkylWrjLzeWqPwrUri0rWnNoGrJ",
      "Lang": "pa",
      "CaptionKey": "translation",
      "CaptionName": "ਅਨੁਵਾਦ",
      "YoutubeSynced": true
    },
    {
      "ID": "5mcMFOU8jfW4pCimm7JrlCseXZVXmLkpHtd2DqPvZ2agXOZz886DHg==",
      "Lang": "pl",
      "CaptionKey": "translation",
      "CaptionName": "Tłumaczenie",
      "YoutubeSynced": true
    },
    {
      "ID": "BbWqn8J-giQPvvWmRHYowLQTGo0hh_Y7L5KzsPX8VObNkr4x6RnfoQ==",
      "Lang": "ps",
      "CaptionKey": "translation",
      "CaptionName": "ژباړه",
      "YoutubeSynced": true
    },
    {
      "ID": "BbWqn8J-giS2f74kBvjyf1xGfi0KyTbr2eSffMfZOAb_EISEYNDFww==",
      "Lang": "pt",
      "CaptionKey": "translation",
      "CaptionName": "Tradução",
      "YoutubeSynced": true
    },
    {
      "ID": "vGlLie6d1v7ie9LD742K3PS5EmsMXpejlnELwMWtwxJ1XH_KaIQlLQ==",
      "Lang": "ro",
      "CaptionKey": "translation",
      "CaptionName": "Traducere",
      "YoutubeSynced": true
    },
    {
      "ID": "0L26gTRXS6RHsOK7lk8u_ehvynEB1U6LxB7a_cEFLm1VqOgFeM9Y2w==",
      "Lang": "ru",
      "CaptionKey": "translation",
      "CaptionName": "Перевод",
      "YoutubeSynced": true
    },
    {
      "ID": "BbWqn8J-giTG8E-TWMwShaQDOxpm9od4aCq1dbmtvJFgf9ZQPfkg-g==",
      "Lang": "sd",
      "CaptionKey": "translation",
      "CaptionName": "ترجمو",
      "YoutubeSynced": true
    },
    {
      "ID": "eXfQtSLQi2r5r8L0sNzBihXlDD85Jta9JfV7qox6S4bgx29WVeFDCd9vNjfUBsLgGbhPjPEkZuI=",
      "Lang": "si",
      "CaptionKey": "translation",
      "CaptionName": "පරිවර්තනය",
      "YoutubeSynced": true
    },
    {
      "ID": "lJF8vkXucFIrH8jYhi1ClIjKqDqNs4kCvoQ8BHactSPbeq0NBvh_dw==",
      "Lang": "sk",
      "CaptionKey": "translation",
      "CaptionName": "preklad",
      "YoutubeSynced": true
    },
    {
      "ID": "2phDL_KxgSJXONwn4RAbt_T2ddMq-mIKBWRVsFa2YrQ=",
      "Lang": "sl",
      "CaptionKey": "translation",
      "CaptionName": "Prevod",
      "YoutubeSynced": true
    },
    {
      "ID": "5mcMFOU8jfWP7-ZeRLFBf-OYEyKmQ3Hp12kHkMVq3sMyQTaPLHkz1A==",
      "Lang": "sm",
      "CaptionKey": "translation",
      "CaptionName": "Faʻaliliuga",
      "YoutubeSynced": true
    },
    {
      "ID": "lJF8vkXucFKJtfe2Bkx6dspuRNuOEReDxHP5vuIt74cMHmFTbWiC9A==",
      "Lang": "sn",
      "CaptionKey": "translation",
      "CaptionName": "Dudziro",
      "YoutubeSynced": true
    },
    {
      "ID": "vGlLie6d1v7PFWKjDFYoyNqTPHOgSCqWtsjcovmViVoyuSlQfwu2Gg==",
      "Lang": "so",
      "CaptionKey": "translation",
      "CaptionName": "Tarjumida",
      "YoutubeSynced": true
    },
    {
      "ID": "vGlLie6d1v7DX7zdxF-txxTSi40sUSet1c48VWwwzJADSucCIXVlAQ==",
      "Lang": "sq",
      "CaptionKey": "translation",
      "CaptionName": "përkthim",
      "YoutubeSynced": true
    },
    {
      "ID": "5mcMFOU8jfXMxnKLIkE7eCFIC-BwepbeubbwhFniGM5GJLD_nH866g==",
      "Lang": "sr",
      "CaptionKey": "translation",
      "CaptionName": "Превод",
      "YoutubeSynced": true
    },
    {
      "ID": "vGlLie6d1v538iakKAI-r4YJYGML72kiwWYMLMxYJuTTFEBZV9tS_Q==",
      "Lang": "st",
      "CaptionKey": "translation",
      "CaptionName": "Phetolelo",
      "YoutubeSynced": true
    },
    {
      "ID": "BbWqn8J-giRgft6HpfwjIxgTlrbPJtt9pYraMAV2ugWeckcb2Wf5cQ==",
      "Lang": "su",
      "CaptionKey": "translation",
      "CaptionName": "Tarjamahan",
      "YoutubeSynced": true
    },
    {
      "ID": "0L26gTRXS6Qf19yW9sWtCVyGghf4uE7YfRMzXWuFtPkq8W3zjk74Iw==",
      "Lang": "sv",
      "CaptionKey": "translation",
      "CaptionName": "Översättning",
      "YoutubeSynced": true
    },
    {
      "ID": "lJF8vkXucFJzQStUuN-uiK9B_gUUoLkA1wDHeUzcQoD04HQKxCu26w==",
      "Lang": "sw",
      "CaptionKey": "translation",
      "CaptionName": "Tafsiri",
      "YoutubeSynced": true
    },
    {
      "ID": "L4BfYb_D9Yjix7KbRAN1m9LydUfMVbavyGX0CMCxWpUPotnLnrye3godUfTrpnGMk3nO2zefyf1YYYPQR7fFty1sjOdnHPcm",
      "Lang": "ta",
      "CaptionKey": "translation",
      "CaptionName": "மொழிபெயர்ப்பு",
      "YoutubeSynced": true
    },
    {
      "ID": "yGp797lHXVcAGOZNUJsKa-lA_JuPM5abjjn8iX5LnnK73M19b3S_RrHw3YIdiptC",
      "Lang": "te",
      "CaptionKey": "translation",
      "CaptionName": "అనువాదం",
      "YoutubeSynced": true
    },
    {
      "ID": "0L26gTRXS6Q0tHregOqIk5zKasJcY7hut_L58a2rh6dtCNNXAmvw7w==",
      "Lang": "tg",
      "CaptionKey": "translation",
      "CaptionName": "Тарҷума",
      "YoutubeSynced": true
    },
    {
      "ID": "6tce28yW-zbsvQBfmxg8vcHa4GUr3uV6ACFHuISdAwJZJ1O2ra-lsO4yZd2FnZdC",
      "Lang": "th",
      "CaptionKey": "translation",
      "CaptionName": "การแปล",
      "YoutubeSynced": true
    },
    {
      "ID": "O9GWwyKrkDdlaSK0aHBFbuD_xJltg-IDSountbWV8ZJKcokJnNXBbA==",
      "Lang": "tr",
      "CaptionKey": "translation",
      "CaptionName": "Tercüme",
      "YoutubeSynced": true
    },
    {
      "ID": "APBy5BAtF0icupvNpJLGqZn6QaFBdLFWEuRGnE87MPZk_xMpQLCwbxzESXEugKfs",
      "Lang": "uk",
      "CaptionKey": "translation",
      "CaptionName": "Переклад",
      "YoutubeSynced": true
    },
    {
      "ID": "BbWqn8J-giTjyVz5j2TLnnRBUToGR3SYpQppQTIO16blXibeINRjpg==",
      "Lang": "ur",
      "CaptionKey": "translation",
      "CaptionName": "ترجمہ",
      "YoutubeSynced": true
    },
    {
      "ID": "lJF8vkXucFKioCoNWBGkbubJploAtbHd3QEk-nf8B922Jxj-U3F72Q==",
      "Lang": "uz",
      "CaptionKey": "translation",
      "CaptionName": "Tarjima",
      "YoutubeSynced": true
    },
    {
      "ID": "2phDL_KxgSK5e8g88QcjnxhpPV79gN_OuzyHSU-89ZU=",
      "Lang": "vi",
      "CaptionKey": "translation",
      "CaptionName": "Dịch",
      "YoutubeSynced": true
    },
    {
      "ID": "BbWqn8J-giQU9US6KrDJk1JwaQkx6RjJPujKUyyWF6KxCKm7ntQs9Q==",
      "Lang": "xh",
      "CaptionKey": "translation",
      "CaptionName": "Inguqulelo",
      "YoutubeSynced": true
    },
    {
      "ID": "erX-umyM7-_1hOT_68RakQoBQgPM-5_5pkwlQ9ceAk7aDmEWsnORBuCw6ZHo71iz",
      "Lang": "yi",
      "CaptionKey": "translation",
      "CaptionName": "איבערזעצונג",
      "YoutubeSynced": true
    },
    {
      "ID": "lJF8vkXucFJ-tB1ZrGxJm9XaifSeVgc85sNH0zD1AKUnz0BnOhfbRw==",
      "Lang": "yo",
      "CaptionKey": "translation",
      "CaptionName": "Itumọ",
      "YoutubeSynced": true
    },
    {
      "ID": "w70y8FeupuEnPXxdWM_DU25_aW9rCa5_tUT73FVsDlKBKDxIDIBmbw==",
      "Lang": "zh-Hans",
      "CaptionKey": "translation",
      "CaptionName": "翻译",
      "YoutubeSynced": true
    },
    {
      "ID": "w70y8FeupuEnPXxdWM_DU5bFOuZLgH3GzmfZn4tefE-WVEJ6b59DCA==",
      "Lang": "zh-Hant",
      "CaptionKey": "translation",
      "CaptionName": "翻譯",
      "YoutubeSynced": true
    },
    {
      "ID": "BbWqn8J-giT3XfiDuX4jzHG-Fp-24efk_ZlZkmQUOeHqudcl2KRicw==",
      "Lang": "zu",
      "CaptionKey": "translation",
      "CaptionName": "Ukuhumusha",
      "YoutubeSynced": true
    }
  ]
}