{
  "VideoFile": "grammar-en-beginner-simple_59_IN.mp4",
  "Captions": [
    {
      "ID": "A3pqIeh0cHY0ONIHnid1nC2On8PJDCGG84HqUm3-psKc0WotX5wmBQ==",
      "Lang": "af",
      "CaptionKey": "translation",
      "CaptionName": "vertaling",
      "YoutubeSynced": true
    },
    {
      "ID": "mCx5uIRcGs3odpFKqz4cWmLJKIisC-DqOlKjO3d9RvV6RtSDKl3W2w==",
      "Lang": "am",
      "CaptionKey": "translation",
      "CaptionName": "ትርጉም",
      "YoutubeSynced": true
    },
    {
      "ID": "rAoDslHLCxKs2pICwRWubqJiLkUTtfK0tvzSE0Q0lg9sBzds0HYYZw==",
      "Lang": "ar",
      "CaptionKey": "translation",
      "CaptionName": "ترجمة",
      "YoutubeSynced": true
    },
    {
      "ID": "rAoDslHLCxI7hOraSK5-BPGqdi39VPlvbMEpfoYK7rxzkCbtln07mQ==",
      "Lang": "az",
      "CaptionKey": "translation",
      "CaptionName": "Tərcümə",
      "YoutubeSynced": true
    },
    {
      "ID": "oj2anlHfiCrTavaswZ5z8eD7TNdVZAMGnmQ61YaNrKVeqniwxeqfwsLorv_C4SJi",
      "Lang": "be",
      "CaptionKey": "translation",
      "CaptionName": "Пераклад",
      "YoutubeSynced": true
    },
    {
      "ID": "mCx5uIRcGs39vUIrZB55vXGBnnd-_wtMJPgGj-npZUpzzxUAdioNdg==",
      "Lang": "bg",
      "CaptionKey": "translation",
      "CaptionName": "превод",
      "YoutubeSynced": true
    },
    {
      "ID": "m6gqcpczAi2Mn4ulGTD_OUpgb9DXbE3qmnW5y99bk4deAI3AiUFHrdANk5fkXDy0",
      "Lang": "bn",
      "CaptionKey": "translation",
      "CaptionName": "অনুবাদ",
      "YoutubeSynced": true
    },
    {
      "ID": "0dHKhy3DV-m3xEXd_O1Be1xo-NrWCkCY5_ackbU2PaI=",
      "Lang": "bs",
      "CaptionKey": "translation",
      "CaptionName": "Prevod",
      "YoutubeSynced": true
    },
    {
      "ID": "rAoDslHLCxLENRecHs-Znj5i-pbU0BaYqKy5OC7MEFlGva7paws4rg==",
      "Lang": "ca",
      "CaptionKey": "translation",
      "CaptionName": "Traducció",
      "YoutubeSynced": true
    },
    {
      "ID": "rAoDslHLCxJfvGg7CckPNdp4QrM8dNFDN_QOZAXEbUwxVuoCtAFECw==",
      "Lang": "co",
      "CaptionKey": "translation",
      "CaptionName": "Traduzione",
      "YoutubeSynced": true
    },
    {
      "ID": "Yjze2Wz3aXCKdx9HtzOkeKCw_8yxaoMuonhVuH88Kr0xHOhPQip53Q==",
      "Lang": "cs",
      "CaptionKey": "translation",
      "CaptionName": "Překlad",
      "YoutubeSynced": true
    },
    {
      "ID": "g_AywVULbVsiwcnsq_bbXxCS5X8cEI-IOFkEkBWSak1clkOaJ04IbA==",
      "Lang": "cy",
      "CaptionKey": "translation",
      "CaptionName": "Cyfieithiad",
      "YoutubeSynced": true
    },
    {
      "ID": "FwHoTW6R_QTrMXpCh7ooTC6tsLyKzwgZZOhVGBrbzN1lwSR7OzLMmA==",
      "Lang": "da",
      "CaptionKey": "translation",
      "CaptionName": "Oversættelse",
      "YoutubeSynced": true
    },
    {
      "ID": "mCx5uIRcGs0HoiOWRgy73uyf_dN0QBpABI_K6skVUCuYeYOB_eV0mw==",
      "Lang": "de",
      "CaptionKey": "translation",
      "CaptionName": "Übersetzung",
      "YoutubeSynced": true
    },
    {
      "ID": "m6gqcpczAi2X84z0oE3WsgU2Sp-4eFnXglA2x_NWav-ic6NPpvXBfYF_W-hAaOY8",
      "Lang": "el",
      "CaptionKey": "translation",
      "CaptionName": "Μετάφραση",
      "YoutubeSynced": true
    },
    {
      "ID": "g_AywVULbVs4KTHVPepzm6l7Ay6rPOJf184BBV7Kdz6kswOHkYhZSg==",
      "Lang": "en",
      "CaptionKey": "translation",
      "CaptionName": "Translation",
      "YoutubeSynced": true
    },
    {
      "ID": "fngagB8di5CVHA0vLoTyDZkFO6BcU4kd1rVZGQD5mymA-yIoY6QQZZD8JijrfKp-",
      "Lang": "en",
      "CaptionKey": "ruby",
      "CaptionName": "Pronunciation - IPA",
      "YoutubeSynced": true
    },
    {
      "ID": "g_AywVULbVt9w14pA5IStykpCP8JQ5ccVgflTTxcBIbhn4RBBhZhfw==",
      "Lang": "es",
      "CaptionKey": "translation",
      "CaptionName": "Traducción",
      "YoutubeSynced": true
    },
    {
      "ID": "0dHKhy3DV-lZpq9p3Slm7YWKLTv_UayFwJHOYRPm7Qg=",
      "Lang": "et",
      "CaptionKey": "translation",
      "CaptionName": "Tõlge",
      "YoutubeSynced": true
    },
    {
      "ID": "A3pqIeh0cHaNcByfaoUlFnjOFUd6Q5BbA01ya_UC1oE2tbuVuLn0OA==",
      "Lang": "eu",
      "CaptionKey": "translation",
      "CaptionName": "Itzulpena",
      "YoutubeSynced": true
    },
    {
      "ID": "rAoDslHLCxL1wAmDgz13DfBqxVyiukP8nc6K39wYW2Q5Nvpd0rPm9A==",
      "Lang": "fa",
      "CaptionKey": "translation",
      "CaptionName": "ترجمه",
      "YoutubeSynced": true
    },
    {
      "ID": "rAoDslHLCxKwwnG5N8wCrkaph0lqrrpYkoTWzvDL59b3RJsQqIFCng==",
      "Lang": "fi",
      "CaptionKey": "translation",
      "CaptionName": "Käännös",
      "YoutubeSynced": true
    },
    {
      "ID": "g_AywVULbVslezFB9vHDQrWGP0I50Tub41ydo8AzCaql-uV90Q7Vag==",
      "Lang": "fil",
      "CaptionKey": "translation",
      "CaptionName": "Pagsasalin",
      "YoutubeSynced": true
    },
    {
      "ID": "rAoDslHLCxKN453ruoMgX4YVnhGCrqXpvwYKArJe3dPsWAInNNg-9A==",
      "Lang": "fr",
      "CaptionKey": "translation",
      "CaptionName": "Traduction",
      "YoutubeSynced": true
    },
    {
      "ID": "rAoDslHLCxI7NR2za7TsAnEeYQL4xkXcon_5Z1ixriM90eiDraUiKQ==",
      "Lang": "fy",
      "CaptionKey": "translation",
      "CaptionName": "Oersetting",
      "YoutubeSynced": true
    },
    {
      "ID": "m6gqcpczAi0eNuqIXYCH9xO4jMJJEMT41enxxPe9DGVRaP2B7UGKUyPApGEHDbQc",
      "Lang": "gd",
      "CaptionKey": "translation",
      "CaptionName": "Eadar-theangachadh",
      "YoutubeSynced": true
    },
    {
      "ID": "rAoDslHLCxIpdowrIq_2DNhAgGEXjH5b11mOUMGu3y9vh40oEmvw_A==",
      "Lang": "gl",
      "CaptionKey": "translation",
      "CaptionName": "Tradución",
      "YoutubeSynced": true
    },
    {
      "ID": "m6gqcpczAi1_7IEBWpjOB-BaJYO2tGHAeZkNDpnhxKQkrV1alpPn7kpVkHiApPqf",
      "Lang": "gu",
      "CaptionKey": "translation",
      "CaptionName": "અનુવાદ",
      "YoutubeSynced": true
    },
    {
      "ID": "oaQPnfDwUXmOY0epW1waEFX-j25jE7VD5ieGE21O0cluS0pPH6kBfw==",
      "Lang": "ha",
      "CaptionKey": "translation",
      "CaptionName": "Fassara",
      "YoutubeSynced": true
    },
    {
      "ID": "m6gqcpczAi1nYxn0v8byLrhoro1oicDnBvWXtgHbWYZIMGOTfM80iicrYn4wsjcx",
      "Lang": "hi",
      "CaptionKey": "translation",
      "CaptionName": "अनुवाद",
      "YoutubeSynced": true
    },
    {
      "ID": "Yjze2Wz3aXCgFjNuygOAXjclmlQ1st9igxuW4Y6-LTUZ4pGvASVTQA==",
      "Lang": "hr",
      "CaptionKey": "translation",
      "CaptionName": "Prijevod",
      "YoutubeSynced": true
    },
    {
      "ID": "rAoDslHLCxIc7r-WCPVuM2sUZws1QYDhMjnUHa-WBPIlYExKpE0bBA==",
      "Lang": "hu",
      "CaptionKey": "translation",
      "CaptionName": "Fordítás",
      "YoutubeSynced": true
    },
    {
      "ID": "TmOOKNHZv9WOgkNoibxoEnIA59pfMALsc3CRnjE2Vn-Bg_dx0BMEa7mgaIdADbTAz-D33jqNGdU=",
      "Lang": "hy",
      "CaptionKey": "translation",
      "CaptionName": "Թարգմանություն",
      "YoutubeSynced": true
    },
    {
      "ID": "rAoDslHLCxKowiUDyxZ222SNn9SpXVctODHwPlAhyNdjl7v7-a8scA==",
      "Lang": "id",
      "CaptionKey": "translation",
      "CaptionName": "Terjemahan",
      "YoutubeSynced": true
    },
    {
      "ID": "Yjze2Wz3aXDU2n4UXRSzgYlCfjBYgYCgxoQQC9T1LvZ1ixVankdtRw==",
      "Lang": "ig",
      "CaptionKey": "translation",
      "CaptionName": "Ntughari",
      "YoutubeSynced": true
    },
    {
      "ID": "A3pqIeh0cHaif6m6EnT9rFBZdwgVgsBlFJG9w_f4u8uMcX8H1TMagw==",
      "Lang": "is",
      "CaptionKey": "translation",
      "CaptionName": "Þýðing",
      "YoutubeSynced": true
    },
    {
      "ID": "rAoDslHLCxIfDx7z1Ca88P4FI1o9Aa9PvdwAs4Qx9sq-s5N3SzJg-A==",
      "Lang": "it",
      "CaptionKey": "translation",
      "CaptionName": "Traduzione",
      "YoutubeSynced": true
    },
    {
      "ID": "rAoDslHLCxJus5lb4GX6hbazjbq4aunRdv1OhOy61HrPXP22DSLYYg==",
      "Lang": "iw",
      "CaptionKey": "translation",
      "CaptionName": "תרגום",
      "YoutubeSynced": true
    },
    {
      "ID": "0dHKhy3DV-lmRFWpAxDgybXxKbQ0h_NuJ-2DGdZSCMc=",
      "Lang": "ja",
      "CaptionKey": "translation",
      "CaptionName": "翻訳",
      "YoutubeSynced": true
    },
    {
      "ID": "A3pqIeh0cHb8lhTwGkJ47snD9QkEl2CVi_goFDKI0UNvEZ9mnjeCtQ==",
      "Lang": "jv",
      "CaptionKey": "translation",
      "CaptionName": "Ngartekne",
      "YoutubeSynced": true
    },
    {
      "ID": "50WtOnQbS1mLtn5B3obtJwRINydKGwdhiTtZdprIL6g5DOjEv_P7ei0h2I8SZlTGdGkRTne68_8=",
      "Lang": "ka",
      "CaptionKey": "translation",
      "CaptionName": "თარგმანი",
      "YoutubeSynced": true
    },
    {
      "ID": "r4yo-kh4XBraUNIeULpc7y-cdxbnpWISCF8ZfQQMFDMhNamG3_fV5w==",
      "Lang": "kk",
      "CaptionKey": "translation",
      "CaptionName": "Аударма",
      "YoutubeSynced": true
    },
    {
      "ID": "R58m9ejvZLsywi6Ezw8RAbcB5xpIb0widUAPf-kNKsJ8Lp-OFuGkGIstqtOva0VUz5ieTSVQMrM=",
      "Lang": "km",
      "CaptionKey": "translation",
      "CaptionName": "ការបកប្រែ",
      "YoutubeSynced": true
    },
    {
      "ID": "m6gqcpczAi3tPEEoWdNY5ueHSp7-AsONJMTl48OPYMhdYTKngkciNpm3FR4wTjaO",
      "Lang": "kn",
      "CaptionKey": "translation",
      "CaptionName": "ಅನುವಾದ",
      "YoutubeSynced": true
    },
    {
      "ID": "0dHKhy3DV-l-TDuvAWVSFVj2QqhFFu-9DJCMvjERG9Q=",
      "Lang": "ko",
      "CaptionKey": "translation",
      "CaptionName": "번역",
      "YoutubeSynced": true
    },
    {
      "ID": "0dHKhy3DV-nOTITP-uyrCWsdBxP_Bkh-chpXWckWqVo=",
      "Lang": "ku",
      "CaptionKey": "translation",
      "CaptionName": "Werger",
      "YoutubeSynced": true
    },
    {
      "ID": "r4yo-kh4XBo0EMygooOMWglqzXSYrQZ34bN3tokDM5pHIVZPLbi4xQ==",
      "Lang": "ky",
      "CaptionKey": "translation",
      "CaptionName": "котормо",
      "YoutubeSynced": true
    },
    {
      "ID": "mCx5uIRcGs24rzKQ9SpHHj5XDEC4ZlSH6knvCdqwQVjaMq0Ej4Sa-A==",
      "Lang": "lb",
      "CaptionKey": "translation",
      "CaptionName": "Iwwersetzung",
      "YoutubeSynced": true
    },
    {
      "ID": "R58m9ejvZLsLQDip3MlPu6iMFlKzyRhddOXkKLRhfKnHh6Eyg5i-c5lIIMhb4hTcTmEefaIchK0=",
      "Lang": "lo",
      "CaptionKey": "translation",
      "CaptionName": "ການແປພາສາ",
      "YoutubeSynced": true
    },
    {
      "ID": "Yjze2Wz3aXDKtKNFibgRitcCk-5N6EQa4UpkSHTGkVrOGLFZ7MLbxg==",
      "Lang": "lt",
      "CaptionKey": "translation",
      "CaptionName": "Vertimas",
      "YoutubeSynced": true
    },
    {
      "ID": "rAoDslHLCxLuzOqFTV3Ux4YPK8OX-Gwl8maYv2bfwWL6RPyPry3Akw==",
      "Lang": "lv",
      "CaptionKey": "translation",
      "CaptionName": "Tulkošana",
      "YoutubeSynced": true
    },
    {
      "ID": "g_AywVULbVtieIxy2uiihk2_P9VRD-1oZCOBZMP7uASB3a9Myh-XBA==",
      "Lang": "mg",
      "CaptionKey": "translation",
      "CaptionName": "Translation",
      "YoutubeSynced": true
    },
    {
      "ID": "s-ESTxTNsMdDxWgtrQHltHbHQnh4mM2h8XkgVkpgC2Fhgq822jCrRZycxT9QbMW6",
      "Lang": "mi",
      "CaptionKey": "translation",
      "CaptionName": "Whakamaoritanga",
      "YoutubeSynced": true
    },
    {
      "ID": "mCx5uIRcGs2jRqasCYkAvgNDWOiPx4hGZGTNbha29dDqk6psr-iQiw==",
      "Lang": "mk",
      "CaptionKey": "translation",
      "CaptionName": "Превод",
      "YoutubeSynced": true
    },
    {
      "ID": "R58m9ejvZLvnqpfXttn9NE6ZjdgYXuhPXUasSo8pS4aYJtgiQB-grd8ssT4UMfyRuCRZVfrctQg=",
      "Lang": "ml",
      "CaptionKey": "translation",
      "CaptionName": "വിവർത്തനം",
      "YoutubeSynced": true
    },
    {
      "ID": "oj2anlHfiCqWz5dCUBZbgyBu1jGl9OrdmF--thAB57-_1R4X78qphhiKakSikq7k",
      "Lang": "mn",
      "CaptionKey": "translation",
      "CaptionName": "Орчуулга",
      "YoutubeSynced": true
    },
    {
      "ID": "N6Nj_QTCcIKcm1OtXjmhm6eW9it1a93GZf0UrBFCBCUBB1BYnywd6G_yf9ffcDQU",
      "Lang": "mr",
      "CaptionKey": "translation",
      "CaptionName": "भाषांतर",
      "YoutubeSynced": true
    },
    {
      "ID": "rAoDslHLCxKk7vE9phP7umYuSBziNgLRzoMEzWjYTuKqUSAAUdyFXg==",
      "Lang": "ms",
      "CaptionKey": "translation",
      "CaptionName": "Terjemahan",
      "YoutubeSynced": true
    },
    {
      "ID": "g_AywVULbVtArnUGAPwlgGL9BVNpwYHvKiKc6GWT6ylRB0R0vseLfA==",
      "Lang": "mt",
      "CaptionKey": "translation",
      "CaptionName": "Traduzzjoni",
      "YoutubeSynced": true
    },
    {
      "ID": "50WtOnQbS1lJbUAXPTb4n8dYek1y12nGf5ZNFWWry6KMrRFIDNm_sG-HBb1xr1z-Qa09s_XZCMY=",
      "Lang": "my",
      "CaptionKey": "translation",
      "CaptionName": "ဘာသာပြန်",
      "YoutubeSynced": true
    },
    {
      "ID": "m6gqcpczAi0lxqZR2t8SALWkTvdZboGT3BYb44r3Y6I4wn60DT5XZzvOVIVyKTwr",
      "Lang": "ne",
      "CaptionKey": "translation",
      "CaptionName": "अनुवाद",
      "YoutubeSynced": true
    },
    {
      "ID": "A3pqIeh0cHbRMwBZE5GSsp0sEOvZY__YJnCGh844aXruIDDYwFborQ==",
      "Lang": "nl",
      "CaptionKey": "translation",
      "CaptionName": "Vertaling",
      "YoutubeSynced": true
    },
    {
      "ID": "mCx5uIRcGs1CM48uHZ-e2Ap3htdjMfgBR3EJ_Uc1caFF1rtzkYymgA==",
      "Lang": "no",
      "CaptionKey": "translation",
      "CaptionName": "Oversettelse",
      "YoutubeSynced": true
    },
    {
      "ID": "m6gqcpczAi2HvEMIwIrR842h8x3wYZQirhf83SA77ZwDOmD5FbmAjiquDNHobIu5",
      "Lang": "pa",
      "CaptionKey": "translation",
      "CaptionName": "ਅਨੁਵਾਦ",
      "YoutubeSynced": true
    },
    {
      "ID": "mCx5uIRcGs3C2UJE58Yrt6FO7XMi-8QzvsUxn-UsOoJxm9q0ecG7vg==",
      "Lang": "pl",
      "CaptionKey": "translation",
      "CaptionName": "Tłumaczenie",
      "YoutubeSynced": true
    },
    {
      "ID": "rAoDslHLCxKk9DrkyTWEiPHvt9uoAWGXiAxfrSkuAj2OnjYd1dL9SA==",
      "Lang": "ps",
      "CaptionKey": "translation",
      "CaptionName": "ژباړه",
      "YoutubeSynced": true
    },
    {
      "ID": "rAoDslHLCxJeL5EedrbNAT4Tn7QMLPA9Ta1TC1iOiqqVaGtdThmLzg==",
      "Lang": "pt",
      "CaptionKey": "translation",
      "CaptionName": "Tradução",
      "YoutubeSynced": true
    },
    {
      "ID": "A3pqIeh0cHb2MtjDI927EX8zszArrqbuTi8Ggsn8TGEWFL-MPXIg-A==",
      "Lang": "ro",
      "CaptionKey": "translation",
      "CaptionName": "Traducere",
      "YoutubeSynced": true
    },
    {
      "ID": "r4yo-kh4XBrtDCyWZKRKkANRr-aY7HD8e_ObKE80-5pAw0XwX8q_dg==",
      "Lang": "ru",
      "CaptionKey": "translation",
      "CaptionName": "Перевод",
      "YoutubeSynced": true
    },
    {
      "ID": "rAoDslHLCxIDk3nXkWNVYPCy5F41Tp6CCENYF_FEDwQx7pyhfP50jg==",
      "Lang": "sd",
      "CaptionKey": "translation",
      "CaptionName": "ترجمو",
      "YoutubeSynced": true
    },
    {
      "ID": "R58m9ejvZLvphsWoy7e7D5fS1A60CzgO8JWph-XYaoiA3yaakrlW6xHw7uScJGmY45eq_-CNGFg=",
      "Lang": "si",
      "CaptionKey": "translation",
      "CaptionName": "පරිවර්තනය",
      "YoutubeSynced": true
    },
    {
      "ID": "oaQPnfDwUXmSjDcuXLrUZZpz_5swbKMV-dcU7sbMUisOB0iOtGv6SQ==",
      "Lang": "sk",
      "CaptionKey": "translation",
      "CaptionName": "preklad",
      "YoutubeSynced": true
    },
    {
      "ID": "0dHKhy3DV-mTbVLNaZDZHURc2QxsRG0GX6mBP72Q_6w=",
      "Lang": "sl",
      "CaptionKey": "translation",
      "CaptionName": "Prevod",
      "YoutubeSynced": true
    },
    {
      "ID": "mCx5uIRcGs2TbG6Tnexf1h_OfVOfFhksiihO6pMe8YBQmHur0l1XkQ==",
      "Lang": "sm",
      "CaptionKey": "translation",
      "CaptionName": "Faʻaliliuga",
      "YoutubeSynced": true
    },
    {
      "ID": "oaQPnfDwUXkj19AT0eaHHAaulwziKzm_2GCApoBOabbaxXqqkhMFWw==",
      "Lang": "sn",
      "CaptionKey": "translation",
      "CaptionName": "Dudziro",
      "YoutubeSynced": true
    },
    {
      "ID": "A3pqIeh0cHbNuYFi1u9HJJ-Hq3Pl8IvqOVLiRP9TTK3sJBMnfWhygQ==",
      "Lang": "so",
      "CaptionKey": "translation",
      "CaptionName": "Tarjumida",
      "YoutubeSynced": true
    },
    {
      "ID": "A3pqIeh0cHZRHoqYRE86b-N8BCD4OVzWjqgibAo5bKFSy0Ymb38pRg==",
      "Lang": "sq",
      "CaptionKey": "translation",
      "CaptionName": "përkthim",
      "YoutubeSynced": true
    },
    {
      "ID": "mCx5uIRcGs321qPJ4tTcavSdooR4Nq79btRP9IB3ufIkOyvf4L_5kQ==",
      "Lang": "sr",
      "CaptionKey": "translation",
      "CaptionName": "Превод",
      "YoutubeSynced": true
    },
    {
      "ID": "A3pqIeh0cHaVXTofZKnAcc_nN8Q2rZfFfifxSk3oaozs-9FzCjBs4g==",
      "Lang": "st",
      "CaptionKey": "translation",
      "CaptionName": "Phetolelo",
      "YoutubeSynced": true
    },
    {
      "ID": "rAoDslHLCxIqAOGDzlclaG7bX9WVwsxAAOkZv56Mxx9iFTJ8ARKFHA==",
      "Lang": "su",
      "CaptionKey": "translation",
      "CaptionName": "Tarjamahan",
      "YoutubeSynced": true
    },
    {
      "ID": "r4yo-kh4XBr9cOJyKqlz_3MzIuc-WUpiXGWyQNYnqVNvHJEYDAORSg==",
      "Lang": "sv",
      "CaptionKey": "translation",
      "CaptionName": "Översättning",
      "YoutubeSynced": true
    },
    {
      "ID": "oaQPnfDwUXlLedzIuNDaGmSMnOJl0Q06nIM-fa_1s-UNeo8OWiWvBw==",
      "Lang": "sw",
      "CaptionKey": "translation",
      "CaptionName": "Tafsiri",
      "YoutubeSynced": true
    },
    {
      "ID": "F0Lmz3EMBmdEagpdl3uxCYQfh4CaIT6tEaLhlwIV-d62YHcuF4H5biRFLCwwIGO88tSBQH3QAKAeXqVbeYWbww3BAziBXpio",
      "Lang": "ta",
      "CaptionKey": "translation",
      "CaptionName": "மொழிபெயர்ப்பு",
      "YoutubeSynced": true
    },
    {
      "ID": "N6Nj_QTCcIK7a2vqfkmetEVlbxj2IAWKEeBLcRsEf4W4lEqjWk1i2kmOaYEawhwK",
      "Lang": "te",
      "CaptionKey": "translation",
      "CaptionName": "అనువాదం",
      "YoutubeSynced": true
    },
    {
      "ID": "r4yo-kh4XBqCimCk2MPc63O_KyLGI5AUQvdOKJZ71yLMzwsappafsg==",
      "Lang": "tg",
      "CaptionKey": "translation",
      "CaptionName": "Тарҷума",
      "YoutubeSynced": true
    },
    {
      "ID": "m6gqcpczAi3O8CYCKrISuPIXFABue3KwPiaDPu87wMC2BgX9ay_qqR3W9LSa5uaU",
      "Lang": "th",
      "CaptionKey": "translation",
      "CaptionName": "การแปล",
      "YoutubeSynced": true
    },
    {
      "ID": "Yjze2Wz3aXDhBL7_xvpke0pdjCQc0sRxjJakR4WLTkaSj1T_uRtOKw==",
      "Lang": "tr",
      "CaptionKey": "translation",
      "CaptionName": "Tercüme",
      "YoutubeSynced": true
    },
    {
      "ID": "oj2anlHfiCp5jHVz_Gf5YFje0AnHNwJAOKUnmCvps5cjcQ1t12KQlX_nbVbc2SEU",
      "Lang": "uk",
      "CaptionKey": "translation",
      "CaptionName": "Переклад",
      "YoutubeSynced": true
    },
    {
      "ID": "rAoDslHLCxLPZyubrKrona_XdAI01cv7SkFICPaeV4I5-4LiWN-LvQ==",
      "Lang": "ur",
      "CaptionKey": "translation",
      "CaptionName": "ترجمہ",
      "YoutubeSynced": true
    },
    {
      "ID": "oaQPnfDwUXlJMNluKc9f3YdjpQfwU0rrk6mYKYr8KE48Etm3NnnWNQ==",
      "Lang": "uz",
      "CaptionKey": "translation",
      "CaptionName": "Tarjima",
      "YoutubeSynced": true
    },
    {
      "ID": "0dHKhy3DV-mKNCNf06usK3oVw56N0gARrUejvABvlx8=",
      "Lang": "vi",
      "CaptionKey": "translation",
      "CaptionName": "Dịch",
      "YoutubeSynced": true
    },
    {
      "ID": "rAoDslHLCxIglSKbq1R82EDohKfJ-qBygOqK4XMbSPsKsjjLb26UPA==",
      "Lang": "xh",
      "CaptionKey": "translation",
      "CaptionName": "Inguqulelo",
      "YoutubeSynced": true
    },
    {
      "ID": "ZQO2R-Ys3cXjQ61nQzr5gVBm1B0wejhGfgxlp0iWSTkYJvs3EhKQnLMd8mk1nbwc",
      "Lang": "yi",
      "CaptionKey": "translation",
      "CaptionName": "איבערזעצונג",
      "YoutubeSynced": true
    },
    {
      "ID": "oaQPnfDwUXm0gipvviGSvJdK94kIHniHfB_kRqJimKOfpYzuKDsQfA==",
      "Lang": "yo",
      "CaptionKey": "translation",
      "CaptionName": "Itumọ",
      "YoutubeSynced": true
    },
    {
      "ID": "g_AywVULbVtIoEDoDJZCUh4OvgmGRHYnSOCMPlMCJsiGTTvahVoClQ==",
      "Lang": "zh-Hans",
      "CaptionKey": "translation",
      "CaptionName": "翻译",
      "YoutubeSynced": true
    },
    {
      "ID": "g_AywVULbVtIoEDoDJZCUhvTylNjGoaJmdaUuEVCtM6cJG4BjZUetA==",
      "Lang": "zh-Hant",
      "CaptionKey": "translation",
      "CaptionName": "翻譯",
      "YoutubeSynced": true
    },
    {
      "ID": "rAoDslHLCxKpsnDlQ5LtnuprQLk2jPl4Ph8NAvzt8t0mPbUPRc61Qg==",
      "Lang": "zu",
      "CaptionKey": "translation",
      "CaptionName": "Ukuhumusha",
      "YoutubeSynced": true
    }
  ]
}