{
  "VideoFile": "grammar-en-beginner-simple_14_AU.mp4",
  "Captions": [
    {
      "ID": "tX-ghnyavJFpgif74mhxlPw8dtr8aEVB48cgIFKv0RiRDhkGwbQ2Tw==",
      "Lang": "af",
      "CaptionKey": "translation",
      "CaptionName": "vertaling",
      "YoutubeSynced": true
    },
    {
      "ID": "1182vMvmzxoicinF8iilwllSW39-KuryqvsYP_ZG9OKK5JjhKlrQjA==",
      "Lang": "am",
      "CaptionKey": "translation",
      "CaptionName": "ትርጉም",
      "YoutubeSynced": true
    },
    {
      "ID": "-d31RLXlTZgvhnIxhSx9FqGI_tZOhW2HRhR_THU7Tc-u3HgwKtZEtA==",
      "Lang": "ar",
      "CaptionKey": "translation",
      "CaptionName": "ترجمة",
      "YoutubeSynced": true
    },
    {
      "ID": "-d31RLXlTZjfcuGSv2QXTgOLFBI0scp_nvC9PlGKaLm65-VtTCQdgg==",
      "Lang": "az",
      "CaptionKey": "translation",
      "CaptionName": "Tərcümə",
      "YoutubeSynced": true
    },
    {
      "ID": "kNyDrOx4FDtiIlB7M5gsR-ZQJDlIk79F9bZt7tpCed4QvbAj1w3RzsD8NEiiyJtT",
      "Lang": "be",
      "CaptionKey": "translation",
      "CaptionName": "Пераклад",
      "YoutubeSynced": true
    },
    {
      "ID": "1182vMvmzxrZtEBR4tdA2-FpUn5CV3IgSFyEq4wa3HhTFzcFsWe2ag==",
      "Lang": "bg",
      "CaptionKey": "translation",
      "CaptionName": "превод",
      "YoutubeSynced": true
    },
    {
      "ID": "xMutFNB_R3gzBeh8HlNCWjix_Km_-r5vdE1GbZt-opCObBlWsX_NlsYsMEhRzpsq",
      "Lang": "bn",
      "CaptionKey": "translation",
      "CaptionName": "অনুবাদ",
      "YoutubeSynced": true
    },
    {
      "ID": "QNya0g5b8F5D4l8aw1SEOt3djfGLYIJA-fasrv9B0go=",
      "Lang": "bs",
      "CaptionKey": "translation",
      "CaptionName": "Prevod",
      "YoutubeSynced": true
    },
    {
      "ID": "-d31RLXlTZjTFsjjanMOExOziv0RsWubq2_HxbmKktU3QWxbYj5SeQ==",
      "Lang": "ca",
      "CaptionKey": "translation",
      "CaptionName": "Traducció",
      "YoutubeSynced": true
    },
    {
      "ID": "-d31RLXlTZgIpqKYFWvRFPHUFGpfh4JgwN9TKJSj5e9PUz-GcYmH3Q==",
      "Lang": "co",
      "CaptionKey": "translation",
      "CaptionName": "Traduzione",
      "YoutubeSynced": true
    },
    {
      "ID": "kLvhDKx89NMLm5NkKXur7vTPtLTJpLya1TfaAxmPQ39JWvHUx7wrvA==",
      "Lang": "cs",
      "CaptionKey": "translation",
      "CaptionName": "Překlad",
      "YoutubeSynced": true
    },
    {
      "ID": "GAgjieIW96G2PzD1fYZ1dxH82qNoPBqPvkgb1shtDEFUgHgEw-Pe2w==",
      "Lang": "cy",
      "CaptionKey": "translation",
      "CaptionName": "Cyfieithiad",
      "YoutubeSynced": true
    },
    {
      "ID": "gQ3zdvqgkTThnPfRhQWCWnDW6O6XSaiVOwApZZFLgrDrA9zFPJbbWw==",
      "Lang": "da",
      "CaptionKey": "translation",
      "CaptionName": "Oversættelse",
      "YoutubeSynced": true
    },
    {
      "ID": "1182vMvmzxqSRrz7ZYy17CuYXMvp17UWpQoDsTv35r2_t0m8jDoGsw==",
      "Lang": "de",
      "CaptionKey": "translation",
      "CaptionName": "Übersetzung",
      "YoutubeSynced": true
    },
    {
      "ID": "xMutFNB_R3jDNUJNr60CCVXnVH9TVdQIkvDnLT1lkUJRm0NI9-7qkqDzSmcCOJtc",
      "Lang": "el",
      "CaptionKey": "translation",
      "CaptionName": "Μετάφραση",
      "YoutubeSynced": true
    },
    {
      "ID": "GAgjieIW96FZPcLdy1ejP-C03drd1AQ7z9wbm-Cni9dCfBNew9gGBA==",
      "Lang": "en",
      "CaptionKey": "translation",
      "CaptionName": "Translation",
      "YoutubeSynced": true
    },
    {
      "ID": "U7wgWpM_cljhYiacspviNiNUuFf3l8ehKgopj1uZyxkGjMN4qDrDfLSwOflKMgFn",
      "Lang": "en",
      "CaptionKey": "ruby",
      "CaptionName": "Pronunciation - IPA",
      "YoutubeSynced": true
    },
    {
      "ID": "GAgjieIW96Fk5_v7FiH6sSnWmm-zf3Smti9xAklUB9mUd1WyVWBxTA==",
      "Lang": "es",
      "CaptionKey": "translation",
      "CaptionName": "Traducción",
      "YoutubeSynced": true
    },
    {
      "ID": "QNya0g5b8F6TGOpEDjuwTQ5zx_W_pluzaIn8Kr75tkk=",
      "Lang": "et",
      "CaptionKey": "translation",
      "CaptionName": "Tõlge",
      "YoutubeSynced": true
    },
    {
      "ID": "tX-ghnyavJHKPteCylJGHVKYFt5idPF4v17An78qTUxEC9m4-9Sfsg==",
      "Lang": "eu",
      "CaptionKey": "translation",
      "CaptionName": "Itzulpena",
      "YoutubeSynced": true
    },
    {
      "ID": "-d31RLXlTZh2FPgJDmkacAKfUcYVupvIuyrJis-0QruB4iHy-90O1w==",
      "Lang": "fa",
      "CaptionKey": "translation",
      "CaptionName": "ترجمه",
      "YoutubeSynced": true
    },
    {
      "ID": "-d31RLXlTZh5O4FuUvBaIkw-6CeX4IsEd9GnSW4k7IDvLKnd12wSCw==",
      "Lang": "fi",
      "CaptionKey": "translation",
      "CaptionName": "Käännös",
      "YoutubeSynced": true
    },
    {
      "ID": "GAgjieIW96HOP7z03M_6lVDY4z35E1HqFVO4W2nFQbQhl3I65jBXkA==",
      "Lang": "fil",
      "CaptionKey": "translation",
      "CaptionName": "Pagsasalin",
      "YoutubeSynced": true
    },
    {
      "ID": "-d31RLXlTZi8ztPR5AViJmcegeBcq-pelt7ircptIjrbGGlMOLmdOw==",
      "Lang": "fr",
      "CaptionKey": "translation",
      "CaptionName": "Traduction",
      "YoutubeSynced": true
    },
    {
      "ID": "-d31RLXlTZhW8yIW8LAuoZDngrTkyk6lgMOnsf5LbGoVhoUW0DA-zA==",
      "Lang": "fy",
      "CaptionKey": "translation",
      "CaptionName": "Oersetting",
      "YoutubeSynced": true
    },
    {
      "ID": "xMutFNB_R3j00ihFn-urEqR8tDJBv1mWf6gCKpGkpjTRTFLin0cv-8ONINw1YBng",
      "Lang": "gd",
      "CaptionKey": "translation",
      "CaptionName": "Eadar-theangachadh",
      "YoutubeSynced": true
    },
    {
      "ID": "-d31RLXlTZh0qtEMX8bzmauZWjclVPkv-707VB8jJb-z9Ico9ofJ-w==",
      "Lang": "gl",
      "CaptionKey": "translation",
      "CaptionName": "Tradución",
      "YoutubeSynced": true
    },
    {
      "ID": "xMutFNB_R3ghNrCDK3tFTi29_Ohx3M6KsUqd90Xv-qB3iAJrkmhKROn7R2POxdnE",
      "Lang": "gu",
      "CaptionKey": "translation",
      "CaptionName": "અનુવાદ",
      "YoutubeSynced": true
    },
    {
      "ID": "PTK60tJpohO_hojcY5KwAaaZZi0XhY7txJ6Qw0P-qBPCDKPYzIyceA==",
      "Lang": "ha",
      "CaptionKey": "translation",
      "CaptionName": "Fassara",
      "YoutubeSynced": true
    },
    {
      "ID": "xMutFNB_R3jXtiT8v3aWeGdIButGj8upE4k2hoSn0_npgHWywUqG-aQ3uC5yVN5U",
      "Lang": "hi",
      "CaptionKey": "translation",
      "CaptionName": "अनुवाद",
      "YoutubeSynced": true
    },
    {
      "ID": "kLvhDKx89NPXHXuZ64tUucIQYjLl3Yl01KClV6uvARg7GLwwHr75SQ==",
      "Lang": "hr",
      "CaptionKey": "translation",
      "CaptionName": "Prijevod",
      "YoutubeSynced": true
    },
    {
      "ID": "-d31RLXlTZgvR72OXiyQTssZtfm6XfHxbLCgwvecQE4cb50vSIDFkw==",
      "Lang": "hu",
      "CaptionKey": "translation",
      "CaptionName": "Fordítás",
      "YoutubeSynced": true
    },
    {
      "ID": "n0mw783PMTVs7H8NomMpd2MbXVgaz_bJOzWrmjAlMl4RrxVnn3IeiJzGK7nbuRq99L_16tu4x_c=",
      "Lang": "hy",
      "CaptionKey": "translation",
      "CaptionName": "Թարգմանություն",
      "YoutubeSynced": true
    },
    {
      "ID": "-d31RLXlTZiCJptWRl6_TEffDJ2yzaXyEXvdFnpPOtN5VVsD0KuFJQ==",
      "Lang": "id",
      "CaptionKey": "translation",
      "CaptionName": "Terjemahan",
      "YoutubeSynced": true
    },
    {
      "ID": "kLvhDKx89NOOka9KhJ5f4NuUHVTZ7woL_bephluQx7Yt_mfdebvo3g==",
      "Lang": "ig",
      "CaptionKey": "translation",
      "CaptionName": "Ntughari",
      "YoutubeSynced": true
    },
    {
      "ID": "tX-ghnyavJG-CTf9txgMNClBslGA67S79JQI0kL1wtwA7P0B-7TW1Q==",
      "Lang": "is",
      "CaptionKey": "translation",
      "CaptionName": "Þýðing",
      "YoutubeSynced": true
    },
    {
      "ID": "-d31RLXlTZj71FfM8yfc3gvEp2lpiF1PD_07SciPOL6O2wj_OxBWgQ==",
      "Lang": "it",
      "CaptionKey": "translation",
      "CaptionName": "Traduzione",
      "YoutubeSynced": true
    },
    {
      "ID": "-d31RLXlTZiRElO36LQVxdLmLgB_o83jgF2XKlIqhf0crWFHNuHGyw==",
      "Lang": "iw",
      "CaptionKey": "translation",
      "CaptionName": "תרגום",
      "YoutubeSynced": true
    },
    {
      "ID": "QNya0g5b8F4jQy2vJF84g-5EXNnJhO1iX70nBTStQMU=",
      "Lang": "ja",
      "CaptionKey": "translation",
      "CaptionName": "翻訳",
      "YoutubeSynced": true
    },
    {
      "ID": "tX-ghnyavJE9ebghecn3kcZYdKzCpC3euw-Rz1-KHA1wWD45AuV7_w==",
      "Lang": "jv",
      "CaptionKey": "translation",
      "CaptionName": "Ngartekne",
      "YoutubeSynced": true
    },
    {
      "ID": "uCekWg3liVC2Ko-EoxwTDdyG5Y2Cd2tJJmcFKozD1Ftt2lv3ZqZNpENlZitnoSr-KQhSnx2GaNU=",
      "Lang": "ka",
      "CaptionKey": "translation",
      "CaptionName": "თარგმანი",
      "YoutubeSynced": true
    },
    {
      "ID": "2EumBRBD_7zYBYAZIOmh9hglhvGRHzb3s1rZD_lyBtNXrvssxH3tuw==",
      "Lang": "kk",
      "CaptionKey": "translation",
      "CaptionName": "Аударма",
      "YoutubeSynced": true
    },
    {
      "ID": "Ic4xt4RJdK57BvZzSftU8ksIpO6YMuuEhOiG8Xf0U51NKN-cbkqFC7FZ_ufo_b4ciYWltKbPQRk=",
      "Lang": "km",
      "CaptionKey": "translation",
      "CaptionName": "ការបកប្រែ",
      "YoutubeSynced": true
    },
    {
      "ID": "xMutFNB_R3ixAE8YEQXVTWY2D-xcHXxLg-Sg2Lu5IYrbvH7ijS0X6P1veFlLPGBz",
      "Lang": "kn",
      "CaptionKey": "translation",
      "CaptionName": "ಅನುವಾದ",
      "YoutubeSynced": true
    },
    {
      "ID": "QNya0g5b8F5KB0PngUKChFfChsG7Z4lUnALfpy1a2K8=",
      "Lang": "ko",
      "CaptionKey": "translation",
      "CaptionName": "번역",
      "YoutubeSynced": true
    },
    {
      "ID": "QNya0g5b8F7hvr07HHZvh5evGQGYu5mPZsLOkCCKHUM=",
      "Lang": "ku",
      "CaptionKey": "translation",
      "CaptionName": "Werger",
      "YoutubeSynced": true
    },
    {
      "ID": "2EumBRBD_7zGmTMAC4ULeEX7Hc3X0OtcxCDOU9CSAE5j2bzLZW_FwQ==",
      "Lang": "ky",
      "CaptionKey": "translation",
      "CaptionName": "котормо",
      "YoutubeSynced": true
    },
    {
      "ID": "1182vMvmzxqH44xFP55vQ38mLMmmBBgDNVJcPOz_AV-SMQJJg-Wnhg==",
      "Lang": "lb",
      "CaptionKey": "translation",
      "CaptionName": "Iwwersetzung",
      "YoutubeSynced": true
    },
    {
      "ID": "Ic4xt4RJdK5ZirNXFLXD-e3DdhvTIQ64amq90-W8ZnyK0WcA0OTS9TFEds6Be0-s8a4CNhz-bdk=",
      "Lang": "lo",
      "CaptionKey": "translation",
      "CaptionName": "ການແປພາສາ",
      "YoutubeSynced": true
    },
    {
      "ID": "kLvhDKx89NNxxqcSfx8A6tB3GpcYwxL74dy_64Y0pWsq8FGme8V-Kg==",
      "Lang": "lt",
      "CaptionKey": "translation",
      "CaptionName": "Vertimas",
      "YoutubeSynced": true
    },
    {
      "ID": "-d31RLXlTZjIIJ2CZnIaE6hj3yz_quSbKCmZB_6rKH46gOEc1BPKEA==",
      "Lang": "lv",
      "CaptionKey": "translation",
      "CaptionName": "Tulkošana",
      "YoutubeSynced": true
    },
    {
      "ID": "GAgjieIW96HV3OsAlpmuc_LlAU9ya8qiqam3hEA0oV5zHUBGDNE6Zw==",
      "Lang": "mg",
      "CaptionKey": "translation",
      "CaptionName": "Translation",
      "YoutubeSynced": true
    },
    {
      "ID": "D9iHRsG9A_l7KzG1ahZjMHlJAWyL05xeJ_NDYE1qx90wSmxpS7OnKdJvfxWFqBBH",
      "Lang": "mi",
      "CaptionKey": "translation",
      "CaptionName": "Whakamaoritanga",
      "YoutubeSynced": true
    },
    {
      "ID": "1182vMvmzxqHvcsvJI51bbFcgZV0VMMGnlrMbDkpDu4SYMrRVPZCTQ==",
      "Lang": "mk",
      "CaptionKey": "translation",
      "CaptionName": "Превод",
      "YoutubeSynced": true
    },
    {
      "ID": "Ic4xt4RJdK6wCOAXba27shHe5E0I8Qm_lIXZrcxVhY0ICd_QJPw_MsNuoi3CH2P0f5FQ3cyZVBw=",
      "Lang": "ml",
      "CaptionKey": "translation",
      "CaptionName": "വിവർത്തനം",
      "YoutubeSynced": true
    },
    {
      "ID": "kNyDrOx4FDs7lI9m3pObvcwxKCdY1GxBLLopb4LO177LRydoFlgTdTMu4Har_l6L",
      "Lang": "mn",
      "CaptionKey": "translation",
      "CaptionName": "Орчуулга",
      "YoutubeSynced": true
    },
    {
      "ID": "Zpfnt7bryD3fEFoCrymSWjuT-CBPfgkuadAAWZDyOfsB1TVApG7Z4HAg_Ib2Tn9e",
      "Lang": "mr",
      "CaptionKey": "translation",
      "CaptionName": "भाषांतर",
      "YoutubeSynced": true
    },
    {
      "ID": "-d31RLXlTZh28DFgI0Rsuo6znlDqMtJByYlVMxo5RJgIqBe2ithNBQ==",
      "Lang": "ms",
      "CaptionKey": "translation",
      "CaptionName": "Terjemahan",
      "YoutubeSynced": true
    },
    {
      "ID": "GAgjieIW96FHzA_pxO2gck7Oxme83gkvfPxyGLZ6Ba3__YcM4Ub24w==",
      "Lang": "mt",
      "CaptionKey": "translation",
      "CaptionName": "Traduzzjoni",
      "YoutubeSynced": true
    },
    {
      "ID": "uCekWg3liVBPq-e-twS259Op99wP-sUHgSiUnYF7UzPgS8RTCPJosrxg5P5Ctn0nXO1yteXpSik=",
      "Lang": "my",
      "CaptionKey": "translation",
      "CaptionName": "ဘာသာပြန်",
      "YoutubeSynced": true
    },
    {
      "ID": "xMutFNB_R3jG8y9hX1a3Wf6yunoGgG-mfuqjBsCeDiC97nAb3celLQp4O0_xGi1O",
      "Lang": "ne",
      "CaptionKey": "translation",
      "CaptionName": "अनुवाद",
      "YoutubeSynced": true
    },
    {
      "ID": "tX-ghnyavJGSZ0UdBeE_yo3H4OHRMeQ_zhQrMwPeebzCdlvLb2ICXQ==",
      "Lang": "nl",
      "CaptionKey": "translation",
      "CaptionName": "Vertaling",
      "YoutubeSynced": true
    },
    {
      "ID": "1182vMvmzxrriPF87hkTAVXlKA5JzCbvr5YTFUzReKJviSvhGF3LAQ==",
      "Lang": "no",
      "CaptionKey": "translation",
      "CaptionName": "Oversettelse",
      "YoutubeSynced": true
    },
    {
      "ID": "xMutFNB_R3jyRRKCbyoeRRGnZs-25CodP5OJhpIdbGaTGpZlnEV8jimcduf94jMx",
      "Lang": "pa",
      "CaptionKey": "translation",
      "CaptionName": "ਅਨੁਵਾਦ",
      "YoutubeSynced": true
    },
    {
      "ID": "1182vMvmzxrS3kqt_EQmqgRItlYjt1yyVMO3V9M49C2EWHsIdNbt5A==",
      "Lang": "pl",
      "CaptionKey": "translation",
      "CaptionName": "Tłumaczenie",
      "YoutubeSynced": true
    },
    {
      "ID": "-d31RLXlTZgiyTx9lEdxMM0ObGGklH3gGPN6TZ5nNwxtY-SatMMgTA==",
      "Lang": "ps",
      "CaptionKey": "translation",
      "CaptionName": "ژباړه",
      "YoutubeSynced": true
    },
    {
      "ID": "-d31RLXlTZgCvNaokkA0rwFYeod2sYGj2qNRqOxiXEaHkLWuAdUKnQ==",
      "Lang": "pt",
      "CaptionKey": "translation",
      "CaptionName": "Tradução",
      "YoutubeSynced": true
    },
    {
      "ID": "tX-ghnyavJHePufzy2zQZEDzLNCRDhSzCtqguf97t4XssL7vQl6N2w==",
      "Lang": "ro",
      "CaptionKey": "translation",
      "CaptionName": "Traducere",
      "YoutubeSynced": true
    },
    {
      "ID": "2EumBRBD_7wQ557P1XTnNRa0XRi426jqsAzMjARvDZCLEWIQz_V1fA==",
      "Lang": "ru",
      "CaptionKey": "translation",
      "CaptionName": "Перевод",
      "YoutubeSynced": true
    },
    {
      "ID": "-d31RLXlTZhrgbh7F2BEmzHvop4qO2g1UjGNvHz7BB6oR5z1WEoo_w==",
      "Lang": "sd",
      "CaptionKey": "translation",
      "CaptionName": "ترجمو",
      "YoutubeSynced": true
    },
    {
      "ID": "Ic4xt4RJdK7HEbZASIUWMfNyN3RJki5xK9F-UW2nIk_gVM_VSpOeyBD1MHjmBagqZaqHynjR_kY=",
      "Lang": "si",
      "CaptionKey": "translation",
      "CaptionName": "පරිවර්තනය",
      "YoutubeSynced": true
    },
    {
      "ID": "PTK60tJpohOYFaA2o27N_r4vwyr1XoJj2iSTt7oqh_zHT1IsFBGvpg==",
      "Lang": "sk",
      "CaptionKey": "translation",
      "CaptionName": "preklad",
      "YoutubeSynced": true
    },
    {
      "ID": "QNya0g5b8F4WbglmMBIPLMSq9e3xO_HgQ92vwyhfgwM=",
      "Lang": "sl",
      "CaptionKey": "translation",
      "CaptionName": "Prevod",
      "YoutubeSynced": true
    },
    {
      "ID": "1182vMvmzxpKo7kVEIUxhtKIJs_WT64s0h5AgUD6T4Dj_wDxQITcuw==",
      "Lang": "sm",
      "CaptionKey": "translation",
      "CaptionName": "Faʻaliliuga",
      "YoutubeSynced": true
    },
    {
      "ID": "PTK60tJpohNzT03WVqsr_-8bKh9gdpAbcNi4XnNj1hYUbTDtUJTNaw==",
      "Lang": "sn",
      "CaptionKey": "translation",
      "CaptionName": "Dudziro",
      "YoutubeSynced": true
    },
    {
      "ID": "tX-ghnyavJFHsbPa8dxP2nNiDZsltTl2FP3RRhlXalEOL15N5dSHWQ==",
      "Lang": "so",
      "CaptionKey": "translation",
      "CaptionName": "Tarjumida",
      "YoutubeSynced": true
    },
    {
      "ID": "tX-ghnyavJGQaSlwRxFvYai1c7OyaBbm6PKi9KP0mw8ARL4YPIAU-w==",
      "Lang": "sq",
      "CaptionKey": "translation",
      "CaptionName": "përkthim",
      "YoutubeSynced": true
    },
    {
      "ID": "1182vMvmzxq7NWHNji3yqPOi8yoNiT3rgvB2dQCCN9aIWlM5NQMQeA==",
      "Lang": "sr",
      "CaptionKey": "translation",
      "CaptionName": "Превод",
      "YoutubeSynced": true
    },
    {
      "ID": "tX-ghnyavJEvDTzzh9Bd2t4Ehp1j5SIeBHrP7CA37DlhvdLO8o8M2A==",
      "Lang": "st",
      "CaptionKey": "translation",
      "CaptionName": "Phetolelo",
      "YoutubeSynced": true
    },
    {
      "ID": "-d31RLXlTZiytYwvS_x-UZoy1Oue5nFZd0AlCsQthr-yfrZFkRgH7Q==",
      "Lang": "su",
      "CaptionKey": "translation",
      "CaptionName": "Tarjamahan",
      "YoutubeSynced": true
    },
    {
      "ID": "2EumBRBD_7wDme-28-L76KUM9DJpKYFoBbaHK7GdYlhvCNHZXY3JAg==",
      "Lang": "sv",
      "CaptionKey": "translation",
      "CaptionName": "Översättning",
      "YoutubeSynced": true
    },
    {
      "ID": "PTK60tJpohMgZBhNmR3yjEC1u9vrEjgLxpAADk_BCsUFvA_9nQnU2A==",
      "Lang": "sw",
      "CaptionKey": "translation",
      "CaptionName": "Tafsiri",
      "YoutubeSynced": true
    },
    {
      "ID": "Q81klmems7TqbNTY_TJ9wbnQaw9N6B5NRSaA1wc1aVGOgmwzipMXPqjwsuylmqGQHy1k1GJdHO2KtMQP4CAvXSgQhSmgrUlE",
      "Lang": "ta",
      "CaptionKey": "translation",
      "CaptionName": "மொழிபெயர்ப்பு",
      "YoutubeSynced": true
    },
    {
      "ID": "Zpfnt7bryD0FCL6_h04GNqatKFKXnI7vcKdIrynzAcA9MvZgMyGW2RJNkYk-x4Aj",
      "Lang": "te",
      "CaptionKey": "translation",
      "CaptionName": "అనువాదం",
      "YoutubeSynced": true
    },
    {
      "ID": "2EumBRBD_7wkx4t_oh9n80_hReTag1sSURQ0K5VvIxpcB9HlOgmucA==",
      "Lang": "tg",
      "CaptionKey": "translation",
      "CaptionName": "Тарҷума",
      "YoutubeSynced": true
    },
    {
      "ID": "xMutFNB_R3iGkCn0XF-gJgMehp5QyQz4AG_gn6V9hs98z2abolSLX05JOGEfFcko",
      "Lang": "th",
      "CaptionKey": "translation",
      "CaptionName": "การแปล",
      "YoutubeSynced": true
    },
    {
      "ID": "kLvhDKx89NNXNNP7e9YlGct-NKD1NE1ovxJTWrEN9-p3_LOE0h83bw==",
      "Lang": "tr",
      "CaptionKey": "translation",
      "CaptionName": "Tercüme",
      "YoutubeSynced": true
    },
    {
      "ID": "kNyDrOx4FDsAGpeMqwXq8YyJ6mtxQJeL5c4IFs6bVtXj0Id3DCqTFE0J3mupxANF",
      "Lang": "uk",
      "CaptionKey": "translation",
      "CaptionName": "Переклад",
      "YoutubeSynced": true
    },
    {
      "ID": "-d31RLXlTZiI7ok2Cl7zdpNN19YcPVBx8MhonG8fASL5w1HxV9Eorw==",
      "Lang": "ur",
      "CaptionKey": "translation",
      "CaptionName": "ترجمہ",
      "YoutubeSynced": true
    },
    {
      "ID": "PTK60tJpohMwfAa71QFWiluKoZterkE2d6YXBObRt2l0bHogSXPzvA==",
      "Lang": "uz",
      "CaptionKey": "translation",
      "CaptionName": "Tarjima",
      "YoutubeSynced": true
    },
    {
      "ID": "QNya0g5b8F5AK98vOL3EODyJq-XklooyD8u4Zweo7cM=",
      "Lang": "vi",
      "CaptionKey": "translation",
      "CaptionName": "Dịch",
      "YoutubeSynced": true
    },
    {
      "ID": "-d31RLXlTZh43kJhcNsJzeKvp23mJTn4uZ4omTlI969hX92mtEQzqA==",
      "Lang": "xh",
      "CaptionKey": "translation",
      "CaptionName": "Inguqulelo",
      "YoutubeSynced": true
    },
    {
      "ID": "esAQoQXSSAUprdbJUexCBZmp7hCs_BIGMs4vJGDNNUwnAo4A90kUfY-zBLMixxLJ",
      "Lang": "yi",
      "CaptionKey": "translation",
      "CaptionName": "איבערזעצונג",
      "YoutubeSynced": true
    },
    {
      "ID": "PTK60tJpohPgwWnsYbJpJ_OueWM7834VgVCP5Tr2k_GJkurwgAnVjw==",
      "Lang": "yo",
      "CaptionKey": "translation",
      "CaptionName": "Itumọ",
      "YoutubeSynced": true
    },
    {
      "ID": "GAgjieIW96FTxVH6oKcl4h3LfDrRU-Fzb1XN-qocxFNEPSmh1QenXQ==",
      "Lang": "zh-Hans",
      "CaptionKey": "translation",
      "CaptionName": "翻译",
      "YoutubeSynced": true
    },
    {
      "ID": "GAgjieIW96FTxVH6oKcl4lx_D37w8WgfpssFCrZvtdK611xsrQy7-g==",
      "Lang": "zh-Hant",
      "CaptionKey": "translation",
      "CaptionName": "翻譯",
      "YoutubeSynced": true
    },
    {
      "ID": "-d31RLXlTZjOFPbsGpZonhsybr28naK2Gwjrn_0v5LCQE8Wd11buig==",
      "Lang": "zu",
      "CaptionKey": "translation",
      "CaptionName": "Ukuhumusha",
      "YoutubeSynced": true
    }
  ]
}