{
  "VideoFile": "grammar-en-beginner-simple_85_IN.mp4",
  "Captions": [
    {
      "ID": "mn7vs05J39-piKhP6kE_is9ANQThejw39Ue5MVWLch1MZwEpfwT_-Q==",
      "Lang": "af",
      "CaptionKey": "translation",
      "CaptionName": "vertaling",
      "YoutubeSynced": true
    },
    {
      "ID": "nZMVgD-Y_gJF_8xeBFcllG5Nz8eiZtFkFXGhFNNyyMcaQ-KfRpRH8w==",
      "Lang": "am",
      "CaptionKey": "translation",
      "CaptionName": "ትርጉም",
      "YoutubeSynced": true
    },
    {
      "ID": "1B-WswvWtgy36WTBnpJ8lS3cidDhAxczcQIx1j9bPVK64NCcXbMHQg==",
      "Lang": "ar",
      "CaptionKey": "translation",
      "CaptionName": "ترجمة",
      "YoutubeSynced": true
    },
    {
      "ID": "1B-WswvWtgyEQWLYm5aN7BTXfNgKtxk9_ygSrgxq0Una19bPWRf_-w==",
      "Lang": "az",
      "CaptionKey": "translation",
      "CaptionName": "Tərcümə",
      "YoutubeSynced": true
    },
    {
      "ID": "PvjEOCRwKuLnipYdSUHXvdfP-TkSlPg92x-nbzpklB1KXRQBLtXZVfjPyXHH8FaN",
      "Lang": "be",
      "CaptionKey": "translation",
      "CaptionName": "Пераклад",
      "YoutubeSynced": true
    },
    {
      "ID": "nZMVgD-Y_gLszZ-ojxi72c-PsplmMwm0tK48TDA9nJrmDhWOhTn1gw==",
      "Lang": "bg",
      "CaptionKey": "translation",
      "CaptionName": "превод",
      "YoutubeSynced": true
    },
    {
      "ID": "iKse8HtqKqd_21r_8oGouT5rWtIZIMWvr1By_Shebw9KiLQVVPFsXZ59JTRk7IKg",
      "Lang": "bn",
      "CaptionKey": "translation",
      "CaptionName": "অনুবাদ",
      "YoutubeSynced": true
    },
    {
      "ID": "nFsTUCYt8kAiGWGIhXmd-w5t9Q3opr6rWCQQ8NVsUog=",
      "Lang": "bs",
      "CaptionKey": "translation",
      "CaptionName": "Prevod",
      "YoutubeSynced": true
    },
    {
      "ID": "1B-WswvWtgz5nkQI5-rr2JThzFD9_VqdBZGnprZ-_bxwnE1yKNN5lQ==",
      "Lang": "ca",
      "CaptionKey": "translation",
      "CaptionName": "Traducció",
      "YoutubeSynced": true
    },
    {
      "ID": "1B-WswvWtgxizUi_SpOA536iurvhqN1I0TnScmjPtVhwSJzlh51W0w==",
      "Lang": "co",
      "CaptionKey": "translation",
      "CaptionName": "Traduzione",
      "YoutubeSynced": true
    },
    {
      "ID": "QcocA6ZhOmIK5Cs0oMmz1sYU_EHtwB-bn-dcirs7tsT_h4tOLM9nXg==",
      "Lang": "cs",
      "CaptionKey": "translation",
      "CaptionName": "Překlad",
      "YoutubeSynced": true
    },
    {
      "ID": "7AJN-BFbTinMttczOv5peuju4xXXqibAc5ImhDqoPtb3CqTKX6bsVQ==",
      "Lang": "cy",
      "CaptionKey": "translation",
      "CaptionName": "Cyfieithiad",
      "YoutubeSynced": true
    },
    {
      "ID": "lnjDxWjSHBaaIfoDpFoqHvMTX0Y9B-yqQ1u6019dVLm1800vwhhVuA==",
      "Lang": "da",
      "CaptionKey": "translation",
      "CaptionName": "Oversættelse",
      "YoutubeSynced": true
    },
    {
      "ID": "nZMVgD-Y_gIgGtEyZwF_ClKcroJoUFnq4eQR4KzrBNZAyPXZ1TAhDw==",
      "Lang": "de",
      "CaptionKey": "translation",
      "CaptionName": "Übersetzung",
      "YoutubeSynced": true
    },
    {
      "ID": "iKse8HtqKqd6Yr4hsWIZolvBus1OLFDBV53FUoVFqKEyoQxMty2A42O8VPR0sq4l",
      "Lang": "el",
      "CaptionKey": "translation",
      "CaptionName": "Μετάφραση",
      "YoutubeSynced": true
    },
    {
      "ID": "7AJN-BFbTimV5aVL7hexqO1DEevLMtQXFceGptHa0b-S3P8ImxTx3Q==",
      "Lang": "en",
      "CaptionKey": "translation",
      "CaptionName": "Translation",
      "YoutubeSynced": true
    },
    {
      "ID": "RW7dNBQHOKrwuzUtXlm-vV3PfnKlPUmjlYC2njtwRExZgGe0U9q0bTqxFKPfnIoF",
      "Lang": "en",
      "CaptionKey": "ruby",
      "CaptionName": "Pronunciation - IPA",
      "YoutubeSynced": true
    },
    {
      "ID": "7AJN-BFbTikZV0ZfdnX0_ycE0QTp8VplHlfutNdnnWAot943pK1rKw==",
      "Lang": "es",
      "CaptionKey": "translation",
      "CaptionName": "Traducción",
      "YoutubeSynced": true
    },
    {
      "ID": "nFsTUCYt8kBkQ2XBoVgrrqL6rzJsTYRNQUzhIhltoxs=",
      "Lang": "et",
      "CaptionKey": "translation",
      "CaptionName": "Tõlge",
      "YoutubeSynced": true
    },
    {
      "ID": "mn7vs05J39_Anhy5viENS50fLMyLUqulQt6EAgXbBK6ckNWMsQbjwQ==",
      "Lang": "eu",
      "CaptionKey": "translation",
      "CaptionName": "Itzulpena",
      "YoutubeSynced": true
    },
    {
      "ID": "1B-WswvWtgxwF1N7Z40B-oHn0K3X65UNWoMPSQY4-E7gAWnEJa6bmg==",
      "Lang": "fa",
      "CaptionKey": "translation",
      "CaptionName": "ترجمه",
      "YoutubeSynced": true
    },
    {
      "ID": "1B-WswvWtgznHcSq3yyLmNBhUKvJmbxPI5p5NsHZzDPfhdxxGv5lcA==",
      "Lang": "fi",
      "CaptionKey": "translation",
      "CaptionName": "Käännös",
      "YoutubeSynced": true
    },
    {
      "ID": "7AJN-BFbTim3gjhr8RL8ZD0XPjuQ6oX4InNqq2t3gPhTCyo5DgRjUg==",
      "Lang": "fil",
      "CaptionKey": "translation",
      "CaptionName": "Pagsasalin",
      "YoutubeSynced": true
    },
    {
      "ID": "1B-WswvWtgxAPcqsLCBDxF7iflWHZqrTw3uSdkWFgnoWFMBxOd4d6g==",
      "Lang": "fr",
      "CaptionKey": "translation",
      "CaptionName": "Traduction",
      "YoutubeSynced": true
    },
    {
      "ID": "1B-WswvWtgxGWX-h-8uAzV5YzTOvwEWQ2GLY_cph6eq_N4a41pN8Qg==",
      "Lang": "fy",
      "CaptionKey": "translation",
      "CaptionName": "Oersetting",
      "YoutubeSynced": true
    },
    {
      "ID": "iKse8HtqKqcyxciVUzPnOSpvrlVwWFG6BTNtSV7oBXOu2WtH5fkbTgxDQpTqdGid",
      "Lang": "gd",
      "CaptionKey": "translation",
      "CaptionName": "Eadar-theangachadh",
      "YoutubeSynced": true
    },
    {
      "ID": "1B-WswvWtgzzfilz37K58BaBiMRBkdob-ruL4yknZirIe-Vf-TPYPA==",
      "Lang": "gl",
      "CaptionKey": "translation",
      "CaptionName": "Tradución",
      "YoutubeSynced": true
    },
    {
      "ID": "iKse8HtqKqd9DiWqUrw-3r_u7fjKTznOu9eos2TwNxfDETEKBIPbPobW0aehkKqM",
      "Lang": "gu",
      "CaptionKey": "translation",
      "CaptionName": "અનુવાદ",
      "YoutubeSynced": true
    },
    {
      "ID": "IeqMADxkbYJ7kbcPjUAZBLY328OBuY_9d7Oy798DtPHr4VTBD9J9tQ==",
      "Lang": "ha",
      "CaptionKey": "translation",
      "CaptionName": "Fassara",
      "YoutubeSynced": true
    },
    {
      "ID": "iKse8HtqKqfUVNg0xeWM89AMTqGmOEdWBWu2Jp8o9Zpcik-tvS2Pe4sYq_sfPpOj",
      "Lang": "hi",
      "CaptionKey": "translation",
      "CaptionName": "अनुवाद",
      "YoutubeSynced": true
    },
    {
      "ID": "QcocA6ZhOmJlWiEjPr9uAV7QyifdZ4E_jAw7hXwdnWvDyX4P-qs1-Q==",
      "Lang": "hr",
      "CaptionKey": "translation",
      "CaptionName": "Prijevod",
      "YoutubeSynced": true
    },
    {
      "ID": "1B-WswvWtgxSEFh7HZHIRzFRnQgVHC9hlbXhNn4mMwfG_rAJWycAFw==",
      "Lang": "hu",
      "CaptionKey": "translation",
      "CaptionName": "Fordítás",
      "YoutubeSynced": true
    },
    {
      "ID": "fEUSVaVCuV4Yb_KmBfvnp4nlh0_0u8rIXmLAFMnjjCbBHuHCTy8Y22TocprBax1wZXDSZtyn_cQ=",
      "Lang": "hy",
      "CaptionKey": "translation",
      "CaptionName": "Թարգմանություն",
      "YoutubeSynced": true
    },
    {
      "ID": "1B-WswvWtgxHUarROFvTxwId9MNB5VXVLyiC8o4EPRsvwaLM892S3A==",
      "Lang": "id",
      "CaptionKey": "translation",
      "CaptionName": "Terjemahan",
      "YoutubeSynced": true
    },
    {
      "ID": "QcocA6ZhOmKW2KEDidZM7LG4tlsZCqtAGiCXRCLVGRbB7tZmSfI2FQ==",
      "Lang": "ig",
      "CaptionKey": "translation",
      "CaptionName": "Ntughari",
      "YoutubeSynced": true
    },
    {
      "ID": "mn7vs05J39_fHJXNmCyelm0Nnt7sjjs6hrGIKuXvNFubQ7alXiA9xQ==",
      "Lang": "is",
      "CaptionKey": "translation",
      "CaptionName": "Þýðing",
      "YoutubeSynced": true
    },
    {
      "ID": "1B-WswvWtgw7pQ0XAIL6aGDBbA9JUHP9s170Eu771hWiLK9RXag7cQ==",
      "Lang": "it",
      "CaptionKey": "translation",
      "CaptionName": "Traduzione",
      "YoutubeSynced": true
    },
    {
      "ID": "1B-WswvWtgxYDyXyTV4yl-c52DSIfRAC7SKJUIKKGdwM3eyPbc3NNg==",
      "Lang": "iw",
      "CaptionKey": "translation",
      "CaptionName": "תרגום",
      "YoutubeSynced": true
    },
    {
      "ID": "nFsTUCYt8kACIByNiB9SeYKuWoHLGaw2tu_Q_FQgztE=",
      "Lang": "ja",
      "CaptionKey": "translation",
      "CaptionName": "翻訳",
      "YoutubeSynced": true
    },
    {
      "ID": "mn7vs05J39-bV13FEWqRLFdZS65VTm3cPF6FCRmX_hFaM2K6dSZkeA==",
      "Lang": "jv",
      "CaptionKey": "translation",
      "CaptionName": "Ngartekne",
      "YoutubeSynced": true
    },
    {
      "ID": "Hc-LmmT7LV0SJjPo8Woo2FjHTJm-Hz4V3DUGRV-PpJ887d2bQV8L9hWaAngl2AnFVVZQa-ene5o=",
      "Lang": "ka",
      "CaptionKey": "translation",
      "CaptionName": "თარგმანი",
      "YoutubeSynced": true
    },
    {
      "ID": "TAf-xVw9Iws6Im8WWN0MM84j99dfAstLBMXRGNrTO4nQR5XtEa2FYw==",
      "Lang": "kk",
      "CaptionKey": "translation",
      "CaptionName": "Аударма",
      "YoutubeSynced": true
    },
    {
      "ID": "T_ah1FL0lh9QL9E2Z0WGxnV1V6504cjajSgy5YfaWz19eacyZYgIZqmAPaDWvtFXlFJ9IrVZXpg=",
      "Lang": "km",
      "CaptionKey": "translation",
      "CaptionName": "ការបកប្រែ",
      "YoutubeSynced": true
    },
    {
      "ID": "iKse8HtqKqeu_4HS2CpeKEGPm-I9IQymBsEyLLIoe0bWQOhAFoYZ9sX1lGMJi5rq",
      "Lang": "kn",
      "CaptionKey": "translation",
      "CaptionName": "ಅನುವಾದ",
      "YoutubeSynced": true
    },
    {
      "ID": "nFsTUCYt8kCFKs8II9J1OYTNjoNMH0_JyBoLJ9qMc_E=",
      "Lang": "ko",
      "CaptionKey": "translation",
      "CaptionName": "번역",
      "YoutubeSynced": true
    },
    {
      "ID": "nFsTUCYt8kAO701yl_UDPmySFObaXSNMrBNxIJZ5B2w=",
      "Lang": "ku",
      "CaptionKey": "translation",
      "CaptionName": "Werger",
      "YoutubeSynced": true
    },
    {
      "ID": "TAf-xVw9IwugowsbHI6nThQTs2t-zNALDpyrLPs2NtH8dbujHAuIEw==",
      "Lang": "ky",
      "CaptionKey": "translation",
      "CaptionName": "котормо",
      "YoutubeSynced": true
    },
    {
      "ID": "nZMVgD-Y_gLYC0CJUOdCxvxRiAsqEv_7lWEY7ujOB_NMVIXyOdLz9w==",
      "Lang": "lb",
      "CaptionKey": "translation",
      "CaptionName": "Iwwersetzung",
      "YoutubeSynced": true
    },
    {
      "ID": "T_ah1FL0lh_kUWJ3E4wF4_NJ9csx05e7ZKYPaRGIRzyIXUnXei5w_tVjDH_xMMAHHbF-XQeEK0U=",
      "Lang": "lo",
      "CaptionKey": "translation",
      "CaptionName": "ການແປພາສາ",
      "YoutubeSynced": true
    },
    {
      "ID": "QcocA6ZhOmITvWHXAF5vktpgwCik7xIAYT9RrO21CqycpXObleg_Tw==",
      "Lang": "lt",
      "CaptionKey": "translation",
      "CaptionName": "Vertimas",
      "YoutubeSynced": true
    },
    {
      "ID": "1B-WswvWtgzDhUCiDbF87LuvMSUFyZCzRpucTvF9NPBqlzOAd5zONg==",
      "Lang": "lv",
      "CaptionKey": "translation",
      "CaptionName": "Tulkošana",
      "YoutubeSynced": true
    },
    {
      "ID": "7AJN-BFbTinm_SpszD2-6X2U2QGZhCeg-1QxvkyPxPi8fisYN_SiZQ==",
      "Lang": "mg",
      "CaptionKey": "translation",
      "CaptionName": "Translation",
      "YoutubeSynced": true
    },
    {
      "ID": "xc406QokK1R58fzAY4LAm7kY2GZ5Ea8wUaG9fYOSo_JmG829mYAgH_T8hBuCo2SV",
      "Lang": "mi",
      "CaptionKey": "translation",
      "CaptionName": "Whakamaoritanga",
      "YoutubeSynced": true
    },
    {
      "ID": "nZMVgD-Y_gJnd6mnaNpuaRY4sWIfNtQdWlL-D_6kTy2phxzwPV92dA==",
      "Lang": "mk",
      "CaptionKey": "translation",
      "CaptionName": "Превод",
      "YoutubeSynced": true
    },
    {
      "ID": "T_ah1FL0lh-aLoGCyilUVQm8gTPoGu_XeJ_YNNQTE8_gkQ0kNUQvPZcc8YQCACs0zYS-Qo6gC1M=",
      "Lang": "ml",
      "CaptionKey": "translation",
      "CaptionName": "വിവർത്തനം",
      "YoutubeSynced": true
    },
    {
      "ID": "PvjEOCRwKuIjoGyOYqPFtDQ3ujJe2g2G4poX2NSKJdzJSCSil6RG5DI7Meoq_zsD",
      "Lang": "mn",
      "CaptionKey": "translation",
      "CaptionName": "Орчуулга",
      "YoutubeSynced": true
    },
    {
      "ID": "tg5ENBYbs29-AnZmEsWAyy1U5xqopERtMduxyXAlPeLFCIQSxmNRekZema_YQwo4",
      "Lang": "mr",
      "CaptionKey": "translation",
      "CaptionName": "भाषांतर",
      "YoutubeSynced": true
    },
    {
      "ID": "1B-WswvWtgygTHv9CpzqftBUZizpN9iUDyE1o1Qtahdspatt1SCL_g==",
      "Lang": "ms",
      "CaptionKey": "translation",
      "CaptionName": "Terjemahan",
      "YoutubeSynced": true
    },
    {
      "ID": "7AJN-BFbTimZgn7yc4Jm0VrcoZK1zvO03i7ktUezbG3GYGyhxe3vAg==",
      "Lang": "mt",
      "CaptionKey": "translation",
      "CaptionName": "Traduzzjoni",
      "YoutubeSynced": true
    },
    {
      "ID": "Hc-LmmT7LV2s1d0VScCzyUbl2vgicLRSPZ4797ciOzX8JiDkBeBDpI2cHkQ1W6IRQRaC0jr0A10=",
      "Lang": "my",
      "CaptionKey": "translation",
      "CaptionName": "ဘာသာပြန်",
      "YoutubeSynced": true
    },
    {
      "ID": "iKse8HtqKqeHNihlEWF21nCDjDs67Rv7KQvLpiyUuwW2aL7UgCiJd5X8RPxI8eMj",
      "Lang": "ne",
      "CaptionKey": "translation",
      "CaptionName": "अनुवाद",
      "YoutubeSynced": true
    },
    {
      "ID": "mn7vs05J398Lw8F_uWCc7XSN8XYOZnQx26U-OEt7Igm4B83-9ihPeg==",
      "Lang": "nl",
      "CaptionKey": "translation",
      "CaptionName": "Vertaling",
      "YoutubeSynced": true
    },
    {
      "ID": "nZMVgD-Y_gL-FxxY9BmyLJrIXnDyu7ttLlGfhCGUco1kmJ3DqAKS2A==",
      "Lang": "no",
      "CaptionKey": "translation",
      "CaptionName": "Oversettelse",
      "YoutubeSynced": true
    },
    {
      "ID": "iKse8HtqKqc9WF_Fo7Q6xY4EXhIFwpNGZvu0aJEAnuueaujYezCJYz5wIFaga-pC",
      "Lang": "pa",
      "CaptionKey": "translation",
      "CaptionName": "ਅਨੁਵਾਦ",
      "YoutubeSynced": true
    },
    {
      "ID": "nZMVgD-Y_gJ5ovKefG8x_srEqVeUsqTTgFmr87_WsxBMsiguqvMxNQ==",
      "Lang": "pl",
      "CaptionKey": "translation",
      "CaptionName": "Tłumaczenie",
      "YoutubeSynced": true
    },
    {
      "ID": "1B-WswvWtgyrChMUB3e2xgnzI6AQ1K-RDjYL5RPx6_3dd6mb-pckRA==",
      "Lang": "ps",
      "CaptionKey": "translation",
      "CaptionName": "ژباړه",
      "YoutubeSynced": true
    },
    {
      "ID": "1B-WswvWtgzP8GGN-Flfz9JK5hvO5d_K5sNw8e12rCwhi3fO5atUgQ==",
      "Lang": "pt",
      "CaptionKey": "translation",
      "CaptionName": "Tradução",
      "YoutubeSynced": true
    },
    {
      "ID": "mn7vs05J39-a64xC5dmzbK5XLHa438hRNPayhlOSA9oy2_MFwmyhQA==",
      "Lang": "ro",
      "CaptionKey": "translation",
      "CaptionName": "Traducere",
      "YoutubeSynced": true
    },
    {
      "ID": "TAf-xVw9IwtbWbun7gCBVqwRvNPacHHPUOmvFjO7o7VXDMZeGx834Q==",
      "Lang": "ru",
      "CaptionKey": "translation",
      "CaptionName": "Перевод",
      "YoutubeSynced": true
    },
    {
      "ID": "1B-WswvWtgyOi-F9LdMvdGzJTujWjpNjjYNPo15oWXtCrsUzAjVJmw==",
      "Lang": "sd",
      "CaptionKey": "translation",
      "CaptionName": "ترجمو",
      "YoutubeSynced": true
    },
    {
      "ID": "T_ah1FL0lh9VeZnS7ThNhrOmcjzr0JdCnqiixsHH95YyEms2ohp0OUPyIzhzEY-bGR_qfpOi6_k=",
      "Lang": "si",
      "CaptionKey": "translation",
      "CaptionName": "පරිවර්තනය",
      "YoutubeSynced": true
    },
    {
      "ID": "IeqMADxkbYIOouiwbrP4uBN3Zg9iX6Xy2gTa5hfdlH6hQcG3JZqD9Q==",
      "Lang": "sk",
      "CaptionKey": "translation",
      "CaptionName": "preklad",
      "YoutubeSynced": true
    },
    {
      "ID": "nFsTUCYt8kBGd5YIjOcQprx_t5OBgnLgIPI2uIn8EUw=",
      "Lang": "sl",
      "CaptionKey": "translation",
      "CaptionName": "Prevod",
      "YoutubeSynced": true
    },
    {
      "ID": "nZMVgD-Y_gIDYG6e1ato6rmOpwij9D-shP4AsEj23qMY_mgBt3Y98g==",
      "Lang": "sm",
      "CaptionKey": "translation",
      "CaptionName": "Faʻaliliuga",
      "YoutubeSynced": true
    },
    {
      "ID": "IeqMADxkbYI8DOnfcTRcxLF1sdH9IL0ITDffPtY-ldGl1ku2jOoDpA==",
      "Lang": "sn",
      "CaptionKey": "translation",
      "CaptionName": "Dudziro",
      "YoutubeSynced": true
    },
    {
      "ID": "mn7vs05J39-iJg1Uib5vXWA5Ha4DYybMJBoUvH2Ya9eOb1AH_BzMLw==",
      "Lang": "so",
      "CaptionKey": "translation",
      "CaptionName": "Tarjumida",
      "YoutubeSynced": true
    },
    {
      "ID": "mn7vs05J399H_uVSA7gyFKnx_-VM2tIqklNb1lBc6ohNpIfrFAi4eg==",
      "Lang": "sq",
      "CaptionKey": "translation",
      "CaptionName": "përkthim",
      "YoutubeSynced": true
    },
    {
      "ID": "nZMVgD-Y_gKWvRJl-NcWEhDVkWgQd2YT1wcOYj9p8chaOIpzBOq0jw==",
      "Lang": "sr",
      "CaptionKey": "translation",
      "CaptionName": "Превод",
      "YoutubeSynced": true
    },
    {
      "ID": "mn7vs05J398nrbeDZd9iWzRtAfat9uaxjKTFj4kaW3HMCgqUnu1ktQ==",
      "Lang": "st",
      "CaptionKey": "translation",
      "CaptionName": "Phetolelo",
      "YoutubeSynced": true
    },
    {
      "ID": "1B-WswvWtgwV5FbhqEKANtU_fP2W_JYuxFCSx4B0n3YdYdlYpTL6Rw==",
      "Lang": "su",
      "CaptionKey": "translation",
      "CaptionName": "Tarjamahan",
      "YoutubeSynced": true
    },
    {
      "ID": "TAf-xVw9IwtZ_oQqmCBR_OctY8VtYVD7GDY63z8s8EMVmHP_1vX3tg==",
      "Lang": "sv",
      "CaptionKey": "translation",
      "CaptionName": "Översättning",
      "YoutubeSynced": true
    },
    {
      "ID": "IeqMADxkbYLKpgQmOAF045IaLnaLZhK7nwNx2oj-byIUckJWf4BDtA==",
      "Lang": "sw",
      "CaptionKey": "translation",
      "CaptionName": "Tafsiri",
      "YoutubeSynced": true
    },
    {
      "ID": "2COCA3yLO5LIPYbdvG8YI_lnUnw1TPjbb377du9m5mXqs2vdXSapGUaqTNLm0m5PSKoLEIaFo4dGkAZvDvB15F2zOcfdnEwx",
      "Lang": "ta",
      "CaptionKey": "translation",
      "CaptionName": "மொழிபெயர்ப்பு",
      "YoutubeSynced": true
    },
    {
      "ID": "tg5ENBYbs28CtINx03uzmjdOJ4ECdcHqn6pEk3UP4n2wQ5DuFPv5OCy2zfCws-NI",
      "Lang": "te",
      "CaptionKey": "translation",
      "CaptionName": "అనువాదం",
      "YoutubeSynced": true
    },
    {
      "ID": "TAf-xVw9Iwuve8dATeRbHLZmFjv2reBMzjZACTXIGabbMGUAJgdEcg==",
      "Lang": "tg",
      "CaptionKey": "translation",
      "CaptionName": "Тарҷума",
      "YoutubeSynced": true
    },
    {
      "ID": "iKse8HtqKqcUB7eILvZTyu0H1k-C0Hxxu613JJcizg0n9udLXCLL8E9lBLl2fgyX",
      "Lang": "th",
      "CaptionKey": "translation",
      "CaptionName": "การแปล",
      "YoutubeSynced": true
    },
    {
      "ID": "QcocA6ZhOmL3laczmbF1c1G7e59vmt80aBfuJ9vrw70WH8yZ-ek8sg==",
      "Lang": "tr",
      "CaptionKey": "translation",
      "CaptionName": "Tercüme",
      "YoutubeSynced": true
    },
    {
      "ID": "PvjEOCRwKuLrB5sMIwy0Zoau1vdTyPvn1P7KBQ3IBprXS0iXwwRffvxM9xJ9Gno6",
      "Lang": "uk",
      "CaptionKey": "translation",
      "CaptionName": "Переклад",
      "YoutubeSynced": true
    },
    {
      "ID": "1B-WswvWtgxSFoqTlItiyvFbjs2JWtGn4yTtDqkMJLZ-EKZah6KnWg==",
      "Lang": "ur",
      "CaptionKey": "translation",
      "CaptionName": "ترجمہ",
      "YoutubeSynced": true
    },
    {
      "ID": "IeqMADxkbYKsx4UtGS2qoSroAig2ohP837c0fVeaG3sptz1zv3P87Q==",
      "Lang": "uz",
      "CaptionKey": "translation",
      "CaptionName": "Tarjima",
      "YoutubeSynced": true
    },
    {
      "ID": "nFsTUCYt8kDsR8WA-7SN3_lT4MYETh20-NNxplaSpiw=",
      "Lang": "vi",
      "CaptionKey": "translation",
      "CaptionName": "Dịch",
      "YoutubeSynced": true
    },
    {
      "ID": "1B-WswvWtgzIIye60wKCh3hemJOEsZpKIYym_r2E-UDM1VyVZQA-Og==",
      "Lang": "xh",
      "CaptionKey": "translation",
      "CaptionName": "Inguqulelo",
      "YoutubeSynced": true
    },
    {
      "ID": "1D_pUNHJOIbNfYQaUqdAHVjJqRdHJ8KEBv0-ajgV0ulWwV9Rj9514uxjP3Xr3q2A",
      "Lang": "yi",
      "CaptionKey": "translation",
      "CaptionName": "איבערזעצונג",
      "YoutubeSynced": true
    },
    {
      "ID": "IeqMADxkbYKEKl6N-pJP_qsgQBt2sGk-qjHVSBqI41Jaz3g7d9LbcA==",
      "Lang": "yo",
      "CaptionKey": "translation",
      "CaptionName": "Itumọ",
      "YoutubeSynced": true
    },
    {
      "ID": "7AJN-BFbTilLaQ0RgD9tKja8I5Mj5eKMCZnoDRRt9IlTy5eXa2U-Jw==",
      "Lang": "zh-Hans",
      "CaptionKey": "translation",
      "CaptionName": "翻译",
      "YoutubeSynced": true
    },
    {
      "ID": "7AJN-BFbTilLaQ0RgD9tKpUSpMcCNddIJq7cimfS86ji-m1gqBHPaA==",
      "Lang": "zh-Hant",
      "CaptionKey": "translation",
      "CaptionName": "翻譯",
      "YoutubeSynced": true
    },
    {
      "ID": "1B-WswvWtgwFpwDxp3CumX10buI8h6nMKGDvier8Igyq0TsC1OC_lA==",
      "Lang": "zu",
      "CaptionKey": "translation",
      "CaptionName": "Ukuhumusha",
      "YoutubeSynced": true
    }
  ]
}