{
  "VideoFile": "grammar-en-beginner-simple_95_A.mp4",
  "Captions": [
    {
      "ID": "DxJz2vh13Ztbq8fGcKhK896xkCmUhGn7FQ0AhDPj_R0IU6FPFnZNnw==",
      "Lang": "af",
      "CaptionKey": "translation",
      "CaptionName": "vertaling",
      "YoutubeSynced": true
    },
    {
      "ID": "DUMaMJU0J3qOkRrQwTK6uKeshn_gds7FRWg3msnAdy4YgZ39TyktWA==",
      "Lang": "am",
      "CaptionKey": "translation",
      "CaptionName": "ትርጉም",
      "YoutubeSynced": true
    },
    {
      "ID": "o_WoxOvXISbAEFXYfe7HYhw0pRHUG_GnhXfWIj5lHlMrHKxdcwwL4A==",
      "Lang": "ar",
      "CaptionKey": "translation",
      "CaptionName": "ترجمة",
      "YoutubeSynced": true
    },
    {
      "ID": "o_WoxOvXISYo8MM5MJfLwgcCXbnVbJAAAYlu28z2hZuUpn_UbDwfxg==",
      "Lang": "az",
      "CaptionKey": "translation",
      "CaptionName": "Tərcümə",
      "YoutubeSynced": true
    },
    {
      "ID": "tNtCl3SeQ2xttKl7ramQkRWuKIanx_a4hLuptyHpMlNdrWBFoFVOvLCwmQR5KgUo",
      "Lang": "be",
      "CaptionKey": "translation",
      "CaptionName": "Пераклад",
      "YoutubeSynced": true
    },
    {
      "ID": "DUMaMJU0J3q7cCMJosErWXmh2PifSB0DJl-WycfRYXR_eJ2Qb38b0g==",
      "Lang": "bg",
      "CaptionKey": "translation",
      "CaptionName": "превод",
      "YoutubeSynced": true
    },
    {
      "ID": "ciVwQ5Xg56FHPwVeGCg3mDCTApBKAdpIIHUGPgeY_j_hlDd5X50nCgQSlO_xAu7_",
      "Lang": "bn",
      "CaptionKey": "translation",
      "CaptionName": "অনুবাদ",
      "YoutubeSynced": true
    },
    {
      "ID": "srf0k2GyU4adXbswlmyD3sP4COXPFcqLSpBHzvAfkfM=",
      "Lang": "bs",
      "CaptionKey": "translation",
      "CaptionName": "Prevod",
      "YoutubeSynced": true
    },
    {
      "ID": "o_WoxOvXISZgLhDScR5KzQeUmTz2f5hcDqSwMZTq2IHatXBJP5-MdA==",
      "Lang": "ca",
      "CaptionKey": "translation",
      "CaptionName": "Traducció",
      "YoutubeSynced": true
    },
    {
      "ID": "o_WoxOvXISa7v2okLxbEkTw37nATz9SGyvSG9PKHW-1l32Rpruni5g==",
      "Lang": "co",
      "CaptionKey": "translation",
      "CaptionName": "Traduzione",
      "YoutubeSynced": true
    },
    {
      "ID": "yrRwpVmHYt7YyMmiPcrS0wrntSeoO9MN2FjVWMqU2zRQDbBP4X-Mrg==",
      "Lang": "cs",
      "CaptionKey": "translation",
      "CaptionName": "Překlad",
      "YoutubeSynced": true
    },
    {
      "ID": "b60uVSsBvZ7DC6O4cSOt9dnIHTikPbExsxAC8sOUZ7s-t7TMu509MQ==",
      "Lang": "cy",
      "CaptionKey": "translation",
      "CaptionName": "Cyfieithiad",
      "YoutubeSynced": true
    },
    {
      "ID": "f3dOWKykm1hsReEsPMxm5TbHnfV9tWqXOG8ovdQ9p9zAdXqY2j9RHw==",
      "Lang": "da",
      "CaptionKey": "translation",
      "CaptionName": "Oversættelse",
      "YoutubeSynced": true
    },
    {
      "ID": "DUMaMJU0J3oYYTtekoLJ-RApKnITmUYOgDSEGDhTBPCc1sKb2peYGw==",
      "Lang": "de",
      "CaptionKey": "translation",
      "CaptionName": "Übersetzung",
      "YoutubeSynced": true
    },
    {
      "ID": "ciVwQ5Xg56FTbQ3vORnThpBs8A291q-J642OiXBsdQ1H2zx8DTurXuFH3iV_gD9c",
      "Lang": "el",
      "CaptionKey": "translation",
      "CaptionName": "Μετάφραση",
      "YoutubeSynced": true
    },
    {
      "ID": "b60uVSsBvZ6nbOSLYHHABFxiQ86LWZDAt3J0LaatDdgoByrOVuRmgQ==",
      "Lang": "en",
      "CaptionKey": "translation",
      "CaptionName": "Translation",
      "YoutubeSynced": true
    },
    {
      "ID": "R7htNzLUdfzsz_PBUZNOOz-4Ixe6lNLIf2jqsF6N84j7JOgN7SEVlYcd4pU4bA6J",
      "Lang": "en",
      "CaptionKey": "ruby",
      "CaptionName": "Pronunciation - IPA",
      "YoutubeSynced": true
    },
    {
      "ID": "b60uVSsBvZ67HP1Hmerawy_x-8hF2tl0W3eWifzcuKFFrF18-FmcjA==",
      "Lang": "es",
      "CaptionKey": "translation",
      "CaptionName": "Traducción",
      "YoutubeSynced": true
    },
    {
      "ID": "srf0k2GyU4YDGXQtV6NGCPYYEovwC4VSlYqoybuNa1c=",
      "Lang": "et",
      "CaptionKey": "translation",
      "CaptionName": "Tõlge",
      "YoutubeSynced": true
    },
    {
      "ID": "DxJz2vh13ZsaM2ZjcmouJIiy0AOXm_ybR12_xFtDVOhjiD1m1JOyHA==",
      "Lang": "eu",
      "CaptionKey": "translation",
      "CaptionName": "Itzulpena",
      "YoutubeSynced": true
    },
    {
      "ID": "o_WoxOvXISbH8u-Wd74q3JvYd6xLqTsLQinvI88ZrSJugKPE5OlFrA==",
      "Lang": "fa",
      "CaptionKey": "translation",
      "CaptionName": "ترجمه",
      "YoutubeSynced": true
    },
    {
      "ID": "o_WoxOvXISZLceU3G9qf8JFl1AmgVFVcD86SPnXztNIfTizgsydXpg==",
      "Lang": "fi",
      "CaptionKey": "translation",
      "CaptionName": "Käännös",
      "YoutubeSynced": true
    },
    {
      "ID": "b60uVSsBvZ67mZzj-znruVWyd7YuQJgjPxWdX9PyQtPnosjqophpaA==",
      "Lang": "fil",
      "CaptionKey": "translation",
      "CaptionName": "Pagsasalin",
      "YoutubeSynced": true
    },
    {
      "ID": "o_WoxOvXISY-Pb0PP6qw5D38PivKkBIc8Jkz7gI1V9R6m2o-nSs4ig==",
      "Lang": "fr",
      "CaptionKey": "translation",
      "CaptionName": "Traduction",
      "YoutubeSynced": true
    },
    {
      "ID": "o_WoxOvXISY1cVomGYi-ts8NyExMb-3_nzavUS3KsBPiLQxvV3XZag==",
      "Lang": "fy",
      "CaptionKey": "translation",
      "CaptionName": "Oersetting",
      "YoutubeSynced": true
    },
    {
      "ID": "ciVwQ5Xg56FkOgM3fm7oxTdB5fuVYKicxNb9lmTsauzJBc2bNshc7OkLl8yaY3yX",
      "Lang": "gd",
      "CaptionKey": "translation",
      "CaptionName": "Eadar-theangachadh",
      "YoutubeSynced": true
    },
    {
      "ID": "o_WoxOvXISZcMZDsEiIeHrEJOrZ8UCn_kiLiW_3-MWG0FehWIYhBpg==",
      "Lang": "gl",
      "CaptionKey": "translation",
      "CaptionName": "Tradución",
      "YoutubeSynced": true
    },
    {
      "ID": "ciVwQ5Xg56EJo7-tcMUuAvJiZt04CPG_BFRVDWFRyNwpOnKUooaZAPzhBnpio3da",
      "Lang": "gu",
      "CaptionKey": "translation",
      "CaptionName": "અનુવાદ",
      "YoutubeSynced": true
    },
    {
      "ID": "oFNwJn46zPY1EmbfA5vTAgDoCAFMEHRO_ElJeXHRGIpWhA8yGrXFPQ==",
      "Lang": "ha",
      "CaptionKey": "translation",
      "CaptionName": "Fassara",
      "YoutubeSynced": true
    },
    {
      "ID": "ciVwQ5Xg56EBM4edcE2S1rMhBpTu40dJZ5npLvPV8X1FQdWcCyTSGlYSeQeiWMkl",
      "Lang": "hi",
      "CaptionKey": "translation",
      "CaptionName": "अनुवाद",
      "YoutubeSynced": true
    },
    {
      "ID": "yrRwpVmHYt76BHOa_hLKC1PguK5ThtMBAVblgoM-ABUz-N4bBO-nww==",
      "Lang": "hr",
      "CaptionKey": "translation",
      "CaptionName": "Prijevod",
      "YoutubeSynced": true
    },
    {
      "ID": "o_WoxOvXISa25jA_aN1Tl2zMQlut8jJB2JDBrrGBWpuVI0B5YS3rfQ==",
      "Lang": "hu",
      "CaptionKey": "translation",
      "CaptionName": "Fordítás",
      "YoutubeSynced": true
    },
    {
      "ID": "r0NggLnLsvFpeAI30v_MwxHNJcVuooGAAXz3Vp8tDbGm4taDrGE7uWPS6IACTYl4nlf5P2xR4eA=",
      "Lang": "hy",
      "CaptionKey": "translation",
      "CaptionName": "Թարգմանություն",
      "YoutubeSynced": true
    },
    {
      "ID": "o_WoxOvXISaD2c0X7rZ9M_9ikshYYSnDvkqyypHCmLWFryx9iWacDA==",
      "Lang": "id",
      "CaptionKey": "translation",
      "CaptionName": "Terjemahan",
      "YoutubeSynced": true
    },
    {
      "ID": "yrRwpVmHYt79yGblW8BFLvhxv3P0GmOEycQR0kA812AFjZiLkY_wtw==",
      "Lang": "ig",
      "CaptionKey": "translation",
      "CaptionName": "Ntughari",
      "YoutubeSynced": true
    },
    {
      "ID": "DxJz2vh13ZsRh5lTcm5Kaxk3qyF_jUqSjIGogMSHoIM8GzGVa4fFew==",
      "Lang": "is",
      "CaptionKey": "translation",
      "CaptionName": "Þýðing",
      "YoutubeSynced": true
    },
    {
      "ID": "o_WoxOvXISai_o9N0-8UXf736O1rSZ77xGrKxAuBm65x0sTMuBlW6g==",
      "Lang": "it",
      "CaptionKey": "translation",
      "CaptionName": "Traduzione",
      "YoutubeSynced": true
    },
    {
      "ID": "o_WoxOvXISaAh1u1usdNM57LLlP07D7pSXU8TkJgcYzwZnM6_gohng==",
      "Lang": "iw",
      "CaptionKey": "translation",
      "CaptionName": "תרגום",
      "YoutubeSynced": true
    },
    {
      "ID": "srf0k2GyU4Y6CRF0Su0mRvPWaJolFzgziD_WXp9Nkyk=",
      "Lang": "ja",
      "CaptionKey": "translation",
      "CaptionName": "翻訳",
      "YoutubeSynced": true
    },
    {
      "ID": "DxJz2vh13ZvjJGfJl9xGUE9jvMTXWI09QdS88C4oF16RHnDbU_fPZQ==",
      "Lang": "jv",
      "CaptionKey": "translation",
      "CaptionName": "Ngartekne",
      "YoutubeSynced": true
    },
    {
      "ID": "s7JVQ2VO9YCs2tu-41KxSXkXM-SPXTWQWKvrTaFyWwXx05Kbb_s-dRI0mxeolMEAiYXm9BoYwEE=",
      "Lang": "ka",
      "CaptionKey": "translation",
      "CaptionName": "თარგმანი",
      "YoutubeSynced": true
    },
    {
      "ID": "z8_SOXCWV8_0Cx1J_txv_5mCyn615z9ia_IXPXrpw33J_wHmFjmEvQ==",
      "Lang": "kk",
      "CaptionKey": "translation",
      "CaptionName": "Аударма",
      "YoutubeSynced": true
    },
    {
      "ID": "GELUu84dWclQja00aZlNOzMmPXnXMAJbMyIFLiquOXQsjbro-IUtmEp9WkuNrpLrSQphfONRxBU=",
      "Lang": "km",
      "CaptionKey": "translation",
      "CaptionName": "ការបកប្រែ",
      "YoutubeSynced": true
    },
    {
      "ID": "ciVwQ5Xg56G62lKZd2_nTJDwNU89NVhmjbU7ESbSPqhNw0Fj0u0CO1T53dO3BFU2",
      "Lang": "kn",
      "CaptionKey": "translation",
      "CaptionName": "ಅನುವಾದ",
      "YoutubeSynced": true
    },
    {
      "ID": "srf0k2GyU4bris-ormQy5IMkg_Z4PQdrCj-1JzNo96o=",
      "Lang": "ko",
      "CaptionKey": "translation",
      "CaptionName": "번역",
      "YoutubeSynced": true
    },
    {
      "ID": "srf0k2GyU4YwWFNdazrfeNUzrPwd7hZpccTm0It3Ubk=",
      "Lang": "ku",
      "CaptionKey": "translation",
      "CaptionName": "Werger",
      "YoutubeSynced": true
    },
    {
      "ID": "z8_SOXCWV8-hMrFC3GFC9XOkvJcxS-EXqz4_eROGoqDRNJqATLy7uw==",
      "Lang": "ky",
      "CaptionKey": "translation",
      "CaptionName": "котормо",
      "YoutubeSynced": true
    },
    {
      "ID": "DUMaMJU0J3o8VoBnfKw7M5bHuzJd_EBOCisgS2MRjdMyTde-_UeUpw==",
      "Lang": "lb",
      "CaptionKey": "translation",
      "CaptionName": "Iwwersetzung",
      "YoutubeSynced": true
    },
    {
      "ID": "GELUu84dWcmf2CRHf2k8XyM5lZppNrfpXuNvkyDoOVRWEa8meL42WDHikkeNgTHR47RjUZO3LAs=",
      "Lang": "lo",
      "CaptionKey": "translation",
      "CaptionName": "ການແປພາສາ",
      "YoutubeSynced": true
    },
    {
      "ID": "yrRwpVmHYt6A-JwXoEth9hI1cTiR3VFhV4Yp7OQ2UM5tpZXsFUL7KA==",
      "Lang": "lt",
      "CaptionKey": "translation",
      "CaptionName": "Vertimas",
      "YoutubeSynced": true
    },
    {
      "ID": "o_WoxOvXISYHxj5KorNyqnn5Oc9wQyL5ctyolCHnEtfkK3JrV0ke2A==",
      "Lang": "lv",
      "CaptionKey": "translation",
      "CaptionName": "Tulkošana",
      "YoutubeSynced": true
    },
    {
      "ID": "b60uVSsBvZ4-vHdW8gr1g-c-F8Q75p4f7jTHfwDEjrA8cSS7GyN_Hw==",
      "Lang": "mg",
      "CaptionKey": "translation",
      "CaptionName": "Translation",
      "YoutubeSynced": true
    },
    {
      "ID": "yrGzTypp8jBM36Mot9qMEnios88cvjzsUqW1mfdJbc8DR62ddNwbgRvUxVO21T20",
      "Lang": "mi",
      "CaptionKey": "translation",
      "CaptionName": "Whakamaoritanga",
      "YoutubeSynced": true
    },
    {
      "ID": "DUMaMJU0J3okE1s_L0kt4JMYqRJ84apWDEJBB0XwB3efFG0xe-amiA==",
      "Lang": "mk",
      "CaptionKey": "translation",
      "CaptionName": "Превод",
      "YoutubeSynced": true
    },
    {
      "ID": "GELUu84dWckWKFZQxSj-Wcr_UnGXNzxlrSN98rMoQQzmn6CzvcDOP_ehPkEjBukziWV7iKUnN7s=",
      "Lang": "ml",
      "CaptionKey": "translation",
      "CaptionName": "വിവർത്തനം",
      "YoutubeSynced": true
    },
    {
      "ID": "tNtCl3SeQ2wQXN6NY8hOlGygjaz1eukgrOSM4H8bg5zu9dw8q8uqMCPupvhyRfgq",
      "Lang": "mn",
      "CaptionKey": "translation",
      "CaptionName": "Орчуулга",
      "YoutubeSynced": true
    },
    {
      "ID": "76hkqj6_UoSo3mC47OJbklRPEq4X4kWzTr1Zi2eJ5QivELENNssfye9na0kGhNA3",
      "Lang": "mr",
      "CaptionKey": "translation",
      "CaptionName": "भाषांतर",
      "YoutubeSynced": true
    },
    {
      "ID": "o_WoxOvXISYDXTR-nB9c6_c3E87q_yXXIVkDGHwCHCVIvb4mx6GpUQ==",
      "Lang": "ms",
      "CaptionKey": "translation",
      "CaptionName": "Terjemahan",
      "YoutubeSynced": true
    },
    {
      "ID": "b60uVSsBvZ5SMIsy0G-wdGuNrW5vHIgITDUFMUbbTVJjTK9-XVKtww==",
      "Lang": "mt",
      "CaptionKey": "translation",
      "CaptionName": "Traduzzjoni",
      "YoutubeSynced": true
    },
    {
      "ID": "s7JVQ2VO9YAIrQ6VIQhvz705HGrE-eH_sUTzxWht30sg9FWo5zC4s731rrO0p7zC8yhNck44alU=",
      "Lang": "my",
      "CaptionKey": "translation",
      "CaptionName": "ဘာသာပြန်",
      "YoutubeSynced": true
    },
    {
      "ID": "ciVwQ5Xg56EhQzzBxLHKZvoRGow44xxnVnarNAQemVlLnndo8rV8SJnEDEhsm42-",
      "Lang": "ne",
      "CaptionKey": "translation",
      "CaptionName": "अनुवाद",
      "YoutubeSynced": true
    },
    {
      "ID": "DxJz2vh13ZucfWbrnxXTuI39pnGRqNTnx8N7VxgfSJDpV0VvO5hJbw==",
      "Lang": "nl",
      "CaptionKey": "translation",
      "CaptionName": "Vertaling",
      "YoutubeSynced": true
    },
    {
      "ID": "DUMaMJU0J3rCKtq5v20vc6TL-16YeR3mSblDkpF9tOAjwbQjkjjcpA==",
      "Lang": "no",
      "CaptionKey": "translation",
      "CaptionName": "Oversettelse",
      "YoutubeSynced": true
    },
    {
      "ID": "ciVwQ5Xg56FvggClC9zY5VO52rfaq8M-LxgQJsezL9ivsp9yevhB4lGpTz3UJkgd",
      "Lang": "pa",
      "CaptionKey": "translation",
      "CaptionName": "ਅਨੁਵਾਦ",
      "YoutubeSynced": true
    },
    {
      "ID": "DUMaMJU0J3pmonrSlUEK5I_ORaPEwNwpU675LXV14pDpFgcaQAJSiA==",
      "Lang": "pl",
      "CaptionKey": "translation",
      "CaptionName": "Tłumaczenie",
      "YoutubeSynced": true
    },
    {
      "ID": "o_WoxOvXISYH93Gxm1tyUTRwkR6wla_DliCk_-oIv-H0C6MTZcYUnw==",
      "Lang": "ps",
      "CaptionKey": "translation",
      "CaptionName": "ژباړه",
      "YoutubeSynced": true
    },
    {
      "ID": "o_WoxOvXISaU4xJ5EoD9aKylahv2d7tha-lnxZHKLuQEZbwPRRNzQQ==",
      "Lang": "pt",
      "CaptionKey": "translation",
      "CaptionName": "Tradução",
      "YoutubeSynced": true
    },
    {
      "ID": "DxJz2vh13Zu-rOHMyb_B44n2zSvl1mtGxwDQNMisXN7zcBnivOGzpw==",
      "Lang": "ro",
      "CaptionKey": "translation",
      "CaptionName": "Traducere",
      "YoutubeSynced": true
    },
    {
      "ID": "z8_SOXCWV8-otvKmlh1uUyXiMNW_KUAVxOepjr7bD3X5usJOd_taGA==",
      "Lang": "ru",
      "CaptionKey": "translation",
      "CaptionName": "Перевод",
      "YoutubeSynced": true
    },
    {
      "ID": "o_WoxOvXISaawCV9UEkX8rGtMhIz7pWLF-g9xToVSSdR0vhHd3MMOA==",
      "Lang": "sd",
      "CaptionKey": "translation",
      "CaptionName": "ترجمو",
      "YoutubeSynced": true
    },
    {
      "ID": "GELUu84dWckUnl-fTA0sDzDwTo7TAKNvIVtblnwR0OAAfJ5Ahsuhtp1-aR589JMEU2O0bpcLKL4=",
      "Lang": "si",
      "CaptionKey": "translation",
      "CaptionName": "පරිවර්තනය",
      "YoutubeSynced": true
    },
    {
      "ID": "oFNwJn46zPZ1juDK52csfpS8wwt9bL5_D1qsi9UXE5_egyGwgrrRyQ==",
      "Lang": "sk",
      "CaptionKey": "translation",
      "CaptionName": "preklad",
      "YoutubeSynced": true
    },
    {
      "ID": "srf0k2GyU4bTdtN00fk1wMI7Ebpj5XGoqoIuZ_qXKlY=",
      "Lang": "sl",
      "CaptionKey": "translation",
      "CaptionName": "Prevod",
      "YoutubeSynced": true
    },
    {
      "ID": "DUMaMJU0J3o9cwSAXaHfLtY1qMMh_6YElnKAlCHA4HfS4dI-PJcBTw==",
      "Lang": "sm",
      "CaptionKey": "translation",
      "CaptionName": "Faʻaliliuga",
      "YoutubeSynced": true
    },
    {
      "ID": "oFNwJn46zPZF5e9voUg2AIJMNM4TOe5LIfL5q39bg1M25BCMerGpcg==",
      "Lang": "sn",
      "CaptionKey": "translation",
      "CaptionName": "Dudziro",
      "YoutubeSynced": true
    },
    {
      "ID": "DxJz2vh13ZsVNIF9-qy0RyNycl8kuFYS5axfI3O9qKtzOsZOY6aC1Q==",
      "Lang": "so",
      "CaptionKey": "translation",
      "CaptionName": "Tarjumida",
      "YoutubeSynced": true
    },
    {
      "ID": "DxJz2vh13ZuySGnt3kwGXUODs-J-MFfX6LHpyfRkhjt1M-HhWOrE0A==",
      "Lang": "sq",
      "CaptionKey": "translation",
      "CaptionName": "përkthim",
      "YoutubeSynced": true
    },
    {
      "ID": "DUMaMJU0J3ptAmnOlqElIwIcsT7kaivk4K0QJft0V2_riNoH78tAdw==",
      "Lang": "sr",
      "CaptionKey": "translation",
      "CaptionName": "Превод",
      "YoutubeSynced": true
    },
    {
      "ID": "DxJz2vh13ZsVDoZHDBgkTEfKzh80zTddng3wedZByEwgXEMljxxemw==",
      "Lang": "st",
      "CaptionKey": "translation",
      "CaptionName": "Phetolelo",
      "YoutubeSynced": true
    },
    {
      "ID": "o_WoxOvXISZbFZBGvkbdJdeiizkhd0u80PEIx9BPUY_-Gkfnk9oQJQ==",
      "Lang": "su",
      "CaptionKey": "translation",
      "CaptionName": "Tarjamahan",
      "YoutubeSynced": true
    },
    {
      "ID": "z8_SOXCWV8-Z8tdbmkijYVckJd5W4etvYWE_7YeYOpAov31Sdq8MZA==",
      "Lang": "sv",
      "CaptionKey": "translation",
      "CaptionName": "Översättning",
      "YoutubeSynced": true
    },
    {
      "ID": "oFNwJn46zPYC7r8AL7NjkCV4efBy9lLliCSvvfwv_fmCsK9WAv3V2g==",
      "Lang": "sw",
      "CaptionKey": "translation",
      "CaptionName": "Tafsiri",
      "YoutubeSynced": true
    },
    {
      "ID": "B9oTXFSRcKfu7xGDBb1xKWmwS-t0Mz21r128Yp6pwlZ_egwjcD6p5L0_K4Ugq2FeYIUMt2rea0SajW9Jgl-Yi7eMhWSPiVIi",
      "Lang": "ta",
      "CaptionKey": "translation",
      "CaptionName": "மொழிபெயர்ப்பு",
      "YoutubeSynced": true
    },
    {
      "ID": "76hkqj6_UoSSemJh9b0LgQAHJX559i2t5rxPVXSojoo95WmiUwuKYacMKYyJtCwc",
      "Lang": "te",
      "CaptionKey": "translation",
      "CaptionName": "అనువాదం",
      "YoutubeSynced": true
    },
    {
      "ID": "z8_SOXCWV8_yibhRZIO8IJOtS5CGnW3785TSRGQvz_qPTh4_yT_cvQ==",
      "Lang": "tg",
      "CaptionKey": "translation",
      "CaptionName": "Тарҷума",
      "YoutubeSynced": true
    },
    {
      "ID": "ciVwQ5Xg56E4Mkl0VTjpdv5ib1sv9rqKPfA4oVYBZWlKVz1D54NamfsP5sJ_C0zb",
      "Lang": "th",
      "CaptionKey": "translation",
      "CaptionName": "การแปล",
      "YoutubeSynced": true
    },
    {
      "ID": "yrRwpVmHYt6Mh6PyrcE76sBg1T0cPTPu0H4AGxVpNeCE1i6YAizHew==",
      "Lang": "tr",
      "CaptionKey": "translation",
      "CaptionName": "Tercüme",
      "YoutubeSynced": true
    },
    {
      "ID": "tNtCl3SeQ2znBiENntqtUchPKZMeP_IPVoH2gMd_w7Dgy_iVlvkKKouVBXo3nyCk",
      "Lang": "uk",
      "CaptionKey": "translation",
      "CaptionName": "Переклад",
      "YoutubeSynced": true
    },
    {
      "ID": "o_WoxOvXISZmOMu5_sIW9ehN8mpE-F3iRbdV4Mar218Bdyin-5j2lA==",
      "Lang": "ur",
      "CaptionKey": "translation",
      "CaptionName": "ترجمہ",
      "YoutubeSynced": true
    },
    {
      "ID": "oFNwJn46zPbMKCJfHzy6XTxtmdWlmF9h1jMLoCOasdmrgt3YN8bYJA==",
      "Lang": "uz",
      "CaptionKey": "translation",
      "CaptionName": "Tarjima",
      "YoutubeSynced": true
    },
    {
      "ID": "srf0k2GyU4apYDWfUsTm6yC9IDqUjIc773s5DiqCtlw=",
      "Lang": "vi",
      "CaptionKey": "translation",
      "CaptionName": "Dịch",
      "YoutubeSynced": true
    },
    {
      "ID": "o_WoxOvXISbGbgz_UXU24VUkkLh65yZIqbP8zE2ssSY6gxjRohyWDw==",
      "Lang": "xh",
      "CaptionKey": "translation",
      "CaptionName": "Inguqulelo",
      "YoutubeSynced": true
    },
    {
      "ID": "JCPzKaABmfkhgSY2aaugKRXAafSqdnysAZL1CdTeQUDuwNCXaVA8H-2dt0nNPwqY",
      "Lang": "yi",
      "CaptionKey": "translation",
      "CaptionName": "איבערזעצונג",
      "YoutubeSynced": true
    },
    {
      "ID": "oFNwJn46zPaTA5JBpXXrqlbbvCRpK9EVdQMs79pgJD2TFXw6coDXpg==",
      "Lang": "yo",
      "CaptionKey": "translation",
      "CaptionName": "Itumọ",
      "YoutubeSynced": true
    },
    {
      "ID": "b60uVSsBvZ4mOWI9dNME_6YKHgKdwtma3ERAqInmZJ03voLnh3bdFA==",
      "Lang": "zh-Hans",
      "CaptionKey": "translation",
      "CaptionName": "翻译",
      "YoutubeSynced": true
    },
    {
      "ID": "b60uVSsBvZ4mOWI9dNME_66SYP_8y9P9eVBtdcPo-Fsw14gwBXTz5Q==",
      "Lang": "zh-Hant",
      "CaptionKey": "translation",
      "CaptionName": "翻譯",
      "YoutubeSynced": true
    },
    {
      "ID": "o_WoxOvXISb15vjfx4VIRKcx2LgUBV8MU04M4zJCTG0nJhL_fR2yug==",
      "Lang": "zu",
      "CaptionKey": "translation",
      "CaptionName": "Ukuhumusha",
      "YoutubeSynced": true
    }
  ]
}