{
  "VideoFile": "grammar-en-beginner-simple_57_A.mp4",
  "Captions": [
    {
      "ID": "TOeHwMykRx81w_cnlAHpjaUdZwxKAYa8wnUlX9KW7REO58vjaU7p_g==",
      "Lang": "af",
      "CaptionKey": "translation",
      "CaptionName": "vertaling",
      "YoutubeSynced": true
    },
    {
      "ID": "u5TGj36dxeH94J6tnOUNUTckSYqULJQLgAhsYY9kSczlZJMfuqo0Lg==",
      "Lang": "am",
      "CaptionKey": "translation",
      "CaptionName": "ትርጉም",
      "YoutubeSynced": true
    },
    {
      "ID": "PJiG_LsZ-6zDTQJ1u_MkFb0LW3Upd8aPivuJTK70W1tiW6dLzL9XLQ==",
      "Lang": "ar",
      "CaptionKey": "translation",
      "CaptionName": "ترجمة",
      "YoutubeSynced": true
    },
    {
      "ID": "PJiG_LsZ-6wJIsv48v4JMAPbW7bailzwoeNsP1NtULEN8vX9pP37nw==",
      "Lang": "az",
      "CaptionKey": "translation",
      "CaptionName": "Tərcümə",
      "YoutubeSynced": true
    },
    {
      "ID": "dw6ccbb6Wrwv1Fjdlfk3hjoymkO0p1mupASw_tOSbsEM8pMRigAnK1PO5Etsc6GW",
      "Lang": "be",
      "CaptionKey": "translation",
      "CaptionName": "Пераклад",
      "YoutubeSynced": true
    },
    {
      "ID": "u5TGj36dxeG8sTOX9wAJ_NbAfeU1oHoqI5abOe1ew3LEWRx3lckBLA==",
      "Lang": "bg",
      "CaptionKey": "translation",
      "CaptionName": "превод",
      "YoutubeSynced": true
    },
    {
      "ID": "n5AbFCJtr2Kol2fWyfkM4ruDJ-9K3FPgRlmIED2aej-mZP8HYR5aRgch-19Tw1N6",
      "Lang": "bn",
      "CaptionKey": "translation",
      "CaptionName": "অনুবাদ",
      "YoutubeSynced": true
    },
    {
      "ID": "rxS7veBuB8qELkGtw2aUvWZPtYONWnWeyXrgGsVHZew=",
      "Lang": "bs",
      "CaptionKey": "translation",
      "CaptionName": "Prevod",
      "YoutubeSynced": true
    },
    {
      "ID": "PJiG_LsZ-6zqJ6RyslymnpGzyClOQCef9vqm7zgE9Z5YGJeCPhdsjw==",
      "Lang": "ca",
      "CaptionKey": "translation",
      "CaptionName": "Traducció",
      "YoutubeSynced": true
    },
    {
      "ID": "PJiG_LsZ-6xyMREkQXiAEn7U_MR1GXCxLpnTdR-FYcgbuZXbLHZFuw==",
      "Lang": "co",
      "CaptionKey": "translation",
      "CaptionName": "Traduzione",
      "YoutubeSynced": true
    },
    {
      "ID": "tw7XleEj7DMlCkk5YIFLuwVq0F6dIZtppIYc25LM5_UvKDpmz3ZBKg==",
      "Lang": "cs",
      "CaptionKey": "translation",
      "CaptionName": "Překlad",
      "YoutubeSynced": true
    },
    {
      "ID": "NBNiaRw83k-o9O79T1VMmI3NZeKUYP6IHYKAZDZVTxuQIx0IB9h1DQ==",
      "Lang": "cy",
      "CaptionKey": "translation",
      "CaptionName": "Cyfieithiad",
      "YoutubeSynced": true
    },
    {
      "ID": "vQq_ooRDvMsjiK6Isa-sx7dSpiEz_EvL03WDAVgBXMs2p_Aw44NA1g==",
      "Lang": "da",
      "CaptionKey": "translation",
      "CaptionName": "Oversættelse",
      "YoutubeSynced": true
    },
    {
      "ID": "u5TGj36dxeGI2uD7umNi1XytDl0xkYeSHTp6AOotv6TLntZvHCh6UQ==",
      "Lang": "de",
      "CaptionKey": "translation",
      "CaptionName": "Übersetzung",
      "YoutubeSynced": true
    },
    {
      "ID": "n5AbFCJtr2IoJH5x_q16CT3gVMDCIHnrh__BCPDWHTJWM2R1Ws2j0ppxq5BNfGFt",
      "Lang": "el",
      "CaptionKey": "translation",
      "CaptionName": "Μετάφραση",
      "YoutubeSynced": true
    },
    {
      "ID": "NBNiaRw83k874LKU9qRE0SiMzVKFPro_3lVrCSraMdrYHmm2dIa1Rg==",
      "Lang": "en",
      "CaptionKey": "translation",
      "CaptionName": "Translation",
      "YoutubeSynced": true
    },
    {
      "ID": "PDgDWc83c46rooVWvsye7Sgr6Tboj2vxoYO-S5WJROxNme-g_ChEVHkBrzeIpzH8",
      "Lang": "en",
      "CaptionKey": "ruby",
      "CaptionName": "Pronunciation - IPA",
      "YoutubeSynced": true
    },
    {
      "ID": "NBNiaRw83k8HPUQH9lKyq2GreMhRckYnpRJlbTJMJu0esLpCez-Nhg==",
      "Lang": "es",
      "CaptionKey": "translation",
      "CaptionName": "Traducción",
      "YoutubeSynced": true
    },
    {
      "ID": "rxS7veBuB8oMQKprZebKbCJ61HXQvQRvbXJSKDhFZUE=",
      "Lang": "et",
      "CaptionKey": "translation",
      "CaptionName": "Tõlge",
      "YoutubeSynced": true
    },
    {
      "ID": "TOeHwMykRx_9B9jd9NkdfvI5hr0has0Pin_QgvZjptacEkmhT5mDIw==",
      "Lang": "eu",
      "CaptionKey": "translation",
      "CaptionName": "Itzulpena",
      "YoutubeSynced": true
    },
    {
      "ID": "PJiG_LsZ-6yhKN6yBLMDy-prOeE3UvLPjB8iPsxTP0YoI2lmD37REA==",
      "Lang": "fa",
      "CaptionKey": "translation",
      "CaptionName": "ترجمه",
      "YoutubeSynced": true
    },
    {
      "ID": "PJiG_LsZ-6z30EblEbciHZ1_IaRKflit9cd7BdKarBbsaCjBXEry8w==",
      "Lang": "fi",
      "CaptionKey": "translation",
      "CaptionName": "Käännös",
      "YoutubeSynced": true
    },
    {
      "ID": "NBNiaRw83k-TBp9wv0lDgUwxlpaeCEDYPxT1tp7hwp3iwiqfPfXQXg==",
      "Lang": "fil",
      "CaptionKey": "translation",
      "CaptionName": "Pagsasalin",
      "YoutubeSynced": true
    },
    {
      "ID": "PJiG_LsZ-6zZkNFateBvK0pDDgsAfyaxF5Po2hElUglOgyphOcUVBA==",
      "Lang": "fr",
      "CaptionKey": "translation",
      "CaptionName": "Traduction",
      "YoutubeSynced": true
    },
    {
      "ID": "PJiG_LsZ-6ybtoLjg2h9V1DXNipgXlBaotgxLoD3In51nxCmPix2fA==",
      "Lang": "fy",
      "CaptionKey": "translation",
      "CaptionName": "Oersetting",
      "YoutubeSynced": true
    },
    {
      "ID": "n5AbFCJtr2Jf79dNXP2iLAoiLF6QA971c6L4Ap_IW7deBwwrOGNukgRvplghho_B",
      "Lang": "gd",
      "CaptionKey": "translation",
      "CaptionName": "Eadar-theangachadh",
      "YoutubeSynced": true
    },
    {
      "ID": "PJiG_LsZ-6wOuXVCrDa4uWqaRHVuxh_OidZMlJpA_HyVTryg-b4cGg==",
      "Lang": "gl",
      "CaptionKey": "translation",
      "CaptionName": "Tradución",
      "YoutubeSynced": true
    },
    {
      "ID": "n5AbFCJtr2KV99mFCM6DCb_b55bKv4prhH1xn-m8Ri4NCRgwemFWJPR28oXv-3dj",
      "Lang": "gu",
      "CaptionKey": "translation",
      "CaptionName": "અનુવાદ",
      "YoutubeSynced": true
    },
    {
      "ID": "MCj7S7ut6CpSpHy6WeVi7BEvFWn-kBkLrMm1RBzzpnw1Y1BSY_WPMw==",
      "Lang": "ha",
      "CaptionKey": "translation",
      "CaptionName": "Fassara",
      "YoutubeSynced": true
    },
    {
      "ID": "n5AbFCJtr2K7LDkigr4DIGgTckH4eR2plcW-9oZYVbGpuZJ_rJkXD4iQGR2RScFZ",
      "Lang": "hi",
      "CaptionKey": "translation",
      "CaptionName": "अनुवाद",
      "YoutubeSynced": true
    },
    {
      "ID": "tw7XleEj7DNR5iBlTm-8gk7NOiSYNbIrs1mr3MDEp6EWJES_wSyG5Q==",
      "Lang": "hr",
      "CaptionKey": "translation",
      "CaptionName": "Prijevod",
      "YoutubeSynced": true
    },
    {
      "ID": "PJiG_LsZ-6wCAxtBjO9C3jgU3YoZ8fViPROp9GIFKW5PQT-Xoqdv2w==",
      "Lang": "hu",
      "CaptionKey": "translation",
      "CaptionName": "Fordítás",
      "YoutubeSynced": true
    },
    {
      "ID": "qGVJXj1G1MY11_HHydv9nZnl2w2HerPSMK7vxR26JitoudjzrgmclpOPRZKPqpx53gQ9I-RQ0vU=",
      "Lang": "hy",
      "CaptionKey": "translation",
      "CaptionName": "Թարգմանություն",
      "YoutubeSynced": true
    },
    {
      "ID": "PJiG_LsZ-6y5Fv1OeGT6NdD7IeXEcNoXh_-NXjJkuOMwo5xIF6ei0w==",
      "Lang": "id",
      "CaptionKey": "translation",
      "CaptionName": "Terjemahan",
      "YoutubeSynced": true
    },
    {
      "ID": "tw7XleEj7DN_PjtF6e1X7Rkis4-z9CB2KHyvDU368O1DGPzHMzlM1A==",
      "Lang": "ig",
      "CaptionKey": "translation",
      "CaptionName": "Ntughari",
      "YoutubeSynced": true
    },
    {
      "ID": "TOeHwMykRx8AuwlvseTP3Eaaxufx3t5oxyx21ee_L9zFkjaHM5Nzxw==",
      "Lang": "is",
      "CaptionKey": "translation",
      "CaptionName": "Þýðing",
      "YoutubeSynced": true
    },
    {
      "ID": "PJiG_LsZ-6xnWbQ5DOxLOMy0UjJx0VepSgxFhHBV7ZnjJZvbww0oVw==",
      "Lang": "it",
      "CaptionKey": "translation",
      "CaptionName": "Traduzione",
      "YoutubeSynced": true
    },
    {
      "ID": "PJiG_LsZ-6xYDaWwZalCp3LWHK7cwb4aQR8je1viX246cSTT0LKFSA==",
      "Lang": "iw",
      "CaptionKey": "translation",
      "CaptionName": "תרגום",
      "YoutubeSynced": true
    },
    {
      "ID": "rxS7veBuB8r8r27u4Aw6HIwNk-l5QexJ6ONg3MmoeQA=",
      "Lang": "ja",
      "CaptionKey": "translation",
      "CaptionName": "翻訳",
      "YoutubeSynced": true
    },
    {
      "ID": "TOeHwMykRx8Kwa1YhHwXtcXzI3waNXcNVaRakWoxU-Lm2j-yAEIdFA==",
      "Lang": "jv",
      "CaptionKey": "translation",
      "CaptionName": "Ngartekne",
      "YoutubeSynced": true
    },
    {
      "ID": "gH99cx5N-J08PjDCEMZFcOHZvmuF3NFSTsEfwQzbKhjzZCJSrxMzUk13nxFCBG0KECQPNLVvza0=",
      "Lang": "ka",
      "CaptionKey": "translation",
      "CaptionName": "თარგმანი",
      "YoutubeSynced": true
    },
    {
      "ID": "ROpgCPslV633NhiqCS6ppFBRbfCZOx0pwN8xhhQYO5rMdf_g4W73tw==",
      "Lang": "kk",
      "CaptionKey": "translation",
      "CaptionName": "Аударма",
      "YoutubeSynced": true
    },
    {
      "ID": "1pCF3RMOer71sWinmmpmP-SCWaxKYaWFffWZScnXF9JuceZwEFMW-cFgwCHpIhOs6yUCPFsQsb4=",
      "Lang": "km",
      "CaptionKey": "translation",
      "CaptionName": "ការបកប្រែ",
      "YoutubeSynced": true
    },
    {
      "ID": "n5AbFCJtr2I0IQ4Y8TusOrwczN9FhgXxjXtEkKa0wAmuyMNmrM_tlWudD4f5J9ky",
      "Lang": "kn",
      "CaptionKey": "translation",
      "CaptionName": "ಅನುವಾದ",
      "YoutubeSynced": true
    },
    {
      "ID": "rxS7veBuB8qGzH2MVOEOyfCS3fve2scWmwcAlnIhn4Q=",
      "Lang": "ko",
      "CaptionKey": "translation",
      "CaptionName": "번역",
      "YoutubeSynced": true
    },
    {
      "ID": "rxS7veBuB8rmfOTZT6eGAUAkKhHO7wSFrkD8X0bYXPU=",
      "Lang": "ku",
      "CaptionKey": "translation",
      "CaptionName": "Werger",
      "YoutubeSynced": true
    },
    {
      "ID": "ROpgCPslV63GmiWpoks6PcxGwE8Zxx8QTwu1jkLHeNVZ0SE4h7148g==",
      "Lang": "ky",
      "CaptionKey": "translation",
      "CaptionName": "котормо",
      "YoutubeSynced": true
    },
    {
      "ID": "u5TGj36dxeEdkLNsii36tPzlqCRG0D5KgiFhqt0fsbpzGRfOXmC2UA==",
      "Lang": "lb",
      "CaptionKey": "translation",
      "CaptionName": "Iwwersetzung",
      "YoutubeSynced": true
    },
    {
      "ID": "1pCF3RMOer48a01SAP0EugytdJepf9OEXBdXPtTcj5--jHfLfZKN2mjSfXUaRka8hc-_Id2kx30=",
      "Lang": "lo",
      "CaptionKey": "translation",
      "CaptionName": "ການແປພາສາ",
      "YoutubeSynced": true
    },
    {
      "ID": "tw7XleEj7DPbXTPDaHGpPylL13K6ndb377g1GzrRwVYn4ZwREKJkTg==",
      "Lang": "lt",
      "CaptionKey": "translation",
      "CaptionName": "Vertimas",
      "YoutubeSynced": true
    },
    {
      "ID": "PJiG_LsZ-6wZfIOcNAyJyCryqwViXlWdcQUGVu0KiRxiwn09s4lktg==",
      "Lang": "lv",
      "CaptionKey": "translation",
      "CaptionName": "Tulkošana",
      "YoutubeSynced": true
    },
    {
      "ID": "NBNiaRw83k-X0L0CyGGNIDq8DgHcSPENDCq6UoeQaAtfoLhglkvRNQ==",
      "Lang": "mg",
      "CaptionKey": "translation",
      "CaptionName": "Translation",
      "YoutubeSynced": true
    },
    {
      "ID": "reaZyurzMjNoiuHOl_VV9t_NPknxQ9SKv6YBsAAQA7_sNwdnXZhaLuJ2GywPeZrw",
      "Lang": "mi",
      "CaptionKey": "translation",
      "CaptionName": "Whakamaoritanga",
      "YoutubeSynced": true
    },
    {
      "ID": "u5TGj36dxeGBs4SpHnEyb8lw4yyITP_hybK0Y5JyKa6PRbMqGkedXQ==",
      "Lang": "mk",
      "CaptionKey": "translation",
      "CaptionName": "Превод",
      "YoutubeSynced": true
    },
    {
      "ID": "1pCF3RMOer5lj5a1eN5QFgfLvbRtCyoYDoMOiiZ0ELO4KDFpFTJTFqXp2qwM7VLqfYN6RVUgfOs=",
      "Lang": "ml",
      "CaptionKey": "translation",
      "CaptionName": "വിവർത്തനം",
      "YoutubeSynced": true
    },
    {
      "ID": "dw6ccbb6WrxWSQ9FkDMC3JrfaMX2lWUgyocqvUqZ2ST2_4OmpREHtElmdqrceaxM",
      "Lang": "mn",
      "CaptionKey": "translation",
      "CaptionName": "Орчуулга",
      "YoutubeSynced": true
    },
    {
      "ID": "NKjWvJzoOlCUHD9gegGcXu-HPS9WdCNgb0PCm1te8VEt-coYw_xcCdwyXsH_htjD",
      "Lang": "mr",
      "CaptionKey": "translation",
      "CaptionName": "भाषांतर",
      "YoutubeSynced": true
    },
    {
      "ID": "PJiG_LsZ-6w6eSwA--M5nM_kV4rJIbFdIgGUB2Oljc_KAWAdVS0nVg==",
      "Lang": "ms",
      "CaptionKey": "translation",
      "CaptionName": "Terjemahan",
      "YoutubeSynced": true
    },
    {
      "ID": "NBNiaRw83k-rEeXOvDe5QrTuL63EnuOyJWMHepaNXpGpDi2N8SC0Bw==",
      "Lang": "mt",
      "CaptionKey": "translation",
      "CaptionName": "Traduzzjoni",
      "YoutubeSynced": true
    },
    {
      "ID": "gH99cx5N-J1AJ4Ig4O-a_gQjcnJlKAoHyuelZ1sq8gEhLkNMD3BfWAcykIsPSeNd5T10qrno91s=",
      "Lang": "my",
      "CaptionKey": "translation",
      "CaptionName": "ဘာသာပြန်",
      "YoutubeSynced": true
    },
    {
      "ID": "n5AbFCJtr2KZOAwcV4IwLK932vPCCUbUcs2Qbv-Q1FxreOdN5iCazqUGkzphQetD",
      "Lang": "ne",
      "CaptionKey": "translation",
      "CaptionName": "अनुवाद",
      "YoutubeSynced": true
    },
    {
      "ID": "TOeHwMykRx_6pVP8OQQM-xXNQYIYiMFNUdar4rkMIfJuM6E6WuLYpw==",
      "Lang": "nl",
      "CaptionKey": "translation",
      "CaptionName": "Vertaling",
      "YoutubeSynced": true
    },
    {
      "ID": "u5TGj36dxeFi4MlrqfQKNYiaSes66cgeTLhZ9bpvTAJXuyapi2csuA==",
      "Lang": "no",
      "CaptionKey": "translation",
      "CaptionName": "Oversettelse",
      "YoutubeSynced": true
    },
    {
      "ID": "n5AbFCJtr2IKo-h6_6Uev0f18YWCb7hXlaM4VqYvKlYj-2r7Ukdj5ziS5HIkr1AJ",
      "Lang": "pa",
      "CaptionKey": "translation",
      "CaptionName": "ਅਨੁਵਾਦ",
      "YoutubeSynced": true
    },
    {
      "ID": "u5TGj36dxeE6oGuND7sjuvsojbi9pAuv2Sxj7HVrtJpXxQKh_1TMig==",
      "Lang": "pl",
      "CaptionKey": "translation",
      "CaptionName": "Tłumaczenie",
      "YoutubeSynced": true
    },
    {
      "ID": "PJiG_LsZ-6xMnae5hkow0OgoTDNLUo1PNU3NBUPBPKSHpiNq3FabxQ==",
      "Lang": "ps",
      "CaptionKey": "translation",
      "CaptionName": "ژباړه",
      "YoutubeSynced": true
    },
    {
      "ID": "PJiG_LsZ-6ys7x0lxPInePCHz956T-v7RpgL76c3veKsbF6R4DjwPg==",
      "Lang": "pt",
      "CaptionKey": "translation",
      "CaptionName": "Tradução",
      "YoutubeSynced": true
    },
    {
      "ID": "TOeHwMykRx-Lim12e4TKGDuGIxyMOQ9rPjxujfiYVs7Id17a4HHXew==",
      "Lang": "ro",
      "CaptionKey": "translation",
      "CaptionName": "Traducere",
      "YoutubeSynced": true
    },
    {
      "ID": "ROpgCPslV63ACGV3Wr-_8yhH6osdZIjMxhQgKnUjurQvgFWLD4Fhog==",
      "Lang": "ru",
      "CaptionKey": "translation",
      "CaptionName": "Перевод",
      "YoutubeSynced": true
    },
    {
      "ID": "PJiG_LsZ-6yms_HCJwZW1iCOKTcQ1JIdCA_zJOxwxTYlJrJGjIcATg==",
      "Lang": "sd",
      "CaptionKey": "translation",
      "CaptionName": "ترجمو",
      "YoutubeSynced": true
    },
    {
      "ID": "1pCF3RMOer7BJxSZXkSEzwm3K_DFOfiJEFMr1VjUWqYvBEN2yaEa8Opr69nR97pGuf811k58cJo=",
      "Lang": "si",
      "CaptionKey": "translation",
      "CaptionName": "පරිවර්තනය",
      "YoutubeSynced": true
    },
    {
      "ID": "MCj7S7ut6CpCzk-TbvJHSPSbi8VhnDS8qFZr6gDo4dDfVtBH2yjNYg==",
      "Lang": "sk",
      "CaptionKey": "translation",
      "CaptionName": "preklad",
      "YoutubeSynced": true
    },
    {
      "ID": "rxS7veBuB8qnnvQqVGKXLJTU6NQok_ojPTF7CJgfzL4=",
      "Lang": "sl",
      "CaptionKey": "translation",
      "CaptionName": "Prevod",
      "YoutubeSynced": true
    },
    {
      "ID": "u5TGj36dxeE5VjJcZF7xATP7CCSyaD6BPS7q1l3hmY52fmMmLHbggA==",
      "Lang": "sm",
      "CaptionKey": "translation",
      "CaptionName": "Faʻaliliuga",
      "YoutubeSynced": true
    },
    {
      "ID": "MCj7S7ut6CpdeJSqHGLdwVA9mSwLfrdDRNJ99crfbxCWvTK21hcSMw==",
      "Lang": "sn",
      "CaptionKey": "translation",
      "CaptionName": "Dudziro",
      "YoutubeSynced": true
    },
    {
      "ID": "TOeHwMykRx81gMqh4oBlQoqhpDdTCmYx5TCeQCmIlBiYQBMaCd2MHA==",
      "Lang": "so",
      "CaptionKey": "translation",
      "CaptionName": "Tarjumida",
      "YoutubeSynced": true
    },
    {
      "ID": "TOeHwMykRx8De5Hyg5d-Bd-2QjCXBt3gdu8Jfwy7up9_a83jIticaQ==",
      "Lang": "sq",
      "CaptionKey": "translation",
      "CaptionName": "përkthim",
      "YoutubeSynced": true
    },
    {
      "ID": "u5TGj36dxeFwfKBW4RzQ1ZbhUvsM4NVuzjZCI6MYiH9ZdXXr2nAyjA==",
      "Lang": "sr",
      "CaptionKey": "translation",
      "CaptionName": "Превод",
      "YoutubeSynced": true
    },
    {
      "ID": "TOeHwMykRx_grlz-iVj9u8sX2w2HDWsrEqnhaA9jF856LemA3h2O_Q==",
      "Lang": "st",
      "CaptionKey": "translation",
      "CaptionName": "Phetolelo",
      "YoutubeSynced": true
    },
    {
      "ID": "PJiG_LsZ-6yRWNN8oP0pGmm_QZcL5oqxYPMxVUzCelDDRHuWJwXDRw==",
      "Lang": "su",
      "CaptionKey": "translation",
      "CaptionName": "Tarjamahan",
      "YoutubeSynced": true
    },
    {
      "ID": "ROpgCPslV60pYYs5eBLXY-ZK18NkX_9jab6Bl8sLhRstEc9jT4paQg==",
      "Lang": "sv",
      "CaptionKey": "translation",
      "CaptionName": "Översättning",
      "YoutubeSynced": true
    },
    {
      "ID": "MCj7S7ut6CowhvHM1UkaCLkFQMNyGq2RzFiaWeQzjM9JVhhf4CmvTw==",
      "Lang": "sw",
      "CaptionKey": "translation",
      "CaptionName": "Tafsiri",
      "YoutubeSynced": true
    },
    {
      "ID": "eKUPiUD4NxGWIH_XuiQMvdntu1nWAc_ewZKba6D1QEXbyYzqPkYQCV7xXVSzBf7y3yZ9F9kxFyCMJ2xR0uWKAVSjHZzNw2rv",
      "Lang": "ta",
      "CaptionKey": "translation",
      "CaptionName": "மொழிபெயர்ப்பு",
      "YoutubeSynced": true
    },
    {
      "ID": "NKjWvJzoOlB2cUp8AnwZOTACqE_mo_ldfl90gs8VF23I3GgNyEobkneDLwW2nNYc",
      "Lang": "te",
      "CaptionKey": "translation",
      "CaptionName": "అనువాదం",
      "YoutubeSynced": true
    },
    {
      "ID": "ROpgCPslV60448zlgUEGh0q-FEPmX2ZhinjJHxxT9HpqcG-2d961Gg==",
      "Lang": "tg",
      "CaptionKey": "translation",
      "CaptionName": "Тарҷума",
      "YoutubeSynced": true
    },
    {
      "ID": "n5AbFCJtr2IQ1hcoLd4O5f-ozqm0OISambjnYKKEanXEZN17vA83FKZMsi0v93Ml",
      "Lang": "th",
      "CaptionKey": "translation",
      "CaptionName": "การแปล",
      "YoutubeSynced": true
    },
    {
      "ID": "tw7XleEj7DNR5lIsGlannKADMtBSo10S5XRLn93XtwpcLR3fldlGIQ==",
      "Lang": "tr",
      "CaptionKey": "translation",
      "CaptionName": "Tercüme",
      "YoutubeSynced": true
    },
    {
      "ID": "dw6ccbb6WrzWbMu-SnnmISMbMqqqc6U5bmLh1kp4YwFyKk0TWkne0sfd8evCSE9q",
      "Lang": "uk",
      "CaptionKey": "translation",
      "CaptionName": "Переклад",
      "YoutubeSynced": true
    },
    {
      "ID": "PJiG_LsZ-6xywjYNuVM756d9-bbjN-XwiWrAb2ZYt54zmV6usOsTiQ==",
      "Lang": "ur",
      "CaptionKey": "translation",
      "CaptionName": "ترجمہ",
      "YoutubeSynced": true
    },
    {
      "ID": "MCj7S7ut6CpgGsO2uc-pSQ1I1Br80iwgQoKWACS7Lh8z6QZtB_RGDQ==",
      "Lang": "uz",
      "CaptionKey": "translation",
      "CaptionName": "Tarjima",
      "YoutubeSynced": true
    },
    {
      "ID": "rxS7veBuB8pkKOFLdQEdozcOnp5tJS5-yhXPi5SIW78=",
      "Lang": "vi",
      "CaptionKey": "translation",
      "CaptionName": "Dịch",
      "YoutubeSynced": true
    },
    {
      "ID": "PJiG_LsZ-6yma-vFz-MPIzZM50F0K1xaH9zqScfawd-Gt_hJ1vvK8Q==",
      "Lang": "xh",
      "CaptionKey": "translation",
      "CaptionName": "Inguqulelo",
      "YoutubeSynced": true
    },
    {
      "ID": "6mxRhIKu7CGzmpj3KjCD9gOeJTewe-7ViFlgtt9M9NfXuavsTcx00A0w2T9gVlWB",
      "Lang": "yi",
      "CaptionKey": "translation",
      "CaptionName": "איבערזעצונג",
      "YoutubeSynced": true
    },
    {
      "ID": "MCj7S7ut6Cp65r54GgXgu8hhXp6AFXVfnl-4iez1CvfHHtRk175UVg==",
      "Lang": "yo",
      "CaptionKey": "translation",
      "CaptionName": "Itumọ",
      "YoutubeSynced": true
    },
    {
      "ID": "NBNiaRw83k-Ko05pXJaFvCwusuLHkfg4D-_EuX4ssd5Izf-_zsGnmw==",
      "Lang": "zh-Hans",
      "CaptionKey": "translation",
      "CaptionName": "翻译",
      "YoutubeSynced": true
    },
    {
      "ID": "NBNiaRw83k-Ko05pXJaFvLBQBt6Ogpiek8tHR4oD-bb7LYcuPRwu-w==",
      "Lang": "zh-Hant",
      "CaptionKey": "translation",
      "CaptionName": "翻譯",
      "YoutubeSynced": true
    },
    {
      "ID": "PJiG_LsZ-6zAXA3yVREHFA4bvMhCwIiRhnjhnjt0NaCFMQXI3GY9vA==",
      "Lang": "zu",
      "CaptionKey": "translation",
      "CaptionName": "Ukuhumusha",
      "YoutubeSynced": true
    }
  ]
}