{
  "VideoFile": "grammar-en-beginner-simple_56_IN.mp4",
  "Captions": [
    {
      "ID": "w0xr0oODagRNL6VsMRMZcDlbkXrc5Garx_tL5SipczRl5KOIxP-v-w==",
      "Lang": "af",
      "CaptionKey": "translation",
      "CaptionName": "vertaling",
      "YoutubeSynced": true
    },
    {
      "ID": "LySTUaXoYg2DxPGg-xeJ4Z9FuMmONdY3ODYptAytu16Pr2NRp70eZA==",
      "Lang": "am",
      "CaptionKey": "translation",
      "CaptionName": "ትርጉም",
      "YoutubeSynced": true
    },
    {
      "ID": "K7jwbn9UVTLxYli6116aqxoQQXkZTzTAB4ROGgXSLOcekHPEXeHL5w==",
      "Lang": "ar",
      "CaptionKey": "translation",
      "CaptionName": "ترجمة",
      "YoutubeSynced": true
    },
    {
      "ID": "K7jwbn9UVTIZh68M9u8NuhBXfJ5q85pVAE3sKnxdukD7TXp8zYlWUQ==",
      "Lang": "az",
      "CaptionKey": "translation",
      "CaptionName": "Tərcümə",
      "YoutubeSynced": true
    },
    {
      "ID": "stb62XAeIdg7TWWIptrHx0hlusePw_3WGuPDsOSgf_JPMd0IJ73owx3dkMsbFpn6",
      "Lang": "be",
      "CaptionKey": "translation",
      "CaptionName": "Пераклад",
      "YoutubeSynced": true
    },
    {
      "ID": "LySTUaXoYg1CMNK1n_K7lsqPNJb-B6oeqERuJlxn-0jAa5ysz-2jNw==",
      "Lang": "bg",
      "CaptionKey": "translation",
      "CaptionName": "превод",
      "YoutubeSynced": true
    },
    {
      "ID": "zGh-iC8qsvQm5TwdSmKqoa-rQipIgpFPhCjDi4H1Ut2ObwCO_F1OtdbjOb52i57y",
      "Lang": "bn",
      "CaptionKey": "translation",
      "CaptionName": "অনুবাদ",
      "YoutubeSynced": true
    },
    {
      "ID": "9fWJv0zgKY0XSZPG7gUuIfhdiuO_Ovr2y_h2eWAM5Ts=",
      "Lang": "bs",
      "CaptionKey": "translation",
      "CaptionName": "Prevod",
      "YoutubeSynced": true
    },
    {
      "ID": "K7jwbn9UVTL1FwxcFVpAx-pymXKNjwtaMPCWoPMjnQ_lTBlW-NrbkQ==",
      "Lang": "ca",
      "CaptionKey": "translation",
      "CaptionName": "Traducció",
      "YoutubeSynced": true
    },
    {
      "ID": "K7jwbn9UVTJRz1WuwgOIenDeJD3zYG86bIlqv22T4Xv1W9mIRjBp1w==",
      "Lang": "co",
      "CaptionKey": "translation",
      "CaptionName": "Traduzione",
      "YoutubeSynced": true
    },
    {
      "ID": "zQiS6SEkDYYCL0K_LK6FPz8swMLQDln2bF5QM-VpkHiCZUZEcMW2Bg==",
      "Lang": "cs",
      "CaptionKey": "translation",
      "CaptionName": "Překlad",
      "YoutubeSynced": true
    },
    {
      "ID": "XIPjKYaWdqr5BxNWffUe0jW59ORyzdXZJjan7HBR8qBPXXtxGIyOaQ==",
      "Lang": "cy",
      "CaptionKey": "translation",
      "CaptionName": "Cyfieithiad",
      "YoutubeSynced": true
    },
    {
      "ID": "FDgLTTrbOCQERL0xCwxThREkr9iIQIQgX17obhRSsdQmj_irV5X9xg==",
      "Lang": "da",
      "CaptionKey": "translation",
      "CaptionName": "Oversættelse",
      "YoutubeSynced": true
    },
    {
      "ID": "LySTUaXoYg1_jzHm6UI3h_5ZsyAxKgX9ZI_ANaH0-sB7YOttnUrlLQ==",
      "Lang": "de",
      "CaptionKey": "translation",
      "CaptionName": "Übersetzung",
      "YoutubeSynced": true
    },
    {
      "ID": "zGh-iC8qsvSkGwA2m2mQE515mg6mDrh05Pd7C3ya6CveKWTR4YU7jdN6M_wVO2P6",
      "Lang": "el",
      "CaptionKey": "translation",
      "CaptionName": "Μετάφραση",
      "YoutubeSynced": true
    },
    {
      "ID": "XIPjKYaWdqpn9VQ6XDnM-hLrR84tS-PSKtHI2hdQdZQ7BPWZ-0nqsw==",
      "Lang": "en",
      "CaptionKey": "translation",
      "CaptionName": "Translation",
      "YoutubeSynced": true
    },
    {
      "ID": "NPGA_Dd2e2L4wNa9At8pZja1JQ44Wf6fJutqHu-2-sRngqXK_xeSgb0IUU1Sk-eT",
      "Lang": "en",
      "CaptionKey": "ruby",
      "CaptionName": "Pronunciation - IPA",
      "YoutubeSynced": true
    },
    {
      "ID": "XIPjKYaWdqo4ybByQXXn2rOlm0wlgWIIFi1RiEpY7KmIi-_XoVtVxw==",
      "Lang": "es",
      "CaptionKey": "translation",
      "CaptionName": "Traducción",
      "YoutubeSynced": true
    },
    {
      "ID": "9fWJv0zgKY0lFduyKjS-G-qeyHmDVre0j5gam-PQT0E=",
      "Lang": "et",
      "CaptionKey": "translation",
      "CaptionName": "Tõlge",
      "YoutubeSynced": true
    },
    {
      "ID": "w0xr0oODagTGSQHXG_kin4xF-_hjtk_GKBRQRWbgHc5VNKAnMpwhEQ==",
      "Lang": "eu",
      "CaptionKey": "translation",
      "CaptionName": "Itzulpena",
      "YoutubeSynced": true
    },
    {
      "ID": "K7jwbn9UVTKwGBX_rs0XgqECUrlN_MoIC8kX41aYx7Pktz1IdR19gg==",
      "Lang": "fa",
      "CaptionKey": "translation",
      "CaptionName": "ترجمه",
      "YoutubeSynced": true
    },
    {
      "ID": "K7jwbn9UVTKe73UV1e1HZN-9xtSbKaepIDSQqm5lpHORByWYWAvBcQ==",
      "Lang": "fi",
      "CaptionKey": "translation",
      "CaptionName": "Käännös",
      "YoutubeSynced": true
    },
    {
      "ID": "XIPjKYaWdqpO2rSzZnjJ5L4wgBFqzqPrkzKpfLdoCMNcEkOpuq04eA==",
      "Lang": "fil",
      "CaptionKey": "translation",
      "CaptionName": "Pagsasalin",
      "YoutubeSynced": true
    },
    {
      "ID": "K7jwbn9UVTKDcYQmxh7Xhqg99dZ5ms-V0ql1PmOdVygZ6rE5GTpo5w==",
      "Lang": "fr",
      "CaptionKey": "translation",
      "CaptionName": "Traduction",
      "YoutubeSynced": true
    },
    {
      "ID": "K7jwbn9UVTKR4Cpxg23f5_YKd0QHCqWKoZYkh2A8PJfoZUq3BX13Iw==",
      "Lang": "fy",
      "CaptionKey": "translation",
      "CaptionName": "Oersetting",
      "YoutubeSynced": true
    },
    {
      "ID": "zGh-iC8qsvSbSQQhR1OMEr8rsq7kqUvYMLig5unJF7aVRPch7cyPl--KGLseASIn",
      "Lang": "gd",
      "CaptionKey": "translation",
      "CaptionName": "Eadar-theangachadh",
      "YoutubeSynced": true
    },
    {
      "ID": "K7jwbn9UVTJEXf891qKT7h1uu59a-iq7knVTwGsP167oSnBW8xkdJg==",
      "Lang": "gl",
      "CaptionKey": "translation",
      "CaptionName": "Tradución",
      "YoutubeSynced": true
    },
    {
      "ID": "zGh-iC8qsvRu5r06p9JWJd3PRZ4qm7XTOPRIUK31oL1AqP3IC8CmRyOPGIQFAtBH",
      "Lang": "gu",
      "CaptionKey": "translation",
      "CaptionName": "અનુવાદ",
      "YoutubeSynced": true
    },
    {
      "ID": "fYzWJDURJsU66CM1qJzjVmg4U8BJLdtjtN9NwBFelMwYD_PSUMK7Jw==",
      "Lang": "ha",
      "CaptionKey": "translation",
      "CaptionName": "Fassara",
      "YoutubeSynced": true
    },
    {
      "ID": "zGh-iC8qsvRmnMzWLUOsDIPxmdb5gYl1gwmGngb0oJIm0aEeOCdyy3zIDMKPMmRn",
      "Lang": "hi",
      "CaptionKey": "translation",
      "CaptionName": "अनुवाद",
      "YoutubeSynced": true
    },
    {
      "ID": "zQiS6SEkDYZXz4Jmi4QRJit3oiNEKXJmP-3dZ5sk9MK7tYr3kcHATw==",
      "Lang": "hr",
      "CaptionKey": "translation",
      "CaptionName": "Prijevod",
      "YoutubeSynced": true
    },
    {
      "ID": "K7jwbn9UVTKXBBQld0o3JfobF2RRmY9cvUpzRzImDV0mv8LZgKFVcQ==",
      "Lang": "hu",
      "CaptionKey": "translation",
      "CaptionName": "Fordítás",
      "YoutubeSynced": true
    },
    {
      "ID": "bJbLVPm5fCGQZZfUD0oq0AYRw3vFNP9ButuQBGISU334avgbF4yxjmm5cA_H5Om1APRroThDfB8=",
      "Lang": "hy",
      "CaptionKey": "translation",
      "CaptionName": "Թարգմանություն",
      "YoutubeSynced": true
    },
    {
      "ID": "K7jwbn9UVTLyKM9AjHAkhAy0md00YsB7gM_l1wF4Atuz7tzN_0lFsw==",
      "Lang": "id",
      "CaptionKey": "translation",
      "CaptionName": "Terjemahan",
      "YoutubeSynced": true
    },
    {
      "ID": "zQiS6SEkDYYEtXwUG1BNUJT61RaPecFtgkeldd5KML0tJkaAZlTuPg==",
      "Lang": "ig",
      "CaptionKey": "translation",
      "CaptionName": "Ntughari",
      "YoutubeSynced": true
    },
    {
      "ID": "w0xr0oODagRmLUaK8IHgxJKryardACt-dhIGa2bdXp_obiRU8x73Ug==",
      "Lang": "is",
      "CaptionKey": "translation",
      "CaptionName": "Þýðing",
      "YoutubeSynced": true
    },
    {
      "ID": "K7jwbn9UVTIDu-_rEFWLcUqzmxjK2r86TOqtxp5aKC4aabvkq5yXeg==",
      "Lang": "it",
      "CaptionKey": "translation",
      "CaptionName": "Traduzione",
      "YoutubeSynced": true
    },
    {
      "ID": "K7jwbn9UVTKpcOGD6RFkc3dMTEFtE1q5NGusJyeREEi_U0ij0RDNEQ==",
      "Lang": "iw",
      "CaptionKey": "translation",
      "CaptionName": "תרגום",
      "YoutubeSynced": true
    },
    {
      "ID": "9fWJv0zgKY1N-yT7w9RRgB3-ervdd_TWLKq2FKto6Ec=",
      "Lang": "ja",
      "CaptionKey": "translation",
      "CaptionName": "翻訳",
      "YoutubeSynced": true
    },
    {
      "ID": "w0xr0oODagQnfwA4BBbxtDTpbEeahotxIMMfgnxDk2hfp271Utz4qw==",
      "Lang": "jv",
      "CaptionKey": "translation",
      "CaptionName": "Ngartekne",
      "YoutubeSynced": true
    },
    {
      "ID": "Tt3mmmyIZynBrBp8BYpeocpFAy10oDjVmQ-Pp0ZjnwAqzFSZYp3kajcJeiO-XvRKdKM87ajd1I0=",
      "Lang": "ka",
      "CaptionKey": "translation",
      "CaptionName": "თარგმანი",
      "YoutubeSynced": true
    },
    {
      "ID": "BKNKHocW0mtWVNVMb7bc7w1q9cdNWqUcESzQyRPIeV8RHuufk2_PTg==",
      "Lang": "kk",
      "CaptionKey": "translation",
      "CaptionName": "Аударма",
      "YoutubeSynced": true
    },
    {
      "ID": "2dSzWvpJGs6vuLCFEZ1WBVZLIt-d0kdGN8jIKiKu9zOX0GMfTdlsSbd2r3BGzvqlAeo44yCu0O4=",
      "Lang": "km",
      "CaptionKey": "translation",
      "CaptionName": "ការបកប្រែ",
      "YoutubeSynced": true
    },
    {
      "ID": "zGh-iC8qsvQxAvxv2yTU4UCuwjWLR4ieXSoTi9Uy23CzH1j14pZX-20LnOh9PuBT",
      "Lang": "kn",
      "CaptionKey": "translation",
      "CaptionName": "ಅನುವಾದ",
      "YoutubeSynced": true
    },
    {
      "ID": "9fWJv0zgKY0iv_uTOWHSVI8Qcc7IPD8FOMQ0Uxruh-M=",
      "Lang": "ko",
      "CaptionKey": "translation",
      "CaptionName": "번역",
      "YoutubeSynced": true
    },
    {
      "ID": "9fWJv0zgKY3_s-at0D_ytvXNOqriN_C6MJM2CuBMgBg=",
      "Lang": "ku",
      "CaptionKey": "translation",
      "CaptionName": "Werger",
      "YoutubeSynced": true
    },
    {
      "ID": "BKNKHocW0mtFY1-frq2FZtOeJq7MPHhfFY0VE2bCpVFOO8ygzP5vKg==",
      "Lang": "ky",
      "CaptionKey": "translation",
      "CaptionName": "котормо",
      "YoutubeSynced": true
    },
    {
      "ID": "LySTUaXoYg2dzoZ0mASWWiLp2_BHPt8aHruBSCa4RwAdPr2NGEiuEg==",
      "Lang": "lb",
      "CaptionKey": "translation",
      "CaptionName": "Iwwersetzung",
      "YoutubeSynced": true
    },
    {
      "ID": "2dSzWvpJGs5HuXQaN6MC0kk13tdXpwDzQgM6rVkfzP4m_9ZWTTTKr4AvzoSMPhmjglMtxEKTglo=",
      "Lang": "lo",
      "CaptionKey": "translation",
      "CaptionName": "ການແປພາສາ",
      "YoutubeSynced": true
    },
    {
      "ID": "zQiS6SEkDYYEjk7wtUMTAqhG7GnNXb1TVJn1lYQ236S41q8zhJmPwA==",
      "Lang": "lt",
      "CaptionKey": "translation",
      "CaptionName": "Vertimas",
      "YoutubeSynced": true
    },
    {
      "ID": "K7jwbn9UVTL0OiUsUBv7mVfl8YsFmDh6WQ0OWiWKQA9tr856KtcWzQ==",
      "Lang": "lv",
      "CaptionKey": "translation",
      "CaptionName": "Tulkošana",
      "YoutubeSynced": true
    },
    {
      "ID": "XIPjKYaWdqoExHdPjsw1ANmTLOF2XpNiUJ0JPxX6W5DdlAzBeB1XRQ==",
      "Lang": "mg",
      "CaptionKey": "translation",
      "CaptionName": "Translation",
      "YoutubeSynced": true
    },
    {
      "ID": "wIcQyPYGjGrdMYNom4wupRl9mrI7BqrjqMPa0ars_-18lZarVC9CB6LwHSTCNqzW",
      "Lang": "mi",
      "CaptionKey": "translation",
      "CaptionName": "Whakamaoritanga",
      "YoutubeSynced": true
    },
    {
      "ID": "LySTUaXoYg2wyRBotKgzA2mBVzG9yckptGXO3JCQHLQRWSNzdTStcQ==",
      "Lang": "mk",
      "CaptionKey": "translation",
      "CaptionName": "Превод",
      "YoutubeSynced": true
    },
    {
      "ID": "2dSzWvpJGs5r1dRmvbDjEroiCqhgBnge91D-H3gCMBHbovk3a3I9R6IzlRaVlDqxbdlGJXrE-ec=",
      "Lang": "ml",
      "CaptionKey": "translation",
      "CaptionName": "വിവർത്തനം",
      "YoutubeSynced": true
    },
    {
      "ID": "stb62XAeIdhjgxNwI9I03fMiI60oiHbDocl3kpICVPLpIlEpcfKkT7JPeLJLIs4p",
      "Lang": "mn",
      "CaptionKey": "translation",
      "CaptionName": "Орчуулга",
      "YoutubeSynced": true
    },
    {
      "ID": "TnopkyMyzbmixvLerf26Ll0fEDcdsa9JaXiwraLiM8MTgJNQUCU6k_HGDxWlsX7M",
      "Lang": "mr",
      "CaptionKey": "translation",
      "CaptionName": "भाषांतर",
      "YoutubeSynced": true
    },
    {
      "ID": "K7jwbn9UVTLBeel27dbs6zOa2bWxdrtMEZVTD8Bds7u0TZI6MZGB5Q==",
      "Lang": "ms",
      "CaptionKey": "translation",
      "CaptionName": "Terjemahan",
      "YoutubeSynced": true
    },
    {
      "ID": "XIPjKYaWdqpM4MXsaWTe1vd1rmVnNjVv5aVneplgcP_c_EWnXMZWfg==",
      "Lang": "mt",
      "CaptionKey": "translation",
      "CaptionName": "Traduzzjoni",
      "YoutubeSynced": true
    },
    {
      "ID": "Tt3mmmyIZykAUa_j3GSgu94Dc9SmiIGTzjapgjczp0cYufbQaGgDJrI__E3YMmyBtcwfdJDIRLs=",
      "Lang": "my",
      "CaptionKey": "translation",
      "CaptionName": "ဘာသာပြန်",
      "YoutubeSynced": true
    },
    {
      "ID": "zGh-iC8qsvRZl3dW7sf0yYRCC8NeunAVKqdz4B85Y_1Kp9UA2_uyfLWrTqo4OyL-",
      "Lang": "ne",
      "CaptionKey": "translation",
      "CaptionName": "अनुवाद",
      "YoutubeSynced": true
    },
    {
      "ID": "w0xr0oODagSj-mPeMPjqcgtvUiR_zYv84wEhRwyEQloQ_kQDNLlObw==",
      "Lang": "nl",
      "CaptionKey": "translation",
      "CaptionName": "Vertaling",
      "YoutubeSynced": true
    },
    {
      "ID": "LySTUaXoYg1ar-o0gCqFCWPwpxUN-iUq_Q9cPscS6UNIpLOYXHG8mg==",
      "Lang": "no",
      "CaptionKey": "translation",
      "CaptionName": "Oversettelse",
      "YoutubeSynced": true
    },
    {
      "ID": "zGh-iC8qsvREz-TVuQqZzQhJ5HCfBZZIxSxB67c0jIYI_LoPLdryyJTg18Dvgcgn",
      "Lang": "pa",
      "CaptionKey": "translation",
      "CaptionName": "ਅਨੁਵਾਦ",
      "YoutubeSynced": true
    },
    {
      "ID": "LySTUaXoYg2Mdzfpa40_xEde1fZhjhaF3Gnq_bwdCoRbu2-OuG2AnA==",
      "Lang": "pl",
      "CaptionKey": "translation",
      "CaptionName": "Tłumaczenie",
      "YoutubeSynced": true
    },
    {
      "ID": "K7jwbn9UVTK8HFRU6owHiW_wax861871OPXOH_GbVq-YFD6V3PUlMw==",
      "Lang": "ps",
      "CaptionKey": "translation",
      "CaptionName": "ژباړه",
      "YoutubeSynced": true
    },
    {
      "ID": "K7jwbn9UVTJ13mE67R6hATSBQytQQ8FQA_oIqljAZ4vhoi1xWgJ4mg==",
      "Lang": "pt",
      "CaptionKey": "translation",
      "CaptionName": "Tradução",
      "YoutubeSynced": true
    },
    {
      "ID": "w0xr0oODagTxxah1Fx-tPFAsEJZ1ydF0TyTURtDmWbg07JZt-ptB4w==",
      "Lang": "ro",
      "CaptionKey": "translation",
      "CaptionName": "Traducere",
      "YoutubeSynced": true
    },
    {
      "ID": "BKNKHocW0mthFydUm5Fufjvrovmkno_oYCrOOx-dH9AkP28jGzTEAw==",
      "Lang": "ru",
      "CaptionKey": "translation",
      "CaptionName": "Перевод",
      "YoutubeSynced": true
    },
    {
      "ID": "K7jwbn9UVTI1ar8EevFHkBvzcRc1dliVlPlxjCUUaDsc9YUQkdyP6A==",
      "Lang": "sd",
      "CaptionKey": "translation",
      "CaptionName": "ترجمو",
      "YoutubeSynced": true
    },
    {
      "ID": "2dSzWvpJGs657pk-ypLVDghW_OgNEnvEyguJJ5Zu0lRv_zspAdcT0AeMNl9r0XUwx-wKrD9xJ4U=",
      "Lang": "si",
      "CaptionKey": "translation",
      "CaptionName": "පරිවර්තනය",
      "YoutubeSynced": true
    },
    {
      "ID": "fYzWJDURJsXxxxX84HmB16vk7guo0oWb5BfcrV8fOnMFItMQ1AxkaQ==",
      "Lang": "sk",
      "CaptionKey": "translation",
      "CaptionName": "preklad",
      "YoutubeSynced": true
    },
    {
      "ID": "9fWJv0zgKY0bckscAypwuB2KRK8X8ZJz6CEHqB5uTIg=",
      "Lang": "sl",
      "CaptionKey": "translation",
      "CaptionName": "Prevod",
      "YoutubeSynced": true
    },
    {
      "ID": "LySTUaXoYg1VHW2dk-HREgE2R6n3jJPcTEhuZ4Hy92gkJZuxIzqqeg==",
      "Lang": "sm",
      "CaptionKey": "translation",
      "CaptionName": "Faʻaliliuga",
      "YoutubeSynced": true
    },
    {
      "ID": "fYzWJDURJsUis1m5nysSbVdwa2WL5vipsKIXvFRRymD_H3-TmRhAaQ==",
      "Lang": "sn",
      "CaptionKey": "translation",
      "CaptionName": "Dudziro",
      "YoutubeSynced": true
    },
    {
      "ID": "w0xr0oODagQKktLJf19ASYZ_jWFYY9aII_sfGBY6O4PBq7B6j64Vmg==",
      "Lang": "so",
      "CaptionKey": "translation",
      "CaptionName": "Tarjumida",
      "YoutubeSynced": true
    },
    {
      "ID": "w0xr0oODagRSaUmSDGg9f2TdVIYZm25CMmp2W5U8vIHdIJyYNemGUg==",
      "Lang": "sq",
      "CaptionKey": "translation",
      "CaptionName": "përkthim",
      "YoutubeSynced": true
    },
    {
      "ID": "LySTUaXoYg0pRrsFQpjcWI7WeRYHnUvjk2hm8D2S7ZrUf4bh-NKSZQ==",
      "Lang": "sr",
      "CaptionKey": "translation",
      "CaptionName": "Превод",
      "YoutubeSynced": true
    },
    {
      "ID": "w0xr0oODagQn94e4wTPbPVAvnsocJW4fDGaMohk88kY-WlD5b6y6lQ==",
      "Lang": "st",
      "CaptionKey": "translation",
      "CaptionName": "Phetolelo",
      "YoutubeSynced": true
    },
    {
      "ID": "K7jwbn9UVTLqW2RbJw4Pox65iAUEWNAHHmCfQWyTm0SnfoBNAGo06A==",
      "Lang": "su",
      "CaptionKey": "translation",
      "CaptionName": "Tarjamahan",
      "YoutubeSynced": true
    },
    {
      "ID": "BKNKHocW0msD8MQdCZysSSTE3qYjf8Ri1SigyxYmxHtuDhMIMn1vYQ==",
      "Lang": "sv",
      "CaptionKey": "translation",
      "CaptionName": "Översättning",
      "YoutubeSynced": true
    },
    {
      "ID": "fYzWJDURJsWjAMiaBY6lSb9q0tnY-3uCfr1FJdCtxT9boB-ojhZ5wQ==",
      "Lang": "sw",
      "CaptionKey": "translation",
      "CaptionName": "Tafsiri",
      "YoutubeSynced": true
    },
    {
      "ID": "zQLm-73Ta5yLcr7QHHNaFv0TN-1irs-JpEsrvGM2-PZseBMaqzyJZKDT5I0rFASaZB4Z85gvnBpY9Cn78Bim-OOQZodA3LmB",
      "Lang": "ta",
      "CaptionKey": "translation",
      "CaptionName": "மொழிபெயர்ப்பு",
      "YoutubeSynced": true
    },
    {
      "ID": "TnopkyMyzbnksT0XBkQFm2goBetq05iZ19HOQRmTYPEvZVFBIKyc1YoeUBmXPy5n",
      "Lang": "te",
      "CaptionKey": "translation",
      "CaptionName": "అనువాదం",
      "YoutubeSynced": true
    },
    {
      "ID": "BKNKHocW0msXJ0FisA9e363ZjQOGvfUnyGGvbGv7fG-nurqpRz40zw==",
      "Lang": "tg",
      "CaptionKey": "translation",
      "CaptionName": "Тарҷума",
      "YoutubeSynced": true
    },
    {
      "ID": "zGh-iC8qsvTDdTEZKYHATXzUxC6O_iImcbCu4WpNtt2XWckP8d8s38fLKMGOMx91",
      "Lang": "th",
      "CaptionKey": "translation",
      "CaptionName": "การแปล",
      "YoutubeSynced": true
    },
    {
      "ID": "zQiS6SEkDYaAIEYWuzxFAwHa_sew0_yEMXU28z2zPpgd_9nHUURk5A==",
      "Lang": "tr",
      "CaptionKey": "translation",
      "CaptionName": "Tercüme",
      "YoutubeSynced": true
    },
    {
      "ID": "stb62XAeIdgSmtHxvBRY4eJCQF829a9ZjDCiL_cWn_cD4V6mMoA6lT3Ng3A4V1oT",
      "Lang": "uk",
      "CaptionKey": "translation",
      "CaptionName": "Переклад",
      "YoutubeSynced": true
    },
    {
      "ID": "K7jwbn9UVTKUU4dqj3D0q9ukH-bjvUnzK5o97pTLuEeA2KjzjTMFGg==",
      "Lang": "ur",
      "CaptionKey": "translation",
      "CaptionName": "ترجمہ",
      "YoutubeSynced": true
    },
    {
      "ID": "fYzWJDURJsVZH5L5qhsSGJ-sG9wdoyC01RmlbV-YR8YlubqoC7PKTA==",
      "Lang": "uz",
      "CaptionKey": "translation",
      "CaptionName": "Tarjima",
      "YoutubeSynced": true
    },
    {
      "ID": "9fWJv0zgKY2l2UuoHd7sRNZO8KaMgqW2ggsgaGdHwLI=",
      "Lang": "vi",
      "CaptionKey": "translation",
      "CaptionName": "Dịch",
      "YoutubeSynced": true
    },
    {
      "ID": "K7jwbn9UVTL9GevTVQOFTsgjCp_frvRoyfydOW7qT5FODaeAXXnArg==",
      "Lang": "xh",
      "CaptionKey": "translation",
      "CaptionName": "Inguqulelo",
      "YoutubeSynced": true
    },
    {
      "ID": "G9N6Q0j9joB1eMZbFUOqxOBNy_0x21mjFAGMhk3T7Yzgko_KMIwYjT97CZWnbwKk",
      "Lang": "yi",
      "CaptionKey": "translation",
      "CaptionName": "איבערזעצונג",
      "YoutubeSynced": true
    },
    {
      "ID": "fYzWJDURJsVG9hc9Rq8eLy5InbMJ382N_7HFm8bUvYXrqmWkGCDzNA==",
      "Lang": "yo",
      "CaptionKey": "translation",
      "CaptionName": "Itumọ",
      "YoutubeSynced": true
    },
    {
      "ID": "XIPjKYaWdqpy1cZBIKmIb9IrpjqY4eoNBcSqAeWxDKu37d2TAd3lmA==",
      "Lang": "zh-Hans",
      "CaptionKey": "translation",
      "CaptionName": "翻译",
      "YoutubeSynced": true
    },
    {
      "ID": "XIPjKYaWdqpy1cZBIKmIbzJSfgNIJw_YfNN2lRsv8KhABEk586Pf-A==",
      "Lang": "zh-Hant",
      "CaptionKey": "translation",
      "CaptionName": "翻譯",
      "YoutubeSynced": true
    },
    {
      "ID": "K7jwbn9UVTJyoG1RPh5AKgTFhmSIam8TvbnFIcZMHNfrfrTFCIuqHA==",
      "Lang": "zu",
      "CaptionKey": "translation",
      "CaptionName": "Ukuhumusha",
      "YoutubeSynced": true
    }
  ]
}