{
  "VideoFile": "grammar-en-beginner-simple_51_UK.mp4",
  "Captions": [
    {
      "ID": "pgXQjqrWJ_rvBfDAuVhItzvMG460gNBHjmQRumPBT24CL28tAHCKjA==",
      "Lang": "af",
      "CaptionKey": "translation",
      "CaptionName": "vertaling",
      "YoutubeSynced": true
    },
    {
      "ID": "18Yx6BffJtgx3so-Xav6hmFb9mFT5Ncst0FXZUNAizfPFAfHKZOYTQ==",
      "Lang": "am",
      "CaptionKey": "translation",
      "CaptionName": "ትርጉም",
      "YoutubeSynced": true
    },
    {
      "ID": "RceTZyKlGNDS4I10gA-G0z724zIxv3CO8AcwBEh7BJ1Fh1g1FgLzug==",
      "Lang": "ar",
      "CaptionKey": "translation",
      "CaptionName": "ترجمة",
      "YoutubeSynced": true
    },
    {
      "ID": "RceTZyKlGNCTw3fvrSwWxYDICfe-Ey4-GqKorB5suBNv6kLV5_Xc9g==",
      "Lang": "az",
      "CaptionKey": "translation",
      "CaptionName": "Tərcümə",
      "YoutubeSynced": true
    },
    {
      "ID": "WuLPq92JxZT32rSvUVCco_aOUmf4c1cRD-UfNvGVoR0dvb-aAm8b8p0qJPM2Ncbt",
      "Lang": "be",
      "CaptionKey": "translation",
      "CaptionName": "Пераклад",
      "YoutubeSynced": true
    },
    {
      "ID": "18Yx6BffJtg1hyYPnmtLwhTkw6hCsgXRLSGGim7U-6i_f8L7lue8NA==",
      "Lang": "bg",
      "CaptionKey": "translation",
      "CaptionName": "превод",
      "YoutubeSynced": true
    },
    {
      "ID": "uCH3BZrSu_MDgfBAxtN8yTBSBa7uftcr62uozG9TXyS53H4RBczDN5dB_PgFPuO5",
      "Lang": "bn",
      "CaptionKey": "translation",
      "CaptionName": "অনুবাদ",
      "YoutubeSynced": true
    },
    {
      "ID": "NpAAXzigW8AdqKlxBJtPOaGtc_w3FmAmkiN8Y5he2O8=",
      "Lang": "bs",
      "CaptionKey": "translation",
      "CaptionName": "Prevod",
      "YoutubeSynced": true
    },
    {
      "ID": "RceTZyKlGNAK2FffI7e548mbSSmaO-53f1b_3V9Y_IRUQL6Dwfll3Q==",
      "Lang": "ca",
      "CaptionKey": "translation",
      "CaptionName": "Traducció",
      "YoutubeSynced": true
    },
    {
      "ID": "RceTZyKlGNDuXaav18Jc9fW932WOcytohD442z2V4zVrA5PnAurx2Q==",
      "Lang": "co",
      "CaptionKey": "translation",
      "CaptionName": "Traduzione",
      "YoutubeSynced": true
    },
    {
      "ID": "zhdFAZbuzqt4__oACiwNgjDtwEXEEmSiR3XIl-0czS0VPfA9sEUWDw==",
      "Lang": "cs",
      "CaptionKey": "translation",
      "CaptionName": "Překlad",
      "YoutubeSynced": true
    },
    {
      "ID": "-g2iKrCodaH0PiuGb2c-Ye0oA_6AbyrEuhwxKdJHSKREZDp8cFqF7Q==",
      "Lang": "cy",
      "CaptionKey": "translation",
      "CaptionName": "Cyfieithiad",
      "YoutubeSynced": true
    },
    {
      "ID": "i6LC7tP0HOblqfvTeW34V0n3goeceAk6Qc0j5BqjMu1ubfonuE2TvQ==",
      "Lang": "da",
      "CaptionKey": "translation",
      "CaptionName": "Oversættelse",
      "YoutubeSynced": true
    },
    {
      "ID": "18Yx6BffJtgNvessxxB8tyhLPo4O18KbsStq_88XkoeAnD7KKmb6hw==",
      "Lang": "de",
      "CaptionKey": "translation",
      "CaptionName": "Übersetzung",
      "YoutubeSynced": true
    },
    {
      "ID": "uCH3BZrSu_M1NoBgozaJ1tFpsL_LwKAE9EUVpDRyMHQFXijXN16_OHWh01VeFhdk",
      "Lang": "el",
      "CaptionKey": "translation",
      "CaptionName": "Μετάφραση",
      "YoutubeSynced": true
    },
    {
      "ID": "-g2iKrCodaH_jvAu_jYdxAawN8dI5x4h4Dsqcha_1iwENsg7_7MaDg==",
      "Lang": "en",
      "CaptionKey": "translation",
      "CaptionName": "Translation",
      "YoutubeSynced": true
    },
    {
      "ID": "UsXFwdUh-F9s9qbE70NTOJhdsn5rfpWPfkltQP9qBMN2jA1wmzc6B_jj86-g68sb",
      "Lang": "en",
      "CaptionKey": "ruby",
      "CaptionName": "Pronunciation - IPA",
      "YoutubeSynced": true
    },
    {
      "ID": "-g2iKrCodaEUSh6HQwdKsB92APXxOU71OCjuaAtOT727DqJOQPv5lQ==",
      "Lang": "es",
      "CaptionKey": "translation",
      "CaptionName": "Traducción",
      "YoutubeSynced": true
    },
    {
      "ID": "NpAAXzigW8DHwi3i89qrLKn5gPR_y5NhId8uSVq9z1Q=",
      "Lang": "et",
      "CaptionKey": "translation",
      "CaptionName": "Tõlge",
      "YoutubeSynced": true
    },
    {
      "ID": "pgXQjqrWJ_qm-j2niNRhcVQeJ-YwwmziMMWJ9__5bVeZ-jXiLtudAg==",
      "Lang": "eu",
      "CaptionKey": "translation",
      "CaptionName": "Itzulpena",
      "YoutubeSynced": true
    },
    {
      "ID": "RceTZyKlGNCU2oQjTVv82TdYVL1e6Zln9M9qvVUwd8tQcBoji0cV-Q==",
      "Lang": "fa",
      "CaptionKey": "translation",
      "CaptionName": "ترجمه",
      "YoutubeSynced": true
    },
    {
      "ID": "RceTZyKlGNB3Oktdaqf1ZAXTPSbNk1lMnR1SepSSeuCTBsE7Edbeqg==",
      "Lang": "fi",
      "CaptionKey": "translation",
      "CaptionName": "Käännös",
      "YoutubeSynced": true
    },
    {
      "ID": "-g2iKrCodaFQGYuyQPOZ4om_vZczdb3vO4gDwr8nKyIb-IM5yetEbA==",
      "Lang": "fil",
      "CaptionKey": "translation",
      "CaptionName": "Pagsasalin",
      "YoutubeSynced": true
    },
    {
      "ID": "RceTZyKlGNDuSXwVdRedc-lJTEysexpC-Ay_8IsIbBCucXspnjGAzg==",
      "Lang": "fr",
      "CaptionKey": "translation",
      "CaptionName": "Traduction",
      "YoutubeSynced": true
    },
    {
      "ID": "RceTZyKlGNBVXwWTVzwkzOvw7aYappzftqnl-vwdYYBCf711ce8ofQ==",
      "Lang": "fy",
      "CaptionKey": "translation",
      "CaptionName": "Oersetting",
      "YoutubeSynced": true
    },
    {
      "ID": "uCH3BZrSu_PImeu5bW-Uo-J10ZcmYruFUVHg4u5JQYOgBKn6BH1MGBSJFcaA-ehf",
      "Lang": "gd",
      "CaptionKey": "translation",
      "CaptionName": "Eadar-theangachadh",
      "YoutubeSynced": true
    },
    {
      "ID": "RceTZyKlGNCDCUxjHvz_uE0kPXclyAgoE6VrIHAiTXjgbSIRtjDhiQ==",
      "Lang": "gl",
      "CaptionKey": "translation",
      "CaptionName": "Tradución",
      "YoutubeSynced": true
    },
    {
      "ID": "uCH3BZrSu_PZUah0HIkcnfJxl8BW_vEaRBbFB3Uhxw4FT5ZaOkKRnXsRfdy3IUsE",
      "Lang": "gu",
      "CaptionKey": "translation",
      "CaptionName": "અનુવાદ",
      "YoutubeSynced": true
    },
    {
      "ID": "9Bvq6WPCWJnsyc9O-dv1QwpKgxVMnFwMvvE2slFW5sjwI5jHHiIp7A==",
      "Lang": "ha",
      "CaptionKey": "translation",
      "CaptionName": "Fassara",
      "YoutubeSynced": true
    },
    {
      "ID": "uCH3BZrSu_OOVo3hZMUM1Bsupm42uOFFx1LkDCoID9KR9A9qw94Wtm0J5F8BNSIc",
      "Lang": "hi",
      "CaptionKey": "translation",
      "CaptionName": "अनुवाद",
      "YoutubeSynced": true
    },
    {
      "ID": "zhdFAZbuzqvhCXoHUCVtDT6fiM7fm4gg8qjdakOLfZopvXwFqaP_HQ==",
      "Lang": "hr",
      "CaptionKey": "translation",
      "CaptionName": "Prijevod",
      "YoutubeSynced": true
    },
    {
      "ID": "RceTZyKlGNAhiGk0pMhFFLnExXFyCEk8VPW_1iTkPO2XaDXsM600PQ==",
      "Lang": "hu",
      "CaptionKey": "translation",
      "CaptionName": "Fordítás",
      "YoutubeSynced": true
    },
    {
      "ID": "WreL8ZYbNhQjky16qdRDy-vQpAyJYZe7q8ymV8F9R6xaMvPbGkyMKzn_0nyT7HvlLBywZdPnt1Q=",
      "Lang": "hy",
      "CaptionKey": "translation",
      "CaptionName": "Թարգմանություն",
      "YoutubeSynced": true
    },
    {
      "ID": "RceTZyKlGNCEQgp3gZgandS_bZIAUAw5bDx5InveeEsOUcxBqasF1g==",
      "Lang": "id",
      "CaptionKey": "translation",
      "CaptionName": "Terjemahan",
      "YoutubeSynced": true
    },
    {
      "ID": "zhdFAZbuzqu22W87_o1NS27_9FAn4Uz7BjY_IbPJ6h6r7pnz30OysA==",
      "Lang": "ig",
      "CaptionKey": "translation",
      "CaptionName": "Ntughari",
      "YoutubeSynced": true
    },
    {
      "ID": "pgXQjqrWJ_obYKlxdJYrtCOXHF8HNd6N4ymwK40aakplhanBJnIkzg==",
      "Lang": "is",
      "CaptionKey": "translation",
      "CaptionName": "Þýðing",
      "YoutubeSynced": true
    },
    {
      "ID": "RceTZyKlGNBrocE66nyQhd6RLPTuSpLTFOeGTFHT03JIh55JtyhfMA==",
      "Lang": "it",
      "CaptionKey": "translation",
      "CaptionName": "Traduzione",
      "YoutubeSynced": true
    },
    {
      "ID": "RceTZyKlGNCN4i8XQGtROWtYNQXGXD2m1VrVtxUrNrzCplJsRb__lw==",
      "Lang": "iw",
      "CaptionKey": "translation",
      "CaptionName": "תרגום",
      "YoutubeSynced": true
    },
    {
      "ID": "NpAAXzigW8D9yOim5TznLaoaWV7Qq0JNfpFqVkVWayw=",
      "Lang": "ja",
      "CaptionKey": "translation",
      "CaptionName": "翻訳",
      "YoutubeSynced": true
    },
    {
      "ID": "pgXQjqrWJ_o-ikbINc7PEk3R5zIh8QP-zlDVvecyCGrtBxGQibU_qQ==",
      "Lang": "jv",
      "CaptionKey": "translation",
      "CaptionName": "Ngartekne",
      "YoutubeSynced": true
    },
    {
      "ID": "90Tl_yuMo5BApyxExmspYXXs3LQBgpKgUacchGS9khl-146L-F0j4J86rnynF3UEnPlgPg0kK4w=",
      "Lang": "ka",
      "CaptionKey": "translation",
      "CaptionName": "თარგმანი",
      "YoutubeSynced": true
    },
    {
      "ID": "p2pUxawuhVBvGxgSBmz1m_5oa7NR1pOYLdQnxHMneI_Zxct6gO60nA==",
      "Lang": "kk",
      "CaptionKey": "translation",
      "CaptionName": "Аударма",
      "YoutubeSynced": true
    },
    {
      "ID": "eXvX-MU0gTWEsEFpggGn8SnUFjJ_L7kBaUDvgAKneNojs4MZjnwj7yFbUOPWR6KbOzZxczXTfjE=",
      "Lang": "km",
      "CaptionKey": "translation",
      "CaptionName": "ការបកប្រែ",
      "YoutubeSynced": true
    },
    {
      "ID": "uCH3BZrSu_PIkHJYvXXIkBBAqsVy0R8WEmI3M3mkZgv27ZvXTBUah6mspx-7JMIO",
      "Lang": "kn",
      "CaptionKey": "translation",
      "CaptionName": "ಅನುವಾದ",
      "YoutubeSynced": true
    },
    {
      "ID": "NpAAXzigW8BHQeKCpFYxaeO3gE4wa_glpbdALz9XUsc=",
      "Lang": "ko",
      "CaptionKey": "translation",
      "CaptionName": "번역",
      "YoutubeSynced": true
    },
    {
      "ID": "NpAAXzigW8BLMurPdgU644OF7TmJLrdkyUuU-X5hxUM=",
      "Lang": "ku",
      "CaptionKey": "translation",
      "CaptionName": "Werger",
      "YoutubeSynced": true
    },
    {
      "ID": "p2pUxawuhVAjVt2AYc4AwjDTsNuK3nqgdoN20j4M8JIh5sZgZMdkvQ==",
      "Lang": "ky",
      "CaptionKey": "translation",
      "CaptionName": "котормо",
      "YoutubeSynced": true
    },
    {
      "ID": "18Yx6BffJtiYJkrvaw_yIquY_fyPto_1BGnnJtnAlPiWdgYrun2YgA==",
      "Lang": "lb",
      "CaptionKey": "translation",
      "CaptionName": "Iwwersetzung",
      "YoutubeSynced": true
    },
    {
      "ID": "eXvX-MU0gTURn2fCKpaIpk1Ai__OVNP0mVgwJrZplPmfRBN-3Da_Db9trwDS8WlugYq7eVn7WXQ=",
      "Lang": "lo",
      "CaptionKey": "translation",
      "CaptionName": "ການແປພາສາ",
      "YoutubeSynced": true
    },
    {
      "ID": "zhdFAZbuzquuNLwIvvn0K1tzSm17vQU4HYiu40RCLTCm6GibHbGk8w==",
      "Lang": "lt",
      "CaptionKey": "translation",
      "CaptionName": "Vertimas",
      "YoutubeSynced": true
    },
    {
      "ID": "RceTZyKlGNBN-MVNn237qKAtAEpdquy4HoUtIqpVdX_A0cdUYHF8OA==",
      "Lang": "lv",
      "CaptionKey": "translation",
      "CaptionName": "Tulkošana",
      "YoutubeSynced": true
    },
    {
      "ID": "-g2iKrCodaEzTLbAip40BX2NWIK2Ya-LmlK8AZxnqyY5hV7V55BDLg==",
      "Lang": "mg",
      "CaptionKey": "translation",
      "CaptionName": "Translation",
      "YoutubeSynced": true
    },
    {
      "ID": "sIs_ny1hvMw5mqr9oNOXyzG4-Qx1ItE44u2Zu2BV9pcac6czv9otRw0mOyPN3lnq",
      "Lang": "mi",
      "CaptionKey": "translation",
      "CaptionName": "Whakamaoritanga",
      "YoutubeSynced": true
    },
    {
      "ID": "18Yx6BffJtiUVBvKq_h2jnCaIJYYwb0DTJJbJG3dENGAVBeJDXyqrg==",
      "Lang": "mk",
      "CaptionKey": "translation",
      "CaptionName": "Превод",
      "YoutubeSynced": true
    },
    {
      "ID": "eXvX-MU0gTVIHkZvl_YT4W1mmFiNZRORDXWWFBBtEHwhQNZQwstoZAhdywzuAfDrvw7IeDVEsxk=",
      "Lang": "ml",
      "CaptionKey": "translation",
      "CaptionName": "വിവർത്തനം",
      "YoutubeSynced": true
    },
    {
      "ID": "WuLPq92JxZQEvtLn21dPE84ZlpUEV40m6MfLAB-RJn2gc7tyaRtr0myNKsesk4ob",
      "Lang": "mn",
      "CaptionKey": "translation",
      "CaptionName": "Орчуулга",
      "YoutubeSynced": true
    },
    {
      "ID": "U8R34SYs_kTSapksXoYGr9E7aX8N-2K7xXSDjb_xpQPl0oxTr0yXQqAYJgMLcpfL",
      "Lang": "mr",
      "CaptionKey": "translation",
      "CaptionName": "भाषांतर",
      "YoutubeSynced": true
    },
    {
      "ID": "RceTZyKlGNCBlwpLOWn3mZ380h1ZVUgiR5Be7aTfwTuXPDZdq_4lxw==",
      "Lang": "ms",
      "CaptionKey": "translation",
      "CaptionName": "Terjemahan",
      "YoutubeSynced": true
    },
    {
      "ID": "-g2iKrCodaH23VEnrPa5x-2_bqSUdIv9tsZqqXqnRI7ZuHhpTqPVPQ==",
      "Lang": "mt",
      "CaptionKey": "translation",
      "CaptionName": "Traduzzjoni",
      "YoutubeSynced": true
    },
    {
      "ID": "90Tl_yuMo5BSCOkDbNU4wlJ2RQUzpRNmkGYPg8CvcFuOnq_9Z16RAtOAfvOQRi-L5hY34H_RdIY=",
      "Lang": "my",
      "CaptionKey": "translation",
      "CaptionName": "ဘာသာပြန်",
      "YoutubeSynced": true
    },
    {
      "ID": "uCH3BZrSu_Ozuzf08QbmQjLFJjSUqnOxqNcngg-JiBBVg0WCWdPhOG3K6vz3p5_u",
      "Lang": "ne",
      "CaptionKey": "translation",
      "CaptionName": "अनुवाद",
      "YoutubeSynced": true
    },
    {
      "ID": "pgXQjqrWJ_rRh-mSfEoPFUtG--1RlbRN0jzeawxxq0Gmm1fSj0iOLQ==",
      "Lang": "nl",
      "CaptionKey": "translation",
      "CaptionName": "Vertaling",
      "YoutubeSynced": true
    },
    {
      "ID": "18Yx6BffJtilwvKdYbQ09twLu9BP99_w2KrzSXsC28rHr3bx0-Lkow==",
      "Lang": "no",
      "CaptionKey": "translation",
      "CaptionName": "Oversettelse",
      "YoutubeSynced": true
    },
    {
      "ID": "uCH3BZrSu_NyQSrXYhEcC1Z_AfUqBxmixWNdcEqLSxDMP8yv4thaOC217Yf56wSW",
      "Lang": "pa",
      "CaptionKey": "translation",
      "CaptionName": "ਅਨੁਵਾਦ",
      "YoutubeSynced": true
    },
    {
      "ID": "18Yx6BffJthVYeWLAVcGn-XrTe9-eHf1wZJeylRkfPpYHZK9PRWN1w==",
      "Lang": "pl",
      "CaptionKey": "translation",
      "CaptionName": "Tłumaczenie",
      "YoutubeSynced": true
    },
    {
      "ID": "RceTZyKlGNCu2N5lUutF5cgydVb-rcV-KZj2Ghevn5l4UJxoeIzf4w==",
      "Lang": "ps",
      "CaptionKey": "translation",
      "CaptionName": "ژباړه",
      "YoutubeSynced": true
    },
    {
      "ID": "RceTZyKlGNBgiqK5hL721OTJJ1pUovNkqOerv5rWkaYD-UiZ3z-I0w==",
      "Lang": "pt",
      "CaptionKey": "translation",
      "CaptionName": "Tradução",
      "YoutubeSynced": true
    },
    {
      "ID": "pgXQjqrWJ_pZjXFD9YK32oAV60cOhOldKy7i1JVZ4MEN1sq27PnF0w==",
      "Lang": "ro",
      "CaptionKey": "translation",
      "CaptionName": "Traducere",
      "YoutubeSynced": true
    },
    {
      "ID": "p2pUxawuhVCVMX_lzlpiu-rbLUmAQ8TWNHik6kpUTlhjejrR65FiEg==",
      "Lang": "ru",
      "CaptionKey": "translation",
      "CaptionName": "Перевод",
      "YoutubeSynced": true
    },
    {
      "ID": "RceTZyKlGNCr8FTW1IRIERCWRI9kPxV1uJGZ_J70Vb_BbuxqFSK_iA==",
      "Lang": "sd",
      "CaptionKey": "translation",
      "CaptionName": "ترجمو",
      "YoutubeSynced": true
    },
    {
      "ID": "eXvX-MU0gTUbwZmtGXl4SooK1uISiRDT12OO5nTqBm_9WRyHZIBwIpJc-W5BGhRvnZTuPhf-e7M=",
      "Lang": "si",
      "CaptionKey": "translation",
      "CaptionName": "පරිවර්තනය",
      "YoutubeSynced": true
    },
    {
      "ID": "9Bvq6WPCWJmx6sOBz8hALOoPEYtodDMmd5x9aZHHcHqn5FLa1ef93Q==",
      "Lang": "sk",
      "CaptionKey": "translation",
      "CaptionName": "preklad",
      "YoutubeSynced": true
    },
    {
      "ID": "NpAAXzigW8DSwpdZYU6jLX6kqq1O9d4cCH-s64ALG9Y=",
      "Lang": "sl",
      "CaptionKey": "translation",
      "CaptionName": "Prevod",
      "YoutubeSynced": true
    },
    {
      "ID": "18Yx6BffJthKeBr4mNvG7qxDIUigRV9p0OhVtZu20ozu5QS4iIWmTA==",
      "Lang": "sm",
      "CaptionKey": "translation",
      "CaptionName": "Faʻaliliuga",
      "YoutubeSynced": true
    },
    {
      "ID": "9Bvq6WPCWJlKN6PM1UdILY-Jb3_edHUGjh7sRJ13YHEtbSL8uQPWAw==",
      "Lang": "sn",
      "CaptionKey": "translation",
      "CaptionName": "Dudziro",
      "YoutubeSynced": true
    },
    {
      "ID": "pgXQjqrWJ_oh0p3n6xW_oxTYkHC_eIdIjpYL6t7WR4pF9tDEm7ZYEA==",
      "Lang": "so",
      "CaptionKey": "translation",
      "CaptionName": "Tarjumida",
      "YoutubeSynced": true
    },
    {
      "ID": "pgXQjqrWJ_qMAiWT--KLQD6NNrBxSXwf1VQn-Mu8LjIOvKoKOHD3nQ==",
      "Lang": "sq",
      "CaptionKey": "translation",
      "CaptionName": "përkthim",
      "YoutubeSynced": true
    },
    {
      "ID": "18Yx6BffJtjQ0zG1ELgLE1yZtI-Y8BmXgYHDT4Bh6IVhPZ62IH4c9w==",
      "Lang": "sr",
      "CaptionKey": "translation",
      "CaptionName": "Превод",
      "YoutubeSynced": true
    },
    {
      "ID": "pgXQjqrWJ_owvPhrWyU42yDcNXwwZOtJdEDxJXETEV2p4KBmuuQIwA==",
      "Lang": "st",
      "CaptionKey": "translation",
      "CaptionName": "Phetolelo",
      "YoutubeSynced": true
    },
    {
      "ID": "RceTZyKlGNCg_B6MThFhRBZn-0a5YRtNfiPSmG-rulCnp9Vr6dirdg==",
      "Lang": "su",
      "CaptionKey": "translation",
      "CaptionName": "Tarjamahan",
      "YoutubeSynced": true
    },
    {
      "ID": "p2pUxawuhVCUlOa7xstdG7RWiaqnkdvC30xLQlBNy_pCAngJV8l6ag==",
      "Lang": "sv",
      "CaptionKey": "translation",
      "CaptionName": "Översättning",
      "YoutubeSynced": true
    },
    {
      "ID": "9Bvq6WPCWJkXyul3SECmBKWeiLSCmP_EpOpdeY51f6z9W4tSfn7FQw==",
      "Lang": "sw",
      "CaptionKey": "translation",
      "CaptionName": "Tafsiri",
      "YoutubeSynced": true
    },
    {
      "ID": "iJ42NMp5AoBtI8xdrDsn2thdMG1OU8vuhhq95tkJuS89UsdmLNSmd45AvPfnUbX6U3zorg--Vz0LZCtt2P8IHzb1rgQJv9VO",
      "Lang": "ta",
      "CaptionKey": "translation",
      "CaptionName": "மொழிபெயர்ப்பு",
      "YoutubeSynced": true
    },
    {
      "ID": "U8R34SYs_kQFiwc6z1_rCgYNs6wDHn7W7CL-M8-kQvd8usm--k4HNk8efOdvRMMt",
      "Lang": "te",
      "CaptionKey": "translation",
      "CaptionName": "అనువాదం",
      "YoutubeSynced": true
    },
    {
      "ID": "p2pUxawuhVAq52wIhC5axz_JQ8eFYXqy5GZRlf0DqrX6NVU6MnLyZw==",
      "Lang": "tg",
      "CaptionKey": "translation",
      "CaptionName": "Тарҷума",
      "YoutubeSynced": true
    },
    {
      "ID": "uCH3BZrSu_N53NHY-xAIdvXmhdz3D1lbP0GedavU_n2logyKXd9TqhoSY7GHMSc6",
      "Lang": "th",
      "CaptionKey": "translation",
      "CaptionName": "การแปล",
      "YoutubeSynced": true
    },
    {
      "ID": "zhdFAZbuzqvzRuIxcIBuZQnGP80PawHyA5xl7hZHMP2yDafpOv6-0A==",
      "Lang": "tr",
      "CaptionKey": "translation",
      "CaptionName": "Tercüme",
      "YoutubeSynced": true
    },
    {
      "ID": "WuLPq92JxZRRDD2Cl-1shnpSiuy6AS9iOYfpmrPVXjqg5oFh33uCHTxcp8LVfwiU",
      "Lang": "uk",
      "CaptionKey": "translation",
      "CaptionName": "Переклад",
      "YoutubeSynced": true
    },
    {
      "ID": "RceTZyKlGNBhbgMiv2dRqenWcR8r9sTRMhGOq9x7pNt1yybCnpbcEQ==",
      "Lang": "ur",
      "CaptionKey": "translation",
      "CaptionName": "ترجمہ",
      "YoutubeSynced": true
    },
    {
      "ID": "9Bvq6WPCWJlLiZMsdQGYRon9E5qEgwaj5_pdnE6XNAt8YCEXs31Adw==",
      "Lang": "uz",
      "CaptionKey": "translation",
      "CaptionName": "Tarjima",
      "YoutubeSynced": true
    },
    {
      "ID": "NpAAXzigW8D4bmESAAOkkE62CwLdQtC1YboDPDLe1LA=",
      "Lang": "vi",
      "CaptionKey": "translation",
      "CaptionName": "Dịch",
      "YoutubeSynced": true
    },
    {
      "ID": "RceTZyKlGNBo0-UmTJw5Fxu4dRfTp_-8OdUaLmhEaqf8HbcuCDxnxA==",
      "Lang": "xh",
      "CaptionKey": "translation",
      "CaptionName": "Inguqulelo",
      "YoutubeSynced": true
    },
    {
      "ID": "02bT2J-Q3e4GEXbqs33f6mF__bQpXBJMKY-IprqiXQvdG5Z6xKx9Eraa7i9MT0Hc",
      "Lang": "yi",
      "CaptionKey": "translation",
      "CaptionName": "איבערזעצונג",
      "YoutubeSynced": true
    },
    {
      "ID": "9Bvq6WPCWJl97Ejy07vYrRmP8RVVCmmQ4DFHcCkGu4x7jWyGk9fl5Q==",
      "Lang": "yo",
      "CaptionKey": "translation",
      "CaptionName": "Itumọ",
      "YoutubeSynced": true
    },
    {
      "ID": "-g2iKrCodaFopy1Ci18O8mXc6yoG_o2L4ryn3stRLDGGojGS89kKzg==",
      "Lang": "zh-Hans",
      "CaptionKey": "translation",
      "CaptionName": "翻译",
      "YoutubeSynced": true
    },
    {
      "ID": "-g2iKrCodaFopy1Ci18O8sLSTDNKCLpIaUFWdTNAIx0EM5jlwEz9wg==",
      "Lang": "zh-Hant",
      "CaptionKey": "translation",
      "CaptionName": "翻譯",
      "YoutubeSynced": true
    },
    {
      "ID": "RceTZyKlGNCAJ-mspmuAM6v3qkHTC3OBPqGORSuGPA3RVRfhSQj-YA==",
      "Lang": "zu",
      "CaptionKey": "translation",
      "CaptionName": "Ukuhumusha",
      "YoutubeSynced": true
    }
  ]
}