{
  "VideoFile": "grammar-en-beginner-simple_26_AU.mp4",
  "Captions": [
    {
      "ID": "R7vgEn6AT8kXijt8f2xsPgUocOErn0D-N09NApp24VL_w5l--bVdKw==",
      "Lang": "af",
      "CaptionKey": "translation",
      "CaptionName": "vertaling",
      "YoutubeSynced": true
    },
    {
      "ID": "0On2PrS06Eq9LpVv2UdBfnLwtonbkQOKeDKKNMty5UwSh8Gkef5JpQ==",
      "Lang": "am",
      "CaptionKey": "translation",
      "CaptionName": "ትርጉም",
      "YoutubeSynced": true
    },
    {
      "ID": "feWZVyGuy00Zh9X7DW9x1-C_5utI-FFqoCdXSzt3kFBgjrGAgzdmfw==",
      "Lang": "ar",
      "CaptionKey": "translation",
      "CaptionName": "ترجمة",
      "YoutubeSynced": true
    },
    {
      "ID": "feWZVyGuy01s1ZOxZtOrvG245Xrw_1R1vCQYORHlIPAR8frc4FxkPQ==",
      "Lang": "az",
      "CaptionKey": "translation",
      "CaptionName": "Tərcümə",
      "YoutubeSynced": true
    },
    {
      "ID": "YaFc7WDaL8163hPKh1cRaPVmg4ds78ux4mdtYJInM07-RIVgr8bjKPn1H0KfzwLo",
      "Lang": "be",
      "CaptionKey": "translation",
      "CaptionName": "Пераклад",
      "YoutubeSynced": true
    },
    {
      "ID": "0On2PrS06Eo5QaTHD8WY-eww7EW25hCqv2YRRulEO3iPTB-JjteGGQ==",
      "Lang": "bg",
      "CaptionKey": "translation",
      "CaptionName": "превод",
      "YoutubeSynced": true
    },
    {
      "ID": "1i52rXgB2tBLH8_P5tkvGzZKKnm0uopxS7xcAg1AVU-91BeaxY1aUzdsAefrm6W-",
      "Lang": "bn",
      "CaptionKey": "translation",
      "CaptionName": "অনুবাদ",
      "YoutubeSynced": true
    },
    {
      "ID": "Ruutfi0WpRXS7PxswGSDiuDsMkZCF1FkYmspnOb1KYM=",
      "Lang": "bs",
      "CaptionKey": "translation",
      "CaptionName": "Prevod",
      "YoutubeSynced": true
    },
    {
      "ID": "feWZVyGuy015-OndlrqZqSLakYJaAAHbiYoKfw_zfjRgc83ijtYlIg==",
      "Lang": "ca",
      "CaptionKey": "translation",
      "CaptionName": "Traducció",
      "YoutubeSynced": true
    },
    {
      "ID": "feWZVyGuy01womk4xBd2IUN9RxeBIvheO6odCKj5AMEuSzuTa8zDWA==",
      "Lang": "co",
      "CaptionKey": "translation",
      "CaptionName": "Traduzione",
      "YoutubeSynced": true
    },
    {
      "ID": "jbN1bXne31sSWYviPr_Y-gM7ASMpBoYdHRB9cs8j_wRW-tO0dP6vbA==",
      "Lang": "cs",
      "CaptionKey": "translation",
      "CaptionName": "Překlad",
      "YoutubeSynced": true
    },
    {
      "ID": "j3y0K1-umWuJr1zj4uMU2vkkcRAL9IF3-hAhEdlttXrRRYCTEYOTZQ==",
      "Lang": "cy",
      "CaptionKey": "translation",
      "CaptionName": "Cyfieithiad",
      "YoutubeSynced": true
    },
    {
      "ID": "gDNre-QAIzqEXM6bFtjRBgC6cNUk51Nu9qyX8QgQOmz9_YWxzCsx1Q==",
      "Lang": "da",
      "CaptionKey": "translation",
      "CaptionName": "Oversættelse",
      "YoutubeSynced": true
    },
    {
      "ID": "0On2PrS06Ep1zxczUwTDXarzPLKVZGabrMJ2LcW4J7TnlxZuMLeVDA==",
      "Lang": "de",
      "CaptionKey": "translation",
      "CaptionName": "Übersetzung",
      "YoutubeSynced": true
    },
    {
      "ID": "1i52rXgB2tBVHCPryP2AG5wLrdMDD81IsHBEAJuy09iwt9YU0-iUQ6wshbzkWKoG",
      "Lang": "el",
      "CaptionKey": "translation",
      "CaptionName": "Μετάφραση",
      "YoutubeSynced": true
    },
    {
      "ID": "j3y0K1-umWsoVa742lJ6KitNBVAOGzRGHO4gPOsniARxWYqvBkc8dw==",
      "Lang": "en",
      "CaptionKey": "translation",
      "CaptionName": "Translation",
      "YoutubeSynced": true
    },
    {
      "ID": "VG7lZ-0E9EuWGXfcrYh_CbWvriAKBKBpHpCTqtKNUsBfXEi8Pry-Z_4ntdevLCMM",
      "Lang": "en",
      "CaptionKey": "ruby",
      "CaptionName": "Pronunciation - IPA",
      "YoutubeSynced": true
    },
    {
      "ID": "j3y0K1-umWtMjeMUmqSh3__mM1KMXGc8Vqz-bbb5I6LGsrv93c94mw==",
      "Lang": "es",
      "CaptionKey": "translation",
      "CaptionName": "Traducción",
      "YoutubeSynced": true
    },
    {
      "ID": "Ruutfi0WpRVm9mU91PfxbpTIa-3YxKJ5ESEnRQn-E1g=",
      "Lang": "et",
      "CaptionKey": "translation",
      "CaptionName": "Tõlge",
      "YoutubeSynced": true
    },
    {
      "ID": "R7vgEn6AT8nm7TZYn0CcMc4M7X2C6sG97LRy01XEevqaljHdR2eIqA==",
      "Lang": "eu",
      "CaptionKey": "translation",
      "CaptionName": "Itzulpena",
      "YoutubeSynced": true
    },
    {
      "ID": "feWZVyGuy03xsKn12ri19dVWZWqdDvmZd7VkBnHwtnNAgkI4bffpag==",
      "Lang": "fa",
      "CaptionKey": "translation",
      "CaptionName": "ترجمه",
      "YoutubeSynced": true
    },
    {
      "ID": "feWZVyGuy02U4NpYq-r3xbmoHcKG3Gmym7ggnPt6x1Ad7v1LkDZWQQ==",
      "Lang": "fi",
      "CaptionKey": "translation",
      "CaptionName": "Käännös",
      "YoutubeSynced": true
    },
    {
      "ID": "j3y0K1-umWv5xt67phYUzlpaVj8LzOJilatTO5tPVwuuf1rBmx-CsA==",
      "Lang": "fil",
      "CaptionKey": "translation",
      "CaptionName": "Pagsasalin",
      "YoutubeSynced": true
    },
    {
      "ID": "feWZVyGuy03rwmlrIr68Jj3I9ztZEI0VsFvizCvo_S6b4rg6eLqF3Q==",
      "Lang": "fr",
      "CaptionKey": "translation",
      "CaptionName": "Traduction",
      "YoutubeSynced": true
    },
    {
      "ID": "feWZVyGuy03HMhkB-R_MvgqgQye0Y9VDhAQ2PLkh2RQq_x9UZ9n3tw==",
      "Lang": "fy",
      "CaptionKey": "translation",
      "CaptionName": "Oersetting",
      "YoutubeSynced": true
    },
    {
      "ID": "1i52rXgB2tB9PW3jJzIQLgAZE-FnoR_wVAggJ4geX1NZLMXD32h2PGzw8nCcYahT",
      "Lang": "gd",
      "CaptionKey": "translation",
      "CaptionName": "Eadar-theangachadh",
      "YoutubeSynced": true
    },
    {
      "ID": "feWZVyGuy02Z9f2jC40IlHEYjUx_4dk749pfs8QjK6xEDNy76152Cw==",
      "Lang": "gl",
      "CaptionKey": "translation",
      "CaptionName": "Tradución",
      "YoutubeSynced": true
    },
    {
      "ID": "1i52rXgB2tCNTtR2kNzQUHkYGZEu99JSMCwFpTPT24BSix3NJBb3UPd9TUaH1WeN",
      "Lang": "gu",
      "CaptionKey": "translation",
      "CaptionName": "અનુવાદ",
      "YoutubeSynced": true
    },
    {
      "ID": "SziHE_ApVKaNKo8AIsidO_ps12gpZ5ttKsJzSr-Cx9PAr5Qn8R2vSg==",
      "Lang": "ha",
      "CaptionKey": "translation",
      "CaptionName": "Fassara",
      "YoutubeSynced": true
    },
    {
      "ID": "1i52rXgB2tDiEf83PKYAH6_R19jjTJlzrHWDvFSRtTlc9gC3NXWwA3VyvEOWqwxB",
      "Lang": "hi",
      "CaptionKey": "translation",
      "CaptionName": "अनुवाद",
      "YoutubeSynced": true
    },
    {
      "ID": "jbN1bXne31trFdVSHKAOw4G7aWwCkKdlrRZp1KUBv1HWwKpYvru64g==",
      "Lang": "hr",
      "CaptionKey": "translation",
      "CaptionName": "Prijevod",
      "YoutubeSynced": true
    },
    {
      "ID": "feWZVyGuy036VnjJPg43eN5ib20iPwfyHtSBiL1RTAZ1D9I6Vo52Fw==",
      "Lang": "hu",
      "CaptionKey": "translation",
      "CaptionName": "Fordítás",
      "YoutubeSynced": true
    },
    {
      "ID": "0pnJITYjfDgw28mUGrNc1BtoW5gz0mtnALu81INHbEAmcgKvaLwYil1VXDfGlRvSKxoYpfIhi5Q=",
      "Lang": "hy",
      "CaptionKey": "translation",
      "CaptionName": "Թարգմանություն",
      "YoutubeSynced": true
    },
    {
      "ID": "feWZVyGuy03yQP3e3BjA1QFBWmmp_o78hydCIw740ICyUunGlJpE7g==",
      "Lang": "id",
      "CaptionKey": "translation",
      "CaptionName": "Terjemahan",
      "YoutubeSynced": true
    },
    {
      "ID": "jbN1bXne31uxCcmt2JrfsI2N29awhqw_bs-6KACVkuJMHzUndclAvw==",
      "Lang": "ig",
      "CaptionKey": "translation",
      "CaptionName": "Ntughari",
      "YoutubeSynced": true
    },
    {
      "ID": "R7vgEn6AT8lAh0ttkPvcFNVGnMVig68OmqrZD-Uy4XCE5nbDYdj-gQ==",
      "Lang": "is",
      "CaptionKey": "translation",
      "CaptionName": "Þýðing",
      "YoutubeSynced": true
    },
    {
      "ID": "feWZVyGuy03oXsKeKrkZXukEK1cq_lnyq1rMh5luoc_byzTRAe8NLg==",
      "Lang": "it",
      "CaptionKey": "translation",
      "CaptionName": "Traduzione",
      "YoutubeSynced": true
    },
    {
      "ID": "feWZVyGuy020BbM5POs4oaTKIjTJ5XWl4CeCS69LiQovHDbonGHGQA==",
      "Lang": "iw",
      "CaptionKey": "translation",
      "CaptionName": "תרגום",
      "YoutubeSynced": true
    },
    {
      "ID": "Ruutfi0WpRXaCwvRInmiJs3cN4BrCy3XaLRCukJidzM=",
      "Lang": "ja",
      "CaptionKey": "translation",
      "CaptionName": "翻訳",
      "YoutubeSynced": true
    },
    {
      "ID": "R7vgEn6AT8l4KH1urYgM1CQmaHgZkz6Vwc3VLs41qnltlerxVudXew==",
      "Lang": "jv",
      "CaptionKey": "translation",
      "CaptionName": "Ngartekne",
      "YoutubeSynced": true
    },
    {
      "ID": "kNlI5fh1bY9DnnxI4wDL42I0ukspdALS_7gNmBMyyFINjT90uIN6iK-pIc6obqfNl-2_KTQQtGQ=",
      "Lang": "ka",
      "CaptionKey": "translation",
      "CaptionName": "თარგმანი",
      "YoutubeSynced": true
    },
    {
      "ID": "0zOi4NnYpHMhFgoc95TBi794iunP7QNaj0zc8oUZZNsr2DJilyhNng==",
      "Lang": "kk",
      "CaptionKey": "translation",
      "CaptionName": "Аударма",
      "YoutubeSynced": true
    },
    {
      "ID": "aP8OrWVeet53fsMBpGoz8cbXMaahOunanV084-W1MxWq2p2ZW0n_aEbCBNzkMWoJ3Nxa8z2qnXg=",
      "Lang": "km",
      "CaptionKey": "translation",
      "CaptionName": "ការបកប្រែ",
      "YoutubeSynced": true
    },
    {
      "ID": "1i52rXgB2tBzuBscaVcICFhAwwboLDgt4vqbAzbGLy9a5NmJxVP61kiq0g6cp2ls",
      "Lang": "kn",
      "CaptionKey": "translation",
      "CaptionName": "ಅನುವಾದ",
      "YoutubeSynced": true
    },
    {
      "ID": "Ruutfi0WpRUBcC3FQkL_sNmQmSkf9DGDwcUUE3YkQkw=",
      "Lang": "ko",
      "CaptionKey": "translation",
      "CaptionName": "번역",
      "YoutubeSynced": true
    },
    {
      "ID": "Ruutfi0WpRWfA9D2EBlaL48j8GYEONYeA14sReVNNyI=",
      "Lang": "ku",
      "CaptionKey": "translation",
      "CaptionName": "Werger",
      "YoutubeSynced": true
    },
    {
      "ID": "0zOi4NnYpHMF1K8Hbha1yDXz4l4hmzfPPBn03rkC6_jqAAuzBXGaTw==",
      "Lang": "ky",
      "CaptionKey": "translation",
      "CaptionName": "котормо",
      "YoutubeSynced": true
    },
    {
      "ID": "0On2PrS06Eqy5E5n_kbpi7tTiUaEV-oIz8HkTkIfPoQp5st-_UmIAQ==",
      "Lang": "lb",
      "CaptionKey": "translation",
      "CaptionName": "Iwwersetzung",
      "YoutubeSynced": true
    },
    {
      "ID": "aP8OrWVeet6tD1WR9GX_Pxa8TK_dg635YPciWOLJKbAS844Zf4bOMmpRZ6DDet77RP-5ujN3tlo=",
      "Lang": "lo",
      "CaptionKey": "translation",
      "CaptionName": "ການແປພາສາ",
      "YoutubeSynced": true
    },
    {
      "ID": "jbN1bXne31vqD3rYH5hY8yHncWsTk3_XImkgI5-zUihzrJ_j-u3M8A==",
      "Lang": "lt",
      "CaptionKey": "translation",
      "CaptionName": "Vertimas",
      "YoutubeSynced": true
    },
    {
      "ID": "feWZVyGuy02KYsvheC9u5zKgfrSFI0wvgewmDBATpBoGaRPm4hkw1A==",
      "Lang": "lv",
      "CaptionKey": "translation",
      "CaptionName": "Tulkošana",
      "YoutubeSynced": true
    },
    {
      "ID": "j3y0K1-umWv8xV5ouoCsonOlE_u-cRVhwc4lZ44yi5WYUdcEhWppSg==",
      "Lang": "mg",
      "CaptionKey": "translation",
      "CaptionName": "Translation",
      "YoutubeSynced": true
    },
    {
      "ID": "NxWJoCyDTLuwM4U7mJHO9odWWn-CWqdue2RG7cNEcwbbhWZ0EOVll5EI67aJYbQg",
      "Lang": "mi",
      "CaptionKey": "translation",
      "CaptionName": "Whakamaoritanga",
      "YoutubeSynced": true
    },
    {
      "ID": "0On2PrS06EqSGQuU4d38nZdQCsYfGKGqAFAplTeEVqRhYG_quzwC8w==",
      "Lang": "mk",
      "CaptionKey": "translation",
      "CaptionName": "Превод",
      "YoutubeSynced": true
    },
    {
      "ID": "aP8OrWVeet7wc3K6wdEPqkEF14TsBux5rY6W7PdB2IoXUEMaLhApSajQHm3DIJedTed7mN8bYqw=",
      "Lang": "ml",
      "CaptionKey": "translation",
      "CaptionName": "വിവർത്തനം",
      "YoutubeSynced": true
    },
    {
      "ID": "YaFc7WDaL83h3wIGzvRA59F50joOVZ4tmt1QqBGjDSbSPX_OvhqyDZScScXKjICu",
      "Lang": "mn",
      "CaptionKey": "translation",
      "CaptionName": "Орчуулга",
      "YoutubeSynced": true
    },
    {
      "ID": "m-mU2uz7qvL-dJQ4oKtnJm-iLDIp2gX76x2CyYG3SQ9uTXO3zc48MP38gf_gNVDi",
      "Lang": "mr",
      "CaptionKey": "translation",
      "CaptionName": "भाषांतर",
      "YoutubeSynced": true
    },
    {
      "ID": "feWZVyGuy02Z9f6t2WGCB-_DPd7l5YGa67ySmSCdxcJt5mw8D2IuQA==",
      "Lang": "ms",
      "CaptionKey": "translation",
      "CaptionName": "Terjemahan",
      "YoutubeSynced": true
    },
    {
      "ID": "j3y0K1-umWsI2_POhamgqYzNRcoSRWt7aPDOJQZ0mDPgnR_Utc_GPg==",
      "Lang": "mt",
      "CaptionKey": "translation",
      "CaptionName": "Traduzzjoni",
      "YoutubeSynced": true
    },
    {
      "ID": "kNlI5fh1bY9xxUUe5It_0ZfjMc1-abKcSiMFBnZQNLY2LA9kmJwZ1MekwJkoPkWBK0Cwqo-84oo=",
      "Lang": "my",
      "CaptionKey": "translation",
      "CaptionName": "ဘာသာပြန်",
      "YoutubeSynced": true
    },
    {
      "ID": "1i52rXgB2tBnJS8w5iYvUuzPt4k3ldjxWREwrDz7txcwnGgBEGWctdYyHq0gCXx7",
      "Lang": "ne",
      "CaptionKey": "translation",
      "CaptionName": "अनुवाद",
      "YoutubeSynced": true
    },
    {
      "ID": "R7vgEn6AT8mu2UzRK5HkpRcG7Yg7q_7VP3yVfeygXmCp4C3pVcNUvg==",
      "Lang": "nl",
      "CaptionKey": "translation",
      "CaptionName": "Vertaling",
      "YoutubeSynced": true
    },
    {
      "ID": "0On2PrS06EpotFjGHoVmZWRBv4Iy0EGqaiJ2KBAFNDLhhB3AP1TT-g==",
      "Lang": "no",
      "CaptionKey": "translation",
      "CaptionName": "Oversettelse",
      "YoutubeSynced": true
    },
    {
      "ID": "1i52rXgB2tDSNP9UkycWADuvQWpmjqNG25H3n5-TsIJtE1RVNkPkota1gk5YEw4_",
      "Lang": "pa",
      "CaptionKey": "translation",
      "CaptionName": "ਅਨੁਵਾਦ",
      "YoutubeSynced": true
    },
    {
      "ID": "0On2PrS06EqmJg9f1URyv8OINOOuTuw1XTqc__ZWgLM7700P9m-HNg==",
      "Lang": "pl",
      "CaptionKey": "translation",
      "CaptionName": "Tłumaczenie",
      "YoutubeSynced": true
    },
    {
      "ID": "feWZVyGuy03QiVwAxoCs6WsvrY2KCKl242A1Wm8Nf6f_9h5ooAHO-Q==",
      "Lang": "ps",
      "CaptionKey": "translation",
      "CaptionName": "ژباړه",
      "YoutubeSynced": true
    },
    {
      "ID": "feWZVyGuy037BU_tUY6lJoIhUc86QeaTykXTYyelk89ZSce1rNyRjw==",
      "Lang": "pt",
      "CaptionKey": "translation",
      "CaptionName": "Tradução",
      "YoutubeSynced": true
    },
    {
      "ID": "R7vgEn6AT8keiaFuN_gyIYjvCSDOCZyE0vqTANpzxL73-LdoC4ng-g==",
      "Lang": "ro",
      "CaptionKey": "translation",
      "CaptionName": "Traducere",
      "YoutubeSynced": true
    },
    {
      "ID": "0zOi4NnYpHPJ3RnkIHx3zCLHTVS216kU3p3oj2KtmLFq-Q61d_3gtA==",
      "Lang": "ru",
      "CaptionKey": "translation",
      "CaptionName": "Перевод",
      "YoutubeSynced": true
    },
    {
      "ID": "feWZVyGuy034B9N91sLKhmCETy6c6HIIiqYi-zGft6ZI41uGZzVJ9A==",
      "Lang": "sd",
      "CaptionKey": "translation",
      "CaptionName": "ترجمو",
      "YoutubeSynced": true
    },
    {
      "ID": "aP8OrWVeet7L-k19ULi9NsslyNyjN6I_C2agIJbtmhnAM1sg3Rcy0_YavKO8V4VI8BDxmTzt7H4=",
      "Lang": "si",
      "CaptionKey": "translation",
      "CaptionName": "පරිවර්තනය",
      "YoutubeSynced": true
    },
    {
      "ID": "SziHE_ApVKaqsjDzZe_1xI_fwB9mOjemGRtQ9JW4l86FDsCDf-m3Ag==",
      "Lang": "sk",
      "CaptionKey": "translation",
      "CaptionName": "preklad",
      "YoutubeSynced": true
    },
    {
      "ID": "Ruutfi0WpRW28htrASvupxn4iBAJqhZUnolbkstrb4A=",
      "Lang": "sl",
      "CaptionKey": "translation",
      "CaptionName": "Prevod",
      "YoutubeSynced": true
    },
    {
      "ID": "0On2PrS06ErhoppWFG7Xca67qQ2ng3Vq_Fba70vGGgVqw6r_R6vKyQ==",
      "Lang": "sm",
      "CaptionKey": "translation",
      "CaptionName": "Faʻaliliuga",
      "YoutubeSynced": true
    },
    {
      "ID": "SziHE_ApVKYorlDQvU-wuNkWm_IN1nKy5kKgOgSvWTr_p6UvB_zY_w==",
      "Lang": "sn",
      "CaptionKey": "translation",
      "CaptionName": "Dudziro",
      "YoutubeSynced": true
    },
    {
      "ID": "R7vgEn6AT8mH0oE9AdaYHL8rrEcjf7GObiOCKjChc8nEpcF9wvVFQw==",
      "Lang": "so",
      "CaptionKey": "translation",
      "CaptionName": "Tarjumida",
      "YoutubeSynced": true
    },
    {
      "ID": "R7vgEn6AT8mv4fZr-v2vernK0xwIXIJkVcbhXFd7UogsuezA17NVlg==",
      "Lang": "sq",
      "CaptionKey": "translation",
      "CaptionName": "përkthim",
      "YoutubeSynced": true
    },
    {
      "ID": "0On2PrS06EoaF23bF6hbcVGBF-xTvi8oYjM8jJDEaQJcEjHl4-BvXA==",
      "Lang": "sr",
      "CaptionKey": "translation",
      "CaptionName": "Превод",
      "YoutubeSynced": true
    },
    {
      "ID": "R7vgEn6AT8mZd9q1M5-qQ-plhVRoAa05l4Oir9IN-yNzafvyHvRAkA==",
      "Lang": "st",
      "CaptionKey": "translation",
      "CaptionName": "Phetolelo",
      "YoutubeSynced": true
    },
    {
      "ID": "feWZVyGuy03DgswEzb17whzkvGrahbabgrtqWHRFmjgLbOlA7ywahA==",
      "Lang": "su",
      "CaptionKey": "translation",
      "CaptionName": "Tarjamahan",
      "YoutubeSynced": true
    },
    {
      "ID": "0zOi4NnYpHMhmoYEELwv6WDzDvB7isfGIWJHkeu4MP7ag8Bgc5QlMA==",
      "Lang": "sv",
      "CaptionKey": "translation",
      "CaptionName": "Översättning",
      "YoutubeSynced": true
    },
    {
      "ID": "SziHE_ApVKay55c6J4qS68WetLVJ7uftTKGRiwr7Hab7pgNShn5oTQ==",
      "Lang": "sw",
      "CaptionKey": "translation",
      "CaptionName": "Tafsiri",
      "YoutubeSynced": true
    },
    {
      "ID": "2PJhkM1gLBrf2ORnTDTjtRjzu_KkZYItUpt6ebnO5jUa7EtzqWqaRabiFQOhVR-8-zec6010n5gtPn1uIVo4paKa9isDAssq",
      "Lang": "ta",
      "CaptionKey": "translation",
      "CaptionName": "மொழிபெயர்ப்பு",
      "YoutubeSynced": true
    },
    {
      "ID": "m-mU2uz7qvKXZcZRpLU1mUevR71mqjDoNqrPYnlV1YWhoS076X6IuVfAEllqbnkT",
      "Lang": "te",
      "CaptionKey": "translation",
      "CaptionName": "అనువాదం",
      "YoutubeSynced": true
    },
    {
      "ID": "0zOi4NnYpHPjLBR9Zq42VlP61pf1KtblBhaHWpOq5dZUN-AtaYPz1g==",
      "Lang": "tg",
      "CaptionKey": "translation",
      "CaptionName": "Тарҷума",
      "YoutubeSynced": true
    },
    {
      "ID": "1i52rXgB2tD_NX3pr0vvBxWiO7NpQP9PROl2Fki76OhaVLFYisAZrUlSWNP5ZYst",
      "Lang": "th",
      "CaptionKey": "translation",
      "CaptionName": "การแปล",
      "YoutubeSynced": true
    },
    {
      "ID": "jbN1bXne31st4sCQQ5B6gkRas_aQzAjfAM9W5y-UHpIVKZfWH_v4SA==",
      "Lang": "tr",
      "CaptionKey": "translation",
      "CaptionName": "Tercüme",
      "YoutubeSynced": true
    },
    {
      "ID": "YaFc7WDaL82ERA_d9JlMv_7rea6S5pg7scE-XwAE7Lu2n94SURIZs5Hi7EKoVewI",
      "Lang": "uk",
      "CaptionKey": "translation",
      "CaptionName": "Переклад",
      "YoutubeSynced": true
    },
    {
      "ID": "feWZVyGuy00dQPnmRJld16ztUh96z3vBIrB0gdM25TlFofu1dA0TcQ==",
      "Lang": "ur",
      "CaptionKey": "translation",
      "CaptionName": "ترجمہ",
      "YoutubeSynced": true
    },
    {
      "ID": "SziHE_ApVKbdvcwfIWi0uXI-uZ-hW-Y_vKSeMVmO87faXBy56ntGEw==",
      "Lang": "uz",
      "CaptionKey": "translation",
      "CaptionName": "Tarjima",
      "YoutubeSynced": true
    },
    {
      "ID": "Ruutfi0WpRUTNhuOVZskFnC5JPaNHHOq5tsXIbPDCeE=",
      "Lang": "vi",
      "CaptionKey": "translation",
      "CaptionName": "Dịch",
      "YoutubeSynced": true
    },
    {
      "ID": "feWZVyGuy03o45FPR2mPpm0V45P8ZmPugNhOc_Y_0B_g5yHlMpYiQw==",
      "Lang": "xh",
      "CaptionKey": "translation",
      "CaptionName": "Inguqulelo",
      "YoutubeSynced": true
    },
    {
      "ID": "_WgEh04iHTHLDVRQ6VM-YBLdNIaQFumMKkgH2QaX_yxwilwI3qGmsHH25ioCEdMs",
      "Lang": "yi",
      "CaptionKey": "translation",
      "CaptionName": "איבערזעצונג",
      "YoutubeSynced": true
    },
    {
      "ID": "SziHE_ApVKZT7JBLO5pm7u-B1YsIUCQv-GQcXKTexKPi4yS51OSNWg==",
      "Lang": "yo",
      "CaptionKey": "translation",
      "CaptionName": "Itumọ",
      "YoutubeSynced": true
    },
    {
      "ID": "j3y0K1-umWtRkGHFybpZG1ZF55grwml2qfBaZjkvbEUc3CW0JfRnyQ==",
      "Lang": "zh-Hans",
      "CaptionKey": "translation",
      "CaptionName": "翻译",
      "YoutubeSynced": true
    },
    {
      "ID": "j3y0K1-umWtRkGHFybpZGxC9rIdxN78BDOlWq78HvX2xlDnBILGZGw==",
      "Lang": "zh-Hant",
      "CaptionKey": "translation",
      "CaptionName": "翻譯",
      "YoutubeSynced": true
    },
    {
      "ID": "feWZVyGuy03AKUjtJ-IsdJlX0J7Tv4qEm9_yAg3c7oyrLC8WnvWReA==",
      "Lang": "zu",
      "CaptionKey": "translation",
      "CaptionName": "Ukuhumusha",
      "YoutubeSynced": true
    }
  ]
}