{
  "VideoFile": "grammar-en-beginner-simple_45_IN.mp4",
  "Captions": [
    {
      "ID": "yjLgm99Me9-i7_ckW7L5xwYkk-5ddwuMaZfq-FYW6HdYPxSCCAMyEw==",
      "Lang": "af",
      "CaptionKey": "translation",
      "CaptionName": "vertaling",
      "YoutubeSynced": true
    },
    {
      "ID": "AMAyikuWf-1KgKDzumrSl7wXM09t1PXPPwfmVcd27o68Zw4piVIBUA==",
      "Lang": "am",
      "CaptionKey": "translation",
      "CaptionName": "ትርጉም",
      "YoutubeSynced": true
    },
    {
      "ID": "5RJTR9xA3jf-C24z0DKm0CHj67J4aKAl-TRGpy5ypqg1eH-gamzIjA==",
      "Lang": "ar",
      "CaptionKey": "translation",
      "CaptionName": "ترجمة",
      "YoutubeSynced": true
    },
    {
      "ID": "5RJTR9xA3jc5UDy_tVPNt65x3RB38NYE4NzOirnYn_uksKW53BRveg==",
      "Lang": "az",
      "CaptionKey": "translation",
      "CaptionName": "Tərcümə",
      "YoutubeSynced": true
    },
    {
      "ID": "8ENZKUcvXp7m5QSwQzqUIG8j3RwrD-z5lcoRdGwevVsofvA-y5ldCbGrj_lZMwGh",
      "Lang": "be",
      "CaptionKey": "translation",
      "CaptionName": "Пераклад",
      "YoutubeSynced": true
    },
    {
      "ID": "AMAyikuWf-3fopC5KgzOVShioLNUIDUotXq6HDVzyign5zAMmawVmQ==",
      "Lang": "bg",
      "CaptionKey": "translation",
      "CaptionName": "превод",
      "YoutubeSynced": true
    },
    {
      "ID": "wOm3GyI5bR-UgMAGh8RUDpeieH_Nd8vyuHS2esUgEk5DdiRMPcNsEc5SrRbbYLO_",
      "Lang": "bn",
      "CaptionKey": "translation",
      "CaptionName": "অনুবাদ",
      "YoutubeSynced": true
    },
    {
      "ID": "RhA0bZu9JggokkkDZVyMQ1UnfFDqMqEd7OmMxqUCGbM=",
      "Lang": "bs",
      "CaptionKey": "translation",
      "CaptionName": "Prevod",
      "YoutubeSynced": true
    },
    {
      "ID": "5RJTR9xA3jeKa7aFRHnub_vSuE0MzQ8Kfdl_PgRsNPXd-3S4TilU_g==",
      "Lang": "ca",
      "CaptionKey": "translation",
      "CaptionName": "Traducció",
      "YoutubeSynced": true
    },
    {
      "ID": "5RJTR9xA3jc0S6OFVTm7mgI7bBahFLUgF2lCIqrSn44Nl6fe9AQgUw==",
      "Lang": "co",
      "CaptionKey": "translation",
      "CaptionName": "Traduzione",
      "YoutubeSynced": true
    },
    {
      "ID": "Cjqezguy-X0miDlwaqlPGBlpTxxrqJl5GNNzLHLZiRDcyiKob2VIYA==",
      "Lang": "cs",
      "CaptionKey": "translation",
      "CaptionName": "Překlad",
      "YoutubeSynced": true
    },
    {
      "ID": "M_S4u1f8cniui0suMheZIZp_a3MBUCDjOj8GJLYkrt6f4J75oe8MnQ==",
      "Lang": "cy",
      "CaptionKey": "translation",
      "CaptionName": "Cyfieithiad",
      "YoutubeSynced": true
    },
    {
      "ID": "kA2U4Soh-sc-zHyI1a_BlVCo9Kg76X4Xk-K2C1dGamg5Hv2NCxrIVQ==",
      "Lang": "da",
      "CaptionKey": "translation",
      "CaptionName": "Oversættelse",
      "YoutubeSynced": true
    },
    {
      "ID": "AMAyikuWf-1muYDLhzzXqN-peqsKB2hNBaz9YUYkkXP_d9ukFMk4-g==",
      "Lang": "de",
      "CaptionKey": "translation",
      "CaptionName": "Übersetzung",
      "YoutubeSynced": true
    },
    {
      "ID": "wOm3GyI5bR9_Y5Gu7YwI6Ucgo56vm8YlB_7ikd19d85YATYd1-EhkxBrc2g2O7K7",
      "Lang": "el",
      "CaptionKey": "translation",
      "CaptionName": "Μετάφραση",
      "YoutubeSynced": true
    },
    {
      "ID": "M_S4u1f8cnixZbcJ21fcgACRQyFjPPk6ZWXTwbsMhJsdihvD4Mq-UA==",
      "Lang": "en",
      "CaptionKey": "translation",
      "CaptionName": "Translation",
      "YoutubeSynced": true
    },
    {
      "ID": "1Fn1XuYecQV1WzjXUb_dBXd4gCh3hkxgLsYSnYGDR9WUk9G2xam-CqHaCMTu_2pX",
      "Lang": "en",
      "CaptionKey": "ruby",
      "CaptionName": "Pronunciation - IPA",
      "YoutubeSynced": true
    },
    {
      "ID": "M_S4u1f8cnjMA_v43FcYmbN3eGmVRbjhJrc8m1qyqFWrw9-WbWOmqA==",
      "Lang": "es",
      "CaptionKey": "translation",
      "CaptionName": "Traducción",
      "YoutubeSynced": true
    },
    {
      "ID": "RhA0bZu9JgiUlqVTar__l5WB2ZSUfOXZnCjW6VKW-W0=",
      "Lang": "et",
      "CaptionKey": "translation",
      "CaptionName": "Tõlge",
      "YoutubeSynced": true
    },
    {
      "ID": "yjLgm99Me9-s3rmeiaWqAItlni-oyiumYuSRvvmMdz6Nj2ceBhB5og==",
      "Lang": "eu",
      "CaptionKey": "translation",
      "CaptionName": "Itzulpena",
      "YoutubeSynced": true
    },
    {
      "ID": "5RJTR9xA3jf1y9ghPJABVVYJDUQ3czFVYfZ6z2G0iiMEKM12Ny_SBA==",
      "Lang": "fa",
      "CaptionKey": "translation",
      "CaptionName": "ترجمه",
      "YoutubeSynced": true
    },
    {
      "ID": "5RJTR9xA3jchg2f0tcbC_MJoHymQQdq4iRF_GXoJdHHnHRXR2w7v-Q==",
      "Lang": "fi",
      "CaptionKey": "translation",
      "CaptionName": "Käännös",
      "YoutubeSynced": true
    },
    {
      "ID": "M_S4u1f8cnhp1G-PjBITn2Nm62v4Rg8-_ZQRsoXYq79bwSnxuCtDvQ==",
      "Lang": "fil",
      "CaptionKey": "translation",
      "CaptionName": "Pagsasalin",
      "YoutubeSynced": true
    },
    {
      "ID": "5RJTR9xA3jeaQC0lESlO5fl9vXotpkkkGQW2Q9wL0xYeuSQoGtBsMQ==",
      "Lang": "fr",
      "CaptionKey": "translation",
      "CaptionName": "Traduction",
      "YoutubeSynced": true
    },
    {
      "ID": "5RJTR9xA3jd-_L8OteHK5hzj0YkzOiQWvFvoue9M33SRPQtN_J38gA==",
      "Lang": "fy",
      "CaptionKey": "translation",
      "CaptionName": "Oersetting",
      "YoutubeSynced": true
    },
    {
      "ID": "wOm3GyI5bR9bSMsZ-fyopo4Fjo59LMzaS8cy_SHGnslrbP49oM_kgxBdynf9ACQv",
      "Lang": "gd",
      "CaptionKey": "translation",
      "CaptionName": "Eadar-theangachadh",
      "YoutubeSynced": true
    },
    {
      "ID": "5RJTR9xA3jfQTa32D1HoVkZurlDGzXPoD_Ye0btW0dscAFZr9HsEgg==",
      "Lang": "gl",
      "CaptionKey": "translation",
      "CaptionName": "Tradución",
      "YoutubeSynced": true
    },
    {
      "ID": "wOm3GyI5bR_R8f-c70qQsY735LWIIT5UsiXWsI5xqoi3x07skbaSLQwB6zMBFZuL",
      "Lang": "gu",
      "CaptionKey": "translation",
      "CaptionName": "અનુવાદ",
      "YoutubeSynced": true
    },
    {
      "ID": "IRDXKHGFy8gRtcGIkicmjghXbefAY4Eggwsa3N3BGvPmhPGoRcsJIg==",
      "Lang": "ha",
      "CaptionKey": "translation",
      "CaptionName": "Fassara",
      "YoutubeSynced": true
    },
    {
      "ID": "wOm3GyI5bR-Ml_oNEBC2WOLuFzUZ5cl7E7qhXHhKorqjs8L6I4SnxJCQZ8l6Csf4",
      "Lang": "hi",
      "CaptionKey": "translation",
      "CaptionName": "अनुवाद",
      "YoutubeSynced": true
    },
    {
      "ID": "Cjqezguy-X1jGu39I6ZqlejApffIL5ThfdKRBlK7I--CrJKOl9TJiw==",
      "Lang": "hr",
      "CaptionKey": "translation",
      "CaptionName": "Prijevod",
      "YoutubeSynced": true
    },
    {
      "ID": "5RJTR9xA3jevrZc65f3VlXyOLIra9W2Pu0BXrWcIsMkLJZr2_ejVtw==",
      "Lang": "hu",
      "CaptionKey": "translation",
      "CaptionName": "Fordítás",
      "YoutubeSynced": true
    },
    {
      "ID": "HlJdpw8aCm6fOJgsox-poQubK0TCNUMIxKMUJ5uV8ujdrO2rapnha-U2Mflecz44jff4V1yPK1Y=",
      "Lang": "hy",
      "CaptionKey": "translation",
      "CaptionName": "Թարգմանություն",
      "YoutubeSynced": true
    },
    {
      "ID": "5RJTR9xA3jfkaAWFsV5QTb_mkklMlIMic_EIs614WhrC3qa3UeHsPA==",
      "Lang": "id",
      "CaptionKey": "translation",
      "CaptionName": "Terjemahan",
      "YoutubeSynced": true
    },
    {
      "ID": "Cjqezguy-X09n5NOC-0d5LPmBsEk3Sv3l1v135ufceWIGuNrEg4cZA==",
      "Lang": "ig",
      "CaptionKey": "translation",
      "CaptionName": "Ntughari",
      "YoutubeSynced": true
    },
    {
      "ID": "yjLgm99Me9_l2_49EE9R6kZbCcrCqjQbBNKWhVd7XzvJ3lQGYpSReQ==",
      "Lang": "is",
      "CaptionKey": "translation",
      "CaptionName": "Þýðing",
      "YoutubeSynced": true
    },
    {
      "ID": "5RJTR9xA3jfIoERY-4aDGxTO5VBo75n9rTQAgpjqDelSsT37igHo_g==",
      "Lang": "it",
      "CaptionKey": "translation",
      "CaptionName": "Traduzione",
      "YoutubeSynced": true
    },
    {
      "ID": "5RJTR9xA3jeajg3b08_eLxjVAjIuQrV3_1uH43I-M-11eUyhdqJi-g==",
      "Lang": "iw",
      "CaptionKey": "translation",
      "CaptionName": "תרגום",
      "YoutubeSynced": true
    },
    {
      "ID": "RhA0bZu9JggnqrUR0Y2iogAObKjeVK_pGT2_pGvw-AA=",
      "Lang": "ja",
      "CaptionKey": "translation",
      "CaptionName": "翻訳",
      "YoutubeSynced": true
    },
    {
      "ID": "yjLgm99Me99YFM1GsTdXiS_X8tCIr1stlmqX24riBy3TM_V7RLKqEQ==",
      "Lang": "jv",
      "CaptionKey": "translation",
      "CaptionName": "Ngartekne",
      "YoutubeSynced": true
    },
    {
      "ID": "QhPHLaD3fc-UVFylWKJsc52JzgdpfBkOqhsVFslvvSXUqLPokZUXi1VnF6_om5ujzueK-JRXabE=",
      "Lang": "ka",
      "CaptionKey": "translation",
      "CaptionName": "თარგმანი",
      "YoutubeSynced": true
    },
    {
      "ID": "V9v4054cE-_Yh66NzNv_xHWUIb4NUuB3EHxnJj_OYDeI-hJKh3TxuQ==",
      "Lang": "kk",
      "CaptionKey": "translation",
      "CaptionName": "Аударма",
      "YoutubeSynced": true
    },
    {
      "ID": "G0fIXQ3MjALo-uhZYWwsy9pn2_IbueWRJjopiK1hhfkuHnvW50Lx1qUvABGvzmtoCeNMAdfCwoY=",
      "Lang": "km",
      "CaptionKey": "translation",
      "CaptionName": "ការបកប្រែ",
      "YoutubeSynced": true
    },
    {
      "ID": "wOm3GyI5bR8_-MChf1_07oLJgk_6J1ygsWRCB4vcHL-nlae61ttkyzKis2jMAJPG",
      "Lang": "kn",
      "CaptionKey": "translation",
      "CaptionName": "ಅನುವಾದ",
      "YoutubeSynced": true
    },
    {
      "ID": "RhA0bZu9JghXaZ1m47utIh53hFbrWcb37GUnYtRUdok=",
      "Lang": "ko",
      "CaptionKey": "translation",
      "CaptionName": "번역",
      "YoutubeSynced": true
    },
    {
      "ID": "RhA0bZu9JgjUaJAJQHcFHARq81dvuhqqhV8M4fBKCdM=",
      "Lang": "ku",
      "CaptionKey": "translation",
      "CaptionName": "Werger",
      "YoutubeSynced": true
    },
    {
      "ID": "V9v4054cE-_XWokxCP8SizQoUXePoLew87tQdloDMPk6vM8_eYBT0g==",
      "Lang": "ky",
      "CaptionKey": "translation",
      "CaptionName": "котормо",
      "YoutubeSynced": true
    },
    {
      "ID": "AMAyikuWf-0XLxPH3q7BoNxFoSR7mp2DgqndxgtBLpFt6Wp-rPgfmQ==",
      "Lang": "lb",
      "CaptionKey": "translation",
      "CaptionName": "Iwwersetzung",
      "YoutubeSynced": true
    },
    {
      "ID": "G0fIXQ3MjAJIWD6gw9cdDmSlNzIOPfJB_JbokQyf2eav6U9rLeSy88k4OVdqmYMUpOXc70wg6S8=",
      "Lang": "lo",
      "CaptionKey": "translation",
      "CaptionName": "ການແປພາສາ",
      "YoutubeSynced": true
    },
    {
      "ID": "Cjqezguy-X3N3erzgKtxRXn5FjhSJwj_27VSk2EZ6UzGcePwqcKYGQ==",
      "Lang": "lt",
      "CaptionKey": "translation",
      "CaptionName": "Vertimas",
      "YoutubeSynced": true
    },
    {
      "ID": "5RJTR9xA3jfAE39g74zq6OikDpKCjFwjnG3WwLoFf4Rqq4Ka76N_TA==",
      "Lang": "lv",
      "CaptionKey": "translation",
      "CaptionName": "Tulkošana",
      "YoutubeSynced": true
    },
    {
      "ID": "M_S4u1f8cnhTpNV_OxuPyJKMbXuOigA2jMMhtF5N7GRtyGMbjVARZQ==",
      "Lang": "mg",
      "CaptionKey": "translation",
      "CaptionName": "Translation",
      "YoutubeSynced": true
    },
    {
      "ID": "d_6ChtL0-I63rP4v2tM_9cA9siAsnGGKMGMx-CBneLO-rFqbBeH5ZAAYG0VwOYNz",
      "Lang": "mi",
      "CaptionKey": "translation",
      "CaptionName": "Whakamaoritanga",
      "YoutubeSynced": true
    },
    {
      "ID": "AMAyikuWf-3WLjbA7lGeQr6vG1SBCPimrazPrZyUVrfBOgCSo3H-Fw==",
      "Lang": "mk",
      "CaptionKey": "translation",
      "CaptionName": "Превод",
      "YoutubeSynced": true
    },
    {
      "ID": "G0fIXQ3MjALBqtEU74Re5ziTxnoszwNeHLhVLPlA34dy6roZf8txyIZ1oN11WM0BgbysQz0kfmc=",
      "Lang": "ml",
      "CaptionKey": "translation",
      "CaptionName": "വിവർത്തനം",
      "YoutubeSynced": true
    },
    {
      "ID": "8ENZKUcvXp4vM0IaWXQ7omss9MXblkTSxfO_DEP00-L1B5gqYd_P8JBFHi8FPxp9",
      "Lang": "mn",
      "CaptionKey": "translation",
      "CaptionName": "Орчуулга",
      "YoutubeSynced": true
    },
    {
      "ID": "rtV3x1YuJy2tgy6QJv9mK8N8lJq6I9Hm_w2f0sgcCtVFtR0dgX1d30XaUxHPdIIi",
      "Lang": "mr",
      "CaptionKey": "translation",
      "CaptionName": "भाषांतर",
      "YoutubeSynced": true
    },
    {
      "ID": "5RJTR9xA3je-Mev0qhUEbwj0d5fZmxt7Y_HfIm9kVWkDmwh9P1aTBA==",
      "Lang": "ms",
      "CaptionKey": "translation",
      "CaptionName": "Terjemahan",
      "YoutubeSynced": true
    },
    {
      "ID": "M_S4u1f8cngIlbuBBW81ufxh64UiuK8-PUsLGlUnrnrDXU7qDwSwPQ==",
      "Lang": "mt",
      "CaptionKey": "translation",
      "CaptionName": "Traduzzjoni",
      "YoutubeSynced": true
    },
    {
      "ID": "QhPHLaD3fc9Nm75ltQq8QEa8kmUa4AFZ33dF3u7a7AwKir0bOnwIM75xS8Wd17XKGYstwB-o4Uc=",
      "Lang": "my",
      "CaptionKey": "translation",
      "CaptionName": "ဘာသာပြန်",
      "YoutubeSynced": true
    },
    {
      "ID": "wOm3GyI5bR9ZGQMJgMnsGwENflZeDAtZaOtKwqugw7GMXvHH6ymtJq7SCP1FPkkE",
      "Lang": "ne",
      "CaptionKey": "translation",
      "CaptionName": "अनुवाद",
      "YoutubeSynced": true
    },
    {
      "ID": "yjLgm99Me9_M-3yoIfjyvH3TyMl1F0hKixhlMxj5JiYzA5AxleR0Yg==",
      "Lang": "nl",
      "CaptionKey": "translation",
      "CaptionName": "Vertaling",
      "YoutubeSynced": true
    },
    {
      "ID": "AMAyikuWf-1NmhemV9sVA1JNxiy7C1lkDpcAudwwe1RN0ituclggUg==",
      "Lang": "no",
      "CaptionKey": "translation",
      "CaptionName": "Oversettelse",
      "YoutubeSynced": true
    },
    {
      "ID": "wOm3GyI5bR-0xfpbAXdmbPPVP2c3iaTHak7gcDXUmjEc5Jpn-g97uPCzT9inLlvw",
      "Lang": "pa",
      "CaptionKey": "translation",
      "CaptionName": "ਅਨੁਵਾਦ",
      "YoutubeSynced": true
    },
    {
      "ID": "AMAyikuWf-2DD-W-l8BfjVpB2a2AeOeSr-wxprzmaWeas8-ZCBPYFw==",
      "Lang": "pl",
      "CaptionKey": "translation",
      "CaptionName": "Tłumaczenie",
      "YoutubeSynced": true
    },
    {
      "ID": "5RJTR9xA3jenaD7PqY4TFmYx6vxTtTvWJD6XUS0t5IoWgEIu9T_zuA==",
      "Lang": "ps",
      "CaptionKey": "translation",
      "CaptionName": "ژباړه",
      "YoutubeSynced": true
    },
    {
      "ID": "5RJTR9xA3jelfTuDFyWkv41uI_Kz2CfS_z49KowqnNIliepMUrViRg==",
      "Lang": "pt",
      "CaptionKey": "translation",
      "CaptionName": "Tradução",
      "YoutubeSynced": true
    },
    {
      "ID": "yjLgm99Me9-28Ty-iE_NW_CXwnwou5QzRPYFqBNX6S6WtSnm1rZsFQ==",
      "Lang": "ro",
      "CaptionKey": "translation",
      "CaptionName": "Traducere",
      "YoutubeSynced": true
    },
    {
      "ID": "V9v4054cE-9h5Vi-0jwBqDa3SnBJRmtUXQBxcgJNfoDZ1u99BiePgA==",
      "Lang": "ru",
      "CaptionKey": "translation",
      "CaptionName": "Перевод",
      "YoutubeSynced": true
    },
    {
      "ID": "5RJTR9xA3jddnpOnQpaXYdG6nOXrt1pBHTGlsSk0dXVIst9CSSJ6Ug==",
      "Lang": "sd",
      "CaptionKey": "translation",
      "CaptionName": "ترجمو",
      "YoutubeSynced": true
    },
    {
      "ID": "G0fIXQ3MjAKwwGGtsuyWIW5BRAjC5mSKT5YO22L2dVJf1YQluSx9AfZ7za0rOFMAwUN6MW7vL0k=",
      "Lang": "si",
      "CaptionKey": "translation",
      "CaptionName": "පරිවර්තනය",
      "YoutubeSynced": true
    },
    {
      "ID": "IRDXKHGFy8gI8Xxxj9gUVLCqeziSlECpOEtGqcAjOkoTOPXeCkMpWQ==",
      "Lang": "sk",
      "CaptionKey": "translation",
      "CaptionName": "preklad",
      "YoutubeSynced": true
    },
    {
      "ID": "RhA0bZu9Jgiqpto5vHJFVBs68E2qjRukGaZDuRwRfvs=",
      "Lang": "sl",
      "CaptionKey": "translation",
      "CaptionName": "Prevod",
      "YoutubeSynced": true
    },
    {
      "ID": "AMAyikuWf-2iTS1dNyXzjQSF9J40ga-Q_qojtx_-HvsFCLmryJYv2A==",
      "Lang": "sm",
      "CaptionKey": "translation",
      "CaptionName": "Faʻaliliuga",
      "YoutubeSynced": true
    },
    {
      "ID": "IRDXKHGFy8hau6bpgmhcHY1f4lX2uiesjWpuLi6DJ8S0Gd__5dQ-eg==",
      "Lang": "sn",
      "CaptionKey": "translation",
      "CaptionName": "Dudziro",
      "YoutubeSynced": true
    },
    {
      "ID": "yjLgm99Me9_sWYtkPaAer_bjRcC6GMjqHILcagHSP1k1A7KDLzNlfA==",
      "Lang": "so",
      "CaptionKey": "translation",
      "CaptionName": "Tarjumida",
      "YoutubeSynced": true
    },
    {
      "ID": "yjLgm99Me99QhD1c0ZLr7xXCxPyhbkaFy0wacYC-88KeEMxOw5pNyg==",
      "Lang": "sq",
      "CaptionKey": "translation",
      "CaptionName": "përkthim",
      "YoutubeSynced": true
    },
    {
      "ID": "AMAyikuWf-3cVIB1HATBKbgq9i70jpDwCKfzvALjNlM3TB5Vvq63yQ==",
      "Lang": "sr",
      "CaptionKey": "translation",
      "CaptionName": "Превод",
      "YoutubeSynced": true
    },
    {
      "ID": "yjLgm99Me9-OBgRhKe0094OsyAoybg_9LwefS8_V-ObBjSAyFAGeuQ==",
      "Lang": "st",
      "CaptionKey": "translation",
      "CaptionName": "Phetolelo",
      "YoutubeSynced": true
    },
    {
      "ID": "5RJTR9xA3jdwLKuxwoWgBfxIg0jcekX54Ux0OT_iqqG5vuQXCFmIMg==",
      "Lang": "su",
      "CaptionKey": "translation",
      "CaptionName": "Tarjamahan",
      "YoutubeSynced": true
    },
    {
      "ID": "V9v4054cE--l_YD4GzsTfVhOvIh926QMekjbkO77YubAPYNcf69AXQ==",
      "Lang": "sv",
      "CaptionKey": "translation",
      "CaptionName": "Översättning",
      "YoutubeSynced": true
    },
    {
      "ID": "IRDXKHGFy8hsLUHArUdfZ9fe_nLSnpw1kNWPeutkrIi48mDnEskwNQ==",
      "Lang": "sw",
      "CaptionKey": "translation",
      "CaptionName": "Tafsiri",
      "YoutubeSynced": true
    },
    {
      "ID": "bac7XHk9TrCr_MJzSpeOBKVTfw-faHJ0QDTFqoAFihJNYwuE1hzJ14Km5DBbUH00h9LG3NvzLV57OzPqq73zJqrcql_qsTMv",
      "Lang": "ta",
      "CaptionKey": "translation",
      "CaptionName": "மொழிபெயர்ப்பு",
      "YoutubeSynced": true
    },
    {
      "ID": "rtV3x1YuJy04FdTHAralsCn3n6hdLTJ9NAbZCQbSsmVxRozUBMSqBt2idQGQ4Hgn",
      "Lang": "te",
      "CaptionKey": "translation",
      "CaptionName": "అనువాదం",
      "YoutubeSynced": true
    },
    {
      "ID": "V9v4054cE-_7oiD-y1cIZrVMwnJPr3CyA8_HY5LsrDvZ306_98u97A==",
      "Lang": "tg",
      "CaptionKey": "translation",
      "CaptionName": "Тарҷума",
      "YoutubeSynced": true
    },
    {
      "ID": "wOm3GyI5bR-1ug-avQ3wfBrE85BCUQI-JdHn0HnYXzCZaSv9JueC7OcUqMO5uMoH",
      "Lang": "th",
      "CaptionKey": "translation",
      "CaptionName": "การแปล",
      "YoutubeSynced": true
    },
    {
      "ID": "Cjqezguy-X2L05C05HpOEcQY62h1Vnhdy28RILyBxChPAjpqFyECGw==",
      "Lang": "tr",
      "CaptionKey": "translation",
      "CaptionName": "Tercüme",
      "YoutubeSynced": true
    },
    {
      "ID": "8ENZKUcvXp7Mr7UkPEN-A0Kl1QgS7jgV2d5Mit5HYOB05VgUcRDBUw9rjwAIHHIA",
      "Lang": "uk",
      "CaptionKey": "translation",
      "CaptionName": "Переклад",
      "YoutubeSynced": true
    },
    {
      "ID": "5RJTR9xA3jdnPW75CK5LdL0gik6MRRuqCjiJAcBjW8x2kimXlE_eWQ==",
      "Lang": "ur",
      "CaptionKey": "translation",
      "CaptionName": "ترجمہ",
      "YoutubeSynced": true
    },
    {
      "ID": "IRDXKHGFy8iBn56Bsyr_lz5pZ-9eq88_zQBrx00DBplYGlUmfeWVqg==",
      "Lang": "uz",
      "CaptionKey": "translation",
      "CaptionName": "Tarjima",
      "YoutubeSynced": true
    },
    {
      "ID": "RhA0bZu9JgiiSHfeHM1otZE8jjfKsn8cRJsD4cmM7mA=",
      "Lang": "vi",
      "CaptionKey": "translation",
      "CaptionName": "Dịch",
      "YoutubeSynced": true
    },
    {
      "ID": "5RJTR9xA3jc6TdvIHj0BZh0gEQmAReta8ZUrAf3GtKEKK3XLNs3wYw==",
      "Lang": "xh",
      "CaptionKey": "translation",
      "CaptionName": "Inguqulelo",
      "YoutubeSynced": true
    },
    {
      "ID": "4Ca3GIz7FeFVf4WNVg-dPvO_YYz23IcvUkedHjgITYDRoc_QZZCJlT26WRhd8_F0",
      "Lang": "yi",
      "CaptionKey": "translation",
      "CaptionName": "איבערזעצונג",
      "YoutubeSynced": true
    },
    {
      "ID": "IRDXKHGFy8iKnDORM_M6UbRLjmiWuCdfmxsuPAA4gIflGsHRjPxjxQ==",
      "Lang": "yo",
      "CaptionKey": "translation",
      "CaptionName": "Itumọ",
      "YoutubeSynced": true
    },
    {
      "ID": "M_S4u1f8cnj43iETTSwjjntOwAzax0IqjByYQ8q2e1b_m5rJazApAA==",
      "Lang": "zh-Hans",
      "CaptionKey": "translation",
      "CaptionName": "翻译",
      "YoutubeSynced": true
    },
    {
      "ID": "M_S4u1f8cnj43iETTSwjjqpQYNn17gNG-EBhztZe50sUVhUo0XeXUw==",
      "Lang": "zh-Hant",
      "CaptionKey": "translation",
      "CaptionName": "翻譯",
      "YoutubeSynced": true
    },
    {
      "ID": "5RJTR9xA3jcewO3QD0a0YGNoznfHKm33SsbJ762RtHDDBvNJDvZczA==",
      "Lang": "zu",
      "CaptionKey": "translation",
      "CaptionName": "Ukuhumusha",
      "YoutubeSynced": true
    }
  ]
}