{
  "VideoFile": "grammar-en-beginner-simple_15_AU.mp4",
  "Captions": [
    {
      "ID": "1M4LgwXT61u7AvZecg3FPlcZls4z2IQ1iHIlwL5rD08CUet3ycUyRA==",
      "Lang": "af",
      "CaptionKey": "translation",
      "CaptionName": "vertaling",
      "YoutubeSynced": true
    },
    {
      "ID": "xKimQM3fKgs6ER67r7tn4qdqL4lszQmdYD8egeQ3WAYjpEAj2VnuvQ==",
      "Lang": "am",
      "CaptionKey": "translation",
      "CaptionName": "ትርጉም",
      "YoutubeSynced": true
    },
    {
      "ID": "K77-bTwIdOzKqIeMgssOdiBBj7t_9Yd3Sn9XiWKysWphNvTxUomnmg==",
      "Lang": "ar",
      "CaptionKey": "translation",
      "CaptionName": "ترجمة",
      "YoutubeSynced": true
    },
    {
      "ID": "K77-bTwIdOx9Zmtq5Qp_n3wG5XfpZz1DC2TkqHA7n5c5IJOv-Yknug==",
      "Lang": "az",
      "CaptionKey": "translation",
      "CaptionName": "Tərcümə",
      "YoutubeSynced": true
    },
    {
      "ID": "Y9j_Kqpe-rjghmvZmVZ-kMOIGRUENbG3OAxfX6BVDGMYwCEymMNNJMkugGv23Ss0",
      "Lang": "be",
      "CaptionKey": "translation",
      "CaptionName": "Пераклад",
      "YoutubeSynced": true
    },
    {
      "ID": "xKimQM3fKgvQHcwcZt6iTjqx044iFXyl5fQg350DLibgNuOhX9XSjw==",
      "Lang": "bg",
      "CaptionKey": "translation",
      "CaptionName": "превод",
      "YoutubeSynced": true
    },
    {
      "ID": "bfNLaoaU4pDXYccjzqdkIs8TaQDErpZd3fUHP6FzjQJS_-ElHEkE7VgohfsFxyfu",
      "Lang": "bn",
      "CaptionKey": "translation",
      "CaptionName": "অনুবাদ",
      "YoutubeSynced": true
    },
    {
      "ID": "E7qTaHGgOyaGHv6n1jGJ9BtuOwmtlhXxV1yUU58DqS4=",
      "Lang": "bs",
      "CaptionKey": "translation",
      "CaptionName": "Prevod",
      "YoutubeSynced": true
    },
    {
      "ID": "K77-bTwIdOyNB-_UovxZa9t-e3D5Whyv4estyMgFD_lefr3YWEojMA==",
      "Lang": "ca",
      "CaptionKey": "translation",
      "CaptionName": "Traducció",
      "YoutubeSynced": true
    },
    {
      "ID": "K77-bTwIdOw8QKBv2yaafUxm3Z_qe4joloNTiqm1W0RxEDAbzess1Q==",
      "Lang": "co",
      "CaptionKey": "translation",
      "CaptionName": "Traduzione",
      "YoutubeSynced": true
    },
    {
      "ID": "qt-GqzeYE9On4poETRfYeJcOxgalKYu_R_4x_gPww3zHk4MSULgRlQ==",
      "Lang": "cs",
      "CaptionKey": "translation",
      "CaptionName": "Překlad",
      "YoutubeSynced": true
    },
    {
      "ID": "qMzbmWUKr8z3NfLXMxveJnu6EwT3Sb13VDLqTJe6zGEM1YmD-tGoPw==",
      "Lang": "cy",
      "CaptionKey": "translation",
      "CaptionName": "Cyfieithiad",
      "YoutubeSynced": true
    },
    {
      "ID": "7hjcfcwNCYAp4-UhCk5MWCtfN1df31OnwhAIVsAam7V_HUHBafjQPQ==",
      "Lang": "da",
      "CaptionKey": "translation",
      "CaptionName": "Oversættelse",
      "YoutubeSynced": true
    },
    {
      "ID": "xKimQM3fKgvDg1EUeQW3kvtyxwps7HNj59B483OIwo6oM2S2Ipt5Mw==",
      "Lang": "de",
      "CaptionKey": "translation",
      "CaptionName": "Übersetzung",
      "YoutubeSynced": true
    },
    {
      "ID": "bfNLaoaU4pB60CdvzRI_5FH5avstLpMrjrdrTEgkZcEt8M1ZzM2gV9CePxNiTxvN",
      "Lang": "el",
      "CaptionKey": "translation",
      "CaptionName": "Μετάφραση",
      "YoutubeSynced": true
    },
    {
      "ID": "qMzbmWUKr8yBDVt_Ihcv97iri_jPzrCh4a30RAkgsE8AAiskbXG1xQ==",
      "Lang": "en",
      "CaptionKey": "translation",
      "CaptionName": "Translation",
      "YoutubeSynced": true
    },
    {
      "ID": "bPmephmtmyTz2aHNZj4A3G52uBg46GJRZgWD4wcRDC5yQ7MAI8jGPZ0vl9QJYZsd",
      "Lang": "en",
      "CaptionKey": "ruby",
      "CaptionName": "Pronunciation - IPA",
      "YoutubeSynced": true
    },
    {
      "ID": "qMzbmWUKr8wl3FttvDZwweZNv8cXcVLAIWroNP0aFIdynajlumaqcw==",
      "Lang": "es",
      "CaptionKey": "translation",
      "CaptionName": "Traducción",
      "YoutubeSynced": true
    },
    {
      "ID": "E7qTaHGgOyaQJBYHX1-1KAaOWwqWA4ewYdIi11gkYZM=",
      "Lang": "et",
      "CaptionKey": "translation",
      "CaptionName": "Tõlge",
      "YoutubeSynced": true
    },
    {
      "ID": "1M4LgwXT61sVJNZalNeP9atZjvQdwjuXIvMLU1xlITvRuwYuiYctww==",
      "Lang": "eu",
      "CaptionKey": "translation",
      "CaptionName": "Itzulpena",
      "YoutubeSynced": true
    },
    {
      "ID": "K77-bTwIdOyW7-JnC1Ts8pT2eK_ej_PeBFWRdjVFYB2ZtYW--rAYGw==",
      "Lang": "fa",
      "CaptionKey": "translation",
      "CaptionName": "ترجمه",
      "YoutubeSynced": true
    },
    {
      "ID": "K77-bTwIdOwGQome-RlqhKq-mzDRiwvBGT_kRbFciTo2SeVSLIY5fw==",
      "Lang": "fi",
      "CaptionKey": "translation",
      "CaptionName": "Käännös",
      "YoutubeSynced": true
    },
    {
      "ID": "qMzbmWUKr8yxolG6xDv0R2MeHDVle8ZqP1uJiEQ2MkiBtfF3bYXQyg==",
      "Lang": "fil",
      "CaptionKey": "translation",
      "CaptionName": "Pagsasalin",
      "YoutubeSynced": true
    },
    {
      "ID": "K77-bTwIdOzi4R28nOPSxKtLoJUujUHtBARgF9K6uO1qrpJh6QwQKA==",
      "Lang": "fr",
      "CaptionKey": "translation",
      "CaptionName": "Traduction",
      "YoutubeSynced": true
    },
    {
      "ID": "K77-bTwIdOzjFcIvuixzjpnpKFTFdQkpQh3dwlpCGrr8X1BaRhdB1w==",
      "Lang": "fy",
      "CaptionKey": "translation",
      "CaptionName": "Oersetting",
      "YoutubeSynced": true
    },
    {
      "ID": "bfNLaoaU4pBv6rW3z-xQUMSmlvX0bKH0nNWn-HzQSef6ulR6w5m5EPW80A427rFY",
      "Lang": "gd",
      "CaptionKey": "translation",
      "CaptionName": "Eadar-theangachadh",
      "YoutubeSynced": true
    },
    {
      "ID": "K77-bTwIdOxpyS13HLIGnEA8z2hFDpqeXhv1SfuU9mwjimas6pyr-A==",
      "Lang": "gl",
      "CaptionKey": "translation",
      "CaptionName": "Tradución",
      "YoutubeSynced": true
    },
    {
      "ID": "bfNLaoaU4pDyCzNHTMqwUAWChi0_On9EUnMBSKFPaAQuqj0ZrmiIduSf_tvSijF2",
      "Lang": "gu",
      "CaptionKey": "translation",
      "CaptionName": "અનુવાદ",
      "YoutubeSynced": true
    },
    {
      "ID": "e2FPiC-7EUMS4vPwPRhDIb1l275IsiOR27waNMabbkXsoaifRT1vPQ==",
      "Lang": "ha",
      "CaptionKey": "translation",
      "CaptionName": "Fassara",
      "YoutubeSynced": true
    },
    {
      "ID": "bfNLaoaU4pDpuzR93mH0GNXsIvdRnk-KOqEbogOZeo--vPNYms6qCSuxC_TQusf_",
      "Lang": "hi",
      "CaptionKey": "translation",
      "CaptionName": "अनुवाद",
      "YoutubeSynced": true
    },
    {
      "ID": "qt-GqzeYE9MpOV-tJiaiOuOTH3WgAq5-ViruUfv1XyRTbK1lXy_ZDw==",
      "Lang": "hr",
      "CaptionKey": "translation",
      "CaptionName": "Prijevod",
      "YoutubeSynced": true
    },
    {
      "ID": "K77-bTwIdOxMKDdM7l9b2O6-mJxKU2Nq5oR8-YGFsXjEMUGSsiiI2Q==",
      "Lang": "hu",
      "CaptionKey": "translation",
      "CaptionName": "Fordítás",
      "YoutubeSynced": true
    },
    {
      "ID": "sypegF2tEyW1XKNJWDDUCqaq58Xl6S90cVOpmP4Ykdx2ziRgrNi8mFQncoNAAkgbXvkHXUjj8UI=",
      "Lang": "hy",
      "CaptionKey": "translation",
      "CaptionName": "Թարգմանություն",
      "YoutubeSynced": true
    },
    {
      "ID": "K77-bTwIdOwJZUFl_Cu304QACBMYuUn7X82WPP307B7vHVO_fsGkhw==",
      "Lang": "id",
      "CaptionKey": "translation",
      "CaptionName": "Terjemahan",
      "YoutubeSynced": true
    },
    {
      "ID": "qt-GqzeYE9OtalqWieF4jD2i2AJp6XiJZ1OarzgNcdvzig1QFOS1XA==",
      "Lang": "ig",
      "CaptionKey": "translation",
      "CaptionName": "Ntughari",
      "YoutubeSynced": true
    },
    {
      "ID": "1M4LgwXT61vKzDXmRbxJ7DX3n_Sw7Q87fLXwdP3tVATrIFhMtwAquA==",
      "Lang": "is",
      "CaptionKey": "translation",
      "CaptionName": "Þýðing",
      "YoutubeSynced": true
    },
    {
      "ID": "K77-bTwIdOzlqA5PmjsqmeM-hahSX-9q21xp2Mb5g_vlbjjxJzlSBQ==",
      "Lang": "it",
      "CaptionKey": "translation",
      "CaptionName": "Traduzione",
      "YoutubeSynced": true
    },
    {
      "ID": "K77-bTwIdOxehQzD9OgSL-9GCEx5JesG7aTCw_BOwuyttk9nA1VjiA==",
      "Lang": "iw",
      "CaptionKey": "translation",
      "CaptionName": "תרגום",
      "YoutubeSynced": true
    },
    {
      "ID": "E7qTaHGgOyadbG2KuHAF0_9bdH4R2cnNkq0zllBNXXU=",
      "Lang": "ja",
      "CaptionKey": "translation",
      "CaptionName": "翻訳",
      "YoutubeSynced": true
    },
    {
      "ID": "1M4LgwXT61tXs9fz4wrLPS8LRHsLgm4uOutMXNAM6VEze74Ro6nvQg==",
      "Lang": "jv",
      "CaptionKey": "translation",
      "CaptionName": "Ngartekne",
      "YoutubeSynced": true
    },
    {
      "ID": "AusVcIZblNCWmpwLu6lS0SED_yZ7_cRqtPzYnDLXGwOBBYvDRwY38v7mxs8YJ6BHpAu-joZaOXg=",
      "Lang": "ka",
      "CaptionKey": "translation",
      "CaptionName": "თარგმანი",
      "YoutubeSynced": true
    },
    {
      "ID": "icOyIeYTAaiC4I_AEcZ2bOS8Y0of94xGFXEo0OHgpQbv2UKTXFjS7A==",
      "Lang": "kk",
      "CaptionKey": "translation",
      "CaptionName": "Аударма",
      "YoutubeSynced": true
    },
    {
      "ID": "n9ajVEPaPCRewXCTE4BE81-3vkaAxspCecXElwUCxKMd1NUz2q8RQU2B6wRxXbqDtUBNKUgI54U=",
      "Lang": "km",
      "CaptionKey": "translation",
      "CaptionName": "ការបកប្រែ",
      "YoutubeSynced": true
    },
    {
      "ID": "bfNLaoaU4pDeaczXFZn7ZyiNpGzUrXiTde-NgctybXWtwZMId7jSzbPPniDb6qmv",
      "Lang": "kn",
      "CaptionKey": "translation",
      "CaptionName": "ಅನುವಾದ",
      "YoutubeSynced": true
    },
    {
      "ID": "E7qTaHGgOyYkcE03q8e0ndQEv35IskVgyc09_k7LWnc=",
      "Lang": "ko",
      "CaptionKey": "translation",
      "CaptionName": "번역",
      "YoutubeSynced": true
    },
    {
      "ID": "E7qTaHGgOyZfFFYIqEW_ZvURpot3SuraJbKfV01F34o=",
      "Lang": "ku",
      "CaptionKey": "translation",
      "CaptionName": "Werger",
      "YoutubeSynced": true
    },
    {
      "ID": "icOyIeYTAagafSuSCv8t8Sbky9ktFqBNWx7K8aeT0yMBXVG2i70nUA==",
      "Lang": "ky",
      "CaptionKey": "translation",
      "CaptionName": "котормо",
      "YoutubeSynced": true
    },
    {
      "ID": "xKimQM3fKguBz9TqTl2wlqDqeyoNu_7HBRY0vp8xS2nO5Zg6OvhmXQ==",
      "Lang": "lb",
      "CaptionKey": "translation",
      "CaptionName": "Iwwersetzung",
      "YoutubeSynced": true
    },
    {
      "ID": "n9ajVEPaPCQwxjdl9vRI0nl9RAqi6KuBoQZKzXB7OWSrLlJvho9l7Pgeu5O8nSZJ1ZxY8g_nJmY=",
      "Lang": "lo",
      "CaptionKey": "translation",
      "CaptionName": "ການແປພາສາ",
      "YoutubeSynced": true
    },
    {
      "ID": "qt-GqzeYE9MIDEjiBu9LEp-k6PgE_M6ZcRmnuEijaQy3kp740zTszg==",
      "Lang": "lt",
      "CaptionKey": "translation",
      "CaptionName": "Vertimas",
      "YoutubeSynced": true
    },
    {
      "ID": "K77-bTwIdOyximDHrLKcq0o7e564bYRxJqWr6wr1vLBG1bE52xQ9OQ==",
      "Lang": "lv",
      "CaptionKey": "translation",
      "CaptionName": "Tulkošana",
      "YoutubeSynced": true
    },
    {
      "ID": "qMzbmWUKr8wGvfcBefLKC4nzrdR9BxMkUqlAvDd_zDFSuhCUstcPmw==",
      "Lang": "mg",
      "CaptionKey": "translation",
      "CaptionName": "Translation",
      "YoutubeSynced": true
    },
    {
      "ID": "ZcQUwDWurJP5-52Ux3zLuAMu0jXZJ8vNAnE0Rz5WRcfVg9rzXQJOZBAcI-R1ASrv",
      "Lang": "mi",
      "CaptionKey": "translation",
      "CaptionName": "Whakamaoritanga",
      "YoutubeSynced": true
    },
    {
      "ID": "xKimQM3fKguNwFX3w-1QNkHwG9Mm6BBuJz0zKl5XqGfszP8reA6lOg==",
      "Lang": "mk",
      "CaptionKey": "translation",
      "CaptionName": "Превод",
      "YoutubeSynced": true
    },
    {
      "ID": "n9ajVEPaPCQDQOoagGFaKH_y6Mdu9f1So_zXxlVMnA7hgJ9jBktMYLISppG-KiRyxV--PDP3TdQ=",
      "Lang": "ml",
      "CaptionKey": "translation",
      "CaptionName": "വിവർത്തനം",
      "YoutubeSynced": true
    },
    {
      "ID": "Y9j_Kqpe-ricSsZF0uMJoOfgPwwz9hVoQnEx1O7JSN7QJqCMzAERffrkH5UaO1Vk",
      "Lang": "mn",
      "CaptionKey": "translation",
      "CaptionName": "Орчуулга",
      "YoutubeSynced": true
    },
    {
      "ID": "VMbO5scZUAMBUsqCYC8vQAHKdnhIuC05v97HZ9dY0ucApa8puwjUnsvw2YRT5aU9",
      "Lang": "mr",
      "CaptionKey": "translation",
      "CaptionName": "भाषांतर",
      "YoutubeSynced": true
    },
    {
      "ID": "K77-bTwIdOzN8aDmtQkRSys6Xym03ytIJDW5d8vhDwG0oIHETMbVxg==",
      "Lang": "ms",
      "CaptionKey": "translation",
      "CaptionName": "Terjemahan",
      "YoutubeSynced": true
    },
    {
      "ID": "qMzbmWUKr8wQzdqvcGDrij2d2Kwd8UWNsrVC5PblMaDOWVlVRv0dHw==",
      "Lang": "mt",
      "CaptionKey": "translation",
      "CaptionName": "Traduzzjoni",
      "YoutubeSynced": true
    },
    {
      "ID": "AusVcIZblNCdybJlHeqyAUoFUFyg75SR6NUHIqTedo97lFOrcL2SCuDTCzgeRuB_zZHoBCaiceA=",
      "Lang": "my",
      "CaptionKey": "translation",
      "CaptionName": "ဘာသာပြန်",
      "YoutubeSynced": true
    },
    {
      "ID": "bfNLaoaU4pDu62Pj70Mb2oH0OIp2nbdCCr6UAoHflhOMSWNfb7sZA3lV4xmgn14F",
      "Lang": "ne",
      "CaptionKey": "translation",
      "CaptionName": "अनुवाद",
      "YoutubeSynced": true
    },
    {
      "ID": "1M4LgwXT61tEOGsTn0eQaVugkloADBCQVR_h_IHAuNbJaAVZMxxR8Q==",
      "Lang": "nl",
      "CaptionKey": "translation",
      "CaptionName": "Vertaling",
      "YoutubeSynced": true
    },
    {
      "ID": "xKimQM3fKgsWqVA1lKDnZlOPWHEGisu5Fa3yRdIeCiKOixwk2D6JFg==",
      "Lang": "no",
      "CaptionKey": "translation",
      "CaptionName": "Oversettelse",
      "YoutubeSynced": true
    },
    {
      "ID": "bfNLaoaU4pBCxiq9oOnGjPpAgeGayIv45gEunEWUjH_tuUHZag7hLUq8rP5vhqcF",
      "Lang": "pa",
      "CaptionKey": "translation",
      "CaptionName": "ਅਨੁਵਾਦ",
      "YoutubeSynced": true
    },
    {
      "ID": "xKimQM3fKguf58UgKSgYPj0SFC6zPJmJ5crzlcP0bdT3uVcP4Veviw==",
      "Lang": "pl",
      "CaptionKey": "translation",
      "CaptionName": "Tłumaczenie",
      "YoutubeSynced": true
    },
    {
      "ID": "K77-bTwIdOzQAJnA1u83acU7L99vBCIBaW94_bCuSgq2dC1tlJVcRA==",
      "Lang": "ps",
      "CaptionKey": "translation",
      "CaptionName": "ژباړه",
      "YoutubeSynced": true
    },
    {
      "ID": "K77-bTwIdOw0C7IJay2Bwua_Y6Bxwk08LJMnXkgVmPMLRTrsbg24jg==",
      "Lang": "pt",
      "CaptionKey": "translation",
      "CaptionName": "Tradução",
      "YoutubeSynced": true
    },
    {
      "ID": "1M4LgwXT61siELiwaefWPCKYrN2dDr2kmyounlP6aMQMc0az_O_xmQ==",
      "Lang": "ro",
      "CaptionKey": "translation",
      "CaptionName": "Traducere",
      "YoutubeSynced": true
    },
    {
      "ID": "icOyIeYTAahdKncf6fHYSHa6f_yzSX7vxeR-AfKqoK3ahwG7q6BNjA==",
      "Lang": "ru",
      "CaptionKey": "translation",
      "CaptionName": "Перевод",
      "YoutubeSynced": true
    },
    {
      "ID": "K77-bTwIdOwQrC8aFpfysAy1u05AjKq6LbAc68548OUxS6uxpfoZcQ==",
      "Lang": "sd",
      "CaptionKey": "translation",
      "CaptionName": "ترجمو",
      "YoutubeSynced": true
    },
    {
      "ID": "n9ajVEPaPCQyZvFVLO7ryNRZT50psvGB21WX6WsMxsUGqR5nZoB_vblx1B-_55GEv7e4W5yv2GQ=",
      "Lang": "si",
      "CaptionKey": "translation",
      "CaptionName": "පරිවර්තනය",
      "YoutubeSynced": true
    },
    {
      "ID": "e2FPiC-7EUPLdPKZ7OOTYuLpFFgWRLnGiCvI59qVH21_3CcpYv2L2A==",
      "Lang": "sk",
      "CaptionKey": "translation",
      "CaptionName": "preklad",
      "YoutubeSynced": true
    },
    {
      "ID": "E7qTaHGgOybKCLZSGVdmoMv7BM04IXDoGfEDnYihmaM=",
      "Lang": "sl",
      "CaptionKey": "translation",
      "CaptionName": "Prevod",
      "YoutubeSynced": true
    },
    {
      "ID": "xKimQM3fKgvYBMqsgaWrqiLYgDquP6TKrSjBRBPK1OgYTK-TlONkeg==",
      "Lang": "sm",
      "CaptionKey": "translation",
      "CaptionName": "Faʻaliliuga",
      "YoutubeSynced": true
    },
    {
      "ID": "e2FPiC-7EUMzlcRmbMUP8nxcqh8CPraTMdYieNJQIzf54_tfGOrlOw==",
      "Lang": "sn",
      "CaptionKey": "translation",
      "CaptionName": "Dudziro",
      "YoutubeSynced": true
    },
    {
      "ID": "1M4LgwXT61sBRsPw8QMx08Yh1yI-stiwOotgEzKlOAps-zShhDeO8A==",
      "Lang": "so",
      "CaptionKey": "translation",
      "CaptionName": "Tarjumida",
      "YoutubeSynced": true
    },
    {
      "ID": "1M4LgwXT61suiuEXqEpy3A9o1nkDVAci51g1jIy64QNQOhal8KpZcg==",
      "Lang": "sq",
      "CaptionKey": "translation",
      "CaptionName": "përkthim",
      "YoutubeSynced": true
    },
    {
      "ID": "xKimQM3fKgt-ADzRsWiK1Yd4-dExAVoKF0wQ8FHZTgHdBospFHh1Lw==",
      "Lang": "sr",
      "CaptionKey": "translation",
      "CaptionName": "Превод",
      "YoutubeSynced": true
    },
    {
      "ID": "1M4LgwXT61uLX3xDitRAn-9ltzP4T6xddGZ2LSRNDHJaNLwgR_q8OQ==",
      "Lang": "st",
      "CaptionKey": "translation",
      "CaptionName": "Phetolelo",
      "YoutubeSynced": true
    },
    {
      "ID": "K77-bTwIdOyicZdOxAWU6FAu6CsToQK1tf7qfbuFKuDuPRFwYLv-9w==",
      "Lang": "su",
      "CaptionKey": "translation",
      "CaptionName": "Tarjamahan",
      "YoutubeSynced": true
    },
    {
      "ID": "icOyIeYTAaiLxNsETQ3OvQ_od0nMa9rB7IU80na0CGuqxD7Pp__XPw==",
      "Lang": "sv",
      "CaptionKey": "translation",
      "CaptionName": "Översättning",
      "YoutubeSynced": true
    },
    {
      "ID": "e2FPiC-7EUMVBKOlJE6cZ3aaE1gJi1S_EKRmOGQG7b3i7eH6jUNZcg==",
      "Lang": "sw",
      "CaptionKey": "translation",
      "CaptionName": "Tafsiri",
      "YoutubeSynced": true
    },
    {
      "ID": "lsZtYRY3NosfVdK2fmsHJMtGsuqiLGhQ8c8pgu2fArFCrLPqc2xnNed-vh1v5Eh-eyERC5MUDPpAKGrF4TSKUKIz-H5z4qhd",
      "Lang": "ta",
      "CaptionKey": "translation",
      "CaptionName": "மொழிபெயர்ப்பு",
      "YoutubeSynced": true
    },
    {
      "ID": "VMbO5scZUAN_Xv29FgtG9s1NbYKmY7_vD1hiiHQ_7mEEMchGQ8q928gw1TtbciSv",
      "Lang": "te",
      "CaptionKey": "translation",
      "CaptionName": "అనువాదం",
      "YoutubeSynced": true
    },
    {
      "ID": "icOyIeYTAagdr38-lLAwQETUNvDZPqOkeaGM1-1wv_6ZWnONCrqVkw==",
      "Lang": "tg",
      "CaptionKey": "translation",
      "CaptionName": "Тарҷума",
      "YoutubeSynced": true
    },
    {
      "ID": "bfNLaoaU4pBuXDM60VoLu4fY70mAeXAdAGUO_aCe01T6sXo7Erwbdn6Rk76mRiPx",
      "Lang": "th",
      "CaptionKey": "translation",
      "CaptionName": "การแปล",
      "YoutubeSynced": true
    },
    {
      "ID": "qt-GqzeYE9NeziuWh3VJq_yAWl-gRxUlZJdoGD9KgMPTW2Kzxi-y-g==",
      "Lang": "tr",
      "CaptionKey": "translation",
      "CaptionName": "Tercüme",
      "YoutubeSynced": true
    },
    {
      "ID": "Y9j_Kqpe-riUJq0aP0-jqVgrn4Cw9z9Y6oq0K-1jzrNVSe6re1f2onWqep-PNoCJ",
      "Lang": "uk",
      "CaptionKey": "translation",
      "CaptionName": "Переклад",
      "YoutubeSynced": true
    },
    {
      "ID": "K77-bTwIdOwFofeOxbbe3tta3ui-DzAon3wMGqhOdN6R0dF_LR5tsQ==",
      "Lang": "ur",
      "CaptionKey": "translation",
      "CaptionName": "ترجمہ",
      "YoutubeSynced": true
    },
    {
      "ID": "e2FPiC-7EUOBlIzf_9RYwCIe47U3Az0_KBO4xtAjCyYgpIUwnbx4xg==",
      "Lang": "uz",
      "CaptionKey": "translation",
      "CaptionName": "Tarjima",
      "YoutubeSynced": true
    },
    {
      "ID": "E7qTaHGgOyY7BTMkiSBK474027PpwE6Ur5xK4gYu6VQ=",
      "Lang": "vi",
      "CaptionKey": "translation",
      "CaptionName": "Dịch",
      "YoutubeSynced": true
    },
    {
      "ID": "K77-bTwIdOzZDyfyMiMLFsSx7LBX4cJ4Q8c5-Q2rebHBKNU3wlOcgg==",
      "Lang": "xh",
      "CaptionKey": "translation",
      "CaptionName": "Inguqulelo",
      "YoutubeSynced": true
    },
    {
      "ID": "rnHTurSKLCqqrVRfwDR0eYQyxraayjPLi-dROfbB8LnHpoBhC_yy-xOBUleLwejw",
      "Lang": "yi",
      "CaptionKey": "translation",
      "CaptionName": "איבערזעצונג",
      "YoutubeSynced": true
    },
    {
      "ID": "e2FPiC-7EUN-PZSZtkOznUD0IRZnoZMxyrl0-GBpVt4PtqjU6I_9YQ==",
      "Lang": "yo",
      "CaptionKey": "translation",
      "CaptionName": "Itumọ",
      "YoutubeSynced": true
    },
    {
      "ID": "qMzbmWUKr8wm85IG_zMQGmJsIg__xuT2raILyJq6FRuS1JaXJ9r-3A==",
      "Lang": "zh-Hans",
      "CaptionKey": "translation",
      "CaptionName": "翻译",
      "YoutubeSynced": true
    },
    {
      "ID": "qMzbmWUKr8wm85IG_zMQGuRO5gQVbgWWFBijYGyXrQsJg8z8B6KAoA==",
      "Lang": "zh-Hant",
      "CaptionKey": "translation",
      "CaptionName": "翻譯",
      "YoutubeSynced": true
    },
    {
      "ID": "K77-bTwIdOyt_Di7LfzAi1CWkdqs_tSEnY5LtpsXJs69DwQukX1iPQ==",
      "Lang": "zu",
      "CaptionKey": "translation",
      "CaptionName": "Ukuhumusha",
      "YoutubeSynced": true
    }
  ]
}