{
  "VideoFile": "grammar-en-beginner-simple_32_UK.mp4",
  "Captions": [
    {
      "ID": "aflIjzBAr4JLSrA01Zovn10bMoK7xWdlVuh03As9D8MZue5kxwk55Q==",
      "Lang": "af",
      "CaptionKey": "translation",
      "CaptionName": "vertaling",
      "YoutubeSynced": true
    },
    {
      "ID": "qFUQnT7WMM5D-s7GPqyKfraq2Hg8_PzMjHCF4dWt_Qj4BhiRzZgbtw==",
      "Lang": "am",
      "CaptionKey": "translation",
      "CaptionName": "ትርጉም",
      "YoutubeSynced": true
    },
    {
      "ID": "Oxs6k-Oio8C2nuYs2_l6nviuH81fyWpuUT_BB40clB3__AKdxB0a1A==",
      "Lang": "ar",
      "CaptionKey": "translation",
      "CaptionName": "ترجمة",
      "YoutubeSynced": true
    },
    {
      "ID": "Oxs6k-Oio8CF5QKDS4Bew5APX2vwpdyGYfTDMlhz18ZIqmN0mttaBQ==",
      "Lang": "az",
      "CaptionKey": "translation",
      "CaptionName": "Tərcümə",
      "YoutubeSynced": true
    },
    {
      "ID": "WXRz3l9wZp8YGDGIf2SZvZFehnmtLfBfD5m6ym_m70EZOMKvRAh2kEIZj3ViZdkv",
      "Lang": "be",
      "CaptionKey": "translation",
      "CaptionName": "Пераклад",
      "YoutubeSynced": true
    },
    {
      "ID": "qFUQnT7WMM6l1cCouuH6bGVoyVEFDT9IRIhOPS4jhb7nZAa55hSJrg==",
      "Lang": "bg",
      "CaptionKey": "translation",
      "CaptionName": "превод",
      "YoutubeSynced": true
    },
    {
      "ID": "y8EibrArI3tE-YgVqS6HeXCrJ-4bX3ZaFmElG7bcbzqOSn4n6YX9huO-vhL9rgoB",
      "Lang": "bn",
      "CaptionKey": "translation",
      "CaptionName": "অনুবাদ",
      "YoutubeSynced": true
    },
    {
      "ID": "ddsJmFnD-HszLBEoFNu797PwDCdc6jiZCQE2tpCur-o=",
      "Lang": "bs",
      "CaptionKey": "translation",
      "CaptionName": "Prevod",
      "YoutubeSynced": true
    },
    {
      "ID": "Oxs6k-Oio8AQvk9hpqArZ0gTpRKAHhrLwToZCuAYrY0f-9osKjFQwA==",
      "Lang": "ca",
      "CaptionKey": "translation",
      "CaptionName": "Traducció",
      "YoutubeSynced": true
    },
    {
      "ID": "Oxs6k-Oio8BwMUifpURS2Br_PopxulMjlb4YgkvN9JEJc6V5K_QKig==",
      "Lang": "co",
      "CaptionKey": "translation",
      "CaptionName": "Traduzione",
      "YoutubeSynced": true
    },
    {
      "ID": "6Y8W4msrgAMxf7umeWhS3iwaH5IQwAccoNr90tMNLcRuexUZzrbslA==",
      "Lang": "cs",
      "CaptionKey": "translation",
      "CaptionName": "Překlad",
      "YoutubeSynced": true
    },
    {
      "ID": "U3-LXnV4tAanyzaj8O_YaO_ZIXYHo7Z4g3i9Ve4NfAi0puQBH0_jSw==",
      "Lang": "cy",
      "CaptionKey": "translation",
      "CaptionName": "Cyfieithiad",
      "YoutubeSynced": true
    },
    {
      "ID": "qIm3p0DTBjCh8oKEZWCPc0_bLVSmtevd-OdnPihx99EKRi0P6lfMSQ==",
      "Lang": "da",
      "CaptionKey": "translation",
      "CaptionName": "Oversættelse",
      "YoutubeSynced": true
    },
    {
      "ID": "qFUQnT7WMM59_iEQBD8s1YiVunqnAHsuX0YpyxBVA8onMkYvGMzhGg==",
      "Lang": "de",
      "CaptionKey": "translation",
      "CaptionName": "Übersetzung",
      "YoutubeSynced": true
    },
    {
      "ID": "y8EibrArI3uMb9oCoGGzbr-9SsAAoM2Je8YDUY5PjKwTkh6AiMEAF64atyWQGiTI",
      "Lang": "el",
      "CaptionKey": "translation",
      "CaptionName": "Μετάφραση",
      "YoutubeSynced": true
    },
    {
      "ID": "U3-LXnV4tAbMx8e_dnTVttpdUsER_0H3eDrIWs0jTy_gxTLYqMFuXQ==",
      "Lang": "en",
      "CaptionKey": "translation",
      "CaptionName": "Translation",
      "YoutubeSynced": true
    },
    {
      "ID": "7J5LhHT8rZfv6-tzPZzei0e4YMCWx3Rli6FcdyChzM9kCZrPWx3Mdm-sbW8obEP3",
      "Lang": "en",
      "CaptionKey": "ruby",
      "CaptionName": "Pronunciation - IPA",
      "YoutubeSynced": true
    },
    {
      "ID": "U3-LXnV4tAYoAna8BgfuHF87OZ9Y4gM9BQu1keVMYSjdZSgyxL4sBw==",
      "Lang": "es",
      "CaptionKey": "translation",
      "CaptionName": "Traducción",
      "YoutubeSynced": true
    },
    {
      "ID": "ddsJmFnD-HsEkw3_HwHxPAyR8yk5HqgvRKmVdBC2K04=",
      "Lang": "et",
      "CaptionKey": "translation",
      "CaptionName": "Tõlge",
      "YoutubeSynced": true
    },
    {
      "ID": "aflIjzBAr4IvWC_TTG5gwXqcA0Hk0a6bvUApT8IepCE92ifYIRqNXw==",
      "Lang": "eu",
      "CaptionKey": "translation",
      "CaptionName": "Itzulpena",
      "YoutubeSynced": true
    },
    {
      "ID": "Oxs6k-Oio8BkfQY6PGjDXwWrUaMQjC56x_WNZ1Z848JRMP5EmnDKiA==",
      "Lang": "fa",
      "CaptionKey": "translation",
      "CaptionName": "ترجمه",
      "YoutubeSynced": true
    },
    {
      "ID": "Oxs6k-Oio8BXz3DGeDlO5ObUyHw1F4cZhKuPbE8KcH5ovhmy-Hj8Hg==",
      "Lang": "fi",
      "CaptionKey": "translation",
      "CaptionName": "Käännös",
      "YoutubeSynced": true
    },
    {
      "ID": "U3-LXnV4tAazXwcb--5Sa-2jKIwG504Ra8kO9HsOPsZy88oISMIp6Q==",
      "Lang": "fil",
      "CaptionKey": "translation",
      "CaptionName": "Pagsasalin",
      "YoutubeSynced": true
    },
    {
      "ID": "Oxs6k-Oio8DOpKRibLGZLGX6_IpJ-9QpVtfICjIIH8cEZB9BoYT4UQ==",
      "Lang": "fr",
      "CaptionKey": "translation",
      "CaptionName": "Traduction",
      "YoutubeSynced": true
    },
    {
      "ID": "Oxs6k-Oio8Bn994jgsvXwLiRRwtuPbzs3xwJ4F3iUj7vk4UP0yk9lA==",
      "Lang": "fy",
      "CaptionKey": "translation",
      "CaptionName": "Oersetting",
      "YoutubeSynced": true
    },
    {
      "ID": "y8EibrArI3vSNOnEQeyCZYWluMTDjnMUvMgdyn58pSyT-kKvWq1dQnd_SRKEdVOp",
      "Lang": "gd",
      "CaptionKey": "translation",
      "CaptionName": "Eadar-theangachadh",
      "YoutubeSynced": true
    },
    {
      "ID": "Oxs6k-Oio8Co6tPa6eKDOOraA7mRJe4IdJwSzI82AeLexeVONp9vZw==",
      "Lang": "gl",
      "CaptionKey": "translation",
      "CaptionName": "Tradución",
      "YoutubeSynced": true
    },
    {
      "ID": "y8EibrArI3udmkOng-SIYOnKjWWKGECnTBYx3Q-fUChEcZjhXflpyyngUCG2PQuG",
      "Lang": "gu",
      "CaptionKey": "translation",
      "CaptionName": "અનુવાદ",
      "YoutubeSynced": true
    },
    {
      "ID": "0BmSAvMYRMadnQDJLm0CLZ0s22e8uy7u0b5LDg3EJ14jg92wOyyhyA==",
      "Lang": "ha",
      "CaptionKey": "translation",
      "CaptionName": "Fassara",
      "YoutubeSynced": true
    },
    {
      "ID": "y8EibrArI3vc09UlCWfXWhVILr1EwiIvUHQ28VX8SsgSehNngBz2kzMpeZJdxZbL",
      "Lang": "hi",
      "CaptionKey": "translation",
      "CaptionName": "अनुवाद",
      "YoutubeSynced": true
    },
    {
      "ID": "6Y8W4msrgANmFlERdbz1KVxXbFZU2hS_xa0sUMTPj9JxYnXzPAdCiA==",
      "Lang": "hr",
      "CaptionKey": "translation",
      "CaptionName": "Prijevod",
      "YoutubeSynced": true
    },
    {
      "ID": "Oxs6k-Oio8BjboSDeZ4BqbGF-jqB7KQOi1WTogfmNNqH5rvOhnpKyw==",
      "Lang": "hu",
      "CaptionKey": "translation",
      "CaptionName": "Fordítás",
      "YoutubeSynced": true
    },
    {
      "ID": "qj8sQkRjDWyynwdWjZVyuO4sKsWt8-MDSAQB4zhqCETZ7mlZPzRiruJ9p71be_T8rzp6KYMJUbo=",
      "Lang": "hy",
      "CaptionKey": "translation",
      "CaptionName": "Թարգմանություն",
      "YoutubeSynced": true
    },
    {
      "ID": "Oxs6k-Oio8CgMN9Xr5r5Pq_Cvgk4y8HpRhJhsA5GxjwPaX0nnZoMcw==",
      "Lang": "id",
      "CaptionKey": "translation",
      "CaptionName": "Terjemahan",
      "YoutubeSynced": true
    },
    {
      "ID": "6Y8W4msrgAPjBOWxBEnmCjumtPT1bdXHdyrlrCY5MZQ6SnF8XXOH6Q==",
      "Lang": "ig",
      "CaptionKey": "translation",
      "CaptionName": "Ntughari",
      "YoutubeSynced": true
    },
    {
      "ID": "aflIjzBAr4Jwa1Jo32dlCTNeRedoan068txdUntsvjbZzXjZV10seQ==",
      "Lang": "is",
      "CaptionKey": "translation",
      "CaptionName": "Þýðing",
      "YoutubeSynced": true
    },
    {
      "ID": "Oxs6k-Oio8Aa0rt2eN7YX7HL-4oWzXyFUehLkkOOHRyT44EFx4KNXQ==",
      "Lang": "it",
      "CaptionKey": "translation",
      "CaptionName": "Traduzione",
      "YoutubeSynced": true
    },
    {
      "ID": "Oxs6k-Oio8Aj-wgBrQ-KuYQyAta838Rk7YyZeJwwPT6geQ5UHV5VBw==",
      "Lang": "iw",
      "CaptionKey": "translation",
      "CaptionName": "תרגום",
      "YoutubeSynced": true
    },
    {
      "ID": "ddsJmFnD-HsYdsmSjX2A682btMOkqkaQzlbhSVErsMQ=",
      "Lang": "ja",
      "CaptionKey": "translation",
      "CaptionName": "翻訳",
      "YoutubeSynced": true
    },
    {
      "ID": "aflIjzBAr4JFDrnxS0NLDZgbWM4L1zRAQBcENEwHvO4RktxQqVqJIA==",
      "Lang": "jv",
      "CaptionKey": "translation",
      "CaptionName": "Ngartekne",
      "YoutubeSynced": true
    },
    {
      "ID": "wEaV71WrVx3iJXBZt-ZEhfVYOhIeSDsetc4NJ5YUaKyNGkTZb_Vw0h0Oi-qOTPkZLdy-jtvLCxQ=",
      "Lang": "ka",
      "CaptionKey": "translation",
      "CaptionName": "თარგმანი",
      "YoutubeSynced": true
    },
    {
      "ID": "vdLotVKoVgmZ5CsqIxtrwQhLavZiySFBMlMZtQPBn4ZFWofYN0b55w==",
      "Lang": "kk",
      "CaptionKey": "translation",
      "CaptionName": "Аударма",
      "YoutubeSynced": true
    },
    {
      "ID": "-E2IeijXQNWeuFG4TRDow_wQE_jeDh8mnJ_fQhv-I4vsY2BleD4HvTWUL1rZf9rR2s32ZdiBu0k=",
      "Lang": "km",
      "CaptionKey": "translation",
      "CaptionName": "ការបកប្រែ",
      "YoutubeSynced": true
    },
    {
      "ID": "y8EibrArI3usoJzTm1Lpz62G6Gh0Af4jkT5LdkFOeWaeyQuLIo6kPUOeSUnO47gi",
      "Lang": "kn",
      "CaptionKey": "translation",
      "CaptionName": "ಅನುವಾದ",
      "YoutubeSynced": true
    },
    {
      "ID": "ddsJmFnD-HuWcYHPXPDVkK6ttBtaVm4NvGq9RZM0K0c=",
      "Lang": "ko",
      "CaptionKey": "translation",
      "CaptionName": "번역",
      "YoutubeSynced": true
    },
    {
      "ID": "ddsJmFnD-Hsix1l5ssmyaJas4N6Ag3Anqk7mhofztcc=",
      "Lang": "ku",
      "CaptionKey": "translation",
      "CaptionName": "Werger",
      "YoutubeSynced": true
    },
    {
      "ID": "vdLotVKoVgla0WpRwC0tci7KDozxLhomPMnC3pGKx5OiTt2y5StABA==",
      "Lang": "ky",
      "CaptionKey": "translation",
      "CaptionName": "котормо",
      "YoutubeSynced": true
    },
    {
      "ID": "qFUQnT7WMM65npSxu1yqe0AqN4eT5pf_5bckHqcM17W4JEiXN2fEkA==",
      "Lang": "lb",
      "CaptionKey": "translation",
      "CaptionName": "Iwwersetzung",
      "YoutubeSynced": true
    },
    {
      "ID": "-E2IeijXQNUZYu1xzwIpkKKFT-hlyfwzEoKA6y0aomOLXk7N1WMklRFJgnblEQlJDEKvuVWq-cQ=",
      "Lang": "lo",
      "CaptionKey": "translation",
      "CaptionName": "ການແປພາສາ",
      "YoutubeSynced": true
    },
    {
      "ID": "6Y8W4msrgAMxp6zDq6gowY5YuqhlWd0ccJygfCa0bwPSja8K2CBGhA==",
      "Lang": "lt",
      "CaptionKey": "translation",
      "CaptionName": "Vertimas",
      "YoutubeSynced": true
    },
    {
      "ID": "Oxs6k-Oio8BG7_1ojOMTcMpwNj79sDKsSfQ1FdIHrmxm_OAhdPDfsg==",
      "Lang": "lv",
      "CaptionKey": "translation",
      "CaptionName": "Tulkošana",
      "YoutubeSynced": true
    },
    {
      "ID": "U3-LXnV4tAb2imxwQS1YVvvjZyIOoTgj64yNcSKeykB6IEGOepOpbQ==",
      "Lang": "mg",
      "CaptionKey": "translation",
      "CaptionName": "Translation",
      "YoutubeSynced": true
    },
    {
      "ID": "CD26te7cvwJfqoO73Qc_V_-RNXKSDAHxKc9cL_nMBQwIC2g9m_4K0YvlauW_9pvo",
      "Lang": "mi",
      "CaptionKey": "translation",
      "CaptionName": "Whakamaoritanga",
      "YoutubeSynced": true
    },
    {
      "ID": "qFUQnT7WMM4hMewuxHIBm39hOUqx5ILNwUWnAVAKMfUYEXyERaAprw==",
      "Lang": "mk",
      "CaptionKey": "translation",
      "CaptionName": "Превод",
      "YoutubeSynced": true
    },
    {
      "ID": "-E2IeijXQNXrUeQX1KyFLfqqmoTKnXvYIBxxjSRUPABnyz0fjOVlyP-UEUfJZhAOxqvBVYT_ouQ=",
      "Lang": "ml",
      "CaptionKey": "translation",
      "CaptionName": "വിവർത്തനം",
      "YoutubeSynced": true
    },
    {
      "ID": "WXRz3l9wZp8djhVUvKvfoYaj1-QlDUjm9copBa9NrW2UMAPlLz4W-UGmftG6LWnK",
      "Lang": "mn",
      "CaptionKey": "translation",
      "CaptionName": "Орчуулга",
      "YoutubeSynced": true
    },
    {
      "ID": "_T-C5Ldy1QkfODdbqWj2-z0DwgxAERl9hF5zMeXaWUoWn8ed4935aSG2NnJuovfc",
      "Lang": "mr",
      "CaptionKey": "translation",
      "CaptionName": "भाषांतर",
      "YoutubeSynced": true
    },
    {
      "ID": "Oxs6k-Oio8DMJh0e43H7seJWvgITt-_A_JXVZVfhFkXK0vKU9vwIbA==",
      "Lang": "ms",
      "CaptionKey": "translation",
      "CaptionName": "Terjemahan",
      "YoutubeSynced": true
    },
    {
      "ID": "U3-LXnV4tAbBVkV8UUWOAzyJP1M0vsewDkI05WoH7cGLU87a2DH0Tg==",
      "Lang": "mt",
      "CaptionKey": "translation",
      "CaptionName": "Traduzzjoni",
      "YoutubeSynced": true
    },
    {
      "ID": "wEaV71WrVx30-B2C7zFe-_jpzLKl_lv_C8APbl-12_YMk4zDHtoEF-1DSxMB-ap78Trsd2ztTEo=",
      "Lang": "my",
      "CaptionKey": "translation",
      "CaptionName": "ဘာသာပြန်",
      "YoutubeSynced": true
    },
    {
      "ID": "y8EibrArI3t4UszcbU-5GEHPsRBKN0Iw2Cc7TLioFv5_Rtf6HfiGgDqZUa_0DaKG",
      "Lang": "ne",
      "CaptionKey": "translation",
      "CaptionName": "अनुवाद",
      "YoutubeSynced": true
    },
    {
      "ID": "aflIjzBAr4IYJ9vOj1WIz2B7VLP__zdSR6XcTFDOUf1S7-gPSdl8_g==",
      "Lang": "nl",
      "CaptionKey": "translation",
      "CaptionName": "Vertaling",
      "YoutubeSynced": true
    },
    {
      "ID": "qFUQnT7WMM5tcSGR6kb31GWfo3iZOunWf45QKYlJPGpcMavUK8stdQ==",
      "Lang": "no",
      "CaptionKey": "translation",
      "CaptionName": "Oversettelse",
      "YoutubeSynced": true
    },
    {
      "ID": "y8EibrArI3umZzDdwRiV6Kaq4DzP8xzV5t4kXSCwW_gGTC6PZYfHixZq-AjcZR2g",
      "Lang": "pa",
      "CaptionKey": "translation",
      "CaptionName": "ਅਨੁਵਾਦ",
      "YoutubeSynced": true
    },
    {
      "ID": "qFUQnT7WMM77xKmOLAXytd9ucsVeKh6Z_fULIN2qs21WTvjOsJHDiA==",
      "Lang": "pl",
      "CaptionKey": "translation",
      "CaptionName": "Tłumaczenie",
      "YoutubeSynced": true
    },
    {
      "ID": "Oxs6k-Oio8AfVOEF9hgXGnf9clL7vD_XvIq5mVSfVTG6WScVUhqx9A==",
      "Lang": "ps",
      "CaptionKey": "translation",
      "CaptionName": "ژباړه",
      "YoutubeSynced": true
    },
    {
      "ID": "Oxs6k-Oio8Ad8_cDjs3WpTNr8G3RSfoyi5TE5uLHZeBdNhXpZ3OMdw==",
      "Lang": "pt",
      "CaptionKey": "translation",
      "CaptionName": "Tradução",
      "YoutubeSynced": true
    },
    {
      "ID": "aflIjzBAr4JHeYLFLNHA8m7q0kYvKXLdll2lF1R8XNeShSfV-2kDoA==",
      "Lang": "ro",
      "CaptionKey": "translation",
      "CaptionName": "Traducere",
      "YoutubeSynced": true
    },
    {
      "ID": "vdLotVKoVgnIo70AP0uSbvQvM3y__mFbWC3NfUSQE6U_Q62JNjhCYA==",
      "Lang": "ru",
      "CaptionKey": "translation",
      "CaptionName": "Перевод",
      "YoutubeSynced": true
    },
    {
      "ID": "Oxs6k-Oio8DDE2f8WfxoUPrnFxttxdL2l1isYSd9W9jtRK2rWHou7Q==",
      "Lang": "sd",
      "CaptionKey": "translation",
      "CaptionName": "ترجمو",
      "YoutubeSynced": true
    },
    {
      "ID": "-E2IeijXQNU1cWmPJ_D4twS70t3KzLyCj8TTGFaG9otLvi7zTtU2dXbHAv0myJsAeoaJ5--IWAk=",
      "Lang": "si",
      "CaptionKey": "translation",
      "CaptionName": "පරිවර්තනය",
      "YoutubeSynced": true
    },
    {
      "ID": "0BmSAvMYRMa1lpH2hXLm2wbKdX4wV38oe09xnq51JTro3Ybly_MIgA==",
      "Lang": "sk",
      "CaptionKey": "translation",
      "CaptionName": "preklad",
      "YoutubeSynced": true
    },
    {
      "ID": "ddsJmFnD-HuqfXdr-OKUwEzQhxR7TjFZ7721DpEiK5U=",
      "Lang": "sl",
      "CaptionKey": "translation",
      "CaptionName": "Prevod",
      "YoutubeSynced": true
    },
    {
      "ID": "qFUQnT7WMM42gBxLfKQzL01rphOOuUHNMnRpMHmBd0_KTRKO_vG0ZQ==",
      "Lang": "sm",
      "CaptionKey": "translation",
      "CaptionName": "Faʻaliliuga",
      "YoutubeSynced": true
    },
    {
      "ID": "0BmSAvMYRMYtkNLLexsH_bOLMc1kCSj3S3FXyw_LfcZo5L5nmi5vzw==",
      "Lang": "sn",
      "CaptionKey": "translation",
      "CaptionName": "Dudziro",
      "YoutubeSynced": true
    },
    {
      "ID": "aflIjzBAr4JDiAR_I85ErjXtu-XkdAve5fGE1ILr87kj4iRQHp4Mog==",
      "Lang": "so",
      "CaptionKey": "translation",
      "CaptionName": "Tarjumida",
      "YoutubeSynced": true
    },
    {
      "ID": "aflIjzBAr4IuFjir8RV9GOPuPxgrS9EmLL3V2DQ39CV-kPMQwiWl0g==",
      "Lang": "sq",
      "CaptionKey": "translation",
      "CaptionName": "përkthim",
      "YoutubeSynced": true
    },
    {
      "ID": "qFUQnT7WMM4C665bq_A7eiRT2usFAIomGPpFapJD5mmc0n17V9r33w==",
      "Lang": "sr",
      "CaptionKey": "translation",
      "CaptionName": "Превод",
      "YoutubeSynced": true
    },
    {
      "ID": "aflIjzBAr4JD-b69R8HoCl6Hfe8RNs5Jd0pbvqo7zd-qopGMXu2riA==",
      "Lang": "st",
      "CaptionKey": "translation",
      "CaptionName": "Phetolelo",
      "YoutubeSynced": true
    },
    {
      "ID": "Oxs6k-Oio8AuKU-vDbFGJ7LEsRGsyTIkacp-hjBPrYWx3HvkoPbQbQ==",
      "Lang": "su",
      "CaptionKey": "translation",
      "CaptionName": "Tarjamahan",
      "YoutubeSynced": true
    },
    {
      "ID": "vdLotVKoVglNrG5CeXeK8r3hzea6afS3fr2EchWzN2_P6-3bTzTmDg==",
      "Lang": "sv",
      "CaptionKey": "translation",
      "CaptionName": "Översättning",
      "YoutubeSynced": true
    },
    {
      "ID": "0BmSAvMYRMZ2ETbTTYk27xvoJOSLnzs8LFinQ187Havx_gnxYH7bGA==",
      "Lang": "sw",
      "CaptionKey": "translation",
      "CaptionName": "Tafsiri",
      "YoutubeSynced": true
    },
    {
      "ID": "qX1dKrscwglTP5xkTB5D6NrC4rlmeLmwxWAde5Wv-9sbx0U-hxq1y6OeTSUAyAnS51qgzl8KNdeYjhyWHqNVKYmq08FVcfC7",
      "Lang": "ta",
      "CaptionKey": "translation",
      "CaptionName": "மொழிபெயர்ப்பு",
      "YoutubeSynced": true
    },
    {
      "ID": "_T-C5Ldy1Qki9lIV5oQxfRCeHowzgmMtZeVSbrXwA8fiKk0SKNuzD9ZRYUrYaM9q",
      "Lang": "te",
      "CaptionKey": "translation",
      "CaptionName": "అనువాదం",
      "YoutubeSynced": true
    },
    {
      "ID": "vdLotVKoVglkCKMaHxkHDxPaQ_1opTLDPFTu0Ow74ZjCsQFfUw57NQ==",
      "Lang": "tg",
      "CaptionKey": "translation",
      "CaptionName": "Тарҷума",
      "YoutubeSynced": true
    },
    {
      "ID": "y8EibrArI3t09hijPAStPjn_f3An9QQAZBMHchHNNwv4DKvG1PN8lVZj7UiG1rUT",
      "Lang": "th",
      "CaptionKey": "translation",
      "CaptionName": "การแปล",
      "YoutubeSynced": true
    },
    {
      "ID": "6Y8W4msrgAMKgXZSfmmQ2vBFzJc-cssOeLBaTFxfdls2wtP0KuB6MQ==",
      "Lang": "tr",
      "CaptionKey": "translation",
      "CaptionName": "Tercüme",
      "YoutubeSynced": true
    },
    {
      "ID": "WXRz3l9wZp_2pkHcF16BqwqwiN1l2sVZiAC-qwge6A2fc6tbZZQz2Zj8R5WFjSMW",
      "Lang": "uk",
      "CaptionKey": "translation",
      "CaptionName": "Переклад",
      "YoutubeSynced": true
    },
    {
      "ID": "Oxs6k-Oio8Docjph6eKSGAy3r5zx8vAeqB8tg98tG5DiZeN4YNjGWw==",
      "Lang": "ur",
      "CaptionKey": "translation",
      "CaptionName": "ترجمہ",
      "YoutubeSynced": true
    },
    {
      "ID": "0BmSAvMYRMaroNtFPgH3-yI6K22ggif-eKDDGoRSlwRWYcwlwjbftw==",
      "Lang": "uz",
      "CaptionKey": "translation",
      "CaptionName": "Tarjima",
      "YoutubeSynced": true
    },
    {
      "ID": "ddsJmFnD-HsWwf-p3BBbY1uKYtZ7shGvlopIB7R0v2Y=",
      "Lang": "vi",
      "CaptionKey": "translation",
      "CaptionName": "Dịch",
      "YoutubeSynced": true
    },
    {
      "ID": "Oxs6k-Oio8Dud8kb0j4mstGE14aIpppFDnozAH62mn8UzFlIY-m2yA==",
      "Lang": "xh",
      "CaptionKey": "translation",
      "CaptionName": "Inguqulelo",
      "YoutubeSynced": true
    },
    {
      "ID": "0etGa8zDUXnAj4ZwtNrMV2HQDsAHFopqFGZuXR-Nz45kh14fJK3H0njA63qai-wg",
      "Lang": "yi",
      "CaptionKey": "translation",
      "CaptionName": "איבערזעצונג",
      "YoutubeSynced": true
    },
    {
      "ID": "0BmSAvMYRMY30wwBIPXL2xrPiTKVvO1KPQ5VgpLKb37o47yRV5nm-Q==",
      "Lang": "yo",
      "CaptionKey": "translation",
      "CaptionName": "Itumọ",
      "YoutubeSynced": true
    },
    {
      "ID": "U3-LXnV4tAZZ6Nqcwnui5485XvemOo33mLiRB27D6qpPgm6IikHuSA==",
      "Lang": "zh-Hans",
      "CaptionKey": "translation",
      "CaptionName": "翻译",
      "YoutubeSynced": true
    },
    {
      "ID": "U3-LXnV4tAZZ6Nqcwnui5z_Hl14wQZ45MCJjk1sQqDSKtrymnQlfWg==",
      "Lang": "zh-Hant",
      "CaptionKey": "translation",
      "CaptionName": "翻譯",
      "YoutubeSynced": true
    },
    {
      "ID": "Oxs6k-Oio8Av9oz8ir-AmcpaXu4Trzsnk7YekVuUmuR7nzahzB5iRQ==",
      "Lang": "zu",
      "CaptionKey": "translation",
      "CaptionName": "Ukuhumusha",
      "YoutubeSynced": true
    }
  ]
}