{
  "VideoFile": "grammar-en-beginner-simple_97_IN.mp4",
  "Captions": [
    {
      "ID": "0ihpwcAG1tfXjJY2IKRl6UVrlLlaQVr4DHK3Sro0ROZhtQLi25mtQw==",
      "Lang": "af",
      "CaptionKey": "translation",
      "CaptionName": "vertaling",
      "YoutubeSynced": true
    },
    {
      "ID": "-mnIP50BiY5L0-LzpiR4mgKD3AQD5d_LNQi_ORGnV599Vey0ExIQig==",
      "Lang": "am",
      "CaptionKey": "translation",
      "CaptionName": "ትርጉም",
      "YoutubeSynced": true
    },
    {
      "ID": "BFoqZVC4R0i7zz_95_Z2tCvgkOh1kPh3eYI29VFwGH5sUGr4XvAmBA==",
      "Lang": "ar",
      "CaptionKey": "translation",
      "CaptionName": "ترجمة",
      "YoutubeSynced": true
    },
    {
      "ID": "BFoqZVC4R0icS7pA-2WI6BtsW7hXujy1eRxThhPj9mbV97XW1l6feA==",
      "Lang": "az",
      "CaptionKey": "translation",
      "CaptionName": "Tərcümə",
      "YoutubeSynced": true
    },
    {
      "ID": "YhNj5UtFScJgoOu3vEQixDQroAj0PnE4ofGD9PaQ7xr1GBlvcSfC9nsvp3uPWHaj",
      "Lang": "be",
      "CaptionKey": "translation",
      "CaptionName": "Пераклад",
      "YoutubeSynced": true
    },
    {
      "ID": "-mnIP50BiY7y9_kCD9h3lUxZq2I4Sx3VTQviboaL7d4xBee3gjCOWA==",
      "Lang": "bg",
      "CaptionKey": "translation",
      "CaptionName": "превод",
      "YoutubeSynced": true
    },
    {
      "ID": "-SgfH3uCC8slg_VGpSJMCNiqhytvZFa32NqGxlO14kdS-T9IbCgHpL2EXToP76rs",
      "Lang": "bn",
      "CaptionKey": "translation",
      "CaptionName": "অনুবাদ",
      "YoutubeSynced": true
    },
    {
      "ID": "u4sPVzIffAnTUuMZycWuh4cBcGBXBT0Q_3g7etH4vBs=",
      "Lang": "bs",
      "CaptionKey": "translation",
      "CaptionName": "Prevod",
      "YoutubeSynced": true
    },
    {
      "ID": "BFoqZVC4R0hr3Uqkg_s5PIzgMixXq19gJwCFzJXFR7dqJZVnXUvHBw==",
      "Lang": "ca",
      "CaptionKey": "translation",
      "CaptionName": "Traducció",
      "YoutubeSynced": true
    },
    {
      "ID": "BFoqZVC4R0hCT7_BF0ZPByi5wbDNxvihRpxQu25a3URJPTzm7uREng==",
      "Lang": "co",
      "CaptionKey": "translation",
      "CaptionName": "Traduzione",
      "YoutubeSynced": true
    },
    {
      "ID": "87DEMB8-YBH6HSVYoFywHJWetvEVwVrvxLhrZ9xpX_Zffn8cBRXsVg==",
      "Lang": "cs",
      "CaptionKey": "translation",
      "CaptionName": "Překlad",
      "YoutubeSynced": true
    },
    {
      "ID": "tJyS_3BTAXNtANSRvbqhQXvJHKNpBq3Tb6pIZBU9Yi-aHXDyMCWH4w==",
      "Lang": "cy",
      "CaptionKey": "translation",
      "CaptionName": "Cyfieithiad",
      "YoutubeSynced": true
    },
    {
      "ID": "c2hhmDOF0kMyg1I_l4v4Gch9hJwnQNkb3egoDCUOhcgYIHeGgWOu4w==",
      "Lang": "da",
      "CaptionKey": "translation",
      "CaptionName": "Oversættelse",
      "YoutubeSynced": true
    },
    {
      "ID": "-mnIP50BiY48HGRETckEoee38ZL-u-jp7ayWj6IRzaXEx3-s6c4Ksw==",
      "Lang": "de",
      "CaptionKey": "translation",
      "CaptionName": "Übersetzung",
      "YoutubeSynced": true
    },
    {
      "ID": "-SgfH3uCC8sqgAHT4xIpwiq3dxeY3ORNP99sRx_7sde752xfRY_93vRzhY388fLJ",
      "Lang": "el",
      "CaptionKey": "translation",
      "CaptionName": "Μετάφραση",
      "YoutubeSynced": true
    },
    {
      "ID": "tJyS_3BTAXN2gcV9vwQh7Xnj7cQdCE_NPL9jysVagcGDvfdLArddmw==",
      "Lang": "en",
      "CaptionKey": "translation",
      "CaptionName": "Translation",
      "YoutubeSynced": true
    },
    {
      "ID": "jcfWzIVGh4Dhy_aiBE_n6iX7sz2ayN0E_aPgFw2FD0YpZnWhPgYjYJrcSPsgOlxn",
      "Lang": "en",
      "CaptionKey": "ruby",
      "CaptionName": "Pronunciation - IPA",
      "YoutubeSynced": true
    },
    {
      "ID": "tJyS_3BTAXMDKmYb-LC5gTFH-P6uxypglEWUXIYceptEzyGQPb1kNw==",
      "Lang": "es",
      "CaptionKey": "translation",
      "CaptionName": "Traducción",
      "YoutubeSynced": true
    },
    {
      "ID": "u4sPVzIffAmMDuawMGS6HaxdlEmKzX8Evs2_nRM-IYw=",
      "Lang": "et",
      "CaptionKey": "translation",
      "CaptionName": "Tõlge",
      "YoutubeSynced": true
    },
    {
      "ID": "0ihpwcAG1td2qpoicpp1Isvoh3eWf38gHzsfTn-IZnU7fugt2m7dbw==",
      "Lang": "eu",
      "CaptionKey": "translation",
      "CaptionName": "Itzulpena",
      "YoutubeSynced": true
    },
    {
      "ID": "BFoqZVC4R0jXCMALrHoenb0s7X0V-b853cT4FpH1w_XtHeo9J9KYRQ==",
      "Lang": "fa",
      "CaptionKey": "translation",
      "CaptionName": "ترجمه",
      "YoutubeSynced": true
    },
    {
      "ID": "BFoqZVC4R0ghTln-y7lJdQvP4NXd7WjwSw7NlOvBuezZErk3RhnvHA==",
      "Lang": "fi",
      "CaptionKey": "translation",
      "CaptionName": "Käännös",
      "YoutubeSynced": true
    },
    {
      "ID": "tJyS_3BTAXPjK_Qu1qnx4SmLB0WG2HlmXftkUYBI6WSXIQZzk3WgfA==",
      "Lang": "fil",
      "CaptionKey": "translation",
      "CaptionName": "Pagsasalin",
      "YoutubeSynced": true
    },
    {
      "ID": "BFoqZVC4R0hE8bPRbaPgcKsz5j4GcjxCvqVFvDn6sWowLRY9GMO8QA==",
      "Lang": "fr",
      "CaptionKey": "translation",
      "CaptionName": "Traduction",
      "YoutubeSynced": true
    },
    {
      "ID": "BFoqZVC4R0i5tQLFJxuU-NfqpYr6s3iTbS4pe_qlfUGK2WXm9P8Flw==",
      "Lang": "fy",
      "CaptionKey": "translation",
      "CaptionName": "Oersetting",
      "YoutubeSynced": true
    },
    {
      "ID": "-SgfH3uCC8scLEqvbRjj5ruIxnmnp6h0XLFu7-YyvxhQOjgfPLtOEF3Ies-SrK6c",
      "Lang": "gd",
      "CaptionKey": "translation",
      "CaptionName": "Eadar-theangachadh",
      "YoutubeSynced": true
    },
    {
      "ID": "BFoqZVC4R0iDKRUQBGN774MiqEltYrOg1XvA5-QDIKtvBpjCtfhw1w==",
      "Lang": "gl",
      "CaptionKey": "translation",
      "CaptionName": "Tradución",
      "YoutubeSynced": true
    },
    {
      "ID": "-SgfH3uCC8uiVleSMkP2GaH6DGRjEyk1MElz_TKrLSiMWafL1FxejfMz1SToqLqs",
      "Lang": "gu",
      "CaptionKey": "translation",
      "CaptionName": "અનુવાદ",
      "YoutubeSynced": true
    },
    {
      "ID": "a48CC17_lhM69ICU933yoLzssLKH3R-4NfMHZplj8npJ8Tcfz1aS7g==",
      "Lang": "ha",
      "CaptionKey": "translation",
      "CaptionName": "Fassara",
      "YoutubeSynced": true
    },
    {
      "ID": "-SgfH3uCC8v2Vti3kvuxZAuXgtTvyQ8QfLEOfcIeJjB_4uixb7S7q3jzWTD2xwcV",
      "Lang": "hi",
      "CaptionKey": "translation",
      "CaptionName": "अनुवाद",
      "YoutubeSynced": true
    },
    {
      "ID": "87DEMB8-YBH2YLfr3S4qDHnakFcXmmxUP3BJhsjyjkCWQa30YpAvzw==",
      "Lang": "hr",
      "CaptionKey": "translation",
      "CaptionName": "Prijevod",
      "YoutubeSynced": true
    },
    {
      "ID": "BFoqZVC4R0ib4d69A9K7mMmnWEF7wYfcOlLDlyFDH0FNHRlUA5kzRg==",
      "Lang": "hu",
      "CaptionKey": "translation",
      "CaptionName": "Fordítás",
      "YoutubeSynced": true
    },
    {
      "ID": "rZA2VJSYtXy8i03kIC1zw5Mu8wgTr_sUz4rzAXk168n3rhnBv71aVThbugBL3qccwKmUNsYxy5o=",
      "Lang": "hy",
      "CaptionKey": "translation",
      "CaptionName": "Թարգմանություն",
      "YoutubeSynced": true
    },
    {
      "ID": "BFoqZVC4R0j-cBH3V-t3FW5nAIE7QeUgAXk7YHhdPQPC2llNetf_Yw==",
      "Lang": "id",
      "CaptionKey": "translation",
      "CaptionName": "Terjemahan",
      "YoutubeSynced": true
    },
    {
      "ID": "87DEMB8-YBHTf15OtX4ddCvyFQpszz2iWojV1zVEMNvVNWCSnkE5hA==",
      "Lang": "ig",
      "CaptionKey": "translation",
      "CaptionName": "Ntughari",
      "YoutubeSynced": true
    },
    {
      "ID": "0ihpwcAG1tcU_Qcw9cdfLXhM71w0ZXYGvRlxoYwthNkqsYTvDFz2KQ==",
      "Lang": "is",
      "CaptionKey": "translation",
      "CaptionName": "Þýðing",
      "YoutubeSynced": true
    },
    {
      "ID": "BFoqZVC4R0ir4o0W7in5OYYpBfkY2tE2TV6jZTq32IbxIZaqUUrfuQ==",
      "Lang": "it",
      "CaptionKey": "translation",
      "CaptionName": "Traduzione",
      "YoutubeSynced": true
    },
    {
      "ID": "BFoqZVC4R0g4XKejmSO_fZd97xQ4oViFiu2L3Old9NmyiuNGwtOPCg==",
      "Lang": "iw",
      "CaptionKey": "translation",
      "CaptionName": "תרגום",
      "YoutubeSynced": true
    },
    {
      "ID": "u4sPVzIffAknyCquKAi6ao8PGzJbR_iwzofdyqUicN0=",
      "Lang": "ja",
      "CaptionKey": "translation",
      "CaptionName": "翻訳",
      "YoutubeSynced": true
    },
    {
      "ID": "0ihpwcAG1teiDaYogn5Xqpd-5ieapcrsQXqd0U5lI4wWGFSC2c85Uw==",
      "Lang": "jv",
      "CaptionKey": "translation",
      "CaptionName": "Ngartekne",
      "YoutubeSynced": true
    },
    {
      "ID": "Ut8lReStvyFENg5kDgNuXvLoGqs1UKjzgZDy8WarV2lsqTQj_B-tSb8FDPy4nzqmCrl-JHYqM9E=",
      "Lang": "ka",
      "CaptionKey": "translation",
      "CaptionName": "თარგმანი",
      "YoutubeSynced": true
    },
    {
      "ID": "NQjLtwNdjZEAHcZoEOsQHyh-KT3TVRPQ0PaFH8ju9FLVKUkeIpanUQ==",
      "Lang": "kk",
      "CaptionKey": "translation",
      "CaptionName": "Аударма",
      "YoutubeSynced": true
    },
    {
      "ID": "QiYZBt2UOQjvQ-nebthqmRZ10SqzphKk4w5HLiFpW20g2SH-f5h3Bakg-Lfi56DESm6eZ6UpHaQ=",
      "Lang": "km",
      "CaptionKey": "translation",
      "CaptionName": "ការបកប្រែ",
      "YoutubeSynced": true
    },
    {
      "ID": "-SgfH3uCC8saJ2OoMmK8QFa5HjivN4qZrK5398svhPeDsjZrD-qBWh2s4Zo7AnNb",
      "Lang": "kn",
      "CaptionKey": "translation",
      "CaptionName": "ಅನುವಾದ",
      "YoutubeSynced": true
    },
    {
      "ID": "u4sPVzIffAkV2XN8rZuXGLzQR2xCzZUekxbzLmPWbj4=",
      "Lang": "ko",
      "CaptionKey": "translation",
      "CaptionName": "번역",
      "YoutubeSynced": true
    },
    {
      "ID": "u4sPVzIffAlsWq6dnK2j695I1_7H-c3uAQK9kCPcjFo=",
      "Lang": "ku",
      "CaptionKey": "translation",
      "CaptionName": "Werger",
      "YoutubeSynced": true
    },
    {
      "ID": "NQjLtwNdjZE6UyDF3IHlTv3lYcnDptQ6SeoddIPU8GKJSuCfZW_iiA==",
      "Lang": "ky",
      "CaptionKey": "translation",
      "CaptionName": "котормо",
      "YoutubeSynced": true
    },
    {
      "ID": "-mnIP50BiY59t8tWImnEz_8aCpCWJPqzKYQk4SPGYv5jepSSlVOdcw==",
      "Lang": "lb",
      "CaptionKey": "translation",
      "CaptionName": "Iwwersetzung",
      "YoutubeSynced": true
    },
    {
      "ID": "QiYZBt2UOQguQzAR09Da01atckbf_5PtppMx_NAH4VnDB8q1dnvvZgVm3KIXUS_fdMtnvckj0H8=",
      "Lang": "lo",
      "CaptionKey": "translation",
      "CaptionName": "ການແປພາສາ",
      "YoutubeSynced": true
    },
    {
      "ID": "87DEMB8-YBHrwWwg6LUPyBZIM_b6zLJOhx1b5x07eOGLWAYUzl4mew==",
      "Lang": "lt",
      "CaptionKey": "translation",
      "CaptionName": "Vertimas",
      "YoutubeSynced": true
    },
    {
      "ID": "BFoqZVC4R0jmhPvbO3hvQJa4t4JbV8XWAhX0A1TzAS_A9CP55S-fWw==",
      "Lang": "lv",
      "CaptionKey": "translation",
      "CaptionName": "Tulkošana",
      "YoutubeSynced": true
    },
    {
      "ID": "tJyS_3BTAXN6GUkAFWOrcg5xDawJwYQ2zNWNJnwpiW-oK-kgPmBdnw==",
      "Lang": "mg",
      "CaptionKey": "translation",
      "CaptionName": "Translation",
      "YoutubeSynced": true
    },
    {
      "ID": "8qeyEGCHFfcFyoKpkxCbpd4LICiySniGqD_1QjdLuahpSeKnVlZOHObbGW8Bkvvo",
      "Lang": "mi",
      "CaptionKey": "translation",
      "CaptionName": "Whakamaoritanga",
      "YoutubeSynced": true
    },
    {
      "ID": "-mnIP50BiY7OL6a9-_L60h_gTg6EmDg1yyncOHRAQW04JC5eqfB9WA==",
      "Lang": "mk",
      "CaptionKey": "translation",
      "CaptionName": "Превод",
      "YoutubeSynced": true
    },
    {
      "ID": "QiYZBt2UOQhX6RyttjKQ-qJu6I9qfbhVnaNUzxLakIqNMOj3epnhA35mv7bTALBe_QLdSo1wPtM=",
      "Lang": "ml",
      "CaptionKey": "translation",
      "CaptionName": "വിവർത്തനം",
      "YoutubeSynced": true
    },
    {
      "ID": "YhNj5UtFScK5dfNeTnlRzfis6WjcENMfq5sv5l2Kd99zwVdCGFYZmIFZnwiKeR1V",
      "Lang": "mn",
      "CaptionKey": "translation",
      "CaptionName": "Орчуулга",
      "YoutubeSynced": true
    },
    {
      "ID": "mlprt0I1J47DFsfi42x-Sgc45GPsqutVUaCGl6zrp-G6YNdOXhN58U5f38r5NeFo",
      "Lang": "mr",
      "CaptionKey": "translation",
      "CaptionName": "भाषांतर",
      "YoutubeSynced": true
    },
    {
      "ID": "BFoqZVC4R0hWXWLH0f0_nyVABoTgZiq_941ArAcmj5zB5csah9-PJg==",
      "Lang": "ms",
      "CaptionKey": "translation",
      "CaptionName": "Terjemahan",
      "YoutubeSynced": true
    },
    {
      "ID": "tJyS_3BTAXNyFvjoMli3_rCvTJOwO2XzloHnRNbvZ1VHQkp0-YT9aw==",
      "Lang": "mt",
      "CaptionKey": "translation",
      "CaptionName": "Traduzzjoni",
      "YoutubeSynced": true
    },
    {
      "ID": "Ut8lReStvyH-Jj8hn1apFuUp4n8FX028Flifb0EUfkGR2LHG3Y5uKNyQuYkp9f2n4pMeLB8E13s=",
      "Lang": "my",
      "CaptionKey": "translation",
      "CaptionName": "ဘာသာပြန်",
      "YoutubeSynced": true
    },
    {
      "ID": "-SgfH3uCC8szZz0wBeLRW-tjFCTDgRSYIxw0-03nh3Q-O8DNH8rXEmyq4WfBlyMH",
      "Lang": "ne",
      "CaptionKey": "translation",
      "CaptionName": "अनुवाद",
      "YoutubeSynced": true
    },
    {
      "ID": "0ihpwcAG1tcV_GStnw3w1-ZKnSUkdKel8fQo7UcUunr1DxWKrsUsZQ==",
      "Lang": "nl",
      "CaptionKey": "translation",
      "CaptionName": "Vertaling",
      "YoutubeSynced": true
    },
    {
      "ID": "-mnIP50BiY60X2G8whK0bszkTYkYUQwsV5dY-iXOIyz2KOgTflTRfw==",
      "Lang": "no",
      "CaptionKey": "translation",
      "CaptionName": "Oversettelse",
      "YoutubeSynced": true
    },
    {
      "ID": "-SgfH3uCC8vaIf0GtlgRnJO97I-bh8y81uDKMJTEyJ061A0f0bkpygb48i0p6BW4",
      "Lang": "pa",
      "CaptionKey": "translation",
      "CaptionName": "ਅਨੁਵਾਦ",
      "YoutubeSynced": true
    },
    {
      "ID": "-mnIP50BiY5SNaoq91wthgZBWsnJ218s6v4RL3BkwO6wsNERUscgQw==",
      "Lang": "pl",
      "CaptionKey": "translation",
      "CaptionName": "Tłumaczenie",
      "YoutubeSynced": true
    },
    {
      "ID": "BFoqZVC4R0gVbyvB4Y-iyCl-AsI4jDwraxf0WF8Ygqdw0tfl7tua3Q==",
      "Lang": "ps",
      "CaptionKey": "translation",
      "CaptionName": "ژباړه",
      "YoutubeSynced": true
    },
    {
      "ID": "BFoqZVC4R0i2GQTiU36-w6ZBvwZeFhSjRR0FYBPE9rNc44qn_KPTWw==",
      "Lang": "pt",
      "CaptionKey": "translation",
      "CaptionName": "Tradução",
      "YoutubeSynced": true
    },
    {
      "ID": "0ihpwcAG1tdiZTzgGMnxczTR6iXFz5JeHPcgX36uBXIwiqKt1sB3Gw==",
      "Lang": "ro",
      "CaptionKey": "translation",
      "CaptionName": "Traducere",
      "YoutubeSynced": true
    },
    {
      "ID": "NQjLtwNdjZH95m7xo7-8hMMMLUijpho9gJoFkNpQH1XPzRqIyvuBug==",
      "Lang": "ru",
      "CaptionKey": "translation",
      "CaptionName": "Перевод",
      "YoutubeSynced": true
    },
    {
      "ID": "BFoqZVC4R0jYhsMd-ZgHZ0PZ1ddLD0HJdOXyfsQQWK4yi1JKFj9DpQ==",
      "Lang": "sd",
      "CaptionKey": "translation",
      "CaptionName": "ترجمو",
      "YoutubeSynced": true
    },
    {
      "ID": "QiYZBt2UOQj7jHOsY2wLmlwPo8dCprebBbihn_cL5HIACx9CdKW4lyTQVui99nbnevRxwSO8B-o=",
      "Lang": "si",
      "CaptionKey": "translation",
      "CaptionName": "පරිවර්තනය",
      "YoutubeSynced": true
    },
    {
      "ID": "a48CC17_lhPZdlARKXUj4GmVEEQrReJhWlRbbLSiyb7uDs9nYCZdAg==",
      "Lang": "sk",
      "CaptionKey": "translation",
      "CaptionName": "preklad",
      "YoutubeSynced": true
    },
    {
      "ID": "u4sPVzIffAnzvqqvoqsS4tSsqiDPbbAdam4xbKIgYOc=",
      "Lang": "sl",
      "CaptionKey": "translation",
      "CaptionName": "Prevod",
      "YoutubeSynced": true
    },
    {
      "ID": "-mnIP50BiY6B7t4eH-rmrQXvPIwJxsTmyoiRd94aMkvFmbFOrCtPGA==",
      "Lang": "sm",
      "CaptionKey": "translation",
      "CaptionName": "Faʻaliliuga",
      "YoutubeSynced": true
    },
    {
      "ID": "a48CC17_lhNcgb2PIMtBY4eiEicMleT1oSIrs2bZo5UtZrc212d8mg==",
      "Lang": "sn",
      "CaptionKey": "translation",
      "CaptionName": "Dudziro",
      "YoutubeSynced": true
    },
    {
      "ID": "0ihpwcAG1tcysJ2qzbGFNxyDjT17NSlz9L4ggH30UxU1xnyHy3AV-w==",
      "Lang": "so",
      "CaptionKey": "translation",
      "CaptionName": "Tarjumida",
      "YoutubeSynced": true
    },
    {
      "ID": "0ihpwcAG1teCe1Tbl9biSYEso4_NnPplQJdXCNqb2SHIXlk_JLQEYA==",
      "Lang": "sq",
      "CaptionKey": "translation",
      "CaptionName": "përkthim",
      "YoutubeSynced": true
    },
    {
      "ID": "-mnIP50BiY4DB867FjyTM2pHkoObyKcPWsq-Citl_lmiv4IS9lzPOw==",
      "Lang": "sr",
      "CaptionKey": "translation",
      "CaptionName": "Превод",
      "YoutubeSynced": true
    },
    {
      "ID": "0ihpwcAG1terrdc1QFalWFHXbEuDSBkoFqle5lYmyzzNDd9FQAAHoQ==",
      "Lang": "st",
      "CaptionKey": "translation",
      "CaptionName": "Phetolelo",
      "YoutubeSynced": true
    },
    {
      "ID": "BFoqZVC4R0gvL1EXvGW4v0JWm6qA9hu573m4JnLKMhlKxmSOIuFSFA==",
      "Lang": "su",
      "CaptionKey": "translation",
      "CaptionName": "Tarjamahan",
      "YoutubeSynced": true
    },
    {
      "ID": "NQjLtwNdjZFmnx-Yp56qglN6qStWhuWoKyLQFau6X3vxASrFw5Qg7w==",
      "Lang": "sv",
      "CaptionKey": "translation",
      "CaptionName": "Översättning",
      "YoutubeSynced": true
    },
    {
      "ID": "a48CC17_lhO1TI314hB2kZYshGM1tG_sT8RVKfkhVgZBwP36gzNqyw==",
      "Lang": "sw",
      "CaptionKey": "translation",
      "CaptionName": "Tafsiri",
      "YoutubeSynced": true
    },
    {
      "ID": "8V12GrNAqju7o0vj4WNcT-i1qP7-eJzwBkPhTOYXhBxhbNuCeBLEhLXfza2Gbu_WGwYW8u0ah4jJkj3qg9-TJZCFweqUev4u",
      "Lang": "ta",
      "CaptionKey": "translation",
      "CaptionName": "மொழிபெயர்ப்பு",
      "YoutubeSynced": true
    },
    {
      "ID": "mlprt0I1J45JZDneghPYIBBl1K0Xq6Sm6TyZZVPj4I7D7qkwAQuEEQSHJsjCmnC4",
      "Lang": "te",
      "CaptionKey": "translation",
      "CaptionName": "అనువాదం",
      "YoutubeSynced": true
    },
    {
      "ID": "NQjLtwNdjZFQTGFIM65x_Jjrptcgtk_BIhIoFE7KswZ-ZCrZ9DhlNw==",
      "Lang": "tg",
      "CaptionKey": "translation",
      "CaptionName": "Тарҷума",
      "YoutubeSynced": true
    },
    {
      "ID": "-SgfH3uCC8sNhFQUgef3mM_jh9au7p9MypczkR-wisuwbH_dx2i_vrjCPojtkZVq",
      "Lang": "th",
      "CaptionKey": "translation",
      "CaptionName": "การแปล",
      "YoutubeSynced": true
    },
    {
      "ID": "87DEMB8-YBHaMqXc87snCAUQ_JKo1CSpmuIvdYiNf-umAgE3ABlCmQ==",
      "Lang": "tr",
      "CaptionKey": "translation",
      "CaptionName": "Tercüme",
      "YoutubeSynced": true
    },
    {
      "ID": "YhNj5UtFScJDZABMmzbtBYcWFChhF_UW_tKeeY3QQScVD73KNGYqso4Lv3ZNjyQR",
      "Lang": "uk",
      "CaptionKey": "translation",
      "CaptionName": "Переклад",
      "YoutubeSynced": true
    },
    {
      "ID": "BFoqZVC4R0gbQD-zKdWh9zpyiyad-9gPvXDUAhH5YF0vs_jBcTtd2g==",
      "Lang": "ur",
      "CaptionKey": "translation",
      "CaptionName": "ترجمہ",
      "YoutubeSynced": true
    },
    {
      "ID": "a48CC17_lhMpUGUjETxsZ53XqTHy10-70D_eZzW6N3CjuDDfSIssFQ==",
      "Lang": "uz",
      "CaptionKey": "translation",
      "CaptionName": "Tarjima",
      "YoutubeSynced": true
    },
    {
      "ID": "u4sPVzIffAmna5NEqLzmxZMHJHFpvvwKK0Bso4Lz2Ss=",
      "Lang": "vi",
      "CaptionKey": "translation",
      "CaptionName": "Dịch",
      "YoutubeSynced": true
    },
    {
      "ID": "BFoqZVC4R0jrfWQNpvbOyEH40c1ghuBkC4LJzXSWhJaoBSbjfdY2Ww==",
      "Lang": "xh",
      "CaptionKey": "translation",
      "CaptionName": "Inguqulelo",
      "YoutubeSynced": true
    },
    {
      "ID": "U-lAajfj62s2d3svCHXAVdsU5lqdYdxSVtPbSuk7AH5-h58unj0swm0lQjnwXOv4",
      "Lang": "yi",
      "CaptionKey": "translation",
      "CaptionName": "איבערזעצונג",
      "YoutubeSynced": true
    },
    {
      "ID": "a48CC17_lhMlBXG-BH5-b2Hj6ZWWAXLRrEiVclzMejd8coEEmAxNrg==",
      "Lang": "yo",
      "CaptionKey": "translation",
      "CaptionName": "Itumọ",
      "YoutubeSynced": true
    },
    {
      "ID": "tJyS_3BTAXOqvpfiVPFr7VKD53KOLIUuE6LXmpT5twDtEZswKkMF-A==",
      "Lang": "zh-Hans",
      "CaptionKey": "translation",
      "CaptionName": "翻译",
      "YoutubeSynced": true
    },
    {
      "ID": "tJyS_3BTAXOqvpfiVPFr7Qh-KT-vIB1hQAEo781eQ45R_5lENpclTQ==",
      "Lang": "zh-Hant",
      "CaptionKey": "translation",
      "CaptionName": "翻譯",
      "YoutubeSynced": true
    },
    {
      "ID": "BFoqZVC4R0imKqksXg-PQ5EU044kdLdJessIJAyRhVuTH1nFYP5z8g==",
      "Lang": "zu",
      "CaptionKey": "translation",
      "CaptionName": "Ukuhumusha",
      "YoutubeSynced": true
    }
  ]
}