{
  "VideoFile": "grammar-en-beginner-simple_73_A.mp4",
  "Captions": [
    {
      "ID": "6lr3AQ5Xj8M83fJScXmHRaHINP42unddoB5VUIuzjH2MGZfZMc3XsQ==",
      "Lang": "af",
      "CaptionKey": "translation",
      "CaptionName": "vertaling",
      "YoutubeSynced": true
    },
    {
      "ID": "ooOI950OGvJrEQQPlq6FZMp-K5JGBui_d7c48X4GOhiu-3QmwGx-ug==",
      "Lang": "am",
      "CaptionKey": "translation",
      "CaptionName": "ትርጉም",
      "YoutubeSynced": true
    },
    {
      "ID": "Hr7GlqUoNLwIAkXaD03iqv6LmCjaXbQ_2zoMVqYbpm4SwCI-DavCrw==",
      "Lang": "ar",
      "CaptionKey": "translation",
      "CaptionName": "ترجمة",
      "YoutubeSynced": true
    },
    {
      "ID": "Hr7GlqUoNLwtTGsvkhzl8vQS9A-yNgMLjYaDkCGHLKoVSV6N2lyskA==",
      "Lang": "az",
      "CaptionKey": "translation",
      "CaptionName": "Tərcümə",
      "YoutubeSynced": true
    },
    {
      "ID": "lWRPJ70vW8ADmtgQNIkCe66KmmBTR_a4atc013-LOkaGcnhHyRqjXYvzZZ9hcZwP",
      "Lang": "be",
      "CaptionKey": "translation",
      "CaptionName": "Пераклад",
      "YoutubeSynced": true
    },
    {
      "ID": "ooOI950OGvJ5qW_aG412MgCUG6emr0Ix5bhuj25dlWJtdd1YT_7Gug==",
      "Lang": "bg",
      "CaptionKey": "translation",
      "CaptionName": "превод",
      "YoutubeSynced": true
    },
    {
      "ID": "Pcs4CpKKPiea4mUL_K9czSsx16sx_N1ClJtTdLsHkZSipd7aqtuBaAzScrPkF4BL",
      "Lang": "bn",
      "CaptionKey": "translation",
      "CaptionName": "অনুবাদ",
      "YoutubeSynced": true
    },
    {
      "ID": "nHB29J7w2GKdUZ3Cue6XtiqPEfhc_KlYXJ41ndxEJHY=",
      "Lang": "bs",
      "CaptionKey": "translation",
      "CaptionName": "Prevod",
      "YoutubeSynced": true
    },
    {
      "ID": "Hr7GlqUoNLzo9Kx2MLspyifqFYdN60N8ri-xhvNdhZprZcaui1NfJQ==",
      "Lang": "ca",
      "CaptionKey": "translation",
      "CaptionName": "Traducció",
      "YoutubeSynced": true
    },
    {
      "ID": "Hr7GlqUoNLx52qkJ1ITHWlaQXCmdmAVmiCxgNYGq1FtccAuW_YLF8w==",
      "Lang": "co",
      "CaptionKey": "translation",
      "CaptionName": "Traduzione",
      "YoutubeSynced": true
    },
    {
      "ID": "2lvbf9IwJKNzIaHzp0IL62c5W1VR4UA-Z6jykcIIv66CINjUvuBy1w==",
      "Lang": "cs",
      "CaptionKey": "translation",
      "CaptionName": "Překlad",
      "YoutubeSynced": true
    },
    {
      "ID": "aYbtg_yLmquqnlDVkNDgScBIjmP2K4hz30skJ7fEOllcaGr5p4GQLw==",
      "Lang": "cy",
      "CaptionKey": "translation",
      "CaptionName": "Cyfieithiad",
      "YoutubeSynced": true
    },
    {
      "ID": "cTb29kRa0VhwDvvYbb3s5JFZU6KxyItMKWjppIoq_-RnQnGOd3HHsA==",
      "Lang": "da",
      "CaptionKey": "translation",
      "CaptionName": "Oversættelse",
      "YoutubeSynced": true
    },
    {
      "ID": "ooOI950OGvLJmP75qKixGFs5S2hpje4p7WifBmq14R0V4tZJhazdUA==",
      "Lang": "de",
      "CaptionKey": "translation",
      "CaptionName": "Übersetzung",
      "YoutubeSynced": true
    },
    {
      "ID": "Pcs4CpKKPifCGkJ9quSYV8c7I6kwLZ8QQS91Dbuox-HGiNlnr33xD52LsfbtWOou",
      "Lang": "el",
      "CaptionKey": "translation",
      "CaptionName": "Μετάφραση",
      "YoutubeSynced": true
    },
    {
      "ID": "aYbtg_yLmquBaAKUqYKZUi-KTCrHHk-CwUTYjW7Rmvdbhn4gtaiRKw==",
      "Lang": "en",
      "CaptionKey": "translation",
      "CaptionName": "Translation",
      "YoutubeSynced": true
    },
    {
      "ID": "8lVPnvD8iJMbJzUgeoz0eGMFfLlgTEYcE8VveyefvBIP9qo-AdHr_jGkmxsRe3_C",
      "Lang": "en",
      "CaptionKey": "ruby",
      "CaptionName": "Pronunciation - IPA",
      "YoutubeSynced": true
    },
    {
      "ID": "aYbtg_yLmqsCOhh7L6wJvOmLpZ56RD7jGbaxGzO_OqmVm6CmeMgoRw==",
      "Lang": "es",
      "CaptionKey": "translation",
      "CaptionName": "Traducción",
      "YoutubeSynced": true
    },
    {
      "ID": "nHB29J7w2GLGnN-w9hSnVcm2JN2N1DVxUeUauIjdVYg=",
      "Lang": "et",
      "CaptionKey": "translation",
      "CaptionName": "Tõlge",
      "YoutubeSynced": true
    },
    {
      "ID": "6lr3AQ5Xj8MpS_OeiMNnTsjVoRBhVab6tVy6bv9hX3N2FcgSIFkPVQ==",
      "Lang": "eu",
      "CaptionKey": "translation",
      "CaptionName": "Itzulpena",
      "YoutubeSynced": true
    },
    {
      "ID": "Hr7GlqUoNLygDl-9tTdhJoYRhkSvHlhO8-oyoEztO6dMVY-CiJ7VZw==",
      "Lang": "fa",
      "CaptionKey": "translation",
      "CaptionName": "ترجمه",
      "YoutubeSynced": true
    },
    {
      "ID": "Hr7GlqUoNLwKsN3b2eeoDBTZTXWV8f9AXpNUv_K6RFu-cdbRu_3-ag==",
      "Lang": "fi",
      "CaptionKey": "translation",
      "CaptionName": "Käännös",
      "YoutubeSynced": true
    },
    {
      "ID": "aYbtg_yLmqtKRigl-e92b8HqLY9Le1sLwmkS8z46J__p5Lw1aUmMig==",
      "Lang": "fil",
      "CaptionKey": "translation",
      "CaptionName": "Pagsasalin",
      "YoutubeSynced": true
    },
    {
      "ID": "Hr7GlqUoNLydtNxArUch-3pOvxC89L3AlqXLU04ITIPY8XWX2nr2sQ==",
      "Lang": "fr",
      "CaptionKey": "translation",
      "CaptionName": "Traduction",
      "YoutubeSynced": true
    },
    {
      "ID": "Hr7GlqUoNLy7SyB0khtIS8Kw21VBZA2ZiChV1aELj2dU8C5PgBDOnQ==",
      "Lang": "fy",
      "CaptionKey": "translation",
      "CaptionName": "Oersetting",
      "YoutubeSynced": true
    },
    {
      "ID": "Pcs4CpKKPicy4LjcTv7GsE7eayQeKMRkZ3WKsvMzuBzQ6TceDJClgUUt_SPs9prK",
      "Lang": "gd",
      "CaptionKey": "translation",
      "CaptionName": "Eadar-theangachadh",
      "YoutubeSynced": true
    },
    {
      "ID": "Hr7GlqUoNLxvBjgNHmeQZt6pd7RqCL_iRXPyxe0UcpWifvVkU6Ifsg==",
      "Lang": "gl",
      "CaptionKey": "translation",
      "CaptionName": "Tradución",
      "YoutubeSynced": true
    },
    {
      "ID": "Pcs4CpKKPictY5urwHnOnRKajXNs8ClQaQaCDJrwP5K0FSOtdg6cwNTOzmOmCoG8",
      "Lang": "gu",
      "CaptionKey": "translation",
      "CaptionName": "અનુવાદ",
      "YoutubeSynced": true
    },
    {
      "ID": "IZJFISVNupCDdL4_h4tIaIzG5Fk-16r2YRBrfQT_08OkHplOQV07Sg==",
      "Lang": "ha",
      "CaptionKey": "translation",
      "CaptionName": "Fassara",
      "YoutubeSynced": true
    },
    {
      "ID": "Pcs4CpKKPicjHhEyx_zh_vHOT8xKHDUSVe-A6KAcpX7tYtDkYKl1j3z9_xAlih9R",
      "Lang": "hi",
      "CaptionKey": "translation",
      "CaptionName": "अनुवाद",
      "YoutubeSynced": true
    },
    {
      "ID": "2lvbf9IwJKOngL02Riy9biwiCH35a2jmGnWMugZzMg6s9jffZ3thnA==",
      "Lang": "hr",
      "CaptionKey": "translation",
      "CaptionName": "Prijevod",
      "YoutubeSynced": true
    },
    {
      "ID": "Hr7GlqUoNLwTYJVqMriQq3tZQ8hZ3vinrtJCmO42HuI8Z3MB-fVxdg==",
      "Lang": "hu",
      "CaptionKey": "translation",
      "CaptionName": "Fordítás",
      "YoutubeSynced": true
    },
    {
      "ID": "G0WxFn57m1W5DFZwjEl5j_KsKxAowl1gaqeTtej-DNEhOtiL0LOERDgVH1cbVvuulTNHFTofMgs=",
      "Lang": "hy",
      "CaptionKey": "translation",
      "CaptionName": "Թարգմանություն",
      "YoutubeSynced": true
    },
    {
      "ID": "Hr7GlqUoNLz6ojbCE1ly7q1iGYK23JLMOuy9s8pVFYu7BGoJd4ivbg==",
      "Lang": "id",
      "CaptionKey": "translation",
      "CaptionName": "Terjemahan",
      "YoutubeSynced": true
    },
    {
      "ID": "2lvbf9IwJKPe7Say7xYi7fWm-5XE2U-36tCu_kwIvwr6EhOHaJXD9g==",
      "Lang": "ig",
      "CaptionKey": "translation",
      "CaptionName": "Ntughari",
      "YoutubeSynced": true
    },
    {
      "ID": "6lr3AQ5Xj8PQKG3tx7sm5gs1y9eLKTK00-QwdhvZt7wE1RxXjxACMQ==",
      "Lang": "is",
      "CaptionKey": "translation",
      "CaptionName": "Þýðing",
      "YoutubeSynced": true
    },
    {
      "ID": "Hr7GlqUoNLxQr5Ijli12ceoTrtOu67MPTF6mOzXIiXz2Xc8oJEN5kA==",
      "Lang": "it",
      "CaptionKey": "translation",
      "CaptionName": "Traduzione",
      "YoutubeSynced": true
    },
    {
      "ID": "Hr7GlqUoNLz9WkHVnXknUqWIyv4GyZxDp9yf3DS7BwUmVX5TIN-O9g==",
      "Lang": "iw",
      "CaptionKey": "translation",
      "CaptionName": "תרגום",
      "YoutubeSynced": true
    },
    {
      "ID": "nHB29J7w2GLyChp-47Zz22sFknzhEHbvP6kTk3SS0Z8=",
      "Lang": "ja",
      "CaptionKey": "translation",
      "CaptionName": "翻訳",
      "YoutubeSynced": true
    },
    {
      "ID": "6lr3AQ5Xj8NEN5GukX8O2IaI8B-6qcf-KYsU8JaJqFfYbaMXFnGU1A==",
      "Lang": "jv",
      "CaptionKey": "translation",
      "CaptionName": "Ngartekne",
      "YoutubeSynced": true
    },
    {
      "ID": "iJPHBMBvkPJpBf-9KmJwHTEyYwUP-ybd6K6V0FE_jiW73S84QeB_bFJGcRaf0EcaIX8cWb9YLcU=",
      "Lang": "ka",
      "CaptionKey": "translation",
      "CaptionName": "თარგმანი",
      "YoutubeSynced": true
    },
    {
      "ID": "K4nLJie7mIdYU_P7aRfgM_c3pN9s5OsF27YGc83RKgxJ3wglUT-vcw==",
      "Lang": "kk",
      "CaptionKey": "translation",
      "CaptionName": "Аударма",
      "YoutubeSynced": true
    },
    {
      "ID": "x5B0ENtyPIChv7qY5CK_gkW0jZfZTuFaxsUNsrLV4P24iwaXraen5HjHEAN_OAb0bm6EHSiQpzI=",
      "Lang": "km",
      "CaptionKey": "translation",
      "CaptionName": "ការបកប្រែ",
      "YoutubeSynced": true
    },
    {
      "ID": "Pcs4CpKKPicvVqSStrz3GHqaTC-xWEwr_Pe7qAzOBdF-AQ9p-Y84HZuUCjz2KZn0",
      "Lang": "kn",
      "CaptionKey": "translation",
      "CaptionName": "ಅನುವಾದ",
      "YoutubeSynced": true
    },
    {
      "ID": "nHB29J7w2GLDRb09hOz7fTy3YE3mpbGhFtO7pLaC8gU=",
      "Lang": "ko",
      "CaptionKey": "translation",
      "CaptionName": "번역",
      "YoutubeSynced": true
    },
    {
      "ID": "nHB29J7w2GIu5YpaQy0jcgBik_evPhKjjNudHfXP4IA=",
      "Lang": "ku",
      "CaptionKey": "translation",
      "CaptionName": "Werger",
      "YoutubeSynced": true
    },
    {
      "ID": "K4nLJie7mIfK0Dtu3vHSkZLH8TK8QSMvEgfYo-y6SQGeZ-GnZre-4w==",
      "Lang": "ky",
      "CaptionKey": "translation",
      "CaptionName": "котормо",
      "YoutubeSynced": true
    },
    {
      "ID": "ooOI950OGvKqB8n1IXLkVaX7CQkgn4ad95O4d8YK7RG5n81q0euwjg==",
      "Lang": "lb",
      "CaptionKey": "translation",
      "CaptionName": "Iwwersetzung",
      "YoutubeSynced": true
    },
    {
      "ID": "x5B0ENtyPID1Mw-zuPrIWHGwPiwJGvqjK3Qh1YxWgE5yKwkMq1-4_OyHCsZxHiVQIsW9FI45dWQ=",
      "Lang": "lo",
      "CaptionKey": "translation",
      "CaptionName": "ການແປພາສາ",
      "YoutubeSynced": true
    },
    {
      "ID": "2lvbf9IwJKPUor2zDSy02XUYXN2cawD0eVgkIvZFBq2zP-Al1IwVNg==",
      "Lang": "lt",
      "CaptionKey": "translation",
      "CaptionName": "Vertimas",
      "YoutubeSynced": true
    },
    {
      "ID": "Hr7GlqUoNLzmRynhb6uqMfTzzTIztFJOBnepfJry34o7gc87ofCeog==",
      "Lang": "lv",
      "CaptionKey": "translation",
      "CaptionName": "Tulkošana",
      "YoutubeSynced": true
    },
    {
      "ID": "aYbtg_yLmqtC_o2tTF4ZFrnIA5dUFC8gjHQmETsWAU7mQf0Zg6GdOg==",
      "Lang": "mg",
      "CaptionKey": "translation",
      "CaptionName": "Translation",
      "YoutubeSynced": true
    },
    {
      "ID": "lbt3GjVhOdRwXygVLq4YrO91RzddHOmqZopbMUBh_zDAzuoP0oWXql1J8jDHrCVn",
      "Lang": "mi",
      "CaptionKey": "translation",
      "CaptionName": "Whakamaoritanga",
      "YoutubeSynced": true
    },
    {
      "ID": "ooOI950OGvIZqYSsVcIWHQ2vlzExyncvnyQSs9XQ1rQvmfXs42TLbw==",
      "Lang": "mk",
      "CaptionKey": "translation",
      "CaptionName": "Превод",
      "YoutubeSynced": true
    },
    {
      "ID": "x5B0ENtyPIBJW1E94YwmO-oKBcwNxR6v_vfN4al4M75Hy8J-OnF80EuAN-mjuyqcAE3Kld6apls=",
      "Lang": "ml",
      "CaptionKey": "translation",
      "CaptionName": "വിവർത്തനം",
      "YoutubeSynced": true
    },
    {
      "ID": "lWRPJ70vW8A3IsEBQmJLvKCBhPe0ENJTndquKLvbNTBYilx5-CJhIfvb7u5YAsrN",
      "Lang": "mn",
      "CaptionKey": "translation",
      "CaptionName": "Орчуулга",
      "YoutubeSynced": true
    },
    {
      "ID": "ampj0Ci95RTxZzYhzy20E1AbdccRZvVdfGgm237WCSutKzWFQRxMbpjMh8Ss4GXs",
      "Lang": "mr",
      "CaptionKey": "translation",
      "CaptionName": "भाषांतर",
      "YoutubeSynced": true
    },
    {
      "ID": "Hr7GlqUoNLyNqzA755UO2M056eyJNDRwKc_cK5iezECYhDR51FhtQg==",
      "Lang": "ms",
      "CaptionKey": "translation",
      "CaptionName": "Terjemahan",
      "YoutubeSynced": true
    },
    {
      "ID": "aYbtg_yLmqsdvTK-iQ2cDON16lQHx11Kj4N4rGkVEyRl8d7ZIT7QJA==",
      "Lang": "mt",
      "CaptionKey": "translation",
      "CaptionName": "Traduzzjoni",
      "YoutubeSynced": true
    },
    {
      "ID": "iJPHBMBvkPLMdpIkxVnndG3zsaj-ULpOz-yGpCfVC0cL7AYr8gVm4NCPZwpFtRgIltyAvkRa6qk=",
      "Lang": "my",
      "CaptionKey": "translation",
      "CaptionName": "ဘာသာပြန်",
      "YoutubeSynced": true
    },
    {
      "ID": "Pcs4CpKKPic_0ZYha5mnD_WxP2YXZrGo5jPqzJyFTDZk4YSSQ3S1t-3BDosLCwhw",
      "Lang": "ne",
      "CaptionKey": "translation",
      "CaptionName": "अनुवाद",
      "YoutubeSynced": true
    },
    {
      "ID": "6lr3AQ5Xj8MdfVuaJeJGyWn5N2DWO54Cysc9wqPVuBfZbTJqOIMnZA==",
      "Lang": "nl",
      "CaptionKey": "translation",
      "CaptionName": "Vertaling",
      "YoutubeSynced": true
    },
    {
      "ID": "ooOI950OGvLGDrQZfhZ0LmUqPQ1c2dA-1KsJTMvjVuCccXTv0l7e3g==",
      "Lang": "no",
      "CaptionKey": "translation",
      "CaptionName": "Oversettelse",
      "YoutubeSynced": true
    },
    {
      "ID": "Pcs4CpKKPieKoxrr8j-MgGPZdRmwRaQc0R2R_-FGFBzEuJv2fCG4IMWNlMHyUtR-",
      "Lang": "pa",
      "CaptionKey": "translation",
      "CaptionName": "ਅਨੁਵਾਦ",
      "YoutubeSynced": true
    },
    {
      "ID": "ooOI950OGvI2Dcj-LCoSfRyRIRlVY-H386utuBZRYMHnNUMkOJEGtA==",
      "Lang": "pl",
      "CaptionKey": "translation",
      "CaptionName": "Tłumaczenie",
      "YoutubeSynced": true
    },
    {
      "ID": "Hr7GlqUoNLzS7XavytHcOz9QkLy-y1b0aJF-CE8EgmpriI6Mx8ko7g==",
      "Lang": "ps",
      "CaptionKey": "translation",
      "CaptionName": "ژباړه",
      "YoutubeSynced": true
    },
    {
      "ID": "Hr7GlqUoNLyZ07XiE3Dz8ILjX__Ot-RmgzEzp8OJ0QdcXVB2Mkb-tg==",
      "Lang": "pt",
      "CaptionKey": "translation",
      "CaptionName": "Tradução",
      "YoutubeSynced": true
    },
    {
      "ID": "6lr3AQ5Xj8MBD0C24IM1xzmsoANN8L8MpUGFMivvcVrSCuy3JdOvXQ==",
      "Lang": "ro",
      "CaptionKey": "translation",
      "CaptionName": "Traducere",
      "YoutubeSynced": true
    },
    {
      "ID": "K4nLJie7mIc84xIfqS9q6JI7uB2BCaowBpa7fHNhRckj87u1rY0B4Q==",
      "Lang": "ru",
      "CaptionKey": "translation",
      "CaptionName": "Перевод",
      "YoutubeSynced": true
    },
    {
      "ID": "Hr7GlqUoNLw3p3ukHEB90OUfZHbywAvz27cjUv-sGEklSxZOokOMEg==",
      "Lang": "sd",
      "CaptionKey": "translation",
      "CaptionName": "ترجمو",
      "YoutubeSynced": true
    },
    {
      "ID": "x5B0ENtyPIDaqA6b8ZYsx8tnHkZMdiihAFlqKpoBk0lUAkUO9OltlNqF-FhrtjxWX_FbLQB3x0A=",
      "Lang": "si",
      "CaptionKey": "translation",
      "CaptionName": "පරිවර්තනය",
      "YoutubeSynced": true
    },
    {
      "ID": "IZJFISVNupAkIbxOIvRXv2BStAY1lWsw4nv4ePycy4s33HfOUTwopg==",
      "Lang": "sk",
      "CaptionKey": "translation",
      "CaptionName": "preklad",
      "YoutubeSynced": true
    },
    {
      "ID": "nHB29J7w2GIlMaAYXIuRNBSKZWEG0cpiE-WHRT1tLM4=",
      "Lang": "sl",
      "CaptionKey": "translation",
      "CaptionName": "Prevod",
      "YoutubeSynced": true
    },
    {
      "ID": "ooOI950OGvL1YehaBzRDnHEWLW3khVUuZCG81VnLK_AZ4j9mP1Q98w==",
      "Lang": "sm",
      "CaptionKey": "translation",
      "CaptionName": "Faʻaliliuga",
      "YoutubeSynced": true
    },
    {
      "ID": "IZJFISVNupD1a6sSne2SrJvp1Wlb_fFpHKx1ywJNO-cUeKkJxJ55aw==",
      "Lang": "sn",
      "CaptionKey": "translation",
      "CaptionName": "Dudziro",
      "YoutubeSynced": true
    },
    {
      "ID": "6lr3AQ5Xj8NBe-3pwXgA-Hnae34tBY3JeH-Z0kcRKNHn0w5brhwYoA==",
      "Lang": "so",
      "CaptionKey": "translation",
      "CaptionName": "Tarjumida",
      "YoutubeSynced": true
    },
    {
      "ID": "6lr3AQ5Xj8NDd2sVa3bU56UWNu_SuQMDa7-_AS3_ZeP47Cjj1AHetw==",
      "Lang": "sq",
      "CaptionKey": "translation",
      "CaptionName": "përkthim",
      "YoutubeSynced": true
    },
    {
      "ID": "ooOI950OGvIN481N1BcbgpI9u4OzD5udNAgPWXE273dniB4d8NrBpw==",
      "Lang": "sr",
      "CaptionKey": "translation",
      "CaptionName": "Превод",
      "YoutubeSynced": true
    },
    {
      "ID": "6lr3AQ5Xj8NnoclXlPImDUznwOtCb_Vq0IQh-NspnaYgKTdI0GgW1g==",
      "Lang": "st",
      "CaptionKey": "translation",
      "CaptionName": "Phetolelo",
      "YoutubeSynced": true
    },
    {
      "ID": "Hr7GlqUoNLy69RxdpGa6OZUgFRuTUNIHs7TLIm4iVlVha38zHMULWw==",
      "Lang": "su",
      "CaptionKey": "translation",
      "CaptionName": "Tarjamahan",
      "YoutubeSynced": true
    },
    {
      "ID": "K4nLJie7mIctYWZgg40LX2ph29LejerzUIxV6hRx4EMO2kh9XOWaiQ==",
      "Lang": "sv",
      "CaptionKey": "translation",
      "CaptionName": "Översättning",
      "YoutubeSynced": true
    },
    {
      "ID": "IZJFISVNupAeYyZ_ckD9wBve1DN898UZT97YriMjR3IctCCvsOjhBA==",
      "Lang": "sw",
      "CaptionKey": "translation",
      "CaptionName": "Tafsiri",
      "YoutubeSynced": true
    },
    {
      "ID": "40qaRQer8DgG66EzUEqnZ3IiT8sYNkP2duKAptw0lXFYUIXRrCN_Dn4LlX8Cjr3SQePkWgZh6uPcJgseMiFLJJqXrgD9BBQN",
      "Lang": "ta",
      "CaptionKey": "translation",
      "CaptionName": "மொழிபெயர்ப்பு",
      "YoutubeSynced": true
    },
    {
      "ID": "ampj0Ci95RRqcZ1HS1TdqhKVygpEj_pc1zvYMf9B8eitHvKusqTekDNcwe2I-sHI",
      "Lang": "te",
      "CaptionKey": "translation",
      "CaptionName": "అనువాదం",
      "YoutubeSynced": true
    },
    {
      "ID": "K4nLJie7mIfVKuo5J4bsML7zImuesGHttsWkWjweyIIMP6L5diaCnA==",
      "Lang": "tg",
      "CaptionKey": "translation",
      "CaptionName": "Тарҷума",
      "YoutubeSynced": true
    },
    {
      "ID": "Pcs4CpKKPieYa0sgeVkiC0xp7yWGFloStU174zPkHOe3SzVR0OtJM39E9b3uXJjP",
      "Lang": "th",
      "CaptionKey": "translation",
      "CaptionName": "การแปล",
      "YoutubeSynced": true
    },
    {
      "ID": "2lvbf9IwJKPA9Hh8AmdypOmg5P2cea1c4588ud06oTmgNrhxlx2oWQ==",
      "Lang": "tr",
      "CaptionKey": "translation",
      "CaptionName": "Tercüme",
      "YoutubeSynced": true
    },
    {
      "ID": "lWRPJ70vW8DkayB4BwLnPxZjh4u4hox318ioAOj0mwIZOwxYT6MeBlKIAx_eGq0E",
      "Lang": "uk",
      "CaptionKey": "translation",
      "CaptionName": "Переклад",
      "YoutubeSynced": true
    },
    {
      "ID": "Hr7GlqUoNLwpNWBeQdxx8ZeTDsWuJEvPgZkH_beBaQ6f86zJ6qOhGw==",
      "Lang": "ur",
      "CaptionKey": "translation",
      "CaptionName": "ترجمہ",
      "YoutubeSynced": true
    },
    {
      "ID": "IZJFISVNupA6rkuigIgy4Hej8pd4c5pWGueCMzwsSlLfVxZO79bTVw==",
      "Lang": "uz",
      "CaptionKey": "translation",
      "CaptionName": "Tarjima",
      "YoutubeSynced": true
    },
    {
      "ID": "nHB29J7w2GLSynO_QzbYBFL2MMVhEOgtdbWsDwqWcdo=",
      "Lang": "vi",
      "CaptionKey": "translation",
      "CaptionName": "Dịch",
      "YoutubeSynced": true
    },
    {
      "ID": "Hr7GlqUoNLwEkn6OYK2fl0XWIuIj_gJ5v2P9zYDyKGTtKADGZl6Cvg==",
      "Lang": "xh",
      "CaptionKey": "translation",
      "CaptionName": "Inguqulelo",
      "YoutubeSynced": true
    },
    {
      "ID": "0LHfLIyL2I_xV6-_xYyQFeAgILy2gNju_PhQfRI3BdJksYZMUPDcJJC3L82J3KOm",
      "Lang": "yi",
      "CaptionKey": "translation",
      "CaptionName": "איבערזעצונג",
      "YoutubeSynced": true
    },
    {
      "ID": "IZJFISVNupDoYrbWcP9bD14-V_lC7DuI7qgSmRD-xQaD_7fwTuo1XQ==",
      "Lang": "yo",
      "CaptionKey": "translation",
      "CaptionName": "Itumọ",
      "YoutubeSynced": true
    },
    {
      "ID": "aYbtg_yLmqtqKtcLfLSDSFxgNEqCac1QWYMaCFG3GSg-UQQVbcoOWA==",
      "Lang": "zh-Hans",
      "CaptionKey": "translation",
      "CaptionName": "翻译",
      "YoutubeSynced": true
    },
    {
      "ID": "aYbtg_yLmqtqKtcLfLSDSIjJgSSU--vCWRYQaGShWEHkpZDM1KsK9Q==",
      "Lang": "zh-Hant",
      "CaptionKey": "translation",
      "CaptionName": "翻譯",
      "YoutubeSynced": true
    },
    {
      "ID": "Hr7GlqUoNLwXQkcNMy-I5CXZQu0_GBcEHUFq0k9jDQdHis0IVceXjA==",
      "Lang": "zu",
      "CaptionKey": "translation",
      "CaptionName": "Ukuhumusha",
      "YoutubeSynced": true
    }
  ]
}