{
  "VideoFile": "grammar-en-beginner-simple_38_IN.mp4",
  "Captions": [
    {
      "ID": "aMyR8LfnmND6O2kmOtoTBIyVrwUQr6NPsl0cLgYGhRLSfAwKcVkpsA==",
      "Lang": "af",
      "CaptionKey": "translation",
      "CaptionName": "vertaling",
      "YoutubeSynced": true
    },
    {
      "ID": "qKr4ROwttouJ732IQfqXL_lE4BWGJFXbhqKCRvlEGL0VBSSfDsSrnw==",
      "Lang": "am",
      "CaptionKey": "translation",
      "CaptionName": "ትርጉም",
      "YoutubeSynced": true
    },
    {
      "ID": "qs9A8tWzZR7YGdmQF-bIyRqPQ-2_0X7f_tAq0Vc6XiQKlIje9cKSyA==",
      "Lang": "ar",
      "CaptionKey": "translation",
      "CaptionName": "ترجمة",
      "YoutubeSynced": true
    },
    {
      "ID": "qs9A8tWzZR7AEYDlhYR4g--DeNG88DlzIvJ4ufZ6waUebQSCRltvpw==",
      "Lang": "az",
      "CaptionKey": "translation",
      "CaptionName": "Tərcümə",
      "YoutubeSynced": true
    },
    {
      "ID": "DmPg3W7-vg7BLbmbQDF6q5e-zg__9Gh7-nyIbEHfB8_pMGCLS8hMDEHiIcJx9sQH",
      "Lang": "be",
      "CaptionKey": "translation",
      "CaptionName": "Пераклад",
      "YoutubeSynced": true
    },
    {
      "ID": "qKr4ROwttotYTrtQi26vbwh2HoP-LbL5TjAtmifBp_Z7kP-nuhfa2w==",
      "Lang": "bg",
      "CaptionKey": "translation",
      "CaptionName": "превод",
      "YoutubeSynced": true
    },
    {
      "ID": "5dCNSZNvFGB2royjFZ68bCxIGk0yxev_hY7ouI0ZQghL35gGQGubjSgrTMMR4ML-",
      "Lang": "bn",
      "CaptionKey": "translation",
      "CaptionName": "অনুবাদ",
      "YoutubeSynced": true
    },
    {
      "ID": "fCDMf1_gxDWyxjr5kQuVT5mWBkoYMiI3xao2QRms-Eo=",
      "Lang": "bs",
      "CaptionKey": "translation",
      "CaptionName": "Prevod",
      "YoutubeSynced": true
    },
    {
      "ID": "qs9A8tWzZR5H7h-5-LjCWOeWE97Oy5YT5QOndBQTBS9ZnjhN1IEk5w==",
      "Lang": "ca",
      "CaptionKey": "translation",
      "CaptionName": "Traducció",
      "YoutubeSynced": true
    },
    {
      "ID": "qs9A8tWzZR53Hzl6tIu6hiA3JKqO_ssjPlt6z9337wEmKot_Uhph0w==",
      "Lang": "co",
      "CaptionKey": "translation",
      "CaptionName": "Traduzione",
      "YoutubeSynced": true
    },
    {
      "ID": "2l-WiNF8NY43qYQ6CP_NCXvnTxBY1S3ARqV3NFnkR4YEbL0GvO1wTA==",
      "Lang": "cs",
      "CaptionKey": "translation",
      "CaptionName": "Překlad",
      "YoutubeSynced": true
    },
    {
      "ID": "4ud8mLcBWcelfa5Bj3ZMS_uJdGOkQaLJtVIDhxHuYK3aah9AnCPTGw==",
      "Lang": "cy",
      "CaptionKey": "translation",
      "CaptionName": "Cyfieithiad",
      "YoutubeSynced": true
    },
    {
      "ID": "MQLcnZrWMlqZNzstPO9pLxQSzhFuMWYoFFquh3TjyGcrwi3Ge72vOQ==",
      "Lang": "da",
      "CaptionKey": "translation",
      "CaptionName": "Oversættelse",
      "YoutubeSynced": true
    },
    {
      "ID": "qKr4ROwttotWdiHriFJhBREVLq_oI3fnh6gMPC914N9SY8ekFqYHkQ==",
      "Lang": "de",
      "CaptionKey": "translation",
      "CaptionName": "Übersetzung",
      "YoutubeSynced": true
    },
    {
      "ID": "5dCNSZNvFGB3y-_7GK_R2-lzDdgmQerDDmQoNssQDHtu0LEoCYhXwkG1C4W4YJwD",
      "Lang": "el",
      "CaptionKey": "translation",
      "CaptionName": "Μετάφραση",
      "YoutubeSynced": true
    },
    {
      "ID": "4ud8mLcBWcfj2qEKdB-EO9hShCyGsOtNsxPNpX-ah4PHPtwd44qTuA==",
      "Lang": "en",
      "CaptionKey": "translation",
      "CaptionName": "Translation",
      "YoutubeSynced": true
    },
    {
      "ID": "53Dzzai0rmsGQ2TfECpyYrzQEbDKhbCgP91hH_AT1SnZJ-yVWaEILEmOMZBO139b",
      "Lang": "en",
      "CaptionKey": "ruby",
      "CaptionName": "Pronunciation - IPA",
      "YoutubeSynced": true
    },
    {
      "ID": "4ud8mLcBWcc2Tw5MIOaF-IYwIRHTNtPV3Fw7zL-fj0S1UTo4qZGw_A==",
      "Lang": "es",
      "CaptionKey": "translation",
      "CaptionName": "Traducción",
      "YoutubeSynced": true
    },
    {
      "ID": "fCDMf1_gxDWsXgw2HgsrN6bXqm1InFxn0GgJRd0LRFI=",
      "Lang": "et",
      "CaptionKey": "translation",
      "CaptionName": "Tõlge",
      "YoutubeSynced": true
    },
    {
      "ID": "aMyR8LfnmNAb7xbM7lonk_zL5T9kYMmnLPUuxhNzHeK1gLhfhfmnuA==",
      "Lang": "eu",
      "CaptionKey": "translation",
      "CaptionName": "Itzulpena",
      "YoutubeSynced": true
    },
    {
      "ID": "qs9A8tWzZR4zgXFH3RpJWMuY4FbKGj5ivfvQZX8Z32Rxhc2SkVM9Wg==",
      "Lang": "fa",
      "CaptionKey": "translation",
      "CaptionName": "ترجمه",
      "YoutubeSynced": true
    },
    {
      "ID": "qs9A8tWzZR4eaZWDLReEZx2vF59ga30slsLpbc7_9kyv7f_bz55Waw==",
      "Lang": "fi",
      "CaptionKey": "translation",
      "CaptionName": "Käännös",
      "YoutubeSynced": true
    },
    {
      "ID": "4ud8mLcBWceYHkt5FuRN6R7gUZOnnGIAgvgaO7DOUBu18eCB7xcfng==",
      "Lang": "fil",
      "CaptionKey": "translation",
      "CaptionName": "Pagsasalin",
      "YoutubeSynced": true
    },
    {
      "ID": "qs9A8tWzZR6Z9s6zZ9ciig0MzYfXE_S2m6r9SjJnY5k-8KhVgGKBFg==",
      "Lang": "fr",
      "CaptionKey": "translation",
      "CaptionName": "Traduction",
      "YoutubeSynced": true
    },
    {
      "ID": "qs9A8tWzZR71vrCc_YeJ1tv8_Kplh-F0QaRdpHtmRAAkOFFgsebP3Q==",
      "Lang": "fy",
      "CaptionKey": "translation",
      "CaptionName": "Oersetting",
      "YoutubeSynced": true
    },
    {
      "ID": "5dCNSZNvFGBeTIaxlTGmT0kLdZp-4n45boY5dwge8C6HA-g2j-tonfDYmW6_IPAB",
      "Lang": "gd",
      "CaptionKey": "translation",
      "CaptionName": "Eadar-theangachadh",
      "YoutubeSynced": true
    },
    {
      "ID": "qs9A8tWzZR5nIi9w3y7tdvmHYoqBsRlyRN3OMG7aH4RpnZj2r3xmtg==",
      "Lang": "gl",
      "CaptionKey": "translation",
      "CaptionName": "Tradución",
      "YoutubeSynced": true
    },
    {
      "ID": "5dCNSZNvFGCmx1uqEGr8qw4fIqm8P3pHMVLz011zw5n6-a8xMnVqUntHH_3AEMiC",
      "Lang": "gu",
      "CaptionKey": "translation",
      "CaptionName": "અનુવાદ",
      "YoutubeSynced": true
    },
    {
      "ID": "xX5nu-ZvCxDHgc3HcBL3fcFjDlMNUiHDacsE1o5yay1pd3dz-Jb5XA==",
      "Lang": "ha",
      "CaptionKey": "translation",
      "CaptionName": "Fassara",
      "YoutubeSynced": true
    },
    {
      "ID": "5dCNSZNvFGA6cVutRDpvzunoP-sCqh-kaWlQ53QiQSjId81xE4l85N_854L4qGJg",
      "Lang": "hi",
      "CaptionKey": "translation",
      "CaptionName": "अनुवाद",
      "YoutubeSynced": true
    },
    {
      "ID": "2l-WiNF8NY6zsJ9OA6RrfhfM2wokr-N8RC6QiBaOElr4FgjPzdvO-A==",
      "Lang": "hr",
      "CaptionKey": "translation",
      "CaptionName": "Prijevod",
      "YoutubeSynced": true
    },
    {
      "ID": "qs9A8tWzZR6_eX0UXvdRQN3uI0gm9y3vbj1_zj2ySo98rGxi4dlcCg==",
      "Lang": "hu",
      "CaptionKey": "translation",
      "CaptionName": "Fordítás",
      "YoutubeSynced": true
    },
    {
      "ID": "MVmXhf_hYifTzzuyJaMeHh9Q81T7enHBAaDHdBAQYzMElrUhCKTpbaJR_SLDLRpGqzhCtq2GPZ4=",
      "Lang": "hy",
      "CaptionKey": "translation",
      "CaptionName": "Թարգմանություն",
      "YoutubeSynced": true
    },
    {
      "ID": "qs9A8tWzZR4mDqi5pgf-X983GT1V8qRf84ciX67TPNqIQpz-c1VXkg==",
      "Lang": "id",
      "CaptionKey": "translation",
      "CaptionName": "Terjemahan",
      "YoutubeSynced": true
    },
    {
      "ID": "2l-WiNF8NY4we0fs4z30JQy5u08AEReFgh6zLSvD43di51X9gu9Fzw==",
      "Lang": "ig",
      "CaptionKey": "translation",
      "CaptionName": "Ntughari",
      "YoutubeSynced": true
    },
    {
      "ID": "aMyR8LfnmNCpNlbPIgcy2wOP1WIs2hFX91W-PKwJzrKdsaP0HwGPmg==",
      "Lang": "is",
      "CaptionKey": "translation",
      "CaptionName": "Þýðing",
      "YoutubeSynced": true
    },
    {
      "ID": "qs9A8tWzZR7BXPJN9ZOy897wvuD9AdkHOiK1-UGQpqZtq1G55jGuQQ==",
      "Lang": "it",
      "CaptionKey": "translation",
      "CaptionName": "Traduzione",
      "YoutubeSynced": true
    },
    {
      "ID": "qs9A8tWzZR5jKCtqq_vJxrEzi44EvjNi8G2GWWeIaeMs-qQGUlE0dw==",
      "Lang": "iw",
      "CaptionKey": "translation",
      "CaptionName": "תרגום",
      "YoutubeSynced": true
    },
    {
      "ID": "fCDMf1_gxDXM5p3V9aIzHwNLB4iwqazejP5FVJWUGnc=",
      "Lang": "ja",
      "CaptionKey": "translation",
      "CaptionName": "翻訳",
      "YoutubeSynced": true
    },
    {
      "ID": "aMyR8LfnmNAi1KneHNii4wWkcZUUir2zKD0Ag4WWpbq8omRDSpPoHg==",
      "Lang": "jv",
      "CaptionKey": "translation",
      "CaptionName": "Ngartekne",
      "YoutubeSynced": true
    },
    {
      "ID": "w4x-uWEDdZajEaQLXjH5TAEnpmjXPDdcgF2yiAvxk47KFwgojEB0BKBUx5BVoMyfJ5euWgdfGQM=",
      "Lang": "ka",
      "CaptionKey": "translation",
      "CaptionName": "თარგმანი",
      "YoutubeSynced": true
    },
    {
      "ID": "BbTWmRpuyPYikx3ZWMlLlqdmE04TvC9NZXgNX9CAvp3xALE9VTZVOw==",
      "Lang": "kk",
      "CaptionKey": "translation",
      "CaptionName": "Аударма",
      "YoutubeSynced": true
    },
    {
      "ID": "hW8RIwOWsrvpTdXFV-GdyJ63S6YkrGcj_uK6qngMM99B0uV2blT-9nbRTIFvPkJkz2vAbmZNBtY=",
      "Lang": "km",
      "CaptionKey": "translation",
      "CaptionName": "ការបកប្រែ",
      "YoutubeSynced": true
    },
    {
      "ID": "5dCNSZNvFGB3js_YY-IVdFPyV6REvpHx324A4sEaECHAjku65y1U5XVNK30G_b8S",
      "Lang": "kn",
      "CaptionKey": "translation",
      "CaptionName": "ಅನುವಾದ",
      "YoutubeSynced": true
    },
    {
      "ID": "fCDMf1_gxDVhSmWoy7ugiftd2Vcu1FyhziYR7yyqlBc=",
      "Lang": "ko",
      "CaptionKey": "translation",
      "CaptionName": "번역",
      "YoutubeSynced": true
    },
    {
      "ID": "fCDMf1_gxDXjuyYOaIr80_CcRPgZdlQYZ9B7eUtDmwM=",
      "Lang": "ku",
      "CaptionKey": "translation",
      "CaptionName": "Werger",
      "YoutubeSynced": true
    },
    {
      "ID": "BbTWmRpuyPaSqPoejeyf4JKNnBPbH5dQvz5KFHngKSXO3N79-RHrnw==",
      "Lang": "ky",
      "CaptionKey": "translation",
      "CaptionName": "котормо",
      "YoutubeSynced": true
    },
    {
      "ID": "qKr4ROwttosB4HsfMTPuBlFbzJI9UbeQbtsgzM9X0OajrTmHs2HEbA==",
      "Lang": "lb",
      "CaptionKey": "translation",
      "CaptionName": "Iwwersetzung",
      "YoutubeSynced": true
    },
    {
      "ID": "hW8RIwOWsrs-OsHYMYi7oGv1umVIXXt27_PlN4G1tUfRZDkRvV_ro1fsKwh6DlyCVbxmQPCZI_E=",
      "Lang": "lo",
      "CaptionKey": "translation",
      "CaptionName": "ການແປພາສາ",
      "YoutubeSynced": true
    },
    {
      "ID": "2l-WiNF8NY4pYFXdVLLyGb6BrVqYmx3nSAt0MFCg1zNKYNCE0fAvVw==",
      "Lang": "lt",
      "CaptionKey": "translation",
      "CaptionName": "Vertimas",
      "YoutubeSynced": true
    },
    {
      "ID": "qs9A8tWzZR4sTKU2btGpU0dlFPeYjKTGrXbtE3tQZgNHx25vXMGPXg==",
      "Lang": "lv",
      "CaptionKey": "translation",
      "CaptionName": "Tulkošana",
      "YoutubeSynced": true
    },
    {
      "ID": "4ud8mLcBWcdChtpgJ2iXyfpw7gel4eEiSGc3csFoBHDPCVozRpMHIg==",
      "Lang": "mg",
      "CaptionKey": "translation",
      "CaptionName": "Translation",
      "YoutubeSynced": true
    },
    {
      "ID": "H0n1KGr3lIOyA4aQqt_LBEVn8bSlH7amNOypHOBOBTUjT0mACuUGAlWlwY9_l6vC",
      "Lang": "mi",
      "CaptionKey": "translation",
      "CaptionName": "Whakamaoritanga",
      "YoutubeSynced": true
    },
    {
      "ID": "qKr4ROwttoteh-qVQA1B421YwtGhBZLKTORC2CgvEDWmj-5kYqqmqg==",
      "Lang": "mk",
      "CaptionKey": "translation",
      "CaptionName": "Превод",
      "YoutubeSynced": true
    },
    {
      "ID": "hW8RIwOWsrtVG4UybKTvTPRO90doe_zjh8xYxJqZD1F1uPvcDKeesfB92iAzt44o4FxZ74gkSlM=",
      "Lang": "ml",
      "CaptionKey": "translation",
      "CaptionName": "വിവർത്തനം",
      "YoutubeSynced": true
    },
    {
      "ID": "DmPg3W7-vg6vn6v60urK52c2LmGVLoLLmR_vMNQ5eQQK6FD9D6xbV_OHgLzceEz4",
      "Lang": "mn",
      "CaptionKey": "translation",
      "CaptionName": "Орчуулга",
      "YoutubeSynced": true
    },
    {
      "ID": "o0zGlNANt4eyfHtWPl3g2YymE4qwya77OXGtE6BuzJ9D3FOy3Zo4tp5A6aKpCBKs",
      "Lang": "mr",
      "CaptionKey": "translation",
      "CaptionName": "भाषांतर",
      "YoutubeSynced": true
    },
    {
      "ID": "qs9A8tWzZR5ws6AyX9HjmwfYyv31kHajYVJBmmGlchrBe8wn2z6wKg==",
      "Lang": "ms",
      "CaptionKey": "translation",
      "CaptionName": "Terjemahan",
      "YoutubeSynced": true
    },
    {
      "ID": "4ud8mLcBWcfevddxRTZPsPL1YBJvuwpmMLvK3Tuv8U50EwYcUau6NA==",
      "Lang": "mt",
      "CaptionKey": "translation",
      "CaptionName": "Traduzzjoni",
      "YoutubeSynced": true
    },
    {
      "ID": "w4x-uWEDdZa_uTbY_7vIj3Ip4gviZ83TYro1Cvp2sMJ7JJNjKG67R87fKjD9S2DBF7vMrvXBd24=",
      "Lang": "my",
      "CaptionKey": "translation",
      "CaptionName": "ဘာသာပြန်",
      "YoutubeSynced": true
    },
    {
      "ID": "5dCNSZNvFGAMRDuHkBv7811dIfHOGISsmYOkH0_vtkNZApjDNk_MU7VB_g2SOmps",
      "Lang": "ne",
      "CaptionKey": "translation",
      "CaptionName": "अनुवाद",
      "YoutubeSynced": true
    },
    {
      "ID": "aMyR8LfnmNBVnta0j_gTCyquhhsMbRRxlq3dkcn5gFBXQVyAgGkx2Q==",
      "Lang": "nl",
      "CaptionKey": "translation",
      "CaptionName": "Vertaling",
      "YoutubeSynced": true
    },
    {
      "ID": "qKr4ROwttotiIiGWs34ZXX0620Tf1iHbhT7IRa-YGnYfm22fhrl3tA==",
      "Lang": "no",
      "CaptionKey": "translation",
      "CaptionName": "Oversettelse",
      "YoutubeSynced": true
    },
    {
      "ID": "5dCNSZNvFGC46X6ctgPTxK-H7R_QYD-SMMQmREtovz8-GMSc45af86SDseZ3s8Tb",
      "Lang": "pa",
      "CaptionKey": "translation",
      "CaptionName": "ਅਨੁਵਾਦ",
      "YoutubeSynced": true
    },
    {
      "ID": "qKr4ROwttoux7sAeVpfTykGBmrnSNlf8zf9yszirpBGkwaUTReeCrg==",
      "Lang": "pl",
      "CaptionKey": "translation",
      "CaptionName": "Tłumaczenie",
      "YoutubeSynced": true
    },
    {
      "ID": "qs9A8tWzZR5B-ovJKtXZGrcgGVYTC0J6VuC89IEAZPCwFU8E-m2NqQ==",
      "Lang": "ps",
      "CaptionKey": "translation",
      "CaptionName": "ژباړه",
      "YoutubeSynced": true
    },
    {
      "ID": "qs9A8tWzZR4Au-Nx5Fbttd5spo7jPxRBuXMWGyvLnMyfDuNtUsD60w==",
      "Lang": "pt",
      "CaptionKey": "translation",
      "CaptionName": "Tradução",
      "YoutubeSynced": true
    },
    {
      "ID": "aMyR8LfnmNAkNhxBXuV8XMJonrOeghEuR6ikXv9251vWLQTZxG58Zw==",
      "Lang": "ro",
      "CaptionKey": "translation",
      "CaptionName": "Traducere",
      "YoutubeSynced": true
    },
    {
      "ID": "BbTWmRpuyPZUkb-84I2KM28vAhEG8Mg0SshRBT17aBpoOCTR7X7cHQ==",
      "Lang": "ru",
      "CaptionKey": "translation",
      "CaptionName": "Перевод",
      "YoutubeSynced": true
    },
    {
      "ID": "qs9A8tWzZR4gBvKbvra9h-LcPGtZ4jryX6tKrXX_tRHlt_Uwzy5kMQ==",
      "Lang": "sd",
      "CaptionKey": "translation",
      "CaptionName": "ترجمو",
      "YoutubeSynced": true
    },
    {
      "ID": "hW8RIwOWsrtyF27VKSKv91QOwQs96QajUJWKYKf2murdh99uyK4Vrxe9t6vaOXE3eb8l6fMaFBw=",
      "Lang": "si",
      "CaptionKey": "translation",
      "CaptionName": "පරිවර්තනය",
      "YoutubeSynced": true
    },
    {
      "ID": "xX5nu-ZvCxAF8VilPH1HMSPmyXBh6O5oCaAwDV04L06YCHY6jYD7cw==",
      "Lang": "sk",
      "CaptionKey": "translation",
      "CaptionName": "preklad",
      "YoutubeSynced": true
    },
    {
      "ID": "fCDMf1_gxDXS1shOlgK1hBMIYbo2IECsJHOaa44EChc=",
      "Lang": "sl",
      "CaptionKey": "translation",
      "CaptionName": "Prevod",
      "YoutubeSynced": true
    },
    {
      "ID": "qKr4ROwttouNDRQ3v-GUvynBgi6lnRP2irNnbc6Z1nqN6SYwJ4CRWQ==",
      "Lang": "sm",
      "CaptionKey": "translation",
      "CaptionName": "Faʻaliliuga",
      "YoutubeSynced": true
    },
    {
      "ID": "xX5nu-ZvCxBFlmtamhDO7PRENw_YacLvxwt2pCrbE0ZBROk7VMotRw==",
      "Lang": "sn",
      "CaptionKey": "translation",
      "CaptionName": "Dudziro",
      "YoutubeSynced": true
    },
    {
      "ID": "aMyR8LfnmNC6wpGuEZEopWWmy3iD4cQKNX4v0EY3bL9m7EaEOx_f6Q==",
      "Lang": "so",
      "CaptionKey": "translation",
      "CaptionName": "Tarjumida",
      "YoutubeSynced": true
    },
    {
      "ID": "aMyR8LfnmNAdL7ETnP4_-wxEJ8_Sv9o3WBB0SkrjkMc2NbSzlpUYPw==",
      "Lang": "sq",
      "CaptionKey": "translation",
      "CaptionName": "përkthim",
      "YoutubeSynced": true
    },
    {
      "ID": "qKr4ROwttouQ4DX7sdACx_j-zwRJK3H_YCgMqxYkbc8FWPqRfYtq0g==",
      "Lang": "sr",
      "CaptionKey": "translation",
      "CaptionName": "Превод",
      "YoutubeSynced": true
    },
    {
      "ID": "aMyR8LfnmNCJtD0UkKCGPYnI0MElBEnhV32pNtbrzvvag5MeifiPTA==",
      "Lang": "st",
      "CaptionKey": "translation",
      "CaptionName": "Phetolelo",
      "YoutubeSynced": true
    },
    {
      "ID": "qs9A8tWzZR7wBE-sJDEhJ5UPnx2TwLAqm3IF5lEw4MmtTf3j2WXNgw==",
      "Lang": "su",
      "CaptionKey": "translation",
      "CaptionName": "Tarjamahan",
      "YoutubeSynced": true
    },
    {
      "ID": "BbTWmRpuyPaznTIyF9HdNlcWem3zpJXvtOujG5dsxCjZukNKCxwYJA==",
      "Lang": "sv",
      "CaptionKey": "translation",
      "CaptionName": "Översättning",
      "YoutubeSynced": true
    },
    {
      "ID": "xX5nu-ZvCxDpQepngeEvZd90IJk_kzovww554KLTs_GSJeTZfDR5BA==",
      "Lang": "sw",
      "CaptionKey": "translation",
      "CaptionName": "Tafsiri",
      "YoutubeSynced": true
    },
    {
      "ID": "v3-2lAghJalU5Kb0h2yBIR1QP4jERWZ_So-nUK-6-U65m-ja2CM3XRt_Uqmt4-jb-YvqzA622YQ9oaT75lgoSR31a3Y8W53U",
      "Lang": "ta",
      "CaptionKey": "translation",
      "CaptionName": "மொழிபெயர்ப்பு",
      "YoutubeSynced": true
    },
    {
      "ID": "o0zGlNANt4e7FlenBPRENxIzrECEvaJUhEabp8pAgZv1EmsdzEU1DWU4uMQHmv48",
      "Lang": "te",
      "CaptionKey": "translation",
      "CaptionName": "అనువాదం",
      "YoutubeSynced": true
    },
    {
      "ID": "BbTWmRpuyPYA3iyVbU6xx2IoD8UgeQrGbGX3YwTZauub7DAL4DRQkg==",
      "Lang": "tg",
      "CaptionKey": "translation",
      "CaptionName": "Тарҷума",
      "YoutubeSynced": true
    },
    {
      "ID": "5dCNSZNvFGCMjbn3sz2Um5-UOGJL47vwBtM6Oo1QN7M0y03biq3ywcyzjO5MGDk4",
      "Lang": "th",
      "CaptionKey": "translation",
      "CaptionName": "การแปล",
      "YoutubeSynced": true
    },
    {
      "ID": "2l-WiNF8NY7G8WCrhhOCZKvFvIz6Eujuy0-YZO6vxM7i8zABXUEmJg==",
      "Lang": "tr",
      "CaptionKey": "translation",
      "CaptionName": "Tercüme",
      "YoutubeSynced": true
    },
    {
      "ID": "DmPg3W7-vg4MMg8x1evTAMrM_v8KUEAPAPM02XIqfTYVz9Iv1c7JxIME9QiEOd2J",
      "Lang": "uk",
      "CaptionKey": "translation",
      "CaptionName": "Переклад",
      "YoutubeSynced": true
    },
    {
      "ID": "qs9A8tWzZR7e2KAt2B3x8VveT6V_WOea6Kq3ZO_uXjh-ufQlp1a17w==",
      "Lang": "ur",
      "CaptionKey": "translation",
      "CaptionName": "ترجمہ",
      "YoutubeSynced": true
    },
    {
      "ID": "xX5nu-ZvCxDZjczYQk9BKmB_yg4ogbdksOJ69qQYswtSFTDgB23l_w==",
      "Lang": "uz",
      "CaptionKey": "translation",
      "CaptionName": "Tarjima",
      "YoutubeSynced": true
    },
    {
      "ID": "fCDMf1_gxDXc2QGVjbhizVX3xECwROqynKk9mW51hqQ=",
      "Lang": "vi",
      "CaptionKey": "translation",
      "CaptionName": "Dịch",
      "YoutubeSynced": true
    },
    {
      "ID": "qs9A8tWzZR7vLyqhdaFljd-9EVxJfcCbcC3XayItp6I2Flo0Q3RW3Q==",
      "Lang": "xh",
      "CaptionKey": "translation",
      "CaptionName": "Inguqulelo",
      "YoutubeSynced": true
    },
    {
      "ID": "guShrSzdF4EjwBhwvAwPcD5L-2GfFpaFnhrBf9c8H_GAb88hA8S9vKGahZv9cGq4",
      "Lang": "yi",
      "CaptionKey": "translation",
      "CaptionName": "איבערזעצונג",
      "YoutubeSynced": true
    },
    {
      "ID": "xX5nu-ZvCxDv1UkdYfmZuYlbY_AI7TurkUKPnGmP-ImYzRS1OFOmGA==",
      "Lang": "yo",
      "CaptionKey": "translation",
      "CaptionName": "Itumọ",
      "YoutubeSynced": true
    },
    {
      "ID": "4ud8mLcBWccghPNAO_hFglALFxGx_v-EkGVpU1a12scSQRSCwC17Vw==",
      "Lang": "zh-Hans",
      "CaptionKey": "translation",
      "CaptionName": "翻译",
      "YoutubeSynced": true
    },
    {
      "ID": "4ud8mLcBWccghPNAO_hFgklLKFL9U7Amz9yvZ85_s_6Q5J9VPFvN1A==",
      "Lang": "zh-Hant",
      "CaptionKey": "translation",
      "CaptionName": "翻譯",
      "YoutubeSynced": true
    },
    {
      "ID": "qs9A8tWzZR7jwfosyFo-5-r0ZjBCf_WAbHqt29wEDjpzRuHiepuFNA==",
      "Lang": "zu",
      "CaptionKey": "translation",
      "CaptionName": "Ukuhumusha",
      "YoutubeSynced": true
    }
  ]
}