{
  "VideoFile": "grammar-en-beginner-simple_43_AU.mp4",
  "Captions": [
    {
      "ID": "A0JryrjksHxNU_9bJSdkxhhvME13pROab0k7kLgEBwRgrDt_Tf-Ckw==",
      "Lang": "af",
      "CaptionKey": "translation",
      "CaptionName": "vertaling",
      "YoutubeSynced": true
    },
    {
      "ID": "-do5_g8zbdxWGySx9hvNmy4O3KekUAQLqQ0VMkC92r8jKvt6n1VyjQ==",
      "Lang": "am",
      "CaptionKey": "translation",
      "CaptionName": "ትርጉም",
      "YoutubeSynced": true
    },
    {
      "ID": "xo43p2uPTEn9u-rHZrrxexZwbzgaTX0_vkADjPpVNpqJyxKfG-GrXw==",
      "Lang": "ar",
      "CaptionKey": "translation",
      "CaptionName": "ترجمة",
      "YoutubeSynced": true
    },
    {
      "ID": "xo43p2uPTEmhdZYTjTGMyuX-nRfdqlbp49QvBOt8O3cj58bfgadv9Q==",
      "Lang": "az",
      "CaptionKey": "translation",
      "CaptionName": "Tərcümə",
      "YoutubeSynced": true
    },
    {
      "ID": "_8akFJNCxlO7fKzdvavvmHaPc5HmyO1wwTjAxap84yeAVnE7rcvoEbNbP-R29Nsi",
      "Lang": "be",
      "CaptionKey": "translation",
      "CaptionName": "Пераклад",
      "YoutubeSynced": true
    },
    {
      "ID": "-do5_g8zbdyA6R0BdGuqHcKZyZ7xU1GDBGIzD6fX3RegOMvIq71Sjw==",
      "Lang": "bg",
      "CaptionKey": "translation",
      "CaptionName": "превод",
      "YoutubeSynced": true
    },
    {
      "ID": "ZkcR8qBgmLDxaNdRMUqWybg915wWJNmIjBkG4K2K7bE0Q70hvsafWP44CtpmyC0X",
      "Lang": "bn",
      "CaptionKey": "translation",
      "CaptionName": "অনুবাদ",
      "YoutubeSynced": true
    },
    {
      "ID": "JvcWETFt2LrhVCSKuEpueYTUe35tvsI7ecKtGusmH0o=",
      "Lang": "bs",
      "CaptionKey": "translation",
      "CaptionName": "Prevod",
      "YoutubeSynced": true
    },
    {
      "ID": "xo43p2uPTEkBeiGJ-7dg4Eql0HSY7H4_sfocbcVvKVSk7y3Tfdrb0Q==",
      "Lang": "ca",
      "CaptionKey": "translation",
      "CaptionName": "Traducció",
      "YoutubeSynced": true
    },
    {
      "ID": "xo43p2uPTElUKiD3PTFpBVper9Xmy4y_HBo78dJzApNkzfDU_LJSHA==",
      "Lang": "co",
      "CaptionKey": "translation",
      "CaptionName": "Traduzione",
      "YoutubeSynced": true
    },
    {
      "ID": "tkdEmwsofsAU86FvVKe7tpr1CsTF3DG3VvVd4GeK9m6x8HJBUZUJ-A==",
      "Lang": "cs",
      "CaptionKey": "translation",
      "CaptionName": "Překlad",
      "YoutubeSynced": true
    },
    {
      "ID": "6XhXRQQ0ga_eiE5Ol974iXg0OvLQVZMJ9a28nlneOjEqtoBkIs01og==",
      "Lang": "cy",
      "CaptionKey": "translation",
      "CaptionName": "Cyfieithiad",
      "YoutubeSynced": true
    },
    {
      "ID": "kujCA76DdozCTtkQgpx95ihzcfGT-MXBlJHAAOafIezgufC2yG7BSQ==",
      "Lang": "da",
      "CaptionKey": "translation",
      "CaptionName": "Oversættelse",
      "YoutubeSynced": true
    },
    {
      "ID": "-do5_g8zbdzlvlV1XwuKHomNGrQjSyHLOB5Z9fomqrCPls_1n7b8Bw==",
      "Lang": "de",
      "CaptionKey": "translation",
      "CaptionName": "Übersetzung",
      "YoutubeSynced": true
    },
    {
      "ID": "ZkcR8qBgmLBOYAqwotw9Lu6i-KbaMew5KwuVEni8jZX4jSaT8ySCGmEsvC2JIknF",
      "Lang": "el",
      "CaptionKey": "translation",
      "CaptionName": "Μετάφραση",
      "YoutubeSynced": true
    },
    {
      "ID": "6XhXRQQ0ga9_VSI9h9UBEZMc-aTFxqdOb1h-Ag6xYM2PGOGEaZ-pSw==",
      "Lang": "en",
      "CaptionKey": "translation",
      "CaptionName": "Translation",
      "YoutubeSynced": true
    },
    {
      "ID": "2d1dCoLGXmev5kMHYH8WE95T_tFnAq3kGVbIlPqbgY063f-z8Xl_D6JmpcqkoTqB",
      "Lang": "en",
      "CaptionKey": "ruby",
      "CaptionName": "Pronunciation - IPA",
      "YoutubeSynced": true
    },
    {
      "ID": "6XhXRQQ0ga-G9VK5PMAbk4w5b33iNlsbvdhqRFT-WvxafMH7yCWvNw==",
      "Lang": "es",
      "CaptionKey": "translation",
      "CaptionName": "Traducción",
      "YoutubeSynced": true
    },
    {
      "ID": "JvcWETFt2LqUeRyv83JUvClRliLO5m19Jj9T8ocPlxQ=",
      "Lang": "et",
      "CaptionKey": "translation",
      "CaptionName": "Tõlge",
      "YoutubeSynced": true
    },
    {
      "ID": "A0JryrjksHyl7RCD_7qI--3R-5685KxsybjnkrHiFUK6W_wR7b_mkQ==",
      "Lang": "eu",
      "CaptionKey": "translation",
      "CaptionName": "Itzulpena",
      "YoutubeSynced": true
    },
    {
      "ID": "xo43p2uPTEmVXpvqFr_elhrWR-09zVEustgFjox4rJO6SdcHDSGEiw==",
      "Lang": "fa",
      "CaptionKey": "translation",
      "CaptionName": "ترجمه",
      "YoutubeSynced": true
    },
    {
      "ID": "xo43p2uPTEmmwLjub4ZbtbJq8sHYarEi86zHt8X6NrPC69SkekrLxw==",
      "Lang": "fi",
      "CaptionKey": "translation",
      "CaptionName": "Käännös",
      "YoutubeSynced": true
    },
    {
      "ID": "6XhXRQQ0ga9vTwXcK6rhdXcLOmGCVqNmcWWfHxX3RUT8TfZICPAFAw==",
      "Lang": "fil",
      "CaptionKey": "translation",
      "CaptionName": "Pagsasalin",
      "YoutubeSynced": true
    },
    {
      "ID": "xo43p2uPTEnygqjc80VJOHzsUuQVUfMOH977zF1ARFjXABPmFN8PJw==",
      "Lang": "fr",
      "CaptionKey": "translation",
      "CaptionName": "Traduction",
      "YoutubeSynced": true
    },
    {
      "ID": "xo43p2uPTEme5YwF61_tJadHk8r5El5cOl-zQ3VVkL6qJ0wVK5dmug==",
      "Lang": "fy",
      "CaptionKey": "translation",
      "CaptionName": "Oersetting",
      "YoutubeSynced": true
    },
    {
      "ID": "ZkcR8qBgmLALgYu6xP2VXEuHXUjLOqGOnClwUwAeUKzxKdlm_RHl-p8_eOn6EcQK",
      "Lang": "gd",
      "CaptionKey": "translation",
      "CaptionName": "Eadar-theangachadh",
      "YoutubeSynced": true
    },
    {
      "ID": "xo43p2uPTEm1Pi_uReEeGbJFdbnRAPu1pa7VlyL_id2zqZUAhtyB3w==",
      "Lang": "gl",
      "CaptionKey": "translation",
      "CaptionName": "Tradución",
      "YoutubeSynced": true
    },
    {
      "ID": "ZkcR8qBgmLBd8aBIn2rhR-vgzz6juhHWUO9d-R0oKNGEGjlWy21t-1E_-oPEcggd",
      "Lang": "gu",
      "CaptionKey": "translation",
      "CaptionName": "અનુવાદ",
      "YoutubeSynced": true
    },
    {
      "ID": "Ww7UgbSaEmqMUTaQsU7hmTyBdtdcsSbhT4G5OTl2wz3flOd0GalN2g==",
      "Lang": "ha",
      "CaptionKey": "translation",
      "CaptionName": "Fassara",
      "YoutubeSynced": true
    },
    {
      "ID": "ZkcR8qBgmLB6qFzYfOS9n-hNsZjzkpjKehunw6UxfeUgNnoArAeBu72Gg-HCNvpY",
      "Lang": "hi",
      "CaptionKey": "translation",
      "CaptionName": "अनुवाद",
      "YoutubeSynced": true
    },
    {
      "ID": "tkdEmwsofsAasoE5UD4LUnVxii7JWQg5iOIhCnyQHXwa-XDilYLBzw==",
      "Lang": "hr",
      "CaptionKey": "translation",
      "CaptionName": "Prijevod",
      "YoutubeSynced": true
    },
    {
      "ID": "xo43p2uPTElVNr66EPxI52o8KFaKYL5uxUp5Iq4ATbWwZYjQ9BKjzg==",
      "Lang": "hu",
      "CaptionKey": "translation",
      "CaptionName": "Fordítás",
      "YoutubeSynced": true
    },
    {
      "ID": "3pxirqWbOLG7UwOdnJguSKsKWucYnwoUotT0dWO-eKckXug-Z_5s7IzNRa4__hJGG-ZIBCSVOTA=",
      "Lang": "hy",
      "CaptionKey": "translation",
      "CaptionName": "Թարգմանություն",
      "YoutubeSynced": true
    },
    {
      "ID": "xo43p2uPTEk2mFIA9yA_xJsLcS9IDAqF0vfnSgvnctYum25VNc4ELQ==",
      "Lang": "id",
      "CaptionKey": "translation",
      "CaptionName": "Terjemahan",
      "YoutubeSynced": true
    },
    {
      "ID": "tkdEmwsofsA6gb93lhJaq9eiZsFpBNwFQ6vMkFuPWc5cst0LDZjC2Q==",
      "Lang": "ig",
      "CaptionKey": "translation",
      "CaptionName": "Ntughari",
      "YoutubeSynced": true
    },
    {
      "ID": "A0JryrjksHzxNdISKN8UvXWQSoWfTl3ghGW1um63GrgfEBlHXMlYLw==",
      "Lang": "is",
      "CaptionKey": "translation",
      "CaptionName": "Þýðing",
      "YoutubeSynced": true
    },
    {
      "ID": "xo43p2uPTEnSO04KyaWA77UtJB3fYCvjoulaaU2_cxw2sZzkmI_WAQ==",
      "Lang": "it",
      "CaptionKey": "translation",
      "CaptionName": "Traduzione",
      "YoutubeSynced": true
    },
    {
      "ID": "xo43p2uPTEnUReMh8w2KcXk0-_rQpq0HarzOiBYRqb19s7pwRdYSGA==",
      "Lang": "iw",
      "CaptionKey": "translation",
      "CaptionName": "תרגום",
      "YoutubeSynced": true
    },
    {
      "ID": "JvcWETFt2LpZ8dacD-DC9ZJI7RU3zYN9CFx4FaiQ1nI=",
      "Lang": "ja",
      "CaptionKey": "translation",
      "CaptionName": "翻訳",
      "YoutubeSynced": true
    },
    {
      "ID": "A0JryrjksHwQdRFPg_5y2INVHGs0B0MOTaeiTeDijtQF7coSgW_tBQ==",
      "Lang": "jv",
      "CaptionKey": "translation",
      "CaptionName": "Ngartekne",
      "YoutubeSynced": true
    },
    {
      "ID": "N7WYWtpZDhnLlfpS5pIk8E1fAJJ0xWvmN91u4kPBpXb1K9xeJjmgQtg30b0F84tDPYrR7neg54c=",
      "Lang": "ka",
      "CaptionKey": "translation",
      "CaptionName": "თარგმანი",
      "YoutubeSynced": true
    },
    {
      "ID": "iBkdFuQYu4L1BWWMhync7RAG2GfE14N7jvYnk4O_EXQ241jw2DNvVA==",
      "Lang": "kk",
      "CaptionKey": "translation",
      "CaptionName": "Аударма",
      "YoutubeSynced": true
    },
    {
      "ID": "f4MVHo4acvcdTkpdEG9m4vdk89OHgZOXP7wEL4pSz8lnMB8UGSYaBfxBNtVHljJ6gAa-DpTtSEw=",
      "Lang": "km",
      "CaptionKey": "translation",
      "CaptionName": "ការបកប្រែ",
      "YoutubeSynced": true
    },
    {
      "ID": "ZkcR8qBgmLBrGIUgPLoIf1SvNoNw-INInW7apiK0bPrJ4JvN3I2KL2qFg2xz6F8V",
      "Lang": "kn",
      "CaptionKey": "translation",
      "CaptionName": "ಅನುವಾದ",
      "YoutubeSynced": true
    },
    {
      "ID": "JvcWETFt2LrOnjh30UpnRAygN2uAlDbB8BgPI4XQQpY=",
      "Lang": "ko",
      "CaptionKey": "translation",
      "CaptionName": "번역",
      "YoutubeSynced": true
    },
    {
      "ID": "JvcWETFt2LoIcP01efOID6NWMA0GeYFo2Y1Vnjt21aA=",
      "Lang": "ku",
      "CaptionKey": "translation",
      "CaptionName": "Werger",
      "YoutubeSynced": true
    },
    {
      "ID": "iBkdFuQYu4LID_KDQe0bXFFyCtLbViMhRwpuTSFLOjpyOKSVc-tBxA==",
      "Lang": "ky",
      "CaptionKey": "translation",
      "CaptionName": "котормо",
      "YoutubeSynced": true
    },
    {
      "ID": "-do5_g8zbdyKI3CYKTQFALfSoBN9e0_ketVsSmRlPsrzOEZy0lxGFg==",
      "Lang": "lb",
      "CaptionKey": "translation",
      "CaptionName": "Iwwersetzung",
      "YoutubeSynced": true
    },
    {
      "ID": "f4MVHo4acvdA4IeTUphZAUbR-zet693P-3UR3O_uIxWkw0NryimzVRYWVF6IzBy2DcJ2AIwh8KQ=",
      "Lang": "lo",
      "CaptionKey": "translation",
      "CaptionName": "ການແປພາສາ",
      "YoutubeSynced": true
    },
    {
      "ID": "tkdEmwsofsDNMXxMPw_1rV0EH3ywB5XwK0ZLxrZBLLbIa5hklVlcFw==",
      "Lang": "lt",
      "CaptionKey": "translation",
      "CaptionName": "Vertimas",
      "YoutubeSynced": true
    },
    {
      "ID": "xo43p2uPTElhedKUg4TiXsLOfRWWzK0XsAOTjdF4b6pUWOEXhI_K4g==",
      "Lang": "lv",
      "CaptionKey": "translation",
      "CaptionName": "Tulkošana",
      "YoutubeSynced": true
    },
    {
      "ID": "6XhXRQQ0ga-kBA40_nw5Zd9CVWu0lBZAyi1fO8k6rvuBz5-2YOQ-Ig==",
      "Lang": "mg",
      "CaptionKey": "translation",
      "CaptionName": "Translation",
      "YoutubeSynced": true
    },
    {
      "ID": "_-yTaGEEBdML3Bkroyp0o2hAOJo8T4FkwvcuFsTRSplMlObH9a_uq2pLJGttZey5",
      "Lang": "mi",
      "CaptionKey": "translation",
      "CaptionName": "Whakamaoritanga",
      "YoutubeSynced": true
    },
    {
      "ID": "-do5_g8zbdzgwhjENaf83MSDNTijszHZUydJFumOupbfVOsph6VAUQ==",
      "Lang": "mk",
      "CaptionKey": "translation",
      "CaptionName": "Превод",
      "YoutubeSynced": true
    },
    {
      "ID": "f4MVHo4acvczYD5NRhm7BPphdPYMaGQunNEOE5b1KVevyXCB5RDJcZ4GHYy3Su7igRaJpkjOsRM=",
      "Lang": "ml",
      "CaptionKey": "translation",
      "CaptionName": "വിവർത്തനം",
      "YoutubeSynced": true
    },
    {
      "ID": "_8akFJNCxlO5UX8FSOKpU-55ebe3tEoJydlaYrjdT9DKrQKwYWYxYvk3Nxai-ejn",
      "Lang": "mn",
      "CaptionKey": "translation",
      "CaptionName": "Орчуулга",
      "YoutubeSynced": true
    },
    {
      "ID": "K6Ok0B7qCpxbbw5CQo-R0YphmUhvxgzs0jReWU6tL8QBu5HlpOg69x95UNI1ZvsF",
      "Lang": "mr",
      "CaptionKey": "translation",
      "CaptionName": "भाषांतर",
      "YoutubeSynced": true
    },
    {
      "ID": "xo43p2uPTEm_9laWFQsZdAcWHpphMd4sxNeDbgdGwlRypLjEH5KNUA==",
      "Lang": "ms",
      "CaptionKey": "translation",
      "CaptionName": "Terjemahan",
      "YoutubeSynced": true
    },
    {
      "ID": "6XhXRQQ0ga_NWqyVfo25KfIWS8wXGaiUiJRsD9PPS63btQj1O7VveQ==",
      "Lang": "mt",
      "CaptionKey": "translation",
      "CaptionName": "Traduzzjoni",
      "YoutubeSynced": true
    },
    {
      "ID": "N7WYWtpZDhlh-YSmAu-Lp_Jk009aAEWHA0B59Po2Yb0Go1h22XpvXj7VVEzXbZULnztQkAdEnqY=",
      "Lang": "my",
      "CaptionKey": "translation",
      "CaptionName": "ဘာသာပြန်",
      "YoutubeSynced": true
    },
    {
      "ID": "ZkcR8qBgmLA6Xn5Xd56RZbL2qNUo1_9hASQm1CXfwNiG19yZztaKdRbmoVqZLolL",
      "Lang": "ne",
      "CaptionKey": "translation",
      "CaptionName": "अनुवाद",
      "YoutubeSynced": true
    },
    {
      "ID": "A0JryrjksHwx0bjNLt7hjo0gLKgN-W_WYKaSQ-AwIJFKoWlxv_8NZA==",
      "Lang": "nl",
      "CaptionKey": "translation",
      "CaptionName": "Vertaling",
      "YoutubeSynced": true
    },
    {
      "ID": "-do5_g8zbdwOwSKcUK4QgoPLZdZqPk8UMor2F729jN9gjRXLRP_-zQ==",
      "Lang": "no",
      "CaptionKey": "translation",
      "CaptionName": "Oversettelse",
      "YoutubeSynced": true
    },
    {
      "ID": "ZkcR8qBgmLBbgFPF00TYhwzVRprLC96dDDPZjGxau4YMCbiPUgFDdpP9Y1HDOQ45",
      "Lang": "pa",
      "CaptionKey": "translation",
      "CaptionName": "ਅਨੁਵਾਦ",
      "YoutubeSynced": true
    },
    {
      "ID": "-do5_g8zbdxyJDk3PswAnRUiw8KxBUsGk3VGVx0WRIs6Hfw2VBE7Mw==",
      "Lang": "pl",
      "CaptionKey": "translation",
      "CaptionName": "Tłumaczenie",
      "YoutubeSynced": true
    },
    {
      "ID": "xo43p2uPTElLSCR4WiycgGycazYvgnbvawL9LkgRiNS4jvgpARC-lg==",
      "Lang": "ps",
      "CaptionKey": "translation",
      "CaptionName": "ژباړه",
      "YoutubeSynced": true
    },
    {
      "ID": "xo43p2uPTEkk6G7u_VkO-GVj3D7GunI10TAzpaWcDg23eLScp4juUw==",
      "Lang": "pt",
      "CaptionKey": "translation",
      "CaptionName": "Tradução",
      "YoutubeSynced": true
    },
    {
      "ID": "A0JryrjksHw4fUdPeGgK0nIml0bmu2yIx6sWi1WS-Bs_kF4-FXjhnA==",
      "Lang": "ro",
      "CaptionKey": "translation",
      "CaptionName": "Traducere",
      "YoutubeSynced": true
    },
    {
      "ID": "iBkdFuQYu4KpLtW1vo1pIAQkyfX-pioPViAIQAh0Q421YQYU3A4-LA==",
      "Lang": "ru",
      "CaptionKey": "translation",
      "CaptionName": "Перевод",
      "YoutubeSynced": true
    },
    {
      "ID": "xo43p2uPTEnaWr8hfmXGgkf7eN0A7M9xIDCLCHqLuN-de8Or8UVFVA==",
      "Lang": "sd",
      "CaptionKey": "translation",
      "CaptionName": "ترجمو",
      "YoutubeSynced": true
    },
    {
      "ID": "f4MVHo4acvcB7WSVEW0RvEjaXP2P0F0VJ-1qUTfEHpwPcqrS5KK9fkYkoZtUZNRHA4WlO3VH6M8=",
      "Lang": "si",
      "CaptionKey": "translation",
      "CaptionName": "පරිවර්තනය",
      "YoutubeSynced": true
    },
    {
      "ID": "Ww7UgbSaEmpX5ebVWK6xieIjEIQGTtXfjbbH42-zwWttVXxARirLvQ==",
      "Lang": "sk",
      "CaptionKey": "translation",
      "CaptionName": "preklad",
      "YoutubeSynced": true
    },
    {
      "ID": "JvcWETFt2Lpw5LR4JyzDK0MzVSDVDY5rgi-RObNjSQY=",
      "Lang": "sl",
      "CaptionKey": "translation",
      "CaptionName": "Prevod",
      "YoutubeSynced": true
    },
    {
      "ID": "-do5_g8zbdxWoa6Hv6bNK6zjwbG1npj68ym-EL-oe-hnGeabYTUd3A==",
      "Lang": "sm",
      "CaptionKey": "translation",
      "CaptionName": "Faʻaliliuga",
      "YoutubeSynced": true
    },
    {
      "ID": "Ww7UgbSaEmqlUKyZEZkzwy5uvOR6JcZzsv-OBcNdTluDzSDbQbgoYA==",
      "Lang": "sn",
      "CaptionKey": "translation",
      "CaptionName": "Dudziro",
      "YoutubeSynced": true
    },
    {
      "ID": "A0JryrjksHzKK70PA7DUor5XOR6bhtpMfG_RRQsRri9sPEDlfWyh6Q==",
      "Lang": "so",
      "CaptionKey": "translation",
      "CaptionName": "Tarjumida",
      "YoutubeSynced": true
    },
    {
      "ID": "A0JryrjksHw_BJruW3IdAYF2v29UkcaCRk9vXSQdIPyYQmm0j1rkZQ==",
      "Lang": "sq",
      "CaptionKey": "translation",
      "CaptionName": "përkthim",
      "YoutubeSynced": true
    },
    {
      "ID": "-do5_g8zbdzHrBkHe-icIhJurHZxOCxmFfaJYVt-FlfneJMbpgBefg==",
      "Lang": "sr",
      "CaptionKey": "translation",
      "CaptionName": "Превод",
      "YoutubeSynced": true
    },
    {
      "ID": "A0JryrjksHwliuiHmDaAVKpdZWxso6HBQohA4-HmOCOtEyo8kIGP6w==",
      "Lang": "st",
      "CaptionKey": "translation",
      "CaptionName": "Phetolelo",
      "YoutubeSynced": true
    },
    {
      "ID": "xo43p2uPTEnMnswLClB57_YbFy4JLQpKWPD_yISyF7TX41fAj_QR0w==",
      "Lang": "su",
      "CaptionKey": "translation",
      "CaptionName": "Tarjamahan",
      "YoutubeSynced": true
    },
    {
      "ID": "iBkdFuQYu4IJSd2o05bex7R8DpHAxkrgwydm1y_EsF6H5EDmsey9jA==",
      "Lang": "sv",
      "CaptionKey": "translation",
      "CaptionName": "Översättning",
      "YoutubeSynced": true
    },
    {
      "ID": "Ww7UgbSaEmoYgdlslQ6eMT7RAE2dfaci6i-Jz7wTt-jYlo5NYRQ-PQ==",
      "Lang": "sw",
      "CaptionKey": "translation",
      "CaptionName": "Tafsiri",
      "YoutubeSynced": true
    },
    {
      "ID": "tb2ABJZLerNkcOeIcEZNRugam6-RddrbvpTTJttY0xLRIzn04bJ0MFEjh9eZvc7TqSasfXN8jBMAFThHCvUzLlGzXEJB8eLf",
      "Lang": "ta",
      "CaptionKey": "translation",
      "CaptionName": "மொழிபெயர்ப்பு",
      "YoutubeSynced": true
    },
    {
      "ID": "K6Ok0B7qCpzmmYLTJKG9qHLpGf2MOmmOuuEOxP_SXJW9PX6bh9URsbCPWvu8AaN3",
      "Lang": "te",
      "CaptionKey": "translation",
      "CaptionName": "అనువాదం",
      "YoutubeSynced": true
    },
    {
      "ID": "iBkdFuQYu4Jre1TueG1jWve7s-5leZwh2sLQZFTfV1grQQCQfHGmSA==",
      "Lang": "tg",
      "CaptionKey": "translation",
      "CaptionName": "Тарҷума",
      "YoutubeSynced": true
    },
    {
      "ID": "ZkcR8qBgmLAv9TqYNGZvctIahQ45J_5jJLSg9A6OJDN23fJ0l3IUvk-ORbXmwZPk",
      "Lang": "th",
      "CaptionKey": "translation",
      "CaptionName": "การแปล",
      "YoutubeSynced": true
    },
    {
      "ID": "tkdEmwsofsCpDP1qHOwQ3WY5qtW6ItTeINSMzMu-XXxoJVreBRoOpA==",
      "Lang": "tr",
      "CaptionKey": "translation",
      "CaptionName": "Tercüme",
      "YoutubeSynced": true
    },
    {
      "ID": "_8akFJNCxlMkRrcwLoShuIFdvh43EG9yedAfA3HKl5tFUIovdmLFz8q3OP-whMwf",
      "Lang": "uk",
      "CaptionKey": "translation",
      "CaptionName": "Переклад",
      "YoutubeSynced": true
    },
    {
      "ID": "xo43p2uPTElJ4Whwltvbm_n0N4jDkpDWiL5g3IDpr328o5Er5GVh2g==",
      "Lang": "ur",
      "CaptionKey": "translation",
      "CaptionName": "ترجمہ",
      "YoutubeSynced": true
    },
    {
      "ID": "Ww7UgbSaEmqFj3msOiLIi3bUOPaqico0jAeAavKo_m394jxzUL1lvg==",
      "Lang": "uz",
      "CaptionKey": "translation",
      "CaptionName": "Tarjima",
      "YoutubeSynced": true
    },
    {
      "ID": "JvcWETFt2LoatG5PYEGMneS8YTRILpQK3lmmbwxwfbc=",
      "Lang": "vi",
      "CaptionKey": "translation",
      "CaptionName": "Dịch",
      "YoutubeSynced": true
    },
    {
      "ID": "xo43p2uPTEmA19cwqCErEdW4_ntjgOM20r-nYsQqfPAidt1h64pINQ==",
      "Lang": "xh",
      "CaptionKey": "translation",
      "CaptionName": "Inguqulelo",
      "YoutubeSynced": true
    },
    {
      "ID": "l7LoWx1LIrjJADLCr5uub1qL_xDRfX0ObBwxCFVH-e5CezYQsiYMxk3EG0Aghwmc",
      "Lang": "yi",
      "CaptionKey": "translation",
      "CaptionName": "איבערזעצונג",
      "YoutubeSynced": true
    },
    {
      "ID": "Ww7UgbSaEmou0VAyBBnUK4Ma0b-bQUppGmZO3oZUaI9vUtwLYIdgmg==",
      "Lang": "yo",
      "CaptionKey": "translation",
      "CaptionName": "Itumọ",
      "YoutubeSynced": true
    },
    {
      "ID": "6XhXRQQ0ga-KUCQ0zzyykhlxs4PyyKc35WilrNSDNEMcyXnEaxfJTg==",
      "Lang": "zh-Hans",
      "CaptionKey": "translation",
      "CaptionName": "翻译",
      "YoutubeSynced": true
    },
    {
      "ID": "6XhXRQQ0ga-KUCQ0zzyykvAl-F7OcMXUtrsfVAnn578iYJ_AqbY86g==",
      "Lang": "zh-Hant",
      "CaptionKey": "translation",
      "CaptionName": "翻譯",
      "YoutubeSynced": true
    },
    {
      "ID": "xo43p2uPTEk_19TEYTq_YLMSCV5lHMqeQAuo5OOc6wzThN1m5ChaKQ==",
      "Lang": "zu",
      "CaptionKey": "translation",
      "CaptionName": "Ukuhumusha",
      "YoutubeSynced": true
    }
  ]
}