{
  "VideoFile": "grammar-en-beginner-simple_24_A.mp4",
  "Captions": [
    {
      "ID": "XRZ_22AqQsGoTsb86c1Y6ufiMMTNAceueSeReJFG9mNd_myMfl4PeQ==",
      "Lang": "af",
      "CaptionKey": "translation",
      "CaptionName": "vertaling",
      "YoutubeSynced": true
    },
    {
      "ID": "jiXoA47yQV0w-hmaK047UCZOKZ6s03k4-BEEgP7xpt2R2_Jty9wVKA==",
      "Lang": "am",
      "CaptionKey": "translation",
      "CaptionName": "ትርጉም",
      "YoutubeSynced": true
    },
    {
      "ID": "KzhLvN-fRnOUsLgRiecMnqS_O8pmc9qA64Jq49UliKIW8DUeFTDGFw==",
      "Lang": "ar",
      "CaptionKey": "translation",
      "CaptionName": "ترجمة",
      "YoutubeSynced": true
    },
    {
      "ID": "KzhLvN-fRnN1GWBIEgBWGbnLuvfw3J21SlEGPEAzZk_AzXI4RoXcnQ==",
      "Lang": "az",
      "CaptionKey": "translation",
      "CaptionName": "Tərcümə",
      "YoutubeSynced": true
    },
    {
      "ID": "4n7uWx6SUjW5WrCn4e35KCjV6R_sc7Z9qmtYH-JPoILvdzqUsNjzqG9GESfA5rQ_",
      "Lang": "be",
      "CaptionKey": "translation",
      "CaptionName": "Пераклад",
      "YoutubeSynced": true
    },
    {
      "ID": "jiXoA47yQV3L3aZ-EFMK8RSvJ6LNyhtVokKN0l0pVSgExZjktcI6mg==",
      "Lang": "bg",
      "CaptionKey": "translation",
      "CaptionName": "превод",
      "YoutubeSynced": true
    },
    {
      "ID": "aykp8UTjpP44qBuXGf02OGenWxk7jgsUb6M7qtbNg0PX5ZaaIUmKL2j6DRc3jPkM",
      "Lang": "bn",
      "CaptionKey": "translation",
      "CaptionName": "অনুবাদ",
      "YoutubeSynced": true
    },
    {
      "ID": "QlfySxtqKsQPeMaXvsTbAaHfR4OLbdcoYvbx-ADsZdI=",
      "Lang": "bs",
      "CaptionKey": "translation",
      "CaptionName": "Prevod",
      "YoutubeSynced": true
    },
    {
      "ID": "KzhLvN-fRnNEFc9qcg1tYQY3DbXJg_iFkjqldoZ4omsU562THMhtMA==",
      "Lang": "ca",
      "CaptionKey": "translation",
      "CaptionName": "Traducció",
      "YoutubeSynced": true
    },
    {
      "ID": "KzhLvN-fRnM-RVLbrVvOTdfG5alozRWgob8NXBaWqf4pONuweHAlKg==",
      "Lang": "co",
      "CaptionKey": "translation",
      "CaptionName": "Traduzione",
      "YoutubeSynced": true
    },
    {
      "ID": "rqMo56OWiZv7exi8l-mkevIxfQb-ubX6TfVo10y_Ty8ofOp--HWK5g==",
      "Lang": "cs",
      "CaptionKey": "translation",
      "CaptionName": "Překlad",
      "YoutubeSynced": true
    },
    {
      "ID": "UAL627fZri9_b29fc6wQE8WKFdkiPLyDP9tQ0dTyZ3jzxRNIDo5F9A==",
      "Lang": "cy",
      "CaptionKey": "translation",
      "CaptionName": "Cyfieithiad",
      "YoutubeSynced": true
    },
    {
      "ID": "NngXfdI6nG1tFkwufe_Yfk1QyXhm-Sr_JiPwDIq_EfHzcueInTrHFg==",
      "Lang": "da",
      "CaptionKey": "translation",
      "CaptionName": "Oversættelse",
      "YoutubeSynced": true
    },
    {
      "ID": "jiXoA47yQV0AmXBlsUP5nCg8coQvHqq6-1hWn9TAo-CkFrS4UWP9lg==",
      "Lang": "de",
      "CaptionKey": "translation",
      "CaptionName": "Übersetzung",
      "YoutubeSynced": true
    },
    {
      "ID": "aykp8UTjpP7YiNAP-K9-5aCHTucqTpJD1961iMnG6ExhNF6BQsjrFUfL0ONG1Ku0",
      "Lang": "el",
      "CaptionKey": "translation",
      "CaptionName": "Μετάφραση",
      "YoutubeSynced": true
    },
    {
      "ID": "UAL627fZri9dkHqmmo2VLweGmQmCeh6eBTQRxRv1KoOoVidVcj9lHg==",
      "Lang": "en",
      "CaptionKey": "translation",
      "CaptionName": "Translation",
      "YoutubeSynced": true
    },
    {
      "ID": "yWPF-7b5O9BzymEEERed8jGsyqeDwMzGMcPASHtcB5C3LiJBEDywI9X9Q22Fd3VR",
      "Lang": "en",
      "CaptionKey": "ruby",
      "CaptionName": "Pronunciation - IPA",
      "YoutubeSynced": true
    },
    {
      "ID": "UAL627fZri_8RgqgKH4JYwrgM11_A_7JKPgu9f8gojKxZTyBD_hAsw==",
      "Lang": "es",
      "CaptionKey": "translation",
      "CaptionName": "Traducción",
      "YoutubeSynced": true
    },
    {
      "ID": "QlfySxtqKsQ6-3xyZLLGqrqjAIbPhsdlJdlIOUyVih0=",
      "Lang": "et",
      "CaptionKey": "translation",
      "CaptionName": "Tõlge",
      "YoutubeSynced": true
    },
    {
      "ID": "XRZ_22AqQsEEx_JukB04LSSN9ml7pGIWAGrBAFKQsa9JdBEFzzs23w==",
      "Lang": "eu",
      "CaptionKey": "translation",
      "CaptionName": "Itzulpena",
      "YoutubeSynced": true
    },
    {
      "ID": "KzhLvN-fRnPbDwj1ErMkFfoxp5hNzkqdBUfIFJcTvgNEP-IRafjwsw==",
      "Lang": "fa",
      "CaptionKey": "translation",
      "CaptionName": "ترجمه",
      "YoutubeSynced": true
    },
    {
      "ID": "KzhLvN-fRnOI-qztZ1zu4hggaJDD2LiZ5Bib94rpHiZy69nN9vkOLA==",
      "Lang": "fi",
      "CaptionKey": "translation",
      "CaptionName": "Käännös",
      "YoutubeSynced": true
    },
    {
      "ID": "UAL627fZri89AZiPGERbRqmktu5hqavywxdteApPMuKaEtwtQj5Ljw==",
      "Lang": "fil",
      "CaptionKey": "translation",
      "CaptionName": "Pagsasalin",
      "YoutubeSynced": true
    },
    {
      "ID": "KzhLvN-fRnOovjCcL8twkjoRnZpx4IEhwzd8dpVM5J9pQp75QmFo3g==",
      "Lang": "fr",
      "CaptionKey": "translation",
      "CaptionName": "Traduction",
      "YoutubeSynced": true
    },
    {
      "ID": "KzhLvN-fRnOJjJZQ6UaGgEgQWKuvKHiM-u8iGhIFdS5pU6FAFZVklQ==",
      "Lang": "fy",
      "CaptionKey": "translation",
      "CaptionName": "Oersetting",
      "YoutubeSynced": true
    },
    {
      "ID": "aykp8UTjpP7nnNTeE0BtPzlq_AFsl0GLVlXI95e-LOgROLnInsq4qFrNmKcKun6t",
      "Lang": "gd",
      "CaptionKey": "translation",
      "CaptionName": "Eadar-theangachadh",
      "YoutubeSynced": true
    },
    {
      "ID": "KzhLvN-fRnNqUIuOa-c86J9am8cthf09zcwPj_LEDMU7rdPGE84VlQ==",
      "Lang": "gl",
      "CaptionKey": "translation",
      "CaptionName": "Tradución",
      "YoutubeSynced": true
    },
    {
      "ID": "aykp8UTjpP7cR1xBtKrG38XP8d93vPdEnZL2-hyWAkg5h2mfwXfGfCJuG4jg3ChZ",
      "Lang": "gu",
      "CaptionKey": "translation",
      "CaptionName": "અનુવાદ",
      "YoutubeSynced": true
    },
    {
      "ID": "sD0PICvQLChWnrPksp2k6RqrXzH8ae7whTl09vibwQilRYc9PJuMuQ==",
      "Lang": "ha",
      "CaptionKey": "translation",
      "CaptionName": "Fassara",
      "YoutubeSynced": true
    },
    {
      "ID": "aykp8UTjpP5vSbDb0CN3DzEaa03g1hRvp_F9FwV_IZP1SSvvjyKPNhJwy6O3FKO8",
      "Lang": "hi",
      "CaptionKey": "translation",
      "CaptionName": "अनुवाद",
      "YoutubeSynced": true
    },
    {
      "ID": "rqMo56OWiZthnKTvnUE0oHF_yB3yiidZNAFFvuVC8HrXheHorMgV1Q==",
      "Lang": "hr",
      "CaptionKey": "translation",
      "CaptionName": "Prijevod",
      "YoutubeSynced": true
    },
    {
      "ID": "KzhLvN-fRnNJRmphvuEGdfPGG9wO5rW1TXpashNm4m3XQWquuv4v6g==",
      "Lang": "hu",
      "CaptionKey": "translation",
      "CaptionName": "Fordítás",
      "YoutubeSynced": true
    },
    {
      "ID": "kx9P7gsuhlDZx-4bdVkkwN-6EcA9xEjTgPfVuVJzymF7V6uiZ8SxMJHYD60CTtHPjwC17Ko6aEg=",
      "Lang": "hy",
      "CaptionKey": "translation",
      "CaptionName": "Թարգմանություն",
      "YoutubeSynced": true
    },
    {
      "ID": "KzhLvN-fRnOi8SZfGn1h9aDksUzGS1X9MduzTNq-sSydVPGRNazXgw==",
      "Lang": "id",
      "CaptionKey": "translation",
      "CaptionName": "Terjemahan",
      "YoutubeSynced": true
    },
    {
      "ID": "rqMo56OWiZtY_27f4wvppWb2OvrlCyD_SXoQXnlcmKH45QcigVpVeg==",
      "Lang": "ig",
      "CaptionKey": "translation",
      "CaptionName": "Ntughari",
      "YoutubeSynced": true
    },
    {
      "ID": "XRZ_22AqQsEQ9fuVQV-LHEgmIBGmFRq0DObfcIbKBKWNVyZgzFqf_Q==",
      "Lang": "is",
      "CaptionKey": "translation",
      "CaptionName": "Þýðing",
      "YoutubeSynced": true
    },
    {
      "ID": "KzhLvN-fRnMe9XIWkd_jgrr4eY1wJm3s2SWTjHia6-DGgBkyiq_3GQ==",
      "Lang": "it",
      "CaptionKey": "translation",
      "CaptionName": "Traduzione",
      "YoutubeSynced": true
    },
    {
      "ID": "KzhLvN-fRnMllM7stimYZzA1DFiE8Ioz1dCCx-DO4KQeMQkjpUIbiw==",
      "Lang": "iw",
      "CaptionKey": "translation",
      "CaptionName": "תרגום",
      "YoutubeSynced": true
    },
    {
      "ID": "QlfySxtqKsQAGmf5IGtZpqS-5zxIgvsiTY-TL4sZrYM=",
      "Lang": "ja",
      "CaptionKey": "translation",
      "CaptionName": "翻訳",
      "YoutubeSynced": true
    },
    {
      "ID": "XRZ_22AqQsHPdY87HEOMRwtb9RaMA6LTSBIt2YM9mWl33syF23LNyw==",
      "Lang": "jv",
      "CaptionKey": "translation",
      "CaptionName": "Ngartekne",
      "YoutubeSynced": true
    },
    {
      "ID": "AQXc4Y8ljUt_MsErBeuh3SPndsoJ6FMPSFDsVNbXycNrjSGKGN_D3OsCni7rVuMGGL09CmbMWbA=",
      "Lang": "ka",
      "CaptionKey": "translation",
      "CaptionName": "თარგმანი",
      "YoutubeSynced": true
    },
    {
      "ID": "ABjiD4lw8CXRmOxs5NTMs9ntq3LYJ1_mvja5ovRnowejUdR5x6vClA==",
      "Lang": "kk",
      "CaptionKey": "translation",
      "CaptionName": "Аударма",
      "YoutubeSynced": true
    },
    {
      "ID": "KS38vwkQWcjkMbOBpfL2SyzZqfcOF1lC0zUP5o5lf8or9J6Uw32ZXWdvQxzviqFkWYZC7RFNX_A=",
      "Lang": "km",
      "CaptionKey": "translation",
      "CaptionName": "ការបកប្រែ",
      "YoutubeSynced": true
    },
    {
      "ID": "aykp8UTjpP4WSnKVMleagmxqHoO6RwtAg19--UIRN0Iizli76Soy6EL1-v3JhU4H",
      "Lang": "kn",
      "CaptionKey": "translation",
      "CaptionName": "ಅನುವಾದ",
      "YoutubeSynced": true
    },
    {
      "ID": "QlfySxtqKsT9uESgLb9jLYLjMUTinfMw2ow0yJCFcwk=",
      "Lang": "ko",
      "CaptionKey": "translation",
      "CaptionName": "번역",
      "YoutubeSynced": true
    },
    {
      "ID": "QlfySxtqKsRs6c-3vl3DRe3beyjbFLq3Q8JF45jvk18=",
      "Lang": "ku",
      "CaptionKey": "translation",
      "CaptionName": "Werger",
      "YoutubeSynced": true
    },
    {
      "ID": "ABjiD4lw8CUYuyearnQDm8au4DxQbx7mclJ1YiV43_0JYq3P56XNiA==",
      "Lang": "ky",
      "CaptionKey": "translation",
      "CaptionName": "котормо",
      "YoutubeSynced": true
    },
    {
      "ID": "jiXoA47yQV3o2iTWy3Y-abfv6LMI-K6xi1sDbGYT_xxG5g-HCFZIjg==",
      "Lang": "lb",
      "CaptionKey": "translation",
      "CaptionName": "Iwwersetzung",
      "YoutubeSynced": true
    },
    {
      "ID": "KS38vwkQWchTkfcZde-HHUtKjW_gCqUI_vqhyuocdw8JxazplHaGtyw9_3_3urGkfWameX66SSw=",
      "Lang": "lo",
      "CaptionKey": "translation",
      "CaptionName": "ການແປພາສາ",
      "YoutubeSynced": true
    },
    {
      "ID": "rqMo56OWiZsnelp5KF7vRR4SZ9xFP_iXN_kvgl-HWmFqFvS3lcSfwg==",
      "Lang": "lt",
      "CaptionKey": "translation",
      "CaptionName": "Vertimas",
      "YoutubeSynced": true
    },
    {
      "ID": "KzhLvN-fRnPRbKj5a3oooVrGCZpD416L5oqeVQ7VYLVah9zqvIz5xg==",
      "Lang": "lv",
      "CaptionKey": "translation",
      "CaptionName": "Tulkošana",
      "YoutubeSynced": true
    },
    {
      "ID": "UAL627fZri89G05G2-2D8sk2rQqRWQ4v2dS_fsb5qg0rzOszKZp1Nw==",
      "Lang": "mg",
      "CaptionKey": "translation",
      "CaptionName": "Translation",
      "YoutubeSynced": true
    },
    {
      "ID": "2YAjiMvTT61fo7Qj6DmfG9q3D6Xdyr81uMKwp6ZHC06d4dz-mtG55d9L9cUrKIqT",
      "Lang": "mi",
      "CaptionKey": "translation",
      "CaptionName": "Whakamaoritanga",
      "YoutubeSynced": true
    },
    {
      "ID": "jiXoA47yQV14RGixG97Vh73Wfnkm8xMnfzHfJ_0vP5IXMjbYH2Wv_Q==",
      "Lang": "mk",
      "CaptionKey": "translation",
      "CaptionName": "Превод",
      "YoutubeSynced": true
    },
    {
      "ID": "KS38vwkQWciYkLjlR2K8sH1fun23N5jSqpWA_Kw-mXyCWlhRJ9T8e1VGKgYEV9NK-oUnN0PeyxA=",
      "Lang": "ml",
      "CaptionKey": "translation",
      "CaptionName": "വിവർത്തനം",
      "YoutubeSynced": true
    },
    {
      "ID": "4n7uWx6SUjX0iQOGNqh8aOP439V5TchppNYDCwd0AyS4742QQryM1r41wvxapYR-",
      "Lang": "mn",
      "CaptionKey": "translation",
      "CaptionName": "Орчуулга",
      "YoutubeSynced": true
    },
    {
      "ID": "dvv4Thc9ryqOesDfaA1MUNjS_-eWg6YTGcQlMrr9k89tOUD6_MdyGB31TqVvSbvr",
      "Lang": "mr",
      "CaptionKey": "translation",
      "CaptionName": "भाषांतर",
      "YoutubeSynced": true
    },
    {
      "ID": "KzhLvN-fRnMXo98Q-brqaAuqCTh87j2uV3Zdyqp7K8BtrdqKPEA0Vw==",
      "Lang": "ms",
      "CaptionKey": "translation",
      "CaptionName": "Terjemahan",
      "YoutubeSynced": true
    },
    {
      "ID": "UAL627fZri8LF3UNnpp6MBDDAGVGlFutP51pRQpQQT7qlVOB7zzRDw==",
      "Lang": "mt",
      "CaptionKey": "translation",
      "CaptionName": "Traduzzjoni",
      "YoutubeSynced": true
    },
    {
      "ID": "AQXc4Y8ljUv_TJR2bVXKLxca2tYDh4CD2StZvxux1N2cb8lHrhO09pDGRbhag5uFtGaBPBK9hKg=",
      "Lang": "my",
      "CaptionKey": "translation",
      "CaptionName": "ဘာသာပြန်",
      "YoutubeSynced": true
    },
    {
      "ID": "aykp8UTjpP5tghEEPz0uSL6LOBvXaP_4FMF894KjOoA8qtEzY43fEXbp4W4kg--a",
      "Lang": "ne",
      "CaptionKey": "translation",
      "CaptionName": "अनुवाद",
      "YoutubeSynced": true
    },
    {
      "ID": "XRZ_22AqQsEpPQ2tZnJzdTxk2ZgXtnsgpZj1IuRaK1_QvDPxFl5Vgw==",
      "Lang": "nl",
      "CaptionKey": "translation",
      "CaptionName": "Vertaling",
      "YoutubeSynced": true
    },
    {
      "ID": "jiXoA47yQV3HTvk4PmjBX_Pqo8mPg_8fK13YV4UnEW-guoZnu5NgMw==",
      "Lang": "no",
      "CaptionKey": "translation",
      "CaptionName": "Oversettelse",
      "YoutubeSynced": true
    },
    {
      "ID": "aykp8UTjpP4OJ32DV3FLjoTiDz7gvNXnkdXTkXCE30uSCAAfPLjKv8uyP5oWDv6V",
      "Lang": "pa",
      "CaptionKey": "translation",
      "CaptionName": "ਅਨੁਵਾਦ",
      "YoutubeSynced": true
    },
    {
      "ID": "jiXoA47yQV1hUzxrdzhRxHgrUEq4ZjySvFhKBsTk8k1ymi7LHFvN9w==",
      "Lang": "pl",
      "CaptionKey": "translation",
      "CaptionName": "Tłumaczenie",
      "YoutubeSynced": true
    },
    {
      "ID": "KzhLvN-fRnPQyNgVJk1FTau0LB1f6wFsiTFbx36nvxBI_vl7yQNiyg==",
      "Lang": "ps",
      "CaptionKey": "translation",
      "CaptionName": "ژباړه",
      "YoutubeSynced": true
    },
    {
      "ID": "KzhLvN-fRnMI36NXfb-YgCzb7URinBBUuJzKA1ZaW0zqre2Nao8XBg==",
      "Lang": "pt",
      "CaptionKey": "translation",
      "CaptionName": "Tradução",
      "YoutubeSynced": true
    },
    {
      "ID": "XRZ_22AqQsHFUeKaFB_AHANSGttZDHreGtk0jgAjhILP9TP4Ga5g0w==",
      "Lang": "ro",
      "CaptionKey": "translation",
      "CaptionName": "Traducere",
      "YoutubeSynced": true
    },
    {
      "ID": "ABjiD4lw8CX6fJB1WkkkFMvL3U3bR9zo0VcPfHpaDwP17d7u32n81Q==",
      "Lang": "ru",
      "CaptionKey": "translation",
      "CaptionName": "Перевод",
      "YoutubeSynced": true
    },
    {
      "ID": "KzhLvN-fRnPx35C-Z-WfAx90Bp5f4osfPyR0TYnRybFi8q0nIItcJw==",
      "Lang": "sd",
      "CaptionKey": "translation",
      "CaptionName": "ترجمو",
      "YoutubeSynced": true
    },
    {
      "ID": "KS38vwkQWcgY7gl8BnyJW6qpMAk5KjrqABSabKdJmIbot35iYjgTwly92XDjERvesemSE4JdWIk=",
      "Lang": "si",
      "CaptionKey": "translation",
      "CaptionName": "පරිවර්තනය",
      "YoutubeSynced": true
    },
    {
      "ID": "sD0PICvQLChI-YnGXBBXCmS0J7jBL1UxXkHszvSsXFWtLTOPT9ku4Q==",
      "Lang": "sk",
      "CaptionKey": "translation",
      "CaptionName": "preklad",
      "YoutubeSynced": true
    },
    {
      "ID": "QlfySxtqKsTpJmrjIGzdpmkh90jWBV9kNRJDKz-DOMs=",
      "Lang": "sl",
      "CaptionKey": "translation",
      "CaptionName": "Prevod",
      "YoutubeSynced": true
    },
    {
      "ID": "jiXoA47yQV1wIufjaG4LeO4xsaJnBGOqeDX7aqx2r3Vy_4oDg-sClw==",
      "Lang": "sm",
      "CaptionKey": "translation",
      "CaptionName": "Faʻaliliuga",
      "YoutubeSynced": true
    },
    {
      "ID": "sD0PICvQLCgZ1VpTKJU2944ObxiIpozZEOnCbyrDlEyAEZvbhPUKdg==",
      "Lang": "sn",
      "CaptionKey": "translation",
      "CaptionName": "Dudziro",
      "YoutubeSynced": true
    },
    {
      "ID": "XRZ_22AqQsFykia3QKssA4_g1Xb6k1a-YGyPOOUjIoUKCYI9DbFs4Q==",
      "Lang": "so",
      "CaptionKey": "translation",
      "CaptionName": "Tarjumida",
      "YoutubeSynced": true
    },
    {
      "ID": "XRZ_22AqQsHaspGXilTsGss49-t94WORv_KciLj9mhUYqunZkgpwIQ==",
      "Lang": "sq",
      "CaptionKey": "translation",
      "CaptionName": "përkthim",
      "YoutubeSynced": true
    },
    {
      "ID": "jiXoA47yQV1Gku3_-su7Vb09g6EjBuyRg3FEF3QRHC9iI6c1vEaJGA==",
      "Lang": "sr",
      "CaptionKey": "translation",
      "CaptionName": "Превод",
      "YoutubeSynced": true
    },
    {
      "ID": "XRZ_22AqQsE20qEL4S-g8nD-kvYz782ZOu0kwb0co4EB9G9hSr98qQ==",
      "Lang": "st",
      "CaptionKey": "translation",
      "CaptionName": "Phetolelo",
      "YoutubeSynced": true
    },
    {
      "ID": "KzhLvN-fRnPD6yE__5eGhfZO3lajp5Zli9plwBbgYq7O4-hKwiwj2g==",
      "Lang": "su",
      "CaptionKey": "translation",
      "CaptionName": "Tarjamahan",
      "YoutubeSynced": true
    },
    {
      "ID": "ABjiD4lw8CURCS0XkrNkT3U9optkp_GnQxsAlAJ9A4w9bBfBiKhCRg==",
      "Lang": "sv",
      "CaptionKey": "translation",
      "CaptionName": "Översättning",
      "YoutubeSynced": true
    },
    {
      "ID": "sD0PICvQLCj0soW9nfbewbJ8FWwRpNSj4Rbqsimr5edYsJ8fI9uEZw==",
      "Lang": "sw",
      "CaptionKey": "translation",
      "CaptionName": "Tafsiri",
      "YoutubeSynced": true
    },
    {
      "ID": "EN4qBSYcw07hNTtzEU2iQr1NfgSJvzYI--yb2aISPoySSKW9P-wSXAGl4kFtZ0wOPUbYBf85BuTARzVWYbAJHksxt6UB1ymG",
      "Lang": "ta",
      "CaptionKey": "translation",
      "CaptionName": "மொழிபெயர்ப்பு",
      "YoutubeSynced": true
    },
    {
      "ID": "dvv4Thc9ryotT9lSLgGMNdF06KWdWiy1mfkJLZW6KZgIYDrZAdgVXd4TpuvEBlYS",
      "Lang": "te",
      "CaptionKey": "translation",
      "CaptionName": "అనువాదం",
      "YoutubeSynced": true
    },
    {
      "ID": "ABjiD4lw8CVgt05VzqjWnTGQ5dko1EkXlB0QXX-xUpB_ILRC4_fHoQ==",
      "Lang": "tg",
      "CaptionKey": "translation",
      "CaptionName": "Тарҷума",
      "YoutubeSynced": true
    },
    {
      "ID": "aykp8UTjpP72cgIhY3rpaa6VrJE55bIvvW4NKpmjlArHbphDJhWMqmLlC89tZKUy",
      "Lang": "th",
      "CaptionKey": "translation",
      "CaptionName": "การแปล",
      "YoutubeSynced": true
    },
    {
      "ID": "rqMo56OWiZuJbgzlts_ufukQTYet4_EpwWQ0Zmq429GOv2SMGhW_EQ==",
      "Lang": "tr",
      "CaptionKey": "translation",
      "CaptionName": "Tercüme",
      "YoutubeSynced": true
    },
    {
      "ID": "4n7uWx6SUjVClT5L7ytrGItCN3xdfC83-THtaRGVMj-kofBdNaIlKjFTSdE7ev6d",
      "Lang": "uk",
      "CaptionKey": "translation",
      "CaptionName": "Переклад",
      "YoutubeSynced": true
    },
    {
      "ID": "KzhLvN-fRnNj1f0OBDBg6IeWYQbBWaPRUQCdUh3ZE44b02N8LlMkSQ==",
      "Lang": "ur",
      "CaptionKey": "translation",
      "CaptionName": "ترجمہ",
      "YoutubeSynced": true
    },
    {
      "ID": "sD0PICvQLCgbbUDZWVSuO4RZhWNbTsa5Zl0TGxaH04kHD4uQFVQSRg==",
      "Lang": "uz",
      "CaptionKey": "translation",
      "CaptionName": "Tarjima",
      "YoutubeSynced": true
    },
    {
      "ID": "QlfySxtqKsRmn1sJslPBkj3Dm6v1R_qQtKS11CqUxHM=",
      "Lang": "vi",
      "CaptionKey": "translation",
      "CaptionName": "Dịch",
      "YoutubeSynced": true
    },
    {
      "ID": "KzhLvN-fRnOBxSVeqii3A2cmjabj3y2Jq9hcPDntQDjw_5jZYIE-Fg==",
      "Lang": "xh",
      "CaptionKey": "translation",
      "CaptionName": "Inguqulelo",
      "YoutubeSynced": true
    },
    {
      "ID": "_8dRn9vcW0PRShQx63P5ehG1DGJXRhx12D29bvh-tO6hil1tWYRncxgA86Ofn5k_",
      "Lang": "yi",
      "CaptionKey": "translation",
      "CaptionName": "איבערזעצונג",
      "YoutubeSynced": true
    },
    {
      "ID": "sD0PICvQLChE9it3VzWak7-yzacXmZXd_FBzStKLna4h148BvoKrFA==",
      "Lang": "yo",
      "CaptionKey": "translation",
      "CaptionName": "Itumọ",
      "YoutubeSynced": true
    },
    {
      "ID": "UAL627fZri99ncnWekU3ujUUFxKDW8jfIGdkJ_8G56xj2ivYrjxJSw==",
      "Lang": "zh-Hans",
      "CaptionKey": "translation",
      "CaptionName": "翻译",
      "YoutubeSynced": true
    },
    {
      "ID": "UAL627fZri99ncnWekU3ujTJL9qK_UY5uNDZ82ycetOsb_rfL5pHwA==",
      "Lang": "zh-Hant",
      "CaptionKey": "translation",
      "CaptionName": "翻譯",
      "YoutubeSynced": true
    },
    {
      "ID": "KzhLvN-fRnPQ6L983AhfKa0uGHAlxLbXUwZF7ImPsR_v2oNjJpUJ1A==",
      "Lang": "zu",
      "CaptionKey": "translation",
      "CaptionName": "Ukuhumusha",
      "YoutubeSynced": true
    }
  ]
}