{
  "VideoFile": "grammar-en-beginner-simple_36_AU.mp4",
  "Captions": [
    {
      "ID": "Nm7y8tv28YhFsYhzQxK8OqsgUPllv35GG5E2BrLfsrSBIUCvzwdzwQ==",
      "Lang": "af",
      "CaptionKey": "translation",
      "CaptionName": "vertaling",
      "YoutubeSynced": true
    },
    {
      "ID": "iqQClokLwBhoKDS9g9cQx3LfpLIGR528lW9jmNExq2F-7kw9LXjlbA==",
      "Lang": "am",
      "CaptionKey": "translation",
      "CaptionName": "ትርጉም",
      "YoutubeSynced": true
    },
    {
      "ID": "1erJ8FvMohwB7cTt3Dnbc53cs-Bf5Y0FXCAnQ8ZEVMHH2DfswjJ56A==",
      "Lang": "ar",
      "CaptionKey": "translation",
      "CaptionName": "ترجمة",
      "YoutubeSynced": true
    },
    {
      "ID": "1erJ8FvMohwWDdlRAh_nSH8bRRnIsfxvQCzdU5jANvX6femlOb6qNQ==",
      "Lang": "az",
      "CaptionKey": "translation",
      "CaptionName": "Tərcümə",
      "YoutubeSynced": true
    },
    {
      "ID": "IBDhIrwa2ndRIZvBeiYZOhktZKRtezI-O1o2Wsna9dn0GUDkmCNnc5ch3PV9033E",
      "Lang": "be",
      "CaptionKey": "translation",
      "CaptionName": "Пераклад",
      "YoutubeSynced": true
    },
    {
      "ID": "iqQClokLwBjBsZZt09khNNvV9EjGnCRh23dSM58WrCG5QV8afl24jQ==",
      "Lang": "bg",
      "CaptionKey": "translation",
      "CaptionName": "превод",
      "YoutubeSynced": true
    },
    {
      "ID": "R24p2TPh1XQ5pJa0rZbnyEMhb-16NVru0sYPizvZmiIo_Yawa8YWWvjTROrsAfj2",
      "Lang": "bn",
      "CaptionKey": "translation",
      "CaptionName": "অনুবাদ",
      "YoutubeSynced": true
    },
    {
      "ID": "go_BNZyueXTxjZDDDXVn_QgTUAhf16hqtFHUO_VwgUM=",
      "Lang": "bs",
      "CaptionKey": "translation",
      "CaptionName": "Prevod",
      "YoutubeSynced": true
    },
    {
      "ID": "1erJ8FvMohw3iDeUKdsg7YeQ236qx2GVrdoACB3RVodldv9h1QLSNA==",
      "Lang": "ca",
      "CaptionKey": "translation",
      "CaptionName": "Traducció",
      "YoutubeSynced": true
    },
    {
      "ID": "1erJ8FvMohy4lin5WGveBOkG2Zc9eqjQ5zrc9UcyQUd38SxSyORHEg==",
      "Lang": "co",
      "CaptionKey": "translation",
      "CaptionName": "Traduzione",
      "YoutubeSynced": true
    },
    {
      "ID": "E_HROfXofR6f0LHlHI3tY9s4VmzwCp8_jCAE_GaQpwRN-zK4MBbwew==",
      "Lang": "cs",
      "CaptionKey": "translation",
      "CaptionName": "Překlad",
      "YoutubeSynced": true
    },
    {
      "ID": "IreX1FQEDEH0ktwZLaZdTX-IFhkbiOGC-713N_GVKqGrqmnpzIGwnQ==",
      "Lang": "cy",
      "CaptionKey": "translation",
      "CaptionName": "Cyfieithiad",
      "YoutubeSynced": true
    },
    {
      "ID": "9mvPrecRbYJycMjncRhNnaPBntQzgrgFJngDk4nmaUZmYo4zcYY1GA==",
      "Lang": "da",
      "CaptionKey": "translation",
      "CaptionName": "Oversættelse",
      "YoutubeSynced": true
    },
    {
      "ID": "iqQClokLwBgx1mzKlq7PjBC0yYyKMa5EC0VZzAUxrAHv47ekeptgGA==",
      "Lang": "de",
      "CaptionKey": "translation",
      "CaptionName": "Übersetzung",
      "YoutubeSynced": true
    },
    {
      "ID": "R24p2TPh1XTsnxboFpDZJwtqsH6Gyxppn3V__5xbNDekYpuxHaVGzbW9WFIDTDyg",
      "Lang": "el",
      "CaptionKey": "translation",
      "CaptionName": "Μετάφραση",
      "YoutubeSynced": true
    },
    {
      "ID": "IreX1FQEDEHUHE-m6iEgr5-tZH0r85kZdikiWLKIZA_B0Bhc6St1xA==",
      "Lang": "en",
      "CaptionKey": "translation",
      "CaptionName": "Translation",
      "YoutubeSynced": true
    },
    {
      "ID": "W24tdZMmuQLMuvtPDYlrj8G4VoT4xHBxfpE_DBJzii1Omdz8iNXaG4LGp_hgN3m9",
      "Lang": "en",
      "CaptionKey": "ruby",
      "CaptionName": "Pronunciation - IPA",
      "YoutubeSynced": true
    },
    {
      "ID": "IreX1FQEDEFGXB15WGdHavKNDkKJBwYRM5mhB-AoQOU6uJ88Lgeuaw==",
      "Lang": "es",
      "CaptionKey": "translation",
      "CaptionName": "Traducción",
      "YoutubeSynced": true
    },
    {
      "ID": "go_BNZyueXSg5EuSC_Ww4GlszfbOO5MQVsvlvYrm06U=",
      "Lang": "et",
      "CaptionKey": "translation",
      "CaptionName": "Tõlge",
      "YoutubeSynced": true
    },
    {
      "ID": "Nm7y8tv28Yj3ATuOBump3SBReqSJa3vgg2tRnXF86yI-KX35N0EJbw==",
      "Lang": "eu",
      "CaptionKey": "translation",
      "CaptionName": "Itzulpena",
      "YoutubeSynced": true
    },
    {
      "ID": "1erJ8FvMohyUftkZMgo0pUrSLdyuVpKv2nTG7YOnsf3fvPz1H2kNIA==",
      "Lang": "fa",
      "CaptionKey": "translation",
      "CaptionName": "ترجمه",
      "YoutubeSynced": true
    },
    {
      "ID": "1erJ8FvMohz7tboVlkyya7sndezALAb1phMaZXbdOu7_qP8hY_JacQ==",
      "Lang": "fi",
      "CaptionKey": "translation",
      "CaptionName": "Käännös",
      "YoutubeSynced": true
    },
    {
      "ID": "IreX1FQEDEHZeHHxvRftzBdk48fo7xMAcWRdtfuTJFuEvo_dCiFGfQ==",
      "Lang": "fil",
      "CaptionKey": "translation",
      "CaptionName": "Pagsasalin",
      "YoutubeSynced": true
    },
    {
      "ID": "1erJ8FvMohzw4Ax2EFAAFMBKvvnW3DZnaTjjMT2GQRbYQq_qW4ierA==",
      "Lang": "fr",
      "CaptionKey": "translation",
      "CaptionName": "Traduction",
      "YoutubeSynced": true
    },
    {
      "ID": "1erJ8FvMohxc9cqOmMD7HlP0NQOTJRvti7FXWE6O0Le_a9DHleGTUg==",
      "Lang": "fy",
      "CaptionKey": "translation",
      "CaptionName": "Oersetting",
      "YoutubeSynced": true
    },
    {
      "ID": "R24p2TPh1XTnHzlOpEc1AMnDaNyav19jA_RG6d6XzPnjPFfERYO87nORNy_JnsE2",
      "Lang": "gd",
      "CaptionKey": "translation",
      "CaptionName": "Eadar-theangachadh",
      "YoutubeSynced": true
    },
    {
      "ID": "1erJ8FvMohyyazMW_GS4_H8wCu9BqABZ1nwyGADRcYRAXqUMjPHxSQ==",
      "Lang": "gl",
      "CaptionKey": "translation",
      "CaptionName": "Tradución",
      "YoutubeSynced": true
    },
    {
      "ID": "R24p2TPh1XTz3HHhIfHafkMW2Na2WO_4ipr5YTN014pngml86sJ07QMZ3TljpBcv",
      "Lang": "gu",
      "CaptionKey": "translation",
      "CaptionName": "અનુવાદ",
      "YoutubeSynced": true
    },
    {
      "ID": "FWk0sVP1c2m2MtWzuPURB5vvQ9Re36OwUH8VUEsQajJqPrN_-AA1ZQ==",
      "Lang": "ha",
      "CaptionKey": "translation",
      "CaptionName": "Fassara",
      "YoutubeSynced": true
    },
    {
      "ID": "R24p2TPh1XTbEi_UNnbVaHhECJUtncXG7vDTQp2umDQeWJFwRaWpbdAfarEIcES4",
      "Lang": "hi",
      "CaptionKey": "translation",
      "CaptionName": "अनुवाद",
      "YoutubeSynced": true
    },
    {
      "ID": "E_HROfXofR5UroZnNNyTyvfFac-NSQbvlSoNI2k1q2NXoUURTnPZeA==",
      "Lang": "hr",
      "CaptionKey": "translation",
      "CaptionName": "Prijevod",
      "YoutubeSynced": true
    },
    {
      "ID": "1erJ8FvMohyDwh_WSMYLQuxXvyT9JXXm84UuQCQXPk843QIeEPNTng==",
      "Lang": "hu",
      "CaptionKey": "translation",
      "CaptionName": "Fordítás",
      "YoutubeSynced": true
    },
    {
      "ID": "6OKYLQrVD_DPG-2V_fo06JA0fGk0dYVacZZqOqtjwkAvq4VDC_yJ1-2xgKZNSLyc6b1xNAVX2dc=",
      "Lang": "hy",
      "CaptionKey": "translation",
      "CaptionName": "Թարգմանություն",
      "YoutubeSynced": true
    },
    {
      "ID": "1erJ8FvMohzaQ4_HPqQ-1NY4H6hvz6q7LHRTbU99tW6276xKoSItZA==",
      "Lang": "id",
      "CaptionKey": "translation",
      "CaptionName": "Terjemahan",
      "YoutubeSynced": true
    },
    {
      "ID": "E_HROfXofR481NHpEeU8g5-PjuU2DpbJj24b5DFYXizDVtb-N-w0tQ==",
      "Lang": "ig",
      "CaptionKey": "translation",
      "CaptionName": "Ntughari",
      "YoutubeSynced": true
    },
    {
      "ID": "Nm7y8tv28Yj9yCXg9yJuWwAJuY8prVEu_QZ0yTCggFAPdtLYIICZXw==",
      "Lang": "is",
      "CaptionKey": "translation",
      "CaptionName": "Þýðing",
      "YoutubeSynced": true
    },
    {
      "ID": "1erJ8FvMohxJlTSDMhcRaNM6x1H5ANVPXTy9FOo-ADakbf9oh4NoNg==",
      "Lang": "it",
      "CaptionKey": "translation",
      "CaptionName": "Traduzione",
      "YoutubeSynced": true
    },
    {
      "ID": "1erJ8FvMohwDzeVr72nUkTfuEnR4SyxEtyFdyY-46nJlSs53jRuPew==",
      "Lang": "iw",
      "CaptionKey": "translation",
      "CaptionName": "תרגום",
      "YoutubeSynced": true
    },
    {
      "ID": "go_BNZyueXS24txT0tbKmHad4-NbKicqiKhd5fRW3gs=",
      "Lang": "ja",
      "CaptionKey": "translation",
      "CaptionName": "翻訳",
      "YoutubeSynced": true
    },
    {
      "ID": "Nm7y8tv28YhOUEMOiZk73iaYvBCDT8QR9PYK7YEWU4NyYeApdARDYw==",
      "Lang": "jv",
      "CaptionKey": "translation",
      "CaptionName": "Ngartekne",
      "YoutubeSynced": true
    },
    {
      "ID": "xDFGwzHOYCIzauaeXJuFT_vWpMNvH-tFbYHAHVAzw7y5GQbnmnsdH69uEq-uflWD7VcXTb0orms=",
      "Lang": "ka",
      "CaptionKey": "translation",
      "CaptionName": "თარგმანი",
      "YoutubeSynced": true
    },
    {
      "ID": "ULZxVxgFpocsT63Lr-D9NXS-H1kXALEP0awDxQHThQm_xzkP7wJx2w==",
      "Lang": "kk",
      "CaptionKey": "translation",
      "CaptionName": "Аударма",
      "YoutubeSynced": true
    },
    {
      "ID": "3h9qIxCCvT60aStnIgT_nIWEf7qNdfnL1XyBXzmd9SW2XpTbWDUGBczcI6M1yDTrWERo9BeHzeo=",
      "Lang": "km",
      "CaptionKey": "translation",
      "CaptionName": "ការបកប្រែ",
      "YoutubeSynced": true
    },
    {
      "ID": "R24p2TPh1XTlUZQKCY4oK1kTtvPdiD7UysRbySRoHfY0N4o-f1J-9lQfEXaPb5hS",
      "Lang": "kn",
      "CaptionKey": "translation",
      "CaptionName": "ಅನುವಾದ",
      "YoutubeSynced": true
    },
    {
      "ID": "go_BNZyueXSgLLn0nh-3BXxW2S8f356stVdJ1DsTKUk=",
      "Lang": "ko",
      "CaptionKey": "translation",
      "CaptionName": "번역",
      "YoutubeSynced": true
    },
    {
      "ID": "go_BNZyueXT9VY5HaStVnq8Tij3whJRX5wusN7nLwmg=",
      "Lang": "ku",
      "CaptionKey": "translation",
      "CaptionName": "Werger",
      "YoutubeSynced": true
    },
    {
      "ID": "ULZxVxgFpocoGrsNJUUhx0YhfEDE6tk70FMO10YwgiBQeW_-SrO5MA==",
      "Lang": "ky",
      "CaptionKey": "translation",
      "CaptionName": "котормо",
      "YoutubeSynced": true
    },
    {
      "ID": "iqQClokLwBgzF_T8Qvjq-I0NqB27hPGmZwdpL5HEJBuAuOVDVGfE4g==",
      "Lang": "lb",
      "CaptionKey": "translation",
      "CaptionName": "Iwwersetzung",
      "YoutubeSynced": true
    },
    {
      "ID": "3h9qIxCCvT5ZoUIAmQIk-BncIn5pChIz8K-NDdzN2foUNNVLnmTM3QPmNecQD3HaXktc519D15U=",
      "Lang": "lo",
      "CaptionKey": "translation",
      "CaptionName": "ການແປພາສາ",
      "YoutubeSynced": true
    },
    {
      "ID": "E_HROfXofR4iyCJLupmpRdp2Z8liE3QG1g1IA-epWAzW4ODpIOmBKg==",
      "Lang": "lt",
      "CaptionKey": "translation",
      "CaptionName": "Vertimas",
      "YoutubeSynced": true
    },
    {
      "ID": "1erJ8FvMohy9FEwJhB3j8RyZCUxS_wVSvz4eVv7A56Otb53IhyCTtA==",
      "Lang": "lv",
      "CaptionKey": "translation",
      "CaptionName": "Tulkošana",
      "YoutubeSynced": true
    },
    {
      "ID": "IreX1FQEDEF4zICnZZulP-EO6-nL7oyboSrLvdUnu7v-JHs2Nlc5gg==",
      "Lang": "mg",
      "CaptionKey": "translation",
      "CaptionName": "Translation",
      "YoutubeSynced": true
    },
    {
      "ID": "y9SgjMpLDsm7WcEeXfQuLSpkMf5vd-i-V4QdjLtgmKbsmPVw_bdWaiRVvkndeW6u",
      "Lang": "mi",
      "CaptionKey": "translation",
      "CaptionName": "Whakamaoritanga",
      "YoutubeSynced": true
    },
    {
      "ID": "iqQClokLwBiugZknPdO59nBngzaJzQcz7y0b2nBbWW3wYLi1P6T51w==",
      "Lang": "mk",
      "CaptionKey": "translation",
      "CaptionName": "Превод",
      "YoutubeSynced": true
    },
    {
      "ID": "3h9qIxCCvT483grmahUdsVN0hlZQfoJ8kiuZeSLwspVDvPQTklHRnv0fzUY2xWfp5bT0oKuxf5w=",
      "Lang": "ml",
      "CaptionKey": "translation",
      "CaptionName": "വിവർത്തനം",
      "YoutubeSynced": true
    },
    {
      "ID": "IBDhIrwa2nf64hRCe9LJgMj5l0ol16BTIYV--KIfwrwvUIB4_gcG8DDJTHkH7BU0",
      "Lang": "mn",
      "CaptionKey": "translation",
      "CaptionName": "Орчуулга",
      "YoutubeSynced": true
    },
    {
      "ID": "R8oRTUMmsajeP6_pfbwpaQFH7NHRx4Th-dV2LWIqrGBcDvGeCDLCqWvd_Zs-Fnoh",
      "Lang": "mr",
      "CaptionKey": "translation",
      "CaptionName": "भाषांतर",
      "YoutubeSynced": true
    },
    {
      "ID": "1erJ8FvMohxfvxwaGkfxc9aDN52uu8DNHstK0ePXK8vwmDYw0c7Wag==",
      "Lang": "ms",
      "CaptionKey": "translation",
      "CaptionName": "Terjemahan",
      "YoutubeSynced": true
    },
    {
      "ID": "IreX1FQEDEHIiSkvzZ2yuUeqXhj1aTpEtZD7wqSNzB8gS3P5pJ5Tnw==",
      "Lang": "mt",
      "CaptionKey": "translation",
      "CaptionName": "Traduzzjoni",
      "YoutubeSynced": true
    },
    {
      "ID": "xDFGwzHOYCLj56tAYFHFC9EA3E2v9MN7xgVlLtaVFhbWMOs8RA1sqik2A1Na1TWGmlD6TKVx4S8=",
      "Lang": "my",
      "CaptionKey": "translation",
      "CaptionName": "ဘာသာပြန်",
      "YoutubeSynced": true
    },
    {
      "ID": "R24p2TPh1XQdnv-bE1zTU4BOtg5ID3Qg0-yARYEYhxRG834Zn_07jGaDYUqxxEr0",
      "Lang": "ne",
      "CaptionKey": "translation",
      "CaptionName": "अनुवाद",
      "YoutubeSynced": true
    },
    {
      "ID": "Nm7y8tv28YhNg5QJxY2JP9s052wLaz3niFhGCWBaEqUxR7nPuuF6cw==",
      "Lang": "nl",
      "CaptionKey": "translation",
      "CaptionName": "Vertaling",
      "YoutubeSynced": true
    },
    {
      "ID": "iqQClokLwBgDRtkF93mwlpPVXfUw9NmZN6dXgHnO5BQOmPe-GwoNRA==",
      "Lang": "no",
      "CaptionKey": "translation",
      "CaptionName": "Oversettelse",
      "YoutubeSynced": true
    },
    {
      "ID": "R24p2TPh1XQdsHajvh_DTgcxyUbowhWBbtVFUqyfn0YPINNjHLeoOv6BFpZeTix5",
      "Lang": "pa",
      "CaptionKey": "translation",
      "CaptionName": "ਅਨੁਵਾਦ",
      "YoutubeSynced": true
    },
    {
      "ID": "iqQClokLwBjtEgRQpfDO82UWGXHkS7fYYge49RFk51CFFJicWtxCiQ==",
      "Lang": "pl",
      "CaptionKey": "translation",
      "CaptionName": "Tłumaczenie",
      "YoutubeSynced": true
    },
    {
      "ID": "1erJ8FvMohy7dOSznn9Uor5yO_jUOJ653cVjUDkC-418ESfTSXSOkw==",
      "Lang": "ps",
      "CaptionKey": "translation",
      "CaptionName": "ژباړه",
      "YoutubeSynced": true
    },
    {
      "ID": "1erJ8FvMohyE3wTWwPAW-lPimZqXdMHQ4hGqVblv4Oje6uxrGSv33A==",
      "Lang": "pt",
      "CaptionKey": "translation",
      "CaptionName": "Tradução",
      "YoutubeSynced": true
    },
    {
      "ID": "Nm7y8tv28Yh9aeHX5o_XzFXs3ST_l4tPnXJUeWEDBHjOAJCFNd_ObQ==",
      "Lang": "ro",
      "CaptionKey": "translation",
      "CaptionName": "Traducere",
      "YoutubeSynced": true
    },
    {
      "ID": "ULZxVxgFpocPQgxN3JO9Qlef2gx9j1U1NHIbVFHcYk6ut-D3X0tXAQ==",
      "Lang": "ru",
      "CaptionKey": "translation",
      "CaptionName": "Перевод",
      "YoutubeSynced": true
    },
    {
      "ID": "1erJ8FvMohzS8Tv7al6UWLVW8Pi-PGTU_QtZEJuhttjLjK2QFwhTQg==",
      "Lang": "sd",
      "CaptionKey": "translation",
      "CaptionName": "ترجمو",
      "YoutubeSynced": true
    },
    {
      "ID": "3h9qIxCCvT4C4uanDhcQhMJxrvIOIs9sFL4ampvKr-J9nvIWiA90hJHvXG7XNyfFB-Wtv9HmyaQ=",
      "Lang": "si",
      "CaptionKey": "translation",
      "CaptionName": "පරිවර්තනය",
      "YoutubeSynced": true
    },
    {
      "ID": "FWk0sVP1c2ldBh0Pj43Ur9ViWRHTLti4MIHl1rG8YmXIgFDeMgmxJQ==",
      "Lang": "sk",
      "CaptionKey": "translation",
      "CaptionName": "preklad",
      "YoutubeSynced": true
    },
    {
      "ID": "go_BNZyueXTLqSXq7_epy30ozlY07P7FhlVTYOdWe5I=",
      "Lang": "sl",
      "CaptionKey": "translation",
      "CaptionName": "Prevod",
      "YoutubeSynced": true
    },
    {
      "ID": "iqQClokLwBgpSdxte0y0MBwvlfwEp5NF9knnpWAbqI9drx250z__Dw==",
      "Lang": "sm",
      "CaptionKey": "translation",
      "CaptionName": "Faʻaliliuga",
      "YoutubeSynced": true
    },
    {
      "ID": "FWk0sVP1c2kHIANlKSGUxMHXQO6E4D8bfoQ_Zqy2tRhQY1SQtZpLOw==",
      "Lang": "sn",
      "CaptionKey": "translation",
      "CaptionName": "Dudziro",
      "YoutubeSynced": true
    },
    {
      "ID": "Nm7y8tv28YgYmd7yyHgl9862RKm_-oHwVu4EUKC6zK-ag4Oyu7OvwQ==",
      "Lang": "so",
      "CaptionKey": "translation",
      "CaptionName": "Tarjumida",
      "YoutubeSynced": true
    },
    {
      "ID": "Nm7y8tv28Yi16k37X-p42miW8zpX4-bYUMcotFMUuuPqndiyTRWhNg==",
      "Lang": "sq",
      "CaptionKey": "translation",
      "CaptionName": "përkthim",
      "YoutubeSynced": true
    },
    {
      "ID": "iqQClokLwBhBxYd8plOIikLRHdi6w05FG0NYabuT_8l0W3OgBhzCkg==",
      "Lang": "sr",
      "CaptionKey": "translation",
      "CaptionName": "Превод",
      "YoutubeSynced": true
    },
    {
      "ID": "Nm7y8tv28YjBPy2byOcXCMTx1_7lmU9lbzJjJgsJjauYR4H0DnAqeQ==",
      "Lang": "st",
      "CaptionKey": "translation",
      "CaptionName": "Phetolelo",
      "YoutubeSynced": true
    },
    {
      "ID": "1erJ8FvMohx1m5o3fJaLe7On0XcmD0oLhS42_5dN5GVOy6ZdcCtKnw==",
      "Lang": "su",
      "CaptionKey": "translation",
      "CaptionName": "Tarjamahan",
      "YoutubeSynced": true
    },
    {
      "ID": "ULZxVxgFpodwGJ-x1hhEKMSmvqFTdPUeBalfRMF1Tn5sDUPMZNllzw==",
      "Lang": "sv",
      "CaptionKey": "translation",
      "CaptionName": "Översättning",
      "YoutubeSynced": true
    },
    {
      "ID": "FWk0sVP1c2njKrkb4wwMU_oJwcKMT6iprZhW8LeeFRvCb1mwgEC5yQ==",
      "Lang": "sw",
      "CaptionKey": "translation",
      "CaptionName": "Tafsiri",
      "YoutubeSynced": true
    },
    {
      "ID": "R6fgS2D7ure-IByO6fUAZXZMlgMXLmjmmCHLc_AF6VLU1z73ZSwO-qB_BVj3Lt9BRnDt0QEUpckiPR9FKQ6KlDwAaTuzTXlM",
      "Lang": "ta",
      "CaptionKey": "translation",
      "CaptionName": "மொழிபெயர்ப்பு",
      "YoutubeSynced": true
    },
    {
      "ID": "R8oRTUMmsaiEV-raEDes8wt9LpASe5SMZDv1LVtTVyyVj4-2Nrhhf_H-unlVYmTx",
      "Lang": "te",
      "CaptionKey": "translation",
      "CaptionName": "అనువాదం",
      "YoutubeSynced": true
    },
    {
      "ID": "ULZxVxgFpodQCQzUum8CuPQhDwgTwDx7zTXzLzSbTAtps3UgYdYhkg==",
      "Lang": "tg",
      "CaptionKey": "translation",
      "CaptionName": "Тарҷума",
      "YoutubeSynced": true
    },
    {
      "ID": "R24p2TPh1XTmkf5A6wzCa0n_WifCKReXnynRdSH9EtXJ27Yl0tU2VBDu3QHdLNCp",
      "Lang": "th",
      "CaptionKey": "translation",
      "CaptionName": "การแปล",
      "YoutubeSynced": true
    },
    {
      "ID": "E_HROfXofR6jpevmr7QYulFInuzq9e5CjP4rViRkc7XPH5oC2a5e4w==",
      "Lang": "tr",
      "CaptionKey": "translation",
      "CaptionName": "Tercüme",
      "YoutubeSynced": true
    },
    {
      "ID": "IBDhIrwa2nfV-0LJJQEqbPrz78L4K8SHhpAt3Q941iuEmu6siaPbI5mnJY8b1zCq",
      "Lang": "uk",
      "CaptionKey": "translation",
      "CaptionName": "Переклад",
      "YoutubeSynced": true
    },
    {
      "ID": "1erJ8FvMohxzx_LwtxTHy7eLetibxCkgvq-1pmbiAa70sGH6ZIeD2w==",
      "Lang": "ur",
      "CaptionKey": "translation",
      "CaptionName": "ترجمہ",
      "YoutubeSynced": true
    },
    {
      "ID": "FWk0sVP1c2kk4efsr4XIaHVj3b00fDMXO66ShOhOaPBRYOOeykShUw==",
      "Lang": "uz",
      "CaptionKey": "translation",
      "CaptionName": "Tarjima",
      "YoutubeSynced": true
    },
    {
      "ID": "go_BNZyueXTXbBHVa2W8u_I4Dt993SLK8p8az20t_Ic=",
      "Lang": "vi",
      "CaptionKey": "translation",
      "CaptionName": "Dịch",
      "YoutubeSynced": true
    },
    {
      "ID": "1erJ8FvMohwuudtud9CIB98_qU3S33edSsvB7JnKj9qhogJ3J5X-ng==",
      "Lang": "xh",
      "CaptionKey": "translation",
      "CaptionName": "Inguqulelo",
      "YoutubeSynced": true
    },
    {
      "ID": "ylsUEj_StoyO88EC-5M6Ky0o-ThBNqlzxYe31H_uELoV9DSxJIN_SqYlTjbz66gV",
      "Lang": "yi",
      "CaptionKey": "translation",
      "CaptionName": "איבערזעצונג",
      "YoutubeSynced": true
    },
    {
      "ID": "FWk0sVP1c2kY5D6uj_0WXr4fZegvqhxFS4I4AcdrFgjoLfnu07Tktw==",
      "Lang": "yo",
      "CaptionKey": "translation",
      "CaptionName": "Itumọ",
      "YoutubeSynced": true
    },
    {
      "ID": "IreX1FQEDEH9oi5MrLmfjKB0BCHl7vOtS0V6QXAJIBEUfSf-Euo_Yw==",
      "Lang": "zh-Hans",
      "CaptionKey": "translation",
      "CaptionName": "翻译",
      "YoutubeSynced": true
    },
    {
      "ID": "IreX1FQEDEH9oi5MrLmfjPe6quDQN3Kj6-99uLRQ0Wwx4UGGR9UVfg==",
      "Lang": "zh-Hant",
      "CaptionKey": "translation",
      "CaptionName": "翻譯",
      "YoutubeSynced": true
    },
    {
      "ID": "1erJ8FvMohzOJfGWvU1F4lUcdhbJRGueZ2wEmidAYwph_CrTLivbmw==",
      "Lang": "zu",
      "CaptionKey": "translation",
      "CaptionName": "Ukuhumusha",
      "YoutubeSynced": true
    }
  ]
}