{
  "VideoFile": "grammar-en-beginner-simple_89_A.mp4",
  "Captions": [
    {
      "ID": "1rcmiKF58wZjwVS-JjSBGwZDnhkKfN4MxgV8BDSxtv198kK3HPwPpQ==",
      "Lang": "af",
      "CaptionKey": "translation",
      "CaptionName": "vertaling",
      "YoutubeSynced": true
    },
    {
      "ID": "-PES112HyX0p_KCde7h5qjNhsanu_3s_qz8lILamoEk17xvKgIDMTg==",
      "Lang": "am",
      "CaptionKey": "translation",
      "CaptionName": "ትርጉም",
      "YoutubeSynced": true
    },
    {
      "ID": "bfCddlTfdMIuSDEjGJJNmCEUTe-VhXXXB4exAtKWwpqoewA7CEdMgA==",
      "Lang": "ar",
      "CaptionKey": "translation",
      "CaptionName": "ترجمة",
      "YoutubeSynced": true
    },
    {
      "ID": "bfCddlTfdMKOAd-GempUGWK6eAmJsmonUzbysr6_lpPym6d0dQ1LZQ==",
      "Lang": "az",
      "CaptionKey": "translation",
      "CaptionName": "Tərcümə",
      "YoutubeSynced": true
    },
    {
      "ID": "LDVtAMrq3Mb_NZ8xvcKqaNJAfQ-ja43fkWUu4DUalg70b30elKEOl03M-Xjuc00d",
      "Lang": "be",
      "CaptionKey": "translation",
      "CaptionName": "Пераклад",
      "YoutubeSynced": true
    },
    {
      "ID": "-PES112HyX2UU_qgqesNvWCW5khjwyuW1HDHLCEARFFsLST2Xt3t5w==",
      "Lang": "bg",
      "CaptionKey": "translation",
      "CaptionName": "превод",
      "YoutubeSynced": true
    },
    {
      "ID": "ctlUEQvrA_yrrIP4we8OKUi66EGpZqTFP-kN5aQMTBkek7a01hDrdB7kHJWWQ46p",
      "Lang": "bn",
      "CaptionKey": "translation",
      "CaptionName": "অনুবাদ",
      "YoutubeSynced": true
    },
    {
      "ID": "VMyfvKqWs_Qa5TPFst7bzFfICQmgd9T2F6GPYQvHJG0=",
      "Lang": "bs",
      "CaptionKey": "translation",
      "CaptionName": "Prevod",
      "YoutubeSynced": true
    },
    {
      "ID": "bfCddlTfdMIgC4nPsG61aHAL12zFCcmMBXcb3Ot7zkFrGiToMl_yug==",
      "Lang": "ca",
      "CaptionKey": "translation",
      "CaptionName": "Traducció",
      "YoutubeSynced": true
    },
    {
      "ID": "bfCddlTfdMIkdQrUM8eut-qCey_OvgoRtLw-kMDmAfuGBR7bqMz0OA==",
      "Lang": "co",
      "CaptionKey": "translation",
      "CaptionName": "Traduzione",
      "YoutubeSynced": true
    },
    {
      "ID": "O2mT2V8pNmAg4S9-k2qOj2LIaTIatjTxRbS4bBMK2G_6zivbEHzw_Q==",
      "Lang": "cs",
      "CaptionKey": "translation",
      "CaptionName": "Překlad",
      "YoutubeSynced": true
    },
    {
      "ID": "NdTS0CxnioRLFgwMa868Ae5INleBjf4HPOCeOguuxstHoReusHDKKg==",
      "Lang": "cy",
      "CaptionKey": "translation",
      "CaptionName": "Cyfieithiad",
      "YoutubeSynced": true
    },
    {
      "ID": "-ywW4KnkPlOzF6W8NBq3LAQp5uYeRt3McZP-zUaFJbX_J0cA2Z8SXQ==",
      "Lang": "da",
      "CaptionKey": "translation",
      "CaptionName": "Oversættelse",
      "YoutubeSynced": true
    },
    {
      "ID": "-PES112HyX3121sKx413oIhWOW9-0s4pMBt1OH6fggn8mipZkhf_jg==",
      "Lang": "de",
      "CaptionKey": "translation",
      "CaptionName": "Übersetzung",
      "YoutubeSynced": true
    },
    {
      "ID": "ctlUEQvrA_yWGBbpUGmmH_w3P8LFK3WqzF9q3kZSDvpFUTRGfY9Z6HR4iDjfq5Sd",
      "Lang": "el",
      "CaptionKey": "translation",
      "CaptionName": "Μετάφραση",
      "YoutubeSynced": true
    },
    {
      "ID": "NdTS0CxnioRAlXD9ePDb6nXzIeUSHCWiUQtu9LZJV--gWbqOrbO4wQ==",
      "Lang": "en",
      "CaptionKey": "translation",
      "CaptionName": "Translation",
      "YoutubeSynced": true
    },
    {
      "ID": "nzI5pW_iBA2aEZF0wDeQTi55ExWk90FQAYknikP2fj3dSpdg7XQ9d-NwchCnLiu1",
      "Lang": "en",
      "CaptionKey": "ruby",
      "CaptionName": "Pronunciation - IPA",
      "YoutubeSynced": true
    },
    {
      "ID": "NdTS0CxnioSKeg5QudctkWRhGZgnUbrC62I8Jce5z9ozItcuMSUPbA==",
      "Lang": "es",
      "CaptionKey": "translation",
      "CaptionName": "Traducción",
      "YoutubeSynced": true
    },
    {
      "ID": "VMyfvKqWs_REpdSC2ANH10PN5M9CntsQ64CtZGfq8Ik=",
      "Lang": "et",
      "CaptionKey": "translation",
      "CaptionName": "Tõlge",
      "YoutubeSynced": true
    },
    {
      "ID": "1rcmiKF58wZy-HlLnm9GAP2CKKTvkYoRIVO_LRCotent7bAzF0GUFA==",
      "Lang": "eu",
      "CaptionKey": "translation",
      "CaptionName": "Itzulpena",
      "YoutubeSynced": true
    },
    {
      "ID": "bfCddlTfdMKyT80yaVWUFy0tQmRMsiPML5CkgjEnCsP-tLfzWLl1XQ==",
      "Lang": "fa",
      "CaptionKey": "translation",
      "CaptionName": "ترجمه",
      "YoutubeSynced": true
    },
    {
      "ID": "bfCddlTfdMIcDMa6axFGslW9Fh2cvOwyozitdswVTZEfYyQUbg7wgw==",
      "Lang": "fi",
      "CaptionKey": "translation",
      "CaptionName": "Käännös",
      "YoutubeSynced": true
    },
    {
      "ID": "NdTS0CxnioS8-aFRqPunKgCk4_VCE6w70_dzZm06LqvjGJ-VMMMVNg==",
      "Lang": "fil",
      "CaptionKey": "translation",
      "CaptionName": "Pagsasalin",
      "YoutubeSynced": true
    },
    {
      "ID": "bfCddlTfdMKn-JBR0sNwa8vXD4dKRgJrjTNzzL7KhXRwy-8lzDyZzg==",
      "Lang": "fr",
      "CaptionKey": "translation",
      "CaptionName": "Traduction",
      "YoutubeSynced": true
    },
    {
      "ID": "bfCddlTfdMI4zRIzKF-_y_QULnVaDLlUT0EoY4hH6cHcQEQz5h7qOw==",
      "Lang": "fy",
      "CaptionKey": "translation",
      "CaptionName": "Oersetting",
      "YoutubeSynced": true
    },
    {
      "ID": "ctlUEQvrA_ycGmbUuTs0KYj3t5UgX0uK7KcVdTtQwOp_3-w9noHwdtXQTCfRqHKq",
      "Lang": "gd",
      "CaptionKey": "translation",
      "CaptionName": "Eadar-theangachadh",
      "YoutubeSynced": true
    },
    {
      "ID": "bfCddlTfdMKbBrRR4foLSQwg29rFnyiT8NduRjS_frTETeWSwD85WA==",
      "Lang": "gl",
      "CaptionKey": "translation",
      "CaptionName": "Tradución",
      "YoutubeSynced": true
    },
    {
      "ID": "ctlUEQvrA_wbCojZzRjjRNqQpQOhcz4isAhu6rGsFKp-HrSc1_mQmnFB_f_1ttVv",
      "Lang": "gu",
      "CaptionKey": "translation",
      "CaptionName": "અનુવાદ",
      "YoutubeSynced": true
    },
    {
      "ID": "jS6xn4H0amiyUVobk-i76YgF4wOTbtE5rhCcYUb4l-2clDgd_d-FaQ==",
      "Lang": "ha",
      "CaptionKey": "translation",
      "CaptionName": "Fassara",
      "YoutubeSynced": true
    },
    {
      "ID": "ctlUEQvrA_xcU6oEj3fFdxSnULDvn9daXQOmL_GoLy9cIh8W4UiWhjC28F9aFNhg",
      "Lang": "hi",
      "CaptionKey": "translation",
      "CaptionName": "अनुवाद",
      "YoutubeSynced": true
    },
    {
      "ID": "O2mT2V8pNmBQE33MKIpq9YYhF9086uMd2AQadvnxq-y5xvTpFnNOFw==",
      "Lang": "hr",
      "CaptionKey": "translation",
      "CaptionName": "Prijevod",
      "YoutubeSynced": true
    },
    {
      "ID": "bfCddlTfdMLDHQzGJ-vs_BCvWcU2Y0yFETGeNUPpvp46WkTFNYqdWQ==",
      "Lang": "hu",
      "CaptionKey": "translation",
      "CaptionName": "Fordítás",
      "YoutubeSynced": true
    },
    {
      "ID": "7n_L_ggbQ26Bx0Jc5IzXOzmeIcWV0D9lQvaEF32EOdwDaAJ8XaY5vehQvMc8HbFr3_A9oDakRtQ=",
      "Lang": "hy",
      "CaptionKey": "translation",
      "CaptionName": "Թարգմանություն",
      "YoutubeSynced": true
    },
    {
      "ID": "bfCddlTfdMKOqOBVMlbApl7IId8iGaCMynb_67salWIHWmTVVGQ8ZQ==",
      "Lang": "id",
      "CaptionKey": "translation",
      "CaptionName": "Terjemahan",
      "YoutubeSynced": true
    },
    {
      "ID": "O2mT2V8pNmBGHbbw8_eChOAcL7txqWR1hOLe4rwqBkBabAW6tZPtAQ==",
      "Lang": "ig",
      "CaptionKey": "translation",
      "CaptionName": "Ntughari",
      "YoutubeSynced": true
    },
    {
      "ID": "1rcmiKF58wZyYeHSIhyzeqixkfLbpdq1w2PeBcg4lDMi0Rv_NN8j8g==",
      "Lang": "is",
      "CaptionKey": "translation",
      "CaptionName": "Þýðing",
      "YoutubeSynced": true
    },
    {
      "ID": "bfCddlTfdMJ_ckfYZ5BgT6ilwT-ClHirhh12J0NFMd4_wkw192JU8w==",
      "Lang": "it",
      "CaptionKey": "translation",
      "CaptionName": "Traduzione",
      "YoutubeSynced": true
    },
    {
      "ID": "bfCddlTfdMK-fWb5LraKrTVPAna-yomeQp7-eUi9H5Uyt3IKZDVXdQ==",
      "Lang": "iw",
      "CaptionKey": "translation",
      "CaptionName": "תרגום",
      "YoutubeSynced": true
    },
    {
      "ID": "VMyfvKqWs_SxK2TK33u0lKrvMLJMIwisJcFrk1mZdO0=",
      "Lang": "ja",
      "CaptionKey": "translation",
      "CaptionName": "翻訳",
      "YoutubeSynced": true
    },
    {
      "ID": "1rcmiKF58wYVwTu087MYTyvqzHzZBIyof12j8POYJQPC0N2A-GksVA==",
      "Lang": "jv",
      "CaptionKey": "translation",
      "CaptionName": "Ngartekne",
      "YoutubeSynced": true
    },
    {
      "ID": "-a84EBJ3nnP5dVskQjNnpeKfHxv7I1eVIeDtheEnwSld2b85JqVt3ubOFSuyQgqslu03-THP5Cc=",
      "Lang": "ka",
      "CaptionKey": "translation",
      "CaptionName": "თარგმანი",
      "YoutubeSynced": true
    },
    {
      "ID": "NrY0pIMpXMXHsCLpyPvPqzh_6O8jtzRG-cMtl8Rs9vYNsaUVFU9ZTg==",
      "Lang": "kk",
      "CaptionKey": "translation",
      "CaptionName": "Аударма",
      "YoutubeSynced": true
    },
    {
      "ID": "fChJ16LaeIxTr-5fkEkOafeyMwqc7KknccRuhdloC4Mn04wb59jbQDBBPV3r5-rIAkpfPmhi0FA=",
      "Lang": "km",
      "CaptionKey": "translation",
      "CaptionName": "ការបកប្រែ",
      "YoutubeSynced": true
    },
    {
      "ID": "ctlUEQvrA_yrJwktw0G4mkbxseK6honWBMq5JyDVtQ3fDZbAsD6Lbvesy_YARINn",
      "Lang": "kn",
      "CaptionKey": "translation",
      "CaptionName": "ಅನುವಾದ",
      "YoutubeSynced": true
    },
    {
      "ID": "VMyfvKqWs_SS1YIaLY9iSpFlcnWLwJZEEgZYrUzRIh8=",
      "Lang": "ko",
      "CaptionKey": "translation",
      "CaptionName": "번역",
      "YoutubeSynced": true
    },
    {
      "ID": "VMyfvKqWs_RZW7RxpqEiwZY9XiXRk2OFTNcYkcw2Saw=",
      "Lang": "ku",
      "CaptionKey": "translation",
      "CaptionName": "Werger",
      "YoutubeSynced": true
    },
    {
      "ID": "NrY0pIMpXMVK4zUQQ8KENGVXiM1vCEdpAbMNyiZcUAFfzJrLGmn5hQ==",
      "Lang": "ky",
      "CaptionKey": "translation",
      "CaptionName": "котормо",
      "YoutubeSynced": true
    },
    {
      "ID": "-PES112HyX1x0W0ZTdFw4ah9EQtJBsTb-HWcD-puSevMNVQb78R0pg==",
      "Lang": "lb",
      "CaptionKey": "translation",
      "CaptionName": "Iwwersetzung",
      "YoutubeSynced": true
    },
    {
      "ID": "fChJ16LaeIyyDUTcyHxwRezy4QjQWzq8gKH9sDwFEvxZAb3q1xXuaSnbyF47zUil-eJxnm9Teag=",
      "Lang": "lo",
      "CaptionKey": "translation",
      "CaptionName": "ການແປພາສາ",
      "YoutubeSynced": true
    },
    {
      "ID": "O2mT2V8pNmA1_y9ZoPaGVB7FkpOyChOrCelDeCU_7_5eQQTjU5yCpQ==",
      "Lang": "lt",
      "CaptionKey": "translation",
      "CaptionName": "Vertimas",
      "YoutubeSynced": true
    },
    {
      "ID": "bfCddlTfdMKo7X1ZNIKW9Yo9-hACUDELFGtsS7CanopRJM_sM0mIOw==",
      "Lang": "lv",
      "CaptionKey": "translation",
      "CaptionName": "Tulkošana",
      "YoutubeSynced": true
    },
    {
      "ID": "NdTS0CxnioTreWAcoqylPJm5x6PwAux1398CtLzdypivXzjf9npKhA==",
      "Lang": "mg",
      "CaptionKey": "translation",
      "CaptionName": "Translation",
      "YoutubeSynced": true
    },
    {
      "ID": "55LlmfVqyNT5tUxF_5epwwk1xnmq8MNPrlGw88KpC4yw8wJocaif3pROPFoZeF4_",
      "Lang": "mi",
      "CaptionKey": "translation",
      "CaptionName": "Whakamaoritanga",
      "YoutubeSynced": true
    },
    {
      "ID": "-PES112HyX1jg2nE5M_kE6Sw5QbLreiVIuyhD4rKZ2lDlMTQgnRZZA==",
      "Lang": "mk",
      "CaptionKey": "translation",
      "CaptionName": "Превод",
      "YoutubeSynced": true
    },
    {
      "ID": "fChJ16LaeIycKl2RZw-pczuLtT6Dd_p0QEn2i9fJ1cANB6XSv0FQukmC0Rqxp6ldx9PcK9K5SY0=",
      "Lang": "ml",
      "CaptionKey": "translation",
      "CaptionName": "വിവർത്തനം",
      "YoutubeSynced": true
    },
    {
      "ID": "LDVtAMrq3MbqOCk0dMiuDfKXljKvNBgDToJTMFfo7Re_6riT96gmosapaGe8e7dZ",
      "Lang": "mn",
      "CaptionKey": "translation",
      "CaptionName": "Орчуулга",
      "YoutubeSynced": true
    },
    {
      "ID": "yqMzFs0Aj8RoBt5M1LfY7_o929ow9ch6nVJduOUe0mSpXYO2kE4FO8lMFwe2d9cN",
      "Lang": "mr",
      "CaptionKey": "translation",
      "CaptionName": "भाषांतर",
      "YoutubeSynced": true
    },
    {
      "ID": "bfCddlTfdMLoEcGY1M4bWs9sIwhQWoexGHeovBg_-jQncv2sCbnBwg==",
      "Lang": "ms",
      "CaptionKey": "translation",
      "CaptionName": "Terjemahan",
      "YoutubeSynced": true
    },
    {
      "ID": "NdTS0CxnioS_BnC5mkaThoEoz_jSE2Pu0nqRJJXU1uL3nfM6PPIfjA==",
      "Lang": "mt",
      "CaptionKey": "translation",
      "CaptionName": "Traduzzjoni",
      "YoutubeSynced": true
    },
    {
      "ID": "-a84EBJ3nnOJf3dN9cuBCINMc7c0yIOIs7vDkzcCkPzEAiSvZqTPug9BBuKCVyqNylLGsd-YE4Y=",
      "Lang": "my",
      "CaptionKey": "translation",
      "CaptionName": "ဘာသာပြန်",
      "YoutubeSynced": true
    },
    {
      "ID": "ctlUEQvrA_wwUiEKsu3nPc3dNrPo5yfSf5nVMIxKxF6PWsJ6dJ0YDAAJozq-A4yi",
      "Lang": "ne",
      "CaptionKey": "translation",
      "CaptionName": "अनुवाद",
      "YoutubeSynced": true
    },
    {
      "ID": "1rcmiKF58wYGCnEJo-w5EH9qZa_wMtZDsDsjuvLQ_7EM1Lo3eHg4Mg==",
      "Lang": "nl",
      "CaptionKey": "translation",
      "CaptionName": "Vertaling",
      "YoutubeSynced": true
    },
    {
      "ID": "-PES112HyX0NA0OR2IczQMTkKVICkbEIU77Env0mQCUO4FuJsZayzw==",
      "Lang": "no",
      "CaptionKey": "translation",
      "CaptionName": "Oversettelse",
      "YoutubeSynced": true
    },
    {
      "ID": "ctlUEQvrA_y0PnJ-y4AxDfjxHTelI0Y6vmTorPUWIf4YhKV6WerVd6N4-xSurxBV",
      "Lang": "pa",
      "CaptionKey": "translation",
      "CaptionName": "ਅਨੁਵਾਦ",
      "YoutubeSynced": true
    },
    {
      "ID": "-PES112HyX39T8VGK7AgJy5tb9pF6oDQV4Dptisx4J8teqrqVsW-0g==",
      "Lang": "pl",
      "CaptionKey": "translation",
      "CaptionName": "Tłumaczenie",
      "YoutubeSynced": true
    },
    {
      "ID": "bfCddlTfdMJ66Zssul_rJHY6nsun-qvZSVVFpxTREl0FBWSUFcpvHw==",
      "Lang": "ps",
      "CaptionKey": "translation",
      "CaptionName": "ژباړه",
      "YoutubeSynced": true
    },
    {
      "ID": "bfCddlTfdMJcIJzBgnpiOcaytimocHTtYRQdh6p7Sc17YB9wAGdt2w==",
      "Lang": "pt",
      "CaptionKey": "translation",
      "CaptionName": "Tradução",
      "YoutubeSynced": true
    },
    {
      "ID": "1rcmiKF58waZfNelfYyavoOoHxn9yn9uxEq0YH2rS16ma5knDjxzDA==",
      "Lang": "ro",
      "CaptionKey": "translation",
      "CaptionName": "Traducere",
      "YoutubeSynced": true
    },
    {
      "ID": "NrY0pIMpXMV6Yc3i2XzO2-OnMfWgTUW1Of3qxrF84-BcCEjwOM1mDA==",
      "Lang": "ru",
      "CaptionKey": "translation",
      "CaptionName": "Перевод",
      "YoutubeSynced": true
    },
    {
      "ID": "bfCddlTfdMLelgA6M-aznqDWRhdUlfHxjNnI6UnCu4Cla_elDTIizw==",
      "Lang": "sd",
      "CaptionKey": "translation",
      "CaptionName": "ترجمو",
      "YoutubeSynced": true
    },
    {
      "ID": "fChJ16LaeIxYjgEZzbpVgGZuKI8iTnvHNh8pRUTlx8irPwWNM6ygImA-CUSdoqSrIdGV7GHdzZY=",
      "Lang": "si",
      "CaptionKey": "translation",
      "CaptionName": "පරිවර්තනය",
      "YoutubeSynced": true
    },
    {
      "ID": "jS6xn4H0ami3aVo0T0mp5TkTdAh6mhxrcGftpAHb6dO8x55XfwUSRg==",
      "Lang": "sk",
      "CaptionKey": "translation",
      "CaptionName": "preklad",
      "YoutubeSynced": true
    },
    {
      "ID": "VMyfvKqWs_ST2bCGiLuOXf_Iw8DXVgIFUw8CzfunAog=",
      "Lang": "sl",
      "CaptionKey": "translation",
      "CaptionName": "Prevod",
      "YoutubeSynced": true
    },
    {
      "ID": "-PES112HyX3WC9Ag1E5cg5p2INmCjjleIx9_ICZWVER2PjJbCd-i5w==",
      "Lang": "sm",
      "CaptionKey": "translation",
      "CaptionName": "Faʻaliliuga",
      "YoutubeSynced": true
    },
    {
      "ID": "jS6xn4H0ami3SGcdrcP1E_ny0i5kadtrM3wm5JWhWb6ZJokLkMTZ-Q==",
      "Lang": "sn",
      "CaptionKey": "translation",
      "CaptionName": "Dudziro",
      "YoutubeSynced": true
    },
    {
      "ID": "1rcmiKF58wY0YlYE2IDbAoKi19Gkf909O37RopdBzS8dW6X_Vxb56Q==",
      "Lang": "so",
      "CaptionKey": "translation",
      "CaptionName": "Tarjumida",
      "YoutubeSynced": true
    },
    {
      "ID": "1rcmiKF58wYovAzpzucIt_ueIH4MpaF-PdjIe-8a8Ja3AqKAanXp5w==",
      "Lang": "sq",
      "CaptionKey": "translation",
      "CaptionName": "përkthim",
      "YoutubeSynced": true
    },
    {
      "ID": "-PES112HyX0QglhEnheI_i_tbpw2VujA1KLKU4a0G68BYgM2Q-bPSA==",
      "Lang": "sr",
      "CaptionKey": "translation",
      "CaptionName": "Превод",
      "YoutubeSynced": true
    },
    {
      "ID": "1rcmiKF58wYDT1RkTvuK421sK1v7DKGlMowhRqpXDZtiPQl9-u9Cfg==",
      "Lang": "st",
      "CaptionKey": "translation",
      "CaptionName": "Phetolelo",
      "YoutubeSynced": true
    },
    {
      "ID": "bfCddlTfdMIDX8WpL0U-TaXODQJB_s-1GPek_dq5QY-2HrhktbGrXQ==",
      "Lang": "su",
      "CaptionKey": "translation",
      "CaptionName": "Tarjamahan",
      "YoutubeSynced": true
    },
    {
      "ID": "NrY0pIMpXMUXqkM3_iHf4iSqUKtjocxWWocvhjg2B-M7XA5EcesnUw==",
      "Lang": "sv",
      "CaptionKey": "translation",
      "CaptionName": "Översättning",
      "YoutubeSynced": true
    },
    {
      "ID": "jS6xn4H0amhhS8_y7zgHXSS4NniqlWfKNicEJeCkkyEnAgiDYfmZeA==",
      "Lang": "sw",
      "CaptionKey": "translation",
      "CaptionName": "Tafsiri",
      "YoutubeSynced": true
    },
    {
      "ID": "tVbLxO-hk1tz9-T1yAwG8I6fxpUNv45J8mImLHDUcOGfVFGepF9qpVDZFc-tDWhF1ECdmR2GldRoTAfEv_0OBozyN2t8Bu9O",
      "Lang": "ta",
      "CaptionKey": "translation",
      "CaptionName": "மொழிபெயர்ப்பு",
      "YoutubeSynced": true
    },
    {
      "ID": "yqMzFs0Aj8S8DJ6fsjTxJzbkx7GTfQB06QRHG49dMamepJGOF1JSL3aPp-AqeDTe",
      "Lang": "te",
      "CaptionKey": "translation",
      "CaptionName": "అనువాదం",
      "YoutubeSynced": true
    },
    {
      "ID": "NrY0pIMpXMU3M225aAge5C5XWD0TsmR8aRX7erlFCfTbuBFDhxAzlA==",
      "Lang": "tg",
      "CaptionKey": "translation",
      "CaptionName": "Тарҷума",
      "YoutubeSynced": true
    },
    {
      "ID": "ctlUEQvrA_woVQk3SD_C3XeSvJJoHd0CCAriDXUzT9JCmZ59-cv7oioXi9yjyez6",
      "Lang": "th",
      "CaptionKey": "translation",
      "CaptionName": "การแปล",
      "YoutubeSynced": true
    },
    {
      "ID": "O2mT2V8pNmAZiZ8Wd2ScqNmgEYBiHFkkFr7qCsOk1AufB-CQrCh6Gg==",
      "Lang": "tr",
      "CaptionKey": "translation",
      "CaptionName": "Tercüme",
      "YoutubeSynced": true
    },
    {
      "ID": "LDVtAMrq3Ma1uGrKjrvgAgAyMqi2RosTK5kRWi5kxuyrGRuBXqGpIDWv-mk67-hI",
      "Lang": "uk",
      "CaptionKey": "translation",
      "CaptionName": "Переклад",
      "YoutubeSynced": true
    },
    {
      "ID": "bfCddlTfdMLlSnOTtoVNm45_UmOozD2C887apZDgerb2ISsjjR7Xdw==",
      "Lang": "ur",
      "CaptionKey": "translation",
      "CaptionName": "ترجمہ",
      "YoutubeSynced": true
    },
    {
      "ID": "jS6xn4H0amgOmoVST7lzfyTtJtNZxXNY9Hu0HExXNtFj-6hZPoYF9A==",
      "Lang": "uz",
      "CaptionKey": "translation",
      "CaptionName": "Tarjima",
      "YoutubeSynced": true
    },
    {
      "ID": "VMyfvKqWs_Rk2Z0AncN3K9rocDKhcnL1sdJXqO8yrSk=",
      "Lang": "vi",
      "CaptionKey": "translation",
      "CaptionName": "Dịch",
      "YoutubeSynced": true
    },
    {
      "ID": "bfCddlTfdMK_lidt_wg8rAcA35-oB7MPnfnLoPkxGBH-iJiifAUuRg==",
      "Lang": "xh",
      "CaptionKey": "translation",
      "CaptionName": "Inguqulelo",
      "YoutubeSynced": true
    },
    {
      "ID": "h-CMj5LwYLr9HEoxjuc9lkojyhHreNRK39B8Pwoz0-c0SxHZr46VB049uN2Fm0wE",
      "Lang": "yi",
      "CaptionKey": "translation",
      "CaptionName": "איבערזעצונג",
      "YoutubeSynced": true
    },
    {
      "ID": "jS6xn4H0amgLPWA-L570N9g4wAhHEom-8_se3y960IDLj7eV7nUtgQ==",
      "Lang": "yo",
      "CaptionKey": "translation",
      "CaptionName": "Itumọ",
      "YoutubeSynced": true
    },
    {
      "ID": "NdTS0CxnioQ1XJL-pqLYKzAlPuuqJ1AR1Ghw_JeqaDP_vfUSsh0Ntw==",
      "Lang": "zh-Hans",
      "CaptionKey": "translation",
      "CaptionName": "翻译",
      "YoutubeSynced": true
    },
    {
      "ID": "NdTS0CxnioQ1XJL-pqLYK9HaibV0STdVcwI_kr6QfgMYPAOQh5Tc9g==",
      "Lang": "zh-Hant",
      "CaptionKey": "translation",
      "CaptionName": "翻譯",
      "YoutubeSynced": true
    },
    {
      "ID": "bfCddlTfdMIW0WjzL8yRDde5l4emMNjjWEpTN5MHx-PPhIlgFePAtw==",
      "Lang": "zu",
      "CaptionKey": "translation",
      "CaptionName": "Ukuhumusha",
      "YoutubeSynced": true
    }
  ]
}