{
  "VideoFile": "grammar-en-beginner-simple_6_IN.mp4",
  "Captions": [
    {
      "ID": "fOQda7F2FYf9HRbbWysazas8cXB5nI5j8Jlka_he-9vuCVMidPRRfA==",
      "Lang": "af",
      "CaptionKey": "translation",
      "CaptionName": "vertaling",
      "YoutubeSynced": true
    },
    {
      "ID": "7HJlejnn4TD8OEZ0K4L9QwsbxE7FeG1VL23DjWBOi-Gbiw45pT_Ucg==",
      "Lang": "am",
      "CaptionKey": "translation",
      "CaptionName": "ትርጉም",
      "YoutubeSynced": true
    },
    {
      "ID": "hdmqVqJ8F7BH6pM8cs0XUPWWv9S3stV5qEk9HDKr3zydZyOuTOw63w==",
      "Lang": "ar",
      "CaptionKey": "translation",
      "CaptionName": "ترجمة",
      "YoutubeSynced": true
    },
    {
      "ID": "hdmqVqJ8F7DALSkw4rT9K6C1WillSdk_neHyGg2I9NxzMWv5Kxi09A==",
      "Lang": "az",
      "CaptionKey": "translation",
      "CaptionName": "Tərcümə",
      "YoutubeSynced": true
    },
    {
      "ID": "yIOfl0nKoVLg7_9dr-R8rqYz1FgcJodPD3YaxbtNsDaP-vV76GJgb1Qlr4ZFu_b2",
      "Lang": "be",
      "CaptionKey": "translation",
      "CaptionName": "Пераклад",
      "YoutubeSynced": true
    },
    {
      "ID": "7HJlejnn4TC9F3CRe4PkCJ5Fq7fmLQhX2c0pTqdzprbuJgbRjf9ZEQ==",
      "Lang": "bg",
      "CaptionKey": "translation",
      "CaptionName": "превод",
      "YoutubeSynced": true
    },
    {
      "ID": "uZUGL_fTCYUfyHv_ZzTi1qS7K3H5fwFSIzw-gKuppDsVOX331SzFfokr7WTn18Zb",
      "Lang": "bn",
      "CaptionKey": "translation",
      "CaptionName": "অনুবাদ",
      "YoutubeSynced": true
    },
    {
      "ID": "-9uqKtGQhKp_l1ITvfPvnTXqPnA-6tmcrCSXJ6S3pOA=",
      "Lang": "bs",
      "CaptionKey": "translation",
      "CaptionName": "Prevod",
      "YoutubeSynced": true
    },
    {
      "ID": "hdmqVqJ8F7BdJuyYtRwGXrMKLbWvuQzQ9OSNoAxnJ30LKeIB8HN6bw==",
      "Lang": "ca",
      "CaptionKey": "translation",
      "CaptionName": "Traducció",
      "YoutubeSynced": true
    },
    {
      "ID": "hdmqVqJ8F7D78DO7PF5wCgyjDCgiIbFaKYoy6SinRjcCMe1lSBZIyg==",
      "Lang": "co",
      "CaptionKey": "translation",
      "CaptionName": "Traduzione",
      "YoutubeSynced": true
    },
    {
      "ID": "IrsplCWLkUl8YS3OGn6xc6W8vIsSDgS174H-8PUNrqn5bmsX29zWGg==",
      "Lang": "cs",
      "CaptionKey": "translation",
      "CaptionName": "Překlad",
      "YoutubeSynced": true
    },
    {
      "ID": "IhCUhjaUn0hB5gowUy3GgnH_zOpGpSeyLeIg4P6ES71O0KtCMH0sgg==",
      "Lang": "cy",
      "CaptionKey": "translation",
      "CaptionName": "Cyfieithiad",
      "YoutubeSynced": true
    },
    {
      "ID": "JineXiyfxmySkFP0TApywweq8dVFuZY2G6Aq93swOPoBhFpYatbf6g==",
      "Lang": "da",
      "CaptionKey": "translation",
      "CaptionName": "Oversættelse",
      "YoutubeSynced": true
    },
    {
      "ID": "7HJlejnn4TDgW2flPGOOfGAGc0r75R6Qdt1mNcbuUdQu2Wgqd2-ykw==",
      "Lang": "de",
      "CaptionKey": "translation",
      "CaptionName": "Übersetzung",
      "YoutubeSynced": true
    },
    {
      "ID": "uZUGL_fTCYXYUOnrNjNK2AhR_GziKTobVro-hSy1d2aOYQqoO4tuWLQykvmtN5OB",
      "Lang": "el",
      "CaptionKey": "translation",
      "CaptionName": "Μετάφραση",
      "YoutubeSynced": true
    },
    {
      "ID": "IhCUhjaUn0ha67VzL9UcDP8r8WQ_SejEhzyyZjIRULePMEUJ92_1Hg==",
      "Lang": "en",
      "CaptionKey": "translation",
      "CaptionName": "Translation",
      "YoutubeSynced": true
    },
    {
      "ID": "lPFrfu3Cvwl10HMmkDyOVL249DJ_sv70v1boWcJjC8QsXx6PReeA2yff8oKG94jR",
      "Lang": "en",
      "CaptionKey": "ruby",
      "CaptionName": "Pronunciation - IPA",
      "YoutubeSynced": true
    },
    {
      "ID": "IhCUhjaUn0iktQr-lB5Wlz1Yo99xeR1y7L59IBPm2gtxCYtUZiAW2A==",
      "Lang": "es",
      "CaptionKey": "translation",
      "CaptionName": "Traducción",
      "YoutubeSynced": true
    },
    {
      "ID": "-9uqKtGQhKoScn_4LXAvEECJEM7_clCua4ruZm1DFkw=",
      "Lang": "et",
      "CaptionKey": "translation",
      "CaptionName": "Tõlge",
      "YoutubeSynced": true
    },
    {
      "ID": "fOQda7F2FYfpmkKUqDh9scXn9PkDdKhDTAGvBo-p_nmAhz76LRpDWA==",
      "Lang": "eu",
      "CaptionKey": "translation",
      "CaptionName": "Itzulpena",
      "YoutubeSynced": true
    },
    {
      "ID": "hdmqVqJ8F7CrbyVrOZBkr9u5Oz93u5RAwFdGHQeIXyQrcYqCYovPSw==",
      "Lang": "fa",
      "CaptionKey": "translation",
      "CaptionName": "ترجمه",
      "YoutubeSynced": true
    },
    {
      "ID": "hdmqVqJ8F7AiHVi7y1YKX1gqK0H60cqanwkLq8V7ko2Km4075fAy9Q==",
      "Lang": "fi",
      "CaptionKey": "translation",
      "CaptionName": "Käännös",
      "YoutubeSynced": true
    },
    {
      "ID": "IhCUhjaUn0gqH25OB6a2JmSicdQyVTv12H6RwshZGStOPgkhn-bbRA==",
      "Lang": "fil",
      "CaptionKey": "translation",
      "CaptionName": "Pagsasalin",
      "YoutubeSynced": true
    },
    {
      "ID": "hdmqVqJ8F7BHV_Kp7xPkwQfvvtXyp8gWZ4oCzUSU4-hFiv7lDPSwLw==",
      "Lang": "fr",
      "CaptionKey": "translation",
      "CaptionName": "Traduction",
      "YoutubeSynced": true
    },
    {
      "ID": "hdmqVqJ8F7D7yn9jMr9kLbqa92LZgxTufh4OLAJ9LeydX8KrSH4RIQ==",
      "Lang": "fy",
      "CaptionKey": "translation",
      "CaptionName": "Oersetting",
      "YoutubeSynced": true
    },
    {
      "ID": "uZUGL_fTCYWGk0z2EVlrXEJatmizSOvAQz0bar6dZM7-19oLZlUd--7NRV0P-UWy",
      "Lang": "gd",
      "CaptionKey": "translation",
      "CaptionName": "Eadar-theangachadh",
      "YoutubeSynced": true
    },
    {
      "ID": "hdmqVqJ8F7BV5RQLOUOrR3L-hgs9gH5ig707-KXcoT0yhIeaDOyeQA==",
      "Lang": "gl",
      "CaptionKey": "translation",
      "CaptionName": "Tradución",
      "YoutubeSynced": true
    },
    {
      "ID": "uZUGL_fTCYXXrm0VTQYbcbE02LkEYReGGqqs1JwOeKAN37XpvA61GfDY95GXUSPj",
      "Lang": "gu",
      "CaptionKey": "translation",
      "CaptionName": "અનુવાદ",
      "YoutubeSynced": true
    },
    {
      "ID": "w88Q7I3Cd588Jzu3usnsi7OtQffyEcoxBb3LpWenTidnz9ZqotDp3g==",
      "Lang": "ha",
      "CaptionKey": "translation",
      "CaptionName": "Fassara",
      "YoutubeSynced": true
    },
    {
      "ID": "uZUGL_fTCYWcG9YSitpIYsnU1EjT0j6gtTKbCwQvgjPDQgj0S-C--VxKI-ukNVr7",
      "Lang": "hi",
      "CaptionKey": "translation",
      "CaptionName": "अनुवाद",
      "YoutubeSynced": true
    },
    {
      "ID": "IrsplCWLkUkt6Ad7sL_WyKefaV8-9l9-VQXuGnYNsgVYmC0bYwlR0g==",
      "Lang": "hr",
      "CaptionKey": "translation",
      "CaptionName": "Prijevod",
      "YoutubeSynced": true
    },
    {
      "ID": "hdmqVqJ8F7BnDykvqToMMkZA8l6Lpi5AdO7ieRI3pu7GcsBiRWHWbA==",
      "Lang": "hu",
      "CaptionKey": "translation",
      "CaptionName": "Fordítás",
      "YoutubeSynced": true
    },
    {
      "ID": "HUkUh8SBcrv8d7mmb7J9-NNfqD6bCyu6SFsJKuDbuTovZziOIUZshm3LB3QNXaiSOnf1kYon4R8=",
      "Lang": "hy",
      "CaptionKey": "translation",
      "CaptionName": "Թարգմանություն",
      "YoutubeSynced": true
    },
    {
      "ID": "hdmqVqJ8F7AB3pM9pVsWNPz2LTHgX2rDNylaJ8P3VgpvzWvytSVDsg==",
      "Lang": "id",
      "CaptionKey": "translation",
      "CaptionName": "Terjemahan",
      "YoutubeSynced": true
    },
    {
      "ID": "IrsplCWLkUl-kMX47TnKWGvGYWxhpr64gfTAIdrD0edlmFTBClmDwQ==",
      "Lang": "ig",
      "CaptionKey": "translation",
      "CaptionName": "Ntughari",
      "YoutubeSynced": true
    },
    {
      "ID": "fOQda7F2FYcKRbRT1wElAJcO6MnnjyE22f7SddetqWrYPJWRuWqIdg==",
      "Lang": "is",
      "CaptionKey": "translation",
      "CaptionName": "Þýðing",
      "YoutubeSynced": true
    },
    {
      "ID": "hdmqVqJ8F7CvAuRfDklDaoTlluN3d6-ed5Hpaj_ywiiiyn4qd4hAmw==",
      "Lang": "it",
      "CaptionKey": "translation",
      "CaptionName": "Traduzione",
      "YoutubeSynced": true
    },
    {
      "ID": "hdmqVqJ8F7AvPSJEzO2N2-vxBkO-Hcb-bhBPFfJKeKTQVP7bburKrw==",
      "Lang": "iw",
      "CaptionKey": "translation",
      "CaptionName": "תרגום",
      "YoutubeSynced": true
    },
    {
      "ID": "-9uqKtGQhKqmxROIPM96HN7gwhU9R2yzD1fKoNq_7wI=",
      "Lang": "ja",
      "CaptionKey": "translation",
      "CaptionName": "翻訳",
      "YoutubeSynced": true
    },
    {
      "ID": "fOQda7F2FYddSM2qUUouaipBHGb-7obS44_7sM5B6DHcJSVsrLRP2Q==",
      "Lang": "jv",
      "CaptionKey": "translation",
      "CaptionName": "Ngartekne",
      "YoutubeSynced": true
    },
    {
      "ID": "2mC86kpQo99_eiAQUeISxUqiDLTIWsgXq50eTDb47Rulnjd5Z_fG-HMJLpvD8MrAjdPoUaYIyb8=",
      "Lang": "ka",
      "CaptionKey": "translation",
      "CaptionName": "თარგმანი",
      "YoutubeSynced": true
    },
    {
      "ID": "A6Nz2SookPIevS870OwMLgPfl7ntJkkkezwVvs4u1XLRPmFHTNkA2Q==",
      "Lang": "kk",
      "CaptionKey": "translation",
      "CaptionName": "Аударма",
      "YoutubeSynced": true
    },
    {
      "ID": "LxMm5FOGvt_f9ZRHWMmOqqfoWzPpeq6FlvIriD1kgdxA1_OZ2r9c6YCAfBQ50UYQXdIwxyhl4jo=",
      "Lang": "km",
      "CaptionKey": "translation",
      "CaptionName": "ការបកប្រែ",
      "YoutubeSynced": true
    },
    {
      "ID": "uZUGL_fTCYUZ6J27I6jfOfqJTWAwwHo_AIgPJ0m3gEPtFFiw7jGIvOWECEkyMmiU",
      "Lang": "kn",
      "CaptionKey": "translation",
      "CaptionName": "ಅನುವಾದ",
      "YoutubeSynced": true
    },
    {
      "ID": "-9uqKtGQhKop_2l3WsI3Q22ZWYYejk9eoT7BRQ7VllY=",
      "Lang": "ko",
      "CaptionKey": "translation",
      "CaptionName": "번역",
      "YoutubeSynced": true
    },
    {
      "ID": "-9uqKtGQhKrNa7V1rd-OYW8Enamur8kfjtaSKfhnNJ0=",
      "Lang": "ku",
      "CaptionKey": "translation",
      "CaptionName": "Werger",
      "YoutubeSynced": true
    },
    {
      "ID": "A6Nz2SookPKVtuMAvab9TI9pPSNEA96amVHlVv_HfSBVjlgWgSsb3g==",
      "Lang": "ky",
      "CaptionKey": "translation",
      "CaptionName": "котормо",
      "YoutubeSynced": true
    },
    {
      "ID": "7HJlejnn4TBITZSLSqbGhxdL043XEZMu7BUjc4vPFqE_aoKnhhWEqA==",
      "Lang": "lb",
      "CaptionKey": "translation",
      "CaptionName": "Iwwersetzung",
      "YoutubeSynced": true
    },
    {
      "ID": "LxMm5FOGvt9ZhLCq0UIwRtaVqcOWCxe09GCsngCoL5rkD0V8M3adas7uQR2SJVP0r5FH90E3M_M=",
      "Lang": "lo",
      "CaptionKey": "translation",
      "CaptionName": "ການແປພາສາ",
      "YoutubeSynced": true
    },
    {
      "ID": "IrsplCWLkUmWJUfm4Lpzctv6FL02xm_Uwkgp-ktA1er-ZGWuHXerjQ==",
      "Lang": "lt",
      "CaptionKey": "translation",
      "CaptionName": "Vertimas",
      "YoutubeSynced": true
    },
    {
      "ID": "hdmqVqJ8F7DH-W16c9m1RRG9NT2qrmfuXITQpq8zDHy9gaDxqapseA==",
      "Lang": "lv",
      "CaptionKey": "translation",
      "CaptionName": "Tulkošana",
      "YoutubeSynced": true
    },
    {
      "ID": "IhCUhjaUn0igbotz4WC2tPVbNXOAQ14Q6Xtbtp5vcEyjN-kpbR84QA==",
      "Lang": "mg",
      "CaptionKey": "translation",
      "CaptionName": "Translation",
      "YoutubeSynced": true
    },
    {
      "ID": "X5gZh52jjs_RfPpfENwclKGvfyDHq06uTrPspq78vg-CuD5ddEFiMwKQannwO_6j",
      "Lang": "mi",
      "CaptionKey": "translation",
      "CaptionName": "Whakamaoritanga",
      "YoutubeSynced": true
    },
    {
      "ID": "7HJlejnn4TB_cD5GiQGnYfOCMVfqdJblKRUuf_YYHjC9132QjVPG9w==",
      "Lang": "mk",
      "CaptionKey": "translation",
      "CaptionName": "Превод",
      "YoutubeSynced": true
    },
    {
      "ID": "LxMm5FOGvt-7hnlDSBRWCsoEunzU1vxdAPshrRTLkFyigia3Moy42-Z7VAjNgpV1p65fAheYQ70=",
      "Lang": "ml",
      "CaptionKey": "translation",
      "CaptionName": "വിവർത്തനം",
      "YoutubeSynced": true
    },
    {
      "ID": "yIOfl0nKoVJaYcIoV4CcO481psQhcpz7DyUDfD8qJy1nmx9CSlPdfFPTD9Q6M0Kz",
      "Lang": "mn",
      "CaptionKey": "translation",
      "CaptionName": "Орчуулга",
      "YoutubeSynced": true
    },
    {
      "ID": "1DhYFwOkeBd1Xywcbjfx8Ma3cBm-T1Vcgbi5oRgTyOsQt5Us19O9aCu0YqvtJZxv",
      "Lang": "mr",
      "CaptionKey": "translation",
      "CaptionName": "भाषांतर",
      "YoutubeSynced": true
    },
    {
      "ID": "hdmqVqJ8F7BJvwbynp2fboiPEJQ4WwQ8tGldzis-Z1rqxX822ApHlg==",
      "Lang": "ms",
      "CaptionKey": "translation",
      "CaptionName": "Terjemahan",
      "YoutubeSynced": true
    },
    {
      "ID": "IhCUhjaUn0ji0d73JUOy8sP2n6v7h-fHZPudVwC4JfY6r8epz_Rtlg==",
      "Lang": "mt",
      "CaptionKey": "translation",
      "CaptionName": "Traduzzjoni",
      "YoutubeSynced": true
    },
    {
      "ID": "2mC86kpQo9_WLty75pma0gU3TmlO21sL6muUP7y05zmNSkLBONgG8cml45W9BpLr51ULveNI9U4=",
      "Lang": "my",
      "CaptionKey": "translation",
      "CaptionName": "ဘာသာပြန်",
      "YoutubeSynced": true
    },
    {
      "ID": "uZUGL_fTCYX3-p28U_uWFzmPyR9vxJQq8X4CY7GkmUAyvDPL4DcENESm6i_sf5VP",
      "Lang": "ne",
      "CaptionKey": "translation",
      "CaptionName": "अनुवाद",
      "YoutubeSynced": true
    },
    {
      "ID": "fOQda7F2FYdQduk4r4yHb1rjPJLpHbIdYTGlAfLtVKmolLFaP53YhA==",
      "Lang": "nl",
      "CaptionKey": "translation",
      "CaptionName": "Vertaling",
      "YoutubeSynced": true
    },
    {
      "ID": "7HJlejnn4TBFJowlNDXHz20gYtSiAYXRtIfn9elJRROUob44n3pVmA==",
      "Lang": "no",
      "CaptionKey": "translation",
      "CaptionName": "Oversettelse",
      "YoutubeSynced": true
    },
    {
      "ID": "uZUGL_fTCYVtgRAAiK9sewSiAzbrThX0Q_RAkLsT_AfflPZ16mD2dGwdxhIma-VD",
      "Lang": "pa",
      "CaptionKey": "translation",
      "CaptionName": "ਅਨੁਵਾਦ",
      "YoutubeSynced": true
    },
    {
      "ID": "7HJlejnn4TBknmIGvGMLi9fmNYjBrcde77L0ULj-jnzaygSYrZsOqw==",
      "Lang": "pl",
      "CaptionKey": "translation",
      "CaptionName": "Tłumaczenie",
      "YoutubeSynced": true
    },
    {
      "ID": "hdmqVqJ8F7AeOUi6tN0ZbDXj7uwZjJ9NMtVAxDqsodsbHrYJiLFYxg==",
      "Lang": "ps",
      "CaptionKey": "translation",
      "CaptionName": "ژباړه",
      "YoutubeSynced": true
    },
    {
      "ID": "hdmqVqJ8F7CaP4u-FdpQHcao5MLgIMKKBwg-u1FcaLOZRm55ZxFkMA==",
      "Lang": "pt",
      "CaptionKey": "translation",
      "CaptionName": "Tradução",
      "YoutubeSynced": true
    },
    {
      "ID": "fOQda7F2FYdRVI-qSUJjp1yaZHK4K2WKjHti57ec4adaxR2h17s2Kg==",
      "Lang": "ro",
      "CaptionKey": "translation",
      "CaptionName": "Traducere",
      "YoutubeSynced": true
    },
    {
      "ID": "A6Nz2SookPJ2CFdZR5S0Vg7qNo7AUlzWWFPs4HsRRJ4YXNznqwwXlg==",
      "Lang": "ru",
      "CaptionKey": "translation",
      "CaptionName": "Перевод",
      "YoutubeSynced": true
    },
    {
      "ID": "hdmqVqJ8F7AKgbfY06nDVbxCODb8VjGZMrh4VkXGK8OB1uyS99L1Pg==",
      "Lang": "sd",
      "CaptionKey": "translation",
      "CaptionName": "ترجمو",
      "YoutubeSynced": true
    },
    {
      "ID": "LxMm5FOGvt_ssLnxquyx_kscXKcuu-9OWSijJ_lm_-cgGNj-EdDdJ0U4K7g9Q2-1Vug5LoU_fmE=",
      "Lang": "si",
      "CaptionKey": "translation",
      "CaptionName": "පරිවර්තනය",
      "YoutubeSynced": true
    },
    {
      "ID": "w88Q7I3Cd5998_CCNcHkdnBaJXZlLs-PcOeDDImYCyX0WWeR6j4SbQ==",
      "Lang": "sk",
      "CaptionKey": "translation",
      "CaptionName": "preklad",
      "YoutubeSynced": true
    },
    {
      "ID": "-9uqKtGQhKrZ_6enRwp3CIMToLdeNAi3o2ruNoxvHEg=",
      "Lang": "sl",
      "CaptionKey": "translation",
      "CaptionName": "Prevod",
      "YoutubeSynced": true
    },
    {
      "ID": "7HJlejnn4TAyPmtqXUqcztvT99SkQ6dAyQfweHsjyDvd_whtgV9iIQ==",
      "Lang": "sm",
      "CaptionKey": "translation",
      "CaptionName": "Faʻaliliuga",
      "YoutubeSynced": true
    },
    {
      "ID": "w88Q7I3Cd58gVkIV2p6LYL0RbH22gEJ64vwli2xnZJ6p37QE0FloWA==",
      "Lang": "sn",
      "CaptionKey": "translation",
      "CaptionName": "Dudziro",
      "YoutubeSynced": true
    },
    {
      "ID": "fOQda7F2FYd1_aZEswnSRMu7uMQxasKBcJsEqHJIQ2igj3ZnXR6M6w==",
      "Lang": "so",
      "CaptionKey": "translation",
      "CaptionName": "Tarjumida",
      "YoutubeSynced": true
    },
    {
      "ID": "fOQda7F2FYfKApzM3yYE2frGaouHKN2pN7GKa6Xbx98vAe8zBGGKjg==",
      "Lang": "sq",
      "CaptionKey": "translation",
      "CaptionName": "përkthim",
      "YoutubeSynced": true
    },
    {
      "ID": "7HJlejnn4TC9xHO1HsUVuTsI652ynSXZhfBnloIf88jRY9KjoJkVQg==",
      "Lang": "sr",
      "CaptionKey": "translation",
      "CaptionName": "Превод",
      "YoutubeSynced": true
    },
    {
      "ID": "fOQda7F2FYcPQP-v1Nvknih6Rb-_3PRTZmKxGtoQlR9J9Xq0WayI0A==",
      "Lang": "st",
      "CaptionKey": "translation",
      "CaptionName": "Phetolelo",
      "YoutubeSynced": true
    },
    {
      "ID": "hdmqVqJ8F7BIIKpLmcegoFD0miJMBFa4jquXT-YtOvIxcR06b8Zccg==",
      "Lang": "su",
      "CaptionKey": "translation",
      "CaptionName": "Tarjamahan",
      "YoutubeSynced": true
    },
    {
      "ID": "A6Nz2SookPIv-4s1HcN2GuwsQyUVmnOVvLtQug3e4tJp34C5sXRC4Q==",
      "Lang": "sv",
      "CaptionKey": "translation",
      "CaptionName": "Översättning",
      "YoutubeSynced": true
    },
    {
      "ID": "w88Q7I3Cd5_Y2le0aa2rWMaj0pfX0V3j-6ZjLO64MY97lkXapZTURg==",
      "Lang": "sw",
      "CaptionKey": "translation",
      "CaptionName": "Tafsiri",
      "YoutubeSynced": true
    },
    {
      "ID": "SYIyPlz8m7UBsekR2hdGDc4GCXcOl7DY1VaUcKlleDo-wMyBxckSI-aNhceXsyfvheanI8CK6Dd42lu2b4qUBrvFs0USeHPc",
      "Lang": "ta",
      "CaptionKey": "translation",
      "CaptionName": "மொழிபெயர்ப்பு",
      "YoutubeSynced": true
    },
    {
      "ID": "1DhYFwOkeBcB90zr00wSKOYc_A_h8kouLNOed5wiSxFhI3o2Ql-dtOup6q3QizFh",
      "Lang": "te",
      "CaptionKey": "translation",
      "CaptionName": "అనువాదం",
      "YoutubeSynced": true
    },
    {
      "ID": "A6Nz2SookPJOyFO2TquDtmcEFbHSC1uAWvg5ENOpTQuTfOHTadlCyQ==",
      "Lang": "tg",
      "CaptionKey": "translation",
      "CaptionName": "Тарҷума",
      "YoutubeSynced": true
    },
    {
      "ID": "uZUGL_fTCYUyibDGitP0iG0UH4az7UkGVdTPxdRN56KhqA-PcT9WWN2xnh1bRTgI",
      "Lang": "th",
      "CaptionKey": "translation",
      "CaptionName": "การแปล",
      "YoutubeSynced": true
    },
    {
      "ID": "IrsplCWLkUn4KIeZBS96IRFputFjJRrM6my2ULiAILykiL9JoGsEIw==",
      "Lang": "tr",
      "CaptionKey": "translation",
      "CaptionName": "Tercüme",
      "YoutubeSynced": true
    },
    {
      "ID": "yIOfl0nKoVI2ViT-e61PR8aUFyTfYfSix2Oe6spIzcJNL2YrhhtGRqdVnJ37s0RI",
      "Lang": "uk",
      "CaptionKey": "translation",
      "CaptionName": "Переклад",
      "YoutubeSynced": true
    },
    {
      "ID": "hdmqVqJ8F7CeJqw7d3f1SkgjX6lZ5CiO0PGzNY4T36EOvvlu0Ky_0w==",
      "Lang": "ur",
      "CaptionKey": "translation",
      "CaptionName": "ترجمہ",
      "YoutubeSynced": true
    },
    {
      "ID": "w88Q7I3Cd59yEUrisaur-cA5LiHbBePYKk4B7ilxL55hH_92RhTcPA==",
      "Lang": "uz",
      "CaptionKey": "translation",
      "CaptionName": "Tarjima",
      "YoutubeSynced": true
    },
    {
      "ID": "-9uqKtGQhKp-czpF2Kt8PPJN0KBB02LKPfUP5oXZiWU=",
      "Lang": "vi",
      "CaptionKey": "translation",
      "CaptionName": "Dịch",
      "YoutubeSynced": true
    },
    {
      "ID": "hdmqVqJ8F7ChHWEkeSgBoTfkuhxST-bJJFZ4OrU7vNFvQsnnlTksIg==",
      "Lang": "xh",
      "CaptionKey": "translation",
      "CaptionName": "Inguqulelo",
      "YoutubeSynced": true
    },
    {
      "ID": "wXSZob5SKcAAb6yACvVk24GiH-b8AzkyQ4LkUlsgIIINVCjpXxhZGLP4tsjUMoWi",
      "Lang": "yi",
      "CaptionKey": "translation",
      "CaptionName": "איבערזעצונג",
      "YoutubeSynced": true
    },
    {
      "ID": "w88Q7I3Cd59CeWs0tdOAjY-d5k3CURtAFhulK98wqBwi-b_kweW-kw==",
      "Lang": "yo",
      "CaptionKey": "translation",
      "CaptionName": "Itumọ",
      "YoutubeSynced": true
    },
    {
      "ID": "IhCUhjaUn0imAXLGVb-IlkP7O5yKO5dCOwAmVjtu4N0IzcyApPg_kw==",
      "Lang": "zh-Hans",
      "CaptionKey": "translation",
      "CaptionName": "翻译",
      "YoutubeSynced": true
    },
    {
      "ID": "IhCUhjaUn0imAXLGVb-IluDtih1zhxLDv8w1ngRQIOoewknqFrZA5g==",
      "Lang": "zh-Hant",
      "CaptionKey": "translation",
      "CaptionName": "翻譯",
      "YoutubeSynced": true
    },
    {
      "ID": "hdmqVqJ8F7BlXy_OrkwwTLhDRIVHkpzzDmwTD4nAXCdpbBNCklnfnA==",
      "Lang": "zu",
      "CaptionKey": "translation",
      "CaptionName": "Ukuhumusha",
      "YoutubeSynced": true
    }
  ]
}