{
  "VideoFile": "grammar-en-beginner-simple_47_IN.mp4",
  "Captions": [
    {
      "ID": "bQb1uZVgKi_Nv5qPcvnL325MIpx7S6rBrX-aYtsZTNd9KNT3qVys9Q==",
      "Lang": "af",
      "CaptionKey": "translation",
      "CaptionName": "vertaling",
      "YoutubeSynced": true
    },
    {
      "ID": "4o94YWFwmIMPFMBHm2Yz0z6Kwc0zlHeP2Ho_bYF1_yZQr4KFuAs3AA==",
      "Lang": "am",
      "CaptionKey": "translation",
      "CaptionName": "ትርጉም",
      "YoutubeSynced": true
    },
    {
      "ID": "VwnlE-9wfZnm-tLQFjjqRvBih8Iq3NjryMNd85LQlyLinbk5LDtfOg==",
      "Lang": "ar",
      "CaptionKey": "translation",
      "CaptionName": "ترجمة",
      "YoutubeSynced": true
    },
    {
      "ID": "VwnlE-9wfZlRrOqgh7rGKlChNgPvf18voy1O0sNI9_nMZkNkvF4ngg==",
      "Lang": "az",
      "CaptionKey": "translation",
      "CaptionName": "Tərcümə",
      "YoutubeSynced": true
    },
    {
      "ID": "uVExP8C1jXN-PZAA-nWIQJ4TYmHewJs5ozYpL4XBj7BS70sHRt5hiEK1a9Wx2ngV",
      "Lang": "be",
      "CaptionKey": "translation",
      "CaptionName": "Пераклад",
      "YoutubeSynced": true
    },
    {
      "ID": "4o94YWFwmIO1q_D4-OdC1Oj77KpgmGGObCiHkVb1ucG5ArMmQ1IyGg==",
      "Lang": "bg",
      "CaptionKey": "translation",
      "CaptionName": "превод",
      "YoutubeSynced": true
    },
    {
      "ID": "5-YuK8i6ZEQY33m_Fr7NAxQGARECOVHEoLyeWDVMkQq4f6WuOCI98AXeMw7QaowD",
      "Lang": "bn",
      "CaptionKey": "translation",
      "CaptionName": "অনুবাদ",
      "YoutubeSynced": true
    },
    {
      "ID": "0vSgc3TpqLj7TlU9h6DaaKFbT1WaFOFOK1TcJGLvpC0=",
      "Lang": "bs",
      "CaptionKey": "translation",
      "CaptionName": "Prevod",
      "YoutubeSynced": true
    },
    {
      "ID": "VwnlE-9wfZmqYYHoU--DEzkStDvVVCO0WhAUKTyRHkvf81S_U3HREQ==",
      "Lang": "ca",
      "CaptionKey": "translation",
      "CaptionName": "Traducció",
      "YoutubeSynced": true
    },
    {
      "ID": "VwnlE-9wfZndk4yCgVS6eqF6LICsGRTM6fkKHoc0lXDQJPasi3y6nw==",
      "Lang": "co",
      "CaptionKey": "translation",
      "CaptionName": "Traduzione",
      "YoutubeSynced": true
    },
    {
      "ID": "JSp2Jcw0EjxEJNcN8RA4cbKD13uKXHAVh2Az1LNqYr1ZGdCw4wS2ew==",
      "Lang": "cs",
      "CaptionKey": "translation",
      "CaptionName": "Překlad",
      "YoutubeSynced": true
    },
    {
      "ID": "khT69fnvxE-Lhv2rFhoz62cAcF01lklavAtWK--UzjrGeKO8dsLWvg==",
      "Lang": "cy",
      "CaptionKey": "translation",
      "CaptionName": "Cyfieithiad",
      "YoutubeSynced": true
    },
    {
      "ID": "tbzEB4GyT6u1Eb2yISbR6xfoctFizrAAAspiuEzhMC8GJt0KJy-xzg==",
      "Lang": "da",
      "CaptionKey": "translation",
      "CaptionName": "Oversættelse",
      "YoutubeSynced": true
    },
    {
      "ID": "4o94YWFwmIMw6gfArONPS7R6BtT1A-hUnEpGj1XydIHjLQAz7qe0kQ==",
      "Lang": "de",
      "CaptionKey": "translation",
      "CaptionName": "Übersetzung",
      "YoutubeSynced": true
    },
    {
      "ID": "5-YuK8i6ZEToxH4Cnq3B0Gl85Sd0wVmaLHV_mhd3LoGFfVYfE9QlhLe2A8deERdv",
      "Lang": "el",
      "CaptionKey": "translation",
      "CaptionName": "Μετάφραση",
      "YoutubeSynced": true
    },
    {
      "ID": "khT69fnvxE8lrLkKb9uWgLNTQVytS9LXKoUOJ_dEY_xt7GH21r20RA==",
      "Lang": "en",
      "CaptionKey": "translation",
      "CaptionName": "Translation",
      "YoutubeSynced": true
    },
    {
      "ID": "Qxpn3jgBxcEDE-gk6KNqjGBVsVlMFHzCwcLrp6QLgwzaGjnMHNFQxDMY75iai-9K",
      "Lang": "en",
      "CaptionKey": "ruby",
      "CaptionName": "Pronunciation - IPA",
      "YoutubeSynced": true
    },
    {
      "ID": "khT69fnvxE_N8SRG9mimUovi7F-qIVjfdtuImStOWQzl6SKgMsLGYA==",
      "Lang": "es",
      "CaptionKey": "translation",
      "CaptionName": "Traducción",
      "YoutubeSynced": true
    },
    {
      "ID": "0vSgc3TpqLiS8HAys9pti9SNUi3AnaWJg3ozvVriCeA=",
      "Lang": "et",
      "CaptionKey": "translation",
      "CaptionName": "Tõlge",
      "YoutubeSynced": true
    },
    {
      "ID": "bQb1uZVgKi8ntpV4ipkDmtAE1Dww7y_z9Rln9HBvFh-HGNFDXEsqoQ==",
      "Lang": "eu",
      "CaptionKey": "translation",
      "CaptionName": "Itzulpena",
      "YoutubeSynced": true
    },
    {
      "ID": "VwnlE-9wfZmjdEjTtlKl12OA99gTWVGGuinz8dmg_jvVT3OVM2E1QQ==",
      "Lang": "fa",
      "CaptionKey": "translation",
      "CaptionName": "ترجمه",
      "YoutubeSynced": true
    },
    {
      "ID": "VwnlE-9wfZmKtr-5qzDiHtJzM0CG2j38QgMe-X-T6VmJ6lX4AQ-8PA==",
      "Lang": "fi",
      "CaptionKey": "translation",
      "CaptionName": "Käännös",
      "YoutubeSynced": true
    },
    {
      "ID": "khT69fnvxE98uaa4EIPrUo0MciquvANOpr9AZHcIRxAod4-FoH8Gzg==",
      "Lang": "fil",
      "CaptionKey": "translation",
      "CaptionName": "Pagsasalin",
      "YoutubeSynced": true
    },
    {
      "ID": "VwnlE-9wfZl_rcePGM-2Mfuik_OgSLIyyGY2xTLTja1iv9cCY9bYoA==",
      "Lang": "fr",
      "CaptionKey": "translation",
      "CaptionName": "Traduction",
      "YoutubeSynced": true
    },
    {
      "ID": "VwnlE-9wfZlV9hjLdzZjHvht8kkns6THgHEDUUdbrIX4V1_1qXqsJA==",
      "Lang": "fy",
      "CaptionKey": "translation",
      "CaptionName": "Oersetting",
      "YoutubeSynced": true
    },
    {
      "ID": "5-YuK8i6ZESbu5gKtIRw9Dq-J5ZRBOPX01SguExj2Ok0sK7awa8cLKTjfE9h8scm",
      "Lang": "gd",
      "CaptionKey": "translation",
      "CaptionName": "Eadar-theangachadh",
      "YoutubeSynced": true
    },
    {
      "ID": "VwnlE-9wfZmHN8-Xl5vYbPTCwKsgC-8sDe-qR42NHLaac6KdZJUhuQ==",
      "Lang": "gl",
      "CaptionKey": "translation",
      "CaptionName": "Tradución",
      "YoutubeSynced": true
    },
    {
      "ID": "5-YuK8i6ZESthR9WCVi01UYmyBBdhY1uJ74TAd8BFYW1H-gK_magbBmO6CAg3yk-",
      "Lang": "gu",
      "CaptionKey": "translation",
      "CaptionName": "અનુવાદ",
      "YoutubeSynced": true
    },
    {
      "ID": "fs4-u_FgCjuB3k6fkaI-LNuwFlRNP-gbdS3O4nR7FC3-qZzzpnC_Hw==",
      "Lang": "ha",
      "CaptionKey": "translation",
      "CaptionName": "Fassara",
      "YoutubeSynced": true
    },
    {
      "ID": "5-YuK8i6ZEQYUTXGzG4jSwJNxViaFlqP4vl5N0-s51opF-zGu7D4eYv1T_mjZRoE",
      "Lang": "hi",
      "CaptionKey": "translation",
      "CaptionName": "अनुवाद",
      "YoutubeSynced": true
    },
    {
      "ID": "JSp2Jcw0EjzdPhglSNa9woolqMzj5hw64RrBKBKcR3W3u7PQsRoOgg==",
      "Lang": "hr",
      "CaptionKey": "translation",
      "CaptionName": "Prijevod",
      "YoutubeSynced": true
    },
    {
      "ID": "VwnlE-9wfZmycjRKFa4WzQ-dyFCOIlB7Wx8Fa_e6ysoJoxFrk4Icnw==",
      "Lang": "hu",
      "CaptionKey": "translation",
      "CaptionName": "Fordítás",
      "YoutubeSynced": true
    },
    {
      "ID": "MAIApw88aIKCb6-jFZkwPzzW4EWa8Ayw1AhZnQAmH3Rqb0IfpIi9keNq2dbbXgOosbCGasPrfsg=",
      "Lang": "hy",
      "CaptionKey": "translation",
      "CaptionName": "Թարգմանություն",
      "YoutubeSynced": true
    },
    {
      "ID": "VwnlE-9wfZlnp6dyDtfSEZ-hby_t27pfkvnfjsy1mN_JiGPJqr8l7g==",
      "Lang": "id",
      "CaptionKey": "translation",
      "CaptionName": "Terjemahan",
      "YoutubeSynced": true
    },
    {
      "ID": "JSp2Jcw0EjwA4JFJ5VFZiGbQiNZS_KxyEGjfW0M5ytTaP6aY4Ny57w==",
      "Lang": "ig",
      "CaptionKey": "translation",
      "CaptionName": "Ntughari",
      "YoutubeSynced": true
    },
    {
      "ID": "bQb1uZVgKi85RMtk-D4UMPorjEQA7b_ctKyCVUn_9h8PQkiT5-94sg==",
      "Lang": "is",
      "CaptionKey": "translation",
      "CaptionName": "Þýðing",
      "YoutubeSynced": true
    },
    {
      "ID": "VwnlE-9wfZk1Xb6wR0Wk3gB2pygSSicBfQCiBBkbLPgaUhbfy9lQBA==",
      "Lang": "it",
      "CaptionKey": "translation",
      "CaptionName": "Traduzione",
      "YoutubeSynced": true
    },
    {
      "ID": "VwnlE-9wfZm1bxlRo3Ndt8f69t91ujM8RpfkVHgC1jj7rGhET_y9qw==",
      "Lang": "iw",
      "CaptionKey": "translation",
      "CaptionName": "תרגום",
      "YoutubeSynced": true
    },
    {
      "ID": "0vSgc3TpqLjaST9YIsYTE9tcWazk0Nu3t14Xpjjjksg=",
      "Lang": "ja",
      "CaptionKey": "translation",
      "CaptionName": "翻訳",
      "YoutubeSynced": true
    },
    {
      "ID": "bQb1uZVgKi-8cTm7bT-UjwlBntD5EdB-BndRP6sfmSQPjAY03HGtdg==",
      "Lang": "jv",
      "CaptionKey": "translation",
      "CaptionName": "Ngartekne",
      "YoutubeSynced": true
    },
    {
      "ID": "ZNRlDP8-ZpthcNYwKTrtBUiZL8WpbgW5ptPgok2opFfnHgMUoJ58F6ZkSvnd-_C2aMvp_kQlv3o=",
      "Lang": "ka",
      "CaptionKey": "translation",
      "CaptionName": "თარგმანი",
      "YoutubeSynced": true
    },
    {
      "ID": "BGhVlH3e5qqiA5L533wumL0sb3GSB5KvcnPUB1eFYZ1xDq7n0KJEqQ==",
      "Lang": "kk",
      "CaptionKey": "translation",
      "CaptionName": "Аударма",
      "YoutubeSynced": true
    },
    {
      "ID": "-wlipDnfV8MnlOpKIxCcH8B5dTkWJcXGzXFzazioaG2YOh2tF67Bwk9ZpQCTd-gsJkf3bFxcGRw=",
      "Lang": "km",
      "CaptionKey": "translation",
      "CaptionName": "ការបកប្រែ",
      "YoutubeSynced": true
    },
    {
      "ID": "5-YuK8i6ZEScLDmdGsVcU_Y4keF5RlgvpQd6WPfDlwcogoo9cW1ywAIWTpzp8pfw",
      "Lang": "kn",
      "CaptionKey": "translation",
      "CaptionName": "ಅನುವಾದ",
      "YoutubeSynced": true
    },
    {
      "ID": "0vSgc3TpqLhigMBJQFZa2Qw8Rl569HmE23bYiPafO6o=",
      "Lang": "ko",
      "CaptionKey": "translation",
      "CaptionName": "번역",
      "YoutubeSynced": true
    },
    {
      "ID": "0vSgc3TpqLhqgKFOYkI-naunJvzcfB2g8MJV3Flql70=",
      "Lang": "ku",
      "CaptionKey": "translation",
      "CaptionName": "Werger",
      "YoutubeSynced": true
    },
    {
      "ID": "BGhVlH3e5qruGKRaH-CtI4tYyA91LY59bV2dVhMHrsKduUTBitLDrA==",
      "Lang": "ky",
      "CaptionKey": "translation",
      "CaptionName": "котормо",
      "YoutubeSynced": true
    },
    {
      "ID": "4o94YWFwmIP6uAvhHiZ-IR6KoqX4hj79GvHhcmRe0LcREgIqNxDoVA==",
      "Lang": "lb",
      "CaptionKey": "translation",
      "CaptionName": "Iwwersetzung",
      "YoutubeSynced": true
    },
    {
      "ID": "-wlipDnfV8Og0_EEukUQOwqivP2IiEY3ZUpj0cfWeIgSxqk4odk6DwXZyfuoALHOUTrXwTUubvY=",
      "Lang": "lo",
      "CaptionKey": "translation",
      "CaptionName": "ການແປພາສາ",
      "YoutubeSynced": true
    },
    {
      "ID": "JSp2Jcw0EjzxMBNvelzljsZdtToFbY9kGcH5H5cMYo-co7dWXo5ROQ==",
      "Lang": "lt",
      "CaptionKey": "translation",
      "CaptionName": "Vertimas",
      "YoutubeSynced": true
    },
    {
      "ID": "VwnlE-9wfZk4UO1EIGg1t0yJ2E4gvpkLiPc6ek1mtw9c-WPMvCx2TQ==",
      "Lang": "lv",
      "CaptionKey": "translation",
      "CaptionName": "Tulkošana",
      "YoutubeSynced": true
    },
    {
      "ID": "khT69fnvxE8t_lezB4MhBGnX1Oxo0dvG8QOeCY6wmTE69aW0NyuqMw==",
      "Lang": "mg",
      "CaptionKey": "translation",
      "CaptionName": "Translation",
      "YoutubeSynced": true
    },
    {
      "ID": "YPKUYl7vDCK1Kx_y3nlSIGmossBGHnkbP8ueU1rHFkirLyJQr0QRkgqkxqPRSrPT",
      "Lang": "mi",
      "CaptionKey": "translation",
      "CaptionName": "Whakamaoritanga",
      "YoutubeSynced": true
    },
    {
      "ID": "4o94YWFwmIOtsAF2xn3Fh6dS38SXySOoi-9JDlbBciFTdJldnPAh7Q==",
      "Lang": "mk",
      "CaptionKey": "translation",
      "CaptionName": "Превод",
      "YoutubeSynced": true
    },
    {
      "ID": "-wlipDnfV8OfSJdpU_aqQp03pmDv55IH_IdZYgjzOixuqgZtp_oXNrSzkRMX19VA1MWS-LTPeUc=",
      "Lang": "ml",
      "CaptionKey": "translation",
      "CaptionName": "വിവർത്തനം",
      "YoutubeSynced": true
    },
    {
      "ID": "uVExP8C1jXN6UdFfNKllbVnZ8LZLVHz48kVsu-EmqXOOdoJU7fg_sdy46Q0ELB-K",
      "Lang": "mn",
      "CaptionKey": "translation",
      "CaptionName": "Орчуулга",
      "YoutubeSynced": true
    },
    {
      "ID": "e_yQ_56p-7UZXgynPfLDQkeRFEcF_uQ3HSyWtfD8boU-9hV5OK7JEWALP15uBCle",
      "Lang": "mr",
      "CaptionKey": "translation",
      "CaptionName": "भाषांतर",
      "YoutubeSynced": true
    },
    {
      "ID": "VwnlE-9wfZkSsdw10fLKDCXwyvR4Hfb2uCTh0YvDr6oV0mgxmaOB8Q==",
      "Lang": "ms",
      "CaptionKey": "translation",
      "CaptionName": "Terjemahan",
      "YoutubeSynced": true
    },
    {
      "ID": "khT69fnvxE_RW85RICdJLRpibRuKGFQHZ6-YmeiLvATcKrgbSec3Vg==",
      "Lang": "mt",
      "CaptionKey": "translation",
      "CaptionName": "Traduzzjoni",
      "YoutubeSynced": true
    },
    {
      "ID": "ZNRlDP8-ZpsjSTg4E-X20ePjLDlyu6MobiWGBmT8f2K_OP6aY4J8yXnEfsuf0eoHDqIxpHJY2WY=",
      "Lang": "my",
      "CaptionKey": "translation",
      "CaptionName": "ဘာသာပြန်",
      "YoutubeSynced": true
    },
    {
      "ID": "5-YuK8i6ZERfiKf3-XUO840dBWNsu_o3eu3Q-fS2C8J9dxue41y_ZxgetEgtEiyq",
      "Lang": "ne",
      "CaptionKey": "translation",
      "CaptionName": "अनुवाद",
      "YoutubeSynced": true
    },
    {
      "ID": "bQb1uZVgKi_P6y-v7KM_Jjvb-IVBPvGKr4Y3CJ7YraC4ZUiIRRqR2w==",
      "Lang": "nl",
      "CaptionKey": "translation",
      "CaptionName": "Vertaling",
      "YoutubeSynced": true
    },
    {
      "ID": "4o94YWFwmIPOq_CK5kVNVm-EVO1b0GSgvhcdlII1npvFDvZPzbwZDw==",
      "Lang": "no",
      "CaptionKey": "translation",
      "CaptionName": "Oversettelse",
      "YoutubeSynced": true
    },
    {
      "ID": "5-YuK8i6ZETawAtkWKMrNyrdVROc7sPzz3_KpVVqpTYCxwE9jGlmjEthCHfEU7-r",
      "Lang": "pa",
      "CaptionKey": "translation",
      "CaptionName": "ਅਨੁਵਾਦ",
      "YoutubeSynced": true
    },
    {
      "ID": "4o94YWFwmINy4Cdj-VFQsnMSOX0ZS0fK6Wc3VSseJXhEOmah1axhYA==",
      "Lang": "pl",
      "CaptionKey": "translation",
      "CaptionName": "Tłumaczenie",
      "YoutubeSynced": true
    },
    {
      "ID": "VwnlE-9wfZm0_CdPHIFExkuL9LkOZZ1kBIMWuArZToeozZ7R0lzIQQ==",
      "Lang": "ps",
      "CaptionKey": "translation",
      "CaptionName": "ژباړه",
      "YoutubeSynced": true
    },
    {
      "ID": "VwnlE-9wfZnhW0tGTJVyoxO85rk6JJQ3dsZHJuTvcXS3xAwqfhAEFw==",
      "Lang": "pt",
      "CaptionKey": "translation",
      "CaptionName": "Tradução",
      "YoutubeSynced": true
    },
    {
      "ID": "bQb1uZVgKi-5fM3meMTs1hMUsdCQtQ56S_iAaYLYMFB_krlBba-MlQ==",
      "Lang": "ro",
      "CaptionKey": "translation",
      "CaptionName": "Traducere",
      "YoutubeSynced": true
    },
    {
      "ID": "BGhVlH3e5qrra-T9FkKV9KNRpYOnI-q_e9rj7OWTb0M1qkqvpgcd-w==",
      "Lang": "ru",
      "CaptionKey": "translation",
      "CaptionName": "Перевод",
      "YoutubeSynced": true
    },
    {
      "ID": "VwnlE-9wfZkjD8I9yctHoWoeCu0d7gj8nD4aBQCWl229kZot5NVtnw==",
      "Lang": "sd",
      "CaptionKey": "translation",
      "CaptionName": "ترجمو",
      "YoutubeSynced": true
    },
    {
      "ID": "-wlipDnfV8PtG5bBUnI5smazSEtFMLu4f2jg8dIy--sLcVL40XotgOhJhdQ9_21HYWFYHOfZa54=",
      "Lang": "si",
      "CaptionKey": "translation",
      "CaptionName": "පරිවර්තනය",
      "YoutubeSynced": true
    },
    {
      "ID": "fs4-u_FgCjuMPb0zTgVOpzobEjESE1kTfwz27yMj-Bogl9nG15Wg1g==",
      "Lang": "sk",
      "CaptionKey": "translation",
      "CaptionName": "preklad",
      "YoutubeSynced": true
    },
    {
      "ID": "0vSgc3TpqLibRmI-OZ_FBdQrFSgyfIVbOpk_CSuXKVU=",
      "Lang": "sl",
      "CaptionKey": "translation",
      "CaptionName": "Prevod",
      "YoutubeSynced": true
    },
    {
      "ID": "4o94YWFwmIPlEYIBqSIW4kkPZgYgriOKBMNAmwhtGK6nDCGzPZOI9A==",
      "Lang": "sm",
      "CaptionKey": "translation",
      "CaptionName": "Faʻaliliuga",
      "YoutubeSynced": true
    },
    {
      "ID": "fs4-u_FgCjvDHmGWc4Qnhs0CVOwbrTAL0hW3s4XFt_E98OopA18FMw==",
      "Lang": "sn",
      "CaptionKey": "translation",
      "CaptionName": "Dudziro",
      "YoutubeSynced": true
    },
    {
      "ID": "bQb1uZVgKi-OhstOOXoF9oaiCZtYoUbK6KS0HPTZ8_G3ao-XC2WEaw==",
      "Lang": "so",
      "CaptionKey": "translation",
      "CaptionName": "Tarjumida",
      "YoutubeSynced": true
    },
    {
      "ID": "bQb1uZVgKi8TtK6CG4guRdEpBUI5HxeNwuWK2ZN51DP8knAsUqAI2w==",
      "Lang": "sq",
      "CaptionKey": "translation",
      "CaptionName": "përkthim",
      "YoutubeSynced": true
    },
    {
      "ID": "4o94YWFwmINGEFKFGeX1PgUsj-ZoiMCAWqjuhH9r9GY1RWfxxljn9Q==",
      "Lang": "sr",
      "CaptionKey": "translation",
      "CaptionName": "Превод",
      "YoutubeSynced": true
    },
    {
      "ID": "bQb1uZVgKi_qjMQ6ubeFW6tdxPPwjUvDoqsC2KJ4los__cItjzjbsA==",
      "Lang": "st",
      "CaptionKey": "translation",
      "CaptionName": "Phetolelo",
      "YoutubeSynced": true
    },
    {
      "ID": "VwnlE-9wfZm-vaCKW8sOZdhlnxKzH8bOM43F_TH2LxsaRBl3ueGvTQ==",
      "Lang": "su",
      "CaptionKey": "translation",
      "CaptionName": "Tarjamahan",
      "YoutubeSynced": true
    },
    {
      "ID": "BGhVlH3e5qrETVXWGRrPYVrAa5Tbj5lhGMR-iml5tvOWW7-TZCWarA==",
      "Lang": "sv",
      "CaptionKey": "translation",
      "CaptionName": "Översättning",
      "YoutubeSynced": true
    },
    {
      "ID": "fs4-u_FgCjtNeewpSzHCv7SXoy32NQFXoJwjgqtpVZCaCDOkaZs83Q==",
      "Lang": "sw",
      "CaptionKey": "translation",
      "CaptionName": "Tafsiri",
      "YoutubeSynced": true
    },
    {
      "ID": "0-sUsEB53Vj-tLPIedLfUwDzZ-Bpv5aXSAypu0c7mivu7voUkfsNTEiUFyp_iLXtcCKxSrg3g6sV1OjvrtdERBW2K9SBE_2C",
      "Lang": "ta",
      "CaptionKey": "translation",
      "CaptionName": "மொழிபெயர்ப்பு",
      "YoutubeSynced": true
    },
    {
      "ID": "e_yQ_56p-7XVrqW6CC_0WaHGs_orhJwUUvNWZBTMg-7DsKhq5inQjqlN3EPib1rs",
      "Lang": "te",
      "CaptionKey": "translation",
      "CaptionName": "అనువాదం",
      "YoutubeSynced": true
    },
    {
      "ID": "BGhVlH3e5qqOK9529zysZ6Xmpxe6Xxuug-qoEX0jFZR1ZFE9MPhgZw==",
      "Lang": "tg",
      "CaptionKey": "translation",
      "CaptionName": "Тарҷума",
      "YoutubeSynced": true
    },
    {
      "ID": "5-YuK8i6ZESZI2DpaPj9oChlrJQp5usjLFWLsKWwfaK0Dk4Aq0Wwrb5jCScppk7A",
      "Lang": "th",
      "CaptionKey": "translation",
      "CaptionName": "การแปล",
      "YoutubeSynced": true
    },
    {
      "ID": "JSp2Jcw0EjyIcXMpz8ud-lT0OXnQA5BP_L_sdyGAzGvJKtYe-J4GTw==",
      "Lang": "tr",
      "CaptionKey": "translation",
      "CaptionName": "Tercüme",
      "YoutubeSynced": true
    },
    {
      "ID": "uVExP8C1jXMXRACW3daPQHSPC1qlHhix9Sgdxjnmy8frMQbUjL3HpBDLucMgXlzm",
      "Lang": "uk",
      "CaptionKey": "translation",
      "CaptionName": "Переклад",
      "YoutubeSynced": true
    },
    {
      "ID": "VwnlE-9wfZkrIOvxtwBfSfm6m9zKNCllixCiqja7VNMI8yanmDURew==",
      "Lang": "ur",
      "CaptionKey": "translation",
      "CaptionName": "ترجمہ",
      "YoutubeSynced": true
    },
    {
      "ID": "fs4-u_FgCjsbO2uT1RbJrgCke7oecc4krWKhxagFKgq_oFeiklqw5g==",
      "Lang": "uz",
      "CaptionKey": "translation",
      "CaptionName": "Tarjima",
      "YoutubeSynced": true
    },
    {
      "ID": "0vSgc3TpqLiURHyJEAOuXQhh1sck0CBaY7f-LRmQxFo=",
      "Lang": "vi",
      "CaptionKey": "translation",
      "CaptionName": "Dịch",
      "YoutubeSynced": true
    },
    {
      "ID": "VwnlE-9wfZlVhKJRAtAcA969QoFUnrTX1LqnSfoTKEmAvGvvI12bfA==",
      "Lang": "xh",
      "CaptionKey": "translation",
      "CaptionName": "Inguqulelo",
      "YoutubeSynced": true
    },
    {
      "ID": "EM0Xl3qBeqAcCjxb6Bzf-DEJbEl-Bh3zZtwGxjGF1ozBDnCEQdnHINdPgDIms7Bw",
      "Lang": "yi",
      "CaptionKey": "translation",
      "CaptionName": "איבערזעצונג",
      "YoutubeSynced": true
    },
    {
      "ID": "fs4-u_FgCjtKz0b7ZVjrygImpCETGsT6ByRJp3clMjo6XkIeLMRfgA==",
      "Lang": "yo",
      "CaptionKey": "translation",
      "CaptionName": "Itumọ",
      "YoutubeSynced": true
    },
    {
      "ID": "khT69fnvxE8MQBCn8_DKWgZ7_B4waVTwNEhL71WAkLyYOlPSgDs9Ew==",
      "Lang": "zh-Hans",
      "CaptionKey": "translation",
      "CaptionName": "翻译",
      "YoutubeSynced": true
    },
    {
      "ID": "khT69fnvxE8MQBCn8_DKWqHeLTNFHxT-C6TD8S5vuiqoo4O26ze1Iw==",
      "Lang": "zh-Hant",
      "CaptionKey": "translation",
      "CaptionName": "翻譯",
      "YoutubeSynced": true
    },
    {
      "ID": "VwnlE-9wfZkP8YfHw3RyDARPfdIoED3XvJH_jylCu29C5Bsh1jLAVg==",
      "Lang": "zu",
      "CaptionKey": "translation",
      "CaptionName": "Ukuhumusha",
      "YoutubeSynced": true
    }
  ]
}