{
  "VideoFile": "grammar-en-beginner-simple_96_IN.mp4",
  "Captions": [
    {
      "ID": "XCmd9citt5ucKtXf2exwB9_w6qcxvJlmTsC2u5jAWA4LVXJCRJE6TQ==",
      "Lang": "af",
      "CaptionKey": "translation",
      "CaptionName": "vertaling",
      "YoutubeSynced": true
    },
    {
      "ID": "wavm34zugqkdkkWlsbFkCWPm6sVLPWI3Nw9ER7LmJyySNkLYR883zQ==",
      "Lang": "am",
      "CaptionKey": "translation",
      "CaptionName": "ትርጉም",
      "YoutubeSynced": true
    },
    {
      "ID": "E5yOaKugFfxTa3hf9bYHN3WH63dT7taK0SRGeLQWWWaY8myOg5BTcg==",
      "Lang": "ar",
      "CaptionKey": "translation",
      "CaptionName": "ترجمة",
      "YoutubeSynced": true
    },
    {
      "ID": "E5yOaKugFfzarz07jjqEdpLC9oIoDZDu-EtN16_hBu213WecIayHRg==",
      "Lang": "az",
      "CaptionKey": "translation",
      "CaptionName": "Tərcümə",
      "YoutubeSynced": true
    },
    {
      "ID": "V6Ip2y_9q5gnT9Ac3Tx5g2XoV5p7sQyuOZfvF8J3DcURu2fvIk8JeZqrK3xTGiOR",
      "Lang": "be",
      "CaptionKey": "translation",
      "CaptionName": "Пераклад",
      "YoutubeSynced": true
    },
    {
      "ID": "wavm34zugqlm_orjxo5hLG5sGLBoQmCslnO2gsQmQ98-2DO1hLT75A==",
      "Lang": "bg",
      "CaptionKey": "translation",
      "CaptionName": "превод",
      "YoutubeSynced": true
    },
    {
      "ID": "Txmdtry0GV7xCXYKXwV3mNdi0ebSksM7jUkEec6sTyvtwN5CPdsqNNpABUi4FAZx",
      "Lang": "bn",
      "CaptionKey": "translation",
      "CaptionName": "অনুবাদ",
      "YoutubeSynced": true
    },
    {
      "ID": "e91lWs9xuPjPvbqrYsdO1RzHsMmy6Ps8jKeK7M7jx7I=",
      "Lang": "bs",
      "CaptionKey": "translation",
      "CaptionName": "Prevod",
      "YoutubeSynced": true
    },
    {
      "ID": "E5yOaKugFfy6bQJ-nvMFpfn18Y-EBQ0-CB64EXm7Yvr0YMn66orKLg==",
      "Lang": "ca",
      "CaptionKey": "translation",
      "CaptionName": "Traducció",
      "YoutubeSynced": true
    },
    {
      "ID": "E5yOaKugFfyESnrdotFVaZtYbIwRues6oyIgRPU8a-ABD-cEsglGgg==",
      "Lang": "co",
      "CaptionKey": "translation",
      "CaptionName": "Traduzione",
      "YoutubeSynced": true
    },
    {
      "ID": "zyN5txEJPR03FachiXTCLURs-aTWQ8CtrupeRpm5Jp4RlkKZ9Mdtqw==",
      "Lang": "cs",
      "CaptionKey": "translation",
      "CaptionName": "Překlad",
      "YoutubeSynced": true
    },
    {
      "ID": "_9zGabG6E3oodUXN3xKXkEEEB7tgjkV5qdeSk8qogQa2TKft0y4wgQ==",
      "Lang": "cy",
      "CaptionKey": "translation",
      "CaptionName": "Cyfieithiad",
      "YoutubeSynced": true
    },
    {
      "ID": "qAYeqA0NI8W5FRr2NCdfAlnL5p6QDp0rpnaBLp3cyy_nEjAH-W22BA==",
      "Lang": "da",
      "CaptionKey": "translation",
      "CaptionName": "Oversættelse",
      "YoutubeSynced": true
    },
    {
      "ID": "wavm34zugqkdl6EfsRg_6Xh9cApmvpGHUpClr-4BkK_len5EdNVQiQ==",
      "Lang": "de",
      "CaptionKey": "translation",
      "CaptionName": "Übersetzung",
      "YoutubeSynced": true
    },
    {
      "ID": "Txmdtry0GV49GuVUxvsBrX0FsbOUxIfr9ImU1L8hm-ZYEcecTosAPcVVyMRJuZSR",
      "Lang": "el",
      "CaptionKey": "translation",
      "CaptionName": "Μετάφραση",
      "YoutubeSynced": true
    },
    {
      "ID": "_9zGabG6E3qY-iYeGyMD7X-Um8locbrGrMYT9JIrvUPwnYL6X2th-Q==",
      "Lang": "en",
      "CaptionKey": "translation",
      "CaptionName": "Translation",
      "YoutubeSynced": true
    },
    {
      "ID": "yC-c8Pg_1KmSh6USnL2WpYmmiMUHdZ54hepa629xvEGDCA56s59TtAl3lDp4FIMQ",
      "Lang": "en",
      "CaptionKey": "ruby",
      "CaptionName": "Pronunciation - IPA",
      "YoutubeSynced": true
    },
    {
      "ID": "_9zGabG6E3pDJPh-TAhChJw9QXDSDLmW1ql_wfXoblJ1SHnPKpM_Bg==",
      "Lang": "es",
      "CaptionKey": "translation",
      "CaptionName": "Traducción",
      "YoutubeSynced": true
    },
    {
      "ID": "e91lWs9xuPhHAvjspEVzL6RGdglb1FgxLeQX_LhmPk8=",
      "Lang": "et",
      "CaptionKey": "translation",
      "CaptionName": "Tõlge",
      "YoutubeSynced": true
    },
    {
      "ID": "XCmd9citt5vljgLy3lW7FHUa5oHuRIW0TVOqRQcrVIF_Ovd1LJjCQA==",
      "Lang": "eu",
      "CaptionKey": "translation",
      "CaptionName": "Itzulpena",
      "YoutubeSynced": true
    },
    {
      "ID": "E5yOaKugFfxBTwPe8HD4CHtCYHpNlSKxGodBtM4p4R-g0qpxySjeWQ==",
      "Lang": "fa",
      "CaptionKey": "translation",
      "CaptionName": "ترجمه",
      "YoutubeSynced": true
    },
    {
      "ID": "E5yOaKugFfzbegpFtkfJhs6V5GWVrA6A5OOgeSe0Nuua2XJzpiMizA==",
      "Lang": "fi",
      "CaptionKey": "translation",
      "CaptionName": "Käännös",
      "YoutubeSynced": true
    },
    {
      "ID": "_9zGabG6E3rS7gS1ctiU7uVZ-mfgV0jxGqGIo6nUy2igSFN9FSL0dQ==",
      "Lang": "fil",
      "CaptionKey": "translation",
      "CaptionName": "Pagsasalin",
      "YoutubeSynced": true
    },
    {
      "ID": "E5yOaKugFfxE7Q_SgQi8XBsXBISHAi8yUvgjY5_Ca0OxqYcm5at0Og==",
      "Lang": "fr",
      "CaptionKey": "translation",
      "CaptionName": "Traduction",
      "YoutubeSynced": true
    },
    {
      "ID": "E5yOaKugFfxMhCiU43JDb7Evid9BpY-jwDiw8lPWFuafYPrUTHljHA==",
      "Lang": "fy",
      "CaptionKey": "translation",
      "CaptionName": "Oersetting",
      "YoutubeSynced": true
    },
    {
      "ID": "Txmdtry0GV62gnx2_e06kt3igqz_KVy3GvfD9ZrslacdyCT9vpWFrDkEVn1dDACT",
      "Lang": "gd",
      "CaptionKey": "translation",
      "CaptionName": "Eadar-theangachadh",
      "YoutubeSynced": true
    },
    {
      "ID": "E5yOaKugFfwod9ggCXXFqqE6CX5mCOw23z4mmGKImydvO1rkwxWSmg==",
      "Lang": "gl",
      "CaptionKey": "translation",
      "CaptionName": "Tradución",
      "YoutubeSynced": true
    },
    {
      "ID": "Txmdtry0GV5lrv5ssoNERoNNaQEe3Ht0sLqNeVVTnxhJ28TvBYAo6WEu4CYbtg8Q",
      "Lang": "gu",
      "CaptionKey": "translation",
      "CaptionName": "અનુવાદ",
      "YoutubeSynced": true
    },
    {
      "ID": "N9nGcuJgqmp-BaIcPRVFT6sTFiwTiIkx4eND4PXQxFHu-XmobKQcKg==",
      "Lang": "ha",
      "CaptionKey": "translation",
      "CaptionName": "Fassara",
      "YoutubeSynced": true
    },
    {
      "ID": "Txmdtry0GV6esqcXQSqLf5RWQM6U7AmGOMXhEtiIRx_zavHr3awynl8XjK9Mfc8v",
      "Lang": "hi",
      "CaptionKey": "translation",
      "CaptionName": "अनुवाद",
      "YoutubeSynced": true
    },
    {
      "ID": "zyN5txEJPR1pFQzvDCW38iN9f3XFRYFW2XMaYBEM3wT9ow9SfgNN1g==",
      "Lang": "hr",
      "CaptionKey": "translation",
      "CaptionName": "Prijevod",
      "YoutubeSynced": true
    },
    {
      "ID": "E5yOaKugFfyeYgMW9NjYc5hy4zxsky4tBT0Dx7eHhWSaW1Ei76lMNw==",
      "Lang": "hu",
      "CaptionKey": "translation",
      "CaptionName": "Fordítás",
      "YoutubeSynced": true
    },
    {
      "ID": "r6cLZfJYKJdYVhTl48s1_YF8XJROxuFKlBrPiWP5aOa_6pN2Gek8soroI9DNXxhwK-vrfvVc6yE=",
      "Lang": "hy",
      "CaptionKey": "translation",
      "CaptionName": "Թարգմանություն",
      "YoutubeSynced": true
    },
    {
      "ID": "E5yOaKugFfxggs21q6Hg5g30FEuepMkfBT4CzCf9TeqcemDLxt1N3g==",
      "Lang": "id",
      "CaptionKey": "translation",
      "CaptionName": "Terjemahan",
      "YoutubeSynced": true
    },
    {
      "ID": "zyN5txEJPR1p6dv-QtQiQ5E-cNhJUjrpi4YcQmM7zLL9IUz_0TNYIQ==",
      "Lang": "ig",
      "CaptionKey": "translation",
      "CaptionName": "Ntughari",
      "YoutubeSynced": true
    },
    {
      "ID": "XCmd9citt5v92BXeBfKl1hatgzGDTTdGdR45-oIqvKXsCfxjXSoIxw==",
      "Lang": "is",
      "CaptionKey": "translation",
      "CaptionName": "Þýðing",
      "YoutubeSynced": true
    },
    {
      "ID": "E5yOaKugFfwS6quAkknJDQoHEoGHCRpb5-pyPuaE0tKSsarm_0v--A==",
      "Lang": "it",
      "CaptionKey": "translation",
      "CaptionName": "Traduzione",
      "YoutubeSynced": true
    },
    {
      "ID": "E5yOaKugFfzsoAkVwonzmWRMcuCYIreFBmHAWVEIISwcvFsY_-ZZIA==",
      "Lang": "iw",
      "CaptionKey": "translation",
      "CaptionName": "תרגום",
      "YoutubeSynced": true
    },
    {
      "ID": "e91lWs9xuPg0gAq_nFnCbwxHdZHS_3v3BHDFArcRW6c=",
      "Lang": "ja",
      "CaptionKey": "translation",
      "CaptionName": "翻訳",
      "YoutubeSynced": true
    },
    {
      "ID": "XCmd9citt5tuKMtvZ62_pk_Gthrr9NNM2arQAy9Ip4Njuz1A0dBOOw==",
      "Lang": "jv",
      "CaptionKey": "translation",
      "CaptionName": "Ngartekne",
      "YoutubeSynced": true
    },
    {
      "ID": "6-QJlg-YTl7yV0zlGqZx_WiWgWeksQwZhUowd1mzFu4pBjZ3O-8lFQreIiPn7WeoEKPVe5eOyWY=",
      "Lang": "ka",
      "CaptionKey": "translation",
      "CaptionName": "თარგმანი",
      "YoutubeSynced": true
    },
    {
      "ID": "cw4pbrIKD757aK8CU3nADk1vtP_47rI5yf7WeI7yJUNrNuGSikAbYQ==",
      "Lang": "kk",
      "CaptionKey": "translation",
      "CaptionName": "Аударма",
      "YoutubeSynced": true
    },
    {
      "ID": "hNvR4LnZz_CRJVZ1hyPDh0UlSCao9L0_uXL5d_x5iLkgeDoS0W-aY3q1wUwL2LmMNl44-MJk1TQ=",
      "Lang": "km",
      "CaptionKey": "translation",
      "CaptionName": "ការបកប្រែ",
      "YoutubeSynced": true
    },
    {
      "ID": "Txmdtry0GV5mIPryRiUmTOglOUsEVlwMnDftuxLb80_VzGfxSxT2ubPkTOkR2uBU",
      "Lang": "kn",
      "CaptionKey": "translation",
      "CaptionName": "ಅನುವಾದ",
      "YoutubeSynced": true
    },
    {
      "ID": "e91lWs9xuPhSReI7wqlRo8ieCIUlQto15ia3TbZ1_gU=",
      "Lang": "ko",
      "CaptionKey": "translation",
      "CaptionName": "번역",
      "YoutubeSynced": true
    },
    {
      "ID": "e91lWs9xuPit_9VuokGTBzAxP-athXXYWILWXpEdi44=",
      "Lang": "ku",
      "CaptionKey": "translation",
      "CaptionName": "Werger",
      "YoutubeSynced": true
    },
    {
      "ID": "cw4pbrIKD74qwPisvrbQlxaaerG_e9Y4u9PzWaJuDlOHweg49Bk0Ow==",
      "Lang": "ky",
      "CaptionKey": "translation",
      "CaptionName": "котормо",
      "YoutubeSynced": true
    },
    {
      "ID": "wavm34zugqnGTB3SXTeBWCF471jdQb-Vqs2NENWWr3irn01dlgpbhg==",
      "Lang": "lb",
      "CaptionKey": "translation",
      "CaptionName": "Iwwersetzung",
      "YoutubeSynced": true
    },
    {
      "ID": "hNvR4LnZz_DWTbLzVDBCat4lwT11Nr69DxfpYLpyz6zTo4HP4d_KDpNcnV2uKyc8QW-QvHk0Oeg=",
      "Lang": "lo",
      "CaptionKey": "translation",
      "CaptionName": "ການແປພາສາ",
      "YoutubeSynced": true
    },
    {
      "ID": "zyN5txEJPR0hnYCGofzLcQDs6a2NVpXy3gjRp2ToGCA6r7YhYz_H_g==",
      "Lang": "lt",
      "CaptionKey": "translation",
      "CaptionName": "Vertimas",
      "YoutubeSynced": true
    },
    {
      "ID": "E5yOaKugFfwF8zNUPpW-BOc9SNm6bDCf3cLMqQkMHdmv4NeDMidU6Q==",
      "Lang": "lv",
      "CaptionKey": "translation",
      "CaptionName": "Tulkošana",
      "YoutubeSynced": true
    },
    {
      "ID": "_9zGabG6E3ryLXwXlod6h_fzmWY6sdhfILmiyqftopYWGtbW1p2W2Q==",
      "Lang": "mg",
      "CaptionKey": "translation",
      "CaptionName": "Translation",
      "YoutubeSynced": true
    },
    {
      "ID": "IjV5rmdDslp6iFMIj7yHhaBaCUuP5Qa6mpesV_4sKj2CfdLIBR-4c7S5EtIVTgCr",
      "Lang": "mi",
      "CaptionKey": "translation",
      "CaptionName": "Whakamaoritanga",
      "YoutubeSynced": true
    },
    {
      "ID": "wavm34zugqksqrG5UxFZc83oOYFtaeAmHaQoRml9c5Ewee-ysRhyiw==",
      "Lang": "mk",
      "CaptionKey": "translation",
      "CaptionName": "Превод",
      "YoutubeSynced": true
    },
    {
      "ID": "hNvR4LnZz_DZvUa4YQsOPI1JMIc12MRRTA2cTixv_LvaHS2DkxgDwwib03vyOgciVcAPCvEY3f4=",
      "Lang": "ml",
      "CaptionKey": "translation",
      "CaptionName": "വിവർത്തനം",
      "YoutubeSynced": true
    },
    {
      "ID": "V6Ip2y_9q5gFkZkdM3laHapB2eNeVy79Qus83epAQgSH2pIJusVUvHeff0oA7qb8",
      "Lang": "mn",
      "CaptionKey": "translation",
      "CaptionName": "Орчуулга",
      "YoutubeSynced": true
    },
    {
      "ID": "p_GNT2erWylqBVOTiSn15lGb9PPC_m12kFu9lQUufeUUGmAMEz0tih-fSqzch5Jm",
      "Lang": "mr",
      "CaptionKey": "translation",
      "CaptionName": "भाषांतर",
      "YoutubeSynced": true
    },
    {
      "ID": "E5yOaKugFfyTPJx4j_rfT2-RzipsQuiBYfmUyWbj3Oaspoem0Wt5Rw==",
      "Lang": "ms",
      "CaptionKey": "translation",
      "CaptionName": "Terjemahan",
      "YoutubeSynced": true
    },
    {
      "ID": "_9zGabG6E3rzTxh2OgXLUjjb3SGOP7-SKPtCtpc0Z_zZCcfrAIluxg==",
      "Lang": "mt",
      "CaptionKey": "translation",
      "CaptionName": "Traduzzjoni",
      "YoutubeSynced": true
    },
    {
      "ID": "6-QJlg-YTl5xObdUS8aBL6PizOvyNENfJlJwPBByf5EYD7OilGoWwE1NMgx_2lfepLmSD9vlfME=",
      "Lang": "my",
      "CaptionKey": "translation",
      "CaptionName": "ဘာသာပြန်",
      "YoutubeSynced": true
    },
    {
      "ID": "Txmdtry0GV5xykePplYsz2fmWArYF83CXhkrjraeT_CW5AE3-W5t4aJdjV1u3bOw",
      "Lang": "ne",
      "CaptionKey": "translation",
      "CaptionName": "अनुवाद",
      "YoutubeSynced": true
    },
    {
      "ID": "XCmd9citt5uKnjsukjo8xBV3m7rVbX8crGADmhXDCdIfn0Zcw3npqA==",
      "Lang": "nl",
      "CaptionKey": "translation",
      "CaptionName": "Vertaling",
      "YoutubeSynced": true
    },
    {
      "ID": "wavm34zugqlyU9d8n4E5PUi-xtE_DTnC99CHcTmZcPrDmPUmvzWkkQ==",
      "Lang": "no",
      "CaptionKey": "translation",
      "CaptionName": "Oversettelse",
      "YoutubeSynced": true
    },
    {
      "ID": "Txmdtry0GV69HphUVMhlkiAqr-5cwzVY2MlOiBmx-_LulkIcz6I4G1kvCcgMYxGa",
      "Lang": "pa",
      "CaptionKey": "translation",
      "CaptionName": "ਅਨੁਵਾਦ",
      "YoutubeSynced": true
    },
    {
      "ID": "wavm34zugqndhqUy3CluGc3dGPTmgqyUlTsiFHvf44KoqcQp1YDaiA==",
      "Lang": "pl",
      "CaptionKey": "translation",
      "CaptionName": "Tłumaczenie",
      "YoutubeSynced": true
    },
    {
      "ID": "E5yOaKugFfxZgiIZg7o7DZLuOubq6jReta5sNiRTwMI786AtYAeMEg==",
      "Lang": "ps",
      "CaptionKey": "translation",
      "CaptionName": "ژباړه",
      "YoutubeSynced": true
    },
    {
      "ID": "E5yOaKugFfwA7spMKo2K4ndvza-y2fUfMJBub0rDqR47yY4XVvQ1aw==",
      "Lang": "pt",
      "CaptionKey": "translation",
      "CaptionName": "Tradução",
      "YoutubeSynced": true
    },
    {
      "ID": "XCmd9citt5vN-mR8bOqh_QBSnPtRMd-laAJS5p-3JzMBuFV-ysBVBA==",
      "Lang": "ro",
      "CaptionKey": "translation",
      "CaptionName": "Traducere",
      "YoutubeSynced": true
    },
    {
      "ID": "cw4pbrIKD74bHxMPbPhKLxmpSyMiNi42JnLcF8FvP32SC6WfIK77VA==",
      "Lang": "ru",
      "CaptionKey": "translation",
      "CaptionName": "Перевод",
      "YoutubeSynced": true
    },
    {
      "ID": "E5yOaKugFfyi9nM_5MVwiVDDUZAk8BjCs6PtrMhdt1YVqFnKvOtIaw==",
      "Lang": "sd",
      "CaptionKey": "translation",
      "CaptionName": "ترجمو",
      "YoutubeSynced": true
    },
    {
      "ID": "hNvR4LnZz_Dhjw-VGrXTAHM7AJKWkQufNsP0GOToO7f3Of1G0w32C2xxeaFkgFhLiKtvwRJdHls=",
      "Lang": "si",
      "CaptionKey": "translation",
      "CaptionName": "පරිවර්තනය",
      "YoutubeSynced": true
    },
    {
      "ID": "N9nGcuJgqmqeZpaUUZbj0AK_AEUUyRb-W42WRFzF5RGgx-bbWF8HEA==",
      "Lang": "sk",
      "CaptionKey": "translation",
      "CaptionName": "preklad",
      "YoutubeSynced": true
    },
    {
      "ID": "e91lWs9xuPgkejHoa4ZfHCusaUBu7tlu_FjmYuwLtzg=",
      "Lang": "sl",
      "CaptionKey": "translation",
      "CaptionName": "Prevod",
      "YoutubeSynced": true
    },
    {
      "ID": "wavm34zugql8JheHwDGGxiEj3AuXH8h9iWBqOxYS4Ore4u3wro92rQ==",
      "Lang": "sm",
      "CaptionKey": "translation",
      "CaptionName": "Faʻaliliuga",
      "YoutubeSynced": true
    },
    {
      "ID": "N9nGcuJgqmpxZ-fzArPX1rK-sgFICd_xdNhp18uexWzBEAwJIjTFSQ==",
      "Lang": "sn",
      "CaptionKey": "translation",
      "CaptionName": "Dudziro",
      "YoutubeSynced": true
    },
    {
      "ID": "XCmd9citt5tVueOY6Oz-OJIGgFM0qqOFCmQVZsdrr80DgMI4yRuC3g==",
      "Lang": "so",
      "CaptionKey": "translation",
      "CaptionName": "Tarjumida",
      "YoutubeSynced": true
    },
    {
      "ID": "XCmd9citt5swG7qInnJvMt0zFXmwAjx41H0YwRRI47ZHywlI4gf7wA==",
      "Lang": "sq",
      "CaptionKey": "translation",
      "CaptionName": "përkthim",
      "YoutubeSynced": true
    },
    {
      "ID": "wavm34zugqlnJhCFljclS1UIylGNfFaz3nxLRuZvNsIqlsci7_YreQ==",
      "Lang": "sr",
      "CaptionKey": "translation",
      "CaptionName": "Превод",
      "YoutubeSynced": true
    },
    {
      "ID": "XCmd9citt5uKMnvXwPSJ4oQNrfUu1914R5IdxXY5CxkO3PcH1J2G8g==",
      "Lang": "st",
      "CaptionKey": "translation",
      "CaptionName": "Phetolelo",
      "YoutubeSynced": true
    },
    {
      "ID": "E5yOaKugFfzusRSQeHmC-NvdR8HYe3wZt51vKHVOQy6Bil0xEUI8Sg==",
      "Lang": "su",
      "CaptionKey": "translation",
      "CaptionName": "Tarjamahan",
      "YoutubeSynced": true
    },
    {
      "ID": "cw4pbrIKD76ra9Qe1mnJrfU2Bz_47oedWno0TQVK7KV-bT3WKY-VLA==",
      "Lang": "sv",
      "CaptionKey": "translation",
      "CaptionName": "Översättning",
      "YoutubeSynced": true
    },
    {
      "ID": "N9nGcuJgqmr3fHKYOhkBwo0dHZLtZcS1ttYyVOSxQmbWm8Fxm1Nrow==",
      "Lang": "sw",
      "CaptionKey": "translation",
      "CaptionName": "Tafsiri",
      "YoutubeSynced": true
    },
    {
      "ID": "QWoK9rHyN2xpXMEztzOhBUj6BWfM0RqZozW8Vo9BpdbYvqliUArWY9FTEqOEks3IZXf0nuM2uNFmfsWeMJ7ah1gvs-NkvisJ",
      "Lang": "ta",
      "CaptionKey": "translation",
      "CaptionName": "மொழிபெயர்ப்பு",
      "YoutubeSynced": true
    },
    {
      "ID": "p_GNT2erWykrg3lsgsJwpzDn9V6EownGuWkgFwzjdEclDJdG6AGZ4lTYPEn92mo8",
      "Lang": "te",
      "CaptionKey": "translation",
      "CaptionName": "అనువాదం",
      "YoutubeSynced": true
    },
    {
      "ID": "cw4pbrIKD76GIbzejTJkrBzpCbQNB6DtZMZYd5PCqclvDqn02jbiTw==",
      "Lang": "tg",
      "CaptionKey": "translation",
      "CaptionName": "Тарҷума",
      "YoutubeSynced": true
    },
    {
      "ID": "Txmdtry0GV6f0WnXJz-4O7LghsKGrxwnppQpHpuOVW8aQ97jQYrLjqR0xQ6sZPbW",
      "Lang": "th",
      "CaptionKey": "translation",
      "CaptionName": "การแปล",
      "YoutubeSynced": true
    },
    {
      "ID": "zyN5txEJPR03knKinE51NHPHL9yH_8fzYcuuZreB7ehCb05sQhJJtA==",
      "Lang": "tr",
      "CaptionKey": "translation",
      "CaptionName": "Tercüme",
      "YoutubeSynced": true
    },
    {
      "ID": "V6Ip2y_9q5g_QIN0g1DdFnSvSQYyvA8GTSJZSTrSA984j8GTDlLj_6pi-_prmcWf",
      "Lang": "uk",
      "CaptionKey": "translation",
      "CaptionName": "Переклад",
      "YoutubeSynced": true
    },
    {
      "ID": "E5yOaKugFfxfsX35Gbe2587u7_S3Svao3qs_0vYdj5pXvLZy4VM4fg==",
      "Lang": "ur",
      "CaptionKey": "translation",
      "CaptionName": "ترجمہ",
      "YoutubeSynced": true
    },
    {
      "ID": "N9nGcuJgqmqQa6OVROFkEaWgFABzGf0XqZWl3yXf15-W00qMU7ZR6A==",
      "Lang": "uz",
      "CaptionKey": "translation",
      "CaptionName": "Tarjima",
      "YoutubeSynced": true
    },
    {
      "ID": "e91lWs9xuPhtIFHn12kcG2_A6uZnS5DbCowaQ2Kmrw0=",
      "Lang": "vi",
      "CaptionKey": "translation",
      "CaptionName": "Dịch",
      "YoutubeSynced": true
    },
    {
      "ID": "E5yOaKugFfwnE9u9lVasTyQVPHrMD7lysrG7yBuswV1ogVRaoPPJxg==",
      "Lang": "xh",
      "CaptionKey": "translation",
      "CaptionName": "Inguqulelo",
      "YoutubeSynced": true
    },
    {
      "ID": "RpstfXSZfLcgCARcTzMa9MrBpahX5UBGkLWLsl-fQofRL0cBBoT8A7OL1eqC7xOw",
      "Lang": "yi",
      "CaptionKey": "translation",
      "CaptionName": "איבערזעצונג",
      "YoutubeSynced": true
    },
    {
      "ID": "N9nGcuJgqmpXzc9BU5YTsJ9u6T9B9seBzwL62_Jsmp2JqkiqMOTXyw==",
      "Lang": "yo",
      "CaptionKey": "translation",
      "CaptionName": "Itumọ",
      "YoutubeSynced": true
    },
    {
      "ID": "_9zGabG6E3por_XBN6PRN7RyCzcMWj2qvgOUrzOr7PjiNn7Hnb_ZUA==",
      "Lang": "zh-Hans",
      "CaptionKey": "translation",
      "CaptionName": "翻译",
      "YoutubeSynced": true
    },
    {
      "ID": "_9zGabG6E3por_XBN6PRNyVK3mpFGeOFArmheJ1Xj_AAXC2klq6P5g==",
      "Lang": "zh-Hant",
      "CaptionKey": "translation",
      "CaptionName": "翻譯",
      "YoutubeSynced": true
    },
    {
      "ID": "E5yOaKugFfxg59Zzt1RUIgZloHOdhrVKx34SH_3ZeegzrNgA6vsXcg==",
      "Lang": "zu",
      "CaptionKey": "translation",
      "CaptionName": "Ukuhumusha",
      "YoutubeSynced": true
    }
  ]
}