{
  "VideoFile": "grammar-en-beginner-simple_44_UK.mp4",
  "Captions": [
    {
      "ID": "cqF2r5gEzdxFyNmKukjuJQiGBsfH7Qz7cf0o1roYvP4X1_uwahwA4g==",
      "Lang": "af",
      "CaptionKey": "translation",
      "CaptionName": "vertaling",
      "YoutubeSynced": true
    },
    {
      "ID": "paWHaBbAmjxNlrLjKDT3ekSjBwrG-Nty3wfzzsJ5roMhF8iBj9BGAg==",
      "Lang": "am",
      "CaptionKey": "translation",
      "CaptionName": "ትርጉም",
      "YoutubeSynced": true
    },
    {
      "ID": "uwDdf_OrDhRCeMilDHqXpt1ws8IHkv9Mq5sq7BWaJZ73B2lMYpU7eg==",
      "Lang": "ar",
      "CaptionKey": "translation",
      "CaptionName": "ترجمة",
      "YoutubeSynced": true
    },
    {
      "ID": "uwDdf_OrDhQupPHLjgAnbe73gUdoN317bhn51fOCvjuaNlGr0gFUuQ==",
      "Lang": "az",
      "CaptionKey": "translation",
      "CaptionName": "Tərcümə",
      "YoutubeSynced": true
    },
    {
      "ID": "DKIEvUupnI2UGM3YHb7liSrelOMQLtbpo-_gbhgnbwdT8WtH6FifJHCDfmW_j2UR",
      "Lang": "be",
      "CaptionKey": "translation",
      "CaptionName": "Пераклад",
      "YoutubeSynced": true
    },
    {
      "ID": "paWHaBbAmjyJKFZU741vRyt-zjktp4oqdQZx_f-1dqvbyecaN7gjWw==",
      "Lang": "bg",
      "CaptionKey": "translation",
      "CaptionName": "превод",
      "YoutubeSynced": true
    },
    {
      "ID": "P44zMZFn5xVer-3EI2PWVpEPMurOl6AvZ5ef7N-rgiQ8T_kWc5rSsmHfIh4kMqlL",
      "Lang": "bn",
      "CaptionKey": "translation",
      "CaptionName": "অনুবাদ",
      "YoutubeSynced": true
    },
    {
      "ID": "UpP3wYRrg04nfkvwLibgJ7GE8ylMypi7QE2JEtD4new=",
      "Lang": "bs",
      "CaptionKey": "translation",
      "CaptionName": "Prevod",
      "YoutubeSynced": true
    },
    {
      "ID": "uwDdf_OrDhS-oJudm7zq8J7EUv5b8Pw627KUqtYotxdJdTOcwjAmRg==",
      "Lang": "ca",
      "CaptionKey": "translation",
      "CaptionName": "Traducció",
      "YoutubeSynced": true
    },
    {
      "ID": "uwDdf_OrDhTYHd5pkwRqdQTeZPkGP_Pink5nW8J1pKlfbYrmLKaZzw==",
      "Lang": "co",
      "CaptionKey": "translation",
      "CaptionName": "Traduzione",
      "YoutubeSynced": true
    },
    {
      "ID": "ScAkaWk86XcKsz-XI6Mc3y2T8kbqU2URWQtkcQdWhsz-GwnGPwL2hg==",
      "Lang": "cs",
      "CaptionKey": "translation",
      "CaptionName": "Překlad",
      "YoutubeSynced": true
    },
    {
      "ID": "KPv8tXUlhPkawxTbOtbQYlrHmj_1sc12BGOLUGjWK1FdFjqLqutiDA==",
      "Lang": "cy",
      "CaptionKey": "translation",
      "CaptionName": "Cyfieithiad",
      "YoutubeSynced": true
    },
    {
      "ID": "VYbFd41BTK5Yym1HO9EkJLgGygRBun2hS8XATUzn_U7_PsD9yfi1GA==",
      "Lang": "da",
      "CaptionKey": "translation",
      "CaptionName": "Oversættelse",
      "YoutubeSynced": true
    },
    {
      "ID": "paWHaBbAmjxl_34URl2rZoDk2tNESp4hVYIJYj-LXlDQ1I9-ZbhA7w==",
      "Lang": "de",
      "CaptionKey": "translation",
      "CaptionName": "Übersetzung",
      "YoutubeSynced": true
    },
    {
      "ID": "P44zMZFn5xXRV0AaHa5_Eb7hTTUUKNZeXaB7yUIp14g6cFeFzwJOShZ_7-plsHRn",
      "Lang": "el",
      "CaptionKey": "translation",
      "CaptionName": "Μετάφραση",
      "YoutubeSynced": true
    },
    {
      "ID": "KPv8tXUlhPlN5fXMqldu3vxtpMBdeRUylpfEiBTduzyfVhim04sRRQ==",
      "Lang": "en",
      "CaptionKey": "translation",
      "CaptionName": "Translation",
      "YoutubeSynced": true
    },
    {
      "ID": "jCl8Cbs32NVMK6hqPqht-Sm_JOvXSfqTBdCls454dZFi5CPnEhZUQowOe44INSZG",
      "Lang": "en",
      "CaptionKey": "ruby",
      "CaptionName": "Pronunciation - IPA",
      "YoutubeSynced": true
    },
    {
      "ID": "KPv8tXUlhPntDGowhJ-yYiiNXptf-QwD_kJ3Lp7YWIyazqVznOK5QA==",
      "Lang": "es",
      "CaptionKey": "translation",
      "CaptionName": "Traducción",
      "YoutubeSynced": true
    },
    {
      "ID": "UpP3wYRrg05I-qIcflINEAi6YgE9NngjUXNYxF6r4n8=",
      "Lang": "et",
      "CaptionKey": "translation",
      "CaptionName": "Tõlge",
      "YoutubeSynced": true
    },
    {
      "ID": "cqF2r5gEzdxHnknv79V-tDA29gVT6DvhuEgltEmf9-meu4C0exVuXQ==",
      "Lang": "eu",
      "CaptionKey": "translation",
      "CaptionName": "Itzulpena",
      "YoutubeSynced": true
    },
    {
      "ID": "uwDdf_OrDhQeBW3QQXraPBFNaGVXl9YE0EBAHsWqAwqEFLQwLFo8cw==",
      "Lang": "fa",
      "CaptionKey": "translation",
      "CaptionName": "ترجمه",
      "YoutubeSynced": true
    },
    {
      "ID": "uwDdf_OrDhR9hwqXRuFATmhvTrg5M_iHAuJC6w4NOTFQ5Iz6E8dWLw==",
      "Lang": "fi",
      "CaptionKey": "translation",
      "CaptionName": "Käännös",
      "YoutubeSynced": true
    },
    {
      "ID": "KPv8tXUlhPmWp9DI_9fgLBar0JNo1uu1GDA3UIGDus5jg2riQdz6LA==",
      "Lang": "fil",
      "CaptionKey": "translation",
      "CaptionName": "Pagsasalin",
      "YoutubeSynced": true
    },
    {
      "ID": "uwDdf_OrDhT5lh1cvDzvUIX1yFCcLvJx1OdBeTH5sS0DhDIbLoA-lg==",
      "Lang": "fr",
      "CaptionKey": "translation",
      "CaptionName": "Traduction",
      "YoutubeSynced": true
    },
    {
      "ID": "uwDdf_OrDhQXy2fDgB_XS3Is1D7-wtzG5k4CA_O_XYHZGXfBikLZrQ==",
      "Lang": "fy",
      "CaptionKey": "translation",
      "CaptionName": "Oersetting",
      "YoutubeSynced": true
    },
    {
      "ID": "P44zMZFn5xWnfsem-23i6NNOWZrI0Xt6kUMEXiictuoaO6kmXk1yjDUbWoFLHv3W",
      "Lang": "gd",
      "CaptionKey": "translation",
      "CaptionName": "Eadar-theangachadh",
      "YoutubeSynced": true
    },
    {
      "ID": "uwDdf_OrDhRlH8NcZ5h-Kv17cIEXaj7fGJH3C4jM9NS5HlDt7vT7bg==",
      "Lang": "gl",
      "CaptionKey": "translation",
      "CaptionName": "Tradución",
      "YoutubeSynced": true
    },
    {
      "ID": "P44zMZFn5xUK18l6AkE0acjU8n2ks1gePQ-WtkMNx3AKG1q_UjBlofZbRdht4969",
      "Lang": "gu",
      "CaptionKey": "translation",
      "CaptionName": "અનુવાદ",
      "YoutubeSynced": true
    },
    {
      "ID": "YkLw10IusmKne8EyBx5Rbe0w9zTm_KEudtKWHqOXaGDTeMnlk12mkw==",
      "Lang": "ha",
      "CaptionKey": "translation",
      "CaptionName": "Fassara",
      "YoutubeSynced": true
    },
    {
      "ID": "P44zMZFn5xV0TVgFgs59WYXi0_XL4pr6Fwusr0qZMknnK0tVJ3-VAwd6_R2dWDtP",
      "Lang": "hi",
      "CaptionKey": "translation",
      "CaptionName": "अनुवाद",
      "YoutubeSynced": true
    },
    {
      "ID": "ScAkaWk86XcmvU2HOiRa9BQlVZpXrJEtySLrARSfZI0zI5xViVjYNw==",
      "Lang": "hr",
      "CaptionKey": "translation",
      "CaptionName": "Prijevod",
      "YoutubeSynced": true
    },
    {
      "ID": "uwDdf_OrDhQFRktETOkkBt7xGmrGW-JGcvAjMNutIWRrNRT7BkIHow==",
      "Lang": "hu",
      "CaptionKey": "translation",
      "CaptionName": "Fordítás",
      "YoutubeSynced": true
    },
    {
      "ID": "nePv2-tM7Cdx9dcXd1WJ6GvhLrKNExafNma0aeG6FL4fYRRC2_Sc9qEoqW1UQvE02dXBolBF0F4=",
      "Lang": "hy",
      "CaptionKey": "translation",
      "CaptionName": "Թարգմանություն",
      "YoutubeSynced": true
    },
    {
      "ID": "uwDdf_OrDhRH7_-312F03MFeHZrTVfHF_PusUO7dgT4_-hdzqcgcIA==",
      "Lang": "id",
      "CaptionKey": "translation",
      "CaptionName": "Terjemahan",
      "YoutubeSynced": true
    },
    {
      "ID": "ScAkaWk86XdywB50fwaridhds98Pkovq-741Oyyrjd_S8w6jRfz2VA==",
      "Lang": "ig",
      "CaptionKey": "translation",
      "CaptionName": "Ntughari",
      "YoutubeSynced": true
    },
    {
      "ID": "cqF2r5gEzdxcBUgHwBDpxR08ujPgSXJQekIQgIFayRbfS7fxQ02NMA==",
      "Lang": "is",
      "CaptionKey": "translation",
      "CaptionName": "Þýðing",
      "YoutubeSynced": true
    },
    {
      "ID": "uwDdf_OrDhTUfb7jtjZ2bYLq47WoDtqGqodbhXGRHTOL55iH5wruRw==",
      "Lang": "it",
      "CaptionKey": "translation",
      "CaptionName": "Traduzione",
      "YoutubeSynced": true
    },
    {
      "ID": "uwDdf_OrDhTKqYJLZsrI44JDFaSLGcpOew1Ah4B_F0GbcQ_N0lP_mw==",
      "Lang": "iw",
      "CaptionKey": "translation",
      "CaptionName": "תרגום",
      "YoutubeSynced": true
    },
    {
      "ID": "UpP3wYRrg06lknhwkSlbQ2q9bTuJc-1kDLSL0q1TiwU=",
      "Lang": "ja",
      "CaptionKey": "translation",
      "CaptionName": "翻訳",
      "YoutubeSynced": true
    },
    {
      "ID": "cqF2r5gEzdxE7IivHlmiBfg4KWEyNdyduKnzkxxFi1ZGQTpsPMLdEA==",
      "Lang": "jv",
      "CaptionKey": "translation",
      "CaptionName": "Ngartekne",
      "YoutubeSynced": true
    },
    {
      "ID": "6yYRjK3IvWzFYs329-PmLULib6WFWZi7TT-Re59wpAGeMJzRRB6_UOWYI3B4_WRltXfY70QC4gc=",
      "Lang": "ka",
      "CaptionKey": "translation",
      "CaptionName": "თარგმანი",
      "YoutubeSynced": true
    },
    {
      "ID": "8zoPieq22q2DHRJWJjI2uUuQhOM_gae9OOkstQPhkVDVC2DktIBXVQ==",
      "Lang": "kk",
      "CaptionKey": "translation",
      "CaptionName": "Аударма",
      "YoutubeSynced": true
    },
    {
      "ID": "HdBNgUK8GaOAaoE2hd6n1ZHskv09yNj59VwtxE3lriD0X_CQZA1uJti6TQVEdax-bhvc6Jt0pjQ=",
      "Lang": "km",
      "CaptionKey": "translation",
      "CaptionName": "ការបកប្រែ",
      "YoutubeSynced": true
    },
    {
      "ID": "P44zMZFn5xWDmXys2IVzyl-MCWRkCDcqUjY-QMcbUUZ2VwMFSVXgogTeMpproQIH",
      "Lang": "kn",
      "CaptionKey": "translation",
      "CaptionName": "ಅನುವಾದ",
      "YoutubeSynced": true
    },
    {
      "ID": "UpP3wYRrg05-npDQ4LhdUqZgsb0VuylMk52IYI9Xc1k=",
      "Lang": "ko",
      "CaptionKey": "translation",
      "CaptionName": "번역",
      "YoutubeSynced": true
    },
    {
      "ID": "UpP3wYRrg045JFE7VVhPrX4oRncN6BqUdCjs1N8OqR4=",
      "Lang": "ku",
      "CaptionKey": "translation",
      "CaptionName": "Werger",
      "YoutubeSynced": true
    },
    {
      "ID": "8zoPieq22q3M8RIER5Vlbrzj8pzdoAtjS-OVU8Zm-qtRmDf3XsXB5w==",
      "Lang": "ky",
      "CaptionKey": "translation",
      "CaptionName": "котормо",
      "YoutubeSynced": true
    },
    {
      "ID": "paWHaBbAmjzv1hhGEEI0e9UU-wvCQp-ghJJdjgwt9ecU2Ndl2S012g==",
      "Lang": "lb",
      "CaptionKey": "translation",
      "CaptionName": "Iwwersetzung",
      "YoutubeSynced": true
    },
    {
      "ID": "HdBNgUK8GaOfPNuRqIm3mqMp9zSOAIHfHQ7RMEa__W0wcAlXieEgYQ0lQ0HjG2x3zeyQo6EtqZQ=",
      "Lang": "lo",
      "CaptionKey": "translation",
      "CaptionName": "ການແປພາສາ",
      "YoutubeSynced": true
    },
    {
      "ID": "ScAkaWk86XcRDjCWQ-1qXZ9Hf9NKB9z1mmrfzlLgMizcSijz57IRzg==",
      "Lang": "lt",
      "CaptionKey": "translation",
      "CaptionName": "Vertimas",
      "YoutubeSynced": true
    },
    {
      "ID": "uwDdf_OrDhROI5ha4pglyB4tJuPpUgjpGZ8lNlUErZtojJ9kM3p1jg==",
      "Lang": "lv",
      "CaptionKey": "translation",
      "CaptionName": "Tulkošana",
      "YoutubeSynced": true
    },
    {
      "ID": "KPv8tXUlhPlFEXSrchA6hINp2QQCvEKRJ7my6g1lIRJdZwon_yHGlg==",
      "Lang": "mg",
      "CaptionKey": "translation",
      "CaptionName": "Translation",
      "YoutubeSynced": true
    },
    {
      "ID": "LWOcBOUaefNMViskr3eojQSSc9bkR4q2gbDj1tWqpqjuiS7PMKEi45KGlzoSc6tu",
      "Lang": "mi",
      "CaptionKey": "translation",
      "CaptionName": "Whakamaoritanga",
      "YoutubeSynced": true
    },
    {
      "ID": "paWHaBbAmjyKMoErwQPJJtaB-QioeRnx4v2rNLz5Z4AGvvsO_6xw1w==",
      "Lang": "mk",
      "CaptionKey": "translation",
      "CaptionName": "Превод",
      "YoutubeSynced": true
    },
    {
      "ID": "HdBNgUK8GaNT5cSoycL8egQ8drl0xznb4pvfnyApA_bzk3srUmYDmM6wpB4Q6rotG_unPwu7H-E=",
      "Lang": "ml",
      "CaptionKey": "translation",
      "CaptionName": "വിവർത്തനം",
      "YoutubeSynced": true
    },
    {
      "ID": "DKIEvUupnI37Nf-17v76e5GGokwEIglnbwOrwBqGMDTuTyHU1gO5rtispBDHvHjR",
      "Lang": "mn",
      "CaptionKey": "translation",
      "CaptionName": "Орчуулга",
      "YoutubeSynced": true
    },
    {
      "ID": "S2IS1TqZQhWdhqAjSGGl-Xj1HOoa3mFLokKzAC9abZUR6ZtSV8FNUkeUOS0ed2u1",
      "Lang": "mr",
      "CaptionKey": "translation",
      "CaptionName": "भाषांतर",
      "YoutubeSynced": true
    },
    {
      "ID": "uwDdf_OrDhQXjGZdi72k_LwIIdMbzUxxY2LUTDp0Igki3_lcBHRcmA==",
      "Lang": "ms",
      "CaptionKey": "translation",
      "CaptionName": "Terjemahan",
      "YoutubeSynced": true
    },
    {
      "ID": "KPv8tXUlhPlK95AxFUCgnemqZy2-z4lH-n9dJhBXEOqAWNfJ27w1TA==",
      "Lang": "mt",
      "CaptionKey": "translation",
      "CaptionName": "Traduzzjoni",
      "YoutubeSynced": true
    },
    {
      "ID": "6yYRjK3IvWxMlY_AVMR18Q77rCmW9z6aICGOD320qwcN41IB96AXlL0BnrKsRt5_h6cXeszNPgM=",
      "Lang": "my",
      "CaptionKey": "translation",
      "CaptionName": "ဘာသာပြန်",
      "YoutubeSynced": true
    },
    {
      "ID": "P44zMZFn5xVpUaSmCoLgQmAAvExmyOuFsvAxZV0Kpc56SBuNyOeOYxQyn8qy9fEc",
      "Lang": "ne",
      "CaptionKey": "translation",
      "CaptionName": "अनुवाद",
      "YoutubeSynced": true
    },
    {
      "ID": "cqF2r5gEzdzAL3U_fjGkHITVD1b65HrZCfqlG8YDtpTDsGSaaRRMyw==",
      "Lang": "nl",
      "CaptionKey": "translation",
      "CaptionName": "Vertaling",
      "YoutubeSynced": true
    },
    {
      "ID": "paWHaBbAmjyQ-rCRq1VvGulDqqIITXy7djxwWD0IKF9n0tMHu4iXhg==",
      "Lang": "no",
      "CaptionKey": "translation",
      "CaptionName": "Oversettelse",
      "YoutubeSynced": true
    },
    {
      "ID": "P44zMZFn5xXTgQCZVUVivsgcnANXN55rToqcDQA6tG6LltrEdxLkBLNUmqtQW5_m",
      "Lang": "pa",
      "CaptionKey": "translation",
      "CaptionName": "ਅਨੁਵਾਦ",
      "YoutubeSynced": true
    },
    {
      "ID": "paWHaBbAmjzFA5XnUIfFmXWqr48eGHcQAmVrGTp30hDQszrbEbB8aA==",
      "Lang": "pl",
      "CaptionKey": "translation",
      "CaptionName": "Tłumaczenie",
      "YoutubeSynced": true
    },
    {
      "ID": "uwDdf_OrDhQnPFd1wHCsSsNppwWm6y1c19l2ypLHSoTYZTGwJs1nVg==",
      "Lang": "ps",
      "CaptionKey": "translation",
      "CaptionName": "ژباړه",
      "YoutubeSynced": true
    },
    {
      "ID": "uwDdf_OrDhSlffBZmduF2O_xFglX6r_3A-D0qTjjYywhpdFAuPawiA==",
      "Lang": "pt",
      "CaptionKey": "translation",
      "CaptionName": "Tradução",
      "YoutubeSynced": true
    },
    {
      "ID": "cqF2r5gEzdz4f7NVtVEatHoyXykUHMPYcC7h5v4IQbx6hgJ9V6nJQA==",
      "Lang": "ro",
      "CaptionKey": "translation",
      "CaptionName": "Traducere",
      "YoutubeSynced": true
    },
    {
      "ID": "8zoPieq22q2k8S4VPYe3JI1_xN00dzv6sRUOexLVx6pLyyGuE7aUZw==",
      "Lang": "ru",
      "CaptionKey": "translation",
      "CaptionName": "Перевод",
      "YoutubeSynced": true
    },
    {
      "ID": "uwDdf_OrDhRw2e7w1s-C8BxwBPL-zlbuZxO3G1ZcelbNNasVjh84Ow==",
      "Lang": "sd",
      "CaptionKey": "translation",
      "CaptionName": "ترجمو",
      "YoutubeSynced": true
    },
    {
      "ID": "HdBNgUK8GaMBT3oLw-OugrpSNZnS0Y-lndVCHE5YQMGRkbGbl-S3_QuJGeg5qrrrRH1-FZtUMEE=",
      "Lang": "si",
      "CaptionKey": "translation",
      "CaptionName": "පරිවර්තනය",
      "YoutubeSynced": true
    },
    {
      "ID": "YkLw10IusmKq3aiYhwbWOviE8qcb2LoqzfPKK-m8tphBXP_EFDEzeQ==",
      "Lang": "sk",
      "CaptionKey": "translation",
      "CaptionName": "preklad",
      "YoutubeSynced": true
    },
    {
      "ID": "UpP3wYRrg06zIcLnQk00J24d4HvRihwYxxQOJPMS1PU=",
      "Lang": "sl",
      "CaptionKey": "translation",
      "CaptionName": "Prevod",
      "YoutubeSynced": true
    },
    {
      "ID": "paWHaBbAmjy87Jug0yhRYtlSs-7-TUkQ2YOxx2pryb7O4-SiAuRnqg==",
      "Lang": "sm",
      "CaptionKey": "translation",
      "CaptionName": "Faʻaliliuga",
      "YoutubeSynced": true
    },
    {
      "ID": "YkLw10IusmK7G_7OFA5GaXITwGAxI2bPYAH85i67dKp06YydgFFZdw==",
      "Lang": "sn",
      "CaptionKey": "translation",
      "CaptionName": "Dudziro",
      "YoutubeSynced": true
    },
    {
      "ID": "cqF2r5gEzdzrKx-iyRPs7YXChBCt2xfqDaoctbX_5nduPX19yetd7w==",
      "Lang": "so",
      "CaptionKey": "translation",
      "CaptionName": "Tarjumida",
      "YoutubeSynced": true
    },
    {
      "ID": "cqF2r5gEzdzxg5ws_p5PJnmh7YFySBDCPGIu7ZpC2rSOJwuYw4pBCQ==",
      "Lang": "sq",
      "CaptionKey": "translation",
      "CaptionName": "përkthim",
      "YoutubeSynced": true
    },
    {
      "ID": "paWHaBbAmjzIhG8KpObuXDq26-E9uwAifSwP3Toy-z-c-g-BdRNbkw==",
      "Lang": "sr",
      "CaptionKey": "translation",
      "CaptionName": "Превод",
      "YoutubeSynced": true
    },
    {
      "ID": "cqF2r5gEzdw53OHzLEAFCZjJGJUE-J8o98JvLyVM26JL0D50gIP-2A==",
      "Lang": "st",
      "CaptionKey": "translation",
      "CaptionName": "Phetolelo",
      "YoutubeSynced": true
    },
    {
      "ID": "uwDdf_OrDhSE9qvigOCRhn4JZINkt-hIER4bXUheKz8pwYOJgcK0Tg==",
      "Lang": "su",
      "CaptionKey": "translation",
      "CaptionName": "Tarjamahan",
      "YoutubeSynced": true
    },
    {
      "ID": "8zoPieq22q0nT6NXujDNtGyWo0yfZOcHekJMPScd6roY5CN3qE4Dww==",
      "Lang": "sv",
      "CaptionKey": "translation",
      "CaptionName": "Översättning",
      "YoutubeSynced": true
    },
    {
      "ID": "YkLw10IusmL9FYpVFEb3acaTX4H5Bs8hrND8Dvtcq1xGbaBCYuvsEw==",
      "Lang": "sw",
      "CaptionKey": "translation",
      "CaptionName": "Tafsiri",
      "YoutubeSynced": true
    },
    {
      "ID": "eUrGGm1iw7EysKeSw64oZRfZWGNHQrpfUBTsFMsvnwohaea--518fZGuLSx9ZzE3yEqu52AcKnkTi7y0crxvxvzLfdiQk3PB",
      "Lang": "ta",
      "CaptionKey": "translation",
      "CaptionName": "மொழிபெயர்ப்பு",
      "YoutubeSynced": true
    },
    {
      "ID": "S2IS1TqZQhUnc8XfEThDNi17pRTdPgcJPWdkL5x5FVWzBhyVZrdsMaw4Y13DWbTB",
      "Lang": "te",
      "CaptionKey": "translation",
      "CaptionName": "అనువాదం",
      "YoutubeSynced": true
    },
    {
      "ID": "8zoPieq22q3XNKAoS1sx5CB7uh9L_1ZqzjgtyYIKLUVXVIKdt0xLEg==",
      "Lang": "tg",
      "CaptionKey": "translation",
      "CaptionName": "Тарҷума",
      "YoutubeSynced": true
    },
    {
      "ID": "P44zMZFn5xXaM1wzcVOENjq851KaQ3G-PhWV90rSY2CmVjIFXfRfF4jkMgF_Kvyk",
      "Lang": "th",
      "CaptionKey": "translation",
      "CaptionName": "การแปล",
      "YoutubeSynced": true
    },
    {
      "ID": "ScAkaWk86XfC2te4ziZfd_KWIiNQxB7Z3yrCEy6Prc7KBWE7euyJcw==",
      "Lang": "tr",
      "CaptionKey": "translation",
      "CaptionName": "Tercüme",
      "YoutubeSynced": true
    },
    {
      "ID": "DKIEvUupnI1OwLyyfzi9SHMAwISwTP1rHRHNPBaj37n6YS-2nGAqywwNT0mSXne0",
      "Lang": "uk",
      "CaptionKey": "translation",
      "CaptionName": "Переклад",
      "YoutubeSynced": true
    },
    {
      "ID": "uwDdf_OrDhQh8YVCpl9S16XPfifYtfE7gQYGKOdnnvUzRAe9z_-wFw==",
      "Lang": "ur",
      "CaptionKey": "translation",
      "CaptionName": "ترجمہ",
      "YoutubeSynced": true
    },
    {
      "ID": "YkLw10IusmLO3wTWccjPkgllV7XOclnYVum_0QHhjDHdR4xtKgrXtw==",
      "Lang": "uz",
      "CaptionKey": "translation",
      "CaptionName": "Tarjima",
      "YoutubeSynced": true
    },
    {
      "ID": "UpP3wYRrg06pndsKNTq_d7_rxsdiWo6vKDypskzjgis=",
      "Lang": "vi",
      "CaptionKey": "translation",
      "CaptionName": "Dịch",
      "YoutubeSynced": true
    },
    {
      "ID": "uwDdf_OrDhTsYZWwiR0cC6iUiNtcPte1pCXljUYwH2dMOjGvzskF5g==",
      "Lang": "xh",
      "CaptionKey": "translation",
      "CaptionName": "Inguqulelo",
      "YoutubeSynced": true
    },
    {
      "ID": "QUILcKa1DV2UI-4dHuH2WH7e1u7Fam5tZmRB3v0oSmQN3gETGj1d6Xnymi5TfIyg",
      "Lang": "yi",
      "CaptionKey": "translation",
      "CaptionName": "איבערזעצונג",
      "YoutubeSynced": true
    },
    {
      "ID": "YkLw10IusmLrZPgwmu97bI4_-nFuQaQ3JicM_NSeEfeCxfeSQHmKRg==",
      "Lang": "yo",
      "CaptionKey": "translation",
      "CaptionName": "Itumọ",
      "YoutubeSynced": true
    },
    {
      "ID": "KPv8tXUlhPkmDHOVXDgAkrSguoccwI-xq5lqmq1lAiKA7uXhkHX96w==",
      "Lang": "zh-Hans",
      "CaptionKey": "translation",
      "CaptionName": "翻译",
      "YoutubeSynced": true
    },
    {
      "ID": "KPv8tXUlhPkmDHOVXDgAkrZyyA2a52siLmT3uTjBbRuiU89zdFJGXg==",
      "Lang": "zh-Hant",
      "CaptionKey": "translation",
      "CaptionName": "翻譯",
      "YoutubeSynced": true
    },
    {
      "ID": "uwDdf_OrDhRUVOX-alRmYTUU_y9h0ouLBwvcaIomck3sotsIXteaQQ==",
      "Lang": "zu",
      "CaptionKey": "translation",
      "CaptionName": "Ukuhumusha",
      "YoutubeSynced": true
    }
  ]
}