{
  "VideoFile": "grammar-en-beginner-simple_68_A.mp4",
  "Captions": [
    {
      "ID": "0HWBujrFgOeI_Ui_nx4l1LcTB5KAbbMKqY9DvCcE2i88R5tMDrZPNQ==",
      "Lang": "af",
      "CaptionKey": "translation",
      "CaptionName": "vertaling",
      "YoutubeSynced": true
    },
    {
      "ID": "pERZyiT4bfcriR3Fl__5kwVUzy_3xoruLgPebYvVd5Uh7Y3scxTJIg==",
      "Lang": "am",
      "CaptionKey": "translation",
      "CaptionName": "ትርጉም",
      "YoutubeSynced": true
    },
    {
      "ID": "5lzuLLN4HWAnPXgb9SaQrjMvxQi5_jIs6Rrn3YidxZxiF-1WGxEtow==",
      "Lang": "ar",
      "CaptionKey": "translation",
      "CaptionName": "ترجمة",
      "YoutubeSynced": true
    },
    {
      "ID": "5lzuLLN4HWDJ6sSY-qURn3mMYm0pq8xz9YHcQ2fnXvkRgQjNqZNifg==",
      "Lang": "az",
      "CaptionKey": "translation",
      "CaptionName": "Tərcümə",
      "YoutubeSynced": true
    },
    {
      "ID": "w39MqPZiafWJfDBHLylkUcTucYv7gy1le8Q_iZZkxGJp2PcC8ifcegow8Afn0_9G",
      "Lang": "be",
      "CaptionKey": "translation",
      "CaptionName": "Пераклад",
      "YoutubeSynced": true
    },
    {
      "ID": "pERZyiT4bfee2cHMdfDu2e98mGeLQmqeJAhTZqKNVrrJ11e7wrJP7w==",
      "Lang": "bg",
      "CaptionKey": "translation",
      "CaptionName": "превод",
      "YoutubeSynced": true
    },
    {
      "ID": "5sSiOQh3dlE97qIJ5PHjeEBNuXWwvfBDCNL2zQUoSD6cJWQFWB6wvb0tsgdRO6E3",
      "Lang": "bn",
      "CaptionKey": "translation",
      "CaptionName": "অনুবাদ",
      "YoutubeSynced": true
    },
    {
      "ID": "JYd63YnGaZBTfw0cNc2yQwmjTGUG__yPvb8o2RnzgYE=",
      "Lang": "bs",
      "CaptionKey": "translation",
      "CaptionName": "Prevod",
      "YoutubeSynced": true
    },
    {
      "ID": "5lzuLLN4HWCR_Zo3n6Ypgq1SSaxWDv6ASsSXGEX4pWvD5CSvee68CA==",
      "Lang": "ca",
      "CaptionKey": "translation",
      "CaptionName": "Traducció",
      "YoutubeSynced": true
    },
    {
      "ID": "5lzuLLN4HWA6Udn4_5ezvlfQoSp1Kvj10SoM-xFf-z65Ivtk_dNbtQ==",
      "Lang": "co",
      "CaptionKey": "translation",
      "CaptionName": "Traduzione",
      "YoutubeSynced": true
    },
    {
      "ID": "NEbAtNIMmSRXNsqkQjatai27UPQtBfvuPi3nhWhDiT6WPpahP7mu3A==",
      "Lang": "cs",
      "CaptionKey": "translation",
      "CaptionName": "Překlad",
      "YoutubeSynced": true
    },
    {
      "ID": "2BLYJTV0-k4Nj8RZjtxhtDj9umOKLf-W02p4qBP_Jzk3WsTnQaqmSw==",
      "Lang": "cy",
      "CaptionKey": "translation",
      "CaptionName": "Cyfieithiad",
      "YoutubeSynced": true
    },
    {
      "ID": "Kk6ZZYlp6zDoxCudI5MLYvGEPaYiNeGZ8eE1FsNndSR2jbxuWgoBNQ==",
      "Lang": "da",
      "CaptionKey": "translation",
      "CaptionName": "Oversættelse",
      "YoutubeSynced": true
    },
    {
      "ID": "pERZyiT4bfd2yG_r4FFInLchKuzR18gSF3Xk21qVJhCPGTRdwdHwvQ==",
      "Lang": "de",
      "CaptionKey": "translation",
      "CaptionName": "Übersetzung",
      "YoutubeSynced": true
    },
    {
      "ID": "5sSiOQh3dlH0zqdknKRMYh0PqJEDBjcWfumiSrULEQC89gG_uWPCgWZkeRxwJsfz",
      "Lang": "el",
      "CaptionKey": "translation",
      "CaptionName": "Μετάφραση",
      "YoutubeSynced": true
    },
    {
      "ID": "2BLYJTV0-k4jLX5Ewg9r--Zmaq0eGoWAJ6pmcknFExNmJFm5WwKaxA==",
      "Lang": "en",
      "CaptionKey": "translation",
      "CaptionName": "Translation",
      "YoutubeSynced": true
    },
    {
      "ID": "dfrscmM2g8mn90nlxyoJwyjt5ASeSjNUORoxOAt54BYnIQXLXOirWnVvb7ABZvQj",
      "Lang": "en",
      "CaptionKey": "ruby",
      "CaptionName": "Pronunciation - IPA",
      "YoutubeSynced": true
    },
    {
      "ID": "2BLYJTV0-k5eaWr1ouwvaDrlQxymn1GxqfdBPbXuvlJwEN2S0ahDOw==",
      "Lang": "es",
      "CaptionKey": "translation",
      "CaptionName": "Traducción",
      "YoutubeSynced": true
    },
    {
      "ID": "JYd63YnGaZAwSO6jUNF4HRCk73VWtHGlDv46BOjdCOM=",
      "Lang": "et",
      "CaptionKey": "translation",
      "CaptionName": "Tõlge",
      "YoutubeSynced": true
    },
    {
      "ID": "0HWBujrFgOfwTgonw1JhUboVC88_711K5USETQfAUrj79kDn22lucQ==",
      "Lang": "eu",
      "CaptionKey": "translation",
      "CaptionName": "Itzulpena",
      "YoutubeSynced": true
    },
    {
      "ID": "5lzuLLN4HWCB8V0fe3IGGrP1wVfe4jv1dKK4hsMJDwJvbFdAkObGAA==",
      "Lang": "fa",
      "CaptionKey": "translation",
      "CaptionName": "ترجمه",
      "YoutubeSynced": true
    },
    {
      "ID": "5lzuLLN4HWD--ABDFtsWphUq9-MfUtpzNaBPZUbtkDTPQUTu6zTWcw==",
      "Lang": "fi",
      "CaptionKey": "translation",
      "CaptionName": "Käännös",
      "YoutubeSynced": true
    },
    {
      "ID": "2BLYJTV0-k7fcO4BhO9Mi4DTlx-6Nvh-eyw50PqOllEt-1DCCPUA2g==",
      "Lang": "fil",
      "CaptionKey": "translation",
      "CaptionName": "Pagsasalin",
      "YoutubeSynced": true
    },
    {
      "ID": "5lzuLLN4HWCfTKmzW2grLvsNupKb4DxX12vWXvQXN1x8hoIxb8NXGw==",
      "Lang": "fr",
      "CaptionKey": "translation",
      "CaptionName": "Traduction",
      "YoutubeSynced": true
    },
    {
      "ID": "5lzuLLN4HWA2rpYm9shvdV0y9YHYagnfg4VERoba_6sOvUV7CxMABA==",
      "Lang": "fy",
      "CaptionKey": "translation",
      "CaptionName": "Oersetting",
      "YoutubeSynced": true
    },
    {
      "ID": "5sSiOQh3dlFzUdXlZy5UURE4sPWjoqZ6GIQyEO0a3n72utiiB1hZIsd99ekoluQg",
      "Lang": "gd",
      "CaptionKey": "translation",
      "CaptionName": "Eadar-theangachadh",
      "YoutubeSynced": true
    },
    {
      "ID": "5lzuLLN4HWAxOE2B2OtwsAOOWv1HfHAI_Y9O_DlVxADBeppJs1FvvA==",
      "Lang": "gl",
      "CaptionKey": "translation",
      "CaptionName": "Tradución",
      "YoutubeSynced": true
    },
    {
      "ID": "5sSiOQh3dlE6Uk4xLDpBTb2fBrRQkg5inFukQ1oFJRgMKj4Byk9I6e-P0FllySRe",
      "Lang": "gu",
      "CaptionKey": "translation",
      "CaptionName": "અનુવાદ",
      "YoutubeSynced": true
    },
    {
      "ID": "S0B8uz21_5LTLXYGDNSGbohG2aiaCUOc8tQg6QmXK6SFrNR2414lBw==",
      "Lang": "ha",
      "CaptionKey": "translation",
      "CaptionName": "Fassara",
      "YoutubeSynced": true
    },
    {
      "ID": "5sSiOQh3dlHt5BFPvVDkGM91fy132lVaBHdmP9neDbr8zOfwok6ixZ4mwh0ylQvu",
      "Lang": "hi",
      "CaptionKey": "translation",
      "CaptionName": "अनुवाद",
      "YoutubeSynced": true
    },
    {
      "ID": "NEbAtNIMmSSKteSShs4XhYXpeXjbQP2_RdwStFcmRdvvfLAcHj8VtQ==",
      "Lang": "hr",
      "CaptionKey": "translation",
      "CaptionName": "Prijevod",
      "YoutubeSynced": true
    },
    {
      "ID": "5lzuLLN4HWAgqhNm6PfEOb6APQ_IaY486queDM4gkVrYXr7qu41tKg==",
      "Lang": "hu",
      "CaptionKey": "translation",
      "CaptionName": "Fordítás",
      "YoutubeSynced": true
    },
    {
      "ID": "5O2Wl7XceCcHhxKrteIInIEhnh0mx3b0aLGm5KXnanQ4Tcu1TVT_j3J9JgPGgHFFCSuIKy9vUjE=",
      "Lang": "hy",
      "CaptionKey": "translation",
      "CaptionName": "Թարգմանություն",
      "YoutubeSynced": true
    },
    {
      "ID": "5lzuLLN4HWB7w9_k2T2BlUh3BJXjfwXv3JncID-NizxNL9lhuYOD3A==",
      "Lang": "id",
      "CaptionKey": "translation",
      "CaptionName": "Terjemahan",
      "YoutubeSynced": true
    },
    {
      "ID": "NEbAtNIMmSRUnz6NLkTp9NTpFSle3HMBesQDvBfD4SDtok6H1meJOg==",
      "Lang": "ig",
      "CaptionKey": "translation",
      "CaptionName": "Ntughari",
      "YoutubeSynced": true
    },
    {
      "ID": "0HWBujrFgOdTAKCirOU_sQjHO8YzfcSUfLb2-xew2bdbQqFuzRQP-w==",
      "Lang": "is",
      "CaptionKey": "translation",
      "CaptionName": "Þýðing",
      "YoutubeSynced": true
    },
    {
      "ID": "5lzuLLN4HWBhFuXzxh2jUNxTqqdul9mVqG5cLICs9PKCzNCi_okWlw==",
      "Lang": "it",
      "CaptionKey": "translation",
      "CaptionName": "Traduzione",
      "YoutubeSynced": true
    },
    {
      "ID": "5lzuLLN4HWCMuFEnr8mxqzaO9HtxEYPhwP3yRka1aT1jYCeSkhe1xA==",
      "Lang": "iw",
      "CaptionKey": "translation",
      "CaptionName": "תרגום",
      "YoutubeSynced": true
    },
    {
      "ID": "JYd63YnGaZA_tG_cMWMy0rpGR5vsvrJ4U7IayxY8og4=",
      "Lang": "ja",
      "CaptionKey": "translation",
      "CaptionName": "翻訳",
      "YoutubeSynced": true
    },
    {
      "ID": "0HWBujrFgOeJnR4iLfWSMo1of7INhiB5L82ohRGLyp8atOhjlFQ9BQ==",
      "Lang": "jv",
      "CaptionKey": "translation",
      "CaptionName": "Ngartekne",
      "YoutubeSynced": true
    },
    {
      "ID": "2fhlohg8gw3eyqw8o8vqWH2RkYQhsQCPDDkRb6ShaCPGoWo7nQREC3da9z28g017fPoaTxxAZ8k=",
      "Lang": "ka",
      "CaptionKey": "translation",
      "CaptionName": "თარგმანი",
      "YoutubeSynced": true
    },
    {
      "ID": "Ae4fWV-_FVFjzrnsHnnv2sSA_ZXrbWE4MPfhuqG_clteNxad8BvfeQ==",
      "Lang": "kk",
      "CaptionKey": "translation",
      "CaptionName": "Аударма",
      "YoutubeSynced": true
    },
    {
      "ID": "mrFz9j9nXROJeubwhskoP8VaHtdzoBJZaESCtF_cCh-Kgx42ffWsrXLzAS2VcfPzS7KaosL_ZTg=",
      "Lang": "km",
      "CaptionKey": "translation",
      "CaptionName": "ការបកប្រែ",
      "YoutubeSynced": true
    },
    {
      "ID": "5sSiOQh3dlE0vXPYT5PViMtljDvXrSwsOQNrCoNJ_8uv9rueGCTTqB9fnFOAFAM6",
      "Lang": "kn",
      "CaptionKey": "translation",
      "CaptionName": "ಅನುವಾದ",
      "YoutubeSynced": true
    },
    {
      "ID": "JYd63YnGaZDRv2VIh_XgJGPfCkyYZGgAlpMvfegJnLc=",
      "Lang": "ko",
      "CaptionKey": "translation",
      "CaptionName": "번역",
      "YoutubeSynced": true
    },
    {
      "ID": "JYd63YnGaZBwTKLbogeU_LXrFpEYjJg2n-GH9u1mICU=",
      "Lang": "ku",
      "CaptionKey": "translation",
      "CaptionName": "Werger",
      "YoutubeSynced": true
    },
    {
      "ID": "Ae4fWV-_FVGS9pMBjqcTNWEG4V51pkbqQWQ_y-CAZFdpRxHOnErRFQ==",
      "Lang": "ky",
      "CaptionKey": "translation",
      "CaptionName": "котормо",
      "YoutubeSynced": true
    },
    {
      "ID": "pERZyiT4bffp0LTPnqmQp6Q0YSM31nREUSrG5gaoiyIRnJboMZ6sxA==",
      "Lang": "lb",
      "CaptionKey": "translation",
      "CaptionName": "Iwwersetzung",
      "YoutubeSynced": true
    },
    {
      "ID": "mrFz9j9nXRNztU2NLB2h9wcqalC5Rtymeiu3LsBg4df3cHy6TGifna9QrP9BSmuBTBO6piYdn8o=",
      "Lang": "lo",
      "CaptionKey": "translation",
      "CaptionName": "ການແປພາສາ",
      "YoutubeSynced": true
    },
    {
      "ID": "NEbAtNIMmSQ8rWSqFE6GxIc4QwuBny9lvZwCfTMtTaqKD6JC_jeidw==",
      "Lang": "lt",
      "CaptionKey": "translation",
      "CaptionName": "Vertimas",
      "YoutubeSynced": true
    },
    {
      "ID": "5lzuLLN4HWAmSGx6WTUXv5iUOP4MJHW3mBsuElUFXg5vLvSf5CX4ww==",
      "Lang": "lv",
      "CaptionKey": "translation",
      "CaptionName": "Tulkošana",
      "YoutubeSynced": true
    },
    {
      "ID": "2BLYJTV0-k7UA8T7cB55RTF6H-5RZmuMfgFgsuSIF45AJ6ccH3l2FA==",
      "Lang": "mg",
      "CaptionKey": "translation",
      "CaptionName": "Translation",
      "YoutubeSynced": true
    },
    {
      "ID": "g6DMvQ_-MhJS6iK2EGJ5wh4xJWQfhvfu9KzeqoyVkEG6mkP4K5b7OvL-SzV4DnLu",
      "Lang": "mi",
      "CaptionKey": "translation",
      "CaptionName": "Whakamaoritanga",
      "YoutubeSynced": true
    },
    {
      "ID": "pERZyiT4bfdSd-l0jdTXqDy-KesGKMu76J2Zp3Lu6lf7-V2ZmbR_ow==",
      "Lang": "mk",
      "CaptionKey": "translation",
      "CaptionName": "Превод",
      "YoutubeSynced": true
    },
    {
      "ID": "mrFz9j9nXRNwVQ_yfqnbZc34g670a6-kW-ZPeuTZf4CRpMZQwzWE0HAwJ_xYE_70cR4v8U_ieqk=",
      "Lang": "ml",
      "CaptionKey": "translation",
      "CaptionName": "വിവർത്തനം",
      "YoutubeSynced": true
    },
    {
      "ID": "w39MqPZiafXSC3bIts1wPGxcRHV0KeQ0k86FbNUzG93ksl71eoskEk4HrcphISj4",
      "Lang": "mn",
      "CaptionKey": "translation",
      "CaptionName": "Орчуулга",
      "YoutubeSynced": true
    },
    {
      "ID": "QWpJjQiCLkwiEx8nJFb2QAqADHkKkmG3ArJ7tJOC5U9VQYfvvbk6E-0ShFwbrYxR",
      "Lang": "mr",
      "CaptionKey": "translation",
      "CaptionName": "भाषांतर",
      "YoutubeSynced": true
    },
    {
      "ID": "5lzuLLN4HWDleLCGi9E6d0wDInIPMnmf7hyhWBSQ52ngRDCfO_u0HA==",
      "Lang": "ms",
      "CaptionKey": "translation",
      "CaptionName": "Terjemahan",
      "YoutubeSynced": true
    },
    {
      "ID": "2BLYJTV0-k6NYdmKLTSqxWW681lEznmz5G1T_rgIz2CiSozeqa2xLQ==",
      "Lang": "mt",
      "CaptionKey": "translation",
      "CaptionName": "Traduzzjoni",
      "YoutubeSynced": true
    },
    {
      "ID": "2fhlohg8gw0iDcaNyLtD6o5zUPubUUG9CLeCvQUx6PEg-y3kmlJFyAjdTdK4x7J6JdIz3G2mJTs=",
      "Lang": "my",
      "CaptionKey": "translation",
      "CaptionName": "ဘာသာပြန်",
      "YoutubeSynced": true
    },
    {
      "ID": "5sSiOQh3dlG5wzxFJJiqbfYgZ1jDzj8Iq-rb_18bumWSpj2VAbVi_F2AfJk-cemk",
      "Lang": "ne",
      "CaptionKey": "translation",
      "CaptionName": "अनुवाद",
      "YoutubeSynced": true
    },
    {
      "ID": "0HWBujrFgOeyTwm6BUnxUoee85JdF36_62GWmlPAS7u5hjmI6ftTmg==",
      "Lang": "nl",
      "CaptionKey": "translation",
      "CaptionName": "Vertaling",
      "YoutubeSynced": true
    },
    {
      "ID": "pERZyiT4bffycRsMA9HSF_Vh1dLISKoMcGQItuAz1TmweU6QO40sPQ==",
      "Lang": "no",
      "CaptionKey": "translation",
      "CaptionName": "Oversettelse",
      "YoutubeSynced": true
    },
    {
      "ID": "5sSiOQh3dlGM4bFzq4EyuaE0UrMJtrPXwZIfczaO5Rl9IZ4Dt_gSy4CQlDrnSSVj",
      "Lang": "pa",
      "CaptionKey": "translation",
      "CaptionName": "ਅਨੁਵਾਦ",
      "YoutubeSynced": true
    },
    {
      "ID": "pERZyiT4bfeW-puZClHFPBijSAXiXRXuuqhPREUX7Tk2K7r47nVBBA==",
      "Lang": "pl",
      "CaptionKey": "translation",
      "CaptionName": "Tłumaczenie",
      "YoutubeSynced": true
    },
    {
      "ID": "5lzuLLN4HWBRNVPkHXily3isranb3yyOJR3c7O09kY_EKx6NzPF2IA==",
      "Lang": "ps",
      "CaptionKey": "translation",
      "CaptionName": "ژباړه",
      "YoutubeSynced": true
    },
    {
      "ID": "5lzuLLN4HWDrlEP4RPyW664Xx2AD-HDZ6CW-1-QwKqQP1C9KLn33dw==",
      "Lang": "pt",
      "CaptionKey": "translation",
      "CaptionName": "Tradução",
      "YoutubeSynced": true
    },
    {
      "ID": "0HWBujrFgOc_gcU7rKcWxY_Oz9cl1ISfT0fvfVdg-t0hSZgOMRn-eg==",
      "Lang": "ro",
      "CaptionKey": "translation",
      "CaptionName": "Traducere",
      "YoutubeSynced": true
    },
    {
      "ID": "Ae4fWV-_FVGuAtAwYJj9OjZkQC6djlqQ1PXzWIeMpMqpVEoR_W7KVA==",
      "Lang": "ru",
      "CaptionKey": "translation",
      "CaptionName": "Перевод",
      "YoutubeSynced": true
    },
    {
      "ID": "5lzuLLN4HWCwFiCJT-bxQeXeKIlD4rOBLKGEanjQIA-ILHDKF4j4Dg==",
      "Lang": "sd",
      "CaptionKey": "translation",
      "CaptionName": "ترجمو",
      "YoutubeSynced": true
    },
    {
      "ID": "mrFz9j9nXRP5xmTHRuAVc7Q9e_VEl5f64tie98Mg0RCArnOqio0hQLYEJ87Iq95EUWJHkJeZfY4=",
      "Lang": "si",
      "CaptionKey": "translation",
      "CaptionName": "පරිවර්තනය",
      "YoutubeSynced": true
    },
    {
      "ID": "S0B8uz21_5IAP4Psq7ubY9tgNW1txvXYBjpdtWCsFdYUBhX7cx4uPw==",
      "Lang": "sk",
      "CaptionKey": "translation",
      "CaptionName": "preklad",
      "YoutubeSynced": true
    },
    {
      "ID": "JYd63YnGaZDv8B6ko8ptFN5DyocL-kIlw644iy7BH-w=",
      "Lang": "sl",
      "CaptionKey": "translation",
      "CaptionName": "Prevod",
      "YoutubeSynced": true
    },
    {
      "ID": "pERZyiT4bfd8Yw3tody_nLYV1x_H95ndaUkAPcw60vxDBWTwnjS_rw==",
      "Lang": "sm",
      "CaptionKey": "translation",
      "CaptionName": "Faʻaliliuga",
      "YoutubeSynced": true
    },
    {
      "ID": "S0B8uz21_5IP1hbS9sf-m8mPVH2wJKUd6aitxRnCzLAsQP66TH4RHw==",
      "Lang": "sn",
      "CaptionKey": "translation",
      "CaptionName": "Dudziro",
      "YoutubeSynced": true
    },
    {
      "ID": "0HWBujrFgOf_R4iGI4GlmuRF0gl-4KsQT-qkeg6boX7jIzs4JRfkYA==",
      "Lang": "so",
      "CaptionKey": "translation",
      "CaptionName": "Tarjumida",
      "YoutubeSynced": true
    },
    {
      "ID": "0HWBujrFgOeahonehv8yAufQmG0YUcIyxcvZZBKJq0ixK6H4_ltSyg==",
      "Lang": "sq",
      "CaptionKey": "translation",
      "CaptionName": "përkthim",
      "YoutubeSynced": true
    },
    {
      "ID": "pERZyiT4bfeZGk7sm3Oy6gsAjCggtnlmUhWV_YMmUIhdmpoQnFa2Zg==",
      "Lang": "sr",
      "CaptionKey": "translation",
      "CaptionName": "Превод",
      "YoutubeSynced": true
    },
    {
      "ID": "0HWBujrFgOe1ru1q8EIw-g9qpZXxKFbiP1ANkUj0aXnqCosoK5X3Uw==",
      "Lang": "st",
      "CaptionKey": "translation",
      "CaptionName": "Phetolelo",
      "YoutubeSynced": true
    },
    {
      "ID": "5lzuLLN4HWAwtoDty4mXBALklFJhdjcAMg04eKBaeUmaBK-JoM6tyQ==",
      "Lang": "su",
      "CaptionKey": "translation",
      "CaptionName": "Tarjamahan",
      "YoutubeSynced": true
    },
    {
      "ID": "Ae4fWV-_FVHtJDj7Pv3gvFC0xtfn_VRU9HIXTQBxIzXGX9C4HMcCsA==",
      "Lang": "sv",
      "CaptionKey": "translation",
      "CaptionName": "Översättning",
      "YoutubeSynced": true
    },
    {
      "ID": "S0B8uz21_5KYr3VgVpAe7C8Lp8AXfiv-A3r5uLW1kWrTfVhw6APJMw==",
      "Lang": "sw",
      "CaptionKey": "translation",
      "CaptionName": "Tafsiri",
      "YoutubeSynced": true
    },
    {
      "ID": "77mVXIIU4gWgorx1I42-Gr2PHoSnyxiKrVcH4a-onRs9ziWCQ9hZj2UkfFj96a9eQlrfWUG9RTHRprVMfQNnba1pWVi05jcm",
      "Lang": "ta",
      "CaptionKey": "translation",
      "CaptionName": "மொழிபெயர்ப்பு",
      "YoutubeSynced": true
    },
    {
      "ID": "QWpJjQiCLkzDct_rJfncdtXVvHsnUctFMAfI94leM-3ag8gdMuhtqsm2EnXRL3uY",
      "Lang": "te",
      "CaptionKey": "translation",
      "CaptionName": "అనువాదం",
      "YoutubeSynced": true
    },
    {
      "ID": "Ae4fWV-_FVHb5axXSIEFkQbDy9cH4K-ATaYWZxtbgqwX5gvUJi0Iaw==",
      "Lang": "tg",
      "CaptionKey": "translation",
      "CaptionName": "Тарҷума",
      "YoutubeSynced": true
    },
    {
      "ID": "5sSiOQh3dlGi6x94r5Ejhy5AEXLMbXxZQsi_zdqYiF12gfrB8CCNwt2ao9FdSWnm",
      "Lang": "th",
      "CaptionKey": "translation",
      "CaptionName": "การแปล",
      "YoutubeSynced": true
    },
    {
      "ID": "NEbAtNIMmSR0__0CXvp09oPM_sJ_TInLhsqpXcBGyUQPJb3gN5LDnA==",
      "Lang": "tr",
      "CaptionKey": "translation",
      "CaptionName": "Tercüme",
      "YoutubeSynced": true
    },
    {
      "ID": "w39MqPZiafWO30WWxrePjhP0U42H6gLifRQQhzFZvId8iA4EVPb3wFdLbzwn1k3b",
      "Lang": "uk",
      "CaptionKey": "translation",
      "CaptionName": "Переклад",
      "YoutubeSynced": true
    },
    {
      "ID": "5lzuLLN4HWAX2vlfNpLfw_gdL7OupCpJQNXpEPhUN8xVaXEhewtumg==",
      "Lang": "ur",
      "CaptionKey": "translation",
      "CaptionName": "ترجمہ",
      "YoutubeSynced": true
    },
    {
      "ID": "S0B8uz21_5Irirb4Gq3lmpkf7R0DzzgG60nc5xch-2faZCszEWMFHg==",
      "Lang": "uz",
      "CaptionKey": "translation",
      "CaptionName": "Tarjima",
      "YoutubeSynced": true
    },
    {
      "ID": "JYd63YnGaZC_wXB6WeUSyqt9n8CFtmUUTXJZRJXZ5sc=",
      "Lang": "vi",
      "CaptionKey": "translation",
      "CaptionName": "Dịch",
      "YoutubeSynced": true
    },
    {
      "ID": "5lzuLLN4HWBGeIjAxCkdrvf-7jjF5Z0HrEzPf-pz82Xl8xnoq-ooeQ==",
      "Lang": "xh",
      "CaptionKey": "translation",
      "CaptionName": "Inguqulelo",
      "YoutubeSynced": true
    },
    {
      "ID": "-uNtVaAjG_FMn7Io1oZ7VC0FZEXdKPPVIv6JG34Er0hf6yJruuOjbvSyfD6sE-9j",
      "Lang": "yi",
      "CaptionKey": "translation",
      "CaptionName": "איבערזעצונג",
      "YoutubeSynced": true
    },
    {
      "ID": "S0B8uz21_5I1q8nTRdkiuM_MdcOCd8ysf6aUa0WmFbtnJqVHQR3f1w==",
      "Lang": "yo",
      "CaptionKey": "translation",
      "CaptionName": "Itumọ",
      "YoutubeSynced": true
    },
    {
      "ID": "2BLYJTV0-k5gmgHdvwfvB78QFpebY_uG7osHAMdrcFc74CZDKi6YLA==",
      "Lang": "zh-Hans",
      "CaptionKey": "translation",
      "CaptionName": "翻译",
      "YoutubeSynced": true
    },
    {
      "ID": "2BLYJTV0-k5gmgHdvwfvB22KFKflH1iAIlpFDbteAH_muqrYPA9oSg==",
      "Lang": "zh-Hant",
      "CaptionKey": "translation",
      "CaptionName": "翻譯",
      "YoutubeSynced": true
    },
    {
      "ID": "5lzuLLN4HWDqeTwJzC6mcEDb9JfghmtyXxt08wZHtOVVgYVvkGUQcw==",
      "Lang": "zu",
      "CaptionKey": "translation",
      "CaptionName": "Ukuhumusha",
      "YoutubeSynced": true
    }
  ]
}