{
  "VideoFile": "grammar-en-beginner-simple_37_UK.mp4",
  "Captions": [
    {
      "ID": "lh5F8uENuKUS_l-U_JXerarYe5GGCjXoVYyi35KYgg1NeHqOL4_8Aw==",
      "Lang": "af",
      "CaptionKey": "translation",
      "CaptionName": "vertaling",
      "YoutubeSynced": true
    },
    {
      "ID": "EbC7cmXEqXiQPlyb3QQWd179ccMQ-F-oF0lZRCLv9DTFLk0GPB__4A==",
      "Lang": "am",
      "CaptionKey": "translation",
      "CaptionName": "ትርጉም",
      "YoutubeSynced": true
    },
    {
      "ID": "-V2D6bDwgBp0MgxQo4MDbL75I3H45vIOxGkuuuicqHQWgulYcKdJYw==",
      "Lang": "ar",
      "CaptionKey": "translation",
      "CaptionName": "ترجمة",
      "YoutubeSynced": true
    },
    {
      "ID": "-V2D6bDwgBrarp00i1qJSQQjSVsMtX1kOlP5yf1j3PUGHLomkys8IQ==",
      "Lang": "az",
      "CaptionKey": "translation",
      "CaptionName": "Tərcümə",
      "YoutubeSynced": true
    },
    {
      "ID": "qJzOhr6ZQPCG_Lk-0q7xFi4rx60Stb93fx2e8bQe-T3RFcqPTL25V8_vT1fhLWls",
      "Lang": "be",
      "CaptionKey": "translation",
      "CaptionName": "Пераклад",
      "YoutubeSynced": true
    },
    {
      "ID": "EbC7cmXEqXhFlBqswuwbCqoKZi0C4VAPbqy-ccstVwBsGt-eRCpzxA==",
      "Lang": "bg",
      "CaptionKey": "translation",
      "CaptionName": "превод",
      "YoutubeSynced": true
    },
    {
      "ID": "14eMJLf9VhzqLcc2HAVnmTz8ch7AueyJMLJZStqan0LugliNFnjTMvEECTV03YFx",
      "Lang": "bn",
      "CaptionKey": "translation",
      "CaptionName": "অনুবাদ",
      "YoutubeSynced": true
    },
    {
      "ID": "wOwvjG1gB-DvbajjYMqJRjBnel2IGu2cedR84xvlY3s=",
      "Lang": "bs",
      "CaptionKey": "translation",
      "CaptionName": "Prevod",
      "YoutubeSynced": true
    },
    {
      "ID": "-V2D6bDwgBq3VW8POaTdxkxd4U7Wuw-kzm52eyfeWHKEvNGsuOldkg==",
      "Lang": "ca",
      "CaptionKey": "translation",
      "CaptionName": "Traducció",
      "YoutubeSynced": true
    },
    {
      "ID": "-V2D6bDwgBoYH7vsKFfQnybWo3AqIoV0XDRUszMMr9igUCcC64C5PQ==",
      "Lang": "co",
      "CaptionKey": "translation",
      "CaptionName": "Traduzione",
      "YoutubeSynced": true
    },
    {
      "ID": "kq43bWVH3rZp4M7LPrMVBy9itw-XBWA-imHdp7SrRUc3JD2O7-U8SQ==",
      "Lang": "cs",
      "CaptionKey": "translation",
      "CaptionName": "Překlad",
      "YoutubeSynced": true
    },
    {
      "ID": "DiQFFlkTorwRwu7R1hgAPdEh4lqBZCe28HOkeSzBb3K4xXqM6zLbqg==",
      "Lang": "cy",
      "CaptionKey": "translation",
      "CaptionName": "Cyfieithiad",
      "YoutubeSynced": true
    },
    {
      "ID": "nfYmVUK7Lbt7NwJ7kxItshJo8yzJPHXEeZR1hGoW1z9tOsi2LF8-ZQ==",
      "Lang": "da",
      "CaptionKey": "translation",
      "CaptionName": "Oversættelse",
      "YoutubeSynced": true
    },
    {
      "ID": "EbC7cmXEqXgyzpjlgST68eSRkyYtQa-7KR3LXtIv_uH56-3hz8kn9A==",
      "Lang": "de",
      "CaptionKey": "translation",
      "CaptionName": "Übersetzung",
      "YoutubeSynced": true
    },
    {
      "ID": "14eMJLf9VhxKPownTo40fcPYro0yEtq18Y5QGztTi-CkVDKEpfMyuEKfbY1yPGhA",
      "Lang": "el",
      "CaptionKey": "translation",
      "CaptionName": "Μετάφραση",
      "YoutubeSynced": true
    },
    {
      "ID": "DiQFFlkTorxEdeWEKRlxSGBJdj31MNnwi7LJB_VewlPDDSwtJgNojw==",
      "Lang": "en",
      "CaptionKey": "translation",
      "CaptionName": "Translation",
      "YoutubeSynced": true
    },
    {
      "ID": "ka0ufKI9Os5qTCv925f8ajqCbcfmpudu5YwOltRfDTo1VI3R-S5WwojjHZa0PaKy",
      "Lang": "en",
      "CaptionKey": "ruby",
      "CaptionName": "Pronunciation - IPA",
      "YoutubeSynced": true
    },
    {
      "ID": "DiQFFlkTorwtQLiK18nmsDZ8_ttellC69rb4wylDT3V_ONAvUHHv_A==",
      "Lang": "es",
      "CaptionKey": "translation",
      "CaptionName": "Traducción",
      "YoutubeSynced": true
    },
    {
      "ID": "wOwvjG1gB-BKEjnQSIBcG0y4XQyVWZEF8tfs-E4w_EA=",
      "Lang": "et",
      "CaptionKey": "translation",
      "CaptionName": "Tõlge",
      "YoutubeSynced": true
    },
    {
      "ID": "lh5F8uENuKVYUBo-molVAAWixza_olILAITt-TgTXzgEwx5YYnwQAw==",
      "Lang": "eu",
      "CaptionKey": "translation",
      "CaptionName": "Itzulpena",
      "YoutubeSynced": true
    },
    {
      "ID": "-V2D6bDwgBqNtneOJkCqZjtMZa70IUbg68zLy6nntBXHQPOU_tOyIg==",
      "Lang": "fa",
      "CaptionKey": "translation",
      "CaptionName": "ترجمه",
      "YoutubeSynced": true
    },
    {
      "ID": "-V2D6bDwgBr3LPdJXHNvPiDqYj3It_8ejwlboxHJtyykmEHxADF4iQ==",
      "Lang": "fi",
      "CaptionKey": "translation",
      "CaptionName": "Käännös",
      "YoutubeSynced": true
    },
    {
      "ID": "DiQFFlkTorx_-nCEpuxyDqESTWOCmawGs9VHHVW4_tMYYRR-NE4onA==",
      "Lang": "fil",
      "CaptionKey": "translation",
      "CaptionName": "Pagsasalin",
      "YoutubeSynced": true
    },
    {
      "ID": "-V2D6bDwgBrP5X_1-0FZYNeecQvqUbRw9n6DXVwQBQNl4QKmRLcokA==",
      "Lang": "fr",
      "CaptionKey": "translation",
      "CaptionName": "Traduction",
      "YoutubeSynced": true
    },
    {
      "ID": "-V2D6bDwgBrZmH1Bc9YICwDRiRSXGyofoX3IDHsPUKm5EmZmjtyV0A==",
      "Lang": "fy",
      "CaptionKey": "translation",
      "CaptionName": "Oersetting",
      "YoutubeSynced": true
    },
    {
      "ID": "14eMJLf9VhwutmMRlVtgQ9pMsf-rd5Vlq9MPsvQk59WbfkJv_jvbCTQSX3Fzb4qp",
      "Lang": "gd",
      "CaptionKey": "translation",
      "CaptionName": "Eadar-theangachadh",
      "YoutubeSynced": true
    },
    {
      "ID": "-V2D6bDwgBpS9o3J2fgpYnyI1IN_GWa4RViULiliPW7_vNZ1kRGjaA==",
      "Lang": "gl",
      "CaptionKey": "translation",
      "CaptionName": "Tradución",
      "YoutubeSynced": true
    },
    {
      "ID": "14eMJLf9VhyGqZpzvnfQ8_SPHzm7SA2_RvNqT0tVKGj2PR3cAi5OXFsPbbwRZ8_X",
      "Lang": "gu",
      "CaptionKey": "translation",
      "CaptionName": "અનુવાદ",
      "YoutubeSynced": true
    },
    {
      "ID": "Xlkg9IY6T5S2_MbZbtl2u1UQqXbkb5zSFAG4-4fK2J1qMDIV0CrQBQ==",
      "Lang": "ha",
      "CaptionKey": "translation",
      "CaptionName": "Fassara",
      "YoutubeSynced": true
    },
    {
      "ID": "14eMJLf9VhzjtugNTOJokGb7Z9Di3r-2tauvXBhM0v4yKYNzSv0YpUcvHqKPIZrY",
      "Lang": "hi",
      "CaptionKey": "translation",
      "CaptionName": "अनुवाद",
      "YoutubeSynced": true
    },
    {
      "ID": "kq43bWVH3rZsGPGGG6TIPol6j8795xPWvHVDW9vNDjyuOwhClkxBiA==",
      "Lang": "hr",
      "CaptionKey": "translation",
      "CaptionName": "Prijevod",
      "YoutubeSynced": true
    },
    {
      "ID": "-V2D6bDwgBq08ss73HheH8qqpuY9RCSWYU5kheCOkX2z7y729YUzbA==",
      "Lang": "hu",
      "CaptionKey": "translation",
      "CaptionName": "Fordítás",
      "YoutubeSynced": true
    },
    {
      "ID": "_pOdsWWa7re0Du7fCCurIty1mqchEIjOj7PvEyRWhPb2gwxWHrpogd8x-quQHRSLT219VIW0lwM=",
      "Lang": "hy",
      "CaptionKey": "translation",
      "CaptionName": "Թարգմանություն",
      "YoutubeSynced": true
    },
    {
      "ID": "-V2D6bDwgBpr3pls0VzCTXrCLT_d3eQ3bm0TwKZrSK9g_caRBuWy_Q==",
      "Lang": "id",
      "CaptionKey": "translation",
      "CaptionName": "Terjemahan",
      "YoutubeSynced": true
    },
    {
      "ID": "kq43bWVH3rYllpqYyEszbNn2_mp6ugLgicOXAACk4NWpKxm0XRJ8LA==",
      "Lang": "ig",
      "CaptionKey": "translation",
      "CaptionName": "Ntughari",
      "YoutubeSynced": true
    },
    {
      "ID": "lh5F8uENuKVEqZD3FOemNeO3X5McLA7LkT2mKQm_HmF8d9XA8hyK7g==",
      "Lang": "is",
      "CaptionKey": "translation",
      "CaptionName": "Þýðing",
      "YoutubeSynced": true
    },
    {
      "ID": "-V2D6bDwgBq0r2Q-KT7cs01ct0EEd8I9wfAK5_eLgJeTdoLI-oBN5A==",
      "Lang": "it",
      "CaptionKey": "translation",
      "CaptionName": "Traduzione",
      "YoutubeSynced": true
    },
    {
      "ID": "-V2D6bDwgBoXIKni6J5FcDE5pj6gdDGpxRoo6sHEX51yXb4KXUm0VA==",
      "Lang": "iw",
      "CaptionKey": "translation",
      "CaptionName": "תרגום",
      "YoutubeSynced": true
    },
    {
      "ID": "wOwvjG1gB-Af1JSusEQK5HgZfQpMyPO_FAwmZu4rqUE=",
      "Lang": "ja",
      "CaptionKey": "translation",
      "CaptionName": "翻訳",
      "YoutubeSynced": true
    },
    {
      "ID": "lh5F8uENuKXNX9WP5XwhOB3Wf_Z-KTBHwqfsncMT0pHGqW7EsKvojA==",
      "Lang": "jv",
      "CaptionKey": "translation",
      "CaptionName": "Ngartekne",
      "YoutubeSynced": true
    },
    {
      "ID": "FEMujZQsk9ffkYnltVDwreGm2UxHDk7n9_hhl2vXUYRbbQU5i8iHTrE_h1C9hZea_jGOknEDkQc=",
      "Lang": "ka",
      "CaptionKey": "translation",
      "CaptionName": "თარგმანი",
      "YoutubeSynced": true
    },
    {
      "ID": "FVR669Yo_b0LE_21L-RZFHyYDC9te8i3hWNBCiGAd_tYokXKAdCzhw==",
      "Lang": "kk",
      "CaptionKey": "translation",
      "CaptionName": "Аударма",
      "YoutubeSynced": true
    },
    {
      "ID": "eTbeih5e_7ZfY9oBmPI0TR2LosZ2gIfJkGRjIqRzLlINcaJMdco1YvpEtC_oSkcOYvqyCbH9XDo=",
      "Lang": "km",
      "CaptionKey": "translation",
      "CaptionName": "ការបកប្រែ",
      "YoutubeSynced": true
    },
    {
      "ID": "14eMJLf9VhwnjTtSs1k1ejodElnJG9lo43_exA70biNWSjporj98XlmcoNAAdQrW",
      "Lang": "kn",
      "CaptionKey": "translation",
      "CaptionName": "ಅನುವಾದ",
      "YoutubeSynced": true
    },
    {
      "ID": "wOwvjG1gB-ANUF7CBmuRJzI-rA_Qub2hSZxU26epNl0=",
      "Lang": "ko",
      "CaptionKey": "translation",
      "CaptionName": "번역",
      "YoutubeSynced": true
    },
    {
      "ID": "wOwvjG1gB-A-VmHfY-4hhKHiZmWI6ij1us4iCRKbG7Y=",
      "Lang": "ku",
      "CaptionKey": "translation",
      "CaptionName": "Werger",
      "YoutubeSynced": true
    },
    {
      "ID": "FVR669Yo_b146eg9CmOtpBPgKUkkcMofXklOi8LCRYBRhFrizuDGxQ==",
      "Lang": "ky",
      "CaptionKey": "translation",
      "CaptionName": "котормо",
      "YoutubeSynced": true
    },
    {
      "ID": "EbC7cmXEqXhdUv_FqwsgP-VaRHzYahW2y7sDcjJ5AeqEEhKA13H7Cg==",
      "Lang": "lb",
      "CaptionKey": "translation",
      "CaptionName": "Iwwersetzung",
      "YoutubeSynced": true
    },
    {
      "ID": "eTbeih5e_7bL7omWiOmdoSBlmOGwAgj4GBwNZfw7SCgmIAs4PzEtX1zB_Ok5AB-IGlYOM91J_GU=",
      "Lang": "lo",
      "CaptionKey": "translation",
      "CaptionName": "ການແປພາສາ",
      "YoutubeSynced": true
    },
    {
      "ID": "kq43bWVH3rY2PDaQfYZIPxjQOn3mBsje--4eLEqLo7S64RVwJGqpWg==",
      "Lang": "lt",
      "CaptionKey": "translation",
      "CaptionName": "Vertimas",
      "YoutubeSynced": true
    },
    {
      "ID": "-V2D6bDwgBoJZ7hXoSkwgu6bP9PqXMrEWF81yJ9GHR2dwrlhdjyLrg==",
      "Lang": "lv",
      "CaptionKey": "translation",
      "CaptionName": "Tulkošana",
      "YoutubeSynced": true
    },
    {
      "ID": "DiQFFlkToryRrLAKNDM6SnVdLLJ5FkYz8fYbJ30oghohbaZVm2ZJ6w==",
      "Lang": "mg",
      "CaptionKey": "translation",
      "CaptionName": "Translation",
      "YoutubeSynced": true
    },
    {
      "ID": "aCUU66NqXCQsWrKbydep1bnmldVeJAPaOtYBCqkinvDcL2jYoDFq68vGPOI4Mt7r",
      "Lang": "mi",
      "CaptionKey": "translation",
      "CaptionName": "Whakamaoritanga",
      "YoutubeSynced": true
    },
    {
      "ID": "EbC7cmXEqXhaj15qeY50gbyNDBma3o5_0hUnUYaXCTomWFw-jp3BUg==",
      "Lang": "mk",
      "CaptionKey": "translation",
      "CaptionName": "Превод",
      "YoutubeSynced": true
    },
    {
      "ID": "eTbeih5e_7aqWdG-ByJ85coO4hjNCa-29gP3rs7TP4pYRmPLoqveFBU2KFaa5H1f6STSGNYNOXQ=",
      "Lang": "ml",
      "CaptionKey": "translation",
      "CaptionName": "വിവർത്തനം",
      "YoutubeSynced": true
    },
    {
      "ID": "qJzOhr6ZQPDqC3M7OLX1MYdpjPpqCWzcE4-WGVCY6OZXZsMN7W-FTqC2aH2gmoVg",
      "Lang": "mn",
      "CaptionKey": "translation",
      "CaptionName": "Орчуулга",
      "YoutubeSynced": true
    },
    {
      "ID": "mjGFe_kTXjmKMbPF-UHU5WoCgfHnNJ7ogCuMAGmz3E69L7KhMIHdAa5T2EizxN9G",
      "Lang": "mr",
      "CaptionKey": "translation",
      "CaptionName": "भाषांतर",
      "YoutubeSynced": true
    },
    {
      "ID": "-V2D6bDwgBo7TnJz5kcfmta93fUxXuAy5NLsPodJGB15Y28bse0dlw==",
      "Lang": "ms",
      "CaptionKey": "translation",
      "CaptionName": "Terjemahan",
      "YoutubeSynced": true
    },
    {
      "ID": "DiQFFlkToryeqGJMMdETZ5QHibEAWUjy5_kAJvP7XFH-668bIvXlxg==",
      "Lang": "mt",
      "CaptionKey": "translation",
      "CaptionName": "Traduzzjoni",
      "YoutubeSynced": true
    },
    {
      "ID": "FEMujZQsk9c_Babc-WbtrXzYJHQjTK52tZiw-lGUudXXTCC2T_NlaFJ8glH4A2iPzM-KkXlkouc=",
      "Lang": "my",
      "CaptionKey": "translation",
      "CaptionName": "ဘာသာပြန်",
      "YoutubeSynced": true
    },
    {
      "ID": "14eMJLf9VhyQH6NN06slaFNr9nB3Do4mm8CB7ab8djBsoyYgGXR1gBi6oqmkCRZw",
      "Lang": "ne",
      "CaptionKey": "translation",
      "CaptionName": "अनुवाद",
      "YoutubeSynced": true
    },
    {
      "ID": "lh5F8uENuKXR04TEzs9DxM_hSV6L3GeniHHfKp-VCT6e2y_SENzn0w==",
      "Lang": "nl",
      "CaptionKey": "translation",
      "CaptionName": "Vertaling",
      "YoutubeSynced": true
    },
    {
      "ID": "EbC7cmXEqXia1ERBy0ybiCh8C3LEngHmsgXEuwkbp3QEgKoWnYvzEw==",
      "Lang": "no",
      "CaptionKey": "translation",
      "CaptionName": "Oversettelse",
      "YoutubeSynced": true
    },
    {
      "ID": "14eMJLf9Vhwyesxa9wV3r9cNgCx0yjJJOcs1KiEpZ7UkFPPYxXW9xO1SrxXjHrOu",
      "Lang": "pa",
      "CaptionKey": "translation",
      "CaptionName": "ਅਨੁਵਾਦ",
      "YoutubeSynced": true
    },
    {
      "ID": "EbC7cmXEqXjCzpu-1-WHjRUuc5xaFngGSUcNntHqwlYWYbATsaGlEg==",
      "Lang": "pl",
      "CaptionKey": "translation",
      "CaptionName": "Tłumaczenie",
      "YoutubeSynced": true
    },
    {
      "ID": "-V2D6bDwgBqsjNGlRviCYS_uIcKZhOSUPwMf-fvAcsht31MofwecCg==",
      "Lang": "ps",
      "CaptionKey": "translation",
      "CaptionName": "ژباړه",
      "YoutubeSynced": true
    },
    {
      "ID": "-V2D6bDwgBov8Qjn-1BWGHnv01clwrqPBgRCdjneAkYFFEu4ED-L3A==",
      "Lang": "pt",
      "CaptionKey": "translation",
      "CaptionName": "Tradução",
      "YoutubeSynced": true
    },
    {
      "ID": "lh5F8uENuKV4QPhOGH4_Iy6JdTPDme_f0wRTBseWSzne0i3OU2qMtg==",
      "Lang": "ro",
      "CaptionKey": "translation",
      "CaptionName": "Traducere",
      "YoutubeSynced": true
    },
    {
      "ID": "FVR669Yo_b1TG-qXdn1pKUJ7Uep38HVdrry9dTNYV9qZi_5wmiseRw==",
      "Lang": "ru",
      "CaptionKey": "translation",
      "CaptionName": "Перевод",
      "YoutubeSynced": true
    },
    {
      "ID": "-V2D6bDwgBrTCzZJZUuP-w3FeQu5YaSHwLhGQhfngb8NllbQBMGoPQ==",
      "Lang": "sd",
      "CaptionKey": "translation",
      "CaptionName": "ترجمو",
      "YoutubeSynced": true
    },
    {
      "ID": "eTbeih5e_7bDd-e_AGGWqBe8zsagGlFW_4SNBzYlvtDjEpsk3BOWIOjoZyRkrqTq3hsO2bjd8FI=",
      "Lang": "si",
      "CaptionKey": "translation",
      "CaptionName": "පරිවර්තනය",
      "YoutubeSynced": true
    },
    {
      "ID": "Xlkg9IY6T5QPFzQP94OOHZduitWY9etAUgR_1dfjHQ1ybibQx8m9fg==",
      "Lang": "sk",
      "CaptionKey": "translation",
      "CaptionName": "preklad",
      "YoutubeSynced": true
    },
    {
      "ID": "wOwvjG1gB-Bf9kBSMXxd3LY3HSQue_yDloh6moN75W8=",
      "Lang": "sl",
      "CaptionKey": "translation",
      "CaptionName": "Prevod",
      "YoutubeSynced": true
    },
    {
      "ID": "EbC7cmXEqXhxD_eJIIZca8ET1BldEeLhzeart10fRvKZ1Q3eYSpKJA==",
      "Lang": "sm",
      "CaptionKey": "translation",
      "CaptionName": "Faʻaliliuga",
      "YoutubeSynced": true
    },
    {
      "ID": "Xlkg9IY6T5RQax6oTS2LsFuAKPaAkf_nK8UqH2XNAM7CXgR4B5WCWQ==",
      "Lang": "sn",
      "CaptionKey": "translation",
      "CaptionName": "Dudziro",
      "YoutubeSynced": true
    },
    {
      "ID": "lh5F8uENuKVZRyrrgB69NgZtsvsRLuLj8cQJsnmzh1OXHCV3q5T7uQ==",
      "Lang": "so",
      "CaptionKey": "translation",
      "CaptionName": "Tarjumida",
      "YoutubeSynced": true
    },
    {
      "ID": "lh5F8uENuKXPbC1Y8j3IIbbaGvyNCUUota9a4JKFaUnvzjhiT7t-hQ==",
      "Lang": "sq",
      "CaptionKey": "translation",
      "CaptionName": "përkthim",
      "YoutubeSynced": true
    },
    {
      "ID": "EbC7cmXEqXjg1HvCjpn6f5NBA2RVPK2uiAstrtd-uD0Y4rrJFItCDg==",
      "Lang": "sr",
      "CaptionKey": "translation",
      "CaptionName": "Превод",
      "YoutubeSynced": true
    },
    {
      "ID": "lh5F8uENuKUUQnmWFIwVb2iA_xccuKXKQ2oN_jyplga1rN__u8EV5g==",
      "Lang": "st",
      "CaptionKey": "translation",
      "CaptionName": "Phetolelo",
      "YoutubeSynced": true
    },
    {
      "ID": "-V2D6bDwgBrlPRbgxGost54VhCiyHBIcb8ueFCHEdeJqa0ohpxXlzg==",
      "Lang": "su",
      "CaptionKey": "translation",
      "CaptionName": "Tarjamahan",
      "YoutubeSynced": true
    },
    {
      "ID": "FVR669Yo_b1HRZTKpbXXPjzVtrPbi18WZEnM057dt-d4RH3kTvrLAw==",
      "Lang": "sv",
      "CaptionKey": "translation",
      "CaptionName": "Översättning",
      "YoutubeSynced": true
    },
    {
      "ID": "Xlkg9IY6T5Rcm_wiGBwUdOT-Mq-Z5e3HM_x2xh-tb7TaLtQZjgTTTQ==",
      "Lang": "sw",
      "CaptionKey": "translation",
      "CaptionName": "Tafsiri",
      "YoutubeSynced": true
    },
    {
      "ID": "IpvFXkce-bCDxQpxNdIck5qBDaRJ6xx2rSCG19PXK8cyfhgHpzbJPnmLITcnPbRmXCSB4fHJlZkHSFhFFkmUrwNb79DxNUYZ",
      "Lang": "ta",
      "CaptionKey": "translation",
      "CaptionName": "மொழிபெயர்ப்பு",
      "YoutubeSynced": true
    },
    {
      "ID": "mjGFe_kTXjl18CikEkRdvqkma5Jo-jCbs7smib2LBRViw-5Lk1nz87ZrpApTG1I7",
      "Lang": "te",
      "CaptionKey": "translation",
      "CaptionName": "అనువాదం",
      "YoutubeSynced": true
    },
    {
      "ID": "FVR669Yo_b3cszeOikziMAxMP3MXnEmI9EE-xgY8lElTJEZVrJYoGQ==",
      "Lang": "tg",
      "CaptionKey": "translation",
      "CaptionName": "Тарҷума",
      "YoutubeSynced": true
    },
    {
      "ID": "14eMJLf9Vhw1rh392iyRPfiYkgjDg1ilyQ9MduxDAAxkGgG_Srt-Jcnu3ybo2Ji_",
      "Lang": "th",
      "CaptionKey": "translation",
      "CaptionName": "การแปล",
      "YoutubeSynced": true
    },
    {
      "ID": "kq43bWVH3rZtP6XxlclNAGseCpfBi87LwkCDJai29GzebTyrSx9Dyw==",
      "Lang": "tr",
      "CaptionKey": "translation",
      "CaptionName": "Tercüme",
      "YoutubeSynced": true
    },
    {
      "ID": "qJzOhr6ZQPAQ-4z5FlgY8NL1Juq8U1gKqQHmQJmlOqskE315oIfhABIdI2uYvsKq",
      "Lang": "uk",
      "CaptionKey": "translation",
      "CaptionName": "Переклад",
      "YoutubeSynced": true
    },
    {
      "ID": "-V2D6bDwgBrku6Qn__AiqBdTr9li7KROgcBC9LdmRZUrsu0QajBUfA==",
      "Lang": "ur",
      "CaptionKey": "translation",
      "CaptionName": "ترجمہ",
      "YoutubeSynced": true
    },
    {
      "ID": "Xlkg9IY6T5Q3WhlLtZDIpmUDMXmiNnRey5fFsjZAynVmC3YClF7jNg==",
      "Lang": "uz",
      "CaptionKey": "translation",
      "CaptionName": "Tarjima",
      "YoutubeSynced": true
    },
    {
      "ID": "wOwvjG1gB-DXZk2Qyc3u_HtbNTKtnvEtpneBmSQB3MA=",
      "Lang": "vi",
      "CaptionKey": "translation",
      "CaptionName": "Dịch",
      "YoutubeSynced": true
    },
    {
      "ID": "-V2D6bDwgBrtoy2Zc58WCobwwPrx8UVQQE6O1DNgFe-Y9d7gdwqgaA==",
      "Lang": "xh",
      "CaptionKey": "translation",
      "CaptionName": "Inguqulelo",
      "YoutubeSynced": true
    },
    {
      "ID": "Fft9ahXpxFRWzW8bx2sycLTRdLimimif5X0LHVl_qQG3SUaszsmskJvXkVXlaxbH",
      "Lang": "yi",
      "CaptionKey": "translation",
      "CaptionName": "איבערזעצונג",
      "YoutubeSynced": true
    },
    {
      "ID": "Xlkg9IY6T5RhLa7_Y7x9XC28rr8ij9dknM1hQ6MO3Odu-FrjHtNnqA==",
      "Lang": "yo",
      "CaptionKey": "translation",
      "CaptionName": "Itumọ",
      "YoutubeSynced": true
    },
    {
      "ID": "DiQFFlkTorx11rijWSfFnZQwLhBqpFK8jC14L_AaH87isrVEys0SmA==",
      "Lang": "zh-Hans",
      "CaptionKey": "translation",
      "CaptionName": "翻译",
      "YoutubeSynced": true
    },
    {
      "ID": "DiQFFlkTorx11rijWSfFnfzUe6OZCsiyzAWwMNHTq0RxiZ1QMD0vOA==",
      "Lang": "zh-Hant",
      "CaptionKey": "translation",
      "CaptionName": "翻譯",
      "YoutubeSynced": true
    },
    {
      "ID": "-V2D6bDwgBrvnDqr38pVwT20h_mHobJ9uHqx8B11YgkiKKP7YLU-ow==",
      "Lang": "zu",
      "CaptionKey": "translation",
      "CaptionName": "Ukuhumusha",
      "YoutubeSynced": true
    }
  ]
}