{
  "VideoFile": "grammar-en-beginner-simple_67_A.mp4",
  "Captions": [
    {
      "ID": "lqajp_LWBd8xLwEa-tjL20Wc3-HoqYRjqgMGw0SKSaH9kagRVkcS2Q==",
      "Lang": "af",
      "CaptionKey": "translation",
      "CaptionName": "vertaling",
      "YoutubeSynced": true
    },
    {
      "ID": "--LQS8z1YV8uMl9clm0BgZZxg1sCQHx5xdPCkTpwQ4-0vnxW6GicXA==",
      "Lang": "am",
      "CaptionKey": "translation",
      "CaptionName": "ትርጉም",
      "YoutubeSynced": true
    },
    {
      "ID": "Gr6vYCL5q3H_uz1cJ0RcHLpAOX7M08P2pxOu_V6yJIlEiowq1GBCkQ==",
      "Lang": "ar",
      "CaptionKey": "translation",
      "CaptionName": "ترجمة",
      "YoutubeSynced": true
    },
    {
      "ID": "Gr6vYCL5q3Hc6_x8HG9Zbn1pbPcVjCAF30SBgIwSkJuEkFU4efD-mQ==",
      "Lang": "az",
      "CaptionKey": "translation",
      "CaptionName": "Tərcümə",
      "YoutubeSynced": true
    },
    {
      "ID": "kVJk1B8vEgVinkKzxVrjcGEgKoSWAJhi_bnW0ejnOavtsAhNDXM1wofANEvTX8lu",
      "Lang": "be",
      "CaptionKey": "translation",
      "CaptionName": "Пераклад",
      "YoutubeSynced": true
    },
    {
      "ID": "--LQS8z1YV_g5Y1ArS8yC9INAyF1PjxKAk8FeYaFchDPc8gXQkfb8w==",
      "Lang": "bg",
      "CaptionKey": "translation",
      "CaptionName": "превод",
      "YoutubeSynced": true
    },
    {
      "ID": "r5ZKHSeHKj5n60xoeHds91J3WhDxxR9plLY_BtRxW0YDDVJujmZrP8QoVMi4VmWD",
      "Lang": "bn",
      "CaptionKey": "translation",
      "CaptionName": "অনুবাদ",
      "YoutubeSynced": true
    },
    {
      "ID": "tuPzZ824E3QGCPlJ_26Ou1iNoE5T4f-T6FGhDsy283Q=",
      "Lang": "bs",
      "CaptionKey": "translation",
      "CaptionName": "Prevod",
      "YoutubeSynced": true
    },
    {
      "ID": "Gr6vYCL5q3Ho7OUxAfK1JPW_pki5EPTc_Xrvi0fwm-ZU0rLd3mLGGQ==",
      "Lang": "ca",
      "CaptionKey": "translation",
      "CaptionName": "Traducció",
      "YoutubeSynced": true
    },
    {
      "ID": "Gr6vYCL5q3HKANdN-FjelvE5sY7Jrv47swx3I_U2C185ZEquHC3oLA==",
      "Lang": "co",
      "CaptionKey": "translation",
      "CaptionName": "Traduzione",
      "YoutubeSynced": true
    },
    {
      "ID": "GppHp_UCMU_u7lNkS35g-xEdjxWRRtKjUuCp2sCszyTZ_pOEawUzGw==",
      "Lang": "cs",
      "CaptionKey": "translation",
      "CaptionName": "Překlad",
      "YoutubeSynced": true
    },
    {
      "ID": "aIRRY0i10vFZmdhiUpOrouldEVR9tck7Ezy50D0LRIM3PlkFTKDbFw==",
      "Lang": "cy",
      "CaptionKey": "translation",
      "CaptionName": "Cyfieithiad",
      "YoutubeSynced": true
    },
    {
      "ID": "kzW9gcHm5CLfYyRzXPuuAQtyPCNoWNqbQecoQLsG8sFGw8egSLfGxw==",
      "Lang": "da",
      "CaptionKey": "translation",
      "CaptionName": "Oversættelse",
      "YoutubeSynced": true
    },
    {
      "ID": "--LQS8z1YV-nSXq7IApOV9IqFOqX1oKT36f5k8WW3QOXnl3TlP73lw==",
      "Lang": "de",
      "CaptionKey": "translation",
      "CaptionName": "Übersetzung",
      "YoutubeSynced": true
    },
    {
      "ID": "r5ZKHSeHKj78i4KCutRZPhyLAuPnHl5FI7WR8_hojyPA4PyZZqc7Ywr9_5H7TUod",
      "Lang": "el",
      "CaptionKey": "translation",
      "CaptionName": "Μετάφραση",
      "YoutubeSynced": true
    },
    {
      "ID": "aIRRY0i10vFkMww_AEN36iPbDSDig9jGVzpxydKDcw9aaRQsf_iQTA==",
      "Lang": "en",
      "CaptionKey": "translation",
      "CaptionName": "Translation",
      "YoutubeSynced": true
    },
    {
      "ID": "SY-zXdF66Nz4jdXiOXALIZFvYQRJIY5UiLKIBX4VOShbUCSquZIgthZkl0r2Q0Zw",
      "Lang": "en",
      "CaptionKey": "ruby",
      "CaptionName": "Pronunciation - IPA",
      "YoutubeSynced": true
    },
    {
      "ID": "aIRRY0i10vFvoN2QRlQzaXQ7WWCJ5qTPJyvgIdVloYsxHVFFXkpDbA==",
      "Lang": "es",
      "CaptionKey": "translation",
      "CaptionName": "Traducción",
      "YoutubeSynced": true
    },
    {
      "ID": "tuPzZ824E3RIn8hmtWv50nKzixP89gKFUdtApgIy5bo=",
      "Lang": "et",
      "CaptionKey": "translation",
      "CaptionName": "Tõlge",
      "YoutubeSynced": true
    },
    {
      "ID": "lqajp_LWBd9roOu7snmYOsIUMmwsvFyMsMI7M1l_3pKtZMZCtUZohw==",
      "Lang": "eu",
      "CaptionKey": "translation",
      "CaptionName": "Itzulpena",
      "YoutubeSynced": true
    },
    {
      "ID": "Gr6vYCL5q3HIkG_Rl7xyyw1L53oiDkvvE1hY94dl8hTEUL_WuL54WQ==",
      "Lang": "fa",
      "CaptionKey": "translation",
      "CaptionName": "ترجمه",
      "YoutubeSynced": true
    },
    {
      "ID": "Gr6vYCL5q3GfPUSKEiQJiPuywUs5XM3wr8ToF3eME8WRqsp1--IG6Q==",
      "Lang": "fi",
      "CaptionKey": "translation",
      "CaptionName": "Käännös",
      "YoutubeSynced": true
    },
    {
      "ID": "aIRRY0i10vGN-odoxRmIy65rdXrtHwFbu9P11JwLcy9668NTHjd2Sg==",
      "Lang": "fil",
      "CaptionKey": "translation",
      "CaptionName": "Pagsasalin",
      "YoutubeSynced": true
    },
    {
      "ID": "Gr6vYCL5q3ErgdyqtTtB2s8lAIiy9lRxHYCmZcfP8tPOiAFMX11FuQ==",
      "Lang": "fr",
      "CaptionKey": "translation",
      "CaptionName": "Traduction",
      "YoutubeSynced": true
    },
    {
      "ID": "Gr6vYCL5q3HPwBuIk0YJSe2tB-OY5d0VxYNFU8lTcxwOYF1XOPU1Jg==",
      "Lang": "fy",
      "CaptionKey": "translation",
      "CaptionName": "Oersetting",
      "YoutubeSynced": true
    },
    {
      "ID": "r5ZKHSeHKj4GRsN2lBdSJkAahWifAP5CBf4IcKjNyLUTbs46WxIdGgjmYh1v2Ze3",
      "Lang": "gd",
      "CaptionKey": "translation",
      "CaptionName": "Eadar-theangachadh",
      "YoutubeSynced": true
    },
    {
      "ID": "Gr6vYCL5q3HijVIIm4B4Svq6Y0YmBd9TqoRHo1n7gVIPscOlo7WAWQ==",
      "Lang": "gl",
      "CaptionKey": "translation",
      "CaptionName": "Tradución",
      "YoutubeSynced": true
    },
    {
      "ID": "r5ZKHSeHKj5mwIhJN4KwEUmeQJlScsWBvqyJ_F3yJ73yieGvhugoHkDc6JGVxZkj",
      "Lang": "gu",
      "CaptionKey": "translation",
      "CaptionName": "અનુવાદ",
      "YoutubeSynced": true
    },
    {
      "ID": "kk5Nl6oqAyczgXC6pEvxq9hfveJmMr5ZaS29XZVFa1I-YlK48-yqQA==",
      "Lang": "ha",
      "CaptionKey": "translation",
      "CaptionName": "Fassara",
      "YoutubeSynced": true
    },
    {
      "ID": "r5ZKHSeHKj4UdVPA4Q3feroLTIwppgJwBU4pGaoymRDTd7hZiRSln_yKkOoOXmX_",
      "Lang": "hi",
      "CaptionKey": "translation",
      "CaptionName": "अनुवाद",
      "YoutubeSynced": true
    },
    {
      "ID": "GppHp_UCMU_8vq-WWgelRlDH51XJ-Vf-u_aRYzjtF__Fni_zNfpJWQ==",
      "Lang": "hr",
      "CaptionKey": "translation",
      "CaptionName": "Prijevod",
      "YoutubeSynced": true
    },
    {
      "ID": "Gr6vYCL5q3HYPCgoyZKgF7WLNEkdjeqkc85SghA0WxVQD1OfLE22dg==",
      "Lang": "hu",
      "CaptionKey": "translation",
      "CaptionName": "Fordítás",
      "YoutubeSynced": true
    },
    {
      "ID": "uvnMfTMHz-qANS6n_OzQc7jGFvnJAr5H740Nl05L36IkJ9xH2oE_xODjUzTlh40_xLL5jM_1o8k=",
      "Lang": "hy",
      "CaptionKey": "translation",
      "CaptionName": "Թարգմանություն",
      "YoutubeSynced": true
    },
    {
      "ID": "Gr6vYCL5q3Gz-mGICTg-7jmbnn-DLr75A9eR9uxJik_nNeVo7b92Fg==",
      "Lang": "id",
      "CaptionKey": "translation",
      "CaptionName": "Terjemahan",
      "YoutubeSynced": true
    },
    {
      "ID": "GppHp_UCMU_JEv7E3zuyhL9NdwWb9y3r3O1tVI9J2Ku1oqk5D8aLxg==",
      "Lang": "ig",
      "CaptionKey": "translation",
      "CaptionName": "Ntughari",
      "YoutubeSynced": true
    },
    {
      "ID": "lqajp_LWBd8qKa3xLqdQgYQToFYj7bspYHEw4004SwO45b-uE3fKVQ==",
      "Lang": "is",
      "CaptionKey": "translation",
      "CaptionName": "Þýðing",
      "YoutubeSynced": true
    },
    {
      "ID": "Gr6vYCL5q3FmVOKWdEyHaAU6szIvZp-vrc2hOTvKAuOexmDu9rO8-g==",
      "Lang": "it",
      "CaptionKey": "translation",
      "CaptionName": "Traduzione",
      "YoutubeSynced": true
    },
    {
      "ID": "Gr6vYCL5q3GTvvxXQ6scNVUiwZfnkyFo1BnmzrvvvciFmaOzE-eMaA==",
      "Lang": "iw",
      "CaptionKey": "translation",
      "CaptionName": "תרגום",
      "YoutubeSynced": true
    },
    {
      "ID": "tuPzZ824E3SgaDkSVe5d7wMobm_LRcB9yVY43WQjxXE=",
      "Lang": "ja",
      "CaptionKey": "translation",
      "CaptionName": "翻訳",
      "YoutubeSynced": true
    },
    {
      "ID": "lqajp_LWBd9sMXFnrDqEpiWj6gfgNVaBkdabDpQX8JtgZSPIM2SF0g==",
      "Lang": "jv",
      "CaptionKey": "translation",
      "CaptionName": "Ngartekne",
      "YoutubeSynced": true
    },
    {
      "ID": "eddFp8JXfXu1K0fR6E4BJEwzXHhlofLU6X8tva3iXwX4aFWMqvrbIyMbv4TcG_bFrKYkXWcu1xk=",
      "Lang": "ka",
      "CaptionKey": "translation",
      "CaptionName": "თარგმანი",
      "YoutubeSynced": true
    },
    {
      "ID": "nP_J92kjicW0j0Bhj-jxYkY3E1Cenl3eU0jaTHyYACKWX8fVkfrzdw==",
      "Lang": "kk",
      "CaptionKey": "translation",
      "CaptionName": "Аударма",
      "YoutubeSynced": true
    },
    {
      "ID": "wAGr42CtzbgivOqnZzibyZcR1aaqxQaqsTDm5Y8-qDKO0hrsOgN1OypI0vhhLfIJekT3jtYaEJY=",
      "Lang": "km",
      "CaptionKey": "translation",
      "CaptionName": "ការបកប្រែ",
      "YoutubeSynced": true
    },
    {
      "ID": "r5ZKHSeHKj4lL1UwfEalutmWO-EX7KiMCoe662LHksQ97e-UnpsOi6DfOxlf86nj",
      "Lang": "kn",
      "CaptionKey": "translation",
      "CaptionName": "ಅನುವಾದ",
      "YoutubeSynced": true
    },
    {
      "ID": "tuPzZ824E3SYrTLuXvGptRbSIix3New01D_gtnyeIE0=",
      "Lang": "ko",
      "CaptionKey": "translation",
      "CaptionName": "번역",
      "YoutubeSynced": true
    },
    {
      "ID": "tuPzZ824E3SsUIbc8SgxzSxPqGMJ7FP8Fau3pIz_VCA=",
      "Lang": "ku",
      "CaptionKey": "translation",
      "CaptionName": "Werger",
      "YoutubeSynced": true
    },
    {
      "ID": "nP_J92kjicWfp8NvFg2hsD8DHcIlOjHjOgLjpD-yoMhKokJYJseo4A==",
      "Lang": "ky",
      "CaptionKey": "translation",
      "CaptionName": "котормо",
      "YoutubeSynced": true
    },
    {
      "ID": "--LQS8z1YV9Z_GR4zHOpFD3TMi24Z-6bDw9O4FUYVBE83PvSAZJMQA==",
      "Lang": "lb",
      "CaptionKey": "translation",
      "CaptionName": "Iwwersetzung",
      "YoutubeSynced": true
    },
    {
      "ID": "wAGr42Ctzbj0uvd2pRyh9pPH4ZTZl16r5SF_rnN-4lz3zTatXvg_AtynZbn78yVJI8qk94uQa2A=",
      "Lang": "lo",
      "CaptionKey": "translation",
      "CaptionName": "ການແປພາສາ",
      "YoutubeSynced": true
    },
    {
      "ID": "GppHp_UCMU9gXFvkk2nCYNy9JgQ3gp2Qr0hCRf8ubNsEW1J1GObXMg==",
      "Lang": "lt",
      "CaptionKey": "translation",
      "CaptionName": "Vertimas",
      "YoutubeSynced": true
    },
    {
      "ID": "Gr6vYCL5q3E-tUe7bfZF9p37AjHBvFH6_szmiqncLPJn6qygNWAfQA==",
      "Lang": "lv",
      "CaptionKey": "translation",
      "CaptionName": "Tulkošana",
      "YoutubeSynced": true
    },
    {
      "ID": "aIRRY0i10vEljDIBA9CCai1nHaxT3qRt_J0_W_6MlzM41AcRUkiENA==",
      "Lang": "mg",
      "CaptionKey": "translation",
      "CaptionName": "Translation",
      "YoutubeSynced": true
    },
    {
      "ID": "N6yFftBvZaHZofqYl4nKA1_1DkVxB1TefYn90ileE3XjMTBoCQ2gAu76tDMSHDJj",
      "Lang": "mi",
      "CaptionKey": "translation",
      "CaptionName": "Whakamaoritanga",
      "YoutubeSynced": true
    },
    {
      "ID": "--LQS8z1YV9Hlu4UVPz6a27lYVqlbnvsg-QZBDLpxeuaoWKCb1nAYQ==",
      "Lang": "mk",
      "CaptionKey": "translation",
      "CaptionName": "Превод",
      "YoutubeSynced": true
    },
    {
      "ID": "wAGr42CtzbjPT775uxr_DM-1MAMAI8PxHtQqaVMCG1uzmBQ_9EtvG1W3k8-Y1kj5qQcp9qohwaI=",
      "Lang": "ml",
      "CaptionKey": "translation",
      "CaptionName": "വിവർത്തനം",
      "YoutubeSynced": true
    },
    {
      "ID": "kVJk1B8vEgVwHwByQziEAzPqEkNJLJtQtayD_JJwxFaOs_uFID17CaZSPcsWHFis",
      "Lang": "mn",
      "CaptionKey": "translation",
      "CaptionName": "Орчуулга",
      "YoutubeSynced": true
    },
    {
      "ID": "KWW7roCOI57CvUrtRwtJXpd2jBp4VdZtBVYOjyRIt5lZDdIO_127B0jXG5AhENWh",
      "Lang": "mr",
      "CaptionKey": "translation",
      "CaptionName": "भाषांतर",
      "YoutubeSynced": true
    },
    {
      "ID": "Gr6vYCL5q3GFlt15H5VC56nqkDmOXunH-CgmqQTDurE2Vu9ZmdldlQ==",
      "Lang": "ms",
      "CaptionKey": "translation",
      "CaptionName": "Terjemahan",
      "YoutubeSynced": true
    },
    {
      "ID": "aIRRY0i10vHlhglzoaQxyuRsTpW0JEia8R4rJjgDB5UxiLXXDcwzSQ==",
      "Lang": "mt",
      "CaptionKey": "translation",
      "CaptionName": "Traduzzjoni",
      "YoutubeSynced": true
    },
    {
      "ID": "eddFp8JXfXtM_AVuwDSMUo0bDXybBbAcV82pEleOsFKwKFn-GJhC6G5ctxHZ3wbKidfRT21waYc=",
      "Lang": "my",
      "CaptionKey": "translation",
      "CaptionName": "ဘာသာပြန်",
      "YoutubeSynced": true
    },
    {
      "ID": "r5ZKHSeHKj7FE1Q1d_rJHVjI4tmQWqRNA0KzikdQ5BovBJerKuzFMcPcb9T__gBT",
      "Lang": "ne",
      "CaptionKey": "translation",
      "CaptionName": "अनुवाद",
      "YoutubeSynced": true
    },
    {
      "ID": "lqajp_LWBd-sviGEObSgfsoUkUmJUCzUPJQoW-OUgSa0Gf1DNHLToQ==",
      "Lang": "nl",
      "CaptionKey": "translation",
      "CaptionName": "Vertaling",
      "YoutubeSynced": true
    },
    {
      "ID": "--LQS8z1YV9pTwQdELu7iwypT5OQTCXr5fPWKbOGexk4zuIRaKIV3g==",
      "Lang": "no",
      "CaptionKey": "translation",
      "CaptionName": "Oversettelse",
      "YoutubeSynced": true
    },
    {
      "ID": "r5ZKHSeHKj6EJvQ6WyBKyT9EUFZN6s9NCkj9VmneQqP0ftcAWtaOb315sqizqJM-",
      "Lang": "pa",
      "CaptionKey": "translation",
      "CaptionName": "ਅਨੁਵਾਦ",
      "YoutubeSynced": true
    },
    {
      "ID": "--LQS8z1YV90zedznJ04sZBBPiBIA-YnGh-CbKS2Wmyo3BtHIAIWwA==",
      "Lang": "pl",
      "CaptionKey": "translation",
      "CaptionName": "Tłumaczenie",
      "YoutubeSynced": true
    },
    {
      "ID": "Gr6vYCL5q3GeHRU-VVdZzary245iGUsIvw6kvOJcN0UQ-wSFcWZ4KA==",
      "Lang": "ps",
      "CaptionKey": "translation",
      "CaptionName": "ژباړه",
      "YoutubeSynced": true
    },
    {
      "ID": "Gr6vYCL5q3Eewv3wwW90ja-1A_CJ546tcnUsU1v0QZceLM3h-c_XrA==",
      "Lang": "pt",
      "CaptionKey": "translation",
      "CaptionName": "Tradução",
      "YoutubeSynced": true
    },
    {
      "ID": "lqajp_LWBd91DdzxdYOHAggaoD1kFMehAzOut5oc-idOBxnjyqZYHQ==",
      "Lang": "ro",
      "CaptionKey": "translation",
      "CaptionName": "Traducere",
      "YoutubeSynced": true
    },
    {
      "ID": "nP_J92kjicV90x5yWJU9csqMt5iy7g6WUniJ0sJRwKuKkq0r0jue3Q==",
      "Lang": "ru",
      "CaptionKey": "translation",
      "CaptionName": "Перевод",
      "YoutubeSynced": true
    },
    {
      "ID": "Gr6vYCL5q3HmH6zAJT1oiBC5itNHkT6R_3CPWcNfELvaFbm063RH_Q==",
      "Lang": "sd",
      "CaptionKey": "translation",
      "CaptionName": "ترجمو",
      "YoutubeSynced": true
    },
    {
      "ID": "wAGr42Ctzbg-XFkZBKm_eJVSpx7kHxJE8xdDahfFotxA9vgEqzcFxJBWo5Tj99zHUEiQblIr6aU=",
      "Lang": "si",
      "CaptionKey": "translation",
      "CaptionName": "පරිවර්තනය",
      "YoutubeSynced": true
    },
    {
      "ID": "kk5Nl6oqAyd_x5qO6qqXpCqFvOsjOUL89g0MrQKBiGEBVUVU9XaDCQ==",
      "Lang": "sk",
      "CaptionKey": "translation",
      "CaptionName": "preklad",
      "YoutubeSynced": true
    },
    {
      "ID": "tuPzZ824E3SK6IMgT2I0cFmfHc_ilsYI5RUlmPuNWu8=",
      "Lang": "sl",
      "CaptionKey": "translation",
      "CaptionName": "Prevod",
      "YoutubeSynced": true
    },
    {
      "ID": "--LQS8z1YV-XeALx2Pr0bLTnE0nc9CCKhAzU4ZSu2ulc4t_pWh3W-A==",
      "Lang": "sm",
      "CaptionKey": "translation",
      "CaptionName": "Faʻaliliuga",
      "YoutubeSynced": true
    },
    {
      "ID": "kk5Nl6oqAydnyC6LEu8PsuO8qzBkPCZpcCfwJQNEDCS2W_dhjCPCeg==",
      "Lang": "sn",
      "CaptionKey": "translation",
      "CaptionName": "Dudziro",
      "YoutubeSynced": true
    },
    {
      "ID": "lqajp_LWBd-Wy7CNwahnz7brL14WIe8RnbHyjN5voGfILH6HiK1_ZQ==",
      "Lang": "so",
      "CaptionKey": "translation",
      "CaptionName": "Tarjumida",
      "YoutubeSynced": true
    },
    {
      "ID": "lqajp_LWBd92MgiZo1q4GIixKv_nkfg6wyqcC1iQeDVPzctmMc8f9g==",
      "Lang": "sq",
      "CaptionKey": "translation",
      "CaptionName": "përkthim",
      "YoutubeSynced": true
    },
    {
      "ID": "--LQS8z1YV9_jUsvsXQITITeCicPXmY1PflCHb7s2EQnZa9HWcJRXw==",
      "Lang": "sr",
      "CaptionKey": "translation",
      "CaptionName": "Превод",
      "YoutubeSynced": true
    },
    {
      "ID": "lqajp_LWBd_hgqGmGP88623CNU-b24voDtDLdEBfjmPX3TRhQ6MGXQ==",
      "Lang": "st",
      "CaptionKey": "translation",
      "CaptionName": "Phetolelo",
      "YoutubeSynced": true
    },
    {
      "ID": "Gr6vYCL5q3HriX68TDB_g_ss9T2GIQO9aTfD7KAuYfc9qhaqEevOUg==",
      "Lang": "su",
      "CaptionKey": "translation",
      "CaptionName": "Tarjamahan",
      "YoutubeSynced": true
    },
    {
      "ID": "nP_J92kjicXrC4_IFj8JFXu-IE8FNYBTBU8CHjvtZOnhS6ADxwcZEA==",
      "Lang": "sv",
      "CaptionKey": "translation",
      "CaptionName": "Översättning",
      "YoutubeSynced": true
    },
    {
      "ID": "kk5Nl6oqAydm2w2x-CI6jaTyUclRHwQWVQTiGruXPIDHzMSAJxjfzw==",
      "Lang": "sw",
      "CaptionKey": "translation",
      "CaptionName": "Tafsiri",
      "YoutubeSynced": true
    },
    {
      "ID": "yoT3BmREj82bNha8Dg1SH84_H6XGeiGC6weyNCFoHxXNXJay8dcSCpUjvY0eYC0pNTun3fEwk92xv9zkE7dkWHatqR3gdVfB",
      "Lang": "ta",
      "CaptionKey": "translation",
      "CaptionName": "மொழிபெயர்ப்பு",
      "YoutubeSynced": true
    },
    {
      "ID": "KWW7roCOI57xFTUSEmel6nqliv10VsUS2JLPXHBx3Nx-7-fNTxuQL490nsaV25GJ",
      "Lang": "te",
      "CaptionKey": "translation",
      "CaptionName": "అనువాదం",
      "YoutubeSynced": true
    },
    {
      "ID": "nP_J92kjicWeHErr7zZOhmfman4NEdN9OBeJp-tPxJdiViDQzlkSgw==",
      "Lang": "tg",
      "CaptionKey": "translation",
      "CaptionName": "Тарҷума",
      "YoutubeSynced": true
    },
    {
      "ID": "r5ZKHSeHKj7dx9WwJBnlhxzmkoqgJ5y5_Mye0KOyKIo1P2iqHMe2qegdhrxnsHDS",
      "Lang": "th",
      "CaptionKey": "translation",
      "CaptionName": "การแปล",
      "YoutubeSynced": true
    },
    {
      "ID": "GppHp_UCMU-ySZ7F6Rl76pb7EmGBDp-Pgix_TgIgohOreFtmrxo_Wg==",
      "Lang": "tr",
      "CaptionKey": "translation",
      "CaptionName": "Tercüme",
      "YoutubeSynced": true
    },
    {
      "ID": "kVJk1B8vEgW8nBBhIvLWFMSCcT1HfiBnBVPdD-Dhidqg0lGMit23i6nbZPMiC_D6",
      "Lang": "uk",
      "CaptionKey": "translation",
      "CaptionName": "Переклад",
      "YoutubeSynced": true
    },
    {
      "ID": "Gr6vYCL5q3EtJ3dAki93kuksyfmk9ZcOE-I7JwrfyRFxEi6dS2ULJQ==",
      "Lang": "ur",
      "CaptionKey": "translation",
      "CaptionName": "ترجمہ",
      "YoutubeSynced": true
    },
    {
      "ID": "kk5Nl6oqAyeZQls_QTJhcExCQ6nu8Dezf3_OPeCuN_THEYYP6LP4mQ==",
      "Lang": "uz",
      "CaptionKey": "translation",
      "CaptionName": "Tarjima",
      "YoutubeSynced": true
    },
    {
      "ID": "tuPzZ824E3TuV7129KEpzhNzoLd1KACyDtFXbYZ-LKk=",
      "Lang": "vi",
      "CaptionKey": "translation",
      "CaptionName": "Dịch",
      "YoutubeSynced": true
    },
    {
      "ID": "Gr6vYCL5q3FMrtXOFi8u40axb9JY3qtglFkwLgJM7n1wv42DxlTpfw==",
      "Lang": "xh",
      "CaptionKey": "translation",
      "CaptionName": "Inguqulelo",
      "YoutubeSynced": true
    },
    {
      "ID": "NhcIp6dsmVu0nKY-Ox0cCZ1kvzDbbYO-8VLGEwuKxEBreM_yypwn3SHrRhARfaN_",
      "Lang": "yi",
      "CaptionKey": "translation",
      "CaptionName": "איבערזעצונג",
      "YoutubeSynced": true
    },
    {
      "ID": "kk5Nl6oqAyeqv-00Boh4cj8cVobUvab7HFdkPWSXGhA_o8Tm_u9GoQ==",
      "Lang": "yo",
      "CaptionKey": "translation",
      "CaptionName": "Itumọ",
      "YoutubeSynced": true
    },
    {
      "ID": "aIRRY0i10vFXd67HckWk7skTZr2xeE84SSwP1ZUaI8AddpQFT9vahQ==",
      "Lang": "zh-Hans",
      "CaptionKey": "translation",
      "CaptionName": "翻译",
      "YoutubeSynced": true
    },
    {
      "ID": "aIRRY0i10vFXd67HckWk7vAonIJsrD3vAZE-0UW8sPt2pighjnkfHQ==",
      "Lang": "zh-Hant",
      "CaptionKey": "translation",
      "CaptionName": "翻譯",
      "YoutubeSynced": true
    },
    {
      "ID": "Gr6vYCL5q3GV_-8Przq1Hp7Jlf3gO6tD9PWPi0ABUhNdMQi_iAlpWQ==",
      "Lang": "zu",
      "CaptionKey": "translation",
      "CaptionName": "Ukuhumusha",
      "YoutubeSynced": true
    }
  ]
}