{
  "VideoFile": "grammar-en-beginner-simple_53_UK.mp4",
  "Captions": [
    {
      "ID": "THz5okLhUr7-EDdydo-oYJiI0wtu7ZFoSZxTcMIC8mKisYr51v7hUQ==",
      "Lang": "af",
      "CaptionKey": "translation",
      "CaptionName": "vertaling",
      "YoutubeSynced": true
    },
    {
      "ID": "k21lhXNP1TIFLZtISg0NCcS-ZamZpJnU35uLYUubRXJgWeKJQb_59g==",
      "Lang": "am",
      "CaptionKey": "translation",
      "CaptionName": "ትርጉም",
      "YoutubeSynced": true
    },
    {
      "ID": "_6dRwMa3uBU5v3TILYiL2kRRj7w4WEH78GLMP8UZxj7-DSqkfgt6WA==",
      "Lang": "ar",
      "CaptionKey": "translation",
      "CaptionName": "ترجمة",
      "YoutubeSynced": true
    },
    {
      "ID": "_6dRwMa3uBW19EppAQciFJTu6lmogCABI7p2YkHy2gUNdEu8UKgezA==",
      "Lang": "az",
      "CaptionKey": "translation",
      "CaptionName": "Tərcümə",
      "YoutubeSynced": true
    },
    {
      "ID": "bivydvqr1HwsqB32DyvXEF5EouupXrLSP1cArQ7yKxmG3G-pRhc1TEdR2zTueT9P",
      "Lang": "be",
      "CaptionKey": "translation",
      "CaptionName": "Пераклад",
      "YoutubeSynced": true
    },
    {
      "ID": "k21lhXNP1TJg8Bq9Rao8rK6JaHqXbz8-0casXrz3I_tPdekDzrMCsg==",
      "Lang": "bg",
      "CaptionKey": "translation",
      "CaptionName": "превод",
      "YoutubeSynced": true
    },
    {
      "ID": "_5REXQc0cbH9-QIWfozMfY3ciZix0hnvYOc1iaDc-O1NIpzEDN9oUX_AZxdKtcw4",
      "Lang": "bn",
      "CaptionKey": "translation",
      "CaptionName": "অনুবাদ",
      "YoutubeSynced": true
    },
    {
      "ID": "lr_p4sLNRmwqX3LKIDGg692uEZWpowtquuNn7Oz_Fn8=",
      "Lang": "bs",
      "CaptionKey": "translation",
      "CaptionName": "Prevod",
      "YoutubeSynced": true
    },
    {
      "ID": "_6dRwMa3uBWrfJR95M2e9yFyibFdQFk6Z7ioAtByNk6oFyJFOKBWDg==",
      "Lang": "ca",
      "CaptionKey": "translation",
      "CaptionName": "Traducció",
      "YoutubeSynced": true
    },
    {
      "ID": "_6dRwMa3uBVDQYXH6zStkxOEG-LgP6kSkLEj8UchHhJ1bVrTjlbkGg==",
      "Lang": "co",
      "CaptionKey": "translation",
      "CaptionName": "Traduzione",
      "YoutubeSynced": true
    },
    {
      "ID": "W1Nq_Pl0eOVMSjSEUNQniTeXA3Z3XXKtaEwc9jz2Dr_r3e5jvyZXqQ==",
      "Lang": "cs",
      "CaptionKey": "translation",
      "CaptionName": "Překlad",
      "YoutubeSynced": true
    },
    {
      "ID": "je70_w-trq6_Ep4vjwZ-jk0tmlnvLfsEvKyjjk44KOad9bRz2JRFFA==",
      "Lang": "cy",
      "CaptionKey": "translation",
      "CaptionName": "Cyfieithiad",
      "YoutubeSynced": true
    },
    {
      "ID": "ykDJ7XsmcNJMNcBYTB2TBCkBgsLK1z5AaUAxC4ZzMhVHB237Ds2Dvw==",
      "Lang": "da",
      "CaptionKey": "translation",
      "CaptionName": "Oversættelse",
      "YoutubeSynced": true
    },
    {
      "ID": "k21lhXNP1TIBS1gRTjcXbzHhDBo-NRsRbwQukNsmsCXIH8m2YN87fA==",
      "Lang": "de",
      "CaptionKey": "translation",
      "CaptionName": "Übersetzung",
      "YoutubeSynced": true
    },
    {
      "ID": "_5REXQc0cbE9wgPvAIP0qUVHJy34wsc-a49fI-Q5Odr0qmnafIsetiqBvToNswqD",
      "Lang": "el",
      "CaptionKey": "translation",
      "CaptionName": "Μετάφραση",
      "YoutubeSynced": true
    },
    {
      "ID": "je70_w-trq7Yndhe5Cbtlq8Xy5PfxfRYvym0KNDfsZR8MaCAXHirXQ==",
      "Lang": "en",
      "CaptionKey": "translation",
      "CaptionName": "Translation",
      "YoutubeSynced": true
    },
    {
      "ID": "aophQ1cXoxyPzv79irP-Pk16yelPthGhdZW7NJQjoNG6wnMXFJ5jNq5vNS6LRejG",
      "Lang": "en",
      "CaptionKey": "ruby",
      "CaptionName": "Pronunciation - IPA",
      "YoutubeSynced": true
    },
    {
      "ID": "je70_w-trq6eLsYvp556mpySitZHmXkqIg5hH0IetYeWXNgoUGBg6A==",
      "Lang": "es",
      "CaptionKey": "translation",
      "CaptionName": "Traducción",
      "YoutubeSynced": true
    },
    {
      "ID": "lr_p4sLNRmz4UCSEtjHC8o9Kjh2p-VWEhLLyfxM8xgM=",
      "Lang": "et",
      "CaptionKey": "translation",
      "CaptionName": "Tõlge",
      "YoutubeSynced": true
    },
    {
      "ID": "THz5okLhUr5Piqfx92-eTb8gxVXflkYzluJQjv-E1dMXQzg1xhg0vw==",
      "Lang": "eu",
      "CaptionKey": "translation",
      "CaptionName": "Itzulpena",
      "YoutubeSynced": true
    },
    {
      "ID": "_6dRwMa3uBWGRYLivVwNIoie_64Scix43sSbDyh8WTW5nEr_8cL4pQ==",
      "Lang": "fa",
      "CaptionKey": "translation",
      "CaptionName": "ترجمه",
      "YoutubeSynced": true
    },
    {
      "ID": "_6dRwMa3uBV-SPFhksLCqOifeuGvwKoOFHN4xHdiIdL6MbkCMpCR7A==",
      "Lang": "fi",
      "CaptionKey": "translation",
      "CaptionName": "Käännös",
      "YoutubeSynced": true
    },
    {
      "ID": "je70_w-trq5nPAsi1z7mvcjzegVFVb_3aqVyL-KaKY-DLipDF7KH2w==",
      "Lang": "fil",
      "CaptionKey": "translation",
      "CaptionName": "Pagsasalin",
      "YoutubeSynced": true
    },
    {
      "ID": "_6dRwMa3uBUDBGOkpIYiPHXzPRNCsrfQRDXHvlNU97rS13buszHuGg==",
      "Lang": "fr",
      "CaptionKey": "translation",
      "CaptionName": "Traduction",
      "YoutubeSynced": true
    },
    {
      "ID": "_6dRwMa3uBVB0NgOQZLPrO8UusmRbIx_g1KGZZSLSTZx_cD7bNargw==",
      "Lang": "fy",
      "CaptionKey": "translation",
      "CaptionName": "Oersetting",
      "YoutubeSynced": true
    },
    {
      "ID": "_5REXQc0cbErAbk19nSKy85VxNODpxjjD1wq5eyQ4dRS-VS5E-yexEbyqDR6Aq9D",
      "Lang": "gd",
      "CaptionKey": "translation",
      "CaptionName": "Eadar-theangachadh",
      "YoutubeSynced": true
    },
    {
      "ID": "_6dRwMa3uBV1CgqwcdOi1MvyYNwClI8ZS-3fKhY15Rw4XjD_bRCeGg==",
      "Lang": "gl",
      "CaptionKey": "translation",
      "CaptionName": "Tradución",
      "YoutubeSynced": true
    },
    {
      "ID": "_5REXQc0cbELMItFrOCn24ylwdUfOCES4hN13xX0Jgse7q2y5sq45AyhyXeUQOhN",
      "Lang": "gu",
      "CaptionKey": "translation",
      "CaptionName": "અનુવાદ",
      "YoutubeSynced": true
    },
    {
      "ID": "JsDnsfdu7scu6zlesHPJDMoF6g9O4VF5w85hxN5COrFNP7UT1Z8CoA==",
      "Lang": "ha",
      "CaptionKey": "translation",
      "CaptionName": "Fassara",
      "YoutubeSynced": true
    },
    {
      "ID": "_5REXQc0cbE7z8T14AfL1j2Gu19y06Nxrz2ypEOnXwSmaX3T3pS9Uxxidz6ht1gi",
      "Lang": "hi",
      "CaptionKey": "translation",
      "CaptionName": "अनुवाद",
      "YoutubeSynced": true
    },
    {
      "ID": "W1Nq_Pl0eOW_0vyMYhD3PvrQgMdc1PULoJxTOEmfbVbLskvqzOv_jA==",
      "Lang": "hr",
      "CaptionKey": "translation",
      "CaptionName": "Prijevod",
      "YoutubeSynced": true
    },
    {
      "ID": "_6dRwMa3uBXJevfaGq7SqaGBlReOFvVM-nmDqu4PJZz9PEAMvo0uUQ==",
      "Lang": "hu",
      "CaptionKey": "translation",
      "CaptionName": "Fordítás",
      "YoutubeSynced": true
    },
    {
      "ID": "GvXXAfwmrKCapmi1hU-2xOehApl3mat6fjjKeENp4hy6LWoe32sy8T6ISciJuvgIvvkVijjAnIU=",
      "Lang": "hy",
      "CaptionKey": "translation",
      "CaptionName": "Թարգմանություն",
      "YoutubeSynced": true
    },
    {
      "ID": "_6dRwMa3uBWHCQMXrg2G-xQ5kCOSu5E2T_XQHNC03QnFNjlRPw7E6Q==",
      "Lang": "id",
      "CaptionKey": "translation",
      "CaptionName": "Terjemahan",
      "YoutubeSynced": true
    },
    {
      "ID": "W1Nq_Pl0eOXSHllc7ocgPPu78xLa7Aah5nCdVhmYcYMNyczCCd9n9A==",
      "Lang": "ig",
      "CaptionKey": "translation",
      "CaptionName": "Ntughari",
      "YoutubeSynced": true
    },
    {
      "ID": "THz5okLhUr6A_R_ZP4paP7BsNsNfhKJFAdRzsLtcJrsh-bqmbmb2dw==",
      "Lang": "is",
      "CaptionKey": "translation",
      "CaptionName": "Þýðing",
      "YoutubeSynced": true
    },
    {
      "ID": "_6dRwMa3uBXUAvPAcsfpWGeMMTUrnyqJPG6NUhd8IHX58qzvDh4FFQ==",
      "Lang": "it",
      "CaptionKey": "translation",
      "CaptionName": "Traduzione",
      "YoutubeSynced": true
    },
    {
      "ID": "_6dRwMa3uBVRxhcR6eKSyXhxCy0HgfpWvCOvKz7RDWJGj0n4h8CLhw==",
      "Lang": "iw",
      "CaptionKey": "translation",
      "CaptionName": "תרגום",
      "YoutubeSynced": true
    },
    {
      "ID": "lr_p4sLNRmzfl53V7FmB_jEq-K2DoNY5g_4FgFJppTo=",
      "Lang": "ja",
      "CaptionKey": "translation",
      "CaptionName": "翻訳",
      "YoutubeSynced": true
    },
    {
      "ID": "THz5okLhUr7kZk3VL-IZqfM5_tvN4cxeuhKiVcDXdkU0hRdgnJGiDQ==",
      "Lang": "jv",
      "CaptionKey": "translation",
      "CaptionName": "Ngartekne",
      "YoutubeSynced": true
    },
    {
      "ID": "70XAiFTj6TAGbQ6akBD8LHc9lwB02AGa8FBXSGDAnkawvThnjSuKq9Sz0eiMpoVVTyoLebdWz3A=",
      "Lang": "ka",
      "CaptionKey": "translation",
      "CaptionName": "თარგმანი",
      "YoutubeSynced": true
    },
    {
      "ID": "V8KkZsRhEzrykqlcyASQX5giUkuJr0c7qh8PyY-8fZTGEW_cr2PILQ==",
      "Lang": "kk",
      "CaptionKey": "translation",
      "CaptionName": "Аударма",
      "YoutubeSynced": true
    },
    {
      "ID": "kFm7QugS1hTGCieXH82yivPhYs8F4c6s0GasSjH6_oi-m3SbQpttQ7oy0npVtyDiq91Py_wEjVY=",
      "Lang": "km",
      "CaptionKey": "translation",
      "CaptionName": "ការបកប្រែ",
      "YoutubeSynced": true
    },
    {
      "ID": "_5REXQc0cbHy8gl0jHxPYlc8_6eDlstPy11HNj2iilPeD-_MdOZNkkL8WRUlziAf",
      "Lang": "kn",
      "CaptionKey": "translation",
      "CaptionName": "ಅನುವಾದ",
      "YoutubeSynced": true
    },
    {
      "ID": "lr_p4sLNRmxtrL1Wn5rxEclXq_ENHaq82rnEzfoovR0=",
      "Lang": "ko",
      "CaptionKey": "translation",
      "CaptionName": "번역",
      "YoutubeSynced": true
    },
    {
      "ID": "lr_p4sLNRmyYbvXt2IHSbpUa0qapKrEvqmJVTM-70qQ=",
      "Lang": "ku",
      "CaptionKey": "translation",
      "CaptionName": "Werger",
      "YoutubeSynced": true
    },
    {
      "ID": "V8KkZsRhEzov2BN8KtgmXa3_DkoGJUbrgo_kIg3vXGD0hj_lIwOJtw==",
      "Lang": "ky",
      "CaptionKey": "translation",
      "CaptionName": "котормо",
      "YoutubeSynced": true
    },
    {
      "ID": "k21lhXNP1TKKx89Ja-uK3Dut0W3P8d_0VNHhuKfNLPlxgrn_gPLQTw==",
      "Lang": "lb",
      "CaptionKey": "translation",
      "CaptionName": "Iwwersetzung",
      "YoutubeSynced": true
    },
    {
      "ID": "kFm7QugS1hSLpQJfwPxwUU7bRXjVOH48D3XFgeMLfBs4txQkamHMskB1M2-Eq4enBBRWgXl3-ns=",
      "Lang": "lo",
      "CaptionKey": "translation",
      "CaptionName": "ການແປພາສາ",
      "YoutubeSynced": true
    },
    {
      "ID": "W1Nq_Pl0eOXhSX0U0fM-W0nlIP9p6nfkBvSfOX0g3BPBD0TCI09xUA==",
      "Lang": "lt",
      "CaptionKey": "translation",
      "CaptionName": "Vertimas",
      "YoutubeSynced": true
    },
    {
      "ID": "_6dRwMa3uBUqMvfTq0PDIUjUqPnHr9dWhtmbWn9lpMIf1LxUiMsTWQ==",
      "Lang": "lv",
      "CaptionKey": "translation",
      "CaptionName": "Tulkošana",
      "YoutubeSynced": true
    },
    {
      "ID": "je70_w-trq7vWr_d-es-PAY-Bh9EhtA4-DvKDGMMOTldFcfidearwQ==",
      "Lang": "mg",
      "CaptionKey": "translation",
      "CaptionName": "Translation",
      "YoutubeSynced": true
    },
    {
      "ID": "Nx0_R1Wde03YcTflrjk9cw-w1n8jaaYGWVkFn4go6vl4qEN-xH1SPHb_1SSJ4abt",
      "Lang": "mi",
      "CaptionKey": "translation",
      "CaptionName": "Whakamaoritanga",
      "YoutubeSynced": true
    },
    {
      "ID": "k21lhXNP1TKP_wIsKPzWA2e9ATieDyxTll4uiUhsDSA0exV4CwfP0g==",
      "Lang": "mk",
      "CaptionKey": "translation",
      "CaptionName": "Превод",
      "YoutubeSynced": true
    },
    {
      "ID": "kFm7QugS1hQK9R544OD2SKKDWrutD7bBI15whwE6byP8p7b-Ko86vpVVIAQUGaXNxNRULHo8L0g=",
      "Lang": "ml",
      "CaptionKey": "translation",
      "CaptionName": "വിവർത്തനം",
      "YoutubeSynced": true
    },
    {
      "ID": "bivydvqr1HxTBzowjMxPR3fynlQ-LGyN_c6VztC7p2ktcPlT6FzqOavb4SItFsSZ",
      "Lang": "mn",
      "CaptionKey": "translation",
      "CaptionName": "Орчуулга",
      "YoutubeSynced": true
    },
    {
      "ID": "sOq34hbNkr5Gukb0SS-_k6LNlUYJp8qidX9SatiQz9OjtVNUBcZmMEvu2GJMOo9y",
      "Lang": "mr",
      "CaptionKey": "translation",
      "CaptionName": "भाषांतर",
      "YoutubeSynced": true
    },
    {
      "ID": "_6dRwMa3uBXpaJsokM0-iBtOwpHUzGhQpW28iykc_q3lr8vxAhR0Aw==",
      "Lang": "ms",
      "CaptionKey": "translation",
      "CaptionName": "Terjemahan",
      "YoutubeSynced": true
    },
    {
      "ID": "je70_w-trq677_7oUgFSVOLUco5i17pT5lggi50wmM-6v9U_taYGiA==",
      "Lang": "mt",
      "CaptionKey": "translation",
      "CaptionName": "Traduzzjoni",
      "YoutubeSynced": true
    },
    {
      "ID": "70XAiFTj6TDmUXCVtKSxntkPP4dPPkSd4R7okgEXK4BU6feRiFC9P69W4gD8c30OLf2O7l1aQCI=",
      "Lang": "my",
      "CaptionKey": "translation",
      "CaptionName": "ဘာသာပြန်",
      "YoutubeSynced": true
    },
    {
      "ID": "_5REXQc0cbE-sfWkPE7ZQmj3Q-E34GqGzCPUWnxe1VY5AUKpB0_ly7qJsctJxpC1",
      "Lang": "ne",
      "CaptionKey": "translation",
      "CaptionName": "अनुवाद",
      "YoutubeSynced": true
    },
    {
      "ID": "THz5okLhUr7G6XC34ryEek2AscH1-NHfQ60rubhrtcb6nfeoQAgXnA==",
      "Lang": "nl",
      "CaptionKey": "translation",
      "CaptionName": "Vertaling",
      "YoutubeSynced": true
    },
    {
      "ID": "k21lhXNP1TKpSlYHCmLP0iKfsGSXGxQxlM6mdwZ-Q3zXGpEgs64nQA==",
      "Lang": "no",
      "CaptionKey": "translation",
      "CaptionName": "Oversettelse",
      "YoutubeSynced": true
    },
    {
      "ID": "_5REXQc0cbGp1NGa8OU97FhXxIQvcMynMxQSeuhsIX84WOzgYPIXjA3tfE6-EI-K",
      "Lang": "pa",
      "CaptionKey": "translation",
      "CaptionName": "ਅਨੁਵਾਦ",
      "YoutubeSynced": true
    },
    {
      "ID": "k21lhXNP1TJ6c3IrWU8M5hvSRUeyQ8MiFbG1zaibLWe8BDY7R1l0Ow==",
      "Lang": "pl",
      "CaptionKey": "translation",
      "CaptionName": "Tłumaczenie",
      "YoutubeSynced": true
    },
    {
      "ID": "_6dRwMa3uBU8TsYhgxhQSx3fp5o7uRGNuyhe_rRXp9zidZQzSBuqUg==",
      "Lang": "ps",
      "CaptionKey": "translation",
      "CaptionName": "ژباړه",
      "YoutubeSynced": true
    },
    {
      "ID": "_6dRwMa3uBUreUVb6152a9RCmWOtjms9YzCSi4C--L7gHkXeSiVg2w==",
      "Lang": "pt",
      "CaptionKey": "translation",
      "CaptionName": "Tradução",
      "YoutubeSynced": true
    },
    {
      "ID": "THz5okLhUr5110px4C9eRNqTwEXompNwubmunzL8Je4EgwGbXMKgFw==",
      "Lang": "ro",
      "CaptionKey": "translation",
      "CaptionName": "Traducere",
      "YoutubeSynced": true
    },
    {
      "ID": "V8KkZsRhEzo0CxHcyGKJG-_Vu5eoEoIwu6az0whKeX5jFWnx9OrSxg==",
      "Lang": "ru",
      "CaptionKey": "translation",
      "CaptionName": "Перевод",
      "YoutubeSynced": true
    },
    {
      "ID": "_6dRwMa3uBUGmXLQ5ogORKOn7dko_L0KBihyBs7PPK1RLgDhYQz3Lw==",
      "Lang": "sd",
      "CaptionKey": "translation",
      "CaptionName": "ترجمو",
      "YoutubeSynced": true
    },
    {
      "ID": "kFm7QugS1hQCTv5_mdwP6JvP-Xmi2nYkmKVtNDydhh4l4Y1DO_hWQwizhDY5rMIEeldfkZxo5Os=",
      "Lang": "si",
      "CaptionKey": "translation",
      "CaptionName": "පරිවර්තනය",
      "YoutubeSynced": true
    },
    {
      "ID": "JsDnsfdu7scCvHFor7tX5TYjZIrCEZwBayL4SHa6Kq0P2Dkfl3S2BQ==",
      "Lang": "sk",
      "CaptionKey": "translation",
      "CaptionName": "preklad",
      "YoutubeSynced": true
    },
    {
      "ID": "lr_p4sLNRmwemBNbrmidN1ahomlIuCPAaSuc-fpPlqo=",
      "Lang": "sl",
      "CaptionKey": "translation",
      "CaptionName": "Prevod",
      "YoutubeSynced": true
    },
    {
      "ID": "k21lhXNP1TJRlDX2P5A5zIBemFYjXENrGlO-0daHFapIT31ob5aVvA==",
      "Lang": "sm",
      "CaptionKey": "translation",
      "CaptionName": "Faʻaliliuga",
      "YoutubeSynced": true
    },
    {
      "ID": "JsDnsfdu7scFajjNy2utiXS_0N8Pw6rUu9Hs9KZ2UlkGMmlZ7KPydw==",
      "Lang": "sn",
      "CaptionKey": "translation",
      "CaptionName": "Dudziro",
      "YoutubeSynced": true
    },
    {
      "ID": "THz5okLhUr7NJiZHS2I0hJONxsEi-9wp3kIPj8fBXRRJvwxzu_ZRUQ==",
      "Lang": "so",
      "CaptionKey": "translation",
      "CaptionName": "Tarjumida",
      "YoutubeSynced": true
    },
    {
      "ID": "THz5okLhUr7ad_xNsZRb8-cjCtkXaCRQ5q-xnhrKA055MRSbBAHoYg==",
      "Lang": "sq",
      "CaptionKey": "translation",
      "CaptionName": "përkthim",
      "YoutubeSynced": true
    },
    {
      "ID": "k21lhXNP1TIoMn-0fee5ygzZTTv_HtBb_-T2BtxJC1ROPNXN5zOrHQ==",
      "Lang": "sr",
      "CaptionKey": "translation",
      "CaptionName": "Превод",
      "YoutubeSynced": true
    },
    {
      "ID": "THz5okLhUr4HprPU4H4gTS_F234lWfzotdqU809YCKH1715g6ECAcQ==",
      "Lang": "st",
      "CaptionKey": "translation",
      "CaptionName": "Phetolelo",
      "YoutubeSynced": true
    },
    {
      "ID": "_6dRwMa3uBVg5YEYo_4eO-Ag9vwMyhsS4inhkprmAs1dABJJBbn6lg==",
      "Lang": "su",
      "CaptionKey": "translation",
      "CaptionName": "Tarjamahan",
      "YoutubeSynced": true
    },
    {
      "ID": "V8KkZsRhEzprpFt3xPuwt-gRe1wfsJVeUwsKwKW7eoqQFkAuJSbaIA==",
      "Lang": "sv",
      "CaptionKey": "translation",
      "CaptionName": "Översättning",
      "YoutubeSynced": true
    },
    {
      "ID": "JsDnsfdu7scSND0jmjvHXK4zVqeTWGmqb-d-7YQc8l3xg0pPoz1IVA==",
      "Lang": "sw",
      "CaptionKey": "translation",
      "CaptionName": "Tafsiri",
      "YoutubeSynced": true
    },
    {
      "ID": "FGTFfK4QCaTeZMTk6uI411hWBt5aw2ymBhg6FVq9EDs-5aow6rpb_lOtw8GyhAgWAfJUKPJzsHDILepsmfLwedC8nafvNsxo",
      "Lang": "ta",
      "CaptionKey": "translation",
      "CaptionName": "மொழிபெயர்ப்பு",
      "YoutubeSynced": true
    },
    {
      "ID": "sOq34hbNkr5JiuZ2Zk9h_hvc4E2I4zw_dyDSNS5fY2SFKf_f2KJ4Rt0vI6Zb8l9P",
      "Lang": "te",
      "CaptionKey": "translation",
      "CaptionName": "అనువాదం",
      "YoutubeSynced": true
    },
    {
      "ID": "V8KkZsRhEzpmjvQpRtSfYX1IMS4YZJCAmE0eIRtdVVHkp_2WJULnTQ==",
      "Lang": "tg",
      "CaptionKey": "translation",
      "CaptionName": "Тарҷума",
      "YoutubeSynced": true
    },
    {
      "ID": "_5REXQc0cbEWz83ir2k-Dbs0a7eXdduUOB3AeCK-HA4QqU28FJp5fATDL0vxpNrR",
      "Lang": "th",
      "CaptionKey": "translation",
      "CaptionName": "การแปล",
      "YoutubeSynced": true
    },
    {
      "ID": "W1Nq_Pl0eOVMjdJnQ8Gx2wYBS3BbOP7eZ0wdndJjc1QYD7hRjAxR5g==",
      "Lang": "tr",
      "CaptionKey": "translation",
      "CaptionName": "Tercüme",
      "YoutubeSynced": true
    },
    {
      "ID": "bivydvqr1Hxl8ETeO4mdTNj_KbizgKFxe-67sfpU3npAzsEAjs9QxLRtMf6xTsnt",
      "Lang": "uk",
      "CaptionKey": "translation",
      "CaptionName": "Переклад",
      "YoutubeSynced": true
    },
    {
      "ID": "_6dRwMa3uBUuAZ1UnPf0vJHTiK1YJU6IsTJkWmIXarloxDj-UeLvrg==",
      "Lang": "ur",
      "CaptionKey": "translation",
      "CaptionName": "ترجمہ",
      "YoutubeSynced": true
    },
    {
      "ID": "JsDnsfdu7seH7kjz8bGp8jXryMrYP0qtqZpfJ1ZaxYmLgoKLFklhSQ==",
      "Lang": "uz",
      "CaptionKey": "translation",
      "CaptionName": "Tarjima",
      "YoutubeSynced": true
    },
    {
      "ID": "lr_p4sLNRmxpA5FQEmD2errsOLCay67Ux03GI5-gbls=",
      "Lang": "vi",
      "CaptionKey": "translation",
      "CaptionName": "Dịch",
      "YoutubeSynced": true
    },
    {
      "ID": "_6dRwMa3uBWC7z1c9-wvoswujz1-g90ImtsIOEzvwHuRzG03KOSWjA==",
      "Lang": "xh",
      "CaptionKey": "translation",
      "CaptionName": "Inguqulelo",
      "YoutubeSynced": true
    },
    {
      "ID": "x0QZIxaC30Cj3ymALVJxEDxhNxlrHJloBhnOm7vwxjAgb8OVF_1DU4rSFRQoiV_4",
      "Lang": "yi",
      "CaptionKey": "translation",
      "CaptionName": "איבערזעצונג",
      "YoutubeSynced": true
    },
    {
      "ID": "JsDnsfdu7sdhKOddnazwlCVQuIbuMX9-6dZ194lDSqr-8HxnQzjNxQ==",
      "Lang": "yo",
      "CaptionKey": "translation",
      "CaptionName": "Itumọ",
      "YoutubeSynced": true
    },
    {
      "ID": "je70_w-trq5D7hkQ48E9diBiReEc5cqiFyBomlc6IR9AnPe5Fi-Aqw==",
      "Lang": "zh-Hans",
      "CaptionKey": "translation",
      "CaptionName": "翻译",
      "YoutubeSynced": true
    },
    {
      "ID": "je70_w-trq5D7hkQ48E9dtuSVVoDfNvzKRCDnQ7yuQq9EdrlB6ctBw==",
      "Lang": "zh-Hant",
      "CaptionKey": "translation",
      "CaptionName": "翻譯",
      "YoutubeSynced": true
    },
    {
      "ID": "_6dRwMa3uBW28nblRe9sUSdvqBWphradt6utyOlR3MiFHBSYxME1xA==",
      "Lang": "zu",
      "CaptionKey": "translation",
      "CaptionName": "Ukuhumusha",
      "YoutubeSynced": true
    }
  ]
}