{
  "VideoFile": "grammar-en-beginner-simple_97_A.mp4",
  "Captions": [
    {
      "ID": "Db5MrBEOI4XGvQBMHXsK1q4pvfTzjz-KccndkavFDPnsyeHRKDyleg==",
      "Lang": "af",
      "CaptionKey": "translation",
      "CaptionName": "vertaling",
      "YoutubeSynced": true
    },
    {
      "ID": "pBnUqd2k79ihoZmHjEjZ25CsDrmFcfQIw60pp7lAV0SFbE7Xen-eVw==",
      "Lang": "am",
      "CaptionKey": "translation",
      "CaptionName": "ትርጉም",
      "YoutubeSynced": true
    },
    {
      "ID": "DsnNBOV-_kfHqWRKTC61R6v2V86Hize8GCGyChWa6ZACADRyv_-FtA==",
      "Lang": "ar",
      "CaptionKey": "translation",
      "CaptionName": "ترجمة",
      "YoutubeSynced": true
    },
    {
      "ID": "DsnNBOV-_kc8vP9fZgI_2LjecDxP38--kkZ637D91ICkpSpR_ThM5A==",
      "Lang": "az",
      "CaptionKey": "translation",
      "CaptionName": "Tərcümə",
      "YoutubeSynced": true
    },
    {
      "ID": "PBpdv0Si_1qaZfy3T7RCpp03DsEZ72UKFO9AHQEn1EJAL2BwUOFjKskbCyFe-nZ_",
      "Lang": "be",
      "CaptionKey": "translation",
      "CaptionName": "Пераклад",
      "YoutubeSynced": true
    },
    {
      "ID": "pBnUqd2k79gvQ5Jgc6zVhIqftoTnPGMIUyEE-l2WamiJCcJgddc2lQ==",
      "Lang": "bg",
      "CaptionKey": "translation",
      "CaptionName": "превод",
      "YoutubeSynced": true
    },
    {
      "ID": "VFtPkw2kyjw0pC61C0djhckb6qzbkD-AXQMCpcUpXc9fDcZEB6_nPWopLQ2Nrk57",
      "Lang": "bn",
      "CaptionKey": "translation",
      "CaptionName": "অনুবাদ",
      "YoutubeSynced": true
    },
    {
      "ID": "GB7VknzhhUJVYkrhUH669juiED2PyDrz05ueWKqWj9E=",
      "Lang": "bs",
      "CaptionKey": "translation",
      "CaptionName": "Prevod",
      "YoutubeSynced": true
    },
    {
      "ID": "DsnNBOV-_keoB9t9TV-4Ssjv_VXBrsSQ3bvbr889UzT2oyTG5j3JCQ==",
      "Lang": "ca",
      "CaptionKey": "translation",
      "CaptionName": "Traducció",
      "YoutubeSynced": true
    },
    {
      "ID": "DsnNBOV-_kdtvo2Jg8JUAwD91dgOQiw84ff-c4CDc1UieO_EDUoOvg==",
      "Lang": "co",
      "CaptionKey": "translation",
      "CaptionName": "Traduzione",
      "YoutubeSynced": true
    },
    {
      "ID": "3hzOqGFBOfuWPvS8Xw9oJHAcSh_eO697S79h61ufhfr_8Ukd5gEYdg==",
      "Lang": "cs",
      "CaptionKey": "translation",
      "CaptionName": "Překlad",
      "YoutubeSynced": true
    },
    {
      "ID": "wKaxJYOuctgnHTYqwm2B9woV_UdjiyqcKnc-tgRz2115-91TZS9JoA==",
      "Lang": "cy",
      "CaptionKey": "translation",
      "CaptionName": "Cyfieithiad",
      "YoutubeSynced": true
    },
    {
      "ID": "lNl7bqCP26MAD88JC_m3htb9bkaao6P2Uk0GJxG37QmLUPKWSoIUbw==",
      "Lang": "da",
      "CaptionKey": "translation",
      "CaptionName": "Oversættelse",
      "YoutubeSynced": true
    },
    {
      "ID": "pBnUqd2k79hsm68oa6yhLOgHc_9ZRkCyZ0-xYnKSmgSXr6v-aZ0XDQ==",
      "Lang": "de",
      "CaptionKey": "translation",
      "CaptionName": "Übersetzung",
      "YoutubeSynced": true
    },
    {
      "ID": "VFtPkw2kyjyEf32JU_if7TibUZGSvKkujFnZSOrR-VEnAa3AVc7Q-D0DMtD7WI1x",
      "Lang": "el",
      "CaptionKey": "translation",
      "CaptionName": "Μετάφραση",
      "YoutubeSynced": true
    },
    {
      "ID": "wKaxJYOuctiK0-supc8db5CeiC5P2nwk1PGFhcN1AeSd5-PoBd0naQ==",
      "Lang": "en",
      "CaptionKey": "translation",
      "CaptionName": "Translation",
      "YoutubeSynced": true
    },
    {
      "ID": "vaFgt36hXZrThdtABP7A8Jj_29LB7fsIP0jT1LDmjbCWYRSKpkDlaz5EXwUuu6tm",
      "Lang": "en",
      "CaptionKey": "ruby",
      "CaptionName": "Pronunciation - IPA",
      "YoutubeSynced": true
    },
    {
      "ID": "wKaxJYOuctjyyksgSLIRcAtbSASQKbiV4g0PK-egqh6YfiFuBN99qw==",
      "Lang": "es",
      "CaptionKey": "translation",
      "CaptionName": "Traducción",
      "YoutubeSynced": true
    },
    {
      "ID": "GB7VknzhhULQ6PmARRDGob_rDdVn41lVcooQLGuh81Y=",
      "Lang": "et",
      "CaptionKey": "translation",
      "CaptionName": "Tõlge",
      "YoutubeSynced": true
    },
    {
      "ID": "Db5MrBEOI4XKXZKIyuADlILH7LrKuzyozLeaNM5P0aaEdJ10Byddmw==",
      "Lang": "eu",
      "CaptionKey": "translation",
      "CaptionName": "Itzulpena",
      "YoutubeSynced": true
    },
    {
      "ID": "DsnNBOV-_ke9ZwgtVSxbd7GJnpexTnNjeeTeA3eCmOrNsJvQJWie1w==",
      "Lang": "fa",
      "CaptionKey": "translation",
      "CaptionName": "ترجمه",
      "YoutubeSynced": true
    },
    {
      "ID": "DsnNBOV-_kc2HaAkjfT3Cm_izGJu4CIOfKs34f6EzuQzCKUMuh4IYA==",
      "Lang": "fi",
      "CaptionKey": "translation",
      "CaptionName": "Käännös",
      "YoutubeSynced": true
    },
    {
      "ID": "wKaxJYOuctgUGdaGzDEulH-59hmZGBQIDqjPQYaktceS3TWR63rhmw==",
      "Lang": "fil",
      "CaptionKey": "translation",
      "CaptionName": "Pagsasalin",
      "YoutubeSynced": true
    },
    {
      "ID": "DsnNBOV-_kfOiY7AL8zSbyMbVz5CWrV7jVsGrB7oL26TPx8JbKC2eQ==",
      "Lang": "fr",
      "CaptionKey": "translation",
      "CaptionName": "Traduction",
      "YoutubeSynced": true
    },
    {
      "ID": "DsnNBOV-_kdDWbD8ZyH3I1ueBmoW31K6RLNWkfDMvRrw849PePHmbw==",
      "Lang": "fy",
      "CaptionKey": "translation",
      "CaptionName": "Oersetting",
      "YoutubeSynced": true
    },
    {
      "ID": "VFtPkw2kyjxmtaqQfTPUoTsWajBvNO3EhkxsswE_QIa9iBbf988HYltdUdjixWkd",
      "Lang": "gd",
      "CaptionKey": "translation",
      "CaptionName": "Eadar-theangachadh",
      "YoutubeSynced": true
    },
    {
      "ID": "DsnNBOV-_kdIPV6Kolif9V12uzi6OnYPc08RBCUtSbC0vOjkmGUkSQ==",
      "Lang": "gl",
      "CaptionKey": "translation",
      "CaptionName": "Tradución",
      "YoutubeSynced": true
    },
    {
      "ID": "VFtPkw2kyjzLZGeyYSuU780WQprSKOzJFkAlq4zwUpROoKU-z81wQuXP__77A8_9",
      "Lang": "gu",
      "CaptionKey": "translation",
      "CaptionName": "અનુવાદ",
      "YoutubeSynced": true
    },
    {
      "ID": "THS9f821BHTT6kQVEgLGmsOJ5f4sjnKixEtdYg8rSw1-uhfaOJ3jyg==",
      "Lang": "ha",
      "CaptionKey": "translation",
      "CaptionName": "Fassara",
      "YoutubeSynced": true
    },
    {
      "ID": "VFtPkw2kyjy6Gpvv1W8XJTDMdf3gH8axsnotUdf0NZ73s2zQAQaUbtBuHN5g7mA2",
      "Lang": "hi",
      "CaptionKey": "translation",
      "CaptionName": "अनुवाद",
      "YoutubeSynced": true
    },
    {
      "ID": "3hzOqGFBOfuHkjD1HIi0PBPBaKoF62t7HebvmTmjOaB4xdeXsJIqEw==",
      "Lang": "hr",
      "CaptionKey": "translation",
      "CaptionName": "Prijevod",
      "YoutubeSynced": true
    },
    {
      "ID": "DsnNBOV-_kdF_xFs-P5pL-OgXtl0GamyricKXk5dqWNjHQ0jup9ZeQ==",
      "Lang": "hu",
      "CaptionKey": "translation",
      "CaptionName": "Fordítás",
      "YoutubeSynced": true
    },
    {
      "ID": "BE4RwITdpncu3LpOZinNQA80lvVbzWorVZquT5Cnto9WEI7TlBg3bysVlmao-snq6cftG-sDKpE=",
      "Lang": "hy",
      "CaptionKey": "translation",
      "CaptionName": "Թարգմանություն",
      "YoutubeSynced": true
    },
    {
      "ID": "DsnNBOV-_keMElKUT3sa_zFvBqUQyA6yDKEhI1KssT_rXpKP98ZuEA==",
      "Lang": "id",
      "CaptionKey": "translation",
      "CaptionName": "Terjemahan",
      "YoutubeSynced": true
    },
    {
      "ID": "3hzOqGFBOftZ-r1--vPaboIE2PL23qbnhCGof79Eb4lTSGXLGU064A==",
      "Lang": "ig",
      "CaptionKey": "translation",
      "CaptionName": "Ntughari",
      "YoutubeSynced": true
    },
    {
      "ID": "Db5MrBEOI4UJfKIIZkcQiuFWkdbNAqEEy97p96LkMif-HrUhXTaQPA==",
      "Lang": "is",
      "CaptionKey": "translation",
      "CaptionName": "Þýðing",
      "YoutubeSynced": true
    },
    {
      "ID": "DsnNBOV-_kdyvqmtE52xktYHjjqLTYYEBLdrAm5HDdC_0rID33S1Zg==",
      "Lang": "it",
      "CaptionKey": "translation",
      "CaptionName": "Traduzione",
      "YoutubeSynced": true
    },
    {
      "ID": "DsnNBOV-_kfhLe1oEGbvuBuCn7AkNTPXPMRLvpheae4Mdccs4tFRaQ==",
      "Lang": "iw",
      "CaptionKey": "translation",
      "CaptionName": "תרגום",
      "YoutubeSynced": true
    },
    {
      "ID": "GB7VknzhhUI1FAG7kYP497Y3LNBpv9VH7d57EBJK6Pg=",
      "Lang": "ja",
      "CaptionKey": "translation",
      "CaptionName": "翻訳",
      "YoutubeSynced": true
    },
    {
      "ID": "Db5MrBEOI4XdXEEzdP0L7lqDvU_QvPxRb0Ci6P3NuSgsDvgtd2YPYA==",
      "Lang": "jv",
      "CaptionKey": "translation",
      "CaptionName": "Ngartekne",
      "YoutubeSynced": true
    },
    {
      "ID": "JNVRPeR_mWjfy2lO6-YxzlhAlZEmdd8yos2JxvryFa8uYPXbNHbQso-NC79PYOVkGgNOzEFjG_c=",
      "Lang": "ka",
      "CaptionKey": "translation",
      "CaptionName": "თარგმანი",
      "YoutubeSynced": true
    },
    {
      "ID": "g0_hfy5GhLbSmay2D2DeNhJjvJkXzFZ2tJ05FLNSszzFwWCb6vivtQ==",
      "Lang": "kk",
      "CaptionKey": "translation",
      "CaptionName": "Аударма",
      "YoutubeSynced": true
    },
    {
      "ID": "ueRNHyzqPxsNCy9gDWWLXyQqzx6-sEy9eSplDGJH27rmgMDbvE8L_pMvudcBE1GkQjqi15AgC3s=",
      "Lang": "km",
      "CaptionKey": "translation",
      "CaptionName": "ការបកប្រែ",
      "YoutubeSynced": true
    },
    {
      "ID": "VFtPkw2kyjy0FEt22LTRrEcB1oT30XTJL8J7JWdAqrGCDAZL3dOVOoIXPChrMpIN",
      "Lang": "kn",
      "CaptionKey": "translation",
      "CaptionName": "ಅನುವಾದ",
      "YoutubeSynced": true
    },
    {
      "ID": "GB7VknzhhUJkrsV_F6Mw9qg0RlRLYXPp6KyzhYP-uiE=",
      "Lang": "ko",
      "CaptionKey": "translation",
      "CaptionName": "번역",
      "YoutubeSynced": true
    },
    {
      "ID": "GB7VknzhhUKgvOPuFsuWLCLd8bdT06EbmyL6hXnZ3gM=",
      "Lang": "ku",
      "CaptionKey": "translation",
      "CaptionName": "Werger",
      "YoutubeSynced": true
    },
    {
      "ID": "g0_hfy5GhLZzcRxLPUr0JVgyI3EUagu2B80KX_LEanyU3Gl0vVpcTg==",
      "Lang": "ky",
      "CaptionKey": "translation",
      "CaptionName": "котормо",
      "YoutubeSynced": true
    },
    {
      "ID": "pBnUqd2k79jwcBzCXCZ6X7O62iLsoRcmEWXxEaICzdMy0EyfNBKYQQ==",
      "Lang": "lb",
      "CaptionKey": "translation",
      "CaptionName": "Iwwersetzung",
      "YoutubeSynced": true
    },
    {
      "ID": "ueRNHyzqPxsDFwfQ1KiqKxUS02VhSHn8vCPn3yEaWFFskKu8RgFdT5WrBgV7Xb8iTfI6nBqyGZc=",
      "Lang": "lo",
      "CaptionKey": "translation",
      "CaptionName": "ການແປພາສາ",
      "YoutubeSynced": true
    },
    {
      "ID": "3hzOqGFBOfv-ZX05oYl-3NGY6u5Hw4-PwBvN1022gJfcra3K1rW8xQ==",
      "Lang": "lt",
      "CaptionKey": "translation",
      "CaptionName": "Vertimas",
      "YoutubeSynced": true
    },
    {
      "ID": "DsnNBOV-_kenCq3FZoDf8BVpt6FVIpOcf3GBDK3N6nZuYcOnJQ4nUQ==",
      "Lang": "lv",
      "CaptionKey": "translation",
      "CaptionName": "Tulkošana",
      "YoutubeSynced": true
    },
    {
      "ID": "wKaxJYOuctiPEadV4jQIdHPsTylJd1vXwbSjjYtCk9j-WJD3Ssaw8Q==",
      "Lang": "mg",
      "CaptionKey": "translation",
      "CaptionName": "Translation",
      "YoutubeSynced": true
    },
    {
      "ID": "FV0LnviR7P81CBSjNUvuIIJTmtwlIQdY1kBuRg0LCG9O3ZVFDnr9mgJ-Sl-6yaKm",
      "Lang": "mi",
      "CaptionKey": "translation",
      "CaptionName": "Whakamaoritanga",
      "YoutubeSynced": true
    },
    {
      "ID": "pBnUqd2k79i7KGAldwyNFqC9UP66BDXd7gpEvtMY3mPy4woUmY2L9w==",
      "Lang": "mk",
      "CaptionKey": "translation",
      "CaptionName": "Превод",
      "YoutubeSynced": true
    },
    {
      "ID": "ueRNHyzqPxvIojGcQvFLmvCBVz-KAkVp8wV2zAtf4oXJjiHxeeU2M2dFcTao0yRL8rLJM_WCW-g=",
      "Lang": "ml",
      "CaptionKey": "translation",
      "CaptionName": "വിവർത്തനം",
      "YoutubeSynced": true
    },
    {
      "ID": "PBpdv0Si_1rsMyPb7iy_2E36BbaLZPA9iiOf3ohpYyqvD9baMjdbjanbu_PkvU8U",
      "Lang": "mn",
      "CaptionKey": "translation",
      "CaptionName": "Орчуулга",
      "YoutubeSynced": true
    },
    {
      "ID": "qynOaCC83SGhQzag_N7jgI8KTb1TDjZIIUq4rvT6R_oQ9vOk0ZOrksLg_IIH3lZR",
      "Lang": "mr",
      "CaptionKey": "translation",
      "CaptionName": "भाषांतर",
      "YoutubeSynced": true
    },
    {
      "ID": "DsnNBOV-_kc7-EKbBeWSu1vNqiLJHcnmeWgzoXNjI2Bu2TQbjtbTXw==",
      "Lang": "ms",
      "CaptionKey": "translation",
      "CaptionName": "Terjemahan",
      "YoutubeSynced": true
    },
    {
      "ID": "wKaxJYOuctibt2BbsdQnAtts7rG2ZSD2YxdjX-baQl126GwGI7EAHw==",
      "Lang": "mt",
      "CaptionKey": "translation",
      "CaptionName": "Traduzzjoni",
      "YoutubeSynced": true
    },
    {
      "ID": "JNVRPeR_mWiaEOtsW7wrWIhL60twKMguoxnjgteYBSFHI4YiRNigE0zmC8eF1CsvKmSVrRJu61Q=",
      "Lang": "my",
      "CaptionKey": "translation",
      "CaptionName": "ဘာသာပြန်",
      "YoutubeSynced": true
    },
    {
      "ID": "VFtPkw2kyjwr9Q3IFyMkxHZzdDfP041FxBW_Brg1rvQFfK0rTwnaNw-9fZqbg7T9",
      "Lang": "ne",
      "CaptionKey": "translation",
      "CaptionName": "अनुवाद",
      "YoutubeSynced": true
    },
    {
      "ID": "Db5MrBEOI4W2LvtkbaPS4FHKqmrfYDer7Q-cqYY0PpnB-Rw0C5rScg==",
      "Lang": "nl",
      "CaptionKey": "translation",
      "CaptionName": "Vertaling",
      "YoutubeSynced": true
    },
    {
      "ID": "pBnUqd2k79hf7fFw8ytxW07lBdqqOZjqXMCV2DHKgZPT1Ots8PJuOQ==",
      "Lang": "no",
      "CaptionKey": "translation",
      "CaptionName": "Oversettelse",
      "YoutubeSynced": true
    },
    {
      "ID": "VFtPkw2kyjyA3t3-P5H4IxRZ3UIgwWTS3xU7Nx689rs9Ne5FnGMEIhyBnSLOpfBr",
      "Lang": "pa",
      "CaptionKey": "translation",
      "CaptionName": "ਅਨੁਵਾਦ",
      "YoutubeSynced": true
    },
    {
      "ID": "pBnUqd2k79h-NMkGHJrPxrbdShYVHdfAEjJ2hZUVPZkNDheB_9cnEA==",
      "Lang": "pl",
      "CaptionKey": "translation",
      "CaptionName": "Tłumaczenie",
      "YoutubeSynced": true
    },
    {
      "ID": "DsnNBOV-_ke_4WHCkfpt13Az6YT9QW_yQl4ZZKEZqhyi3leo5skBOw==",
      "Lang": "ps",
      "CaptionKey": "translation",
      "CaptionName": "ژباړه",
      "YoutubeSynced": true
    },
    {
      "ID": "DsnNBOV-_ketAshxufQjemeN7E7VTAl6cZ5--NLEjDSFfcUCMijIRQ==",
      "Lang": "pt",
      "CaptionKey": "translation",
      "CaptionName": "Tradução",
      "YoutubeSynced": true
    },
    {
      "ID": "Db5MrBEOI4W-Pw-eMSokS7TOYy5GMC1bVmtAvfZtCPXeeD0JZQ363A==",
      "Lang": "ro",
      "CaptionKey": "translation",
      "CaptionName": "Traducere",
      "YoutubeSynced": true
    },
    {
      "ID": "g0_hfy5GhLZ-XcPUajObCjY38Q_mpQeCEDokz31rvOsNvkGxiIhETA==",
      "Lang": "ru",
      "CaptionKey": "translation",
      "CaptionName": "Перевод",
      "YoutubeSynced": true
    },
    {
      "ID": "DsnNBOV-_kfdyQsaRo4_kEyt9t8mk1jUCKkvAXB8njeQZoMRraKfUA==",
      "Lang": "sd",
      "CaptionKey": "translation",
      "CaptionName": "ترجمو",
      "YoutubeSynced": true
    },
    {
      "ID": "ueRNHyzqPxuFDuLJV6TQ5mXyd3JnG05lDcHUZOePLb7t-wWJMu3nNzsJslDT28bpeLvPEBtKhU8=",
      "Lang": "si",
      "CaptionKey": "translation",
      "CaptionName": "පරිවර්තනය",
      "YoutubeSynced": true
    },
    {
      "ID": "THS9f821BHQt-J48Sf-7kspXjz_pog0nco8rCLErGkMtNu-hsXWMkA==",
      "Lang": "sk",
      "CaptionKey": "translation",
      "CaptionName": "preklad",
      "YoutubeSynced": true
    },
    {
      "ID": "GB7VknzhhUITydPMx89m9bBLsveUzMMRQPB9hnEC870=",
      "Lang": "sl",
      "CaptionKey": "translation",
      "CaptionName": "Prevod",
      "YoutubeSynced": true
    },
    {
      "ID": "pBnUqd2k79iy4LmC4reXGls-fmAhSMnDObUReQRPSEVlAaDeDfk95A==",
      "Lang": "sm",
      "CaptionKey": "translation",
      "CaptionName": "Faʻaliliuga",
      "YoutubeSynced": true
    },
    {
      "ID": "THS9f821BHTjaG9IUZwq5T5p9imVjh_oIJquBSriQPEnpt9x8PopoQ==",
      "Lang": "sn",
      "CaptionKey": "translation",
      "CaptionName": "Dudziro",
      "YoutubeSynced": true
    },
    {
      "ID": "Db5MrBEOI4VHrCQKsh1WUlPVOx0Q8s3tcHXzaznftkASiUJ_XHs6mw==",
      "Lang": "so",
      "CaptionKey": "translation",
      "CaptionName": "Tarjumida",
      "YoutubeSynced": true
    },
    {
      "ID": "Db5MrBEOI4Ub_kIXfcHbgEQw0HSE2uQatvD9sCWfzq0g_Wx7bmfycQ==",
      "Lang": "sq",
      "CaptionKey": "translation",
      "CaptionName": "përkthim",
      "YoutubeSynced": true
    },
    {
      "ID": "pBnUqd2k79jlENoMGyzdw8UN13C4dG3riDaC7Xd0UudFKv_mZJHPNw==",
      "Lang": "sr",
      "CaptionKey": "translation",
      "CaptionName": "Превод",
      "YoutubeSynced": true
    },
    {
      "ID": "Db5MrBEOI4WMgWTmcBi-f1rL-mgojLYUtObP9LdaKNQIxJJqor-RdQ==",
      "Lang": "st",
      "CaptionKey": "translation",
      "CaptionName": "Phetolelo",
      "YoutubeSynced": true
    },
    {
      "ID": "DsnNBOV-_kfTOAdWDAe_DKo8L4mB5bFJEvFktjQSvhb3EFDl7cAxLQ==",
      "Lang": "su",
      "CaptionKey": "translation",
      "CaptionName": "Tarjamahan",
      "YoutubeSynced": true
    },
    {
      "ID": "g0_hfy5GhLbxqGMxDJ2YBkmI_WnwjUJhPMOxKTSsfQW9XzOFuUTaBA==",
      "Lang": "sv",
      "CaptionKey": "translation",
      "CaptionName": "Översättning",
      "YoutubeSynced": true
    },
    {
      "ID": "THS9f821BHR3ZD9r4VQsOofzOmClQvGkMD0A54xkrwK_N1_XLBcRkg==",
      "Lang": "sw",
      "CaptionKey": "translation",
      "CaptionName": "Tafsiri",
      "YoutubeSynced": true
    },
    {
      "ID": "FxaACqocDHSUviQubC8sfPviLgqEMUPONW4cyLEPBTIKwMRBuPRrrnnMSxoz0epynrbWfP9ZwAsqBc1dNQr0NXgwqwulflPh",
      "Lang": "ta",
      "CaptionKey": "translation",
      "CaptionName": "மொழிபெயர்ப்பு",
      "YoutubeSynced": true
    },
    {
      "ID": "qynOaCC83SEh2m1lYhjVhU995wM_-xgAdvEiA_g5f1dN4auUBPPj7iNl-lUrl2lK",
      "Lang": "te",
      "CaptionKey": "translation",
      "CaptionName": "అనువాదం",
      "YoutubeSynced": true
    },
    {
      "ID": "g0_hfy5GhLbKu_WGQCKzSVZOn7iwdhEaNwvmjn-c-32i_kHr6php1g==",
      "Lang": "tg",
      "CaptionKey": "translation",
      "CaptionName": "Тарҷума",
      "YoutubeSynced": true
    },
    {
      "ID": "VFtPkw2kyjwZfspvpibcJuFip6Fgk1OWTKUX6qlKaX5J_YL0uu0Om8T-X_kD7QTP",
      "Lang": "th",
      "CaptionKey": "translation",
      "CaptionName": "การแปล",
      "YoutubeSynced": true
    },
    {
      "ID": "3hzOqGFBOfv7cAczqNaRi9KirHSL6ovQo7zOq09sOzb5o-YvCl5Ssw==",
      "Lang": "tr",
      "CaptionKey": "translation",
      "CaptionName": "Tercüme",
      "YoutubeSynced": true
    },
    {
      "ID": "PBpdv0Si_1qNI_DPS0HYZ1wTT4-auvFHnuq_Wt3lkB-REHrt1ezf4XQR4TsofFtE",
      "Lang": "uk",
      "CaptionKey": "translation",
      "CaptionName": "Переклад",
      "YoutubeSynced": true
    },
    {
      "ID": "DsnNBOV-_keRZOMOGWam3FsstI7lrUfnrpXaRo6Rx9JqeTyfG7TOyA==",
      "Lang": "ur",
      "CaptionKey": "translation",
      "CaptionName": "ترجمہ",
      "YoutubeSynced": true
    },
    {
      "ID": "THS9f821BHTOPKgTf9bm_BTnFkMFM3PpNUn4b-YpLTiibNa0DHbRLw==",
      "Lang": "uz",
      "CaptionKey": "translation",
      "CaptionName": "Tarjima",
      "YoutubeSynced": true
    },
    {
      "ID": "GB7VknzhhULIMusp8of06ps4i9FgW2ia4rTG0fcs4XI=",
      "Lang": "vi",
      "CaptionKey": "translation",
      "CaptionName": "Dịch",
      "YoutubeSynced": true
    },
    {
      "ID": "DsnNBOV-_keBX4bZhU3DxlEoV-ybZfqXtFOXc74luVWsrlTmtpKMnA==",
      "Lang": "xh",
      "CaptionKey": "translation",
      "CaptionName": "Inguqulelo",
      "YoutubeSynced": true
    },
    {
      "ID": "x1_bsb912srM4d-VE3-YQUiqLXfhPdFaQ7OxdN2cdeUv-uB3mIyG4bepmKpp1NAD",
      "Lang": "yi",
      "CaptionKey": "translation",
      "CaptionName": "איבערזעצונג",
      "YoutubeSynced": true
    },
    {
      "ID": "THS9f821BHQvL8KWUcrsOusqG25OUEsC1fUMt_Vm6n17__h_KhCl5g==",
      "Lang": "yo",
      "CaptionKey": "translation",
      "CaptionName": "Itumọ",
      "YoutubeSynced": true
    },
    {
      "ID": "wKaxJYOuctjvZymU-pazKtzkqQ7R8m26-wI_lVld4X2EbLGiBVa2uw==",
      "Lang": "zh-Hans",
      "CaptionKey": "translation",
      "CaptionName": "翻译",
      "YoutubeSynced": true
    },
    {
      "ID": "wKaxJYOuctjvZymU-pazKnvRAkX8GFylZwux5NaoqfvjnYW49rG6BA==",
      "Lang": "zh-Hant",
      "CaptionKey": "translation",
      "CaptionName": "翻譯",
      "YoutubeSynced": true
    },
    {
      "ID": "DsnNBOV-_ke-b5xSH3RbNz3JpoZNkd1syjLbTsVRTP2zD5LDfd6n_w==",
      "Lang": "zu",
      "CaptionKey": "translation",
      "CaptionName": "Ukuhumusha",
      "YoutubeSynced": true
    }
  ]
}