{
  "SerieName": "math-grade1-1",
  "No": 32,
  "VideoTitle": "31-10=21",
  "YoutubeDescription": "",
  "YoutubeTitle": "",
  "Time": 0,
  "Explanations": [],
  "Equations": [
    "31-10=[21:23]",
    "35-11=[24:]",
    "48-8=[40:]",
    "39-21=[18:20]",
    "44-42=[2:22]",
    "23-18=[5:]",
    "33-15=[18:]"
  ],
  "FormulaExercises": [
    {
      "Name": "A",
      "VideoFile": "math-grade1-1_32_A.mp4",
      "AnimeticCaptions": [
        {
          "Start": 0,
          "End": 3,
          "Text": "",
          "Ruby": "",
          "Lang": "",
          "ProblemNo": 3,
          "Kind": 8
        },
        {
          "Start": 3,
          "End": 6,
          "Text": "Math grade 1 #32 31-10=21",
          "Ruby": "",
          "Lang": "",
          "ProblemNo": 0,
          "Kind": 0
        },
        {
          "Start": 6,
          "End": 9,
          "Text": "",
          "Ruby": "",
          "Lang": "",
          "ProblemNo": 0,
          "Kind": 8
        },
        {
          "Start": 9,
          "End": 12,
          "Text": "",
          "Ruby": "",
          "Lang": "",
          "ProblemNo": 1,
          "Kind": 8
        },
        {
          "Start": 12,
          "End": 15,
          "Text": "",
          "Ruby": "",
          "Lang": "",
          "ProblemNo": 2,
          "Kind": 8
        },
        {
          "Start": 15,
          "End": 18,
          "Text": "",
          "Ruby": "",
          "Lang": "",
          "ProblemNo": 3,
          "Kind": 8
        },
        {
          "Start": 18,
          "End": 21,
          "Text": "",
          "Ruby": "",
          "Lang": "",
          "ProblemNo": 4,
          "Kind": 8
        },
        {
          "Start": 21,
          "End": 24,
          "Text": "",
          "Ruby": "",
          "Lang": "",
          "ProblemNo": 5,
          "Kind": 8
        },
        {
          "Start": 24,
          "End": 27,
          "Text": "",
          "Ruby": "",
          "Lang": "",
          "ProblemNo": 6,
          "Kind": 8
        },
        {
          "Start": 27,
          "End": 30,
          "Text": "",
          "Ruby": "",
          "Lang": "",
          "ProblemNo": 0,
          "Kind": 5
        },
        {
          "Start": 30,
          "End": 33,
          "Text": "",
          "Ruby": "",
          "Lang": "",
          "ProblemNo": 0,
          "Kind": 8
        },
        {
          "Start": 33,
          "End": 36,
          "Text": "",
          "Ruby": "",
          "Lang": "",
          "ProblemNo": 0,
          "Kind": 8
        },
        {
          "Start": 36,
          "End": 39,
          "Text": "",
          "Ruby": "",
          "Lang": "",
          "ProblemNo": 1,
          "Kind": 8
        },
        {
          "Start": 39,
          "End": 42,
          "Text": "",
          "Ruby": "",
          "Lang": "",
          "ProblemNo": 1,
          "Kind": 8
        },
        {
          "Start": 42,
          "End": 45,
          "Text": "",
          "Ruby": "",
          "Lang": "",
          "ProblemNo": 2,
          "Kind": 8
        },
        {
          "Start": 45,
          "End": 48,
          "Text": "",
          "Ruby": "",
          "Lang": "",
          "ProblemNo": 2,
          "Kind": 8
        },
        {
          "Start": 48,
          "End": 51,
          "Text": "",
          "Ruby": "",
          "Lang": "",
          "ProblemNo": 3,
          "Kind": 8
        },
        {
          "Start": 51,
          "End": 54,
          "Text": "",
          "Ruby": "",
          "Lang": "",
          "ProblemNo": 3,
          "Kind": 8
        },
        {
          "Start": 54,
          "End": 57,
          "Text": "",
          "Ruby": "",
          "Lang": "",
          "ProblemNo": 4,
          "Kind": 8
        },
        {
          "Start": 57,
          "End": 60,
          "Text": "",
          "Ruby": "",
          "Lang": "",
          "ProblemNo": 4,
          "Kind": 8
        },
        {
          "Start": 60,
          "End": 63,
          "Text": "",
          "Ruby": "",
          "Lang": "",
          "ProblemNo": 5,
          "Kind": 8
        },
        {
          "Start": 63,
          "End": 66,
          "Text": "",
          "Ruby": "",
          "Lang": "",
          "ProblemNo": 5,
          "Kind": 8
        },
        {
          "Start": 66,
          "End": 69,
          "Text": "",
          "Ruby": "",
          "Lang": "",
          "ProblemNo": 6,
          "Kind": 8
        },
        {
          "Start": 69,
          "End": 72,
          "Text": "",
          "Ruby": "",
          "Lang": "",
          "ProblemNo": 6,
          "Kind": 8
        },
        {
          "Start": 72,
          "End": 75,
          "Text": "",
          "Ruby": "",
          "Lang": "",
          "ProblemNo": 0,
          "Kind": 5
        },
        {
          "Start": 75,
          "End": 78,
          "Text": "",
          "Ruby": "",
          "Lang": "",
          "ProblemNo": 0,
          "Kind": 8
        },
        {
          "Start": 78,
          "End": 81,
          "Text": "",
          "Ruby": "",
          "Lang": "",
          "ProblemNo": 0,
          "Kind": 8
        },
        {
          "Start": 81,
          "End": 84,
          "Text": "",
          "Ruby": "",
          "Lang": "",
          "ProblemNo": 1,
          "Kind": 8
        },
        {
          "Start": 84,
          "End": 87,
          "Text": "",
          "Ruby": "",
          "Lang": "",
          "ProblemNo": 1,
          "Kind": 8
        },
        {
          "Start": 87,
          "End": 90,
          "Text": "",
          "Ruby": "",
          "Lang": "",
          "ProblemNo": 2,
          "Kind": 8
        },
        {
          "Start": 90,
          "End": 93,
          "Text": "",
          "Ruby": "",
          "Lang": "",
          "ProblemNo": 2,
          "Kind": 8
        },
        {
          "Start": 93,
          "End": 96,
          "Text": "",
          "Ruby": "",
          "Lang": "",
          "ProblemNo": 3,
          "Kind": 8
        },
        {
          "Start": 96,
          "End": 99,
          "Text": "",
          "Ruby": "",
          "Lang": "",
          "ProblemNo": 3,
          "Kind": 8
        },
        {
          "Start": 99,
          "End": 102,
          "Text": "",
          "Ruby": "",
          "Lang": "",
          "ProblemNo": 4,
          "Kind": 8
        },
        {
          "Start": 102,
          "End": 105,
          "Text": "",
          "Ruby": "",
          "Lang": "",
          "ProblemNo": 4,
          "Kind": 8
        },
        {
          "Start": 105,
          "End": 108,
          "Text": "",
          "Ruby": "",
          "Lang": "",
          "ProblemNo": 5,
          "Kind": 8
        },
        {
          "Start": 108,
          "End": 111,
          "Text": "",
          "Ruby": "",
          "Lang": "",
          "ProblemNo": 5,
          "Kind": 8
        },
        {
          "Start": 111,
          "End": 114,
          "Text": "",
          "Ruby": "",
          "Lang": "",
          "ProblemNo": 6,
          "Kind": 8
        },
        {
          "Start": 114,
          "End": 117,
          "Text": "",
          "Ruby": "",
          "Lang": "",
          "ProblemNo": 6,
          "Kind": 8
        },
        {
          "Start": 117,
          "End": 120,
          "Text": "",
          "Ruby": "",
          "Lang": "",
          "ProblemNo": 0,
          "Kind": 5
        },
        {
          "Start": 120,
          "End": 140,
          "Text": "{Please subscribe!}",
          "Ruby": "",
          "Lang": "en",
          "ProblemNo": 0,
          "Kind": 7
        }
      ]
    }
  ]
}