{
  "Name": "origami",
  "ID": "PLfI6UBkxvOTnTKVGMSjzTsWElc_OIEdHb",
  "DefaultLang": "sk",
  "Title": "Ľahká origami 🌻",
  "Description": "Ako robiť origami",
  "Localizations": null,
  "PlaylistTags": "Origami,折り紙,折纸,Origami",
  "Updated": true,
  "PlaylistItems": [
    {
      "ID": "UExmSTZVQmt4dk9UblRLVkdNU2p6VHNXRWxjX09JRWRIYi41NkI0NEY2RDEwNTU3Q0M2",
      "VideoID": "A8mfvicTHu4",
      "VideoFile": "origami_Airplane.mp4"
    },
    {
      "ID": "UExmSTZVQmt4dk9UblRLVkdNU2p6VHNXRWxjX09JRWRIYi4yODlGNEE0NkRGMEEzMEQy",
      "VideoID": "37YBHmIC-IE",
      "VideoFile": "origami_Balloon.mp4"
    },
    {
      "ID": "UExmSTZVQmt4dk9UblRLVkdNU2p6VHNXRWxjX09JRWRIYi4wMTcyMDhGQUE4NTIzM0Y5",
      "VideoID": "vewIIpC5W8A",
      "VideoFile": "origami_Camera.mp4"
    },
    {
      "ID": "UExmSTZVQmt4dk9UblRLVkdNU2p6VHNXRWxjX09JRWRIYi41MjE1MkI0OTQ2QzJGNzNG",
      "VideoID": "e7XQt4-ux4Q",
      "VideoFile": "origami_Flying bird.mp4"
    }
  ]
}