{
  "Name": "origami",
  "ID": "PLfI6UBkxvOTkYPh80UKX8XgFPRGhiI-yB",
  "DefaultLang": "lo",
  "Title": "Origami ງ່າຍ 🌻",
  "Description": "ວິທີການເຮັດໃຫ້ origami",
  "Localizations": null,
  "PlaylistTags": "Origami,折り紙,折纸,Origami",
  "Updated": true,
  "PlaylistItems": [
    {
      "ID": "UExmSTZVQmt4dk9Ua1lQaDgwVUtYOFhnRlBSR2hpSS15Qi41NkI0NEY2RDEwNTU3Q0M2",
      "VideoID": "A8mfvicTHu4",
      "VideoFile": "origami_Airplane.mp4"
    },
    {
      "ID": "UExmSTZVQmt4dk9Ua1lQaDgwVUtYOFhnRlBSR2hpSS15Qi4yODlGNEE0NkRGMEEzMEQy",
      "VideoID": "37YBHmIC-IE",
      "VideoFile": "origami_Balloon.mp4"
    },
    {
      "ID": "UExmSTZVQmt4dk9Ua1lQaDgwVUtYOFhnRlBSR2hpSS15Qi4wMTcyMDhGQUE4NTIzM0Y5",
      "VideoID": "vewIIpC5W8A",
      "VideoFile": "origami_Camera.mp4"
    },
    {
      "ID": "UExmSTZVQmt4dk9Ua1lQaDgwVUtYOFhnRlBSR2hpSS15Qi41MjE1MkI0OTQ2QzJGNzNG",
      "VideoID": "e7XQt4-ux4Q",
      "VideoFile": "origami_Flying bird.mp4"
    }
  ]
}