{
  "Name": "origami",
  "ID": "PLfI6UBkxvOTnOGQEUFk7epH71mSn69wug",
  "DefaultLang": "lt",
  "Title": "Lengva origami 🌻",
  "Description": "Kaip padaryti origami",
  "Localizations": null,
  "PlaylistTags": "Origami,折り紙,折纸,Origami",
  "Updated": true,
  "PlaylistItems": [
    {
      "ID": "UExmSTZVQmt4dk9Ubk9HUUVVRms3ZXBINzFtU242OXd1Zy41NkI0NEY2RDEwNTU3Q0M2",
      "VideoID": "A8mfvicTHu4",
      "VideoFile": "origami_Airplane.mp4"
    },
    {
      "ID": "UExmSTZVQmt4dk9Ubk9HUUVVRms3ZXBINzFtU242OXd1Zy4yODlGNEE0NkRGMEEzMEQy",
      "VideoID": "37YBHmIC-IE",
      "VideoFile": "origami_Balloon.mp4"
    },
    {
      "ID": "UExmSTZVQmt4dk9Ubk9HUUVVRms3ZXBINzFtU242OXd1Zy4wMTcyMDhGQUE4NTIzM0Y5",
      "VideoID": "vewIIpC5W8A",
      "VideoFile": "origami_Camera.mp4"
    },
    {
      "ID": "UExmSTZVQmt4dk9Ubk9HUUVVRms3ZXBINzFtU242OXd1Zy41MjE1MkI0OTQ2QzJGNzNG",
      "VideoID": "e7XQt4-ux4Q",
      "VideoFile": "origami_Flying bird.mp4"
    }
  ]
}