{
  "Name": "origami",
  "ID": "PLfI6UBkxvOTntT6tSVfkd-Z-HyyBSa2Ea",
  "DefaultLang": "en",
  "Title": "Easy origami 🌻",
  "Description": "How to make origami",
  "Localizations": [
    {
      "Lang": "af",
      "Title": "Maklik origami 🌻",
      "Description": "Hoe om origami maak"
    },
    {
      "Lang": "am",
      "Title": "ቀላል የወረቀት 🌻",
      "Description": "የወረቀት ማድረግ እንደሚችሉ"
    },
    {
      "Lang": "ar",
      "Title": "من السهل اوريغامي 🌻",
      "Description": "كيفية جعل اوريغامي"
    },
    {
      "Lang": "az",
      "Title": "Asan origami 🌻",
      "Description": "Origami etmək üçün necə"
    },
    {
      "Lang": "be",
      "Title": "Лёгка арыгамі 🌻",
      "Description": "Як зрабіць арыгамі"
    },
    {
      "Lang": "bg",
      "Title": "Лесно оригами 🌻",
      "Description": "Как да се направи оригами"
    },
    {
      "Lang": "bn",
      "Title": "সহজ অরিগ্যামি 🌻",
      "Description": "কিভাবে অরিগ্যামি করতে"
    },
    {
      "Lang": "bs",
      "Title": "Lako origami 🌻",
      "Description": "Kako napraviti origami"
    },
    {
      "Lang": "ca",
      "Title": "Fàcil d'Origami 🌻",
      "Description": "Com fer origami"
    },
    {
      "Lang": "co",
      "Title": "Facili fari l 'origami 🌻",
      "Description": "Pasta fatta 'origami"
    },
    {
      "Lang": "cs",
      "Title": "Snadná origami 🌻",
      "Description": "Jak dělat origami"
    },
    {
      "Lang": "cy",
      "Title": "Origami hawdd 🌻",
      "Description": "Sut i wneud origami"
    },
    {
      "Lang": "da",
      "Title": "Let origami 🌻",
      "Description": "Hvordan man laver origami"
    },
    {
      "Lang": "de",
      "Title": "Leicht Origami 🌻",
      "Description": "Wie man Origami"
    },
    {
      "Lang": "el",
      "Title": "Εύκολο origami 🌻",
      "Description": "Πώς να κάνει origami"
    },
    {
      "Lang": "en",
      "Title": "Easy origami 🌻",
      "Description": "How to make origami"
    },
    {
      "Lang": "es",
      "Title": "Fácil de Origami 🌻",
      "Description": "Cómo hacer origami"
    },
    {
      "Lang": "et",
      "Title": "Lihtne origami 🌻",
      "Description": "Kuidas teha origami"
    },
    {
      "Lang": "eu",
      "Title": "Papiroflexia erraza 🌻",
      "Description": "Papiroflexia nola egin"
    },
    {
      "Lang": "fa",
      "Title": "اریگامی آسان 🌻",
      "Description": "چگونه به اریگامی"
    },
    {
      "Lang": "fi",
      "Title": "Helppo origami 🌻",
      "Description": "Miten origami"
    },
    {
      "Lang": "fil",
      "Title": "Madaling Origami 🌻",
      "Description": "Kung paano gumawa ng Origami"
    },
    {
      "Lang": "fr",
      "Title": "Facile origamis 🌻",
      "Description": "Comment faire l'origami"
    },
    {
      "Lang": "fy",
      "Title": "Easy Origami 🌻",
      "Description": "Hoe te meitsjen Origami"
    },
    {
      "Lang": "gd",
      "Title": "Furasta origami 🌻",
      "Description": "Ciamar a dhèanamh origami"
    },
    {
      "Lang": "gl",
      "Title": "Fácil origami 🌻",
      "Description": "Como facer origami"
    },
    {
      "Lang": "gu",
      "Title": "સરળ ઓરિગામિ 🌻",
      "Description": "કેવી રીતે ઓરિગામિ બનાવવા માટે"
    },
    {
      "Lang": "ha",
      "Title": "Sauki Origami 🌻",
      "Description": "Yadda za a yi Origami"
    },
    {
      "Lang": "hi",
      "Title": "आसान ओरिगेमी 🌻",
      "Description": "कैसे ओरिगेमी बनाने के लिए"
    },
    {
      "Lang": "hr",
      "Title": "Lako origami 🌻",
      "Description": "Kako napraviti origami"
    },
    {
      "Lang": "hu",
      "Title": "Egyszerű origami 🌻",
      "Description": "Hogyan origami"
    },
    {
      "Lang": "hy",
      "Title": "Հեշտ Origami 🌻",
      "Description": "Թե ինչպես կարելի է անել, origami"
    },
    {
      "Lang": "id",
      "Title": "Origami mudah 🌻",
      "Description": "Bagaimana membuat origami"
    },
    {
      "Lang": "ig",
      "Title": "Mfe Origami 🌻",
      "Description": "Esi mee ka Origami"
    },
    {
      "Lang": "is",
      "Title": "Auðvelt Origami 🌻",
      "Description": "Verðuru að gera Origami"
    },
    {
      "Lang": "it",
      "Title": "Facile origami 🌻",
      "Description": "Come fare origami"
    },
    {
      "Lang": "iw",
      "Title": "אוריגמי קל 🌻",
      "Description": "איך לעשות אוריגמי"
    },
    {
      "Lang": "ja",
      "Title": "簡単な折り紙 🌻",
      "Description": "折り紙の作り方"
    },
    {
      "Lang": "jv",
      "Title": "Origami gampang 🌻",
      "Description": "Carane nggawe origami"
    },
    {
      "Lang": "ka",
      "Title": "მარტივი origami 🌻",
      "Description": "როგორ, რათა origami"
    },
    {
      "Lang": "kk",
      "Title": "Оңай оригами 🌻",
      "Description": "Оригами қалай жасауға"
    },
    {
      "Lang": "km",
      "Title": "Origami ជាការងាយស្រួល 🌻",
      "Description": "របៀបដើម្បីធ្វើឱ្យ origami"
    },
    {
      "Lang": "kn",
      "Title": "ಸುಲಭ ಒರಿಗಮಿ 🌻",
      "Description": "ಒರಿಗಮಿ ಮಾಡಲು ಹೇಗೆ"
    },
    {
      "Lang": "ko",
      "Title": "쉬운 종이 접기 🌻",
      "Description": "종이 접기를 만드는 방법"
    },
    {
      "Lang": "ku",
      "Title": "Origami bi hêsanî 🌻",
      "Description": "Çawa ji bo ku origami"
    },
    {
      "Lang": "ky",
      "Title": "Жеңил оригами 🌻",
      "Description": "Оригами жасоого кантип"
    },
    {
      "Lang": "lb",
      "Title": "Einfach ORIGAMI 🌻",
      "Description": "Wéi ze maachen ORIGAMI"
    },
    {
      "Lang": "lo",
      "Title": "Origami ງ່າຍ 🌻",
      "Description": "ວິທີການເຮັດໃຫ້ origami"
    },
    {
      "Lang": "lt",
      "Title": "Lengva origami 🌻",
      "Description": "Kaip padaryti origami"
    },
    {
      "Lang": "lv",
      "Title": "Viegli origami 🌻",
      "Description": "Kā padarīt origami"
    },
    {
      "Lang": "mg",
      "Title": "Mora origami 🌻",
      "Description": "Ny fomba hanaovana origami"
    },
    {
      "Lang": "mi",
      "Title": "Orikami ngāwari 🌻",
      "Description": "Me pehea ki te hanga orikami"
    },
    {
      "Lang": "mk",
      "Title": "Лесно оригами 🌻",
      "Description": "Како да се направи оригами"
    },
    {
      "Lang": "ml",
      "Title": "എളുപ്പത്തിൽ ഒറിഗമി 🌻",
      "Description": "എങ്ങനെ ഒറിഗമി നടത്താൻ"
    },
    {
      "Lang": "mn",
      "Title": "Хялбар тогоруу 🌻",
      "Description": "Тогоруу хийж хэрхэн"
    },
    {
      "Lang": "mr",
      "Title": "सोपे ओरिगामी 🌻",
      "Description": "ओरिगामी कसे"
    },
    {
      "Lang": "ms",
      "Title": "Origami mudah 🌻",
      "Description": "Bagaimana untuk membuat origami"
    },
    {
      "Lang": "mt",
      "Title": "Origami faċli 🌻",
      "Description": "Kif jagħmlu origami"
    },
    {
      "Lang": "my",
      "Title": "လွယ်ကူသောစက္ကူခေါက်ခြင်း 🌻",
      "Description": "စက္ကူခေါက်ခြင်းအောင်ဘယ်လို"
    },
    {
      "Lang": "ne",
      "Title": "सजिलो ओरिगेमी 🌻",
      "Description": "ओरिगेमी कसरी बनाउने"
    },
    {
      "Lang": "nl",
      "Title": "Makkelijk origami 🌻",
      "Description": "Hoe origami maken"
    },
    {
      "Lang": "no",
      "Title": "Enkel origami 🌻",
      "Description": "Hvordan å lage origami"
    },
    {
      "Lang": "pa",
      "Title": "ਆਸਾਨ Origami 🌻",
      "Description": "ਨੂੰ Origami ਕਰਨ ਲਈ"
    },
    {
      "Lang": "pl",
      "Title": "Proste origami 🌻",
      "Description": "Jak zrobić origami"
    },
    {
      "Lang": "ps",
      "Title": "آسانه origami 🌻",
      "Description": "څنګه origami کړي"
    },
    {
      "Lang": "pt",
      "Title": "Fácil origami 🌻",
      "Description": "Como fazer origami"
    },
    {
      "Lang": "ro",
      "Title": "Origami ușor 🌻",
      "Description": "Modul de a face origami"
    },
    {
      "Lang": "ru",
      "Title": "Легко оригами 🌻",
      "Description": "Как сделать оригами"
    },
    {
      "Lang": "sd",
      "Title": "آسان origami 🌻",
      "Description": "ڪيئن origami ڪرڻ"
    },
    {
      "Lang": "si",
      "Title": "පහසු ඔරිගාමි 🌻",
      "Description": "ඔරිගාමි බවට පත් කර ගන්නේ කෙසේද"
    },
    {
      "Lang": "sk",
      "Title": "Ľahká origami 🌻",
      "Description": "Ako robiť origami"
    },
    {
      "Lang": "sl",
      "Title": "Preprosta origami 🌻",
      "Description": "Kako narediti origami"
    },
    {
      "Lang": "sm",
      "Title": "Origami faigofie 🌻",
      "Description": "Le auala e faia origami"
    },
    {
      "Lang": "sn",
      "Title": "Nyore Kurumi 🌻",
      "Description": "Sei kuti Kurumi"
    },
    {
      "Lang": "so",
      "Title": "Origami fudud 🌻",
      "Description": "Sida loo sameeyo origami"
    },
    {
      "Lang": "sq",
      "Title": "Origami lehtë 🌻",
      "Description": "Si për të bërë origami"
    },
    {
      "Lang": "sr",
      "Title": "Лако origami 🌻",
      "Description": "Како направити оригами"
    },
    {
      "Lang": "st",
      "Title": "Bonolo origami 🌻",
      "Description": "Kamoo ho ka etsa origami"
    },
    {
      "Lang": "su",
      "Title": "Origami gampang 🌻",
      "Description": "Kumaha carana sangkan origami"
    },
    {
      "Lang": "sv",
      "Title": "Lätt origami 🌻",
      "Description": "Hur man gör origami"
    },
    {
      "Lang": "sw",
      "Title": "Rahisi origami 🌻",
      "Description": "Jinsi ya kufanya origami"
    },
    {
      "Lang": "ta",
      "Title": "எளிதாக ஓரிகமி 🌻",
      "Description": "ஓரிகமி எப்படி"
    },
    {
      "Lang": "te",
      "Title": "సులభంగా origami 🌻",
      "Description": "Origami చేయడానికి ఎలా"
    },
    {
      "Lang": "tg",
      "Title": "Origami осон 🌻",
      "Description": "Чӣ тавр ба origami"
    },
    {
      "Lang": "th",
      "Title": "พับง่าย 🌻",
      "Description": "วิธีที่จะทำให้พับ"
    },
    {
      "Lang": "tr",
      "Title": "Kolay origami 🌻",
      "Description": "Origami nasıl"
    },
    {
      "Lang": "uk",
      "Title": "Легко орігамі 🌻",
      "Description": "Як зробити орігамі"
    },
    {
      "Lang": "ur",
      "Title": "آسان اوریگامی 🌻",
      "Description": "اوریگامی بنانے کا طریقہ"
    },
    {
      "Lang": "uz",
      "Title": "Oson origami 🌻",
      "Description": "Origami qilish qanday"
    },
    {
      "Lang": "vi",
      "Title": "Dễ dàng origami 🌻",
      "Description": "Làm thế nào để làm cho origami"
    },
    {
      "Lang": "xh",
      "Title": "Lula origami 🌻",
      "Description": "Indlela yokwenza origami"
    },
    {
      "Lang": "yi",
      "Title": "גרינג אָריגאַמי 🌻",
      "Description": "ווי צו מאַכן אָריגאַמי"
    },
    {
      "Lang": "yo",
      "Title": "Rorun origami 🌻",
      "Description": "Bi o lati ṣe origami"
    },
    {
      "Lang": "zh-Hans",
      "Title": "易折纸 🌻",
      "Description": "如何使折纸"
    },
    {
      "Lang": "zh-Hant",
      "Title": "易摺紙 🌻",
      "Description": "如何使摺紙"
    },
    {
      "Lang": "zu",
      "Title": "Origami lula 🌻",
      "Description": "Indlela yokwenza origami"
    }
  ],
  "PlaylistTags": "Origami,折り紙,折纸,Origami",
  "Updated": true,
  "PlaylistItems": [
    {
      "ID": "UExmSTZVQmt4dk9UbnRUNnRTVmZrZC1aLUh5eUJTYTJFYS41NkI0NEY2RDEwNTU3Q0M2",
      "VideoID": "A8mfvicTHu4",
      "VideoFile": "origami_Airplane.mp4"
    },
    {
      "ID": "UExmSTZVQmt4dk9UbnRUNnRTVmZrZC1aLUh5eUJTYTJFYS4yODlGNEE0NkRGMEEzMEQy",
      "VideoID": "37YBHmIC-IE",
      "VideoFile": "origami_Balloon.mp4"
    },
    {
      "ID": "UExmSTZVQmt4dk9UbnRUNnRTVmZrZC1aLUh5eUJTYTJFYS4wMTcyMDhGQUE4NTIzM0Y5",
      "VideoID": "vewIIpC5W8A",
      "VideoFile": "origami_Camera.mp4"
    },
    {
      "ID": "UExmSTZVQmt4dk9UbnRUNnRTVmZrZC1aLUh5eUJTYTJFYS41MjE1MkI0OTQ2QzJGNzNG",
      "VideoID": "e7XQt4-ux4Q",
      "VideoFile": "origami_Flying bird.mp4"
    }
  ]
}